{
  "header": {
    "version": 4,
    "description": "Karaoke Mugen Karaoke Data File"
  },
  "medias": [
    {
      "version": "Default",
      "filename": "CHI - Quanzhi Gaoshou (drama) - ED - Rongyao de Zhanchang.mp4",
      "audiogain": -4.19,
      "loudnorm": "-13.78,-0.08,18.00,-25.05,-0.40",
      "filesize": 26055132,
      "duration": 149,
      "default": true,
      "lyrics": [
        {
          "filename": "CHI - Quanzhi Gaoshou (drama) - ED - Rongyao de Zhanchang.ass",
          "default": true,
          "version": "Default",
          "subchecksum": "d41493bb64b4b27236f0a85730632b66"
        }
      ]
    }
  ],
  "data": {
    "created_at": "2021-03-11T19:13:16.144Z",
    "kid": "a377504d-cb22-4f22-8c89-e6ce0136bb25",
    "modified_at": "2021-07-12T16:33:08.321Z",
    "repository": "kara.moe",
    "tags": {
      "authors": [
        "8605a8b9-3b45-44b9-9d98-1a25096bf702"
      ],
      "collections": [
        "c7db86a0-ff64-4044-9be4-66dd1ef1d1c1"
      ],
      "creators": [
        "bba08c86-f46b-42af-9b76-06a07a6cdbe2",
        "f1bf3c22-8c26-4c50-be31-1c9407cbde64"
      ],
      "families": [
        "5391f9fe-638c-415f-8dc9-958e3a2c5787"
      ],
      "groups": [
        "ae613721-1fbe-480d-ba6b-d6d0702b184d"
      ],
      "langs": [
        "ad109694-16f7-4386-b8c2-a6db05ad3530"
      ],
      "origins": [
        "28650021-2b2a-4a55-aff4-85dd4896c687"
      ],
      "series": [
        "c950b5da-bf40-49b8-bee5-3ec979594280"
      ],
      "singers": [
        "d957ea11-95c5-4be7-896b-971b597977fb"
      ],
      "songtypes": [
        "38c77c56-2b95-4040-b676-0994a8cb0597"
      ],
      "franchises": [
        "2c6dbe23-78a0-47cb-98f7-f56e6d1ec41b"
      ]
    },
    "title": "Róngyào de Zhànchǎng",
    "titles": {
      "eng": "Róngyào de Zhànchǎng"
    },
    "year": 2019
  }
}