{
  "header": {
    "version": 4,
    "description": "Karaoke Mugen Karaoke Data File"
  },
  "medias": [
    {
      "version": "Default",
      "filename": "CHI - Da Li Si Rizhi 2nd Season - ONA OP - Yi You Zai.mp4",
      "audiogain": -9.59,
      "loudnorm": "-7.50,0.44,5.30,-17.96,-0.91",
      "filesize": 61715613,
      "duration": 119,
      "default": true,
      "lyrics": [
        {
          "filename": "CHI - Da Li Si Rizhi 2nd Season - ONA OP - Yi You Zai.ass",
          "default": true,
          "version": "Default"
        }
      ]
    }
  ],
  "data": {
    "created_at": "2023-02-04T21:49:26.440Z",
    "ignoreHooks": false,
    "kid": "f81db416-5aca-4f0a-8587-10a5c77d6bf9",
    "modified_at": "2023-02-04T23:02:15.487Z",
    "repository": "kara.moe",
    "tags": {
      "authors": [
        "af46fa57-30b5-4241-a30a-2abaeb058a1e"
      ],
      "collections": [
        "c7db86a0-ff64-4044-9be4-66dd1ef1d1c1"
      ],
      "creators": [
        "72c1d71d-e0f2-4fde-a628-8d33377f5b0a"
      ],
      "families": [
        "0377db02-3af6-43b8-9b08-c759df3d25c3"
      ],
      "groups": [
        "8e209ae4-4381-438f-89dc-1b21752027d2",
        "df5f446f-d161-4760-8e0c-822e70ea03ae"
      ],
      "langs": [
        "ad109694-16f7-4386-b8c2-a6db05ad3530"
      ],
      "origins": [
        "8db3e098-06ef-45e5-bba9-cb04a21c1e66"
      ],
      "series": [
        "f41027c0-6646-4423-9eb6-625eee0b6ad2"
      ],
      "singers": [
        "c6e0e15a-5168-4b7a-ac18-de6fea700200"
      ],
      "songtypes": [
        "f02ad9b3-0bd9-4aad-85b3-9976739ba0e4"
      ],
      "songwriters": [
        "7ef38d69-082a-476b-b0c1-3179e542e620",
        "67910eee-001e-4df0-8ad5-82dec434da6c",
        "6f32ca2e-5f0f-4840-b5d3-efc3dcb31bf0"
      ]
    },
    "titles": {
      "chi": "歌词",
      "qro": "Yi You Zai"
    },
    "titles_default_language": "qro",
    "year": 2022
  }
}