{
  "header": {
    "version": 4,
    "description": "Karaoke Mugen Karaoke Data File"
  },
  "medias": [
    {
      "version": "Default",
      "filename": "ENG - BACKSTREET BOYS - MV - Everybody (Backstreet's Back).mp4",
      "audiogain": -9.39,
      "loudnorm": "-9.19,2.24,9.90,-19.51,-1.07",
      "filesize": 120956759,
      "duration": 225,
      "default": true,
      "lyrics": [
        {
          "filename": "ENG - BACKSTREET BOYS - MV - Everybody (Backstreet's Back).ass",
          "default": true,
          "version": "Default"
        }
      ]
    }
  ],
  "data": {
    "created_at": "2022-04-18T21:03:41.936Z",
    "ignoreHooks": false,
    "kid": "79dfb357-2b23-4524-b144-20da97aac26d",
    "modified_at": "2022-04-18T21:57:07.616Z",
    "repository": "kara.moe",
    "tags": {
      "authors": [
        "70e26885-c0b5-4a01-b95b-2f492b8a8f10"
      ],
      "collections": [
        "efe171c0-e8a1-4d03-98c0-60ecf741ad52"
      ],
      "creators": [
        "cca56dad-2503-4a51-bc90-3490b4e979f4"
      ],
      "families": [
        "5391f9fe-638c-415f-8dc9-958e3a2c5787"
      ],
      "groups": [
        "24db50aa-a126-4d34-a48a-e45db79c4245"
      ],
      "langs": [
        "de5eda1c-5fb3-46a6-9606-d4554fc5a1d6"
      ],
      "singers": [
        "49463b1a-6081-480b-87d9-30c4eae494f4"
      ],
      "songtypes": [
        "7be1b15c-cff8-4b37-a649-5c90f3d569a9"
      ],
      "songwriters": [
        "34f37834-cec2-4d5c-9d72-d5ed8c1edc4d",
        "89668a90-f7cb-4ba2-90ec-9fa157ce05ff"
      ]
    },
    "titles": {
      "eng": "Everybody (Backstreet's Back)"
    },
    "titles_default_language": "eng",
    "title": "Everybody (Backstreet's Back)",
    "year": 1997
  }
}