{
  "header": {
    "version": 4,
    "description": "Karaoke Mugen Karaoke Data File"
  },
  "medias": [
    {
      "version": "Default",
      "filename": "ENG - Tony Hawk's Pro Skater - GAME PSX AMV - Superman.mp4",
      "audiogain": -8.15,
      "loudnorm": "-9.33,1.05,2.50,-19.35,-0.42",
      "filesize": 20872164,
      "duration": 184,
      "default": true,
      "lyrics": [
        {
          "filename": "ENG - Tony Hawk's Pro Skater - GAME PSX AMV - Superman.ass",
          "default": true,
          "version": "Default"
        }
      ]
    }
  ],
  "data": {
    "created_at": "2022-07-21T21:04:56.399Z",
    "ignoreHooks": false,
    "kid": "fdc0e896-b181-4fa1-8e0c-d0c91de63409",
    "modified_at": "2022-07-21T21:06:35.404Z",
    "repository": "kara.moe",
    "tags": {
      "authors": [
        "45c26d75-1251-4c7a-bc40-d00821fdf45a"
      ],
      "collections": [
        "c7db86a0-ff64-4044-9be4-66dd1ef1d1c1"
      ],
      "creators": [
        "bef0165f-99fc-40fb-b1b1-62f10f443d1e"
      ],
      "families": [
        "dbedd6b3-d125-4cd8-aa32-c4175e4ca3a3"
      ],
      "groups": [
        "24db50aa-a126-4d34-a48a-e45db79c4245"
      ],
      "langs": [
        "de5eda1c-5fb3-46a6-9606-d4554fc5a1d6"
      ],
      "platforms": [
        "f84b68ac-943a-495a-9c6e-d90ec959b19e"
      ],
      "series": [
        "acb40c00-2fdc-44b8-b905-f8019da2e7f0"
      ],
      "singers": [
        "b76fa5d8-8fa0-4beb-b76e-5f50f7adb7b6"
      ],
      "songtypes": [
        "a6c79ce5-89ee-4d50-afe8-3abd7317f6c2"
      ],
      "songwriters": [
        "937f2a9f-b1c1-46c6-bb6d-779833a58f6b"
      ]
    },
    "titles": {
      "eng": "Superman"
    },
    "titles_default_language": "eng",
    "title": "Superman",
    "year": 1999
  }
}