{
  "header": {
    "version": 4,
    "description": "Karaoke Mugen Karaoke Data File"
  },
  "medias": [
    {
      "version": "Default",
      "filename": "ENG - Sabaton - MV - The Last Stand.mp4",
      "audiogain": -10.22,
      "loudnorm": "-7.08,1.80,3.10,-17.45,-0.73",
      "filesize": 97081143,
      "duration": 235,
      "default": true,
      "lyrics": [
        {
          "filename": "ENG - Sabaton - MV - The Last Stand.ass",
          "default": true,
          "version": "Default"
        }
      ]
    }
  ],
  "data": {
    "created_at": "2021-10-23T21:17:54.142Z",
    "kid": "37cb7ef6-80de-4818-b30b-57d2f6a1f448",
    "modified_at": "2021-11-11T22:55:47.352Z",
    "repository": "kara.moe",
    "tags": {
      "authors": [
        "278c6742-0b75-43dd-b317-2ea112952b4a"
      ],
      "collections": [
        "efe171c0-e8a1-4d03-98c0-60ecf741ad52"
      ],
      "creators": [
        "e5cd87bc-3182-410d-86de-c224576dfc06"
      ],
      "families": [
        "5391f9fe-638c-415f-8dc9-958e3a2c5787"
      ],
      "groups": [
        "8c22c899-b3ed-42da-a548-ce00f950798b",
        "ae613721-1fbe-480d-ba6b-d6d0702b184d"
      ],
      "langs": [
        "de5eda1c-5fb3-46a6-9606-d4554fc5a1d6"
      ],
      "singers": [
        "7da8d70f-e2db-432c-8156-301916ad0440"
      ],
      "songtypes": [
        "7be1b15c-cff8-4b37-a649-5c90f3d569a9"
      ],
      "songwriters": [
        "2ee25ec6-2224-4032-9bc5-97693d7d2df7",
        "7b8233a7-0c86-495d-bdcb-d9dda748be4b",
        "9f39e14a-d110-499e-b87b-1cc7174caacc"
      ]
    },
    "titles": {
      "eng": "The Last Stand"
    },
    "title": "The Last Stand",
    "year": 2016
  }
}