{
  "header": {
    "version": 4,
    "description": "Karaoke Mugen Karaoke Data File"
  },
  "medias": [
    {
      "version": "Default",
      "filename": "ENG - Jujutsu Kaisen - ED - LOST IN PARADISE.mp4",
      "audiogain": 4.56,
      "loudnorm": "-21.50,-12.17,3.10,-31.56,-0.59",
      "filesize": 21986474,
      "duration": 89,
      "default": true,
      "lyrics": [
        {
          "filename": "ENG - Jujutsu Kaisen - ED - LOST IN PARADISE.ass",
          "default": true,
          "version": "Default"
        }
      ]
    }
  ],
  "data": {
    "created_at": "2020-10-26T21:58:29.035Z",
    "kid": "c4916add-0958-47f9-b764-96ea14266355",
    "modified_at": "2022-07-26T14:08:59.482Z",
    "repository": "kara.moe",
    "tags": {
      "authors": [
        "87096920-112f-485f-a310-04156cb4624d"
      ],
      "creators": [
        "0a86e9ea-5e17-4371-8f2a-60c818324d58"
      ],
      "families": [
        "0377db02-3af6-43b8-9b08-c759df3d25c3"
      ],
      "genres": [
        "a0aeef4a-6428-45ff-a6e1-468b595930c2"
      ],
      "groups": [
        "60defa7b-774e-4680-8321-51b742c2e009",
        "8e209ae4-4381-438f-89dc-1b21752027d2",
        "9a8e0fbc-dcae-4989-be82-7cad3436f1f5",
        "f53332f8-daed-4ac5-97c9-64239b520db0"
      ],
      "langs": [
        "4dcf9614-7914-42aa-99f4-dbce2e059133",
        "de5eda1c-5fb3-46a6-9606-d4554fc5a1d6"
      ],
      "origins": [
        "938de218-5343-4865-94d3-fb33f2eaa152"
      ],
      "series": [
        "a1745d05-8aa6-45ad-bddb-2398275b0d83"
      ],
      "singers": [
        "d93776ae-70f0-4829-8f52-979a2cb2339f"
      ],
      "songtypes": [
        "38c77c56-2b95-4040-b676-0994a8cb0597"
      ],
      "songwriters": [
        "f6d759c3-3383-44e0-8881-dce91c7f45a3"
      ],
      "collections": [
        "c7db86a0-ff64-4044-9be4-66dd1ef1d1c1"
      ],
      "franchises": [
        "a1745d05-8aa6-45ad-bddb-2398275b0d83"
      ]
    },
    "titles": {
      "eng": "LOST IN PARADISE"
    },
    "titles_default_language": "eng",
    "title": "LOST IN PARADISE",
    "year": 2020
  }
}