{
  "header": {
    "version": 4,
    "description": "Karaoke Mugen Karaoke Data File"
  },
  "medias": [
    {
      "version": "Default",
      "filename": "ENG - Neutral Milk Hotel - AUDIO - My Dream Girl Don't Exist.mp3",
      "audiogain": -5.22,
      "loudnorm": "-12.27,-2.45,2.40,-22.41,0.33",
      "filesize": 9365385,
      "duration": 229,
      "default": true,
      "lyrics": [
        {
          "filename": "ENG - Neutral Milk Hotel - AUDIO - My Dream Girl Don't Exist.ass",
          "default": true,
          "version": "Default"
        }
      ]
    }
  ],
  "data": {
    "created_at": "2022-07-20T20:37:50.115Z",
    "ignoreHooks": false,
    "kid": "47e7cd65-87b0-405f-81c6-420bdea12337",
    "modified_at": "2022-07-20T20:37:50.433Z",
    "repository": "kara.moe",
    "tags": {
      "authors": [
        "f253ba7c-eb85-49a1-ab8a-24c51ed9542c"
      ],
      "collections": [
        "efe171c0-e8a1-4d03-98c0-60ecf741ad52"
      ],
      "creators": [
        "7db78eb3-bf5b-42c3-b1fe-0b26578db111"
      ],
      "groups": [
        "df5f446f-d161-4760-8e0c-822e70ea03ae",
        "ae613721-1fbe-480d-ba6b-d6d0702b184d"
      ],
      "langs": [
        "de5eda1c-5fb3-46a6-9606-d4554fc5a1d6"
      ],
      "singers": [
        "4278c1d7-4fb6-41c5-94d7-e97d9f2a0702"
      ],
      "songtypes": [
        "42a262ae-acba-4ab5-a446-c5789c96c821"
      ],
      "songwriters": [
        "d388680c-d690-4b0a-a6d4-519b8263b0ef"
      ]
    },
    "titles": {
      "eng": "My Dream Girl Don't Exist"
    },
    "titles_default_language": "eng",
    "title": "My Dream Girl Don't Exist",
    "year": 2011
  }
}