{
  "header": {
    "version": 4,
    "description": "Karaoke Mugen Karaoke Data File"
  },
  "medias": [
    {
      "version": "Default",
      "filename": "ENG - Gyrotron - GAME AMV - EXTREME SOUNDCLOWN MEGAMIX V.mp4",
      "audiogain": -10.1,
      "loudnorm": "-8.20,1.61,5.60,-18.31,-0.24",
      "filesize": 59174061,
      "duration": 730,
      "default": true,
      "lyrics": [
        {
          "filename": "ENG - Gyrotron - GAME AMV - EXTREME SOUNDCLOWN MEGAMIX V.ass",
          "default": true,
          "version": "Default",
          "subchecksum": "363e49676cc5bf0d43561f2047018df1"
        }
      ]
    }
  ],
  "data": {
    "created_at": "2021-05-30T13:14:39.688Z",
    "kid": "b3d7140f-0947-414d-9bda-f6eec742c6fc",
    "modified_at": "2021-05-30T13:31:09.960Z",
    "repository": "kara.moe",
    "tags": {
      "authors": [
        "9cdf3b70-3550-457c-bdb9-038f3253c6ad"
      ],
      "collections": [
        "c7db86a0-ff64-4044-9be4-66dd1ef1d1c1"
      ],
      "creators": [
        "e96343f5-37de-4f0d-a900-8562d6a3aa21"
      ],
      "families": [
        "0377db02-3af6-43b8-9b08-c759df3d25c3",
        "5391f9fe-638c-415f-8dc9-958e3a2c5787",
        "dbedd6b3-d125-4cd8-aa32-c4175e4ca3a3"
      ],
      "groups": [
        "ae613721-1fbe-480d-ba6b-d6d0702b184d"
      ],
      "langs": [
        "de5eda1c-5fb3-46a6-9606-d4554fc5a1d6"
      ],
      "misc": [
        "86705d4b-24e4-4756-9687-2b9c98bcf366"
      ],
      "origins": [
        "ac5085db-52d8-44b4-8fbb-1697b24d2046"
      ],
      "singers": [
        "e96343f5-37de-4f0d-a900-8562d6a3aa21"
      ],
      "songtypes": [
        "a6c79ce5-89ee-4d50-afe8-3abd7317f6c2"
      ],
      "songwriters": [
        "e96343f5-37de-4f0d-a900-8562d6a3aa21"
      ]
    },
    "title": "EXTREME SOUNDCLOWN MEGAMIX V",
    "titles": {
      "eng": "EXTREME SOUNDCLOWN MEGAMIX V"
    },
    "year": 2010
  }
}