{
  "header": {
    "version": 4,
    "description": "Karaoke Mugen Karaoke Data File"
  },
  "medias": [
    {
      "version": "Default",
      "filename": "ENG - League of Legends - PC GAME MV - Warriors.mp4",
      "audiogain": -7.46,
      "loudnorm": "-9.71,0.10,8.80,-19.98,-1.72",
      "filesize": 43030151,
      "duration": 167,
      "default": true,
      "lyrics": [
        {
          "filename": "ENG - League of Legends - PC GAME MV - Warriors.ass",
          "default": true,
          "version": "Default",
          "subchecksum": "776f5901d34e6d126ebff11146a3c9e7"
        }
      ]
    }
  ],
  "data": {
    "created_at": "2018-07-25T20:36:19.000Z",
    "kid": "545aa585-01f8-4948-b720-9ea6dc6b9712",
    "modified_at": "2021-02-25T10:11:29.802Z",
    "repository": "kara.moe",
    "tags": {
      "authors": [
        "0081300d-c0f9-4cff-a4f7-e726a293a76b"
      ],
      "collections": [
        "c7db86a0-ff64-4044-9be4-66dd1ef1d1c1"
      ],
      "creators": [
        "4d1b9aac-f0ca-42de-a2f0-eff2869ea6e3",
        "ab4a1c5e-2578-4fb9-8913-03d530ea2d45"
      ],
      "families": [
        "dbedd6b3-d125-4cd8-aa32-c4175e4ca3a3"
      ],
      "groups": [
        "ae613721-1fbe-480d-ba6b-d6d0702b184d"
      ],
      "langs": [
        "de5eda1c-5fb3-46a6-9606-d4554fc5a1d6"
      ],
      "platforms": [
        "3c15f758-e1bc-4266-8bb9-3c14112f504a"
      ],
      "series": [
        "f76f47b0-f820-454f-8cc5-2ec0bf5b3d28"
      ],
      "singers": [
        "28049ad2-e20c-466c-950c-537552c00858"
      ],
      "songtypes": [
        "7be1b15c-cff8-4b37-a649-5c90f3d569a9"
      ],
      "songwriters": [
        "28049ad2-e20c-466c-950c-537552c00858"
      ],
      "franchises": [
        "f76f47b0-f820-454f-8cc5-2ec0bf5b3d28"
      ]
    },
    "title": "Warriors",
    "titles": {
      "eng": "Warriors"
    },
    "year": 2014
  }
}