{
  "header": {
    "version": 4,
    "description": "Karaoke Mugen Karaoke Data File"
  },
  "medias": [
    {
      "version": "Default",
      "filename": "ENG - Sandy Marton - MV - Camel By Camel ~ Short Vers.mp4",
      "audiogain": -2.78,
      "loudnorm": "-14.90,-0.25,3.90,-25.03,-0.12",
      "filesize": 93790888,
      "duration": 213,
      "default": true,
      "lyrics": [
        {
          "filename": "ENG - Sandy Marton - MV - Camel By Camel ~ Short Vers.ass",
          "default": true,
          "version": "Default"
        }
      ]
    }
  ],
  "data": {
    "created_at": "2021-10-10T16:53:06.432Z",
    "ignoreHooks": false,
    "kid": "48342abe-0dcf-4299-a937-d2d75aed9154",
    "modified_at": "2022-11-13T21:21:28.403Z",
    "repository": "kara.moe",
    "tags": {
      "authors": [
        "611aa6ee-ebf8-4ef5-8eed-9f1eaec5117e"
      ],
      "collections": [
        "efe171c0-e8a1-4d03-98c0-60ecf741ad52"
      ],
      "creators": [
        "edfb15d4-63c9-47c5-b646-7831fc1b7919"
      ],
      "families": [
        "5391f9fe-638c-415f-8dc9-958e3a2c5787"
      ],
      "groups": [
        "7792cc27-9ff9-4d47-9287-2338b7db1575"
      ],
      "langs": [
        "de5eda1c-5fb3-46a6-9606-d4554fc5a1d6"
      ],
      "singers": [
        "98785c4c-f0ad-4199-b1fd-dfeeaa958176"
      ],
      "songtypes": [
        "7be1b15c-cff8-4b37-a649-5c90f3d569a9"
      ],
      "songwriters": [
        "98785c4c-f0ad-4199-b1fd-dfeeaa958176",
        "1becbca6-bde6-423e-a0f2-969c6b6d1965",
        "6c9dbdd4-6161-47e7-ac2a-dff6c55f95a4"
      ],
      "versions": [
        "d125c80a-86c1-4321-88e9-07b7800679b6"
      ]
    },
    "titles": {
      "eng": "Camel By Camel"
    },
    "titles_default_language": "eng",
    "year": 1985
  }
}