{
  "header": {
    "version": 4,
    "description": "Karaoke Mugen Karaoke Data File"
  },
  "medias": [
    {
      "version": "Default",
      "filename": "ENG - LMFAO - MV - Sexy and I Know It.mp4",
      "audiogain": -3.72,
      "loudnorm": "-12.82,-2.57,3.20,-22.89,-0.55",
      "filesize": 217014839,
      "duration": 195,
      "default": true,
      "lyrics": [
        {
          "filename": "ENG - LMFAO - MV - Sexy and I Know It.ass",
          "default": true,
          "version": "Default",
          "subchecksum": "e2c82773627a75f6807d04de7fc01ea2"
        }
      ]
    }
  ],
  "data": {
    "created_at": "2020-07-12T12:10:35.534Z",
    "kid": "44f76624-f5a7-4715-84b2-52e280c6aecc",
    "modified_at": "2021-02-25T14:50:06.093Z",
    "repository": "kara.moe",
    "tags": {
      "authors": [
        "aea68e75-e469-45bd-be80-67f2af0e6b2d"
      ],
      "collections": [
        "efe171c0-e8a1-4d03-98c0-60ecf741ad52"
      ],
      "creators": [
        "5ccd3d6d-03de-448a-9bb8-fadb30db6be1"
      ],
      "families": [
        "5391f9fe-638c-415f-8dc9-958e3a2c5787"
      ],
      "groups": [
        "ae613721-1fbe-480d-ba6b-d6d0702b184d"
      ],
      "langs": [
        "de5eda1c-5fb3-46a6-9606-d4554fc5a1d6"
      ],
      "singers": [
        "4d2e3c5b-e31d-4d23-a06c-f6e5b9b15fd2"
      ],
      "songtypes": [
        "7be1b15c-cff8-4b37-a649-5c90f3d569a9"
      ],
      "songwriters": [
        "2ff69cd9-a55f-44f4-af0d-d063c9667953",
        "378c98e6-f6c4-41b3-8510-69c66e4a1e5a",
        "a38f1809-300d-4686-86e4-d8ff9a547904",
        "b68aef0d-255d-48a1-be8c-0f86bfe1fd04",
        "cc74ee95-b3f2-4222-bd7d-9f3bca85fcae"
      ]
    },
    "title": "Sexy and I Know It",
    "titles": {
      "eng": "Sexy and I Know It"
    },
    "year": 2011
  }
}