{
  "header": {
    "version": 4,
    "description": "Karaoke Mugen Karaoke Data File"
  },
  "medias": [
    {
      "version": "Default",
      "filename": "ENG - Persona 4 The Ultimate in Mayonaka Arena - GAME XBOXONE AUDIO ED - Now I Know.mp3",
      "audiogain": -4.48,
      "loudnorm": "-13.46,-2.25,7.20,-23.77,-0.89",
      "filesize": 5809282,
      "duration": 346,
      "default": true,
      "lyrics": [
        {
          "filename": "ENG - Persona 4 The Ultimate in Mayonaka Arena - GAME XBOXONE AUDIO ED - Now I Know.ass",
          "default": true,
          "version": "Default"
        }
      ]
    }
  ],
  "data": {
    "comment": "Merci beaucoup pour toutes les explications ! Voici mon premier kara fait 100%",
    "created_at": "2022-09-14T19:37:53.479Z",
    "ignoreHooks": false,
    "kid": "91016a69-78ec-4669-a21d-930af87dfc6b",
    "modified_at": "2022-10-14T21:18:47.747Z",
    "repository": "kara.moe",
    "tags": {
      "authors": [
        "31a3036f-e2af-4cc9-a45e-bdf9d42ee041"
      ],
      "collections": [
        "c7db86a0-ff64-4044-9be4-66dd1ef1d1c1"
      ],
      "creators": [
        "e9bb3a58-48d2-478c-bfe7-95237ddfe0fd",
        "f068c907-7440-4e21-9667-1b905a7dbf23"
      ],
      "families": [
        "dbedd6b3-d125-4cd8-aa32-c4175e4ca3a3"
      ],
      "groups": [
        "ae613721-1fbe-480d-ba6b-d6d0702b184d"
      ],
      "langs": [
        "de5eda1c-5fb3-46a6-9606-d4554fc5a1d6"
      ],
      "misc": [
        "86705d4b-24e4-4756-9687-2b9c98bcf366"
      ],
      "platforms": [
        "22840d76-7030-4c3f-ab35-4a863adce093",
        "569fdd6b-1a2c-424e-aab8-93c5891db245",
        "7f63ff91-7961-4488-888d-4bf46eea3a2a",
        "d56f8d9d-9ccd-4ac8-a164-da0e62d1c060"
      ],
      "series": [
        "389ed312-4754-4185-8f82-7801217c9ea0"
      ],
      "singers": [
        "eaee2425-3cd4-4154-b04e-c7977dbe9de2"
      ],
      "songtypes": [
        "38c77c56-2b95-4040-b676-0994a8cb0597",
        "42a262ae-acba-4ab5-a446-c5789c96c821"
      ],
      "songwriters": [
        "46994f82-720a-49eb-bf79-f27a14d6791d"
      ],
      "franchises": [
        "d8030743-4563-41b9-a3e3-30a0b2fb2edb"
      ]
    },
    "titles": {
      "eng": "Now I Know"
    },
    "titles_default_language": "eng",
    "title": "Now I Know",
    "year": 2012
  }
}