{
  "header": {
    "version": 4,
    "description": "Karaoke Mugen Karaoke Data File"
  },
  "medias": [
    {
      "version": "Default",
      "filename": "ENG - Persona 3 Dancing Moon Night - PS4 GAME AMV - Wiping All Out.mp4",
      "audiogain": -0.98,
      "loudnorm": "-17.02,-4.76,4.90,-27.06,-0.62",
      "filesize": 77405357,
      "duration": 94,
      "default": true,
      "lyrics": [
        {
          "filename": "ENG - Persona 3 Dancing Moon Night - PS4 GAME AMV - Wiping All Out.ass",
          "default": true,
          "version": "Default",
          "subchecksum": "69d6fdbbc96fe717cb10825b8a992bff"
        }
      ]
    }
  ],
  "data": {
    "created_at": "2021-04-18T13:55:23.271Z",
    "kid": "74c4fe8f-88bc-4c0b-bfef-0210f939fc6b",
    "modified_at": "2021-04-18T14:00:27.389Z",
    "repository": "kara.moe",
    "tags": {
      "authors": [
        "56b54c89-86ae-4635-992f-ddc1234b8015"
      ],
      "collections": [
        "c7db86a0-ff64-4044-9be4-66dd1ef1d1c1"
      ],
      "creators": [
        "e9bb3a58-48d2-478c-bfe7-95237ddfe0fd"
      ],
      "families": [
        "dbedd6b3-d125-4cd8-aa32-c4175e4ca3a3"
      ],
      "groups": [
        "8c22c899-b3ed-42da-a548-ce00f950798b",
        "ae613721-1fbe-480d-ba6b-d6d0702b184d"
      ],
      "langs": [
        "de5eda1c-5fb3-46a6-9606-d4554fc5a1d6"
      ],
      "origins": [
        "ac5085db-52d8-44b4-8fbb-1697b24d2046"
      ],
      "platforms": [
        "248d92ee-8c02-43bc-86e2-cc6029883564"
      ],
      "series": [
        "0899ff2c-9293-4bf7-8cda-8014f214a7f1"
      ],
      "singers": [
        "3f0f9b62-bd9b-4a86-b0e3-ec87f5af93c4"
      ],
      "songtypes": [
        "a6c79ce5-89ee-4d50-afe8-3abd7317f6c2"
      ],
      "songwriters": [
        "900e7353-d9db-4c9e-88e9-24649beef963",
        "ec3a6acb-6751-49d9-84c7-b6b01ec163f4"
      ],
      "franchises": [
        "d8030743-4563-41b9-a3e3-30a0b2fb2edb"
      ]
    },
    "title": "Wiping All Out",
    "titles": {
      "eng": "Wiping All Out"
    },
    "year": 2019
  }
}