{
  "header": {
    "version": 4,
    "description": "Karaoke Mugen Karaoke Data File"
  },
  "medias": [
    {
      "version": "Default",
      "filename": "ENG - Kenpuu Denki Berserk - OP - Tell Me Why ~ Alternative Vers.mp4",
      "audiogain": 2.63,
      "loudnorm": "-19.33,-9.84,1.00,-29.42,-0.00",
      "filesize": 17142643,
      "duration": 44,
      "default": true,
      "lyrics": [
        {
          "filename": "ENG - Kenpuu Denki Berserk - OP - Tell Me Why ~ Alternative Vers.ass",
          "default": true,
          "version": "Default"
        }
      ]
    }
  ],
  "data": {
    "created_at": "2021-09-15T11:22:28.252Z",
    "ignoreHooks": false,
    "kid": "e5f13a92-f26d-4f99-b13a-aeeee9c2d5f7",
    "modified_at": "2022-09-24T21:13:20.777Z",
    "repository": "kara.moe",
    "tags": {
      "authors": [
        "9cdf3b70-3550-457c-bdb9-038f3253c6ad"
      ],
      "collections": [
        "c7db86a0-ff64-4044-9be4-66dd1ef1d1c1"
      ],
      "creators": [
        "03fe574b-c7f5-4520-96dc-47320c39e2cc",
        "2c45490f-f831-494d-bdaa-4632ad9e801a"
      ],
      "families": [
        "0377db02-3af6-43b8-9b08-c759df3d25c3"
      ],
      "groups": [
        "8e209ae4-4381-438f-89dc-1b21752027d2"
      ],
      "langs": [
        "de5eda1c-5fb3-46a6-9606-d4554fc5a1d6"
      ],
      "misc": [
        "07af42d1-824e-407e-bf37-7fb84905484b",
        "cef35a27-3bf0-48c9-beb2-d245ba62ea6b"
      ],
      "origins": [
        "ac5085db-52d8-44b4-8fbb-1697b24d2046"
      ],
      "series": [
        "4b2f4050-3eab-415e-a001-73ff8246ef05"
      ],
      "singers": [
        "67f696ba-6afc-42bf-aee3-96771c637261"
      ],
      "songtypes": [
        "f02ad9b3-0bd9-4aad-85b3-9976739ba0e4"
      ],
      "songwriters": [
        "60d2eed1-33e9-46e4-ad99-bbc5af3b9f17"
      ],
      "versions": [
        "9f63c359-d1bf-425a-bcf5-b245c2c9211d"
      ],
      "franchises": [
        "df349ba1-421a-4599-9fac-542677577555"
      ]
    },
    "titles": {
      "eng": "Tell Me Why"
    },
    "titles_default_language": "eng",
    "title": "Tell Me Why",
    "year": 2021
  }
}