{
  "header": {
    "version": 4,
    "description": "Karaoke Mugen Karaoke Data File"
  },
  "medias": [
    {
      "version": "Default",
      "filename": "ENG - Honkai Impact 3rd - GAME AMV - Starfall.mp4",
      "audiogain": -0.19,
      "loudnorm": "-17.46,-3.66,14.10,-28.17,-0.80",
      "filesize": 67049009,
      "duration": 189,
      "default": true,
      "lyrics": [
        {
          "filename": "ENG - Honkai Impact 3rd - GAME AMV - Starfall.ass",
          "default": true,
          "version": "Default"
        }
      ]
    }
  ],
  "data": {
    "created_at": "2020-10-10T19:36:11.388Z",
    "kid": "c43181c2-6cdf-4693-b0bc-b8cfee8f46e6",
    "modified_at": "2021-07-22T19:06:08.674Z",
    "repository": "kara.moe",
    "tags": {
      "authors": [
        "635f51d5-23e1-4e3a-8fab-7c0fe8c54690"
      ],
      "collections": [
        "c7db86a0-ff64-4044-9be4-66dd1ef1d1c1"
      ],
      "creators": [
        "278c6742-0b75-43dd-b317-2ea112952b4a"
      ],
      "families": [
        "dbedd6b3-d125-4cd8-aa32-c4175e4ca3a3"
      ],
      "groups": [
        "2b4e9972-5e17-481b-99f5-d0787c0ada56",
        "8e209ae4-4381-438f-89dc-1b21752027d2"
      ],
      "langs": [
        "de5eda1c-5fb3-46a6-9606-d4554fc5a1d6"
      ],
      "platforms": [
        "213a1a15-e73a-4a08-b3f6-b6e2745a82e5"
      ],
      "series": [
        "26e4d782-c5be-4842-a544-1dd6ae9519e2"
      ],
      "singers": [
        "73e42654-155b-47c6-ae5b-adfd84ae4437"
      ],
      "songtypes": [
        "a6c79ce5-89ee-4d50-afe8-3abd7317f6c2"
      ],
      "songwriters": [
        "0904296b-d3df-4e59-b369-3d4a8ef19565"
      ]
    },
    "title": "Starfall",
    "titles": {
      "eng": "Starfall"
    },
    "year": 2020
  }
}