{
  "header": {
    "version": 4,
    "description": "Karaoke Mugen Karaoke Data File"
  },
  "medias": [
    {
      "version": "Default",
      "filename": "ENG - Madonna - MV - Hung Up.mp4",
      "audiogain": 1.56,
      "loudnorm": "-18.03,-5.77,5.90,-28.48,-0.88",
      "filesize": 146342969,
      "duration": 333,
      "default": true,
      "lyrics": [
        {
          "filename": "ENG - Madonna - MV - Hung Up.ass",
          "default": true,
          "version": "Default"
        }
      ]
    }
  ],
  "data": {
    "created_at": "2022-04-22T13:47:08.424Z",
    "ignoreHooks": false,
    "kid": "bdc86d77-58a7-4e8f-867b-71474424c7db",
    "modified_at": "2022-04-22T13:47:11.394Z",
    "repository": "kara.moe",
    "tags": {
      "authors": [
        "3d250b8d-f341-48f6-a51d-386e74242056"
      ],
      "collections": [
        "efe171c0-e8a1-4d03-98c0-60ecf741ad52"
      ],
      "creators": [
        "45ff46f8-862b-4f84-8479-505cc223d430"
      ],
      "families": [
        "5391f9fe-638c-415f-8dc9-958e3a2c5787"
      ],
      "langs": [
        "de5eda1c-5fb3-46a6-9606-d4554fc5a1d6"
      ],
      "singers": [
        "84f80b38-6b3e-447a-8ee2-5998e010f848"
      ],
      "songtypes": [
        "7be1b15c-cff8-4b37-a649-5c90f3d569a9"
      ],
      "songwriters": [
        "84f80b38-6b3e-447a-8ee2-5998e010f848",
        "48ec6a3a-5adb-4af7-bda5-dc6421d87592",
        "a7015d78-357a-468c-91d5-5bd23ee48656",
        "4af14e96-9960-4074-9518-c4a6a35b38d5"
      ],
      "groups": [
        "3c14c864-533c-49e6-a3cc-6969f1233775"
      ],
      "misc": [
        "86705d4b-24e4-4756-9687-2b9c98bcf366"
      ]
    },
    "titles": {
      "eng": "Hung Up"
    },
    "titles_default_language": "eng",
    "title": "Hung Up",
    "year": 2005
  }
}