{
  "header": {
    "version": 4,
    "description": "Karaoke Mugen Karaoke Data File"
  },
  "medias": [
    {
      "version": "Default",
      "filename": "ENG - MC Hammer - MV - U Can't Touch This.mp4",
      "audiogain": -5.35,
      "loudnorm": "-11.97,1.78,2.30,-22.15,-0.21",
      "filesize": 235894107,
      "duration": 256,
      "default": true,
      "lyrics": [
        {
          "filename": "ENG - MC Hammer - MV - U Can't Touch This.ass",
          "default": true,
          "version": "Default",
          "subchecksum": "9a986353d085b80c6ff2b0ea01e588a6"
        }
      ]
    }
  ],
  "data": {
    "created_at": "2021-04-29T22:10:37.738Z",
    "kid": "4dd31e11-edc2-4942-9f40-d7269718994c",
    "modified_at": "2021-04-29T22:48:20.847Z",
    "repository": "kara.moe",
    "tags": {
      "authors": [
        "0c8e4377-ee35-4896-89ed-9d06a1b5acd5"
      ],
      "collections": [
        "efe171c0-e8a1-4d03-98c0-60ecf741ad52"
      ],
      "creators": [
        "6468c4c7-8cea-42ed-9e9c-0ac0d108065d"
      ],
      "families": [
        "5391f9fe-638c-415f-8dc9-958e3a2c5787"
      ],
      "groups": [
        "24db50aa-a126-4d34-a48a-e45db79c4245"
      ],
      "langs": [
        "de5eda1c-5fb3-46a6-9606-d4554fc5a1d6"
      ],
      "singers": [
        "8e44c09c-4707-473d-948c-afcc6359d8de"
      ],
      "songtypes": [
        "7be1b15c-cff8-4b37-a649-5c90f3d569a9"
      ],
      "songwriters": [
        "0d17e9e5-5523-4207-a990-8006f610ea86",
        "12e7a89e-a4f4-49d8-8982-8a255de7fbbc",
        "8e44c09c-4707-473d-948c-afcc6359d8de"
      ]
    },
    "title": "U Can't Touch This",
    "titles": {
      "eng": "U Can't Touch This"
    },
    "year": 1990
  }
}