{
  "header": {
    "version": 4,
    "description": "Karaoke Mugen Karaoke Data File"
  },
  "medias": [
    {
      "version": "Default",
      "filename": "ENG - BTS - MV - Butter.mp4",
      "audiogain": -7.52,
      "loudnorm": "-8.43,1.86,3.60,-18.54,-1.02",
      "filesize": 54219412,
      "duration": 177,
      "default": true,
      "lyrics": [
        {
          "filename": "ENG - BTS - MV - Butter.ass",
          "default": true,
          "version": "Default"
        }
      ]
    }
  ],
  "data": {
    "created_at": "2022-01-21T22:32:34.694Z",
    "ignoreHooks": false,
    "kid": "9cb95870-031d-4223-93b0-cd472c71abc1",
    "modified_at": "2023-02-03T17:12:49.559Z",
    "repository": "kara.moe",
    "tags": {
      "authors": [
        "1d7745a8-73ea-40bb-ad99-826af98f6e41"
      ],
      "collections": [
        "dbcf2c22-524d-4708-99bb-601703633927"
      ],
      "creators": [
        "c62489b5-2ae8-4e09-af56-18bbd85093bb"
      ],
      "families": [
        "5391f9fe-638c-415f-8dc9-958e3a2c5787"
      ],
      "genres": [
        "caa86df2-0d59-474b-885c-f240a9e891b0"
      ],
      "groups": [
        "8e209ae4-4381-438f-89dc-1b21752027d2"
      ],
      "langs": [
        "de5eda1c-5fb3-46a6-9606-d4554fc5a1d6"
      ],
      "misc": [
        "1d6ceadf-a885-47e5-b23b-c07bf668a424"
      ],
      "singers": [
        "473bcd5a-bbd9-4296-aceb-014d261e93d8",
        "e9efcafa-9697-4b56-9f10-c220c95be784",
        "30ca1233-c4d4-4e25-a975-6b1e66c30ef4",
        "0717f873-2ea2-4c72-ab1c-56cd8b1c389b",
        "817671df-895f-46fe-9d5a-e16267c379b4",
        "c91ba8a3-3de9-4479-b633-07b5ff7b4553",
        "f38f2fe5-9f54-4a8e-b3cf-d4f6c8f3ca98"
      ],
      "singergroups": [
        "b00876f7-3ffb-438c-8229-35a47fa9e667"
      ],
      "songtypes": [
        "7be1b15c-cff8-4b37-a649-5c90f3d569a9"
      ],
      "songwriters": [
        "473bcd5a-bbd9-4296-aceb-014d261e93d8",
        "645f3b63-12a4-450f-a6d5-2686fe502ed4",
        "eb0bc51b-e952-40c4-a4bf-063cf12852ab",
        "0d2b18c5-2a04-40de-9419-59e53c8bbb8e",
        "fafc482d-01c9-4714-abd0-53c4b1274c0a",
        "06f60eed-994d-4714-80cc-cd7487225319",
        "301676f2-1641-440a-a80a-3955a9a0ac6c"
      ]
    },
    "titles": {
      "eng": "Butter"
    },
    "titles_default_language": "eng",
    "year": 2021
  }
}