{
  "header": {
    "version": 4,
    "description": "Karaoke Mugen Karaoke Data File"
  },
  "medias": [
    {
      "version": "Default",
      "filename": "ENG - Memories - REMIX MOVIE AMV - Phantom Of The Opera ~ Cover Vers.mp4",
      "audiogain": -4.88,
      "loudnorm": "-11.60,-0.52,2.70,-21.77,-0.95",
      "filesize": 49779748,
      "duration": 252,
      "default": true,
      "lyrics": [
        {
          "filename": "ENG - Memories - REMIX MOVIE AMV - Phantom Of The Opera ~ Cover Vers.ass",
          "default": true,
          "version": "Default"
        }
      ]
    }
  ],
  "data": {
    "created_at": "2022-05-28T14:51:10.380Z",
    "ignoreHooks": false,
    "kid": "6adeac70-6583-462e-8ec3-d9ed7da0baab",
    "modified_at": "2022-05-28T15:06:38.548Z",
    "parents": [
      "986497d7-83c5-4671-971b-20294173de90"
    ],
    "repository": "kara.moe",
    "tags": {
      "authors": [
        "e11347e4-80ea-46f9-a3d1-b83e0c2bb12f"
      ],
      "collections": [
        "c7db86a0-ff64-4044-9be4-66dd1ef1d1c1"
      ],
      "creators": [
        "642861ac-a108-4525-b08d-aea5623f48e5",
        "b1f0091d-99d1-4f1c-b42d-d341129db85b"
      ],
      "families": [
        "0377db02-3af6-43b8-9b08-c759df3d25c3"
      ],
      "groups": [
        "8e209ae4-4381-438f-89dc-1b21752027d2"
      ],
      "langs": [
        "de5eda1c-5fb3-46a6-9606-d4554fc5a1d6"
      ],
      "misc": [
        "ec4360fa-3e3c-4f6f-b0e1-fb8b12b6dd18"
      ],
      "origins": [
        "c8ca9dea-d8b4-48fe-8427-d911653232e9"
      ],
      "series": [
        "8b2aa8ca-658f-4f14-a389-8e8c76635d4b"
      ],
      "singers": [
        "a7bd5af4-e84f-4c8f-80f5-ae6aa48786f2"
      ],
      "songtypes": [
        "a6c79ce5-89ee-4d50-afe8-3abd7317f6c2"
      ],
      "songwriters": [
        "6ff00822-e576-47a2-a086-f8bcc996b3af",
        "b4e0eb5a-7413-46d1-8c99-5ed2dfb6d7c1"
      ],
      "versions": [
        "03e1e1d2-8641-47b7-bbcb-39a3df9ff21c"
      ]
    },
    "titles": {
      "eng": "Phantom Of The Opera"
    },
    "titles_default_language": "eng",
    "title": "Phantom Of The Opera",
    "year": 2020
  }
}