{
  "header": {
    "version": 4,
    "description": "Karaoke Mugen Karaoke Data File"
  },
  "medias": [
    {
      "version": "Default",
      "filename": "ENG - Lupin Sansei Fuuma Ichizoku no Inbou - MOVIE AUDIO IN - Undercover Lover.mp3",
      "audiogain": 0.5,
      "loudnorm": "-18.73,-1.02,5.90,-28.92,-1.32",
      "filesize": 4801907,
      "duration": 193,
      "default": true,
      "lyrics": [
        {
          "filename": "ENG - Lupin Sansei Fuuma Ichizoku no Inbou - MOVIE AUDIO IN - Undercover Lover.ass",
          "default": true,
          "version": "Default",
          "subchecksum": "689dbea2e92e12c1bf8ba05d6861a00a"
        }
      ]
    }
  ],
  "data": {
    "created_at": "2020-08-22T18:21:37.797Z",
    "kid": "d42dbff8-7637-43cc-87e5-a1e2a5a4e8ca",
    "modified_at": "2021-02-25T10:12:04.598Z",
    "repository": "kara.moe",
    "tags": {
      "authors": [
        "5cb3d0c5-479e-4224-b6ec-b27209e933a0"
      ],
      "collections": [
        "c7db86a0-ff64-4044-9be4-66dd1ef1d1c1"
      ],
      "creators": [
        "53e900ec-a1ff-4c95-8b2d-a63995c2936f"
      ],
      "families": [
        "0377db02-3af6-43b8-9b08-c759df3d25c3"
      ],
      "groups": [
        "60defa7b-774e-4680-8321-51b742c2e009",
        "7792cc27-9ff9-4d47-9287-2338b7db1575"
      ],
      "langs": [
        "de5eda1c-5fb3-46a6-9606-d4554fc5a1d6"
      ],
      "origins": [
        "c8ca9dea-d8b4-48fe-8427-d911653232e9"
      ],
      "series": [
        "03635fc2-48c6-435a-ab53-97c6a4aedcc8"
      ],
      "singers": [
        "aad4d1c3-06dd-4bf7-9d7f-6a32f86494de"
      ],
      "songtypes": [
        "42a262ae-acba-4ab5-a446-c5789c96c821",
        "5e5250d9-351a-4a82-98eb-55db50ad8962"
      ],
      "songwriters": [
        "905692aa-fe24-4e12-a835-d7ae3318fe3a",
        "bd8c2243-0d38-4489-a234-ca09b96572ee"
      ],
      "franchises": [
        "561e6fe6-d886-4eec-881d-fdc9d1504942"
      ]
    },
    "title": "Undercover Lover",
    "titles": {
      "eng": "Undercover Lover"
    },
    "year": 1987
  }
}