{
  "header": {
    "version": 4,
    "description": "Karaoke Mugen Karaoke Data File"
  },
  "medias": [
    {
      "version": "Alternative.",
      "filename": "ENG - Psycho-Pass - OP2 - Out of Control ~ Alternative Vers. ~ Alternative Vers.mp4",
      "audiogain": -0.32,
      "loudnorm": "-16.21,-9.40,1.70,-26.23,-0.47",
      "filesize": 93812804,
      "duration": 90,
      "default": true,
      "lyrics": [
        {
          "filename": "ENG - Psycho-Pass - OP2 - Out of Control ~ Alternative Vers. ~ Alternative Vers.ass",
          "default": true,
          "version": "Default",
          "subchecksum": "0dc05ecd9e9844a7966cd1dc34fd67eb"
        }
      ]
    }
  ],
  "data": {
    "created_at": "2017-10-11T17:02:02.000Z",
    "kid": "f86a9760-7594-4034-ac2d-a39fcbe3c085",
    "modified_at": "2021-05-23T22:38:24.392Z",
    "parents": [
      "ee0d5707-8bae-402c-bac8-07c4e14dc400"
    ],
    "repository": "kara.moe",
    "songorder": 2,
    "tags": {
      "authors": [
        "a5dbab74-510b-48c5-9cea-5a537a81c974"
      ],
      "collections": [
        "c7db86a0-ff64-4044-9be4-66dd1ef1d1c1"
      ],
      "creators": [
        "20d023d6-5195-4e4f-bae3-8b28ad6334e2"
      ],
      "families": [
        "0377db02-3af6-43b8-9b08-c759df3d25c3"
      ],
      "groups": [
        "33881a14-788e-4e2a-a97d-1e5f51542a26",
        "8c22c899-b3ed-42da-a548-ce00f950798b",
        "ae613721-1fbe-480d-ba6b-d6d0702b184d"
      ],
      "langs": [
        "de5eda1c-5fb3-46a6-9606-d4554fc5a1d6"
      ],
      "misc": [
        "fe819ff1-9db8-4a0f-85dc-0e322c9126c4"
      ],
      "origins": [
        "938de218-5343-4865-94d3-fb33f2eaa152"
      ],
      "series": [
        "32e03772-7129-46dd-95a3-5651354f5e0f"
      ],
      "singers": [
        "c793fc2d-ca56-4f15-b740-d9cbfb872988"
      ],
      "songtypes": [
        "f02ad9b3-0bd9-4aad-85b3-9976739ba0e4"
      ],
      "songwriters": [
        "c793fc2d-ca56-4f15-b740-d9cbfb872988"
      ],
      "versions": [
        "9f63c359-d1bf-425a-bcf5-b245c2c9211d"
      ],
      "franchises": [
        "32e03772-7129-46dd-95a3-5651354f5e0f"
      ]
    },
    "title": "Out of Control",
    "titles": {
      "eng": "Out of Control"
    },
    "year": 2012
  }
}