{
  "header": {
    "version": 4,
    "description": "Karaoke Mugen Karaoke Data File"
  },
  "medias": [
    {
      "version": "Default",
      "filename": "ENG - ABBA - MV - Voulez-Vous.mp4",
      "audiogain": 2.83,
      "loudnorm": "-21.18,-9.38,3.40,-31.34,-0.10",
      "filesize": 19163976,
      "duration": 252,
      "default": true,
      "lyrics": [
        {
          "filename": "ENG - ABBA - MV - Voulez-Vous.ass",
          "default": true,
          "version": "Default"
        }
      ]
    }
  ],
  "data": {
    "created_at": "2022-07-23T22:29:48.517Z",
    "ignoreHooks": false,
    "kid": "87c691f9-189e-4999-8ee4-e760198ad930",
    "modified_at": "2022-07-23T22:29:48.950Z",
    "repository": "kara.moe",
    "tags": {
      "authors": [
        "0c8e4377-ee35-4896-89ed-9d06a1b5acd5"
      ],
      "collections": [
        "efe171c0-e8a1-4d03-98c0-60ecf741ad52"
      ],
      "creators": [
        "0d2bd039-464b-4967-bde4-2c26873ae41f"
      ],
      "families": [
        "5391f9fe-638c-415f-8dc9-958e3a2c5787"
      ],
      "langs": [
        "de5eda1c-5fb3-46a6-9606-d4554fc5a1d6"
      ],
      "singers": [
        "c0e2944a-bcc0-4d85-a70b-37681943c9d7"
      ],
      "songtypes": [
        "7be1b15c-cff8-4b37-a649-5c90f3d569a9"
      ],
      "songwriters": [
        "4af14e96-9960-4074-9518-c4a6a35b38d5",
        "a7015d78-357a-468c-91d5-5bd23ee48656"
      ],
      "groups": [
        "57e5e0c0-e02e-4871-a6cb-d48ea604ebab"
      ]
    },
    "titles": {
      "fre": "Voulez-Vous"
    },
    "titles_default_language": "fre",
    "title": "Voulez-Vous",
    "year": 1979
  }
}