{
  "header": {
    "version": 4,
    "description": "Karaoke Mugen Karaoke Data File"
  },
  "medias": [
    {
      "version": "Default",
      "filename": "ENG - Shingeki no Kyojin - AUDIO IN - Call your name.mp3",
      "audiogain": -8.63,
      "loudnorm": "-8.54,0.68,20.00,-20.75,-1.24",
      "filesize": 14586759,
      "duration": 268,
      "default": true,
      "lyrics": [
        {
          "filename": "ENG - Shingeki no Kyojin - AUDIO IN - Call your name.ass",
          "default": true,
          "version": "Default",
          "subchecksum": "178372f535738c681e26b88138cd7f1f"
        }
      ]
    }
  ],
  "data": {
    "created_at": "2018-08-24T11:17:10.000Z",
    "kid": "115bc008-372c-4d62-b577-08e1ea8afd81",
    "modified_at": "2021-02-25T10:17:26.531Z",
    "repository": "kara.moe",
    "tags": {
      "authors": [
        "5bdaba57-27f8-4568-8806-76a807728766"
      ],
      "collections": [
        "c7db86a0-ff64-4044-9be4-66dd1ef1d1c1"
      ],
      "families": [
        "0377db02-3af6-43b8-9b08-c759df3d25c3"
      ],
      "genres": [
        "a0aeef4a-6428-45ff-a6e1-468b595930c2"
      ],
      "groups": [
        "ae613721-1fbe-480d-ba6b-d6d0702b184d"
      ],
      "langs": [
        "de5eda1c-5fb3-46a6-9606-d4554fc5a1d6"
      ],
      "origins": [
        "938de218-5343-4865-94d3-fb33f2eaa152"
      ],
      "series": [
        "1086e47f-30cd-4219-9454-4ad608f07481"
      ],
      "singers": [
        "d4986569-4951-4e55-83ee-d87104a2f799"
      ],
      "songtypes": [
        "42a262ae-acba-4ab5-a446-c5789c96c821",
        "5e5250d9-351a-4a82-98eb-55db50ad8962"
      ],
      "songwriters": [
        "59621685-8dc1-4ce1-93b3-cf6c11dda3aa",
        "d4986569-4951-4e55-83ee-d87104a2f799"
      ],
      "franchises": [
        "1086e47f-30cd-4219-9454-4ad608f07481"
      ]
    },
    "title": "Call your name",
    "titles": {
      "eng": "Call your name"
    },
    "year": 2013
  }
}