{
  "header": {
    "version": 4,
    "description": "Karaoke Mugen Karaoke Data File"
  },
  "medias": [
    {
      "version": "Default",
      "filename": "ENG - Mystic Messenger - GAME OP - Mysterious Messenger.mp4",
      "audiogain": -7.69,
      "loudnorm": "-9.26,1.25,3.70,-19.33,-0.45",
      "filesize": 24044736,
      "duration": 94,
      "default": true,
      "lyrics": [
        {
          "filename": "ENG - Mystic Messenger - GAME OP - Mysterious Messenger.ass",
          "default": true,
          "version": "Default",
          "subchecksum": "52dad2868240b28e3a52f8877f48c57d"
        }
      ]
    }
  ],
  "data": {
    "created_at": "2019-03-18T20:06:34.000Z",
    "kid": "547a966d-2069-4dab-accf-b784d82f8929",
    "modified_at": "2021-02-25T10:13:31.358Z",
    "parents": [
      "54c9e6f2-9a7f-4ef2-ada9-4b2dc8373add"
    ],
    "repository": "kara.moe",
    "tags": {
      "authors": [
        "2a9bbf75-0722-4b4a-9935-caa92f38fdd1"
      ],
      "collections": [
        "c7db86a0-ff64-4044-9be4-66dd1ef1d1c1"
      ],
      "creators": [
        "3887942e-6a82-4735-9918-2d445e3155f4"
      ],
      "families": [
        "dbedd6b3-d125-4cd8-aa32-c4175e4ca3a3"
      ],
      "groups": [
        "ae613721-1fbe-480d-ba6b-d6d0702b184d"
      ],
      "langs": [
        "de5eda1c-5fb3-46a6-9606-d4554fc5a1d6"
      ],
      "origins": [
        "2f96e82c-c61b-4413-817e-e6b247509b95",
        "7025ae3c-7bd6-4787-8912-2c15063343bb"
      ],
      "platforms": [
        "213a1a15-e73a-4a08-b3f6-b6e2745a82e5"
      ],
      "series": [
        "83229e3a-52e9-47e5-bfe3-826c86b8503d"
      ],
      "singers": [
        "2fc521ba-bc16-4619-9f8f-2a6cd5c68e09"
      ],
      "songtypes": [
        "f02ad9b3-0bd9-4aad-85b3-9976739ba0e4"
      ],
      "songwriters": [
        "3887942e-6a82-4735-9918-2d445e3155f4",
        "a155ec5a-6531-41aa-8164-915f107349cb"
      ]
    },
    "title": "Mysterious Messenger",
    "titles": {
      "eng": "Mysterious Messenger"
    },
    "year": 2016
  }
}