{
  "header": {
    "version": 4,
    "description": "Karaoke Mugen Karaoke Data File"
  },
  "medias": [
    {
      "version": "Default",
      "filename": "ENG - KISS - MV - I Was Made for Lovin' You.mp4",
      "audiogain": -6.33,
      "loudnorm": "-11.20,0.78,3.30,-21.29,-0.52",
      "filesize": 70640044,
      "duration": 238,
      "default": true,
      "lyrics": [
        {
          "filename": "ENG - KISS - MV - I Was Made for Lovin' You.ass",
          "default": true,
          "version": "Default"
        }
      ]
    }
  ],
  "data": {
    "created_at": "2022-04-22T21:26:58.568Z",
    "ignoreHooks": false,
    "kid": "2a37ffae-521b-451b-b094-88b01fce811e",
    "modified_at": "2022-04-22T21:27:00.002Z",
    "repository": "kara.moe",
    "tags": {
      "authors": [
        "90414ca0-ab36-4879-8810-b032c6bfdab0"
      ],
      "collections": [
        "efe171c0-e8a1-4d03-98c0-60ecf741ad52"
      ],
      "creators": [
        "5ac82b42-28b8-4335-888a-f49ca379da38"
      ],
      "families": [
        "5391f9fe-638c-415f-8dc9-958e3a2c5787"
      ],
      "langs": [
        "de5eda1c-5fb3-46a6-9606-d4554fc5a1d6"
      ],
      "singers": [
        "27812131-b63a-4e63-a06c-4a6505b6decd"
      ],
      "songtypes": [
        "7be1b15c-cff8-4b37-a649-5c90f3d569a9"
      ],
      "songwriters": [
        "9f096393-4555-4be6-863d-7339ee3606f0",
        "71f1b2db-a48f-452c-9e5e-da9b8e72318c",
        "edcef23f-340c-44ae-ada0-c88c25e222a7"
      ],
      "groups": [
        "57e5e0c0-e02e-4871-a6cb-d48ea604ebab"
      ]
    },
    "titles": {
      "eng": "I Was Made for Lovin' You"
    },
    "titles_default_language": "eng",
    "title": "I Was Made for Lovin' You",
    "year": 1979
  }
}