{
  "header": {
    "version": 4,
    "description": "Karaoke Mugen Karaoke Data File"
  },
  "medias": [
    {
      "version": "Default",
      "filename": "ENG - Fire Emblem Fates Conquest - 3DS GAME IN - Lost in Thoughts All Alone.mp4",
      "audiogain": -1.34,
      "loudnorm": "-15.84,-2.55,4.90,-26.18,-1.30",
      "filesize": 37596535,
      "duration": 47,
      "default": true,
      "lyrics": [
        {
          "filename": "ENG - Fire Emblem Fates Conquest - 3DS GAME IN - Lost in Thoughts All Alone.ass",
          "default": true,
          "version": "Default",
          "subchecksum": "e0bb02c9e076101d61498b207da7cd60"
        }
      ]
    }
  ],
  "data": {
    "created_at": "2018-04-07T15:51:11.000Z",
    "kid": "9eea5e28-e864-4439-995a-383683b6c9a7",
    "modified_at": "2021-02-25T10:06:28.269Z",
    "repository": "kara.moe",
    "tags": {
      "authors": [
        "0081300d-c0f9-4cff-a4f7-e726a293a76b"
      ],
      "collections": [
        "c7db86a0-ff64-4044-9be4-66dd1ef1d1c1"
      ],
      "creators": [
        "65202019-808e-49c3-8c7c-a12f16394bba",
        "afc00319-3446-429e-8134-a797207fa070"
      ],
      "families": [
        "dbedd6b3-d125-4cd8-aa32-c4175e4ca3a3"
      ],
      "groups": [
        "ae613721-1fbe-480d-ba6b-d6d0702b184d"
      ],
      "langs": [
        "de5eda1c-5fb3-46a6-9606-d4554fc5a1d6"
      ],
      "platforms": [
        "d7393757-7de7-4247-ba59-120b3ceea9bf"
      ],
      "series": [
        "088a212c-f334-4e66-af7c-bee5f9785ed5"
      ],
      "singers": [
        "c853c4ad-8bd6-44f0-bc41-16bf71a1b8b0"
      ],
      "songtypes": [
        "5e5250d9-351a-4a82-98eb-55db50ad8962"
      ],
      "songwriters": [
        "cf7a36b8-54c1-4c24-acd7-af24a87578c1",
        "f6de5cb1-fce6-4ba7-9b46-27c9d53a00ae"
      ],
      "franchises": [
        "346c01b0-a356-4db7-9be5-0d499988886a"
      ]
    },
    "title": "Lost in Thoughts All Alone",
    "titles": {
      "eng": "Lost in Thoughts All Alone"
    },
    "year": 2016
  }
}