{
  "header": {
    "version": 4,
    "description": "Karaoke Mugen Karaoke Data File"
  },
  "medias": [
    {
      "version": "Default",
      "filename": "ENG - Arknights - GAME PV - Operation Pyrite ~ Short Vers.mp4",
      "audiogain": -8.08,
      "loudnorm": "-10.91,1.26,14.40,-21.70,-1.85",
      "filesize": 37393438,
      "duration": 82,
      "default": true,
      "lyrics": [
        {
          "filename": "ENG - Arknights - GAME PV - Operation Pyrite ~ Short Vers.ass",
          "default": true,
          "version": "Default"
        }
      ]
    }
  ],
  "data": {
    "created_at": "2022-10-15T17:58:36.247Z",
    "ignoreHooks": false,
    "kid": "ebc617bc-ea46-4c66-9c67-2ad21fa98805",
    "modified_at": "2023-01-29T23:29:57.762Z",
    "repository": "kara.moe",
    "tags": {
      "authors": [
        "8b1cad20-c50b-4d2b-8510-89b474ccd20e"
      ],
      "collections": [
        "c7db86a0-ff64-4044-9be4-66dd1ef1d1c1"
      ],
      "creators": [
        "2401a14c-16ce-4050-aeec-661b6517d3d2",
        "c8d3cda4-fdd3-4a9f-80ef-4eaa1bacc197"
      ],
      "families": [
        "dbedd6b3-d125-4cd8-aa32-c4175e4ca3a3"
      ],
      "groups": [
        "8e209ae4-4381-438f-89dc-1b21752027d2"
      ],
      "langs": [
        "de5eda1c-5fb3-46a6-9606-d4554fc5a1d6"
      ],
      "platforms": [
        "213a1a15-e73a-4a08-b3f6-b6e2745a82e5"
      ],
      "series": [
        "2203c1f8-7d80-4358-94f7-20d567ef783d"
      ],
      "singers": [
        "8ad8ba11-598b-45fa-91e9-4769f4042fc4"
      ],
      "songtypes": [
        "66e195b9-64ea-432d-a917-2e2c88d26052"
      ],
      "songwriters": [
        "d231b5af-2558-42a1-871f-493e9ee47ed0"
      ],
      "versions": [
        "d125c80a-86c1-4321-88e9-07b7800679b6"
      ],
      "franchises": [
        "6c9dee36-911a-4e24-8e5c-45e8545aca6f"
      ]
    },
    "titles": {
      "eng": "Operation Pyrite"
    },
    "titles_default_language": "eng",
    "titles_aliases": [
      "CC#1",
      "Burn Me to the Ground"
    ],
    "year": 2020
  }
}