{
  "header": {
    "version": 4,
    "description": "Karaoke Mugen Karaoke Data File"
  },
  "medias": [
    {
      "version": "Default",
      "filename": "ENG - Persona 4 The Golden - GAME SWITCH AUDIO IN - Time to make history ~ Full Vers.mp3",
      "audiogain": -6.19,
      "loudnorm": "-11.00,0.98,4.40,-21.04,-0.41",
      "filesize": 2725383,
      "duration": 151,
      "default": true,
      "lyrics": [
        {
          "filename": "ENG - Persona 4 The Golden - GAME SWITCH AUDIO IN - Time to make history ~ Full Vers.ass",
          "default": true,
          "version": "Default"
        }
      ]
    }
  ],
  "data": {
    "created_at": "2023-02-01T21:26:57.378Z",
    "ignoreHooks": false,
    "kid": "c66d4725-9585-429a-bdd4-c7e4a4f2c42a",
    "modified_at": "2023-02-01T21:32:41.601Z",
    "repository": "kara.moe",
    "tags": {
      "authors": [
        "06852e02-b77e-4106-b6f7-2d03942ad0ea"
      ],
      "collections": [
        "c7db86a0-ff64-4044-9be4-66dd1ef1d1c1"
      ],
      "creators": [
        "e9bb3a58-48d2-478c-bfe7-95237ddfe0fd"
      ],
      "families": [
        "dbedd6b3-d125-4cd8-aa32-c4175e4ca3a3"
      ],
      "groups": [
        "ae613721-1fbe-480d-ba6b-d6d0702b184d"
      ],
      "langs": [
        "de5eda1c-5fb3-46a6-9606-d4554fc5a1d6"
      ],
      "platforms": [
        "0a880bfc-d0e5-448b-98d2-4ba7b3106641",
        "248d92ee-8c02-43bc-86e2-cc6029883564",
        "3c15f758-e1bc-4266-8bb9-3c14112f504a",
        "569fdd6b-1a2c-424e-aab8-93c5891db245",
        "e791f168-068f-4c05-aa36-e8d63726aa06"
      ],
      "series": [
        "c0d2094a-fd63-443b-afed-5849e3c93e36"
      ],
      "singers": [
        "eaee2425-3cd4-4154-b04e-c7977dbe9de2"
      ],
      "songtypes": [
        "42a262ae-acba-4ab5-a446-c5789c96c821",
        "5e5250d9-351a-4a82-98eb-55db50ad8962"
      ],
      "songwriters": [
        "8b713fb8-07b2-4775-a094-8ca07fede289",
        "ec3a6acb-6751-49d9-84c7-b6b01ec163f4"
      ],
      "versions": [
        "c2143a7f-6970-450e-8a79-0302db9220a9"
      ],
      "franchises": [
        "d8030743-4563-41b9-a3e3-30a0b2fb2edb"
      ]
    },
    "titles": {
      "eng": "Time to make history"
    },
    "titles_default_language": "eng",
    "year": 2012
  }
}