{
  "header": {
    "version": 4,
    "description": "Karaoke Mugen Karaoke Data File"
  },
  "medias": [
    {
      "version": "Default",
      "filename": "ENG - D4DJ Groovy Mix - GAME MV - 24.mp4",
      "audiogain": -10.32,
      "loudnorm": "-7.74,1.53,5.30,-17.87,-0.84",
      "filesize": 54262965,
      "duration": 127,
      "default": true,
      "lyrics": [
        {
          "filename": "ENG - D4DJ Groovy Mix - GAME MV - 24.ass",
          "default": true,
          "version": "Default"
        }
      ]
    }
  ],
  "data": {
    "created_at": "2023-01-23T22:24:45.013Z",
    "ignoreHooks": false,
    "kid": "d969f503-8cf6-40a8-9521-2ddc8cbb345f",
    "modified_at": "2023-01-23T22:27:50.739Z",
    "repository": "kara.moe",
    "tags": {
      "authors": [
        "7848b5dc-a5df-4577-b640-147be5288cec"
      ],
      "collections": [
        "c7db86a0-ff64-4044-9be4-66dd1ef1d1c1"
      ],
      "creators": [
        "8b091e47-9075-4338-8b08-61b4de125843"
      ],
      "families": [
        "0377db02-3af6-43b8-9b08-c759df3d25c3",
        "dbedd6b3-d125-4cd8-aa32-c4175e4ca3a3"
      ],
      "genres": [
        "caa86df2-0d59-474b-885c-f240a9e891b0"
      ],
      "groups": [
        "8e209ae4-4381-438f-89dc-1b21752027d2"
      ],
      "langs": [
        "4dcf9614-7914-42aa-99f4-dbce2e059133",
        "de5eda1c-5fb3-46a6-9606-d4554fc5a1d6"
      ],
      "misc": [
        "1d6ceadf-a885-47e5-b23b-c07bf668a424"
      ],
      "platforms": [
        "213a1a15-e73a-4a08-b3f6-b6e2745a82e5"
      ],
      "series": [
        "93077816-d626-4bdb-a4a6-39300f0159cf"
      ],
      "singers": [
        "557ea46d-03d6-421b-8452-2703fd558562",
        "bbf38c20-4ff8-46ca-8e23-55a71286f0ef",
        "e3ec5558-2fa7-44e9-a4a4-59910a7a3370"
      ],
      "singergroups": [
        "6d679de1-81d9-418d-bf45-90b79f0ab9ab"
      ],
      "songtypes": [
        "7be1b15c-cff8-4b37-a649-5c90f3d569a9"
      ],
      "songwriters": [
        "72735eaa-bf34-441e-87fa-e99904e93ba7",
        "a4721b41-b1f1-409b-8afb-bfc57a322606"
      ],
      "franchises": [
        "e2e9382c-e3bd-4db9-abaf-194d09099ab0"
      ]
    },
    "titles": {
      "eng": "24"
    },
    "titles_default_language": "eng",
    "year": 2022
  }
}