{
  "header": {
    "version": 4,
    "description": "Karaoke Mugen Karaoke Data File"
  },
  "medias": [
    {
      "version": "Default",
      "filename": "ENG - Michael Jackson - MV - Billie Jean.mp4",
      "audiogain": -7.84,
      "loudnorm": "-10.28,4.76,2.90,-20.42,-0.44",
      "filesize": 34560141,
      "duration": 295,
      "default": true,
      "lyrics": [
        {
          "filename": "ENG - Michael Jackson - MV - Billie Jean.ass",
          "default": true,
          "version": "Default"
        }
      ]
    }
  ],
  "data": {
    "created_at": "2022-06-08T20:13:15.877Z",
    "ignoreHooks": false,
    "kid": "f3de8a03-6d46-4971-9028-a3816406aaf8",
    "modified_at": "2022-10-15T19:22:15.840Z",
    "repository": "kara.moe",
    "tags": {
      "authors": [
        "46ffd5ef-0a7d-4312-8295-374e7d8aefdf"
      ],
      "collections": [
        "efe171c0-e8a1-4d03-98c0-60ecf741ad52"
      ],
      "creators": [
        "1cd2f13e-05cb-49b5-b42f-96260f7a162b"
      ],
      "families": [
        "5391f9fe-638c-415f-8dc9-958e3a2c5787"
      ],
      "groups": [
        "7792cc27-9ff9-4d47-9287-2338b7db1575"
      ],
      "langs": [
        "de5eda1c-5fb3-46a6-9606-d4554fc5a1d6"
      ],
      "singers": [
        "d549402e-4aa6-4fde-806d-f24be1f40a3f"
      ],
      "songtypes": [
        "7be1b15c-cff8-4b37-a649-5c90f3d569a9"
      ],
      "songwriters": [
        "d549402e-4aa6-4fde-806d-f24be1f40a3f"
      ]
    },
    "titles": {
      "eng": "Billie Jean"
    },
    "titles_default_language": "eng",
    "title": "Billie Jean",
    "year": 1983
  }
}