{
  "header": {
    "version": 4,
    "description": "Karaoke Mugen Karaoke Data File"
  },
  "medias": [
    {
      "version": "Default",
      "filename": "ENG - MYTH & ROID - MV - TRAGEDY ETERNITY.mp4",
      "audiogain": 3.68,
      "loudnorm": "-20.56,-11.92,14.80,-31.64,-0.23",
      "filesize": 43972692,
      "duration": 244,
      "default": true,
      "lyrics": [
        {
          "filename": "ENG - MYTH & ROID - MV - TRAGEDY ETERNITY.ass",
          "default": true,
          "version": "Default"
        }
      ]
    }
  ],
  "data": {
    "created_at": "2019-06-19T19:49:43.000Z",
    "kid": "bbeba0a2-c85b-4679-aa45-4bd71eb134db",
    "modified_at": "2022-06-04T00:22:12.622Z",
    "repository": "kara.moe",
    "songorder": null,
    "tags": {
      "authors": [
        "40c5db68-0a74-48e7-b233-71177a099d62"
      ],
      "creators": [
        "cc52425c-a381-4a81-a4b9-ac0d5ccba5ab"
      ],
      "families": [
        "5391f9fe-638c-415f-8dc9-958e3a2c5787"
      ],
      "groups": [
        "2b4e9972-5e17-481b-99f5-d0787c0ada56",
        "ae613721-1fbe-480d-ba6b-d6d0702b184d"
      ],
      "langs": [
        "4dcf9614-7914-42aa-99f4-dbce2e059133",
        "de5eda1c-5fb3-46a6-9606-d4554fc5a1d6"
      ],
      "singers": [
        "80421b19-c148-48d8-af54-ac45aae600c6"
      ],
      "songtypes": [
        "7be1b15c-cff8-4b37-a649-5c90f3d569a9"
      ],
      "songwriters": [
        "78fa17da-da22-49d1-bdd6-577a0ae659a6",
        "80421b19-c148-48d8-af54-ac45aae600c6"
      ],
      "collections": [
        "dbcf2c22-524d-4708-99bb-601703633927"
      ]
    },
    "titles": {
      "eng": "TRAGEDY:ETERNITY"
    },
    "titles_default_language": "eng",
    "title": "TRAGEDY:ETERNITY",
    "year": 2017
  }
}