{
  "header": {
    "version": 4,
    "description": "Karaoke Mugen Karaoke Data File"
  },
  "medias": [
    {
      "version": "Default",
      "filename": "ENG - Iselin Solheim - MV - Faded.mp4",
      "audiogain": -9.31,
      "loudnorm": "-7.73,1.97,7.20,-18.04,-1.48",
      "filesize": 38230827,
      "duration": 212,
      "default": true,
      "lyrics": [
        {
          "filename": "ENG - Iselin Solheim - MV - Faded.ass",
          "default": true,
          "version": "Default"
        }
      ]
    }
  ],
  "data": {
    "created_at": "2022-03-20T13:50:42.221Z",
    "ignoreHooks": false,
    "kid": "5d5b4512-1392-43fd-8943-e8fe8c50fdb1",
    "modified_at": "2022-03-20T13:50:42.221Z",
    "repository": "kara.moe",
    "tags": {
      "authors": [
        "b6721ec8-5f6a-46f8-aaba-ce56b822723b"
      ],
      "collections": [
        "efe171c0-e8a1-4d03-98c0-60ecf741ad52"
      ],
      "creators": [
        "5b29bf8d-93e9-4601-9992-0b2b6d87e27d"
      ],
      "families": [
        "5391f9fe-638c-415f-8dc9-958e3a2c5787"
      ],
      "groups": [
        "ae613721-1fbe-480d-ba6b-d6d0702b184d"
      ],
      "langs": [
        "de5eda1c-5fb3-46a6-9606-d4554fc5a1d6"
      ],
      "singers": [
        "24d79fd0-1723-4e20-ba63-8dab5aa59a84"
      ],
      "songtypes": [
        "7be1b15c-cff8-4b37-a649-5c90f3d569a9"
      ],
      "songwriters": [
        "31a992c5-15b0-4d4a-97f9-46fdeab39f59",
        "fd6524b3-89d6-4e8e-962a-e0d60378c6ca",
        "a43570a1-bcd1-4d5b-9830-451a864dc5d1",
        "3cb3f617-96b4-4753-ae65-25774926e433"
      ]
    },
    "titles": {
      "eng": "Faded"
    },
    "title": "Faded",
    "year": 2015
  }
}