{
  "header": {
    "version": 4,
    "description": "Karaoke Mugen Karaoke Data File"
  },
  "medias": [
    {
      "version": "Default",
      "filename": "ENG - Hazbin Hotel - ONA IN - Inside of Every Demon Is a Rainbow.mp4",
      "audiogain": 1.09,
      "loudnorm": "-18.96,-7.42,6.60,-29.22,-0.69",
      "filesize": 114335059,
      "duration": 131,
      "default": true,
      "lyrics": [
        {
          "filename": "ENG - Hazbin Hotel - ONA IN - Inside of Every Demon Is a Rainbow.ass",
          "default": true,
          "version": "Default"
        }
      ]
    }
  ],
  "data": {
    "created_at": "2022-01-17T23:01:03.722Z",
    "kid": "8775dea7-b86f-4ccb-ae8c-39f4f03e11df",
    "modified_at": "2022-07-20T11:28:49.183Z",
    "repository": "kara.moe",
    "tags": {
      "authors": [
        "684ce13c-fe6a-4010-8462-d6a1210fe1de"
      ],
      "families": [
        "0377db02-3af6-43b8-9b08-c759df3d25c3"
      ],
      "groups": [
        "ae613721-1fbe-480d-ba6b-d6d0702b184d"
      ],
      "langs": [
        "de5eda1c-5fb3-46a6-9606-d4554fc5a1d6"
      ],
      "misc": [
        "ec4fee75-71fb-45b4-9772-2ca374b4b600"
      ],
      "origins": [
        "8db3e098-06ef-45e5-bba9-cb04a21c1e66"
      ],
      "series": [
        "01771299-284c-434b-aa02-8c1a5861480f"
      ],
      "songtypes": [
        "5e5250d9-351a-4a82-98eb-55db50ad8962"
      ],
      "songwriters": [
        "9b9a94ee-b936-48d3-9df3-318c0aab0a04"
      ],
      "collections": [
        "c7db86a0-ff64-4044-9be4-66dd1ef1d1c1"
      ],
      "warnings": [
        "e82ce681-6d7b-4fb6-abe4-daa8aaa9bbf9"
      ]
    },
    "titles": {
      "eng": "Inside of Every Demon Is a Rainbow"
    },
    "titles_default_language": "eng",
    "title": "Inside of Every Demon Is a Rainbow",
    "year": 2019
  }
}