{
  "header": {
    "version": 4,
    "description": "Karaoke Mugen Karaoke Data File"
  },
  "medias": [
    {
      "version": "Default",
      "filename": "ENG - Super Smash Bros. Ultimate - SWITCH GAME OP - Lifelight.mp4",
      "audiogain": -2.74,
      "loudnorm": "-16.12,-0.54,8.00,-26.18,-0.88",
      "filesize": 95922791,
      "duration": 134,
      "default": true,
      "lyrics": [
        {
          "filename": "ENG - Super Smash Bros. Ultimate - SWITCH GAME OP - Lifelight.ass",
          "default": true,
          "version": "Default",
          "subchecksum": "5d5c679d59c2d2ba7541c6bb8fffafe1"
        }
      ]
    }
  ],
  "data": {
    "created_at": "2018-12-08T20:26:08.000Z",
    "kid": "d7af12a5-b02b-4c0c-a9bd-511b651b4ad6",
    "modified_at": "2021-02-25T10:18:17.337Z",
    "parents": [
      "8272bcf4-0cd0-46b8-be0b-4417d86eba79"
    ],
    "repository": "kara.moe",
    "tags": {
      "authors": [
        "1df04771-a378-4f14-a5e1-1455187d681a"
      ],
      "collections": [
        "c7db86a0-ff64-4044-9be4-66dd1ef1d1c1"
      ],
      "creators": [
        "65202019-808e-49c3-8c7c-a12f16394bba"
      ],
      "families": [
        "dbedd6b3-d125-4cd8-aa32-c4175e4ca3a3"
      ],
      "groups": [
        "ae613721-1fbe-480d-ba6b-d6d0702b184d"
      ],
      "langs": [
        "de5eda1c-5fb3-46a6-9606-d4554fc5a1d6"
      ],
      "platforms": [
        "0a880bfc-d0e5-448b-98d2-4ba7b3106641"
      ],
      "series": [
        "7e60cd9e-f83a-4f36-bc70-f5fae6ef6d37"
      ],
      "singers": [
        "e17986e2-7d73-4b38-800d-17bb178d06f5"
      ],
      "songtypes": [
        "f02ad9b3-0bd9-4aad-85b3-9976739ba0e4"
      ],
      "songwriters": [
        "53658c1f-e153-4637-9e04-d7eaa51a2346"
      ],
      "franchises": [
        "99db442a-6182-41d6-a3a7-e42c11bd929d"
      ]
    },
    "title": "Lifelight",
    "titles": {
      "eng": "Lifelight"
    },
    "year": 2018
  }
}