{
  "header": {
    "version": 4,
    "description": "Karaoke Mugen Karaoke Data File"
  },
  "medias": [
    {
      "version": "Default",
      "filename": "ENG - The Police - MV - Every Breath You Take.mp4",
      "audiogain": -5.73,
      "loudnorm": "-12.40,0.49,3.60,-22.49,-0.29",
      "filesize": 69314467,
      "duration": 228,
      "default": true,
      "lyrics": [
        {
          "filename": "ENG - The Police - MV - Every Breath You Take.ass",
          "default": true,
          "version": "Default",
          "subchecksum": "894f0711327c2cce24e49e4dfd82e2a9"
        }
      ]
    }
  ],
  "data": {
    "created_at": "2020-07-11T23:33:09.575Z",
    "kid": "7aa5f12b-298b-4fb5-9137-21d0ae93f355",
    "modified_at": "2021-02-25T14:50:51.899Z",
    "repository": "kara.moe",
    "tags": {
      "authors": [
        "2b8b79d0-13ac-4fa6-8bb4-58e8f78bc7bb"
      ],
      "collections": [
        "efe171c0-e8a1-4d03-98c0-60ecf741ad52"
      ],
      "creators": [
        "e42c532c-c4a7-4b80-a137-d9e21bcfecae"
      ],
      "families": [
        "5391f9fe-638c-415f-8dc9-958e3a2c5787"
      ],
      "groups": [
        "7792cc27-9ff9-4d47-9287-2338b7db1575"
      ],
      "langs": [
        "de5eda1c-5fb3-46a6-9606-d4554fc5a1d6"
      ],
      "singers": [
        "4a7d7155-bd52-4e1d-9bc1-b1a43d3957e3"
      ],
      "songtypes": [
        "7be1b15c-cff8-4b37-a649-5c90f3d569a9"
      ],
      "songwriters": [
        "815dac99-3634-483f-832f-e69a2c45fce9"
      ]
    },
    "title": "Every Breath You Take",
    "titles": {
      "eng": "Every Breath You Take"
    },
    "year": 1983
  }
}