{
  "header": {
    "version": 4,
    "description": "Karaoke Mugen Karaoke Data File"
  },
  "medias": [
    {
      "version": "Default",
      "filename": "ENG - Touhou - AMV - Go! Go! Carlito.mp4",
      "audiogain": -9.53,
      "loudnorm": "-7.71,1.63,1.00,-17.73,-0.22",
      "filesize": 29377783,
      "duration": 201,
      "default": true,
      "lyrics": [
        {
          "filename": "ENG - Touhou - AMV - Go! Go! Carlito.ass",
          "default": true,
          "version": "Default"
        }
      ]
    }
  ],
  "data": {
    "created_at": "2019-06-07T19:46:04.000Z",
    "kid": "3e4d0bf8-124a-46af-a88a-74f6b132fa61",
    "modified_at": "2021-07-22T19:15:48.444Z",
    "repository": "kara.moe",
    "tags": {
      "authors": [
        "10dd9fe7-e71e-47d6-85be-da1017f995f4"
      ],
      "collections": [
        "c7db86a0-ff64-4044-9be4-66dd1ef1d1c1"
      ],
      "creators": [
        "645eaa84-0a0c-470d-a97c-b6ca9283fee1"
      ],
      "families": [
        "0377db02-3af6-43b8-9b08-c759df3d25c3"
      ],
      "groups": [
        "2b4e9972-5e17-481b-99f5-d0787c0ada56",
        "ae613721-1fbe-480d-ba6b-d6d0702b184d"
      ],
      "langs": [
        "de5eda1c-5fb3-46a6-9606-d4554fc5a1d6"
      ],
      "origins": [
        "ac5085db-52d8-44b4-8fbb-1697b24d2046"
      ],
      "series": [
        "1bdaa5a1-dfa6-4365-b746-7a0b194dafd6"
      ],
      "singers": [
        "451b0da7-2b2d-4dfb-9d82-a23f3ade4382"
      ],
      "songtypes": [
        "a6c79ce5-89ee-4d50-afe8-3abd7317f6c2"
      ],
      "songwriters": [
        "b2653434-d9c4-4a38-a2ac-d1c33271628e"
      ],
      "franchises": [
        "1bdaa5a1-dfa6-4365-b746-7a0b194dafd6"
      ]
    },
    "title": "Go! Go! Carlito",
    "titles": {
      "eng": "Go! Go! Carlito"
    },
    "year": 2011
  }
}