{
  "header": {
    "version": 4,
    "description": "Karaoke Mugen Karaoke Data File"
  },
  "medias": [
    {
      "version": "Default",
      "filename": "ENG - Cyberpunk Edgerunners - ONA OP - This Fffire.mp4",
      "audiogain": -0.35,
      "loudnorm": "-17.78,-3.02,4.70,-28.00,-1.18",
      "filesize": 54223049,
      "duration": 89,
      "default": true,
      "lyrics": [
        {
          "filename": "ENG - Cyberpunk Edgerunners - ONA OP - This Fffire.ass",
          "default": true,
          "version": "Default"
        }
      ]
    }
  ],
  "data": {
    "created_at": "2022-07-03T02:14:01.932Z",
    "ignoreHooks": false,
    "kid": "82546615-63ac-48d3-9afd-31f96fa01d9f",
    "modified_at": "2022-09-17T14:30:47.818Z",
    "parents": [
      "890401f2-54f0-41f5-a440-c802612194b7"
    ],
    "repository": "kara.moe",
    "tags": {
      "authors": [
        "1df04771-a378-4f14-a5e1-1455187d681a"
      ],
      "collections": [
        "c7db86a0-ff64-4044-9be4-66dd1ef1d1c1"
      ],
      "creators": [
        "9a515ca0-48ae-4ded-ac8f-3cccc586794a"
      ],
      "families": [
        "0377db02-3af6-43b8-9b08-c759df3d25c3"
      ],
      "groups": [
        "8e209ae4-4381-438f-89dc-1b21752027d2"
      ],
      "langs": [
        "de5eda1c-5fb3-46a6-9606-d4554fc5a1d6"
      ],
      "origins": [
        "8db3e098-06ef-45e5-bba9-cb04a21c1e66"
      ],
      "series": [
        "3d8c0056-fca0-4b5d-a7ba-32d4ca1ae0ef"
      ],
      "singers": [
        "33d92b1e-ef0b-401e-b0c7-ed5f59b65a6a"
      ],
      "songtypes": [
        "f02ad9b3-0bd9-4aad-85b3-9976739ba0e4"
      ],
      "songwriters": [
        "8387b795-00a2-44c9-9afb-846458a34b6a",
        "cd90dd9f-1007-4025-9d18-f64fa18b6c5d"
      ],
      "franchises": [
        "59414586-1fb0-494f-9522-f964c285b55b"
      ]
    },
    "titles": {
      "eng": "This Fffire"
    },
    "titles_default_language": "eng",
    "title": "This Fffire",
    "year": 2022
  }
}