{
  "header": {
    "version": 4,
    "description": "Karaoke Mugen Karaoke Data File"
  },
  "medias": [
    {
      "version": "Default",
      "filename": "ENG - Cyberpunk Edgerunners - ONA MV - Let You Down ~ Full Vers.mp4",
      "audiogain": -6.53,
      "loudnorm": "-10.11,0.61,11.10,-20.53,-2.13",
      "filesize": 107267076,
      "duration": 252,
      "default": true,
      "lyrics": [
        {
          "filename": "ENG - Cyberpunk Edgerunners - ONA MV - Let You Down ~ Full Vers.ass",
          "default": true,
          "version": "Default"
        }
      ]
    }
  ],
  "data": {
    "created_at": "2022-09-20T07:10:27.083Z",
    "ignoreHooks": false,
    "kid": "2f198509-d614-4920-8ef4-e4abe9e57edc",
    "modified_at": "2022-11-16T15:32:19.731Z",
    "parents": [
      "6f49e756-f0a4-41aa-8064-7ae0a286fb81"
    ],
    "repository": "kara.moe",
    "tags": {
      "authors": [
        "1df04771-a378-4f14-a5e1-1455187d681a",
        "9cdf3b70-3550-457c-bdb9-038f3253c6ad"
      ],
      "collections": [
        "c7db86a0-ff64-4044-9be4-66dd1ef1d1c1",
        "efe171c0-e8a1-4d03-98c0-60ecf741ad52"
      ],
      "creators": [
        "95b8ce1e-5208-4772-9f3b-879ed6d42197",
        "acbc1744-fab5-476c-b320-28e3409cc38e"
      ],
      "families": [
        "0377db02-3af6-43b8-9b08-c759df3d25c3"
      ],
      "groups": [
        "8e209ae4-4381-438f-89dc-1b21752027d2"
      ],
      "langs": [
        "de5eda1c-5fb3-46a6-9606-d4554fc5a1d6"
      ],
      "origins": [
        "8db3e098-06ef-45e5-bba9-cb04a21c1e66"
      ],
      "series": [
        "3d8c0056-fca0-4b5d-a7ba-32d4ca1ae0ef"
      ],
      "singers": [
        "332956fe-8207-41af-80b8-79c7296e8e44"
      ],
      "songtypes": [
        "7be1b15c-cff8-4b37-a649-5c90f3d569a9"
      ],
      "songwriters": [
        "278ba37c-c4fd-43ff-8939-6598a82ff89e",
        "332956fe-8207-41af-80b8-79c7296e8e44"
      ],
      "versions": [
        "c2143a7f-6970-450e-8a79-0302db9220a9"
      ],
      "franchises": [
        "59414586-1fb0-494f-9522-f964c285b55b"
      ]
    },
    "titles": {
      "eng": "Let You Down"
    },
    "titles_default_language": "eng",
    "year": 2022
  }
}