{
  "header": {
    "version": 4,
    "description": "Karaoke Mugen Karaoke Data File"
  },
  "medias": [
    {
      "version": "Default",
      "filename": "ENG - Nightwish - LIVE - The Phantom of the Opera ~ Cover Full Vers.mp4",
      "audiogain": -6.98,
      "loudnorm": "-10.55,0.83,3.30,-20.55,-0.87",
      "filesize": 117131333,
      "duration": 280,
      "default": true,
      "lyrics": [
        {
          "filename": "ENG - Nightwish - LIVE - The Phantom of the Opera ~ Cover Full Vers.ass",
          "default": true,
          "version": "Default"
        }
      ]
    }
  ],
  "data": {
    "created_at": "2020-07-11T22:17:26.457Z",
    "ignoreHooks": false,
    "kid": "8f55ed2f-6d07-4aeb-ade2-a0a3d443dfbb",
    "modified_at": "2022-12-21T22:36:34.565Z",
    "parents": [
      "986497d7-83c5-4671-971b-20294173de90"
    ],
    "repository": "kara.moe",
    "tags": {
      "authors": [
        "4d71ce82-eed1-4c44-ac85-5f7255f3dad3"
      ],
      "collections": [
        "efe171c0-e8a1-4d03-98c0-60ecf741ad52"
      ],
      "creators": [
        "c1c2e579-aabc-4eae-ad9d-3f319b5de6e3"
      ],
      "families": [
        "5391f9fe-638c-415f-8dc9-958e3a2c5787"
      ],
      "groups": [
        "3c14c864-533c-49e6-a3cc-6969f1233775"
      ],
      "langs": [
        "de5eda1c-5fb3-46a6-9606-d4554fc5a1d6"
      ],
      "singers": [
        "00a2c951-b5ff-4ad9-8dca-38503772edea"
      ],
      "songtypes": [
        "a0167949-580c-4de3-bf13-497e462e02f3"
      ],
      "songwriters": [
        "6ff00822-e576-47a2-a086-f8bcc996b3af",
        "b4e0eb5a-7413-46d1-8c99-5ed2dfb6d7c1"
      ],
      "versions": [
        "03e1e1d2-8641-47b7-bbcb-39a3df9ff21c",
        "c2143a7f-6970-450e-8a79-0302db9220a9"
      ]
    },
    "titles": {
      "eng": "The Phantom of the Opera"
    },
    "titles_default_language": "eng",
    "year": 2006
  }
}