{
  "header": {
    "description": "Karaoke Mugen Karaoke Data File",
    "version": 4
  },
  "medias": [
    {
      "version": "Default",
      "filename": "ENG - Hoobastank - MV - The Reason.mp4",
      "audiogain": -9.75,
      "loudnorm": "-7.14,1.51,8.30,-17.39,-1.33",
      "filesize": 54437254,
      "duration": 250,
      "default": true,
      "lyrics": [
        {
          "filename": "ENG - Hoobastank - MV - The Reason.ass",
          "default": true,
          "version": "Default"
        }
      ]
    }
  ],
  "data": {
    "created_at": "2022-06-08T19:58:10.545Z",
    "kid": "d209db4a-c8dd-4e9c-9d8f-518ef19d7d82",
    "modified_at": "2022-06-08T19:58:10.545Z",
    "tags": {
      "authors": [
        "0c8e4377-ee35-4896-89ed-9d06a1b5acd5"
      ],
      "creators": [
        "35cf30c4-8701-4295-be83-6806dbe744ea",
        "438a4f9a-8573-40ed-a436-364aa3505f36"
      ],
      "families": [
        "5391f9fe-638c-415f-8dc9-958e3a2c5787"
      ],
      "groups": [
        "3c14c864-533c-49e6-a3cc-6969f1233775"
      ],
      "langs": [
        "de5eda1c-5fb3-46a6-9606-d4554fc5a1d6"
      ],
      "singers": [
        "d9adfdd8-7b54-41be-b721-2223a943a15f"
      ],
      "songtypes": [
        "7be1b15c-cff8-4b37-a649-5c90f3d569a9"
      ],
      "songwriters": [
        "f2eebb7e-24fa-4ea2-af46-ba1e25614e6c",
        "efeac64c-5167-4c24-9ee2-5dc07992a44e"
      ],
      "collections": [
        "efe171c0-e8a1-4d03-98c0-60ecf741ad52"
      ]
    },
    "titles": {
      "eng": "The Reason"
    },
    "titles_default_language": "eng",
    "titles_aliases": [],
    "title": "The Reason",
    "year": "2004",
    "repository": "kara.moe"
  }
}