{
  "header": {
    "description": "Karaoke Mugen Karaoke Data File",
    "version": 4
  },
  "medias": [
    {
      "version": "Default",
      "filename": "ENG - Coldplay - MV - Viva la Vida.mp4",
      "audiogain": 1.52,
      "loudnorm": "-18.83,-7.66,6.80,-29.23,-1.38",
      "filesize": 50729859,
      "duration": 242,
      "default": true,
      "lyrics": [
        {
          "filename": "ENG - Coldplay - MV - Viva la Vida.ass",
          "default": true,
          "version": "Default"
        }
      ]
    }
  ],
  "data": {
    "created_at": "2022-08-02T14:28:44.529Z",
    "kid": "4390cca3-bd4c-45f9-97ef-c22accbcad67",
    "modified_at": "2022-08-02T14:28:44.529Z",
    "tags": {
      "authors": [
        "05a9ba5a-f0c8-4e3c-b389-130918b92afe"
      ],
      "creators": [
        "f3c0da2d-91a5-48b4-87d2-b246e8826cda",
        "6468c4c7-8cea-42ed-9e9c-0ac0d108065d"
      ],
      "families": [
        "5391f9fe-638c-415f-8dc9-958e3a2c5787"
      ],
      "groups": [
        "3c14c864-533c-49e6-a3cc-6969f1233775"
      ],
      "langs": [
        "de5eda1c-5fb3-46a6-9606-d4554fc5a1d6"
      ],
      "singers": [
        "bbe4f73f-1463-4a07-be99-f79540aee9fb"
      ],
      "songtypes": [
        "7be1b15c-cff8-4b37-a649-5c90f3d569a9"
      ],
      "songwriters": [
        "45cc8008-fd0c-4314-a334-9d726a568b58",
        "45c72caa-b9bf-49e7-adb4-8adaadb96270",
        "41c592f5-dd71-4e85-a545-5d74806a40a3",
        "c709428e-c34e-4858-b645-2462e35607a2"
      ],
      "collections": [
        "efe171c0-e8a1-4d03-98c0-60ecf741ad52"
      ]
    },
    "titles": {
      "eng": "Viva la Vida"
    },
    "titles_default_language": "eng",
    "titles_aliases": [],
    "title": "Viva la Vida",
    "year": "2008",
    "repository": "kara.moe"
  }
}