{
  "header": {
    "version": 4,
    "description": "Karaoke Mugen Karaoke Data File"
  },
  "medias": [
    {
      "version": "Default",
      "filename": "ENG - Bastard!! - ONA OP - Bloody Power Fame.mp4",
      "audiogain": 5.34,
      "loudnorm": "-21.64,-11.65,2.40,-31.87,-0.00",
      "filesize": 33898060,
      "duration": 90,
      "default": true,
      "lyrics": [
        {
          "filename": "ENG - Bastard!! - ONA OP - Bloody Power Fame.ass",
          "default": true,
          "version": "Default"
        }
      ]
    }
  ],
  "data": {
    "created_at": "2022-07-12T12:27:30.560Z",
    "ignoreHooks": false,
    "kid": "93bb753a-8c48-4610-a449-b34c2fd51ee0",
    "modified_at": "2022-07-12T12:27:32.029Z",
    "repository": "kara.moe",
    "tags": {
      "authors": [
        "06852e02-b77e-4106-b6f7-2d03942ad0ea"
      ],
      "collections": [
        "c7db86a0-ff64-4044-9be4-66dd1ef1d1c1"
      ],
      "creators": [
        "58186e9d-9478-47dc-8c95-eeea5c0a3317"
      ],
      "families": [
        "0377db02-3af6-43b8-9b08-c759df3d25c3"
      ],
      "langs": [
        "de5eda1c-5fb3-46a6-9606-d4554fc5a1d6"
      ],
      "misc": [
        "fe819ff1-9db8-4a0f-85dc-0e322c9126c4"
      ],
      "origins": [
        "938de218-5343-4865-94d3-fb33f2eaa152",
        "8db3e098-06ef-45e5-bba9-cb04a21c1e66"
      ],
      "series": [
        "7f6ad3ae-b0c8-49a2-9884-69fc9d598b92"
      ],
      "singers": [
        "84b1caa6-7778-497d-be86-35dff884e540"
      ],
      "songtypes": [
        "f02ad9b3-0bd9-4aad-85b3-9976739ba0e4"
      ],
      "songwriters": [
        "efe1c522-43e0-4578-a58b-db359dfffcad",
        "99f06b35-90d6-418c-9ae8-dd659dd617e0"
      ],
      "groups": [
        "8e209ae4-4381-438f-89dc-1b21752027d2"
      ]
    },
    "titles": {
      "eng": "Bloody Power Fame"
    },
    "titles_default_language": "eng",
    "title": "Bloody Power Fame",
    "year": 2022
  }
}