{
  "header": {
    "version": 4,
    "description": "Karaoke Mugen Karaoke Data File"
  },
  "medias": [
    {
      "version": "Default",
      "filename": "ENG - Lupin III - AUDIO IN - Nice Guy Lupin Two Beat.mp3",
      "audiogain": -2.59,
      "loudnorm": "-17.07,0.67,5.50,-27.23,0.45",
      "filesize": 1453650,
      "duration": 68,
      "default": true,
      "lyrics": [
        {
          "filename": "ENG - Lupin III - AUDIO IN - Nice Guy Lupin Two Beat.ass",
          "default": true,
          "version": "Default",
          "subchecksum": "6991f25c5e128415a5499ecb614a3ba3"
        }
      ]
    }
  ],
  "data": {
    "created_at": "2020-05-10T17:01:56.181Z",
    "kid": "2202fe62-f51b-4ca9-8d23-6c3528c32ec6",
    "modified_at": "2021-02-25T10:11:57.914Z",
    "repository": "kara.moe",
    "tags": {
      "authors": [
        "5cb3d0c5-479e-4224-b6ec-b27209e933a0"
      ],
      "collections": [
        "c7db86a0-ff64-4044-9be4-66dd1ef1d1c1"
      ],
      "creators": [
        "b8d4695c-5e54-4723-a315-f4462d85fca5"
      ],
      "groups": [
        "57e5e0c0-e02e-4871-a6cb-d48ea604ebab",
        "60defa7b-774e-4680-8321-51b742c2e009"
      ],
      "langs": [
        "de5eda1c-5fb3-46a6-9606-d4554fc5a1d6"
      ],
      "series": [
        "f0deb9e6-1914-4984-ad4a-3e9406fdd7b0"
      ],
      "singers": [
        "aadcbffb-a437-412d-b7b1-8751af069f9e"
      ],
      "songtypes": [
        "42a262ae-acba-4ab5-a446-c5789c96c821",
        "5e5250d9-351a-4a82-98eb-55db50ad8962"
      ],
      "songwriters": [
        "95d3c97d-10a5-4935-b606-be5f3766cf1c",
        "a8a03a1b-5019-4490-a529-a3f637e0a2e3"
      ],
      "franchises": [
        "561e6fe6-d886-4eec-881d-fdc9d1504942"
      ]
    },
    "title": "Nice Guy Lupin: Two Beat",
    "titles": {
      "eng": "Nice Guy Lupin: Two Beat"
    },
    "year": 1971
  }
}