{
  "header": {
    "version": 4,
    "description": "Karaoke Mugen Karaoke Data File"
  },
  "medias": [
    {
      "version": "Default",
      "filename": "ENG - Wolf's Rain - AUDIO IN - could you bite the hand question_mark.mp3",
      "audiogain": -6.34,
      "loudnorm": "-11.97,1.23,4.30,-22.09,-0.45",
      "filesize": 9909091,
      "duration": 219,
      "default": true,
      "lyrics": [
        {
          "filename": "ENG - Wolf's Rain - AUDIO IN - could you bite the hand question_mark.ass",
          "default": true,
          "version": "Default",
          "subchecksum": "4bf8598954637240d0380e242f50d254"
        }
      ]
    }
  ],
  "data": {
    "created_at": "2020-07-21T17:33:58.309Z",
    "kid": "8dd25c58-87ec-4894-aca3-85cbf5c97048",
    "modified_at": "2021-02-25T10:20:00.842Z",
    "repository": "kara.moe",
    "tags": {
      "authors": [
        "60defa7b-774e-4680-8321-51b742c2e009"
      ],
      "collections": [
        "c7db86a0-ff64-4044-9be4-66dd1ef1d1c1"
      ],
      "families": [
        "0377db02-3af6-43b8-9b08-c759df3d25c3"
      ],
      "groups": [
        "3c14c864-533c-49e6-a3cc-6969f1233775",
        "60defa7b-774e-4680-8321-51b742c2e009"
      ],
      "langs": [
        "de5eda1c-5fb3-46a6-9606-d4554fc5a1d6"
      ],
      "origins": [
        "938de218-5343-4865-94d3-fb33f2eaa152"
      ],
      "series": [
        "368694ad-ab78-47f4-a3f6-7fae50b51d01"
      ],
      "singers": [
        "a772a8cb-5f3e-40fc-9c58-5467bf982b52"
      ],
      "songtypes": [
        "42a262ae-acba-4ab5-a446-c5789c96c821",
        "5e5250d9-351a-4a82-98eb-55db50ad8962"
      ],
      "songwriters": [
        "af0be06d-ea2d-4f46-85d1-58cf9f42532a"
      ]
    },
    "title": "could you bite the hand?",
    "titles": {
      "eng": "could you bite the hand?"
    },
    "year": 2003
  }
}