{
  "header": {
    "version": 4,
    "description": "Karaoke Mugen Karaoke Data File"
  },
  "medias": [
    {
      "version": "Default",
      "filename": "ENG - ICO - GAME PS2 AMV - You were there.mp4",
      "audiogain": -5.2,
      "loudnorm": "-12.61,1.00,13.40,-23.11,-1.38",
      "filesize": 119444841,
      "duration": 255,
      "default": true,
      "lyrics": [
        {
          "filename": "ENG - ICO - GAME PS2 AMV - You were there.ass",
          "default": true,
          "version": "Default"
        }
      ]
    }
  ],
  "data": {
    "created_at": "2017-10-11T17:02:53.000Z",
    "kid": "3129e332-9a93-471f-82ee-a0b29624c037",
    "modified_at": "2022-07-20T11:38:29.856Z",
    "repository": "kara.moe",
    "tags": {
      "authors": [
        "5bdaba57-27f8-4568-8806-76a807728766"
      ],
      "creators": [
        "9cf8d287-6707-4758-ad30-d0d985a4609d"
      ],
      "families": [
        "dbedd6b3-d125-4cd8-aa32-c4175e4ca3a3"
      ],
      "groups": [
        "3c14c864-533c-49e6-a3cc-6969f1233775"
      ],
      "langs": [
        "de5eda1c-5fb3-46a6-9606-d4554fc5a1d6"
      ],
      "misc": [
        "fe819ff1-9db8-4a0f-85dc-0e322c9126c4"
      ],
      "platforms": [
        "2173004e-21da-45c9-9dfb-26014423c566"
      ],
      "series": [
        "8f800776-e90c-4a6c-829f-6253c64cc3d8"
      ],
      "singers": [
        "5cc16cec-b0b3-4dd5-aec9-6f7334c97e0e"
      ],
      "songtypes": [
        "a6c79ce5-89ee-4d50-afe8-3abd7317f6c2"
      ],
      "songwriters": [
        "4b1f5490-7149-45e5-812b-cdfe4f930198",
        "bad10aec-be36-42b0-97f0-852c473631c0"
      ],
      "collections": [
        "c7db86a0-ff64-4044-9be4-66dd1ef1d1c1"
      ],
      "warnings": [
        "24371984-5e4c-4485-a937-fb0c480ca23b"
      ]
    },
    "titles": {
      "eng": "You were there"
    },
    "titles_default_language": "eng",
    "title": "You were there",
    "year": 2001
  }
}