{
  "header": {
    "version": 4,
    "description": "Karaoke Mugen Karaoke Data File"
  },
  "medias": [
    {
      "version": "Sapphire.",
      "filename": "ENG - Promare - REMIX MOVIE AMV - Kakusei ~ Sapphire Vers. ~ Alternative Cover Vers.mp4",
      "audiogain": -8.84,
      "loudnorm": "-8.26,1.02,9.90,-18.62,-1.43",
      "filesize": 104784964,
      "duration": 255,
      "default": true,
      "lyrics": [
        {
          "filename": "ENG - Promare - REMIX MOVIE AMV - Kakusei ~ Sapphire Vers. ~ Alternative Cover Vers.ass",
          "default": true,
          "version": "Default"
        }
      ]
    }
  ],
  "data": {
    "created_at": "2020-08-27T13:24:02.140Z",
    "kid": "b516c76f-3636-430b-9217-6e43f190c07b",
    "modified_at": "2022-07-20T11:39:39.077Z",
    "parents": [
      "5cb469d6-d931-4152-b9e4-771e41259010"
    ],
    "repository": "kara.moe",
    "tags": {
      "authors": [
        "56b54c89-86ae-4635-992f-ddc1234b8015"
      ],
      "creators": [
        "9a515ca0-48ae-4ded-ac8f-3cccc586794a"
      ],
      "families": [
        "0377db02-3af6-43b8-9b08-c759df3d25c3"
      ],
      "genres": [
        "f60ba57d-5ef4-49e0-b93b-d0dcbcff6592"
      ],
      "groups": [
        "8c22c899-b3ed-42da-a548-ce00f950798b",
        "9a8e0fbc-dcae-4989-be82-7cad3436f1f5",
        "ae613721-1fbe-480d-ba6b-d6d0702b184d"
      ],
      "langs": [
        "de5eda1c-5fb3-46a6-9606-d4554fc5a1d6"
      ],
      "misc": [
        "ec4360fa-3e3c-4f6f-b0e1-fb8b12b6dd18"
      ],
      "origins": [
        "c8ca9dea-d8b4-48fe-8427-d911653232e9"
      ],
      "series": [
        "2e0843e9-ffaa-42ec-8bb6-a955d899724b"
      ],
      "singers": [
        "406408e8-a5fb-476d-b417-b9d3b4dda687"
      ],
      "songtypes": [
        "a6c79ce5-89ee-4d50-afe8-3abd7317f6c2"
      ],
      "songwriters": [
        "3d206a49-e09b-4694-ac72-18906637e56d",
        "406408e8-a5fb-476d-b417-b9d3b4dda687",
        "e331c957-0447-4c8f-bf82-e79f7898d851"
      ],
      "versions": [
        "03e1e1d2-8641-47b7-bbcb-39a3df9ff21c",
        "9f63c359-d1bf-425a-bcf5-b245c2c9211d"
      ],
      "collections": [
        "c7db86a0-ff64-4044-9be4-66dd1ef1d1c1"
      ],
      "warnings": [
        "24371984-5e4c-4485-a937-fb0c480ca23b"
      ]
    },
    "titles": {
      "eng": "Kakusei ~ Sapphire Vers."
    },
    "titles_default_language": "eng",
    "title": "Kakusei ~ Sapphire Vers.",
    "year": 2019
  }
}