{
  "header": {
    "version": 4,
    "description": "Karaoke Mugen Karaoke Data File"
  },
  "medias": [
    {
      "version": "Default",
      "filename": "ENG - Bob Marley - MV - No Woman, No Cry.mp4",
      "audiogain": -6.29,
      "loudnorm": "-12.26,0.44,5.30,-22.30,-0.48",
      "filesize": 61070402,
      "duration": 322,
      "default": true,
      "lyrics": [
        {
          "filename": "ENG - Bob Marley - MV - No Woman, No Cry.ass",
          "default": true,
          "version": "Default"
        }
      ]
    }
  ],
  "data": {
    "created_at": "2022-04-22T23:30:45.261Z",
    "ignoreHooks": false,
    "kid": "03dc6c5a-23a8-4dd4-a2e4-5636a7c9c7e9",
    "modified_at": "2022-04-22T23:30:46.872Z",
    "repository": "kara.moe",
    "tags": {
      "authors": [
        "0c8e4377-ee35-4896-89ed-9d06a1b5acd5"
      ],
      "collections": [
        "efe171c0-e8a1-4d03-98c0-60ecf741ad52"
      ],
      "creators": [
        "40e79918-379f-43d3-980b-75550b6a5f14",
        "35cf30c4-8701-4295-be83-6806dbe744ea"
      ],
      "families": [
        "5391f9fe-638c-415f-8dc9-958e3a2c5787"
      ],
      "langs": [
        "de5eda1c-5fb3-46a6-9606-d4554fc5a1d6"
      ],
      "singers": [
        "961a126f-cc50-4a43-af52-8d8c1d6d825a"
      ],
      "songtypes": [
        "7be1b15c-cff8-4b37-a649-5c90f3d569a9"
      ],
      "songwriters": [
        "961a126f-cc50-4a43-af52-8d8c1d6d825a"
      ],
      "groups": [
        "57e5e0c0-e02e-4871-a6cb-d48ea604ebab"
      ],
      "misc": [
        "86705d4b-24e4-4756-9687-2b9c98bcf366"
      ]
    },
    "titles": {
      "eng": "No Woman, No Cry"
    },
    "titles_default_language": "eng",
    "title": "No Woman, No Cry",
    "year": 1974
  }
}