{
  "header": {
    "version": 4,
    "description": "Karaoke Mugen Karaoke Data File"
  },
  "medias": [
    {
      "version": "Default",
      "filename": "ENG - Nanatsu no Taizai - AUDIO IN - Perfect Time Re Arr.mp3",
      "audiogain": -8.72,
      "loudnorm": "-8.54,1.68,5.70,-18.57,-1.17",
      "filesize": 4928776,
      "duration": 292,
      "default": true,
      "lyrics": [
        {
          "filename": "ENG - Nanatsu no Taizai - AUDIO IN - Perfect Time Re Arr.ass",
          "default": true,
          "version": "Default"
        }
      ]
    }
  ],
  "data": {
    "created_at": "2022-01-11T21:08:02.115Z",
    "ignoreHooks": false,
    "kid": "417f7a6e-d84f-4d11-a885-d7a60f4ed96f",
    "modified_at": "2022-01-11T21:09:26.038Z",
    "repository": "kara.moe",
    "tags": {
      "authors": [
        "4d71ce82-eed1-4c44-ac85-5f7255f3dad3"
      ],
      "collections": [
        "c7db86a0-ff64-4044-9be4-66dd1ef1d1c1"
      ],
      "creators": [
        "b96e3686-bbe0-4b9e-815a-a278d5ff31be"
      ],
      "families": [
        "0377db02-3af6-43b8-9b08-c759df3d25c3"
      ],
      "genres": [
        "a0aeef4a-6428-45ff-a6e1-468b595930c2"
      ],
      "groups": [
        "ae613721-1fbe-480d-ba6b-d6d0702b184d"
      ],
      "langs": [
        "de5eda1c-5fb3-46a6-9606-d4554fc5a1d6"
      ],
      "origins": [
        "938de218-5343-4865-94d3-fb33f2eaa152"
      ],
      "series": [
        "72476610-0ddd-4261-8ff7-a98ecaf66563"
      ],
      "singers": [
        "bf9c4a15-8bfe-444b-8fc2-e4802c7d712b",
        "d4986569-4951-4e55-83ee-d87104a2f799"
      ],
      "songtypes": [
        "42a262ae-acba-4ab5-a446-c5789c96c821",
        "5e5250d9-351a-4a82-98eb-55db50ad8962"
      ],
      "songwriters": [
        "59621685-8dc1-4ce1-93b3-cf6c11dda3aa",
        "d4986569-4951-4e55-83ee-d87104a2f799"
      ],
      "franchises": [
        "72476610-0ddd-4261-8ff7-a98ecaf66563"
      ]
    },
    "titles": {
      "eng": "Perfect Time ᐸRe Arrᐳ",
      "jpn": "Perfect Time <再arr>",
      "qro": "Perfect Time ᐸRe Arrᐳ"
    },
    "title": "Perfect Time ᐸRe Arrᐳ",
    "year": 2015
  }
}