{
  "header": {
    "version": 4,
    "description": "Karaoke Mugen Karaoke Data File"
  },
  "medias": [
    {
      "version": "Default",
      "filename": "ENG - Lady Gaga - MV - Bad Romance.mp4",
      "audiogain": -8.61,
      "loudnorm": "-8.24,1.44,4.40,-18.24,-0.26",
      "filesize": 154804727,
      "duration": 283,
      "default": true,
      "lyrics": [
        {
          "filename": "ENG - Lady Gaga - MV - Bad Romance.ass",
          "default": true,
          "version": "Default"
        }
      ]
    }
  ],
  "data": {
    "created_at": "2021-11-21T21:09:59.228Z",
    "kid": "c031f714-8351-45a9-b95a-6801b892bd30",
    "modified_at": "2021-11-21T21:30:22.225Z",
    "repository": "kara.moe",
    "tags": {
      "authors": [
        "57c0d78b-1300-48cd-ba5c-4b65d891f0ed"
      ],
      "collections": [
        "efe171c0-e8a1-4d03-98c0-60ecf741ad52"
      ],
      "creators": [
        "278c128b-5c0b-49bf-9a06-ab0794a1a9d2",
        "5ccd3d6d-03de-448a-9bb8-fadb30db6be1",
        "a578a772-c980-4f43-b5e5-fbbf122794cf"
      ],
      "families": [
        "5391f9fe-638c-415f-8dc9-958e3a2c5787"
      ],
      "groups": [
        "3c14c864-533c-49e6-a3cc-6969f1233775"
      ],
      "langs": [
        "de5eda1c-5fb3-46a6-9606-d4554fc5a1d6"
      ],
      "singers": [
        "2fa04cb7-90ce-4004-9cb9-c5361e03f886"
      ],
      "songtypes": [
        "7be1b15c-cff8-4b37-a649-5c90f3d569a9"
      ],
      "songwriters": [
        "2fa04cb7-90ce-4004-9cb9-c5361e03f886",
        "a14bf1d2-3747-4e50-a71a-add9d27f5e6a"
      ]
    },
    "titles": {
      "eng": "Bad Romance"
    },
    "title": "Bad Romance",
    "year": 2009
  }
}