{
  "header": {
    "description": "Karaoke Mugen Karaoke Data File",
    "version": 4
  },
  "medias": [
    {
      "version": "Default",
      "filename": "ENG - Linkin Park - MV - Numb.mp4",
      "audiogain": -5.95,
      "loudnorm": "-10.95,-2.23,8.60,-21.17,-1.11",
      "filesize": 9000900,
      "duration": 186,
      "default": true,
      "lyrics": [
        {
          "filename": "ENG - Linkin Park - MV - Numb.ass",
          "default": true,
          "version": "Default"
        }
      ]
    }
  ],
  "data": {
    "created_at": "2022-06-08T19:28:03.363Z",
    "kid": "4d61b6cb-523a-412b-a7e9-8b09fb791568",
    "modified_at": "2022-06-08T19:28:03.363Z",
    "tags": {
      "authors": [
        "ea28a818-4f57-42c3-a03a-a350233978f1"
      ],
      "creators": [
        "ce01d9ea-dd98-4bd4-b333-7a37414646b5"
      ],
      "families": [
        "5391f9fe-638c-415f-8dc9-958e3a2c5787"
      ],
      "groups": [
        "3c14c864-533c-49e6-a3cc-6969f1233775"
      ],
      "langs": [
        "de5eda1c-5fb3-46a6-9606-d4554fc5a1d6"
      ],
      "singers": [
        "3ca303db-483e-4b1e-b337-efcef04d9751"
      ],
      "songtypes": [
        "7be1b15c-cff8-4b37-a649-5c90f3d569a9"
      ],
      "songwriters": [
        "3ca303db-483e-4b1e-b337-efcef04d9751"
      ],
      "collections": [
        "efe171c0-e8a1-4d03-98c0-60ecf741ad52"
      ]
    },
    "titles": {
      "eng": "Numb"
    },
    "titles_default_language": "eng",
    "titles_aliases": [],
    "title": "Numb",
    "year": "2003",
    "repository": "kara.moe"
  }
}