{
  "header": {
    "version": 4,
    "description": "Karaoke Mugen Karaoke Data File"
  },
  "medias": [
    {
      "version": "Default",
      "filename": "ENG - League of Legends - PC GAME MV - RISE.mp4",
      "audiogain": -1.1,
      "loudnorm": "-16.49,-5.04,7.10,-26.93,-1.55",
      "filesize": 41680896,
      "duration": 210,
      "default": true,
      "lyrics": [
        {
          "filename": "ENG - League of Legends - PC GAME MV - RISE.ass",
          "default": true,
          "version": "Default",
          "subchecksum": "3a57f8da6d2f32fbc122239648da26b6"
        }
      ]
    }
  ],
  "data": {
    "created_at": "2020-10-25T14:41:38.861Z",
    "kid": "f6550521-38c6-4d1f-89a7-b90a12cf179b",
    "modified_at": "2021-02-25T10:11:30.188Z",
    "repository": "kara.moe",
    "tags": {
      "authors": [
        "8605a8b9-3b45-44b9-9d98-1a25096bf702"
      ],
      "collections": [
        "c7db86a0-ff64-4044-9be4-66dd1ef1d1c1"
      ],
      "creators": [
        "4d1b9aac-f0ca-42de-a2f0-eff2869ea6e3",
        "ab4a1c5e-2578-4fb9-8913-03d530ea2d45"
      ],
      "families": [
        "dbedd6b3-d125-4cd8-aa32-c4175e4ca3a3"
      ],
      "groups": [
        "ae613721-1fbe-480d-ba6b-d6d0702b184d"
      ],
      "langs": [
        "de5eda1c-5fb3-46a6-9606-d4554fc5a1d6"
      ],
      "platforms": [
        "3c15f758-e1bc-4266-8bb9-3c14112f504a"
      ],
      "series": [
        "f76f47b0-f820-454f-8cc5-2ec0bf5b3d28"
      ],
      "singers": [
        "2c4e6f1f-89b9-48ee-a41b-5cbfe732b147",
        "dfc4673c-3b4b-46e7-b78b-bb879d026ddd"
      ],
      "songtypes": [
        "7be1b15c-cff8-4b37-a649-5c90f3d569a9"
      ],
      "songwriters": [
        "04abdffe-8b06-4350-b521-8a5789a75890",
        "a37ca975-c7dd-45f2-b561-88ca4a4dc1aa",
        "f2c1af78-c61d-4635-beaa-ce7569530aa9"
      ],
      "franchises": [
        "f76f47b0-f820-454f-8cc5-2ec0bf5b3d28"
      ]
    },
    "title": "RISE",
    "titles": {
      "eng": "RISE"
    },
    "year": 2018
  }
}