{
  "header": {
    "version": 4,
    "description": "Karaoke Mugen Karaoke Data File"
  },
  "medias": [
    {
      "version": "Default",
      "filename": "ENG - Shin Seiki Evangelion, Tenacious D in The Pick of Destiny - MOVIE AMV - We know you're (not) robots.mp4",
      "audiogain": -7.09,
      "loudnorm": "-10.41,1.66,7.10,-20.59,-1.22",
      "filesize": 38717772,
      "duration": 149,
      "default": true,
      "lyrics": [
        {
          "filename": "ENG - Shin Seiki Evangelion, Tenacious D in The Pick of Destiny - MOVIE AMV - We know you're (not) robots.ass",
          "default": true,
          "version": "Default"
        }
      ]
    }
  ],
  "data": {
    "created_at": "2022-06-27T19:31:55.334Z",
    "ignoreHooks": false,
    "kid": "0e8258b1-056e-43c3-91a7-b0af43699901",
    "modified_at": "2022-07-10T18:01:09.738Z",
    "repository": "kara.moe",
    "tags": {
      "authors": [
        "db867b9b-f487-444d-9f24-142c4324a235"
      ],
      "collections": [
        "c7db86a0-ff64-4044-9be4-66dd1ef1d1c1"
      ],
      "families": [
        "0377db02-3af6-43b8-9b08-c759df3d25c3",
        "5391f9fe-638c-415f-8dc9-958e3a2c5787"
      ],
      "groups": [
        "3c14c864-533c-49e6-a3cc-6969f1233775",
        "8e209ae4-4381-438f-89dc-1b21752027d2"
      ],
      "langs": [
        "de5eda1c-5fb3-46a6-9606-d4554fc5a1d6"
      ],
      "misc": [
        "07af42d1-824e-407e-bf37-7fb84905484b"
      ],
      "origins": [
        "938de218-5343-4865-94d3-fb33f2eaa152",
        "c8ca9dea-d8b4-48fe-8427-d911653232e9"
      ],
      "series": [
        "af74c4e9-b42d-42c6-9fe0-0365aa8d8ffc",
        "b9721e56-9887-455c-9f91-05daa5966e02"
      ],
      "singers": [
        "46e414f4-0ac2-4bd5-ac57-1a95bcb0efd0"
      ],
      "songtypes": [
        "a6c79ce5-89ee-4d50-afe8-3abd7317f6c2"
      ],
      "songwriters": [
        "46e414f4-0ac2-4bd5-ac57-1a95bcb0efd0",
        "5999862c-f141-4d99-acb7-3701f5cbf1f9"
      ],
      "franchises": [
        "f5c46257-58e9-4eac-92ce-7d02fd528809"
      ]
    },
    "titles": {
      "eng": "We know you're (not) robots"
    },
    "titles_default_language": "eng",
    "title": "We know you're (not) robots",
    "year": 2020
  }
}