{
  "header": {
    "version": 4,
    "description": "Karaoke Mugen Karaoke Data File"
  },
  "medias": [
    {
      "version": "Default",
      "filename": "ENG - League of Legends - PC GAME MV - Diana Theme Song.mp4",
      "audiogain": 2.73,
      "loudnorm": "-20.77,-6.18,8.60,-31.09,-1.05",
      "filesize": 25155976,
      "duration": 136,
      "default": true,
      "lyrics": [
        {
          "filename": "ENG - League of Legends - PC GAME MV - Diana Theme Song.ass",
          "default": true,
          "version": "Default",
          "subchecksum": "a684e361f597d07968dcf7ae6d24f90e"
        }
      ]
    }
  ],
  "data": {
    "created_at": "2017-10-11T17:02:23.000Z",
    "kid": "732a4f6b-3e65-449a-a74a-68dff9b71756",
    "modified_at": "2021-02-25T10:11:24.383Z",
    "repository": "kara.moe",
    "tags": {
      "authors": [
        "8c22c899-b3ed-42da-a548-ce00f950798b"
      ],
      "collections": [
        "c7db86a0-ff64-4044-9be4-66dd1ef1d1c1"
      ],
      "creators": [
        "4d1b9aac-f0ca-42de-a2f0-eff2869ea6e3"
      ],
      "families": [
        "dbedd6b3-d125-4cd8-aa32-c4175e4ca3a3"
      ],
      "groups": [
        "3c14c864-533c-49e6-a3cc-6969f1233775",
        "8c22c899-b3ed-42da-a548-ce00f950798b"
      ],
      "langs": [
        "de5eda1c-5fb3-46a6-9606-d4554fc5a1d6"
      ],
      "platforms": [
        "3c15f758-e1bc-4266-8bb9-3c14112f504a"
      ],
      "series": [
        "f76f47b0-f820-454f-8cc5-2ec0bf5b3d28"
      ],
      "singers": [
        "569b6170-34df-4226-82aa-4d74b03bc946"
      ],
      "songtypes": [
        "7be1b15c-cff8-4b37-a649-5c90f3d569a9"
      ],
      "songwriters": [
        "00178442-164a-457c-9452-9ad357a2abbb",
        "02135a0f-2b00-43de-8296-ba368ba0d9ba",
        "2604678d-537a-41dc-997c-d47980d4ac5a",
        "3f1db32e-811b-4d5b-b2fc-69bfc4ba2d52",
        "431a754a-f4e7-4930-9271-6fd89208ed86",
        "ee493af6-fe48-4475-9023-4bd0fc9873a2"
      ],
      "franchises": [
        "f76f47b0-f820-454f-8cc5-2ec0bf5b3d28"
      ]
    },
    "title": "Diana Theme Song",
    "titles": {
      "eng": "Diana Theme Song"
    },
    "year": 2009
  }
}