{
  "header": {
    "version": 4,
    "description": "Karaoke Mugen Karaoke Data File"
  },
  "medias": [
    {
      "version": "Default",
      "filename": "ENG - Final Fantasy XIV - GAME PS4 AUDIO IN - Scream ~ Full Vers.mp3",
      "audiogain": -6.53,
      "loudnorm": "-10.53,1.02,5.50,-20.59,-0.77",
      "filesize": 5323723,
      "duration": 259,
      "default": true,
      "lyrics": [
        {
          "filename": "ENG - Final Fantasy XIV - GAME PS4 AUDIO IN - Scream ~ Full Vers.ass",
          "default": true,
          "version": "Default"
        }
      ]
    }
  ],
  "data": {
    "comment": "Changement d'image du mp3 pour que la lecture soit plus facile",
    "created_at": "2022-09-21T08:35:40.063Z",
    "ignoreHooks": false,
    "kid": "48f18ae8-13d8-4555-ac7e-86080ee6f971",
    "modified_at": "2022-12-22T16:08:52.433Z",
    "repository": "kara.moe",
    "tags": {
      "authors": [
        "31a3036f-e2af-4cc9-a45e-bdf9d42ee041"
      ],
      "collections": [
        "c7db86a0-ff64-4044-9be4-66dd1ef1d1c1"
      ],
      "creators": [
        "ac4a5180-97af-4679-adcd-70ab39919d48"
      ],
      "families": [
        "dbedd6b3-d125-4cd8-aa32-c4175e4ca3a3"
      ],
      "groups": [
        "8e209ae4-4381-438f-89dc-1b21752027d2"
      ],
      "langs": [
        "de5eda1c-5fb3-46a6-9606-d4554fc5a1d6"
      ],
      "platforms": [
        "248d92ee-8c02-43bc-86e2-cc6029883564",
        "3c15f758-e1bc-4266-8bb9-3c14112f504a",
        "d22db878-440d-46c1-a749-ae575c78983d"
      ],
      "series": [
        "728e625e-ce49-40bf-92c0-b0e2efc6a994"
      ],
      "singers": [
        "d64446ba-b6de-465e-8a1d-2dea222eebc9"
      ],
      "singergroups": [
        "4f300512-aae4-4525-8007-cf24369a794c"
      ],
      "songtypes": [
        "42a262ae-acba-4ab5-a446-c5789c96c821",
        "5e5250d9-351a-4a82-98eb-55db50ad8962"
      ],
      "songwriters": [
        "75b6226d-95e2-4ba4-979d-da381e1c0e7b"
      ],
      "versions": [
        "c2143a7f-6970-450e-8a79-0302db9220a9"
      ],
      "franchises": [
        "595c5b14-54f8-4885-a689-02296506a704"
      ]
    },
    "titles": {
      "eng": "Scream"
    },
    "titles_default_language": "eng",
    "year": 2022
  }
}