{
  "header": {
    "version": 4,
    "description": "Karaoke Mugen Karaoke Data File"
  },
  "medias": [
    {
      "version": "Default",
      "filename": "ENG - Steins Gate ELITE - PS4 SWITCH GAME OP - Cosmic Looper.mp4",
      "audiogain": -5.85,
      "loudnorm": "-11.20,0.50,8.50,-21.31,-1.49",
      "filesize": 23450048,
      "duration": 138,
      "default": true,
      "lyrics": [
        {
          "filename": "ENG - Steins Gate ELITE - PS4 SWITCH GAME OP - Cosmic Looper.ass",
          "default": true,
          "version": "Default"
        }
      ]
    }
  ],
  "data": {
    "created_at": "2019-06-20T21:08:57.000Z",
    "kid": "c0a3b320-4d1d-40f4-9622-34ed20d6d532",
    "modified_at": "2021-07-22T19:15:16.184Z",
    "repository": "kara.moe",
    "tags": {
      "authors": [
        "bdca117b-c695-44b3-b8a6-76b458ad7888"
      ],
      "collections": [
        "c7db86a0-ff64-4044-9be4-66dd1ef1d1c1"
      ],
      "creators": [
        "7a8ad2ad-018d-4341-9be4-77bfc39a6edd"
      ],
      "families": [
        "dbedd6b3-d125-4cd8-aa32-c4175e4ca3a3"
      ],
      "groups": [
        "2b4e9972-5e17-481b-99f5-d0787c0ada56",
        "ae613721-1fbe-480d-ba6b-d6d0702b184d"
      ],
      "langs": [
        "de5eda1c-5fb3-46a6-9606-d4554fc5a1d6"
      ],
      "origins": [
        "2f96e82c-c61b-4413-817e-e6b247509b95"
      ],
      "platforms": [
        "0a880bfc-d0e5-448b-98d2-4ba7b3106641",
        "248d92ee-8c02-43bc-86e2-cc6029883564"
      ],
      "series": [
        "369887a7-e6be-45a6-94ae-67d0e5cc74aa"
      ],
      "singers": [
        "3b97f60d-23e3-4e23-bf7f-9835bba682a7"
      ],
      "songtypes": [
        "f02ad9b3-0bd9-4aad-85b3-9976739ba0e4"
      ],
      "songwriters": [
        "66339ced-7df9-40c8-aefd-59b2990df294"
      ],
      "franchises": [
        "afc0f5fc-26e3-4292-b818-1e96c196988a"
      ]
    },
    "title": "Cosmic Looper",
    "titles": {
      "eng": "Cosmic Looper"
    },
    "year": 2018
  }
}