{
  "header": {
    "version": 4,
    "description": "Karaoke Mugen Karaoke Data File"
  },
  "medias": [
    {
      "version": "Default",
      "filename": "ENG - The Beatles Rock Band - GAME PS3 XBOX360 WII OP - The Beatles Rock Band Intro.mp4",
      "audiogain": -9.49,
      "loudnorm": "-9.16,1.50,8.50,-19.95,-0.37",
      "filesize": 36981955,
      "duration": 154,
      "default": true,
      "lyrics": [
        {
          "filename": "ENG - The Beatles Rock Band - GAME PS3 XBOX360 WII OP - The Beatles Rock Band Intro.ass",
          "default": true,
          "version": "Default"
        }
      ]
    }
  ],
  "data": {
    "created_at": "2021-10-03T17:03:19.474Z",
    "kid": "9b4952d9-78d1-4846-a453-2940a9af2084",
    "modified_at": "2021-10-03T17:09:07.201Z",
    "repository": "kara.moe",
    "tags": {
      "authors": [
        "5a629611-96b4-422c-b309-ba7a58e263a2"
      ],
      "collections": [
        "c7db86a0-ff64-4044-9be4-66dd1ef1d1c1"
      ],
      "creators": [
        "0efe58d5-ac16-41a8-a083-72999c6a1bcd",
        "ac44584b-6dc0-4288-8f55-ca600efe9373"
      ],
      "families": [
        "dbedd6b3-d125-4cd8-aa32-c4175e4ca3a3"
      ],
      "groups": [
        "3c14c864-533c-49e6-a3cc-6969f1233775"
      ],
      "langs": [
        "de5eda1c-5fb3-46a6-9606-d4554fc5a1d6"
      ],
      "platforms": [
        "78d46ef5-c98a-44dd-ad00-5d8c44b6271b",
        "7f63ff91-7961-4488-888d-4bf46eea3a2a",
        "d56f8d9d-9ccd-4ac8-a164-da0e62d1c060"
      ],
      "series": [
        "2a4ab2f0-77fc-4119-b6d4-1b2895854262"
      ],
      "singers": [
        "144c32f0-3568-4df0-95cb-e1f86d563574"
      ],
      "songtypes": [
        "f02ad9b3-0bd9-4aad-85b3-9976739ba0e4"
      ],
      "songwriters": [
        "2337cde2-3d4b-485d-80a9-5255d07d0056",
        "b628ad85-67d2-4001-8ec5-47907249ece9",
        "ba98fd9d-0c67-4a7b-ab5b-db1eeb6007bb"
      ]
    },
    "titles": {
      "eng": "The Beatles: Rock Band Intro"
    },
    "title": "The Beatles: Rock Band Intro",
    "year": 2009
  }
}