{
  "header": {
    "version": 4,
    "description": "Karaoke Mugen Karaoke Data File"
  },
  "medias": [
    {
      "version": "Default",
      "filename": "ENG - Sonic The Hedgehog - GAME AMV - His World ~ Full Vers.mp4",
      "audiogain": -9.59,
      "loudnorm": "-7.28,1.47,3.20,-17.33,-0.77",
      "filesize": 75327109,
      "duration": 280,
      "default": true,
      "lyrics": [
        {
          "filename": "ENG - Sonic The Hedgehog - GAME AMV - His World ~ Full Vers.ass",
          "default": true,
          "version": "Default"
        }
      ]
    }
  ],
  "data": {
    "created_at": "2022-07-16T01:42:40.563Z",
    "ignoreHooks": false,
    "kid": "dfcd160e-45a1-4268-934f-b2256badeb56",
    "modified_at": "2022-07-16T01:48:48.339Z",
    "repository": "kara.moe",
    "tags": {
      "authors": [
        "06852e02-b77e-4106-b6f7-2d03942ad0ea"
      ],
      "collections": [
        "c7db86a0-ff64-4044-9be4-66dd1ef1d1c1"
      ],
      "creators": [
        "b8a3778d-0864-4135-9053-1def02d3262e"
      ],
      "families": [
        "dbedd6b3-d125-4cd8-aa32-c4175e4ca3a3"
      ],
      "groups": [
        "3c14c864-533c-49e6-a3cc-6969f1233775"
      ],
      "langs": [
        "de5eda1c-5fb3-46a6-9606-d4554fc5a1d6"
      ],
      "misc": [
        "ec4fee75-71fb-45b4-9772-2ca374b4b600"
      ],
      "series": [
        "7ea913cb-a1d7-420c-acba-ea96c965c87f"
      ],
      "singers": [
        "c94b0508-4f0e-4732-a7c1-af01fe8b1eae",
        "f5724057-2dd5-4fc9-b164-7462c4151574"
      ],
      "songtypes": [
        "a6c79ce5-89ee-4d50-afe8-3abd7317f6c2"
      ],
      "songwriters": [
        "37f9d8fa-eef7-41a9-8ad8-8671ab63183c"
      ],
      "versions": [
        "c2143a7f-6970-450e-8a79-0302db9220a9"
      ],
      "franchises": [
        "09c42215-106e-4379-b6cf-787fb812aaae"
      ]
    },
    "titles": {
      "eng": "His World"
    },
    "titles_default_language": "eng",
    "title": "His World",
    "year": 2006
  }
}