{
  "header": {
    "version": 4,
    "description": "Karaoke Mugen Karaoke Data File"
  },
  "medias": [
    {
      "version": "Default",
      "filename": "ENG - RWBY - ONA AUDIO IN - Bad Luck Charm.mp3",
      "audiogain": -5.86,
      "loudnorm": "-10.67,-0.05,5.10,-20.78,-1.15",
      "filesize": 8991193,
      "duration": 217,
      "default": true,
      "lyrics": [
        {
          "filename": "ENG - RWBY - ONA AUDIO IN - Bad Luck Charm.ass",
          "default": true,
          "version": "Default",
          "subchecksum": "3e3d6171b2b436f579bb88fa1e33fa61"
        }
      ]
    }
  ],
  "data": {
    "created_at": "2021-07-12T16:51:45.158Z",
    "kid": "d273848d-50bc-424d-88b2-6ef7b324ff11",
    "modified_at": "2021-07-12T16:54:18.830Z",
    "repository": "kara.moe",
    "tags": {
      "authors": [
        "9cdf3b70-3550-457c-bdb9-038f3253c6ad"
      ],
      "collections": [
        "c7db86a0-ff64-4044-9be4-66dd1ef1d1c1"
      ],
      "creators": [
        "86f7951e-5483-4382-84ff-e7cdce425bdd"
      ],
      "families": [
        "0377db02-3af6-43b8-9b08-c759df3d25c3"
      ],
      "groups": [
        "ae613721-1fbe-480d-ba6b-d6d0702b184d"
      ],
      "langs": [
        "de5eda1c-5fb3-46a6-9606-d4554fc5a1d6"
      ],
      "origins": [
        "8db3e098-06ef-45e5-bba9-cb04a21c1e66"
      ],
      "series": [
        "186e4181-0393-4db5-b9d5-7bb33cd946d8"
      ],
      "singers": [
        "bf136ea0-5cb0-493b-bd86-a780f55d0cb2"
      ],
      "songtypes": [
        "42a262ae-acba-4ab5-a446-c5789c96c821",
        "5e5250d9-351a-4a82-98eb-55db50ad8962"
      ],
      "songwriters": [
        "bf136ea0-5cb0-493b-bd86-a780f55d0cb2"
      ],
      "franchises": [
        "186e4181-0393-4db5-b9d5-7bb33cd946d8"
      ]
    },
    "title": "Bad Luck Charm",
    "titles": {
      "eng": "Bad Luck Charm"
    },
    "year": 2017
  }
}