{
  "header": {
    "version": 4,
    "description": "Karaoke Mugen Karaoke Data File"
  },
  "medias": [
    {
      "version": "Default",
      "filename": "ENG - Eurythmics - MV - Sweet Dreams (Are Made of This).mp4",
      "audiogain": -2.17,
      "loudnorm": "-15.53,-1.35,5.10,-25.74,-0.74",
      "filesize": 74162765,
      "duration": 214,
      "default": true,
      "lyrics": [
        {
          "filename": "ENG - Eurythmics - MV - Sweet Dreams (Are Made of This).ass",
          "default": true,
          "version": "Default"
        }
      ]
    }
  ],
  "data": {
    "created_at": "2022-04-21T19:54:27.709Z",
    "ignoreHooks": false,
    "kid": "ed3c2aa9-d077-4222-991a-9dda07554162",
    "modified_at": "2022-04-21T20:02:36.255Z",
    "repository": "kara.moe",
    "tags": {
      "authors": [
        "90414ca0-ab36-4879-8810-b032c6bfdab0"
      ],
      "collections": [
        "efe171c0-e8a1-4d03-98c0-60ecf741ad52"
      ],
      "creators": [
        "011b3ef8-7a64-4816-b94c-1c21bc24e833"
      ],
      "families": [
        "5391f9fe-638c-415f-8dc9-958e3a2c5787"
      ],
      "groups": [
        "7792cc27-9ff9-4d47-9287-2338b7db1575"
      ],
      "langs": [
        "de5eda1c-5fb3-46a6-9606-d4554fc5a1d6"
      ],
      "singers": [
        "a8e344f8-fdfb-4156-a6c9-c88236e5f8ba"
      ],
      "songtypes": [
        "7be1b15c-cff8-4b37-a649-5c90f3d569a9"
      ],
      "songwriters": [
        "c3813a48-61b5-48e0-83e9-2eb2bb8cdc8a",
        "c75cf024-ccfc-4b3d-a34a-f9708f61fbb1"
      ]
    },
    "titles": {
      "eng": "Sweet Dreams (Are Made of This)"
    },
    "titles_default_language": "eng",
    "title": "Sweet Dreams (Are Made of This)",
    "year": 1983
  }
}