{
  "header": {
    "version": 4,
    "description": "Karaoke Mugen Karaoke Data File"
  },
  "medias": [
    {
      "version": "Default",
      "filename": "ENG - Jack Harlow, Lil Nas X - MV - Industry Baby.mp4",
      "audiogain": -4.16,
      "loudnorm": "-12.14,-0.35,3.90,-22.68,-0.56",
      "filesize": 89183086,
      "duration": 235,
      "default": true,
      "lyrics": [
        {
          "filename": "ENG - Jack Harlow, Lil Nas X - MV - Industry Baby.ass",
          "default": true,
          "version": "Default"
        }
      ]
    }
  ],
  "data": {
    "comment": "MellohNi: Ajout de choeur",
    "created_at": "2022-12-02T19:37:39.465Z",
    "ignoreHooks": false,
    "kid": "e79389f4-127d-4936-b94a-8db921aebe8d",
    "modified_at": "2022-12-05T15:55:28.091Z",
    "repository": "kara.moe",
    "tags": {
      "authors": [
        "b4f85fe8-01ca-4f70-8b7f-f03c2f028d27"
      ],
      "collections": [
        "efe171c0-e8a1-4d03-98c0-60ecf741ad52"
      ],
      "creators": [
        "28a02f79-daaf-4037-8897-3458e80a5b41"
      ],
      "families": [
        "5391f9fe-638c-415f-8dc9-958e3a2c5787"
      ],
      "groups": [
        "8e209ae4-4381-438f-89dc-1b21752027d2"
      ],
      "langs": [
        "de5eda1c-5fb3-46a6-9606-d4554fc5a1d6"
      ],
      "singers": [
        "4cc2cd3b-1db8-4da0-9d66-9eb72447f5b8",
        "e2fa23ae-a077-4c6d-99b8-0897b5350385"
      ],
      "songtypes": [
        "7be1b15c-cff8-4b37-a649-5c90f3d569a9"
      ],
      "songwriters": [
        "08f00c5f-e6ed-4d05-a3c3-eaaff7d07ee0",
        "1b19f305-4b56-4d0e-b5c8-7f29b965b8a4",
        "2849e6e0-d425-406c-9f10-3398682ddc0c",
        "52334e1e-c9e7-4e92-bc4c-dc6ccf3e67eb",
        "59f85b33-7667-4048-b757-0e6816d09b99",
        "6a6a69d2-3e5f-492c-8849-3bf49c2ef193",
        "782ce1f7-0539-4a21-8dfa-1465389f4c61",
        "8f9fada5-79d0-4fe1-add4-c86884f78968",
        "a4061ed1-af7f-43a8-a0da-fcf9ee550e29",
        "b1184e7f-b1da-4a75-b5d3-fae040e18072"
      ],
      "warnings": [
        "e82ce681-6d7b-4fb6-abe4-daa8aaa9bbf9"
      ]
    },
    "titles": {
      "eng": "Industry Baby"
    },
    "titles_default_language": "eng",
    "year": 2021
  }
}