{
  "header": {
    "version": 4,
    "description": "Karaoke Mugen Karaoke Data File"
  },
  "medias": [
    {
      "version": "Default",
      "filename": "ENG - RWBY - ONA AUDIO IN - Ignite.mp3",
      "audiogain": -5.7,
      "loudnorm": "-10.76,-0.57,2.10,-20.86,-0.68",
      "filesize": 10052824,
      "duration": 244,
      "default": true,
      "lyrics": [
        {
          "filename": "ENG - RWBY - ONA AUDIO IN - Ignite.ass",
          "default": true,
          "version": "Default",
          "subchecksum": "f39bff96f31d74fd01f76e95e36618e0"
        }
      ]
    }
  ],
  "data": {
    "created_at": "2021-07-09T21:50:50.063Z",
    "kid": "cdec66e5-2e1b-409f-b441-97e47906b274",
    "modified_at": "2021-07-12T12:07:48.428Z",
    "repository": "kara.moe",
    "tags": {
      "authors": [
        "9cdf3b70-3550-457c-bdb9-038f3253c6ad"
      ],
      "collections": [
        "c7db86a0-ff64-4044-9be4-66dd1ef1d1c1"
      ],
      "creators": [
        "86f7951e-5483-4382-84ff-e7cdce425bdd"
      ],
      "families": [
        "0377db02-3af6-43b8-9b08-c759df3d25c3"
      ],
      "groups": [
        "ae613721-1fbe-480d-ba6b-d6d0702b184d"
      ],
      "langs": [
        "de5eda1c-5fb3-46a6-9606-d4554fc5a1d6"
      ],
      "misc": [
        "1d6ceadf-a885-47e5-b23b-c07bf668a424"
      ],
      "origins": [
        "8db3e098-06ef-45e5-bba9-cb04a21c1e66"
      ],
      "series": [
        "186e4181-0393-4db5-b9d5-7bb33cd946d8"
      ],
      "singers": [
        "b3482b22-0f13-4085-bc7d-c0a0b6374468",
        "b7cf36a0-c4d4-419d-9b91-f1bc45eeb585",
        "bf136ea0-5cb0-493b-bd86-a780f55d0cb2"
      ],
      "songtypes": [
        "42a262ae-acba-4ab5-a446-c5789c96c821",
        "5e5250d9-351a-4a82-98eb-55db50ad8962"
      ],
      "songwriters": [
        "bf136ea0-5cb0-493b-bd86-a780f55d0cb2"
      ],
      "franchises": [
        "186e4181-0393-4db5-b9d5-7bb33cd946d8"
      ]
    },
    "title": "Ignite",
    "titles": {
      "eng": "Ignite"
    },
    "year": 2018
  }
}