{
  "header": {
    "version": 4,
    "description": "Karaoke Mugen Karaoke Data File"
  },
  "medias": [
    {
      "version": "Default",
      "filename": "ENG - Texas - MV - Summer Son.mp4",
      "audiogain": 1.08,
      "loudnorm": "-18.63,-6.14,3.80,-28.84,-0.61",
      "filesize": 21288180,
      "duration": 243,
      "default": true,
      "lyrics": [
        {
          "filename": "ENG - Texas - MV - Summer Son.ass",
          "default": true,
          "version": "Default"
        }
      ]
    }
  ],
  "data": {
    "created_at": "2022-04-22T19:18:44.924Z",
    "ignoreHooks": false,
    "kid": "fdc19599-6b43-48f0-956c-3970549ba28a",
    "modified_at": "2022-04-22T19:27:11.576Z",
    "repository": "kara.moe",
    "tags": {
      "authors": [
        "0c8e4377-ee35-4896-89ed-9d06a1b5acd5"
      ],
      "collections": [
        "efe171c0-e8a1-4d03-98c0-60ecf741ad52"
      ],
      "creators": [
        "438a4f9a-8573-40ed-a436-364aa3505f36"
      ],
      "families": [
        "5391f9fe-638c-415f-8dc9-958e3a2c5787"
      ],
      "groups": [
        "24db50aa-a126-4d34-a48a-e45db79c4245"
      ],
      "langs": [
        "de5eda1c-5fb3-46a6-9606-d4554fc5a1d6"
      ],
      "singers": [
        "e95bc508-d657-4456-8369-b057ae50bc72"
      ],
      "songtypes": [
        "7be1b15c-cff8-4b37-a649-5c90f3d569a9"
      ],
      "songwriters": [
        "94f754ab-ab2c-4bba-afb4-9caebee2d39a",
        "d25a07eb-a8ca-4a2b-9e51-b2d8d5684cbc",
        "e619e5da-7cc5-4741-a76f-33aaf7a20287",
        "f776432e-29c7-4bbd-b881-a04c0cf86e51"
      ]
    },
    "titles": {
      "eng": "Summer Son"
    },
    "titles_default_language": "eng",
    "title": "Summer Son",
    "year": 1999
  }
}