{
  "header": {
    "version": 4,
    "description": "Karaoke Mugen Karaoke Data File"
  },
  "medias": [
    {
      "version": "Default",
      "filename": "ENG - Houkai Gakuen 2 - GAME PV - Incarnation.mp4",
      "audiogain": -1.58,
      "loudnorm": "-17.02,-1.96,7.80,-27.21,-0.75",
      "filesize": 130633729,
      "duration": 135,
      "default": true,
      "lyrics": [
        {
          "filename": "ENG - Houkai Gakuen 2 - GAME PV - Incarnation.ass",
          "default": true,
          "version": "Default",
          "subchecksum": "5d0fcb494e4689fa883774cce2cdf894"
        }
      ]
    }
  ],
  "data": {
    "created_at": "2021-06-13T21:29:04.426Z",
    "kid": "0a044678-8cc2-4fbf-b095-da61b82ff0cc",
    "modified_at": "2021-06-13T21:34:41.239Z",
    "repository": "kara.moe",
    "tags": {
      "authors": [
        "278c6742-0b75-43dd-b317-2ea112952b4a"
      ],
      "collections": [
        "c7db86a0-ff64-4044-9be4-66dd1ef1d1c1"
      ],
      "creators": [
        "b77315f9-142f-402f-b1b7-c415de808775"
      ],
      "families": [
        "0377db02-3af6-43b8-9b08-c759df3d25c3",
        "dbedd6b3-d125-4cd8-aa32-c4175e4ca3a3"
      ],
      "groups": [
        "8c22c899-b3ed-42da-a548-ce00f950798b",
        "8e209ae4-4381-438f-89dc-1b21752027d2"
      ],
      "langs": [
        "de5eda1c-5fb3-46a6-9606-d4554fc5a1d6"
      ],
      "platforms": [
        "213a1a15-e73a-4a08-b3f6-b6e2745a82e5"
      ],
      "series": [
        "151cd3cc-0d63-45ab-9e68-70a7bec0c771"
      ],
      "singers": [
        "372c8271-a914-4cfd-a759-3b9bdf7ade64"
      ],
      "songtypes": [
        "66e195b9-64ea-432d-a917-2e2c88d26052"
      ],
      "songwriters": [
        "0904296b-d3df-4e59-b369-3d4a8ef19565"
      ]
    },
    "title": "Incarnation",
    "titles": {
      "eng": "Incarnation"
    },
    "year": 2020
  }
}