{
  "header": {
    "version": 4,
    "description": "Karaoke Mugen Karaoke Data File"
  },
  "medias": [
    {
      "version": "Default",
      "filename": "ENG - Neuro-sama - AMV - Enemy ~ Cover Vers.mp4",
      "audiogain": -2.23,
      "loudnorm": "-16.20,-3.94,7.30,-26.56,-0.18",
      "filesize": 71016233,
      "duration": 185,
      "default": true,
      "lyrics": [
        {
          "filename": "ENG - Neuro-sama - AMV - Enemy ~ Cover Vers.ass",
          "default": true,
          "version": "Default"
        }
      ]
    }
  ],
  "data": {
    "created_at": "2023-02-08T07:53:30.530Z",
    "ignoreHooks": false,
    "kid": "030f1014-f436-43d9-95ea-06939988d67f",
    "modified_at": "2023-02-08T07:55:00.717Z",
    "parents": [
      "a643dd8a-1e57-4ca1-8569-a39456e69404"
    ],
    "repository": "kara.moe",
    "tags": {
      "authors": [
        "9cdf3b70-3550-457c-bdb9-038f3253c6ad"
      ],
      "collections": [
        "c7db86a0-ff64-4044-9be4-66dd1ef1d1c1"
      ],
      "creators": [
        "4d612eaf-47c5-4ca4-a28d-c91b38d2b697",
        "873d472f-e582-4d7d-9b1b-6e2ac630b652"
      ],
      "families": [
        "0377db02-3af6-43b8-9b08-c759df3d25c3"
      ],
      "groups": [
        "8e209ae4-4381-438f-89dc-1b21752027d2"
      ],
      "langs": [
        "de5eda1c-5fb3-46a6-9606-d4554fc5a1d6"
      ],
      "origins": [
        "5106d71b-a78e-4d19-a16d-f8fb6719538a"
      ],
      "singers": [
        "873d472f-e582-4d7d-9b1b-6e2ac630b652"
      ],
      "songtypes": [
        "a6c79ce5-89ee-4d50-afe8-3abd7317f6c2"
      ],
      "songwriters": [
        "28049ad2-e20c-466c-950c-537552c00858",
        "c56dea5a-0bc8-45a8-b04c-dda155b9af1a"
      ],
      "versions": [
        "03e1e1d2-8641-47b7-bbcb-39a3df9ff21c"
      ]
    },
    "titles": {
      "eng": "Enemy"
    },
    "titles_default_language": "eng",
    "year": 2023
  }
}