{
  "header": {
    "version": 4,
    "description": "Karaoke Mugen Karaoke Data File"
  },
  "medias": [
    {
      "version": "Default",
      "filename": "ENG - Pony Pony Run Run - MV - Hey You.mp4",
      "audiogain": -6.9,
      "loudnorm": "-11.64,0.26,4.80,-21.74,-1.15",
      "filesize": 78927381,
      "duration": 200,
      "default": true,
      "lyrics": [
        {
          "filename": "ENG - Pony Pony Run Run - MV - Hey You.ass",
          "default": true,
          "version": "Default"
        }
      ]
    }
  ],
  "data": {
    "created_at": "2022-11-02T22:50:17.223Z",
    "ignoreHooks": false,
    "kid": "3dbd5cf8-4540-43bc-a395-177e9eadcbc4",
    "modified_at": "2022-11-02T22:50:38.642Z",
    "repository": "kara.moe",
    "tags": {
      "authors": [
        "57f644b1-2604-48a1-bf66-23b314f10566"
      ],
      "collections": [
        "efe171c0-e8a1-4d03-98c0-60ecf741ad52"
      ],
      "creators": [
        "1b446982-285c-433f-96f1-dd882b777b55"
      ],
      "families": [
        "5391f9fe-638c-415f-8dc9-958e3a2c5787"
      ],
      "groups": [
        "3c14c864-533c-49e6-a3cc-6969f1233775"
      ],
      "langs": [
        "de5eda1c-5fb3-46a6-9606-d4554fc5a1d6"
      ],
      "singers": [
        "2cbb7454-ee25-48df-8d24-353451786515"
      ],
      "songtypes": [
        "7be1b15c-cff8-4b37-a649-5c90f3d569a9"
      ],
      "songwriters": [
        "2cbb7454-ee25-48df-8d24-353451786515"
      ]
    },
    "titles": {
      "eng": "Hey You"
    },
    "titles_default_language": "eng",
    "title": "Hey You",
    "year": 2009
  }
}