{
  "header": {
    "version": 4,
    "description": "Karaoke Mugen Karaoke Data File"
  },
  "medias": [
    {
      "version": "Default",
      "filename": "ENG - Final Fantasy XIV - PS3 PS4 PC GAME MV - Dragonsong.mp4",
      "audiogain": -5.73,
      "loudnorm": "-13.01,0.60,15.20,-23.82,-1.67",
      "filesize": 174673979,
      "duration": 345,
      "default": true,
      "lyrics": [
        {
          "filename": "ENG - Final Fantasy XIV - PS3 PS4 PC GAME MV - Dragonsong.ass",
          "default": true,
          "version": "Default",
          "subchecksum": "0641c06280afc14fbcbfcf73714f4339"
        }
      ]
    }
  ],
  "data": {
    "created_at": "2018-11-06T14:09:36.000Z",
    "kid": "c52ce602-2151-4ed7-a47d-0110b699b5c9",
    "modified_at": "2021-02-25T10:06:30.414Z",
    "repository": "kara.moe",
    "tags": {
      "authors": [
        "f1710fab-7461-468f-a8dd-11eebe4e1fc0"
      ],
      "collections": [
        "c7db86a0-ff64-4044-9be4-66dd1ef1d1c1"
      ],
      "creators": [
        "ac4a5180-97af-4679-adcd-70ab39919d48"
      ],
      "families": [
        "dbedd6b3-d125-4cd8-aa32-c4175e4ca3a3"
      ],
      "groups": [
        "8c22c899-b3ed-42da-a548-ce00f950798b",
        "ae613721-1fbe-480d-ba6b-d6d0702b184d"
      ],
      "langs": [
        "de5eda1c-5fb3-46a6-9606-d4554fc5a1d6"
      ],
      "misc": [
        "86705d4b-24e4-4756-9687-2b9c98bcf366"
      ],
      "platforms": [
        "248d92ee-8c02-43bc-86e2-cc6029883564",
        "3c15f758-e1bc-4266-8bb9-3c14112f504a",
        "7f63ff91-7961-4488-888d-4bf46eea3a2a"
      ],
      "series": [
        "728e625e-ce49-40bf-92c0-b0e2efc6a994"
      ],
      "singers": [
        "8e1e7d4c-8d57-4495-9d60-52b22d6c3016"
      ],
      "songtypes": [
        "7be1b15c-cff8-4b37-a649-5c90f3d569a9"
      ],
      "songwriters": [
        "22973edc-2b1d-4c54-9219-f5470f862bee",
        "40232cfb-0dd8-4ed3-8bb6-75851f8024ec",
        "bb1b9703-01ec-4e81-b91a-9064885f1326"
      ],
      "franchises": [
        "595c5b14-54f8-4885-a689-02296506a704"
      ]
    },
    "title": "Dragonsong",
    "titles": {
      "eng": "Dragonsong"
    },
    "year": 2015
  }
}