{
  "header": {
    "version": 4,
    "description": "Karaoke Mugen Karaoke Data File"
  },
  "medias": [
    {
      "version": "Default",
      "filename": "ENG - Devil May Cry 3 - PS2 PC GAME AMV - Devils Never Cry.mp4",
      "audiogain": -8.02,
      "loudnorm": "-9.23,4.14,9.60,-19.51,-1.67",
      "filesize": 86672104,
      "duration": 312,
      "default": true,
      "lyrics": [
        {
          "filename": "ENG - Devil May Cry 3 - PS2 PC GAME AMV - Devils Never Cry.ass",
          "default": true,
          "version": "Default",
          "subchecksum": "17852cd78770947738506ced778ccc49"
        }
      ]
    }
  ],
  "data": {
    "created_at": "2020-06-14T21:54:48.833Z",
    "kid": "5b717e5f-840d-45b9-a0ad-2a962dc0b4d4",
    "modified_at": "2021-02-25T10:05:10.934Z",
    "repository": "kara.moe",
    "tags": {
      "authors": [
        "60defa7b-774e-4680-8321-51b742c2e009"
      ],
      "collections": [
        "c7db86a0-ff64-4044-9be4-66dd1ef1d1c1"
      ],
      "creators": [
        "a9b563c0-8ead-481e-9071-277ad918982e"
      ],
      "families": [
        "dbedd6b3-d125-4cd8-aa32-c4175e4ca3a3"
      ],
      "groups": [
        "3c14c864-533c-49e6-a3cc-6969f1233775",
        "60defa7b-774e-4680-8321-51b742c2e009"
      ],
      "langs": [
        "de5eda1c-5fb3-46a6-9606-d4554fc5a1d6"
      ],
      "misc": [
        "86705d4b-24e4-4756-9687-2b9c98bcf366"
      ],
      "platforms": [
        "2173004e-21da-45c9-9dfb-26014423c566",
        "3c15f758-e1bc-4266-8bb9-3c14112f504a"
      ],
      "series": [
        "23e1be2c-6994-41c4-99eb-5dd907f6bcc7"
      ],
      "singers": [
        "186a7430-c73c-4fb2-829f-65c045e5fa5d",
        "1f1e66c8-2deb-4119-8f3b-0f17bbe7a02b"
      ],
      "songtypes": [
        "a6c79ce5-89ee-4d50-afe8-3abd7317f6c2"
      ],
      "songwriters": [
        "1f1e66c8-2deb-4119-8f3b-0f17bbe7a02b",
        "d64712ec-e64f-4340-8cb4-bec83ffb0ebe"
      ],
      "franchises": [
        "09e918f1-8a91-4930-b500-c2af26d680cc"
      ]
    },
    "title": "Devils Never Cry",
    "titles": {
      "eng": "Devils Never Cry"
    },
    "year": 2005
  }
}