{
  "header": {
    "version": 4,
    "description": "Karaoke Mugen Karaoke Data File"
  },
  "medias": [
    {
      "version": "Default",
      "filename": "ENG - AC DC - LIVE - Highway to Hell ~ Full Vers.mp4",
      "audiogain": -6.72,
      "loudnorm": "-10.80,0.14,5.60,-21.02,-1.49",
      "filesize": 37009640,
      "duration": 278,
      "default": true,
      "lyrics": [
        {
          "filename": "ENG - AC DC - LIVE - Highway to Hell ~ Full Vers.ass",
          "default": true,
          "version": "Default"
        }
      ]
    }
  ],
  "data": {
    "created_at": "2020-07-11T21:52:37.443Z",
    "ignoreHooks": false,
    "kid": "cd03c6d9-9b4c-4b57-ae49-dabc067dee16",
    "modified_at": "2022-12-21T22:36:36.179Z",
    "parents": [
      "bc8da305-5a33-4ae9-9a87-b28bf9e79e02"
    ],
    "repository": "kara.moe",
    "tags": {
      "authors": [
        "9bea7e05-2dec-434e-92ff-fcb53f69fdb7"
      ],
      "collections": [
        "efe171c0-e8a1-4d03-98c0-60ecf741ad52"
      ],
      "creators": [
        "45924098-30ef-4f74-a1e8-18be7d2fbb3f"
      ],
      "families": [
        "5391f9fe-638c-415f-8dc9-958e3a2c5787"
      ],
      "groups": [
        "24db50aa-a126-4d34-a48a-e45db79c4245"
      ],
      "langs": [
        "de5eda1c-5fb3-46a6-9606-d4554fc5a1d6"
      ],
      "singers": [
        "e99a65f7-5e04-4f1a-b893-18bc421752c3"
      ],
      "songtypes": [
        "a0167949-580c-4de3-bf13-497e462e02f3"
      ],
      "songwriters": [
        "0f3b2a6d-3171-4467-a6c4-8d707858685c",
        "df4c7181-83af-4032-b398-0c8c82809a08",
        "ed15bd24-b7ea-4334-9203-1c3acbab8f0f"
      ],
      "versions": [
        "c2143a7f-6970-450e-8a79-0302db9220a9"
      ]
    },
    "titles": {
      "eng": "Highway to Hell"
    },
    "titles_default_language": "eng",
    "year": 1991
  }
}