{
  "header": {
    "version": 4,
    "description": "Karaoke Mugen Karaoke Data File"
  },
  "medias": [
    {
      "version": "Default",
      "filename": "ENG - Final Fantasy XIV - GAME PS4 IN - Close in the Distance.mp4",
      "audiogain": -5.25,
      "loudnorm": "-12.19,-0.30,5.30,-22.30,-0.89",
      "filesize": 97353831,
      "duration": 218,
      "default": true,
      "lyrics": [
        {
          "filename": "ENG - Final Fantasy XIV - GAME PS4 IN - Close in the Distance.ass",
          "default": true,
          "version": "Default"
        }
      ]
    }
  ],
  "data": {
    "created_at": "2022-09-21T15:49:32.981Z",
    "ignoreHooks": false,
    "kid": "a8895016-5f03-41e3-bd12-36ba0b59c3c4",
    "modified_at": "2022-10-14T21:18:29.896Z",
    "repository": "kara.moe",
    "tags": {
      "authors": [
        "31a3036f-e2af-4cc9-a45e-bdf9d42ee041"
      ],
      "collections": [
        "c7db86a0-ff64-4044-9be4-66dd1ef1d1c1"
      ],
      "creators": [
        "ac4a5180-97af-4679-adcd-70ab39919d48"
      ],
      "families": [
        "dbedd6b3-d125-4cd8-aa32-c4175e4ca3a3"
      ],
      "groups": [
        "8e209ae4-4381-438f-89dc-1b21752027d2"
      ],
      "langs": [
        "de5eda1c-5fb3-46a6-9606-d4554fc5a1d6"
      ],
      "platforms": [
        "248d92ee-8c02-43bc-86e2-cc6029883564",
        "3c15f758-e1bc-4266-8bb9-3c14112f504a",
        "d22db878-440d-46c1-a749-ae575c78983d"
      ],
      "series": [
        "728e625e-ce49-40bf-92c0-b0e2efc6a994"
      ],
      "singers": [
        "965016cc-052c-4ec1-b85e-45ca5b9d955a"
      ],
      "songtypes": [
        "5e5250d9-351a-4a82-98eb-55db50ad8962"
      ],
      "songwriters": [
        "32f23a66-4283-4d03-92ca-8c996e7afbf9",
        "75b6226d-95e2-4ba4-979d-da381e1c0e7b",
        "c962dd5e-76f7-4661-b63b-9733824e446e"
      ],
      "franchises": [
        "595c5b14-54f8-4885-a689-02296506a704"
      ]
    },
    "titles": {
      "eng": "Close in the Distance"
    },
    "titles_default_language": "eng",
    "title": "Close in the Distance",
    "year": 2021
  }
}