{
  "header": {
    "version": 4,
    "description": "Karaoke Mugen Karaoke Data File"
  },
  "medias": [
    {
      "version": "Default",
      "filename": "ENG - Hazbin Hotel - ONA MV - ADDICT.mp4",
      "audiogain": -9.67,
      "loudnorm": "-7.52,5.68,5.80,-17.77,-1.61",
      "filesize": 105148360,
      "duration": 248,
      "default": true,
      "lyrics": [
        {
          "filename": "ENG - Hazbin Hotel - ONA MV - ADDICT.ass",
          "default": true,
          "version": "Default"
        }
      ]
    }
  ],
  "data": {
    "created_at": "2021-11-11T22:15:09.095Z",
    "kid": "05e38f21-b5f0-4ccf-814c-7dff4c65650a",
    "modified_at": "2022-07-20T11:28:43.779Z",
    "repository": "kara.moe",
    "tags": {
      "authors": [
        "1415b96a-84da-47ca-afc3-9484c83d0b88"
      ],
      "creators": [
        "8bd95a35-f58e-4a92-9415-600b22dedea9"
      ],
      "families": [
        "0377db02-3af6-43b8-9b08-c759df3d25c3"
      ],
      "groups": [
        "8e209ae4-4381-438f-89dc-1b21752027d2"
      ],
      "langs": [
        "de5eda1c-5fb3-46a6-9606-d4554fc5a1d6"
      ],
      "origins": [
        "8db3e098-06ef-45e5-bba9-cb04a21c1e66"
      ],
      "series": [
        "01771299-284c-434b-aa02-8c1a5861480f"
      ],
      "singers": [
        "45083d12-ba54-4fc5-9fa1-195dc785ecea",
        "d5439d3e-9027-442a-b26d-0e3b1f8eff59"
      ],
      "songtypes": [
        "7be1b15c-cff8-4b37-a649-5c90f3d569a9"
      ],
      "songwriters": [
        "45083d12-ba54-4fc5-9fa1-195dc785ecea",
        "6b6fed20-1501-46d8-b31d-c43d3430e395"
      ],
      "collections": [
        "c7db86a0-ff64-4044-9be4-66dd1ef1d1c1"
      ],
      "warnings": [
        "e82ce681-6d7b-4fb6-abe4-daa8aaa9bbf9"
      ]
    },
    "titles": {
      "eng": "ADDICT"
    },
    "titles_default_language": "eng",
    "title": "ADDICT",
    "year": 2020
  }
}