{
  "header": {
    "version": 4,
    "description": "Karaoke Mugen Karaoke Data File"
  },
  "medias": [
    {
      "version": "Default",
      "filename": "ENG - Power Ranger Samurai - OP - Go Go Power Ranger.mp4",
      "audiogain": -4.35,
      "loudnorm": "-11.85,-0.02,0.60,-21.95,0.12",
      "filesize": 47129750,
      "duration": 59,
      "default": true,
      "lyrics": [
        {
          "filename": "ENG - Power Ranger Samurai - OP - Go Go Power Ranger.ass",
          "default": true,
          "version": "Default",
          "subchecksum": "25c4840f62c4b485e285d53e2c9a307d"
        }
      ]
    }
  ],
  "data": {
    "created_at": "2017-10-11T17:01:48.000Z",
    "kid": "511c438c-7d82-43a1-bd71-fb0bfeda823e",
    "modified_at": "2021-02-25T10:15:30.036Z",
    "repository": "kara.moe",
    "tags": {
      "authors": [
        "67ea80e2-30f4-45f0-8fa8-841f582b3035"
      ],
      "collections": [
        "c7db86a0-ff64-4044-9be4-66dd1ef1d1c1"
      ],
      "creators": [
        "764412dd-9118-42cc-b8d4-69db77c57f67",
        "e32b14df-502b-45fa-9ca5-37554a63a4d7"
      ],
      "families": [
        "5391f9fe-638c-415f-8dc9-958e3a2c5787"
      ],
      "groups": [
        "ae613721-1fbe-480d-ba6b-d6d0702b184d"
      ],
      "langs": [
        "de5eda1c-5fb3-46a6-9606-d4554fc5a1d6"
      ],
      "origins": [
        "d3fac9ab-630d-402d-a392-3d2450c3e62e"
      ],
      "series": [
        "ac92e99f-6d09-4f54-a958-003dbfac822c"
      ],
      "singers": [
        "4d16970a-da11-40f4-b15c-bb466df67592"
      ],
      "songtypes": [
        "f02ad9b3-0bd9-4aad-85b3-9976739ba0e4"
      ],
      "songwriters": [
        "4d16970a-da11-40f4-b15c-bb466df67592",
        "7bf660b3-f6f2-4c32-98ee-dc6da85ccc88"
      ],
      "franchises": [
        "88746139-f56a-4164-8b36-234c603931e0"
      ]
    },
    "title": "Go Go Power Ranger",
    "titles": {
      "eng": "Go Go Power Ranger"
    },
    "year": 2011
  }
}