{
  "header": {
    "version": 4,
    "description": "Karaoke Mugen Karaoke Data File"
  },
  "medias": [
    {
      "version": "Default",
      "filename": "ENG - Shingeki no Kyojin The Final Season - OP2 - The Rumbling.mp4",
      "audiogain": -11.53,
      "loudnorm": "-4.46,2.36,2.00,-14.49,-0.19",
      "filesize": 36072752,
      "duration": 90,
      "default": true,
      "lyrics": [
        {
          "filename": "ENG - Shingeki no Kyojin The Final Season - OP2 - The Rumbling.ass",
          "default": true,
          "version": "Default"
        }
      ]
    }
  ],
  "data": {
    "created_at": "2022-01-09T16:26:02.209Z",
    "ignoreHooks": false,
    "kid": "9dd7f57c-56e0-40eb-b4b1-6acaeda310fa",
    "modified_at": "2022-01-09T19:59:06.400Z",
    "repository": "kara.moe",
    "songorder": 2,
    "tags": {
      "authors": [
        "1df04771-a378-4f14-a5e1-1455187d681a"
      ],
      "collections": [
        "c7db86a0-ff64-4044-9be4-66dd1ef1d1c1"
      ],
      "creators": [
        "0a86e9ea-5e17-4371-8f2a-60c818324d58"
      ],
      "families": [
        "0377db02-3af6-43b8-9b08-c759df3d25c3"
      ],
      "genres": [
        "a0aeef4a-6428-45ff-a6e1-468b595930c2"
      ],
      "groups": [
        "8e209ae4-4381-438f-89dc-1b21752027d2"
      ],
      "langs": [
        "de5eda1c-5fb3-46a6-9606-d4554fc5a1d6"
      ],
      "misc": [
        "fe819ff1-9db8-4a0f-85dc-0e322c9126c4"
      ],
      "origins": [
        "938de218-5343-4865-94d3-fb33f2eaa152"
      ],
      "series": [
        "796ce6e2-bdc2-4751-bf90-da181b276d38"
      ],
      "singers": [
        "1405a86b-8fd8-4504-b7c0-de47fdab9ce6"
      ],
      "songtypes": [
        "f02ad9b3-0bd9-4aad-85b3-9976739ba0e4"
      ],
      "songwriters": [
        "1405a86b-8fd8-4504-b7c0-de47fdab9ce6",
        "725852c7-7168-42ca-8e3f-dc53e9e7f9e0"
      ],
      "franchises": [
        "1086e47f-30cd-4219-9454-4ad608f07481"
      ]
    },
    "titles": {
      "eng": "The Rumbling"
    },
    "title": "The Rumbling",
    "year": 2022
  }
}