{
  "header": {
    "version": 4,
    "description": "Karaoke Mugen Karaoke Data File"
  },
  "medias": [
    {
      "version": "Default",
      "filename": "ENG - Fatal Twelve - GAME PC OP - Unveil.mp4",
      "audiogain": -10.56,
      "loudnorm": "-8.14,1.61,6.00,-18.50,-1.27",
      "filesize": 41570064,
      "duration": 102,
      "default": true,
      "lyrics": [
        {
          "filename": "ENG - Fatal Twelve - GAME PC OP - Unveil.ass",
          "default": true,
          "version": "Default"
        }
      ]
    }
  ],
  "data": {
    "comment": "ENGRISH",
    "created_at": "2022-04-03T15:33:37.633Z",
    "ignoreHooks": false,
    "kid": "f78ee4a6-47bb-4c5c-b1f6-d8339971b8a5",
    "modified_at": "2022-04-03T22:29:10.611Z",
    "repository": "kara.moe",
    "tags": {
      "authors": [
        "5c7df057-1721-436c-8244-17aae35ff388"
      ],
      "collections": [
        "c7db86a0-ff64-4044-9be4-66dd1ef1d1c1"
      ],
      "creators": [
        "39230b30-1ec1-4e44-a6b6-c3eae365581b"
      ],
      "families": [
        "dbedd6b3-d125-4cd8-aa32-c4175e4ca3a3"
      ],
      "groups": [
        "ae613721-1fbe-480d-ba6b-d6d0702b184d"
      ],
      "langs": [
        "4dcf9614-7914-42aa-99f4-dbce2e059133",
        "de5eda1c-5fb3-46a6-9606-d4554fc5a1d6"
      ],
      "origins": [
        "2f96e82c-c61b-4413-817e-e6b247509b95"
      ],
      "platforms": [
        "3c15f758-e1bc-4266-8bb9-3c14112f504a"
      ],
      "series": [
        "46407c4b-a6a0-4a0b-9387-0949d80cb103"
      ],
      "singers": [
        "c67e2ded-271c-466b-9139-ec15e1e9ff04"
      ],
      "songtypes": [
        "f02ad9b3-0bd9-4aad-85b3-9976739ba0e4"
      ],
      "songwriters": [
        "714d0927-06ac-44a7-9192-8a625a88aae5",
        "a49a851d-dfb9-49a8-98c5-ca0a9e385a77"
      ]
    },
    "titles": {
      "eng": "Unveil"
    },
    "titles_default_language": "eng",
    "title": "Unveil",
    "year": 2018
  }
}