{
  "header": {
    "version": 4,
    "description": "Karaoke Mugen Karaoke Data File"
  },
  "medias": [
    {
      "version": "Default",
      "filename": "ENG - Hikaru Station - REMIX MV - Watashi no R ~ Cover Vers.mp4",
      "audiogain": -1.78,
      "loudnorm": "-17.17,-4.62,8.40,-27.41,-0.65",
      "filesize": 17387151,
      "duration": 218,
      "default": true,
      "lyrics": [
        {
          "filename": "ENG - Hikaru Station - REMIX MV - Watashi no R ~ Cover Vers.ass",
          "default": true,
          "version": "Default"
        }
      ]
    }
  ],
  "data": {
    "created_at": "2020-12-16T20:12:53.026Z",
    "ignoreHooks": false,
    "kid": "89fd6c9f-0040-4ba4-a228-bf9456f37f80",
    "modified_at": "2022-11-05T16:05:25.646Z",
    "repository": "kara.moe",
    "tags": {
      "authors": [
        "278c6742-0b75-43dd-b317-2ea112952b4a"
      ],
      "collections": [
        "c7db86a0-ff64-4044-9be4-66dd1ef1d1c1"
      ],
      "creators": [
        "e480aa1c-5ea9-4647-8bed-23b8b85e7891"
      ],
      "families": [
        "0377db02-3af6-43b8-9b08-c759df3d25c3"
      ],
      "groups": [
        "8c22c899-b3ed-42da-a548-ce00f950798b",
        "ae613721-1fbe-480d-ba6b-d6d0702b184d"
      ],
      "langs": [
        "de5eda1c-5fb3-46a6-9606-d4554fc5a1d6"
      ],
      "misc": [
        "ec4360fa-3e3c-4f6f-b0e1-fb8b12b6dd18"
      ],
      "singers": [
        "073a1dbb-044e-4695-953f-8d60a5822794"
      ],
      "songtypes": [
        "7be1b15c-cff8-4b37-a649-5c90f3d569a9"
      ],
      "songwriters": [
        "7dc90a8c-5132-4a5c-9019-37197a2c4142",
        "e2c03928-6c1a-4dc1-a9f0-af61f48755de",
        "b59b3f7d-2b6f-46dd-8364-ad38e35efe4e"
      ],
      "versions": [
        "03e1e1d2-8641-47b7-bbcb-39a3df9ff21c"
      ]
    },
    "titles": {
      "eng": "Watashi no R"
    },
    "titles_default_language": "eng",
    "title": "Watashi no R",
    "year": 2017
  }
}