{
  "header": {
    "version": 4,
    "description": "Karaoke Mugen Karaoke Data File"
  },
  "medias": [
    {
      "version": "Full.",
      "filename": "ENG - Shingeki no Kyojin S2 - AMV - Barricades ~ Full Vers.mp4",
      "audiogain": -10.35,
      "loudnorm": "-6.96,2.04,8.50,-17.33,-1.29",
      "filesize": 103047554,
      "duration": 218,
      "default": true,
      "lyrics": [
        {
          "filename": "ENG - Shingeki no Kyojin S2 - AMV - Barricades ~ Full Vers.ass",
          "default": true,
          "version": "Default",
          "subchecksum": "a6bfb52dd7ef468d9cd9af8481ac4f8b"
        }
      ]
    }
  ],
  "data": {
    "created_at": "2019-03-23T04:10:46.000Z",
    "kid": "89a37399-04c2-4ce6-830c-e4e7028bd7d3",
    "modified_at": "2021-05-23T22:38:24.403Z",
    "repository": "kara.moe",
    "tags": {
      "authors": [
        "affbc2db-10d5-4c51-b2f6-61686dfbc1b1"
      ],
      "collections": [
        "c7db86a0-ff64-4044-9be4-66dd1ef1d1c1"
      ],
      "creators": [
        "5e24aaad-83c9-4d8a-bbb9-37b766278ffe"
      ],
      "families": [
        "0377db02-3af6-43b8-9b08-c759df3d25c3"
      ],
      "groups": [
        "ae613721-1fbe-480d-ba6b-d6d0702b184d"
      ],
      "langs": [
        "de5eda1c-5fb3-46a6-9606-d4554fc5a1d6"
      ],
      "origins": [
        "938de218-5343-4865-94d3-fb33f2eaa152"
      ],
      "series": [
        "07b31574-4baa-42eb-bf28-c232cd695096"
      ],
      "singers": [
        "2aea0a41-290e-4c98-919d-058486aff04b",
        "83daaea6-d7a6-4113-ba80-f007efb21a3f",
        "d4986569-4951-4e55-83ee-d87104a2f799"
      ],
      "songtypes": [
        "a6c79ce5-89ee-4d50-afe8-3abd7317f6c2"
      ],
      "songwriters": [
        "59621685-8dc1-4ce1-93b3-cf6c11dda3aa",
        "d4986569-4951-4e55-83ee-d87104a2f799",
        "e6e9cca5-74a3-4f7a-9db7-a379bf5310b9"
      ],
      "versions": [
        "c2143a7f-6970-450e-8a79-0302db9220a9"
      ],
      "franchises": [
        "1086e47f-30cd-4219-9454-4ad608f07481"
      ]
    },
    "title": "Barricades",
    "titles": {
      "eng": "Barricades"
    },
    "year": 2017
  }
}