{
  "header": {
    "version": 4,
    "description": "Karaoke Mugen Karaoke Data File"
  },
  "medias": [
    {
      "version": "Default",
      "filename": "ENG - Sonic Unleashed - GAME PS3 PV - Endless Possibilites.mp4",
      "audiogain": -7.17,
      "loudnorm": "-9.94,-0.65,2.20,-19.95,-1.11",
      "filesize": 92904235,
      "duration": 137,
      "default": true,
      "lyrics": [
        {
          "filename": "ENG - Sonic Unleashed - GAME PS3 PV - Endless Possibilites.ass",
          "default": true,
          "version": "Default"
        }
      ]
    }
  ],
  "data": {
    "created_at": "2022-07-01T00:13:38.725Z",
    "ignoreHooks": false,
    "kid": "3b387b19-f012-4bb8-8647-12dc9d97220f",
    "modified_at": "2022-10-15T18:22:42.051Z",
    "repository": "kara.moe",
    "tags": {
      "authors": [
        "06852e02-b77e-4106-b6f7-2d03942ad0ea"
      ],
      "collections": [
        "c7db86a0-ff64-4044-9be4-66dd1ef1d1c1"
      ],
      "creators": [
        "b8a3778d-0864-4135-9053-1def02d3262e"
      ],
      "families": [
        "dbedd6b3-d125-4cd8-aa32-c4175e4ca3a3"
      ],
      "groups": [
        "3c14c864-533c-49e6-a3cc-6969f1233775"
      ],
      "langs": [
        "de5eda1c-5fb3-46a6-9606-d4554fc5a1d6"
      ],
      "platforms": [
        "7f63ff91-7961-4488-888d-4bf46eea3a2a",
        "d56f8d9d-9ccd-4ac8-a164-da0e62d1c060"
      ],
      "series": [
        "1db1c598-92b3-4c91-b5e9-02f56785eb31"
      ],
      "singers": [
        "168cde57-47ce-48e6-b675-c3d46f536123"
      ],
      "songtypes": [
        "66e195b9-64ea-432d-a917-2e2c88d26052"
      ],
      "songwriters": [
        "37f9d8fa-eef7-41a9-8ad8-8671ab63183c",
        "168cde57-47ce-48e6-b675-c3d46f536123"
      ],
      "franchises": [
        "09c42215-106e-4379-b6cf-787fb812aaae"
      ]
    },
    "titles": {
      "eng": "Endless Possibilites"
    },
    "titles_default_language": "eng",
    "title": "Endless Possibilites",
    "year": 2008
  }
}