{
  "header": {
    "version": 4,
    "description": "Karaoke Mugen Karaoke Data File"
  },
  "medias": [
    {
      "version": "Default",
      "filename": "ENG - Gyakuten Saiban Yomigaeru Gyakuten - GAME DS AMV - Objection Funk.mp4",
      "audiogain": -0.42,
      "loudnorm": "-16.99,-4.66,2.90,-27.01,-0.64",
      "filesize": 24804706,
      "duration": 119,
      "default": true,
      "lyrics": [
        {
          "filename": "ENG - Gyakuten Saiban Yomigaeru Gyakuten - GAME DS AMV - Objection Funk.ass",
          "default": true,
          "version": "Default"
        }
      ]
    }
  ],
  "data": {
    "created_at": "2022-07-29T21:54:12.693Z",
    "ignoreHooks": false,
    "kid": "42300794-9942-4a3a-b9e1-cddb2d674ef1",
    "modified_at": "2022-07-29T21:59:34.474Z",
    "repository": "kara.moe",
    "tags": {
      "authors": [
        "b2bacb3f-542c-44d2-af9b-cd78c1dd4b70"
      ],
      "collections": [
        "2fa2fe3f-bb56-45ee-aa38-eae60e76f224"
      ],
      "creators": [
        "2ab83ea0-8f71-47a0-a54d-75bbb225b579",
        "a9b563c0-8ead-481e-9071-277ad918982e"
      ],
      "families": [
        "dbedd6b3-d125-4cd8-aa32-c4175e4ca3a3"
      ],
      "groups": [
        "8c22c899-b3ed-42da-a548-ce00f950798b",
        "ae613721-1fbe-480d-ba6b-d6d0702b184d"
      ],
      "langs": [
        "de5eda1c-5fb3-46a6-9606-d4554fc5a1d6"
      ],
      "platforms": [
        "fafc313d-8d8a-4445-90b5-aad7928182ab"
      ],
      "series": [
        "36c896e9-9af0-47ad-8c0a-adbf26c1183a"
      ],
      "songtypes": [
        "a6c79ce5-89ee-4d50-afe8-3abd7317f6c2"
      ],
      "franchises": [
        "276aa63d-ebe7-44d3-817f-957edb4966b2"
      ]
    },
    "titles": {
      "eng": "Objection Funk"
    },
    "titles_default_language": "eng",
    "title": "Objection Funk",
    "year": 2019
  }
}