{
  "header": {
    "version": 4,
    "description": "Karaoke Mugen Karaoke Data File"
  },
  "medias": [
    {
      "version": "Default",
      "filename": "ENG - Kidou Senshi Gundam Tekketsu no Orphans - MV - Raise your flag ~ Full Vers.mp4",
      "audiogain": -9.09,
      "loudnorm": "-8.13,0.72,9.70,-18.51,-1.53",
      "filesize": 117473538,
      "duration": 260,
      "default": true,
      "lyrics": [
        {
          "filename": "ENG - Kidou Senshi Gundam Tekketsu no Orphans - MV - Raise your flag ~ Full Vers.ass",
          "default": true,
          "version": "Default"
        }
      ]
    }
  ],
  "data": {
    "created_at": "2021-09-11T15:44:10.826Z",
    "kid": "cfa334ca-c22e-4023-b0db-8e056463e90a",
    "modified_at": "2022-06-04T00:14:08.068Z",
    "repository": "kara.moe",
    "songorder": null,
    "tags": {
      "authors": [
        "8605a8b9-3b45-44b9-9d98-1a25096bf702"
      ],
      "creators": [
        "6fa9de67-21cf-420b-9ddb-57edb5abe523"
      ],
      "families": [
        "5391f9fe-638c-415f-8dc9-958e3a2c5787"
      ],
      "groups": [
        "ae613721-1fbe-480d-ba6b-d6d0702b184d"
      ],
      "langs": [
        "4dcf9614-7914-42aa-99f4-dbce2e059133",
        "de5eda1c-5fb3-46a6-9606-d4554fc5a1d6"
      ],
      "series": [
        "844f4f88-0b45-4689-bfb7-aedfb8343fee"
      ],
      "singers": [
        "814943f5-30aa-4229-b2ed-120f25825b27"
      ],
      "songtypes": [
        "7be1b15c-cff8-4b37-a649-5c90f3d569a9"
      ],
      "songwriters": [
        "3dde98ed-a3a6-473d-8fd2-3dd81eb92b26",
        "6cb0e364-b9d2-4fa9-8dfb-98b095c7ac47"
      ],
      "versions": [
        "c2143a7f-6970-450e-8a79-0302db9220a9"
      ],
      "collections": [
        "dbcf2c22-524d-4708-99bb-601703633927"
      ],
      "franchises": [
        "e6ade589-c2e4-49a1-acdb-ea9b03e57240"
      ]
    },
    "titles": {
      "eng": "Raise your flag"
    },
    "titles_default_language": "eng",
    "title": "Raise your flag",
    "year": 2015
  }
}