{
  "header": {
    "version": 4,
    "description": "Karaoke Mugen Karaoke Data File"
  },
  "medias": [
    {
      "version": "Default",
      "filename": "ENG - RWBY - ONA OP1 - This Will Be the Day.mp4",
      "audiogain": 3.86,
      "loudnorm": "-19.82,-8.94,2.60,-30.06,-0.86",
      "filesize": 38949374,
      "duration": 66,
      "default": true,
      "lyrics": [
        {
          "filename": "ENG - RWBY - ONA OP1 - This Will Be the Day.ass",
          "default": true,
          "version": "Default",
          "subchecksum": "77b44b05ee9a8125de2cfd2a3f83d9b5"
        }
      ]
    }
  ],
  "data": {
    "created_at": "2017-10-11T17:02:08.000Z",
    "kid": "c5408356-1db3-421f-887d-fe3371d9cb6c",
    "modified_at": "2021-02-25T10:16:26.410Z",
    "repository": "kara.moe",
    "songorder": 1,
    "tags": {
      "authors": [
        "5bdaba57-27f8-4568-8806-76a807728766"
      ],
      "collections": [
        "c7db86a0-ff64-4044-9be4-66dd1ef1d1c1"
      ],
      "creators": [
        "86f7951e-5483-4382-84ff-e7cdce425bdd"
      ],
      "families": [
        "0377db02-3af6-43b8-9b08-c759df3d25c3"
      ],
      "groups": [
        "ae613721-1fbe-480d-ba6b-d6d0702b184d"
      ],
      "langs": [
        "de5eda1c-5fb3-46a6-9606-d4554fc5a1d6"
      ],
      "misc": [
        "fe819ff1-9db8-4a0f-85dc-0e322c9126c4"
      ],
      "origins": [
        "8db3e098-06ef-45e5-bba9-cb04a21c1e66"
      ],
      "series": [
        "186e4181-0393-4db5-b9d5-7bb33cd946d8"
      ],
      "singers": [
        "b7cf36a0-c4d4-419d-9b91-f1bc45eeb585"
      ],
      "songtypes": [
        "f02ad9b3-0bd9-4aad-85b3-9976739ba0e4"
      ],
      "songwriters": [
        "bf136ea0-5cb0-493b-bd86-a780f55d0cb2"
      ],
      "franchises": [
        "186e4181-0393-4db5-b9d5-7bb33cd946d8"
      ]
    },
    "title": "This Will Be the Day",
    "titles": {
      "eng": "This Will Be the Day"
    },
    "year": 2013
  }
}