{
  "header": {
    "version": 4,
    "description": "Karaoke Mugen Karaoke Data File"
  },
  "medias": [
    {
      "version": "Default",
      "filename": "ENG - ALI - LIVE - KEEP YOUR HEAD UP ~ Full Vers.mp4",
      "audiogain": 7.26,
      "loudnorm": "-23.45,-14.04,1.70,-33.52,-0.30",
      "filesize": 257131597,
      "duration": 259,
      "default": true,
      "lyrics": [
        {
          "filename": "ENG - ALI - LIVE - KEEP YOUR HEAD UP ~ Full Vers.ass",
          "default": true,
          "version": "Default"
        }
      ]
    }
  ],
  "data": {
    "comment": "LOVE, MUSIC AND DANCE 2021; SHIBUYA CLUB QUATTRO 2021.2.5 (si quelqu'un à une meilleure source je suis preneurz, un margoulin l'a eu dans cette qualité mais en 4K, je l'ai downscale en 1080)",
    "created_at": "2022-07-27T04:52:15.147Z",
    "ignoreHooks": false,
    "kid": "f7d86b60-a7b8-4fb1-a5bc-1d174010b87d",
    "modified_at": "2022-12-21T22:36:38.820Z",
    "parents": [
      "6c019b9a-bb0a-4d55-99dd-19869cfd6370"
    ],
    "repository": "kara.moe",
    "tags": {
      "authors": [
        "9cdf3b70-3550-457c-bdb9-038f3253c6ad"
      ],
      "collections": [
        "dbcf2c22-524d-4708-99bb-601703633927"
      ],
      "creators": [
        "43124e1f-bc9d-4218-b41e-bfb33aa11dde"
      ],
      "families": [
        "5391f9fe-638c-415f-8dc9-958e3a2c5787"
      ],
      "groups": [
        "8e209ae4-4381-438f-89dc-1b21752027d2"
      ],
      "langs": [
        "4dcf9614-7914-42aa-99f4-dbce2e059133",
        "de5eda1c-5fb3-46a6-9606-d4554fc5a1d6"
      ],
      "misc": [
        "ec4fee75-71fb-45b4-9772-2ca374b4b600"
      ],
      "singers": [
        "d93776ae-70f0-4829-8f52-979a2cb2339f"
      ],
      "songtypes": [
        "a0167949-580c-4de3-bf13-497e462e02f3"
      ],
      "songwriters": [
        "0c77cb74-a7d7-4289-b6ec-ec929503cc54",
        "d93776ae-70f0-4829-8f52-979a2cb2339f",
        "edf05ac8-127c-4730-ac98-f353fb0d25b4",
        "fb07003e-22fc-4b9a-a35e-cc384c1df358"
      ],
      "versions": [
        "c2143a7f-6970-450e-8a79-0302db9220a9"
      ]
    },
    "titles": {
      "eng": "KEEP YOUR HEAD UP"
    },
    "titles_default_language": "eng",
    "year": 2021
  }
}