{
  "header": {
    "description": "Karaoke Mugen Karaoke Data File",
    "version": 4
  },
  "medias": [
    {
      "version": "Default",
      "filename": "ENG - Muse - MV - Undisclosed Desires.mp4",
      "audiogain": -4.41,
      "loudnorm": "-12.99,-1.92,6.60,-23.11,-1.24",
      "filesize": 20195484,
      "duration": 236,
      "default": true,
      "lyrics": [
        {
          "filename": "ENG - Muse - MV - Undisclosed Desires.ass",
          "default": true,
          "version": "Default"
        }
      ]
    }
  ],
  "data": {
    "created_at": "2022-08-02T14:28:44.529Z",
    "kid": "b83f4434-12bd-4e97-8185-d1cdcdc00439",
    "modified_at": "2022-08-02T14:28:44.529Z",
    "tags": {
      "authors": [
        "46adda91-17d2-4d72-989e-f26e795a7178"
      ],
      "creators": [
        "ce01d9ea-dd98-4bd4-b333-7a37414646b5",
        "f813d2b1-f186-4db8-a4e5-5bc9cd4ad74f"
      ],
      "families": [
        "5391f9fe-638c-415f-8dc9-958e3a2c5787"
      ],
      "groups": [
        "3c14c864-533c-49e6-a3cc-6969f1233775"
      ],
      "langs": [
        "de5eda1c-5fb3-46a6-9606-d4554fc5a1d6"
      ],
      "singers": [
        "02b5450a-79a6-4c1d-a4f0-c02a944beb01"
      ],
      "songtypes": [
        "7be1b15c-cff8-4b37-a649-5c90f3d569a9"
      ],
      "songwriters": [
        "9f16063f-03bf-4a15-beb8-d084f1896659"
      ],
      "collections": [
        "efe171c0-e8a1-4d03-98c0-60ecf741ad52"
      ]
    },
    "titles": {
      "eng": "Undisclosed Desires"
    },
    "titles_default_language": "eng",
    "titles_aliases": [],
    "title": "Undisclosed Desires",
    "year": "2009",
    "repository": "kara.moe"
  }
}