{
  "header": {
    "version": 4,
    "description": "Karaoke Mugen Karaoke Data File"
  },
  "medias": [
    {
      "version": "Default",
      "filename": "ENG - UltraSeven X - ED1 - Another Day Comes.mp4",
      "audiogain": 2.44,
      "loudnorm": "-18.95,-7.75,1.50,-29.03,-0.30",
      "filesize": 56151096,
      "duration": 87,
      "default": true,
      "lyrics": [
        {
          "filename": "ENG - UltraSeven X - ED1 - Another Day Comes.ass",
          "default": true,
          "version": "Default",
          "subchecksum": "60dae11768cd1422f63122a78d0a4e9e"
        }
      ]
    }
  ],
  "data": {
    "created_at": "2019-03-22T12:57:41.000Z",
    "kid": "292f6909-60d9-42aa-a4f6-5bf0e5f894cb",
    "modified_at": "2021-02-25T10:19:32.407Z",
    "repository": "kara.moe",
    "songorder": 1,
    "tags": {
      "authors": [
        "ef611801-6a99-482e-9b99-13ad3d3a0648"
      ],
      "collections": [
        "c7db86a0-ff64-4044-9be4-66dd1ef1d1c1"
      ],
      "creators": [
        "308ee11d-80d2-4870-9ff4-e042b72070ee"
      ],
      "families": [
        "5391f9fe-638c-415f-8dc9-958e3a2c5787"
      ],
      "groups": [
        "3c14c864-533c-49e6-a3cc-6969f1233775"
      ],
      "langs": [
        "de5eda1c-5fb3-46a6-9606-d4554fc5a1d6"
      ],
      "origins": [
        "938de218-5343-4865-94d3-fb33f2eaa152",
        "d3fac9ab-630d-402d-a392-3d2450c3e62e"
      ],
      "series": [
        "d81a8f39-beb0-4ec4-ab2e-03f2c9520e06"
      ],
      "singers": [
        "9f9af591-65c2-4985-a178-32df8a1a096e"
      ],
      "songtypes": [
        "38c77c56-2b95-4040-b676-0994a8cb0597"
      ],
      "songwriters": [
        "88c47f98-a588-43df-a356-4a808730aef7"
      ],
      "franchises": [
        "e0d0d8b0-bf67-40a0-b0c1-082cd4ccc58b"
      ]
    },
    "title": "Another Day Comes",
    "titles": {
      "eng": "Another Day Comes"
    },
    "year": 2007
  }
}