{
  "header": {
    "version": 4,
    "description": "Karaoke Mugen Karaoke Data File"
  },
  "medias": [
    {
      "version": "Default",
      "filename": "ENG - Umineko no Naku Koro ni - PC GAME AUDIO IN - Happy Maria.mp3",
      "audiogain": -9.79,
      "loudnorm": "-7.94,1.95,4.70,-18.17,-0.81",
      "filesize": 8268742,
      "duration": 169,
      "default": true,
      "lyrics": [
        {
          "filename": "ENG - Umineko no Naku Koro ni - PC GAME AUDIO IN - Happy Maria.ass",
          "default": true,
          "version": "Default",
          "subchecksum": "9f9b58c9b6d4ded1a8ac8e1b476dd7c9"
        }
      ]
    }
  ],
  "data": {
    "created_at": "2019-04-02T00:52:20.000Z",
    "kid": "5631896f-1510-448b-8d6e-d5aeb5ebbbae",
    "modified_at": "2021-02-25T10:19:40.152Z",
    "repository": "kara.moe",
    "tags": {
      "authors": [
        "affbc2db-10d5-4c51-b2f6-61686dfbc1b1"
      ],
      "collections": [
        "c7db86a0-ff64-4044-9be4-66dd1ef1d1c1"
      ],
      "creators": [
        "ee8900e9-5aee-4872-9093-0b5ce99c363c"
      ],
      "families": [
        "dbedd6b3-d125-4cd8-aa32-c4175e4ca3a3"
      ],
      "groups": [
        "ae613721-1fbe-480d-ba6b-d6d0702b184d"
      ],
      "langs": [
        "de5eda1c-5fb3-46a6-9606-d4554fc5a1d6"
      ],
      "origins": [
        "2f96e82c-c61b-4413-817e-e6b247509b95"
      ],
      "platforms": [
        "3c15f758-e1bc-4266-8bb9-3c14112f504a"
      ],
      "series": [
        "0863a8b5-50ad-4034-a34a-53f34713f7a7"
      ],
      "singers": [
        "499ec532-c796-46bd-88c9-8655fff1a748",
        "a6042b25-be94-49bf-ab1b-1ba48a565df3"
      ],
      "songtypes": [
        "42a262ae-acba-4ab5-a446-c5789c96c821",
        "5e5250d9-351a-4a82-98eb-55db50ad8962"
      ],
      "songwriters": [
        "cb9e3a99-c048-4442-9596-6946485d99c4"
      ],
      "franchises": [
        "90f7ba8a-e8cc-4e13-b06d-ae2a2068efb9"
      ]
    },
    "title": "Happy Maria",
    "titles": {
      "eng": "Happy Maria"
    },
    "year": 2010
  }
}