{
  "header": {
    "version": 4,
    "description": "Karaoke Mugen Karaoke Data File"
  },
  "medias": [
    {
      "version": "Default",
      "filename": "ENG - Steven Wilson - AUDIO - Drown With Me ~ Off Vocal Vers.mp3",
      "audiogain": -5.96,
      "loudnorm": "-11.63,3.64,5.80,-21.79,-1.08",
      "filesize": 8033570,
      "duration": 322,
      "default": true,
      "lyrics": [
        {
          "filename": "ENG - Steven Wilson - AUDIO - Drown With Me ~ Off Vocal Vers.ass",
          "default": true,
          "version": "Default"
        }
      ]
    }
  ],
  "data": {
    "comment": "I used the 5.1 surround mix to time the subs and create an off vocal mix, so two vocal lines are inaudible and the rest are chorus and guide vocals. This song has five vocal parts in total, and the lead is at the bottom. Thank you for your consideration!",
    "created_at": "2022-06-07T12:56:22.190Z",
    "ignoreHooks": false,
    "kid": "33a6ea89-cf66-443b-9e95-224d1869948b",
    "modified_at": "2022-06-08T21:27:19.968Z",
    "parents": [
      "8082d04f-07b1-4144-b768-5bfa5de10d32"
    ],
    "repository": "kara.moe",
    "tags": {
      "authors": [
        "d2e0d16d-987b-4b2e-8b34-803290078d02"
      ],
      "collections": [
        "efe171c0-e8a1-4d03-98c0-60ecf741ad52"
      ],
      "creators": [
        "5214684a-b59b-406c-aafb-003ebf6a20b2"
      ],
      "groups": [
        "3c14c864-533c-49e6-a3cc-6969f1233775"
      ],
      "langs": [
        "de5eda1c-5fb3-46a6-9606-d4554fc5a1d6"
      ],
      "misc": [
        "1d6ceadf-a885-47e5-b23b-c07bf668a424",
        "86705d4b-24e4-4756-9687-2b9c98bcf366",
        "ec4fee75-71fb-45b4-9772-2ca374b4b600"
      ],
      "singers": [
        "3d4ab532-4b49-41f9-a167-f0a6787b04c8"
      ],
      "songtypes": [
        "42a262ae-acba-4ab5-a446-c5789c96c821"
      ],
      "songwriters": [
        "3d4ab532-4b49-41f9-a167-f0a6787b04c8"
      ],
      "versions": [
        "c0cc87b9-55b9-40f0-878a-fbb9e34c151e"
      ]
    },
    "titles": {
      "eng": "Drown With Me"
    },
    "titles_default_language": "eng",
    "title": "Drown With Me",
    "year": 2002
  }
}