{
  "header": {
    "version": 4,
    "description": "Karaoke Mugen Karaoke Data File"
  },
  "medias": [
    {
      "version": "Default",
      "filename": "ENG - Persona 3 Portable - PSP GAME OP - Soul Phrase.mp4",
      "audiogain": -1.69,
      "loudnorm": "-17.02,-5.11,6.90,-27.14,-0.41",
      "filesize": 32744662,
      "duration": 99,
      "default": true,
      "lyrics": [
        {
          "filename": "ENG - Persona 3 Portable - PSP GAME OP - Soul Phrase.ass",
          "default": true,
          "version": "Default",
          "subchecksum": "ef92f583ae515107ada4a56cac31cfbd"
        }
      ]
    }
  ],
  "data": {
    "created_at": "2021-04-05T14:21:09.598Z",
    "kid": "36cf8bb6-c5a5-4be5-8140-5a8853a8b961",
    "modified_at": "2021-04-05T14:43:34.963Z",
    "parents": [
      "0bdd725e-c1c0-40f0-bbaa-5d49f2f7fbb4"
    ],
    "repository": "kara.moe",
    "tags": {
      "authors": [
        "56b54c89-86ae-4635-992f-ddc1234b8015"
      ],
      "collections": [
        "c7db86a0-ff64-4044-9be4-66dd1ef1d1c1"
      ],
      "creators": [
        "e9bb3a58-48d2-478c-bfe7-95237ddfe0fd"
      ],
      "families": [
        "0377db02-3af6-43b8-9b08-c759df3d25c3",
        "dbedd6b3-d125-4cd8-aa32-c4175e4ca3a3"
      ],
      "groups": [
        "3c14c864-533c-49e6-a3cc-6969f1233775"
      ],
      "langs": [
        "4dcf9614-7914-42aa-99f4-dbce2e059133",
        "de5eda1c-5fb3-46a6-9606-d4554fc5a1d6"
      ],
      "platforms": [
        "6b101aff-4b7b-4b0d-b35e-0f1b67e38c9b"
      ],
      "series": [
        "271f0b58-4a8b-47b3-b30d-ed2a283b6d62"
      ],
      "singers": [
        "37f5341e-43f5-4578-93e5-c3fbc07d18c3"
      ],
      "songtypes": [
        "f02ad9b3-0bd9-4aad-85b3-9976739ba0e4"
      ],
      "songwriters": [
        "10d8314d-6441-4ed1-9ae5-44a0f0516c73",
        "ec3a6acb-6751-49d9-84c7-b6b01ec163f4"
      ],
      "franchises": [
        "d8030743-4563-41b9-a3e3-30a0b2fb2edb"
      ]
    },
    "title": "Soul Phrase",
    "titles": {
      "eng": "Soul Phrase"
    },
    "year": 2009,
    "titles_default_language": "eng"
  }
}