{
  "header": {
    "version": 4,
    "description": "Karaoke Mugen Karaoke Data File"
  },
  "medias": [
    {
      "version": "Default",
      "filename": "ENG - Within Temptation - MV - Sinead.mp4",
      "audiogain": -2.99,
      "loudnorm": "-13.61,-3.15,10.40,-24.08,-1.39",
      "filesize": 110794121,
      "duration": 263,
      "default": true,
      "lyrics": [
        {
          "filename": "ENG - Within Temptation - MV - Sinead.ass",
          "default": true,
          "version": "Default",
          "subchecksum": "9d0b1b504007f32acf4edb39f0abeae9"
        }
      ]
    }
  ],
  "data": {
    "created_at": "2021-06-06T00:15:27.672Z",
    "kid": "8a6a0cb2-973a-4801-8186-151dfda02826",
    "modified_at": "2021-06-06T12:00:32.905Z",
    "repository": "kara.moe",
    "tags": {
      "authors": [
        "3fdaf73f-1caf-4655-b12c-cc4c5a1789f9"
      ],
      "collections": [
        "efe171c0-e8a1-4d03-98c0-60ecf741ad52"
      ],
      "creators": [
        "1a69ce60-d843-4a40-aa58-2241d758adaa"
      ],
      "families": [
        "5391f9fe-638c-415f-8dc9-958e3a2c5787"
      ],
      "groups": [
        "ae613721-1fbe-480d-ba6b-d6d0702b184d"
      ],
      "langs": [
        "de5eda1c-5fb3-46a6-9606-d4554fc5a1d6"
      ],
      "singers": [
        "258c3d42-f4a8-4a60-93b4-049260f732dc"
      ],
      "songtypes": [
        "7be1b15c-cff8-4b37-a649-5c90f3d569a9"
      ],
      "songwriters": [
        "8e6ac7ff-4491-4eab-b604-de8f7901b176",
        "d3fe0326-273e-48f2-a034-6ee810ad29a3",
        "ec2bcef2-1342-4a64-adad-672002f56658",
        "f734d062-e164-42f5-9f47-76a261d0940e"
      ]
    },
    "title": "Sinéad",
    "titles": {
      "eng": "Sinéad"
    },
    "year": 2011
  }
}