{
  "header": {
    "version": 4,
    "description": "Karaoke Mugen Karaoke Data File"
  },
  "medias": [
    {
      "version": "Default",
      "filename": "ENG - Persona Q2 - 3DS GAME OP - Road Less Taken.mp4",
      "audiogain": -0.69,
      "loudnorm": "-17.08,-5.66,5.50,-27.19,-0.89",
      "filesize": 34021618,
      "duration": 105,
      "default": true,
      "lyrics": [
        {
          "filename": "ENG - Persona Q2 - 3DS GAME OP - Road Less Taken.ass",
          "default": true,
          "version": "Default",
          "subchecksum": "b84cb64f2b285f674fd34bf88de6ef0b"
        }
      ]
    }
  ],
  "data": {
    "created_at": "2021-01-17T23:54:34.558Z",
    "kid": "1d32987e-545c-44ef-9a7e-27a61b1cef01",
    "modified_at": "2021-02-25T10:15:22.134Z",
    "repository": "kara.moe",
    "tags": {
      "authors": [
        "56b54c89-86ae-4635-992f-ddc1234b8015"
      ],
      "collections": [
        "c7db86a0-ff64-4044-9be4-66dd1ef1d1c1"
      ],
      "creators": [
        "e9bb3a58-48d2-478c-bfe7-95237ddfe0fd"
      ],
      "families": [
        "dbedd6b3-d125-4cd8-aa32-c4175e4ca3a3"
      ],
      "groups": [
        "8c22c899-b3ed-42da-a548-ce00f950798b",
        "ae613721-1fbe-480d-ba6b-d6d0702b184d"
      ],
      "langs": [
        "de5eda1c-5fb3-46a6-9606-d4554fc5a1d6"
      ],
      "misc": [
        "1d6ceadf-a885-47e5-b23b-c07bf668a424"
      ],
      "platforms": [
        "d7393757-7de7-4247-ba59-120b3ceea9bf"
      ],
      "series": [
        "2664992c-bc58-4bc2-9031-2b250300d051"
      ],
      "singers": [
        "2d55466d-e2ff-4db7-b530-646828aabc22",
        "900e7353-d9db-4c9e-88e9-24649beef963",
        "c5ce42f3-d4e1-417d-aded-e2ad4b2eab5f",
        "eaee2425-3cd4-4154-b04e-c7977dbe9de2"
      ],
      "songtypes": [
        "f02ad9b3-0bd9-4aad-85b3-9976739ba0e4"
      ],
      "songwriters": [
        "46994f82-720a-49eb-bf79-f27a14d6791d"
      ],
      "franchises": [
        "d8030743-4563-41b9-a3e3-30a0b2fb2edb"
      ]
    },
    "title": "Road Less Taken",
    "titles": {
      "eng": "Road Less Taken"
    },
    "year": 2018
  }
}