{
  "header": {
    "version": 4,
    "description": "Karaoke Mugen Karaoke Data File"
  },
  "medias": [
    {
      "version": "Default",
      "filename": "ENG - Accel World - AUDIO OP2 - Burst The Gravity ~ Full Vers.mp3",
      "audiogain": -11.3,
      "loudnorm": "-6.46,3.56,5.10,-16.58,-0.84",
      "filesize": 4460863,
      "duration": 266,
      "default": true,
      "lyrics": [
        {
          "filename": "ENG - Accel World - AUDIO OP2 - Burst The Gravity ~ Full Vers.ass",
          "default": true,
          "version": "Default"
        }
      ]
    }
  ],
  "data": {
    "created_at": "2022-10-09T16:01:57.527Z",
    "ignoreHooks": false,
    "kid": "bcdd3891-c17e-44fe-8205-670419df8b3f",
    "modified_at": "2022-10-09T16:09:43.347Z",
    "parents": [
      "06864598-f7b4-4ea2-8501-c20e3904b1c8"
    ],
    "repository": "kara.moe",
    "songorder": 2,
    "tags": {
      "authors": [
        "8605a8b9-3b45-44b9-9d98-1a25096bf702"
      ],
      "collections": [
        "dbcf2c22-524d-4708-99bb-601703633927"
      ],
      "creators": [
        "ef8f80e1-d244-4aea-b7f0-984d6dd4b82b"
      ],
      "genres": [
        "4b80eca6-f44f-4262-a8d0-b6879d6b70cb"
      ],
      "groups": [
        "ae613721-1fbe-480d-ba6b-d6d0702b184d"
      ],
      "langs": [
        "4dcf9614-7914-42aa-99f4-dbce2e059133",
        "de5eda1c-5fb3-46a6-9606-d4554fc5a1d6"
      ],
      "origins": [
        "938de218-5343-4865-94d3-fb33f2eaa152"
      ],
      "series": [
        "1978e19d-61f9-4a84-8712-86020545c8a0"
      ],
      "singers": [
        "1a0909ec-a66c-4fd7-ab0b-5ce943206803"
      ],
      "songtypes": [
        "42a262ae-acba-4ab5-a446-c5789c96c821",
        "f02ad9b3-0bd9-4aad-85b3-9976739ba0e4"
      ],
      "songwriters": [
        "67335af9-dec8-498e-9eb4-d43a8206242c",
        "71621442-5ffe-4f44-afd0-c2dbdc192d85",
        "d5d04a4f-594b-4e7c-bf1f-546ea6c6aab4"
      ],
      "versions": [
        "c2143a7f-6970-450e-8a79-0302db9220a9"
      ]
    },
    "titles": {
      "eng": "Burst The Gravity"
    },
    "titles_default_language": "eng",
    "title": "Burst The Gravity",
    "year": 2012
  }
}