{
  "header": {
    "version": 4,
    "description": "Karaoke Mugen Karaoke Data File"
  },
  "medias": [
    {
      "version": "Default",
      "filename": "ENG - Kingdom Hearts 2 - PS2 GAME OP - Sanctuary.mp4",
      "audiogain": -4.69,
      "loudnorm": "-12.66,-1.49,10.50,-23.03,-1.36",
      "filesize": 142104344,
      "duration": 285,
      "default": true,
      "lyrics": [
        {
          "filename": "ENG - Kingdom Hearts 2 - PS2 GAME OP - Sanctuary.ass",
          "default": true,
          "version": "Default",
          "subchecksum": "c2a751387c75905e931eccfe740ee326"
        }
      ]
    }
  ],
  "data": {
    "created_at": "2017-10-11T17:02:08.000Z",
    "kid": "0d35136f-d086-4e3b-8298-5bf10ee4863c",
    "modified_at": "2021-02-25T10:10:49.314Z",
    "repository": "kara.moe",
    "tags": {
      "authors": [
        "05c1e4ad-32ba-490e-8f3c-5cd491c96d85"
      ],
      "collections": [
        "c7db86a0-ff64-4044-9be4-66dd1ef1d1c1"
      ],
      "creators": [
        "ac4a5180-97af-4679-adcd-70ab39919d48"
      ],
      "families": [
        "dbedd6b3-d125-4cd8-aa32-c4175e4ca3a3"
      ],
      "groups": [
        "3c14c864-533c-49e6-a3cc-6969f1233775"
      ],
      "langs": [
        "de5eda1c-5fb3-46a6-9606-d4554fc5a1d6"
      ],
      "platforms": [
        "2173004e-21da-45c9-9dfb-26014423c566"
      ],
      "series": [
        "9e85310f-8010-4e35-9720-e07ea961a7ee"
      ],
      "singers": [
        "41a9b640-40e6-4019-a55b-9bb0e858e0fc"
      ],
      "songtypes": [
        "f02ad9b3-0bd9-4aad-85b3-9976739ba0e4"
      ],
      "songwriters": [
        "41a9b640-40e6-4019-a55b-9bb0e858e0fc"
      ],
      "franchises": [
        "2fdcf090-923c-456c-b4bf-96449bcaecd0"
      ]
    },
    "title": "Sanctuary",
    "titles": {
      "eng": "Sanctuary"
    },
    "year": 2005
  }
}