{
  "header": {
    "version": 4,
    "description": "Karaoke Mugen Karaoke Data File"
  },
  "medias": [
    {
      "version": "Default",
      "filename": "ENG - Kingdom Hearts - PS2 GAME OP - Simple and clean.mp4",
      "audiogain": -0.09,
      "loudnorm": "-15.88,-0.37,8.70,-26.28,-0.40",
      "filesize": 191645208,
      "duration": 191,
      "default": true,
      "lyrics": [
        {
          "filename": "ENG - Kingdom Hearts - PS2 GAME OP - Simple and clean.ass",
          "default": true,
          "version": "Default",
          "subchecksum": "fb2274190cff831984bce38668080835"
        }
      ]
    }
  ],
  "data": {
    "created_at": "2018-03-02T23:16:16.000Z",
    "kid": "648bdbdf-f567-4c6f-ba5d-8b957713a77b",
    "modified_at": "2021-02-25T10:10:44.216Z",
    "repository": "kara.moe",
    "tags": {
      "authors": [
        "79e03303-5603-41e6-bbe5-660afcbe41c4"
      ],
      "collections": [
        "c7db86a0-ff64-4044-9be4-66dd1ef1d1c1"
      ],
      "creators": [
        "ac4a5180-97af-4679-adcd-70ab39919d48"
      ],
      "families": [
        "dbedd6b3-d125-4cd8-aa32-c4175e4ca3a3"
      ],
      "groups": [
        "3c14c864-533c-49e6-a3cc-6969f1233775"
      ],
      "langs": [
        "de5eda1c-5fb3-46a6-9606-d4554fc5a1d6"
      ],
      "platforms": [
        "2173004e-21da-45c9-9dfb-26014423c566"
      ],
      "series": [
        "2fdcf090-923c-456c-b4bf-96449bcaecd0"
      ],
      "singers": [
        "41a9b640-40e6-4019-a55b-9bb0e858e0fc"
      ],
      "songtypes": [
        "f02ad9b3-0bd9-4aad-85b3-9976739ba0e4"
      ],
      "songwriters": [
        "41a9b640-40e6-4019-a55b-9bb0e858e0fc"
      ],
      "franchises": [
        "2fdcf090-923c-456c-b4bf-96449bcaecd0"
      ]
    },
    "title": "Simple and clean",
    "titles": {
      "eng": "Simple and clean"
    },
    "year": 2002
  }
}