{
  "header": {
    "version": 4,
    "description": "Karaoke Mugen Karaoke Data File"
  },
  "medias": [
    {
      "version": "Default",
      "filename": "ENG - Donkey Kong 64 - N64 GAME OP - DK Rap.mp4",
      "audiogain": 1.35,
      "loudnorm": "-18.18,-5.07,3.10,-28.20,-0.46",
      "filesize": 49917840,
      "duration": 191,
      "default": true,
      "lyrics": [
        {
          "filename": "ENG - Donkey Kong 64 - N64 GAME OP - DK Rap.ass",
          "default": true,
          "version": "Default",
          "subchecksum": "35f1e7bc2f1f4783724b217522efb743"
        }
      ]
    }
  ],
  "data": {
    "created_at": "2020-01-22T15:56:45.712Z",
    "kid": "e8c3d072-d0e6-424d-b7da-346353fedec2",
    "modified_at": "2021-02-25T10:05:21.993Z",
    "repository": "kara.moe",
    "tags": {
      "authors": [
        "06852e02-b77e-4106-b6f7-2d03942ad0ea"
      ],
      "collections": [
        "c7db86a0-ff64-4044-9be4-66dd1ef1d1c1"
      ],
      "creators": [
        "6557f32e-5d37-42b1-86c4-b05e507d3efb"
      ],
      "families": [
        "dbedd6b3-d125-4cd8-aa32-c4175e4ca3a3"
      ],
      "groups": [
        "24db50aa-a126-4d34-a48a-e45db79c4245"
      ],
      "langs": [
        "de5eda1c-5fb3-46a6-9606-d4554fc5a1d6"
      ],
      "misc": [
        "fe819ff1-9db8-4a0f-85dc-0e322c9126c4"
      ],
      "platforms": [
        "17ca27a4-c5f2-425f-ad14-2e2319209129"
      ],
      "series": [
        "cb36ebef-8077-4945-b983-ecc93d48ea1f"
      ],
      "singers": [
        "a6559e9c-6f31-4eaf-a325-55437ba34d4f",
        "a666d5ba-bbbe-4169-ad0c-62b23fbc855d"
      ],
      "songtypes": [
        "f02ad9b3-0bd9-4aad-85b3-9976739ba0e4"
      ],
      "songwriters": [
        "9a50895b-0aac-4660-8f6a-9ee42ee1bf52",
        "a666d5ba-bbbe-4169-ad0c-62b23fbc855d"
      ],
      "franchises": [
        "67178a62-e6d6-491c-b199-1f3b2859b8f1"
      ]
    },
    "title": "DK Rap",
    "titles": {
      "eng": "DK Rap"
    },
    "year": 1999
  }
}