{
  "header": {
    "version": 4,
    "description": "Karaoke Mugen Karaoke Data File"
  },
  "medias": [
    {
      "version": "Default",
      "filename": "ENG - Shingeki no Kyojin S2 - ED - Yuugure no Tori.mp4",
      "audiogain": -0.62,
      "loudnorm": "-16.04,-4.50,3.10,-26.12,-0.07",
      "filesize": 66319334,
      "duration": 90,
      "default": true,
      "lyrics": [
        {
          "filename": "ENG - Shingeki no Kyojin S2 - ED - Yuugure no Tori.ass",
          "default": true,
          "version": "Default"
        }
      ]
    }
  ],
  "data": {
    "created_at": "2018-07-28T11:39:09.000Z",
    "ignoreHooks": false,
    "kid": "03213a6b-e6ed-4e10-aa70-f5cd52fb5759",
    "modified_at": "2022-03-24T13:56:46.335Z",
    "repository": "kara.moe",
    "tags": {
      "authors": [
        "fa399f2f-ea1d-4902-8796-ea6d8218aff0"
      ],
      "collections": [
        "c7db86a0-ff64-4044-9be4-66dd1ef1d1c1"
      ],
      "creators": [
        "5e24aaad-83c9-4d8a-bbb9-37b766278ffe"
      ],
      "families": [
        "0377db02-3af6-43b8-9b08-c759df3d25c3"
      ],
      "groups": [
        "ae613721-1fbe-480d-ba6b-d6d0702b184d"
      ],
      "langs": [
        "de5eda1c-5fb3-46a6-9606-d4554fc5a1d6"
      ],
      "misc": [
        "fe819ff1-9db8-4a0f-85dc-0e322c9126c4"
      ],
      "origins": [
        "938de218-5343-4865-94d3-fb33f2eaa152"
      ],
      "series": [
        "07b31574-4baa-42eb-bf28-c232cd695096"
      ],
      "singers": [
        "7117a40d-5fcb-4a0e-afa0-087d56631e41"
      ],
      "songtypes": [
        "38c77c56-2b95-4040-b676-0994a8cb0597"
      ],
      "franchises": [
        "1086e47f-30cd-4219-9454-4ad608f07481"
      ]
    },
    "titles": {
      "jpn": "夕暮れの鳥",
      "qro": "Yuugure no Tori"
    },
    "titles_default_language": "qro",
    "title": "Yuugure no Tori",
    "year": 2017
  }
}