{
  "header": {
    "version": 4,
    "description": "Karaoke Mugen Karaoke Data File"
  },
  "medias": [
    {
      "version": "Default",
      "filename": "ENG - Guilty Gear Xrd -Sign- - GAME PS4 OP - HEAVY DAY.mp4",
      "audiogain": 6.37,
      "loudnorm": "-23.07,-12.99,3.00,-33.21,0.06",
      "filesize": 31212307,
      "duration": 89,
      "default": true,
      "lyrics": [
        {
          "filename": "ENG - Guilty Gear Xrd -Sign- - GAME PS4 OP - HEAVY DAY.ass",
          "default": true,
          "version": "Default"
        }
      ]
    }
  ],
  "data": {
    "created_at": "2018-11-06T13:53:47.000Z",
    "ignoreHooks": false,
    "kid": "a3efcd2e-010d-4a60-b336-caa711e52069",
    "modified_at": "2022-09-24T20:28:29.721Z",
    "repository": "kara.moe",
    "tags": {
      "authors": [
        "ad713171-dcf0-4076-911c-6764037096a1"
      ],
      "collections": [
        "c7db86a0-ff64-4044-9be4-66dd1ef1d1c1"
      ],
      "creators": [
        "f068c907-7440-4e21-9667-1b905a7dbf23"
      ],
      "families": [
        "dbedd6b3-d125-4cd8-aa32-c4175e4ca3a3"
      ],
      "groups": [
        "8c22c899-b3ed-42da-a548-ce00f950798b",
        "ae613721-1fbe-480d-ba6b-d6d0702b184d"
      ],
      "langs": [
        "de5eda1c-5fb3-46a6-9606-d4554fc5a1d6"
      ],
      "platforms": [
        "248d92ee-8c02-43bc-86e2-cc6029883564",
        "7f63ff91-7961-4488-888d-4bf46eea3a2a"
      ],
      "series": [
        "0fbf9b3c-e7e3-4db2-9d8a-bfe7dae280d3"
      ],
      "singers": [
        "957c2519-1f7f-477d-8e06-67ea2a7f2dac"
      ],
      "songtypes": [
        "f02ad9b3-0bd9-4aad-85b3-9976739ba0e4"
      ],
      "songwriters": [
        "641b6d06-142e-4cf8-b09c-df6fc2f7eb9c"
      ],
      "franchises": [
        "3ddf630c-9673-49d9-8523-bfa5c7d3f74c"
      ]
    },
    "titles": {
      "eng": "HEAVY DAY"
    },
    "titles_default_language": "eng",
    "title": "HEAVY DAY",
    "year": 2014
  }
}