{
  "header": {
    "version": 4,
    "description": "Karaoke Mugen Karaoke Data File"
  },
  "medias": [
    {
      "version": "Default",
      "filename": "ENG - AVICII - MV - Wake Me Up.mp4",
      "audiogain": 5.28,
      "loudnorm": "-22.27,-10.16,5.00,-32.52,-0.90",
      "filesize": 34253803,
      "duration": 133,
      "default": true,
      "lyrics": [
        {
          "filename": "ENG - AVICII - MV - Wake Me Up.ass",
          "default": true,
          "version": "Default",
          "subchecksum": "21a3d68cf9d4a5823edc1db8f2b34814"
        }
      ]
    }
  ],
  "data": {
    "created_at": "2018-11-06T13:53:47.000Z",
    "kid": "632e2675-717e-4744-9bdb-67c1fca0f9d6",
    "modified_at": "2021-02-25T14:48:05.111Z",
    "repository": "kara.moe",
    "tags": {
      "authors": [
        "8c22c899-b3ed-42da-a548-ce00f950798b"
      ],
      "collections": [
        "efe171c0-e8a1-4d03-98c0-60ecf741ad52"
      ],
      "creators": [
        "f963181a-1214-47f8-b6f9-1705cbc33779"
      ],
      "families": [
        "5391f9fe-638c-415f-8dc9-958e3a2c5787"
      ],
      "groups": [
        "8c22c899-b3ed-42da-a548-ce00f950798b",
        "ae613721-1fbe-480d-ba6b-d6d0702b184d",
        "f5e7d2fc-0cbb-4fb9-a84a-b25dfb0e9e77"
      ],
      "langs": [
        "de5eda1c-5fb3-46a6-9606-d4554fc5a1d6"
      ],
      "singers": [
        "f55f9ff7-5dcc-447d-901d-ae4cd3735713"
      ],
      "songtypes": [
        "7be1b15c-cff8-4b37-a649-5c90f3d569a9"
      ],
      "songwriters": [
        "3492d60c-0a44-4db9-9694-88e4f58dd30f",
        "44d55d2e-6e12-40f5-b80e-50f29427e306",
        "7cb3b2ad-b36e-4175-b450-0ee542d5a4f7"
      ]
    },
    "title": "Wake Me Up",
    "titles": {
      "eng": "Wake Me Up"
    },
    "year": 2013
  }
}