{
  "header": {
    "version": 4,
    "description": "Karaoke Mugen Karaoke Data File"
  },
  "medias": [
    {
      "version": "Default",
      "filename": "ENG - Metal Gear Solid 3 - PS2 GAME OP - Snake Eater.mp4",
      "audiogain": 2.61,
      "loudnorm": "-21.18,-4.51,11.60,-31.73,-0.83",
      "filesize": 39623164,
      "duration": 178,
      "default": true,
      "lyrics": [
        {
          "filename": "ENG - Metal Gear Solid 3 - PS2 GAME OP - Snake Eater.ass",
          "default": true,
          "version": "Default",
          "subchecksum": "72e7eec6c3c4bcbc75801498d6e8ee14"
        }
      ]
    }
  ],
  "data": {
    "created_at": "2017-10-11T17:01:30.000Z",
    "kid": "78e7f3f8-151d-4e5a-a3aa-f80d5279d6ef",
    "modified_at": "2021-02-25T10:12:40.188Z",
    "repository": "kara.moe",
    "tags": {
      "authors": [
        "8c22c899-b3ed-42da-a548-ce00f950798b"
      ],
      "collections": [
        "c7db86a0-ff64-4044-9be4-66dd1ef1d1c1"
      ],
      "creators": [
        "00f32bb5-4a82-4619-a35b-7efbac8aa99d",
        "22092200-b324-4277-8269-b8b0929f42c1"
      ],
      "families": [
        "dbedd6b3-d125-4cd8-aa32-c4175e4ca3a3"
      ],
      "groups": [
        "3c14c864-533c-49e6-a3cc-6969f1233775",
        "8c22c899-b3ed-42da-a548-ce00f950798b"
      ],
      "langs": [
        "de5eda1c-5fb3-46a6-9606-d4554fc5a1d6"
      ],
      "platforms": [
        "2173004e-21da-45c9-9dfb-26014423c566"
      ],
      "series": [
        "84380dd1-76f1-4217-918a-4757670982b3"
      ],
      "singers": [
        "55470a48-8470-41d0-94d1-a496639b3e7a"
      ],
      "songtypes": [
        "f02ad9b3-0bd9-4aad-85b3-9976739ba0e4"
      ],
      "songwriters": [
        "30e8b2fa-5d84-42c8-b1f3-ace0eeea56cd"
      ],
      "franchises": [
        "db305971-d5e2-4caf-928c-0c75d78db190"
      ]
    },
    "title": "Snake Eater",
    "titles": {
      "eng": "Snake Eater"
    },
    "year": 2004
  }
}