{
  "header": {
    "description": "Karaoke Mugen Karaoke Data File",
    "version": 4
  },
  "medias": [
    {
      "version": "Default",
      "filename": "ENG - Baltimora - MV - Tarzan Boy.mp4",
      "audiogain": -5,
      "loudnorm": "-13.87,0.34,2.90,-24.02,-0.32",
      "filesize": 17784530,
      "duration": 224,
      "default": true,
      "lyrics": [
        {
          "filename": "ENG - Baltimora - MV - Tarzan Boy.ass",
          "default": true,
          "version": "Default"
        }
      ]
    }
  ],
  "data": {
    "created_at": "2022-08-16T21:29:51.411Z",
    "kid": "d294b71c-8688-42a1-a72a-686f68ddda42",
    "modified_at": "2022-08-16T21:29:51.411Z",
    "tags": {
      "authors": [
        "0c8e4377-ee35-4896-89ed-9d06a1b5acd5",
        "f70c7314-b8d3-4bf4-96a0-dc8b2c5a6c94"
      ],
      "creators": [
        "31eff3f0-2c1f-4fbb-88ee-a9b6ca46118e",
        "f963181a-1214-47f8-b6f9-1705cbc33779"
      ],
      "families": [
        "5391f9fe-638c-415f-8dc9-958e3a2c5787"
      ],
      "groups": [
        "7792cc27-9ff9-4d47-9287-2338b7db1575"
      ],
      "langs": [
        "de5eda1c-5fb3-46a6-9606-d4554fc5a1d6"
      ],
      "singers": [
        "6e8c81f2-57b7-42fb-b3cd-af88c0ded53d"
      ],
      "songtypes": [
        "7be1b15c-cff8-4b37-a649-5c90f3d569a9"
      ],
      "songwriters": [
        "9cbf87f6-f8fc-48ad-8da9-8941bb0d9e0c",
        "59b1a99b-7e5f-4eaa-a497-3a9353591129"
      ],
      "collections": [
        "efe171c0-e8a1-4d03-98c0-60ecf741ad52"
      ]
    },
    "titles": {
      "eng": "Tarzan Boy"
    },
    "titles_default_language": "eng",
    "titles_aliases": [],
    "title": "Tarzan Boy",
    "year": "1985",
    "repository": "kara.moe"
  }
}