{
  "header": {
    "version": 4,
    "description": "Karaoke Mugen Karaoke Data File"
  },
  "medias": [
    {
      "version": "Default",
      "filename": "ENG - Weird Al Yankovic - MV - Amish Paradise.mp4",
      "audiogain": -2.44,
      "loudnorm": "-15.53,-0.87,6.30,-25.74,-0.69",
      "filesize": 11151554,
      "duration": 204,
      "default": true,
      "lyrics": [
        {
          "filename": "ENG - Weird Al Yankovic - MV - Amish Paradise.ass",
          "default": true,
          "version": "Default"
        }
      ]
    }
  ],
  "data": {
    "created_at": "2022-07-20T21:29:46.592Z",
    "ignoreHooks": false,
    "kid": "b077e1b2-01b8-49aa-912f-781ed76034c1",
    "modified_at": "2022-07-21T14:20:53.994Z",
    "repository": "kara.moe",
    "tags": {
      "authors": [
        "aa31b3f3-0a7e-4042-8063-862454d37dc5"
      ],
      "collections": [
        "efe171c0-e8a1-4d03-98c0-60ecf741ad52"
      ],
      "creators": [
        "094c217b-c8ba-4d8f-a4c2-21e448233e71"
      ],
      "families": [
        "5391f9fe-638c-415f-8dc9-958e3a2c5787"
      ],
      "groups": [
        "24db50aa-a126-4d34-a48a-e45db79c4245"
      ],
      "langs": [
        "de5eda1c-5fb3-46a6-9606-d4554fc5a1d6"
      ],
      "misc": [
        "cef35a27-3bf0-48c9-beb2-d245ba62ea6b"
      ],
      "singers": [
        "b6177d57-4cff-40f2-b4a7-ede40300b2a0"
      ],
      "songtypes": [
        "7be1b15c-cff8-4b37-a649-5c90f3d569a9"
      ],
      "songwriters": [
        "05c49359-885f-44eb-ab82-2776827bd258",
        "b2d3d926-bac2-40b0-83ea-94c732d6292d",
        "b6177d57-4cff-40f2-b4a7-ede40300b2a0",
        "c2cc507a-59ef-4036-845d-45ebc5301508",
        "d0f5ff76-7ca5-4349-90ec-e48a53c061da"
      ]
    },
    "titles": {
      "eng": "Amish Paradise"
    },
    "titles_default_language": "eng",
    "title": "Amish Paradise",
    "year": 1996
  }
}