{
  "header": {
    "version": 4,
    "description": "Karaoke Mugen Karaoke Data File"
  },
  "medias": [
    {
      "version": "Default",
      "filename": "ENG - Cyberpunk 2077 - PS4 XBOXONE PC GAME AMV - Ponpon Shit.mp4",
      "audiogain": -0.25,
      "loudnorm": "-17.15,-7.01,3.00,-27.27,-0.42",
      "filesize": 82000357,
      "duration": 215,
      "default": true,
      "lyrics": [
        {
          "filename": "ENG - Cyberpunk 2077 - PS4 XBOXONE PC GAME AMV - Ponpon Shit.ass",
          "default": true,
          "version": "Default",
          "subchecksum": "c72bba8f1bbe4648dad46b1f3e60cebd"
        }
      ]
    }
  ],
  "data": {
    "created_at": "2021-04-21T17:23:54.165Z",
    "kid": "940d49fb-7ba3-4800-93c9-50a95792e1f1",
    "modified_at": "2021-04-21T17:32:36.170Z",
    "repository": "kara.moe",
    "tags": {
      "authors": [
        "b2bacb3f-542c-44d2-af9b-cd78c1dd4b70"
      ],
      "collections": [
        "c7db86a0-ff64-4044-9be4-66dd1ef1d1c1"
      ],
      "creators": [
        "c9596af3-ff12-4142-9ca5-0cdc8662f8d1"
      ],
      "families": [
        "dbedd6b3-d125-4cd8-aa32-c4175e4ca3a3"
      ],
      "groups": [
        "8c22c899-b3ed-42da-a548-ce00f950798b",
        "8e209ae4-4381-438f-89dc-1b21752027d2"
      ],
      "langs": [
        "4dcf9614-7914-42aa-99f4-dbce2e059133",
        "de5eda1c-5fb3-46a6-9606-d4554fc5a1d6"
      ],
      "misc": [
        "1d6ceadf-a885-47e5-b23b-c07bf668a424"
      ],
      "platforms": [
        "22840d76-7030-4c3f-ab35-4a863adce093",
        "248d92ee-8c02-43bc-86e2-cc6029883564",
        "3c15f758-e1bc-4266-8bb9-3c14112f504a"
      ],
      "series": [
        "80884681-b7fc-4709-84d1-e1070dbc6fe3"
      ],
      "singers": [
        "00fdb8f7-f1fa-4037-bc12-b41045c39950"
      ],
      "songtypes": [
        "a6c79ce5-89ee-4d50-afe8-3abd7317f6c2"
      ],
      "songwriters": [
        "6f83a555-9015-4290-9c17-a36e8c604cfc",
        "d6880b6e-af68-4444-a3d3-c899ef253667"
      ],
      "franchises": [
        "59414586-1fb0-494f-9522-f964c285b55b"
      ]
    },
    "title": "Ponpon Shit",
    "titles": {
      "eng": "Ponpon Shit",
      "jpn": "ポンポン·シッ卜"
    },
    "year": 2020,
    "titles_default_language": "eng"
  }
}