{
  "header": {
    "version": 4,
    "description": "Karaoke Mugen Karaoke Data File"
  },
  "medias": [
    {
      "version": "Default",
      "filename": "ENG - Fall Out Boy - MV - Thnks Fr Th Mmrs.mp4",
      "audiogain": -9.5,
      "loudnorm": "-8.25,1.11,9.40,-18.40,-1.44",
      "filesize": 115197118,
      "duration": 206,
      "default": true,
      "lyrics": [
        {
          "filename": "ENG - Fall Out Boy - MV - Thnks Fr Th Mmrs.ass",
          "default": true,
          "version": "Default"
        }
      ]
    }
  ],
  "data": {
    "created_at": "2023-02-05T13:35:47.900Z",
    "ignoreHooks": false,
    "kid": "cf6533e5-4f2c-4c81-9d2a-f321d995590d",
    "modified_at": "2023-02-05T20:27:13.964Z",
    "repository": "kara.moe",
    "tags": {
      "authors": [
        "0c8e4377-ee35-4896-89ed-9d06a1b5acd5",
        "1df04771-a378-4f14-a5e1-1455187d681a"
      ],
      "collections": [
        "efe171c0-e8a1-4d03-98c0-60ecf741ad52"
      ],
      "creators": [
        "35cf30c4-8701-4295-be83-6806dbe744ea"
      ],
      "families": [
        "5391f9fe-638c-415f-8dc9-958e3a2c5787"
      ],
      "groups": [
        "3c14c864-533c-49e6-a3cc-6969f1233775"
      ],
      "langs": [
        "de5eda1c-5fb3-46a6-9606-d4554fc5a1d6"
      ],
      "singergroups": [
        "140ed8b8-dc75-43a5-90b4-07f705c2dcd8"
      ],
      "songtypes": [
        "7be1b15c-cff8-4b37-a649-5c90f3d569a9"
      ],
      "songwriters": [
        "66ea36e6-ca90-4e79-a825-866e170e644c",
        "848d6d0e-59d9-4847-93b9-6a4dfb061e69"
      ]
    },
    "titles": {
      "eng": "Thnks Fr Th Mmrs"
    },
    "titles_default_language": "eng",
    "titles_aliases": [
      "thanks for the memories"
    ],
    "year": 2007
  }
}