{
  "header": {
    "version": 4,
    "description": "Karaoke Mugen Karaoke Data File"
  },
  "medias": [
    {
      "version": "Default",
      "filename": "ENG - Iron Maiden - MV - The Number of the Beast.mp4",
      "audiogain": -9.42,
      "loudnorm": "-8.15,1.49,5.50,-18.57,-1.20",
      "filesize": 159478752,
      "duration": 291,
      "default": true,
      "lyrics": [
        {
          "filename": "ENG - Iron Maiden - MV - The Number of the Beast.ass",
          "default": true,
          "version": "Default"
        }
      ]
    }
  ],
  "data": {
    "created_at": "2022-04-17T13:54:18.499Z",
    "ignoreHooks": false,
    "kid": "7a3dc54c-10a7-405b-a456-c7f348c3f953",
    "modified_at": "2022-04-17T13:54:21.766Z",
    "repository": "kara.moe",
    "tags": {
      "authors": [
        "9bea7e05-2dec-434e-92ff-fcb53f69fdb7"
      ],
      "collections": [
        "efe171c0-e8a1-4d03-98c0-60ecf741ad52"
      ],
      "creators": [
        "078ec016-e167-49bf-ba43-af95adfc4c51"
      ],
      "families": [
        "5391f9fe-638c-415f-8dc9-958e3a2c5787"
      ],
      "langs": [
        "de5eda1c-5fb3-46a6-9606-d4554fc5a1d6"
      ],
      "singers": [
        "22ff7bf3-f4f9-4adf-86f3-daa126bb3b6a"
      ],
      "songtypes": [
        "7be1b15c-cff8-4b37-a649-5c90f3d569a9"
      ],
      "songwriters": [
        "b5a6c7eb-dae6-4695-9693-2c5ac3e59d12",
        "d574acb8-8164-426d-94e8-b7a45e5e7303"
      ],
      "groups": [
        "7792cc27-9ff9-4d47-9287-2338b7db1575"
      ]
    },
    "titles": {
      "eng": "The Number of the Beast"
    },
    "titles_default_language": "eng",
    "title": "The Number of the Beast",
    "year": 1982
  }
}