{
  "header": {
    "version": 4,
    "description": "Karaoke Mugen Karaoke Data File"
  },
  "medias": [
    {
      "version": "Default",
      "filename": "ENG - Sengoku BASARA 3 - PS3 WII GAME OP - Naked Arms.mp4",
      "audiogain": -4.47,
      "loudnorm": "-11.95,-0.49,1.70,-22.10,-0.25",
      "filesize": 72762049,
      "duration": 136,
      "default": true,
      "lyrics": [
        {
          "filename": "ENG - Sengoku BASARA 3 - PS3 WII GAME OP - Naked Arms.ass",
          "default": true,
          "version": "Default",
          "subchecksum": "842dc7cfe9c91a44535d6e340b1a6d30"
        }
      ]
    }
  ],
  "data": {
    "created_at": "2017-10-11T17:01:48.000Z",
    "kid": "958b9e28-d56d-4742-916c-8e4fd426084b",
    "modified_at": "2021-02-25T10:16:51.021Z",
    "repository": "kara.moe",
    "tags": {
      "authors": [
        "5bdaba57-27f8-4568-8806-76a807728766"
      ],
      "collections": [
        "c7db86a0-ff64-4044-9be4-66dd1ef1d1c1"
      ],
      "creators": [
        "a9b563c0-8ead-481e-9071-277ad918982e"
      ],
      "families": [
        "dbedd6b3-d125-4cd8-aa32-c4175e4ca3a3"
      ],
      "groups": [
        "ae613721-1fbe-480d-ba6b-d6d0702b184d"
      ],
      "langs": [
        "de5eda1c-5fb3-46a6-9606-d4554fc5a1d6"
      ],
      "platforms": [
        "78d46ef5-c98a-44dd-ad00-5d8c44b6271b",
        "7f63ff91-7961-4488-888d-4bf46eea3a2a"
      ],
      "series": [
        "b9a63c6f-6e13-43f0-9625-6b0345a7c522"
      ],
      "singers": [
        "43ccb9e9-fd05-40a3-8538-73d1959aed9f"
      ],
      "songtypes": [
        "f02ad9b3-0bd9-4aad-85b3-9976739ba0e4"
      ],
      "songwriters": [
        "51bbb12b-3034-4785-a7c8-0a55db6f0de9",
        "b79f0c92-c2b8-4170-8498-9a5defa67abb"
      ],
      "franchises": [
        "18262928-15a2-4c15-8447-a4298392b03f"
      ]
    },
    "title": "Naked Arms",
    "titles": {
      "eng": "Naked Arms"
    },
    "year": 2010
  }
}