{
  "header": {
    "version": 4,
    "description": "Karaoke Mugen Karaoke Data File"
  },
  "medias": [
    {
      "version": "Default",
      "filename": "ENG - Evangelion Shin Gekijouban Ha - MOVIE AMV - Eternity of Evangelion (Thnks Fr Th Mmrs).mp4",
      "audiogain": -11.52,
      "loudnorm": "-6.33,1.40,9.50,-16.52,-1.54",
      "filesize": 114719659,
      "duration": 181,
      "default": true,
      "lyrics": [
        {
          "filename": "ENG - Evangelion Shin Gekijouban Ha - MOVIE AMV - Eternity of Evangelion (Thnks Fr Th Mmrs).ass",
          "default": true,
          "version": "Default"
        }
      ]
    }
  ],
  "data": {
    "created_at": "2023-02-05T20:06:33.712Z",
    "ignoreHooks": false,
    "kid": "04d3e984-da25-44d2-9ab4-1b897165ada7",
    "modified_at": "2023-02-05T20:09:18.934Z",
    "parents": [
      "cf6533e5-4f2c-4c81-9d2a-f321d995590d"
    ],
    "repository": "kara.moe",
    "tags": {
      "authors": [
        "1df04771-a378-4f14-a5e1-1455187d681a"
      ],
      "collections": [
        "c7db86a0-ff64-4044-9be4-66dd1ef1d1c1"
      ],
      "creators": [
        "2c3b5e17-f339-43d4-8ade-4f848d63316e",
        "bd13b213-28d0-4c97-990f-fecfcfaac3cd"
      ],
      "families": [
        "0377db02-3af6-43b8-9b08-c759df3d25c3"
      ],
      "genres": [
        "f60ba57d-5ef4-49e0-b93b-d0dcbcff6592"
      ],
      "groups": [
        "ae613721-1fbe-480d-ba6b-d6d0702b184d"
      ],
      "langs": [
        "de5eda1c-5fb3-46a6-9606-d4554fc5a1d6"
      ],
      "origins": [
        "c8ca9dea-d8b4-48fe-8427-d911653232e9"
      ],
      "series": [
        "84d0e45b-8278-41e9-a2b1-2766ab54f00b"
      ],
      "singergroups": [
        "140ed8b8-dc75-43a5-90b4-07f705c2dcd8"
      ],
      "songtypes": [
        "a6c79ce5-89ee-4d50-afe8-3abd7317f6c2"
      ],
      "songwriters": [
        "66ea36e6-ca90-4e79-a825-866e170e644c",
        "848d6d0e-59d9-4847-93b9-6a4dfb061e69"
      ],
      "warnings": [
        "24371984-5e4c-4485-a937-fb0c480ca23b"
      ],
      "franchises": [
        "f5c46257-58e9-4eac-92ce-7d02fd528809"
      ]
    },
    "titles": {
      "eng": "Eternity of Evangelion (Thnks Fr Th Mmrs)"
    },
    "titles_default_language": "eng",
    "titles_aliases": [
      "thanks for the memories"
    ],
    "year": 2012
  }
}