{
  "header": {
    "version": 4,
    "description": "Karaoke Mugen Karaoke Data File"
  },
  "medias": [
    {
      "version": "Default",
      "filename": "ENG - Village People - MV - Y.M.C.A.mp4",
      "audiogain": 5.58,
      "loudnorm": "-24.34,-12.35,3.40,-34.55,-0.42",
      "filesize": 36240626,
      "duration": 227,
      "default": true,
      "lyrics": [
        {
          "filename": "ENG - Village People - MV - Y.M.C.A.ass",
          "default": true,
          "version": "Default",
          "subchecksum": "2537e36c1f4b8e6334411b5f3f7997f6"
        }
      ]
    }
  ],
  "data": {
    "created_at": "2020-07-11T23:23:36.771Z",
    "kid": "0a85f2f7-b51b-4c76-ba26-7bfbd8c892e9",
    "modified_at": "2021-02-25T14:50:58.265Z",
    "repository": "kara.moe",
    "tags": {
      "authors": [
        "0c8e4377-ee35-4896-89ed-9d06a1b5acd5"
      ],
      "collections": [
        "efe171c0-e8a1-4d03-98c0-60ecf741ad52"
      ],
      "creators": [
        "5ac82b42-28b8-4335-888a-f49ca379da38"
      ],
      "families": [
        "5391f9fe-638c-415f-8dc9-958e3a2c5787"
      ],
      "groups": [
        "57e5e0c0-e02e-4871-a6cb-d48ea604ebab"
      ],
      "langs": [
        "de5eda1c-5fb3-46a6-9606-d4554fc5a1d6"
      ],
      "singers": [
        "48aef073-a051-4ab7-ac9c-25107473d382"
      ],
      "songtypes": [
        "7be1b15c-cff8-4b37-a649-5c90f3d569a9"
      ],
      "songwriters": [
        "1be3918c-b32e-4cbd-b82e-c127463300ea",
        "50c926e2-acdf-40bb-bcd6-fc997ed342a2",
        "d933807b-be5a-4007-a755-f0862ca1833f"
      ]
    },
    "title": "Y.M.C.A",
    "titles": {
      "eng": "Y.M.C.A"
    },
    "year": 1978
  }
}