{
  "header": {
    "version": 4,
    "description": "Karaoke Mugen Karaoke Data File"
  },
  "medias": [
    {
      "version": "Default",
      "filename": "ENG - Super Smash Bros. Melee - GAMECUBE GAME OP - Opening Theme.mp4",
      "audiogain": -0.8,
      "loudnorm": "-19.18,-4.30,12.20,-29.51,-0.42",
      "filesize": 77653058,
      "duration": 94,
      "default": true,
      "lyrics": [
        {
          "filename": "ENG - Super Smash Bros. Melee - GAMECUBE GAME OP - Opening Theme.ass",
          "default": true,
          "version": "Default",
          "subchecksum": "b7d7c0f86d99212460b9f25f42f70950"
        }
      ]
    }
  ],
  "data": {
    "created_at": "2018-12-23T02:45:05.000Z",
    "kid": "c3c88e0e-4a68-4a9b-a426-6dae67b0db70",
    "modified_at": "2021-02-25T10:18:09.318Z",
    "repository": "kara.moe",
    "tags": {
      "authors": [
        "1df04771-a378-4f14-a5e1-1455187d681a"
      ],
      "collections": [
        "c7db86a0-ff64-4044-9be4-66dd1ef1d1c1"
      ],
      "creators": [
        "b40c0c3c-0902-445c-b96e-682e30f7d534"
      ],
      "families": [
        "dbedd6b3-d125-4cd8-aa32-c4175e4ca3a3"
      ],
      "groups": [
        "3c14c864-533c-49e6-a3cc-6969f1233775"
      ],
      "langs": [
        "de5eda1c-5fb3-46a6-9606-d4554fc5a1d6"
      ],
      "platforms": [
        "9c2e70a6-ac40-4701-9f3e-268cc52500c8"
      ],
      "series": [
        "9259c4d6-5da9-4fcc-aa50-9b4201c90614"
      ],
      "singers": [
        "bbe2ddfc-f1c5-4d82-bafc-ba920ec4310e"
      ],
      "songtypes": [
        "f02ad9b3-0bd9-4aad-85b3-9976739ba0e4"
      ],
      "franchises": [
        "99db442a-6182-41d6-a3a7-e42c11bd929d"
      ]
    },
    "title": "Opening Theme",
    "titles": {
      "eng": "Opening Theme"
    },
    "year": 2001
  }
}