{
  "header": {
    "version": 4,
    "description": "Karaoke Mugen Karaoke Data File"
  },
  "medias": [
    {
      "version": "Default",
      "filename": "ENG - Wild Arms 3rd Advanced - GAME PS2 OP - Advanced Wind.mp4",
      "audiogain": -8.16,
      "loudnorm": "-9.82,0.15,4.90,-19.99,-1.53",
      "filesize": 13393496,
      "duration": 102,
      "default": true,
      "lyrics": [
        {
          "filename": "ENG - Wild Arms 3rd Advanced - GAME PS2 OP - Advanced Wind.ass",
          "default": true,
          "version": "Default"
        }
      ]
    }
  ],
  "data": {
    "created_at": "2017-10-11T17:02:43.000Z",
    "ignoreHooks": false,
    "kid": "0b55b669-8d5e-43f9-9ef9-c4851d3da2ff",
    "modified_at": "2022-04-18T12:44:25.662Z",
    "parents": [
      "7192a383-93e3-4c79-9045-41ab0a525971"
    ],
    "repository": "kara.moe",
    "tags": {
      "authors": [
        "5bdaba57-27f8-4568-8806-76a807728766"
      ],
      "collections": [
        "c7db86a0-ff64-4044-9be4-66dd1ef1d1c1"
      ],
      "creators": [
        "f9a97b6b-1ea0-4c63-ac09-070f70c799e4"
      ],
      "families": [
        "dbedd6b3-d125-4cd8-aa32-c4175e4ca3a3"
      ],
      "groups": [
        "3c14c864-533c-49e6-a3cc-6969f1233775"
      ],
      "langs": [
        "de5eda1c-5fb3-46a6-9606-d4554fc5a1d6"
      ],
      "platforms": [
        "2173004e-21da-45c9-9dfb-26014423c566"
      ],
      "series": [
        "1ee6d400-99f8-4cde-a7a2-8d75987c2899"
      ],
      "singers": [
        "d61c2b5f-db08-473f-8188-6f9798f1770f"
      ],
      "songtypes": [
        "f02ad9b3-0bd9-4aad-85b3-9976739ba0e4"
      ],
      "songwriters": [
        "661d2432-17f7-4409-9b0b-5b1664803117"
      ],
      "franchises": [
        "c3260823-5c50-41b3-8eb2-2602bd4ba12f"
      ]
    },
    "titles": {
      "eng": "Advanced Wind"
    },
    "titles_default_language": "eng",
    "title": "Advanced Wind",
    "year": 2002
  }
}