{
  "header": {
    "version": 4,
    "description": "Karaoke Mugen Karaoke Data File"
  },
  "medias": [
    {
      "version": "Default",
      "filename": "ENG - Kidou Senshi Gundam - Senkou no Hathway - MOVIE OP - Mobius ~ Full Vers.mp4",
      "audiogain": -8.7,
      "loudnorm": "-8.65,2.24,11.30,-19.14,-1.66",
      "filesize": 247162431,
      "duration": 227,
      "default": true,
      "lyrics": [
        {
          "filename": "ENG - Kidou Senshi Gundam - Senkou no Hathway - MOVIE OP - Mobius ~ Full Vers.ass",
          "default": true,
          "version": "Default"
        }
      ]
    }
  ],
  "data": {
    "comment": "Serait-il possible de l'ajouter avant la Japan expo (le 15 juillet) svp",
    "created_at": "2022-07-03T20:33:20.001Z",
    "kid": "ec2dd8c6-ffd8-485a-828a-efd3f98de928",
    "modified_at": "2022-07-20T11:38:46.446Z",
    "repository": "kara.moe",
    "tags": {
      "authors": [
        "2a9febcc-f195-4ca2-9912-4f6484e05a00"
      ],
      "creators": [
        "ef8f80e1-d244-4aea-b7f0-984d6dd4b82b"
      ],
      "genres": [
        "f60ba57d-5ef4-49e0-b93b-d0dcbcff6592"
      ],
      "groups": [
        "8e209ae4-4381-438f-89dc-1b21752027d2"
      ],
      "langs": [
        "de5eda1c-5fb3-46a6-9606-d4554fc5a1d6"
      ],
      "misc": [
        "fe819ff1-9db8-4a0f-85dc-0e322c9126c4"
      ],
      "origins": [
        "938de218-5343-4865-94d3-fb33f2eaa152",
        "c8ca9dea-d8b4-48fe-8427-d911653232e9"
      ],
      "series": [
        "75443005-f3fc-4273-a658-4019678751cb"
      ],
      "singers": [
        "2c182a28-b7bb-4d0b-baae-9efd84862a52",
        "d28e72bc-ce77-4434-9364-583c1c9dd5cc",
        "d4986569-4951-4e55-83ee-d87104a2f799"
      ],
      "songtypes": [
        "f02ad9b3-0bd9-4aad-85b3-9976739ba0e4"
      ],
      "songwriters": [
        "59621685-8dc1-4ce1-93b3-cf6c11dda3aa"
      ],
      "versions": [
        "c2143a7f-6970-450e-8a79-0302db9220a9"
      ],
      "collections": [
        "dbcf2c22-524d-4708-99bb-601703633927"
      ],
      "warnings": [
        "24371984-5e4c-4485-a937-fb0c480ca23b"
      ],
      "franchises": [
        "e6ade589-c2e4-49a1-acdb-ea9b03e57240"
      ]
    },
    "titles": {
      "eng": "Möbius"
    },
    "titles_default_language": "eng",
    "title": "Möbius",
    "year": 2021
  }
}