{
  "header": {
    "version": 4,
    "description": "Karaoke Mugen Karaoke Data File"
  },
  "medias": [
    {
      "version": "Default",
      "filename": "ENG - Avril Lavigne - MV - Sk8er Boi.mp4",
      "audiogain": -4.2,
      "loudnorm": "-13.08,-0.96,4.20,-23.27,-0.79",
      "filesize": 21352438,
      "duration": 220,
      "default": true,
      "lyrics": [
        {
          "filename": "ENG - Avril Lavigne - MV - Sk8er Boi.ass",
          "default": true,
          "version": "Default"
        }
      ]
    }
  ],
  "data": {
    "created_at": "2022-04-17T16:36:01.517Z",
    "ignoreHooks": false,
    "kid": "9091a2ca-efc3-4820-ac5c-4399fbb160fa",
    "modified_at": "2022-04-17T16:36:02.084Z",
    "repository": "kara.moe",
    "tags": {
      "authors": [
        "0c8e4377-ee35-4896-89ed-9d06a1b5acd5"
      ],
      "collections": [
        "efe171c0-e8a1-4d03-98c0-60ecf741ad52"
      ],
      "creators": [
        "e9f734dc-1c41-4087-99a6-badb07a87a3d"
      ],
      "families": [
        "5391f9fe-638c-415f-8dc9-958e3a2c5787"
      ],
      "langs": [
        "de5eda1c-5fb3-46a6-9606-d4554fc5a1d6"
      ],
      "singers": [
        "abfd3a13-c24a-4679-8c8a-15f19f0bc8c4"
      ],
      "songtypes": [
        "7be1b15c-cff8-4b37-a649-5c90f3d569a9"
      ],
      "songwriters": [
        "abfd3a13-c24a-4679-8c8a-15f19f0bc8c4",
        "fd15db95-517b-4d28-a836-a0bbf950d80d",
        "4d7fd39c-a391-4fe5-b305-a781cd78a20b",
        "71548811-ed4c-44d5-93df-1982d9cf70e0"
      ],
      "groups": [
        "3c14c864-533c-49e6-a3cc-6969f1233775"
      ]
    },
    "titles": {
      "eng": "Sk8er Boi"
    },
    "titles_default_language": "eng",
    "titles_aliases": [
      "skater boy"
    ],
    "title": "Sk8er Boi",
    "year": 2002
  }
}