{
  "header": {
    "version": 4,
    "description": "Karaoke Mugen Karaoke Data File"
  },
  "medias": [
    {
      "version": "Default",
      "filename": "ENG - Tengen Toppa Gurren Lagann - AUDIO IN - Rap is a Man's Soul!.mp3",
      "audiogain": -8.97,
      "loudnorm": "-8.62,0.87,3.70,-18.75,-0.32",
      "filesize": 7354534,
      "duration": 167,
      "default": true,
      "lyrics": [
        {
          "filename": "ENG - Tengen Toppa Gurren Lagann - AUDIO IN - Rap is a Man's Soul!.ass",
          "default": true,
          "version": "Default",
          "subchecksum": "9ab364ea87886a5615ba16ff5b00da19"
        }
      ]
    }
  ],
  "data": {
    "created_at": "2019-05-03T18:20:14.000Z",
    "kid": "c32b291b-0875-441f-8edf-4d23e36ab066",
    "modified_at": "2021-02-25T10:18:32.570Z",
    "repository": "kara.moe",
    "tags": {
      "authors": [
        "affbc2db-10d5-4c51-b2f6-61686dfbc1b1"
      ],
      "collections": [
        "c7db86a0-ff64-4044-9be4-66dd1ef1d1c1"
      ],
      "creators": [
        "dd729cab-2a78-4282-a402-b242e927a0a5"
      ],
      "families": [
        "0377db02-3af6-43b8-9b08-c759df3d25c3"
      ],
      "genres": [
        "f60ba57d-5ef4-49e0-b93b-d0dcbcff6592"
      ],
      "groups": [
        "3c14c864-533c-49e6-a3cc-6969f1233775"
      ],
      "langs": [
        "de5eda1c-5fb3-46a6-9606-d4554fc5a1d6"
      ],
      "origins": [
        "938de218-5343-4865-94d3-fb33f2eaa152"
      ],
      "series": [
        "7d35b405-cdc5-4365-8545-6228d52a5494"
      ],
      "singers": [
        "ed6d2d3d-0f06-49b4-a5b0-16285bb4030b"
      ],
      "songtypes": [
        "42a262ae-acba-4ab5-a446-c5789c96c821",
        "5e5250d9-351a-4a82-98eb-55db50ad8962"
      ],
      "songwriters": [
        "ed6d2d3d-0f06-49b4-a5b0-16285bb4030b"
      ],
      "franchises": [
        "7d35b405-cdc5-4365-8545-6228d52a5494"
      ]
    },
    "title": "Rap is a Man's Soul!",
    "titles": {
      "eng": "Rap is a Man's Soul!"
    },
    "year": 2007
  }
}