{
  "header": {
    "version": 4,
    "description": "Karaoke Mugen Karaoke Data File"
  },
  "medias": [
    {
      "version": "Default",
      "filename": "ENG - Carly Rae Jepsen - MV - Call Me Maybe.mp4",
      "audiogain": -2.56,
      "loudnorm": "-15.24,-3.14,9.30,-25.59,-1.60",
      "filesize": 16182330,
      "duration": 199,
      "default": true,
      "lyrics": [
        {
          "filename": "ENG - Carly Rae Jepsen - MV - Call Me Maybe.ass",
          "default": true,
          "version": "Default",
          "subchecksum": "c0dd057d2b729dd01a27a81212f0a89f"
        }
      ]
    }
  ],
  "data": {
    "created_at": "2021-05-21T16:59:59.116Z",
    "kid": "c8144d43-438a-4b43-9a1a-3f856121eaaa",
    "modified_at": "2021-05-21T17:03:32.257Z",
    "repository": "kara.moe",
    "tags": {
      "authors": [
        "08f511b0-8480-4d1c-b927-e1314b526b5e"
      ],
      "collections": [
        "efe171c0-e8a1-4d03-98c0-60ecf741ad52"
      ],
      "creators": [
        "13f34ec8-2cd8-4e34-8000-c0d57b23111a",
        "3db81f55-6f8b-4224-8360-0ce3e9ab745d",
        "5ccd3d6d-03de-448a-9bb8-fadb30db6be1"
      ],
      "families": [
        "5391f9fe-638c-415f-8dc9-958e3a2c5787"
      ],
      "groups": [
        "ae613721-1fbe-480d-ba6b-d6d0702b184d"
      ],
      "langs": [
        "de5eda1c-5fb3-46a6-9606-d4554fc5a1d6"
      ],
      "singers": [
        "60bd7503-7871-4be4-a0a4-86ed3c2f7044"
      ],
      "songtypes": [
        "7be1b15c-cff8-4b37-a649-5c90f3d569a9"
      ],
      "songwriters": [
        "2b438c40-214c-4a58-ba69-290beb553d4f",
        "60bd7503-7871-4be4-a0a4-86ed3c2f7044",
        "e50ad475-c820-4403-a998-4a221f3ea9a2"
      ]
    },
    "title": "Call Me Maybe",
    "titles": {
      "eng": "Call Me Maybe"
    },
    "year": 2011
  }
}