{
  "header": {
    "version": 4,
    "description": "Karaoke Mugen Karaoke Data File"
  },
  "medias": [
    {
      "version": "Default",
      "filename": "ENG - Honkai Impact 3rd - MV - Regression.mp4",
      "audiogain": -1.24,
      "loudnorm": "-17.09,-1.84,8.00,-27.44,-0.25",
      "filesize": 89612519,
      "duration": 246,
      "default": true,
      "lyrics": [
        {
          "filename": "ENG - Honkai Impact 3rd - MV - Regression.ass",
          "default": true,
          "version": "Default"
        }
      ]
    }
  ],
  "data": {
    "created_at": "2022-02-27T18:29:03.350Z",
    "ignoreHooks": false,
    "kid": "f7e3eea0-e1fc-4455-8417-502fb22c95da",
    "modified_at": "2022-02-27T18:32:03.396Z",
    "repository": "kara.moe",
    "tags": {
      "authors": [
        "278c6742-0b75-43dd-b317-2ea112952b4a"
      ],
      "collections": [
        "c7db86a0-ff64-4044-9be4-66dd1ef1d1c1"
      ],
      "creators": [
        "b77315f9-142f-402f-b1b7-c415de808775"
      ],
      "families": [
        "0377db02-3af6-43b8-9b08-c759df3d25c3"
      ],
      "groups": [
        "8c22c899-b3ed-42da-a548-ce00f950798b",
        "8e209ae4-4381-438f-89dc-1b21752027d2"
      ],
      "langs": [
        "de5eda1c-5fb3-46a6-9606-d4554fc5a1d6"
      ],
      "series": [
        "26e4d782-c5be-4842-a544-1dd6ae9519e2"
      ],
      "singers": [
        "15d2ee4f-150c-41e7-937d-a9c44838b440"
      ],
      "songtypes": [
        "7be1b15c-cff8-4b37-a649-5c90f3d569a9"
      ],
      "songwriters": [
        "37933bc1-650d-4c7c-aa13-e98e0312433f"
      ]
    },
    "titles": {
      "eng": "Regression"
    },
    "title": "Regression",
    "year": 2022
  }
}