{
  "header": {
    "version": 4,
    "description": "Karaoke Mugen Karaoke Data File"
  },
  "medias": [
    {
      "version": "Default",
      "filename": "FRE - Touhou - REMIX MV - Le festival de l'eau sacree ~ Cover Off Vocal Vers.mp4",
      "audiogain": 1.03,
      "loudnorm": "-19.11,-6.59,9.20,-29.48,-1.56",
      "filesize": 76995359,
      "duration": 171,
      "default": true,
      "lyrics": [
        {
          "filename": "FRE - Touhou - REMIX MV - Le festival de l'eau sacree ~ Cover Off Vocal Vers.ass",
          "default": true,
          "version": "Default"
        }
      ]
    }
  ],
  "data": {
    "created_at": "2018-08-13T12:07:01.000Z",
    "ignoreHooks": false,
    "kid": "e1cf7b12-a31f-46d8-b375-2c5ae7881da1",
    "modified_at": "2022-10-06T18:13:50.973Z",
    "parents": [
      "66985db1-d15b-415a-8d6d-8b8e6f6ff958"
    ],
    "repository": "kara.moe",
    "tags": {
      "authors": [
        "6b38e6cc-bc88-4cf5-9bfc-a46c03435bab"
      ],
      "collections": [
        "c7db86a0-ff64-4044-9be4-66dd1ef1d1c1"
      ],
      "creators": [
        "7e1e37c1-466f-40a7-bc6c-ba05a54db9e1"
      ],
      "families": [
        "0377db02-3af6-43b8-9b08-c759df3d25c3"
      ],
      "groups": [
        "3c14c864-533c-49e6-a3cc-6969f1233775"
      ],
      "langs": [
        "fd8072b7-4d9b-45d4-8f5b-a931a830edef"
      ],
      "misc": [
        "ec4360fa-3e3c-4f6f-b0e1-fb8b12b6dd18"
      ],
      "series": [
        "1bdaa5a1-dfa6-4365-b746-7a0b194dafd6"
      ],
      "singers": [
        "188c58bf-947c-4240-905d-acda1f07a817"
      ],
      "songtypes": [
        "7be1b15c-cff8-4b37-a649-5c90f3d569a9"
      ],
      "songwriters": [
        "26cb5252-8510-49e0-897c-a611a05fc056",
        "fa68cb2c-d03b-4c99-b281-ab2b0f333b1c",
        "188c58bf-947c-4240-905d-acda1f07a817"
      ],
      "versions": [
        "03e1e1d2-8641-47b7-bbcb-39a3df9ff21c",
        "c0cc87b9-55b9-40f0-878a-fbb9e34c151e"
      ],
      "warnings": [
        "e82ce681-6d7b-4fb6-abe4-daa8aaa9bbf9"
      ],
      "franchises": [
        "1bdaa5a1-dfa6-4365-b746-7a0b194dafd6"
      ]
    },
    "titles": {
      "fre": "Le festival de l'eau sacrée"
    },
    "titles_default_language": "fre",
    "title": "Le festival de l'eau sacrée",
    "year": 2009
  }
}