{
  "header": {
    "version": 4,
    "description": "Karaoke Mugen Karaoke Data File"
  },
  "medias": [
    {
      "version": "Default",
      "filename": "FRE - Nodame Cantabile Paris Hen - ED - Tokyo et Paris.mp4",
      "audiogain": 3.93,
      "loudnorm": "-20.62,-6.99,2.90,-30.68,0.11",
      "filesize": 32656100,
      "duration": 81,
      "default": true,
      "lyrics": [
        {
          "filename": "FRE - Nodame Cantabile Paris Hen - ED - Tokyo et Paris.ass",
          "default": true,
          "version": "Default",
          "subchecksum": "7f3b65a2dcc00646fa3ad02cdee2dea1"
        }
      ]
    }
  ],
  "data": {
    "created_at": "2017-10-11T17:02:04.000Z",
    "kid": "a75ea512-1f05-41f7-9499-62ab5efad4d0",
    "modified_at": "2021-02-25T10:27:33.013Z",
    "repository": "kara.moe",
    "tags": {
      "authors": [
        "5bdaba57-27f8-4568-8806-76a807728766"
      ],
      "collections": [
        "c7db86a0-ff64-4044-9be4-66dd1ef1d1c1"
      ],
      "families": [
        "0377db02-3af6-43b8-9b08-c759df3d25c3"
      ],
      "groups": [
        "33881a14-788e-4e2a-a97d-1e5f51542a26",
        "3c14c864-533c-49e6-a3cc-6969f1233775"
      ],
      "langs": [
        "fd8072b7-4d9b-45d4-8f5b-a931a830edef"
      ],
      "origins": [
        "938de218-5343-4865-94d3-fb33f2eaa152"
      ],
      "series": [
        "5b2d23e1-e74a-4621-81b8-03ba57002bc4"
      ],
      "songtypes": [
        "38c77c56-2b95-4040-b676-0994a8cb0597"
      ],
      "franchises": [
        "0ba1106d-bbc5-483c-a0cc-ceba4ea7b170"
      ]
    },
    "title": "Tokyo et Paris",
    "titles": {
      "eng": "Tokyo et Paris"
    },
    "year": 2008
  }
}