{
  "header": {
    "version": 4,
    "description": "Karaoke Mugen Karaoke Data File"
  },
  "medias": [
    {
      "version": "Default",
      "filename": "FRE - Uchuu Keiji Gavan - AUDIO OP - Le sherif de l'espace ~ Full Vers.mp3",
      "audiogain": -4.86,
      "loudnorm": "-13.20,-2.02,4.10,-23.42,-0.05",
      "filesize": 3861624,
      "duration": 158,
      "default": true,
      "lyrics": [
        {
          "filename": "FRE - Uchuu Keiji Gavan - AUDIO OP - Le sherif de l'espace ~ Full Vers.ass",
          "default": true,
          "version": "Default"
        }
      ]
    }
  ],
  "data": {
    "created_at": "2022-07-10T15:59:57.809Z",
    "ignoreHooks": false,
    "kid": "b072aa12-29cd-4595-8e91-d3ab9314fe34",
    "modified_at": "2022-07-10T16:02:51.801Z",
    "parents": [
      "cdd08234-58b4-4c6a-8902-8f4b39c99653"
    ],
    "repository": "kara.moe",
    "tags": {
      "authors": [
        "8658d979-4028-484e-a308-92a628a81c0b"
      ],
      "collections": [
        "c7db86a0-ff64-4044-9be4-66dd1ef1d1c1"
      ],
      "creators": [
        "e32b14df-502b-45fa-9ca5-37554a63a4d7"
      ],
      "groups": [
        "7792cc27-9ff9-4d47-9287-2338b7db1575",
        "cebcdc5d-31af-4c83-a744-680885904b73",
        "f5e7d2fc-0cbb-4fb9-a84a-b25dfb0e9e77"
      ],
      "langs": [
        "fd8072b7-4d9b-45d4-8f5b-a931a830edef"
      ],
      "origins": [
        "d3fac9ab-630d-402d-a392-3d2450c3e62e"
      ],
      "series": [
        "b35f13f4-d5bc-4340-931c-018a85698731"
      ],
      "singers": [
        "6a1720a7-d034-42b5-8a01-cc9302bf737d"
      ],
      "songtypes": [
        "42a262ae-acba-4ab5-a446-c5789c96c821",
        "f02ad9b3-0bd9-4aad-85b3-9976739ba0e4"
      ],
      "songwriters": [
        "f57f2cc9-0da1-412d-be84-96567c3b4fcc"
      ],
      "versions": [
        "c2143a7f-6970-450e-8a79-0302db9220a9"
      ],
      "franchises": [
        "dc364e7e-7b58-4721-b6cf-a19a1687dfbc"
      ]
    },
    "titles": {
      "eng": "Le shérif de l'espace"
    },
    "titles_default_language": "eng",
    "title": "Le shérif de l'espace",
    "year": 1983
  }
}