{
  "header": {
    "version": 4,
    "description": "Karaoke Mugen Karaoke Data File"
  },
  "medias": [
    {
      "version": "Default",
      "filename": "FRE - Manau - MV - La Tribu de Dana.mp4",
      "audiogain": -4.29,
      "loudnorm": "-12.21,-1.30,3.10,-22.37,-0.85",
      "filesize": 15494967,
      "duration": 227,
      "default": true,
      "lyrics": [
        {
          "filename": "FRE - Manau - MV - La Tribu de Dana.ass",
          "default": true,
          "version": "Default",
          "subchecksum": "3cb19594a6b96a04bc68692c87a137b1"
        }
      ]
    }
  ],
  "data": {
    "created_at": "2020-01-22T19:37:07.387Z",
    "kid": "96360cc1-6409-4c08-a203-2fc63026d37c",
    "modified_at": "2021-02-25T14:52:18.176Z",
    "repository": "kara.moe",
    "tags": {
      "authors": [
        "1631228b-9125-497a-aafc-66f920a44a02",
        "8c22c899-b3ed-42da-a548-ce00f950798b"
      ],
      "collections": [
        "efe171c0-e8a1-4d03-98c0-60ecf741ad52"
      ],
      "creators": [
        "59c10b98-b711-474a-a291-ce3e3c488297"
      ],
      "families": [
        "5391f9fe-638c-415f-8dc9-958e3a2c5787"
      ],
      "groups": [
        "24db50aa-a126-4d34-a48a-e45db79c4245",
        "8c22c899-b3ed-42da-a548-ce00f950798b",
        "f5e7d2fc-0cbb-4fb9-a84a-b25dfb0e9e77"
      ],
      "langs": [
        "fd8072b7-4d9b-45d4-8f5b-a931a830edef"
      ],
      "singers": [
        "59c10b98-b711-474a-a291-ce3e3c488297"
      ],
      "songtypes": [
        "7be1b15c-cff8-4b37-a649-5c90f3d569a9"
      ],
      "songwriters": [
        "0d506743-bf74-46c0-8611-0901e4602331",
        "5f69f296-f2f7-434a-8e7d-ccccf7bc56ff",
        "e7bbbe7e-57f2-4a7a-91e7-1b1d9905d966"
      ]
    },
    "title": "La Tribu de Dana",
    "titles": {
      "eng": "La Tribu de Dana"
    },
    "year": 1998
  }
}