{
  "header": {
    "version": 4,
    "description": "Karaoke Mugen Karaoke Data File"
  },
  "medias": [
    {
      "version": "Default",
      "filename": "FRE - Choudenshi Bioman - MV - Bioman ~ Full Vers.mp4",
      "audiogain": -4.13,
      "loudnorm": "-13.94,-0.07,1.50,-23.96,-0.09",
      "filesize": 103372019,
      "duration": 180,
      "default": true,
      "lyrics": [
        {
          "filename": "FRE - Choudenshi Bioman - MV - Bioman ~ Full Vers.ass",
          "default": true,
          "version": "Default"
        }
      ]
    }
  ],
  "data": {
    "created_at": "2017-10-11T17:02:23.000Z",
    "ignoreHooks": false,
    "kid": "bea9fc42-6623-4266-ad6d-212a62247809",
    "modified_at": "2022-07-02T19:13:55.634Z",
    "parents": [
      "25757127-62a7-4efe-a911-08b1d45a3ffd"
    ],
    "repository": "kara.moe",
    "tags": {
      "authors": [
        "5bdaba57-27f8-4568-8806-76a807728766"
      ],
      "collections": [
        "c7db86a0-ff64-4044-9be4-66dd1ef1d1c1"
      ],
      "creators": [
        "e32b14df-502b-45fa-9ca5-37554a63a4d7"
      ],
      "groups": [
        "7792cc27-9ff9-4d47-9287-2338b7db1575",
        "cebcdc5d-31af-4c83-a744-680885904b73",
        "f5e7d2fc-0cbb-4fb9-a84a-b25dfb0e9e77"
      ],
      "langs": [
        "fd8072b7-4d9b-45d4-8f5b-a931a830edef"
      ],
      "origins": [
        "938de218-5343-4865-94d3-fb33f2eaa152",
        "d3fac9ab-630d-402d-a392-3d2450c3e62e"
      ],
      "series": [
        "f35fbddf-dfb1-482b-91d2-8fe6cf08ffa3"
      ],
      "singers": [
        "c1bd5a61-5710-48ce-bf7a-680dad02a661"
      ],
      "songtypes": [
        "7be1b15c-cff8-4b37-a649-5c90f3d569a9"
      ],
      "versions": [
        "c2143a7f-6970-450e-8a79-0302db9220a9"
      ]
    },
    "titles": {
      "eng": "Bioman"
    },
    "titles_default_language": "eng",
    "title": "Bioman",
    "year": 1984
  }
}