{
  "header": {
    "version": 4,
    "description": "Karaoke Mugen Karaoke Data File"
  },
  "medias": [
    {
      "version": "Default",
      "filename": "FRE - Touhou - REMIX OT - La Fleur en cage.mp4",
      "audiogain": -6.32,
      "loudnorm": "-12.52,0.10,9.40,-22.91,-0.95",
      "filesize": 123175399,
      "duration": 280,
      "default": true,
      "lyrics": [
        {
          "filename": "FRE - Touhou - REMIX OT - La Fleur en cage.ass",
          "default": true,
          "version": "Default",
          "subchecksum": "6307dffa4f52a511738f940fa260039f"
        }
      ]
    }
  ],
  "data": {
    "created_at": "2017-10-11T17:02:27.000Z",
    "kid": "143d2d4b-dd32-4dd1-912c-90a277b84bed",
    "modified_at": "2021-02-25T10:31:09.210Z",
    "repository": "kara.moe",
    "tags": {
      "authors": [
        "c2205bc1-b31a-4bbd-8953-7070204b5cbf"
      ],
      "collections": [
        "c7db86a0-ff64-4044-9be4-66dd1ef1d1c1"
      ],
      "creators": [
        "48af405c-be39-4804-a1d3-f5d522ccbb51"
      ],
      "groups": [
        "8c22c899-b3ed-42da-a548-ce00f950798b",
        "ae613721-1fbe-480d-ba6b-d6d0702b184d"
      ],
      "langs": [
        "fd8072b7-4d9b-45d4-8f5b-a931a830edef"
      ],
      "misc": [
        "ec4360fa-3e3c-4f6f-b0e1-fb8b12b6dd18"
      ],
      "series": [
        "1bdaa5a1-dfa6-4365-b746-7a0b194dafd6"
      ],
      "singers": [
        "4d00756e-2e5d-4326-905b-9444994ad27c"
      ],
      "songtypes": [
        "97769615-a2e5-4f36-8c23-b2ce2ce3c460"
      ],
      "songwriters": [
        "4d00756e-2e5d-4326-905b-9444994ad27c"
      ],
      "franchises": [
        "1bdaa5a1-dfa6-4365-b746-7a0b194dafd6"
      ]
    },
    "title": "La Fleur en cage",
    "titles": {
      "eng": "La Fleur en cage"
    },
    "year": 2011
  }
}