{
  "header": {
    "version": 4,
    "description": "Karaoke Mugen Karaoke Data File"
  },
  "medias": [
    {
      "version": "Default",
      "filename": "FRE - The Hitchhiker's Guide to the Galaxy - MOVIE OP - Salut, et encore merci pour le poisson.mp4",
      "audiogain": -0.45,
      "loudnorm": "-18.31,-1.10,7.40,-28.77,-1.04",
      "filesize": 115494260,
      "duration": 143,
      "default": true,
      "lyrics": [
        {
          "filename": "FRE - The Hitchhiker's Guide to the Galaxy - MOVIE OP - Salut, et encore merci pour le poisson.ass",
          "default": true,
          "version": "Default",
          "subchecksum": "ecdf2658133c44f3f7995e146c9fd2db"
        }
      ]
    }
  ],
  "data": {
    "created_at": "2018-06-18T19:40:28.000Z",
    "kid": "ce3290a6-c9ea-442e-ae6b-adaef867c4db",
    "modified_at": "2021-02-25T10:30:12.707Z",
    "repository": "kara.moe",
    "tags": {
      "authors": [
        "8c22c899-b3ed-42da-a548-ce00f950798b"
      ],
      "collections": [
        "c7db86a0-ff64-4044-9be4-66dd1ef1d1c1"
      ],
      "creators": [
        "058e882c-0e15-4fd3-969a-f2608db313c7",
        "c37d85c4-c0b0-448a-b42c-5747e23de247"
      ],
      "families": [
        "5391f9fe-638c-415f-8dc9-958e3a2c5787"
      ],
      "groups": [
        "3c14c864-533c-49e6-a3cc-6969f1233775",
        "8c22c899-b3ed-42da-a548-ce00f950798b",
        "f5e7d2fc-0cbb-4fb9-a84a-b25dfb0e9e77"
      ],
      "langs": [
        "fd8072b7-4d9b-45d4-8f5b-a931a830edef"
      ],
      "origins": [
        "c8ca9dea-d8b4-48fe-8427-d911653232e9"
      ],
      "series": [
        "48663931-7783-4435-8295-3327d38426c0"
      ],
      "songtypes": [
        "f02ad9b3-0bd9-4aad-85b3-9976739ba0e4"
      ],
      "songwriters": [
        "3f8ba44a-6fc7-4244-8fc3-9de910d4c38f"
      ]
    },
    "title": "Salut, et encore merci pour le poisson",
    "titles": {
      "eng": "Salut, et encore merci pour le poisson"
    },
    "year": 2005
  }
}