{
  "header": {
    "version": 4,
    "description": "Karaoke Mugen Karaoke Data File"
  },
  "medias": [
    {
      "version": "Default",
      "filename": "FRE - X TV - OP - Le Pouvoir d'un Reve.mp4",
      "audiogain": -5.04,
      "loudnorm": "-11.83,-0.88,3.40,-22.11,-0.47",
      "filesize": 12915918,
      "duration": 82,
      "default": true,
      "lyrics": [
        {
          "filename": "FRE - X TV - OP - Le Pouvoir d'un Reve.ass",
          "default": true,
          "version": "Default",
          "subchecksum": "8f70967bf98c26e5b2546e0cf2c59b8f"
        }
      ]
    }
  ],
  "data": {
    "created_at": "2017-10-11T15:03:16.000Z",
    "kid": "c953b594-894c-4846-9639-27786f72220f",
    "modified_at": "2021-02-25T10:31:31.966Z",
    "repository": "kara.moe",
    "tags": {
      "authors": [
        "5bdaba57-27f8-4568-8806-76a807728766"
      ],
      "collections": [
        "c7db86a0-ff64-4044-9be4-66dd1ef1d1c1"
      ],
      "creators": [
        "9c5cf6ba-0bc8-4cfe-a63c-e9be3a14e9fd"
      ],
      "families": [
        "0377db02-3af6-43b8-9b08-c759df3d25c3"
      ],
      "groups": [
        "3c14c864-533c-49e6-a3cc-6969f1233775"
      ],
      "langs": [
        "fd8072b7-4d9b-45d4-8f5b-a931a830edef"
      ],
      "origins": [
        "938de218-5343-4865-94d3-fb33f2eaa152"
      ],
      "series": [
        "3e765ff6-3096-49e0-b371-e0055d8b18ac"
      ],
      "singers": [
        "88ebd6ab-988b-4958-b8ec-c8bcbbdfe267"
      ],
      "songtypes": [
        "f02ad9b3-0bd9-4aad-85b3-9976739ba0e4"
      ],
      "franchises": [
        "3d8644b5-42b9-453a-a4d6-ec65c155eb1f"
      ]
    },
    "title": "Le Pouvoir d'un Rêve",
    "titles": {
      "eng": "Le Pouvoir d'un Rêve"
    },
    "year": 2001
  }
}