{
  "header": {
    "version": 4,
    "description": "Karaoke Mugen Karaoke Data File"
  },
  "medias": [
    {
      "version": "Default",
      "filename": "FRE - Pokemon the Series Sun & Moon Ultra Adventures - OP - Sous la lune d'Alola.mp4",
      "audiogain": 5.33,
      "loudnorm": "-22.90,-8.15,7.00,-33.34,-1.51",
      "filesize": 10590838,
      "duration": 30,
      "default": true,
      "lyrics": [
        {
          "filename": "FRE - Pokemon the Series Sun & Moon Ultra Adventures - OP - Sous la lune d'Alola.ass",
          "default": true,
          "version": "Default",
          "subchecksum": "1862688b0664ec84ae1dba878ba40d91"
        }
      ]
    }
  ],
  "data": {
    "created_at": "2018-12-20T14:53:06.000Z",
    "kid": "56254b91-8c68-40c5-9321-a5e7ea7c2761",
    "modified_at": "2021-02-25T10:28:42.475Z",
    "repository": "kara.moe",
    "tags": {
      "authors": [
        "1df04771-a378-4f14-a5e1-1455187d681a"
      ],
      "collections": [
        "c7db86a0-ff64-4044-9be4-66dd1ef1d1c1"
      ],
      "creators": [
        "03fe574b-c7f5-4520-96dc-47320c39e2cc"
      ],
      "families": [
        "0377db02-3af6-43b8-9b08-c759df3d25c3"
      ],
      "genres": [
        "a0aeef4a-6428-45ff-a6e1-468b595930c2"
      ],
      "groups": [
        "ae613721-1fbe-480d-ba6b-d6d0702b184d",
        "f5e7d2fc-0cbb-4fb9-a84a-b25dfb0e9e77"
      ],
      "langs": [
        "fd8072b7-4d9b-45d4-8f5b-a931a830edef"
      ],
      "origins": [
        "938de218-5343-4865-94d3-fb33f2eaa152"
      ],
      "series": [
        "ffaa2e4d-9b30-4821-b096-02ec37af6a90"
      ],
      "songtypes": [
        "f02ad9b3-0bd9-4aad-85b3-9976739ba0e4"
      ],
      "franchises": [
        "c6923c03-f8c0-4258-a478-8dfa08f3ccd0"
      ]
    },
    "title": "Sous la lune d'Alola",
    "titles": {
      "eng": "Sous la lune d'Alola"
    },
    "year": 2018
  }
}