{
  "header": {
    "version": 4,
    "description": "Karaoke Mugen Karaoke Data File"
  },
  "medias": [
    {
      "version": "Default",
      "filename": "FRE - Jacques Brel - LIVE - Amsterdam ~ Full Vers.mp4",
      "audiogain": -6.74,
      "loudnorm": "-12.56,-0.33,4.90,-22.78,-0.58",
      "filesize": 20472777,
      "duration": 170,
      "default": true,
      "lyrics": [
        {
          "filename": "FRE - Jacques Brel - LIVE - Amsterdam ~ Full Vers.ass",
          "default": true,
          "version": "Default"
        }
      ]
    }
  ],
  "data": {
    "created_at": "2022-03-19T18:08:26.195Z",
    "ignoreHooks": false,
    "kid": "e9033a53-2cae-44ca-85b7-f93f67990dee",
    "modified_at": "2022-12-21T22:36:38.475Z",
    "repository": "kara.moe",
    "tags": {
      "authors": [
        "90414ca0-ab36-4879-8810-b032c6bfdab0"
      ],
      "collections": [
        "efe171c0-e8a1-4d03-98c0-60ecf741ad52"
      ],
      "creators": [
        "f5ac7140-7e00-4537-ae0e-4db66f157b9b"
      ],
      "families": [
        "5391f9fe-638c-415f-8dc9-958e3a2c5787"
      ],
      "groups": [
        "b4240f1f-200d-4d10-b5eb-d3a740eed323"
      ],
      "langs": [
        "fd8072b7-4d9b-45d4-8f5b-a931a830edef"
      ],
      "singers": [
        "c3a9ec24-9cc6-4761-8ad1-3aed4301a91a"
      ],
      "songtypes": [
        "a0167949-580c-4de3-bf13-497e462e02f3"
      ],
      "songwriters": [
        "c3a9ec24-9cc6-4761-8ad1-3aed4301a91a"
      ],
      "versions": [
        "c2143a7f-6970-450e-8a79-0302db9220a9"
      ]
    },
    "titles": {
      "eng": "Amsterdam"
    },
    "titles_default_language": "eng",
    "year": 1966
  }
}