{
  "header": {
    "version": 4,
    "description": "Karaoke Mugen Karaoke Data File"
  },
  "medias": [
    {
      "version": "Default",
      "filename": "FRE - Yves Montand - MV - La Bicyclette.mp4",
      "audiogain": -5.49,
      "loudnorm": "-12.48,0.46,3.90,-22.59,-0.60",
      "filesize": 48459403,
      "duration": 164,
      "default": true,
      "lyrics": [
        {
          "filename": "FRE - Yves Montand - MV - La Bicyclette.ass",
          "default": true,
          "version": "Default"
        }
      ]
    }
  ],
  "data": {
    "created_at": "2022-09-16T21:26:05.194Z",
    "ignoreHooks": false,
    "kid": "7bfca121-8f9e-44b3-b644-5e00cd8ed39a",
    "modified_at": "2022-09-19T16:27:59.583Z",
    "repository": "kara.moe",
    "tags": {
      "authors": [
        "90414ca0-ab36-4879-8810-b032c6bfdab0"
      ],
      "collections": [
        "efe171c0-e8a1-4d03-98c0-60ecf741ad52"
      ],
      "creators": [
        "f5ac7140-7e00-4537-ae0e-4db66f157b9b"
      ],
      "families": [
        "5391f9fe-638c-415f-8dc9-958e3a2c5787"
      ],
      "groups": [
        "b4240f1f-200d-4d10-b5eb-d3a740eed323"
      ],
      "langs": [
        "fd8072b7-4d9b-45d4-8f5b-a931a830edef"
      ],
      "singers": [
        "160ee833-96c9-49ee-b1d9-7e184a3be926"
      ],
      "songtypes": [
        "7be1b15c-cff8-4b37-a649-5c90f3d569a9"
      ],
      "songwriters": [
        "23aab0cd-a7ee-48eb-bfc6-43a41c755f51",
        "47d4ccb7-c04b-43ff-8613-bc64ae7b4438"
      ]
    },
    "titles": {
      "fre": "La Bicyclette"
    },
    "titles_default_language": "fre",
    "title": "La Bicyclette",
    "year": 1968
  }
}