{
  "header": {
    "version": 4,
    "description": "Karaoke Mugen Karaoke Data File"
  },
  "medias": [
    {
      "version": "Default",
      "filename": "FRE - Starmania - MV - Quand on arrive en ville.mp4",
      "audiogain": -2.53,
      "loudnorm": "-15.91,-4.35,4.50,-25.94,-1.20",
      "filesize": 34818811,
      "duration": 215,
      "default": true,
      "lyrics": [
        {
          "filename": "FRE - Starmania - MV - Quand on arrive en ville.ass",
          "default": true,
          "version": "Default"
        }
      ]
    }
  ],
  "data": {
    "created_at": "2022-04-22T15:22:52.194Z",
    "ignoreHooks": false,
    "kid": "a0693c8e-1ec5-4aad-9af8-558e9b9ebc13",
    "modified_at": "2022-04-22T15:39:49.581Z",
    "repository": "kara.moe",
    "tags": {
      "authors": [
        "90414ca0-ab36-4879-8810-b032c6bfdab0"
      ],
      "collections": [
        "efe171c0-e8a1-4d03-98c0-60ecf741ad52"
      ],
      "creators": [
        "45ff46f8-862b-4f84-8479-505cc223d430"
      ],
      "families": [
        "5391f9fe-638c-415f-8dc9-958e3a2c5787"
      ],
      "groups": [
        "57e5e0c0-e02e-4871-a6cb-d48ea604ebab"
      ],
      "langs": [
        "fd8072b7-4d9b-45d4-8f5b-a931a830edef"
      ],
      "series": [
        "2d5f8c09-acea-4dc2-b716-fca857bb551e"
      ],
      "singers": [
        "262ac9c3-0890-4345-b097-067ca1338788",
        "c7f13ac7-c592-4fc0-888d-aeee059bf9f3"
      ],
      "songtypes": [
        "7be1b15c-cff8-4b37-a649-5c90f3d569a9"
      ],
      "songwriters": [
        "2f8a0a89-46c4-4acd-91b1-a2f9765177ab",
        "be1dc8c4-5c1f-4e12-8ee1-de04f2e5819c"
      ]
    },
    "titles": {
      "fre": "Quand on arrive en ville"
    },
    "titles_default_language": "fre",
    "title": "Quand on arrive en ville",
    "year": 1978
  }
}