{
  "header": {
    "version": 4,
    "description": "Karaoke Mugen Karaoke Data File"
  },
  "medias": [
    {
      "version": "Default",
      "filename": "FRE - Oban Star Racer - OP - Envole-toi vers l'infini.mp4",
      "audiogain": 5.81,
      "loudnorm": "-23.48,-10.05,8.90,-34.03,-1.68",
      "filesize": 22685244,
      "duration": 98,
      "default": true,
      "lyrics": [
        {
          "filename": "FRE - Oban Star Racer - OP - Envole-toi vers l'infini.ass",
          "default": true,
          "version": "Default",
          "subchecksum": "175a275b3255c0966bf023477bc26e5b"
        }
      ]
    }
  ],
  "data": {
    "created_at": "2017-10-11T17:02:07.000Z",
    "kid": "83e49009-39b5-49b6-9353-94cb35cb1d13",
    "modified_at": "2021-02-27T02:19:49.505Z",
    "repository": "kara.moe",
    "tags": {
      "authors": [
        "1df04771-a378-4f14-a5e1-1455187d681a"
      ],
      "collections": [
        "c7db86a0-ff64-4044-9be4-66dd1ef1d1c1"
      ],
      "creators": [
        "00177209-7df7-4d4d-bbcb-4c52d50710d8",
        "41c732cf-c384-4750-b46c-9dbd9d7010e9"
      ],
      "families": [
        "0377db02-3af6-43b8-9b08-c759df3d25c3"
      ],
      "groups": [
        "3c14c864-533c-49e6-a3cc-6969f1233775",
        "f5e7d2fc-0cbb-4fb9-a84a-b25dfb0e9e77"
      ],
      "langs": [
        "4dcf9614-7914-42aa-99f4-dbce2e059133",
        "fd8072b7-4d9b-45d4-8f5b-a931a830edef"
      ],
      "origins": [
        "938de218-5343-4865-94d3-fb33f2eaa152"
      ],
      "series": [
        "043bfa10-107d-4eb7-a530-70cc95697e43"
      ],
      "singers": [
        "d64446ba-b6de-465e-8a1d-2dea222eebc9",
        "ed5792f0-278a-410c-a1e3-e93e433a95a2"
      ],
      "songtypes": [
        "f02ad9b3-0bd9-4aad-85b3-9976739ba0e4"
      ],
      "songwriters": [
        "1b64368a-c427-4500-8d15-7acf49bf831b",
        "7bfbd9c2-89fd-4a82-9b42-a8394b6f8921",
        "97fbc0b6-6408-4273-bdb4-0c900e0ac945",
        "af0be06d-ea2d-4f46-85d1-58cf9f42532a"
      ]
    },
    "title": "Envole-toi vers l'infini",
    "titles": {
      "fre": "Envole-toi vers l'infini"
    },
    "year": 2006,
    "titles_default_language": "fre"
  }
}