{
  "header": {
    "version": 4,
    "description": "Karaoke Mugen Karaoke Data File"
  },
  "medias": [
    {
      "version": "Default",
      "filename": "FRE - Claude Francois - MV - Chanson populaire.mp4",
      "audiogain": -2.51,
      "loudnorm": "-15.33,-5.91,3.00,-25.52,-0.51",
      "filesize": 28380963,
      "duration": 210,
      "default": true,
      "lyrics": [
        {
          "filename": "FRE - Claude Francois - MV - Chanson populaire.ass",
          "default": true,
          "version": "Default",
          "subchecksum": "df023ff530dc2bcb17c9c4ee17e5de84"
        }
      ]
    }
  ],
  "data": {
    "created_at": "2020-07-11T16:26:25.068Z",
    "kid": "e5c8f87f-c3f3-4242-923e-f1be20fe7518",
    "modified_at": "2021-02-25T14:51:15.517Z",
    "repository": "kara.moe",
    "tags": {
      "authors": [
        "3637fdbd-0a33-4f53-8000-c825b6044221"
      ],
      "collections": [
        "efe171c0-e8a1-4d03-98c0-60ecf741ad52"
      ],
      "creators": [
        "f5ac7140-7e00-4537-ae0e-4db66f157b9b"
      ],
      "families": [
        "5391f9fe-638c-415f-8dc9-958e3a2c5787"
      ],
      "groups": [
        "57e5e0c0-e02e-4871-a6cb-d48ea604ebab"
      ],
      "langs": [
        "fd8072b7-4d9b-45d4-8f5b-a931a830edef"
      ],
      "singers": [
        "62bf6a01-ea61-4b89-967d-e4db0b719f75"
      ],
      "songtypes": [
        "7be1b15c-cff8-4b37-a649-5c90f3d569a9"
      ],
      "songwriters": [
        "3512dee7-29a2-41d3-a9e8-0ca2ab150f21",
        "ebc1ea94-f924-423b-b354-50ebf6f7d621"
      ]
    },
    "title": "Chanson populaire",
    "titles": {
      "eng": "Chanson populaire"
    },
    "year": 1973
  }
}