{
  "header": {
    "version": 4,
    "description": "Karaoke Mugen Karaoke Data File"
  },
  "medias": [
    {
      "version": "Default",
      "filename": "FRE - Spectreman - OP - Spectreman.mp4",
      "audiogain": -2.09,
      "loudnorm": "-15.79,-6.25,2.40,-25.88,-0.33",
      "filesize": 7762694,
      "duration": 68,
      "default": true,
      "lyrics": [
        {
          "filename": "FRE - Spectreman - OP - Spectreman.ass",
          "default": true,
          "version": "Default",
          "subchecksum": "1bff84482333ed881b8f4f8199866f07"
        }
      ]
    }
  ],
  "data": {
    "created_at": "2017-10-11T17:02:08.000Z",
    "kid": "90ae0852-7fb1-4845-b02d-b6533840811e",
    "modified_at": "2021-03-13T15:18:02.128Z",
    "repository": "kara.moe",
    "tags": {
      "authors": [
        "4607780c-f1ef-47cf-9c1c-b13e8f731699"
      ],
      "collections": [
        "c7db86a0-ff64-4044-9be4-66dd1ef1d1c1"
      ],
      "creators": [
        "d3250c84-51d4-432e-a281-f062f9e731cc"
      ],
      "families": [
        "5391f9fe-638c-415f-8dc9-958e3a2c5787"
      ],
      "groups": [
        "57e5e0c0-e02e-4871-a6cb-d48ea604ebab",
        "f5e7d2fc-0cbb-4fb9-a84a-b25dfb0e9e77"
      ],
      "langs": [
        "fd8072b7-4d9b-45d4-8f5b-a931a830edef"
      ],
      "origins": [
        "938de218-5343-4865-94d3-fb33f2eaa152",
        "d3fac9ab-630d-402d-a392-3d2450c3e62e"
      ],
      "series": [
        "ce1fde84-16f6-4f92-919a-f8daf4065a74"
      ],
      "singers": [
        "b940f73a-ef23-49d9-ad30-d8f67f0b0a73"
      ],
      "songtypes": [
        "f02ad9b3-0bd9-4aad-85b3-9976739ba0e4"
      ]
    },
    "title": "Spectreman",
    "titles": {
      "eng": "Spectreman"
    },
    "year": 1971
  }
}