{
  "header": {
    "version": 4,
    "description": "Karaoke Mugen Karaoke Data File"
  },
  "medias": [
    {
      "version": "Default",
      "filename": "FRE - Pocket Monsters - AUDIO CS - La chanson d'Ondine.mp3",
      "audiogain": -4.14,
      "loudnorm": "-13.82,1.16,5.90,-23.96,-0.93",
      "filesize": 2796567,
      "duration": 153,
      "default": true,
      "lyrics": [
        {
          "filename": "FRE - Pocket Monsters - AUDIO CS - La chanson d'Ondine.ass",
          "default": true,
          "version": "Default",
          "subchecksum": "a2a5031aa76c69bdf6a99defc668efc1"
        }
      ]
    }
  ],
  "data": {
    "created_at": "2020-04-26T20:19:53.376Z",
    "kid": "8f731883-4ff5-4527-a3f5-56f564d24b5b",
    "modified_at": "2021-02-25T10:28:07.484Z",
    "repository": "kara.moe",
    "tags": {
      "authors": [
        "6b38e6cc-bc88-4cf5-9bfc-a46c03435bab"
      ],
      "collections": [
        "c7db86a0-ff64-4044-9be4-66dd1ef1d1c1"
      ],
      "families": [
        "0377db02-3af6-43b8-9b08-c759df3d25c3"
      ],
      "genres": [
        "a0aeef4a-6428-45ff-a6e1-468b595930c2"
      ],
      "groups": [
        "24db50aa-a126-4d34-a48a-e45db79c4245",
        "f5e7d2fc-0cbb-4fb9-a84a-b25dfb0e9e77"
      ],
      "langs": [
        "fd8072b7-4d9b-45d4-8f5b-a931a830edef"
      ],
      "origins": [
        "938de218-5343-4865-94d3-fb33f2eaa152"
      ],
      "series": [
        "cc1f8e40-71a2-4097-9bcf-7132b4b19ef7"
      ],
      "singers": [
        "d62b0dae-860d-417d-99fa-8f828efc6524"
      ],
      "songtypes": [
        "42a262ae-acba-4ab5-a446-c5789c96c821",
        "a8a2616c-b5a1-4df3-ad6f-89291bc67dee"
      ],
      "songwriters": [
        "925229a6-0899-4285-89aa-150bcca22ada"
      ],
      "franchises": [
        "c6923c03-f8c0-4258-a478-8dfa08f3ccd0"
      ]
    },
    "title": "La chanson d'Ondine",
    "titles": {
      "eng": "La chanson d'Ondine"
    },
    "year": 1999
  }
}