{
  "header": {
    "version": 4,
    "description": "Karaoke Mugen Karaoke Data File"
  },
  "medias": [
    {
      "version": "Default",
      "filename": "FRE - Odin Sphere - PS2 PS4 GAME OP - Odin Sphere Theme.mp4",
      "audiogain": -0.49,
      "loudnorm": "-17.66,-5.91,10.00,-27.85,-1.88",
      "filesize": 28591887,
      "duration": 106,
      "default": true,
      "lyrics": [
        {
          "filename": "FRE - Odin Sphere - PS2 PS4 GAME OP - Odin Sphere Theme.ass",
          "default": true,
          "version": "Default",
          "subchecksum": "8799a123c2cc2a8ab16c1676d9a7965c"
        }
      ]
    }
  ],
  "data": {
    "created_at": "2017-10-11T17:03:16.000Z",
    "kid": "4afa72f1-40f0-4037-9ffd-a7c5a8242216",
    "modified_at": "2021-02-25T10:27:38.363Z",
    "repository": "kara.moe",
    "tags": {
      "authors": [
        "5e93f02a-bcd1-40a9-ba7a-91ada6683aea"
      ],
      "collections": [
        "c7db86a0-ff64-4044-9be4-66dd1ef1d1c1"
      ],
      "creators": [
        "b7121221-8597-469c-bd58-8123a4dee807"
      ],
      "families": [
        "dbedd6b3-d125-4cd8-aa32-c4175e4ca3a3"
      ],
      "groups": [
        "3c14c864-533c-49e6-a3cc-6969f1233775"
      ],
      "langs": [
        "fd8072b7-4d9b-45d4-8f5b-a931a830edef"
      ],
      "platforms": [
        "2173004e-21da-45c9-9dfb-26014423c566",
        "248d92ee-8c02-43bc-86e2-cc6029883564"
      ],
      "series": [
        "55295c6c-d71f-4d98-a362-8b52d11e1c3c"
      ],
      "singers": [
        "80d9b7c9-fec3-4c42-ab9d-c432167ba216"
      ],
      "songtypes": [
        "f02ad9b3-0bd9-4aad-85b3-9976739ba0e4"
      ],
      "songwriters": [
        "48fc9866-80fc-4cbd-a12f-960f79dc0fe5",
        "f3340e50-b08e-48b7-ae47-66301108bb97"
      ]
    },
    "title": "Odin Sphere Theme",
    "titles": {
      "eng": "Odin Sphere Theme"
    },
    "year": 2007
  }
}