{
  "header": {
    "version": 4,
    "description": "Karaoke Mugen Karaoke Data File"
  },
  "medias": [
    {
      "version": "Default",
      "filename": "FRE - Adibou - GAME PC IN - Trois petits chats.mp4",
      "audiogain": -8.23,
      "loudnorm": "-11.09,0.30,3.90,-21.26,-0.50",
      "filesize": 6666465,
      "duration": 120,
      "default": true,
      "lyrics": [
        {
          "filename": "FRE - Adibou - GAME PC IN - Trois petits chats.ass",
          "default": true,
          "version": "Default"
        }
      ]
    }
  ],
  "data": {
    "created_at": "2022-02-14T17:24:08.583Z",
    "ignoreHooks": false,
    "kid": "be3b3703-5074-4958-9503-58765a6aa51e",
    "modified_at": "2022-10-15T15:16:12.198Z",
    "repository": "kara.moe",
    "tags": {
      "authors": [
        "05c1e4ad-32ba-490e-8f3c-5cd491c96d85"
      ],
      "collections": [
        "c7db86a0-ff64-4044-9be4-66dd1ef1d1c1"
      ],
      "creators": [
        "482d6010-488f-431a-aa6b-8df93e67b6e9"
      ],
      "families": [
        "dbedd6b3-d125-4cd8-aa32-c4175e4ca3a3"
      ],
      "groups": [
        "24db50aa-a126-4d34-a48a-e45db79c4245"
      ],
      "langs": [
        "fd8072b7-4d9b-45d4-8f5b-a931a830edef"
      ],
      "platforms": [
        "3c15f758-e1bc-4266-8bb9-3c14112f504a"
      ],
      "series": [
        "44222ff3-6b0d-4f3b-ba24-2de2b3825537"
      ],
      "singers": [
        "cdd40fd3-d087-4ac8-99f4-8e1e8d1d9478"
      ],
      "songtypes": [
        "5e5250d9-351a-4a82-98eb-55db50ad8962"
      ],
      "songwriters": [
        "cbfc312d-0796-4822-8a7f-61d490b7c12e",
        "cdd40fd3-d087-4ac8-99f4-8e1e8d1d9478"
      ]
    },
    "titles": {
      "fre": "Trois petits chats"
    },
    "titles_default_language": "fre",
    "title": "Trois petits chats",
    "year": 1996
  }
}