{
  "header": {
    "version": 4,
    "description": "Karaoke Mugen Karaoke Data File"
  },
  "medias": [
    {
      "version": "Default",
      "filename": "FRE - Christophe Michel - AMV - Je Veux Chanter ~ Off Vocal Vers.mp4",
      "audiogain": -4,
      "loudnorm": "-12.29,1.09,2.20,-22.32,-0.33",
      "filesize": 128403806,
      "duration": 269,
      "default": true,
      "lyrics": [
        {
          "filename": "FRE - Christophe Michel - AMV - Je Veux Chanter ~ Off Vocal Vers.ass",
          "default": true,
          "version": "Default"
        }
      ]
    }
  ],
  "data": {
    "created_at": "2022-02-15T16:35:34.618Z",
    "ignoreHooks": false,
    "kid": "3998f340-0062-48ff-ac9c-b81b1f8dc308",
    "modified_at": "2022-02-15T16:35:34.618Z",
    "parents": [
      "aeeccbb9-43c9-4db9-83bb-e460c6e46858"
    ],
    "repository": "kara.moe",
    "tags": {
      "authors": [
        "fb28c6d3-a81e-40c0-9a4c-e3268c60a64b"
      ],
      "collections": [
        "efe171c0-e8a1-4d03-98c0-60ecf741ad52"
      ],
      "creators": [
        "d1bc83ed-6b54-4e6c-8bd2-224201e064d9",
        "ead9eea7-7ee0-4687-8efd-c803cb2f6a77"
      ],
      "families": [
        "5391f9fe-638c-415f-8dc9-958e3a2c5787"
      ],
      "groups": [
        "ae613721-1fbe-480d-ba6b-d6d0702b184d"
      ],
      "langs": [
        "fd8072b7-4d9b-45d4-8f5b-a931a830edef"
      ],
      "singers": [
        "024183b3-34b5-488d-88fa-90fee55aff65"
      ],
      "songtypes": [
        "a6c79ce5-89ee-4d50-afe8-3abd7317f6c2"
      ],
      "songwriters": [
        "377d64a9-ffe2-4328-9cad-f647d041eff2",
        "83a54314-aa3e-4892-9fe0-a138997dda11",
        "d1bc83ed-6b54-4e6c-8bd2-224201e064d9"
      ],
      "versions": [
        "c0cc87b9-55b9-40f0-878a-fbb9e34c151e"
      ]
    },
    "titles": {
      "eng": "Je Veux Chanter",
      "fre": "Je Veux Chanter"
    },
    "title": "Je Veux Chanter",
    "year": 2016
  }
}