{
  "header": {
    "version": 4,
    "description": "Karaoke Mugen Karaoke Data File"
  },
  "medias": [
    {
      "version": "Default",
      "filename": "FRE - Power Rangers S.P.D. - OP - Power Rangers SPD.mp4",
      "audiogain": 7.84,
      "loudnorm": "-24.49,-12.41,5.10,-34.49,-0.91",
      "filesize": 7061341,
      "duration": 57,
      "default": true,
      "lyrics": [
        {
          "filename": "FRE - Power Rangers S.P.D. - OP - Power Rangers SPD.ass",
          "default": true,
          "version": "Default",
          "subchecksum": "19329ab3b8607b79f64d740d21c1f90e"
        }
      ]
    }
  ],
  "data": {
    "created_at": "2019-08-23T19:59:39.000Z",
    "kid": "fc035e6f-8a85-4068-80e6-6fa8288eb17d",
    "modified_at": "2021-02-25T10:28:46.591Z",
    "repository": "kara.moe",
    "tags": {
      "authors": [
        "42ff8105-afa5-49c2-93b6-7951877c956d"
      ],
      "collections": [
        "c7db86a0-ff64-4044-9be4-66dd1ef1d1c1"
      ],
      "creators": [
        "0ea05dc7-8170-44ea-8f1e-0f4e118b31b6"
      ],
      "families": [
        "5391f9fe-638c-415f-8dc9-958e3a2c5787"
      ],
      "groups": [
        "3c14c864-533c-49e6-a3cc-6969f1233775"
      ],
      "langs": [
        "fd8072b7-4d9b-45d4-8f5b-a931a830edef"
      ],
      "origins": [
        "938de218-5343-4865-94d3-fb33f2eaa152",
        "d3fac9ab-630d-402d-a392-3d2450c3e62e"
      ],
      "series": [
        "f89f4bf9-3a2f-4ae5-9f73-0769eb41fb80"
      ],
      "singers": [
        "085311c1-70e8-4211-af9e-33879f3952a8"
      ],
      "songtypes": [
        "f02ad9b3-0bd9-4aad-85b3-9976739ba0e4"
      ],
      "franchises": [
        "88746139-f56a-4164-8b36-234c603931e0"
      ]
    },
    "title": "Power Rangers : SPD",
    "titles": {
      "eng": "Power Rangers : SPD"
    },
    "year": 2006
  }
}