{
  "header": {
    "version": 4,
    "description": "Karaoke Mugen Karaoke Data File"
  },
  "medias": [
    {
      "version": "Default",
      "filename": "FRE - Shin Kenjushi France Five - ED1 - Cinq couleurs toujours unies.mp4",
      "audiogain": -1.44,
      "loudnorm": "-16.82,-4.66,4.50,-27.03,-0.29",
      "filesize": 31146117,
      "duration": 112,
      "default": true,
      "lyrics": [
        {
          "filename": "FRE - Shin Kenjushi France Five - ED1 - Cinq couleurs toujours unies.ass",
          "default": true,
          "version": "Default",
          "subchecksum": "d6893766ce8b71fe7d444869a33beea2"
        }
      ]
    }
  ],
  "data": {
    "created_at": "2019-05-21T18:11:22.000Z",
    "kid": "8ce0d575-1ce9-4854-be20-35f73b2d4457",
    "modified_at": "2021-02-25T10:29:20.896Z",
    "repository": "kara.moe",
    "songorder": 1,
    "tags": {
      "authors": [
        "5e93f02a-bcd1-40a9-ba7a-91ada6683aea"
      ],
      "collections": [
        "c7db86a0-ff64-4044-9be4-66dd1ef1d1c1"
      ],
      "creators": [
        "2a61bcfb-24f5-4bd4-ae0b-56baf2e1109a",
        "675d8841-9d39-45c8-aa28-d54cc79cef2d",
        "f41c492b-3b85-4735-8848-63b587f0e9e8"
      ],
      "families": [
        "5391f9fe-638c-415f-8dc9-958e3a2c5787"
      ],
      "groups": [
        "24db50aa-a126-4d34-a48a-e45db79c4245"
      ],
      "langs": [
        "fd8072b7-4d9b-45d4-8f5b-a931a830edef"
      ],
      "origins": [
        "938de218-5343-4865-94d3-fb33f2eaa152",
        "d3fac9ab-630d-402d-a392-3d2450c3e62e"
      ],
      "series": [
        "67657ce0-bec7-4104-ab5f-91c8751114b5"
      ],
      "singers": [
        "d4d6c727-c901-4e45-becb-33c67bfe395b"
      ],
      "songtypes": [
        "38c77c56-2b95-4040-b676-0994a8cb0597"
      ],
      "songwriters": [
        "2a61bcfb-24f5-4bd4-ae0b-56baf2e1109a"
      ]
    },
    "title": "Cinq couleurs toujours unies",
    "titles": {
      "eng": "Cinq couleurs toujours unies"
    },
    "year": 1999
  }
}