{
  "header": {
    "version": 4,
    "description": "Karaoke Mugen Karaoke Data File"
  },
  "medias": [
    {
      "version": "Default",
      "filename": "FRE - Mylene Farmer - MV - Sans contrefacon.mp4",
      "audiogain": 6.59,
      "loudnorm": "-23.47,-11.18,1.50,-33.48,-0.17",
      "filesize": 33346997,
      "duration": 330,
      "default": true,
      "lyrics": [
        {
          "filename": "FRE - Mylene Farmer - MV - Sans contrefacon.ass",
          "default": true,
          "version": "Default",
          "subchecksum": "be273c6938a97e6e2f47d0b0a727b807"
        }
      ]
    }
  ],
  "data": {
    "created_at": "2020-07-04T12:31:51.454Z",
    "kid": "f09c1278-a6b2-4f0f-8078-f02a4987e4d0",
    "modified_at": "2021-05-20T17:41:21.599Z",
    "repository": "kara.moe",
    "tags": {
      "authors": [
        "90414ca0-ab36-4879-8810-b032c6bfdab0"
      ],
      "collections": [
        "efe171c0-e8a1-4d03-98c0-60ecf741ad52"
      ],
      "creators": [
        "f963181a-1214-47f8-b6f9-1705cbc33779"
      ],
      "families": [
        "5391f9fe-638c-415f-8dc9-958e3a2c5787"
      ],
      "groups": [
        "7792cc27-9ff9-4d47-9287-2338b7db1575"
      ],
      "langs": [
        "fd8072b7-4d9b-45d4-8f5b-a931a830edef"
      ],
      "misc": [
        "86705d4b-24e4-4756-9687-2b9c98bcf366"
      ],
      "singers": [
        "4ca0a78e-b9e3-4351-8529-05f5bc0236cd"
      ],
      "songtypes": [
        "7be1b15c-cff8-4b37-a649-5c90f3d569a9"
      ],
      "songwriters": [
        "4ca0a78e-b9e3-4351-8529-05f5bc0236cd",
        "5061702c-7eb5-446c-965f-8eb42e58981a"
      ]
    },
    "title": "Sans contrefaçon",
    "titles": {
      "eng": "Sans contrefaçon"
    },
    "year": 1987
  }
}