{
  "header": {
    "version": 4,
    "description": "Karaoke Mugen Karaoke Data File"
  },
  "medias": [
    {
      "version": "Default",
      "filename": "FRE - Touhou - REMIX AUDIO - Persephoneia.mp4",
      "audiogain": -7.34,
      "loudnorm": "-9.53,0.70,1.90,-19.58,-0.10",
      "filesize": 47397090,
      "duration": 223,
      "default": true,
      "lyrics": [
        {
          "filename": "FRE - Touhou - REMIX AUDIO - Persephoneia.ass",
          "default": true,
          "version": "Default",
          "subchecksum": "3aa88ae219ae34a8db48d5b346a26fc6"
        }
      ]
    }
  ],
  "data": {
    "created_at": "2020-04-26T20:03:08.928Z",
    "kid": "c91206d2-a0ed-47d1-9067-dfb2681746ee",
    "modified_at": "2021-04-05T12:54:52.811Z",
    "repository": "kara.moe",
    "tags": {
      "authors": [
        "6b38e6cc-bc88-4cf5-9bfc-a46c03435bab"
      ],
      "collections": [
        "c7db86a0-ff64-4044-9be4-66dd1ef1d1c1"
      ],
      "creators": [
        "4d00756e-2e5d-4326-905b-9444994ad27c"
      ],
      "groups": [
        "ae613721-1fbe-480d-ba6b-d6d0702b184d"
      ],
      "langs": [
        "fd8072b7-4d9b-45d4-8f5b-a931a830edef"
      ],
      "misc": [
        "ec4360fa-3e3c-4f6f-b0e1-fb8b12b6dd18"
      ],
      "series": [
        "1bdaa5a1-dfa6-4365-b746-7a0b194dafd6"
      ],
      "singers": [
        "31a3036f-e2af-4cc9-a45e-bdf9d42ee041"
      ],
      "songtypes": [
        "42a262ae-acba-4ab5-a446-c5789c96c821"
      ],
      "songwriters": [
        "4d00756e-2e5d-4326-905b-9444994ad27c",
        "a9deced9-137b-42b3-8de1-2a28822fa1d0"
      ],
      "franchises": [
        "1bdaa5a1-dfa6-4365-b746-7a0b194dafd6"
      ]
    },
    "title": "Persephoneia",
    "titles": {
      "eng": "Persephoneia"
    },
    "year": 2015
  }
}