{
  "header": {
    "version": 4,
    "description": "Karaoke Mugen Karaoke Data File"
  },
  "medias": [
    {
      "version": "Default",
      "filename": "FRE - Chikyuu Sentai Fiveman - OP - Fiveman.mp4",
      "audiogain": 0.65,
      "loudnorm": "-19.44,-5.11,4.00,-29.55,-0.39",
      "filesize": 13949500,
      "duration": 154,
      "default": true,
      "lyrics": [
        {
          "filename": "FRE - Chikyuu Sentai Fiveman - OP - Fiveman.ass",
          "default": true,
          "version": "Default",
          "subchecksum": "7d9326eaa975fe0671a9a0776fcf2f05"
        }
      ]
    }
  ],
  "data": {
    "created_at": "2018-11-17T12:51:56.000Z",
    "kid": "f0fb98d1-48b0-4bf1-913e-c8069a7e356e",
    "modified_at": "2021-02-25T10:22:01.307Z",
    "repository": "kara.moe",
    "tags": {
      "authors": [
        "5bdaba57-27f8-4568-8806-76a807728766"
      ],
      "collections": [
        "c7db86a0-ff64-4044-9be4-66dd1ef1d1c1"
      ],
      "creators": [
        "e32b14df-502b-45fa-9ca5-37554a63a4d7"
      ],
      "families": [
        "5391f9fe-638c-415f-8dc9-958e3a2c5787"
      ],
      "groups": [
        "24db50aa-a126-4d34-a48a-e45db79c4245"
      ],
      "langs": [
        "fd8072b7-4d9b-45d4-8f5b-a931a830edef"
      ],
      "origins": [
        "938de218-5343-4865-94d3-fb33f2eaa152",
        "d3fac9ab-630d-402d-a392-3d2450c3e62e"
      ],
      "series": [
        "df7b3091-34b8-4537-9fb7-4efcd0c4da1a"
      ],
      "singers": [
        "bf781545-8d23-40b3-ad46-40800e472853"
      ],
      "songtypes": [
        "f02ad9b3-0bd9-4aad-85b3-9976739ba0e4"
      ]
    },
    "title": "Fiveman",
    "titles": {
      "eng": "Fiveman"
    },
    "year": 1991
  }
}