{
  "header": {
    "version": 4,
    "description": "Karaoke Mugen Karaoke Data File"
  },
  "medias": [
    {
      "version": "Default",
      "filename": "FRE - Michael Miro - MV - L'horloge tourne.mp4",
      "audiogain": -0.11,
      "loudnorm": "-16.98,-7.09,3.50,-27.12,-0.90",
      "filesize": 25821394,
      "duration": 206,
      "default": true,
      "lyrics": [
        {
          "filename": "FRE - Michael Miro - MV - L'horloge tourne.ass",
          "default": true,
          "version": "Default"
        }
      ]
    }
  ],
  "data": {
    "created_at": "2022-08-02T15:09:12.877Z",
    "ignoreHooks": false,
    "kid": "3c2f4ffb-2781-48d5-984f-533479a8687c",
    "modified_at": "2022-10-15T19:25:15.515Z",
    "repository": "kara.moe",
    "tags": {
      "authors": [
        "90414ca0-ab36-4879-8810-b032c6bfdab0",
        "966e02e9-ed3c-403e-82ba-a9f40aa01b57"
      ],
      "collections": [
        "efe171c0-e8a1-4d03-98c0-60ecf741ad52"
      ],
      "creators": [
        "438a4f9a-8573-40ed-a436-364aa3505f36"
      ],
      "families": [
        "5391f9fe-638c-415f-8dc9-958e3a2c5787"
      ],
      "groups": [
        "ae613721-1fbe-480d-ba6b-d6d0702b184d"
      ],
      "langs": [
        "fd8072b7-4d9b-45d4-8f5b-a931a830edef"
      ],
      "singers": [
        "1f06567d-0e24-4ddf-b9a7-517154b2e924"
      ],
      "songtypes": [
        "7be1b15c-cff8-4b37-a649-5c90f3d569a9"
      ],
      "songwriters": [
        "1f06567d-0e24-4ddf-b9a7-517154b2e924"
      ]
    },
    "titles": {
      "fre": "L'horloge tourne"
    },
    "titles_default_language": "fre",
    "title": "L'horloge tourne",
    "year": 2010
  }
}