{
  "header": {
    "version": 4,
    "description": "Karaoke Mugen Karaoke Data File"
  },
  "medias": [
    {
      "version": "Default",
      "filename": "FRE - Banga - CM - En Route pour l'Aventure.mp4",
      "audiogain": 0.73,
      "loudnorm": "-18.42,-8.35,4.50,-28.91,-0.29",
      "filesize": 6113583,
      "duration": 44,
      "default": true,
      "lyrics": [
        {
          "filename": "FRE - Banga - CM - En Route pour l'Aventure.ass",
          "default": true,
          "version": "Default"
        }
      ]
    }
  ],
  "data": {
    "created_at": "2018-05-29T16:19:00.000Z",
    "ignoreHooks": false,
    "kid": "03cebdff-55d2-472a-bee9-55288dde65f8",
    "modified_at": "2022-07-03T14:27:07.893Z",
    "parents": [
      "31670ac2-f68c-4b57-9aac-00abaf7413e9"
    ],
    "repository": "kara.moe",
    "tags": {
      "authors": [
        "5e93f02a-bcd1-40a9-ba7a-91ada6683aea"
      ],
      "collections": [
        "c7db86a0-ff64-4044-9be4-66dd1ef1d1c1"
      ],
      "creators": [
        "1c8dd445-1905-4d79-9393-84c34be64e06"
      ],
      "families": [
        "5391f9fe-638c-415f-8dc9-958e3a2c5787"
      ],
      "groups": [
        "7792cc27-9ff9-4d47-9287-2338b7db1575",
        "f5e7d2fc-0cbb-4fb9-a84a-b25dfb0e9e77"
      ],
      "langs": [
        "fd8072b7-4d9b-45d4-8f5b-a931a830edef"
      ],
      "misc": [
        "cef35a27-3bf0-48c9-beb2-d245ba62ea6b"
      ],
      "series": [
        "72162362-b6ff-4e43-8297-8cda8f4a41b6"
      ],
      "singers": [
        "7820c1b0-cfad-42e1-8191-9820dd55becc"
      ],
      "songtypes": [
        "2ddb5358-e674-46fa-a6e1-7f5c5d56f8fa"
      ],
      "songwriters": [
        "78bdec25-f16c-4488-abf5-3b40bcd5b85c"
      ]
    },
    "titles": {
      "fre": "En Route pour l'Aventure"
    },
    "titles_default_language": "fre",
    "title": "En Route pour l'Aventure",
    "year": 1985
  }
}