{
  "header": {
    "version": 4,
    "description": "Karaoke Mugen Karaoke Data File"
  },
  "medias": [
    {
      "version": "Default",
      "filename": "FRE - Nolwenn Leroy - MV - La Jument de Michao.mp4",
      "audiogain": 1.46,
      "loudnorm": "-18.12,-5.22,2.60,-28.29,-0.85",
      "filesize": 13531125,
      "duration": 177,
      "default": true,
      "lyrics": [
        {
          "filename": "FRE - Nolwenn Leroy - MV - La Jument de Michao.ass",
          "default": true,
          "version": "Default"
        }
      ]
    }
  ],
  "data": {
    "created_at": "2022-09-17T12:13:12.041Z",
    "ignoreHooks": false,
    "kid": "4f33bce1-593a-46b8-b02b-e0d840820a29",
    "modified_at": "2022-09-17T12:13:25.895Z",
    "parents": [
      "b7e2a526-6ca6-4a10-ae2a-c09e5f3d6c20"
    ],
    "repository": "kara.moe",
    "tags": {
      "authors": [
        "90414ca0-ab36-4879-8810-b032c6bfdab0"
      ],
      "collections": [
        "efe171c0-e8a1-4d03-98c0-60ecf741ad52"
      ],
      "creators": [
        "438a4f9a-8573-40ed-a436-364aa3505f36"
      ],
      "families": [
        "5391f9fe-638c-415f-8dc9-958e3a2c5787"
      ],
      "groups": [
        "ae613721-1fbe-480d-ba6b-d6d0702b184d"
      ],
      "langs": [
        "fd8072b7-4d9b-45d4-8f5b-a931a830edef"
      ],
      "singers": [
        "3ae79a46-0457-4f04-9f8e-16d48d6a410a"
      ],
      "songtypes": [
        "7be1b15c-cff8-4b37-a649-5c90f3d569a9"
      ],
      "songwriters": [
        "baee5502-eb90-44e6-9133-f402283bec96"
      ]
    },
    "titles": {
      "fre": "La Jument de Michao"
    },
    "titles_default_language": "fre",
    "title": "La Jument de Michao",
    "year": 2010
  }
}