{
  "header": {
    "version": 4,
    "description": "Karaoke Mugen Karaoke Data File"
  },
  "medias": [
    {
      "version": "Default",
      "filename": "FRE - Yume no Crayon Oukoku - OP - N.paka March.mp4",
      "audiogain": 2.16,
      "loudnorm": "-20.05,-9.11,1.60,-30.26,-0.26",
      "filesize": 82176629,
      "duration": 90,
      "default": true,
      "lyrics": [
        {
          "filename": "FRE - Yume no Crayon Oukoku - OP - N.paka March.ass",
          "default": true,
          "version": "Default"
        }
      ]
    }
  ],
  "data": {
    "created_at": "2020-11-12T17:52:41.407Z",
    "ignoreHooks": false,
    "kid": "9d30f37a-639d-4f1e-85dd-80eeca70c9d8",
    "modified_at": "2022-03-05T23:06:23.043Z",
    "parents": [
      "894cdda6-6964-42d3-9803-1172b51da67b"
    ],
    "repository": "kara.moe",
    "tags": {
      "authors": [
        "1df04771-a378-4f14-a5e1-1455187d681a"
      ],
      "collections": [
        "c7db86a0-ff64-4044-9be4-66dd1ef1d1c1"
      ],
      "creators": [
        "f694bf43-b427-4244-9744-9d3f84fd8a31"
      ],
      "families": [
        "0377db02-3af6-43b8-9b08-c759df3d25c3"
      ],
      "groups": [
        "3c14c864-533c-49e6-a3cc-6969f1233775",
        "f5e7d2fc-0cbb-4fb9-a84a-b25dfb0e9e77"
      ],
      "langs": [
        "fd8072b7-4d9b-45d4-8f5b-a931a830edef"
      ],
      "misc": [
        "fe819ff1-9db8-4a0f-85dc-0e322c9126c4"
      ],
      "origins": [
        "938de218-5343-4865-94d3-fb33f2eaa152"
      ],
      "series": [
        "48b0cdd8-50e8-4ab6-aea2-27db2fc5a5b1"
      ],
      "singers": [
        "afd3606e-ad9c-4397-9ef1-52a363269c7b"
      ],
      "songtypes": [
        "f02ad9b3-0bd9-4aad-85b3-9976739ba0e4"
      ],
      "songwriters": [
        "4677d0b9-ae34-4237-ab74-8c4019527044",
        "8becb533-dc8a-4326-9cc3-a52012db8517"
      ]
    },
    "titles": {
      "eng": "N・paka March"
    },
    "title": "N・paka March",
    "year": 2005
  }
}