{
  "header": {
    "version": 4,
    "description": "Karaoke Mugen Karaoke Data File"
  },
  "medias": [
    {
      "version": "Default",
      "filename": "FRE - Ryuu ga Gotoku 0 - GAME AUDIO - Quel idiot je fais.mp3",
      "audiogain": -0.43,
      "loudnorm": "-19.61,0.00,6.40,-29.69,-0.56",
      "filesize": 9025749,
      "duration": 290,
      "default": true,
      "lyrics": [
        {
          "filename": "FRE - Ryuu ga Gotoku 0 - GAME AUDIO - Quel idiot je fais.ass",
          "default": true,
          "version": "Default"
        }
      ]
    }
  ],
  "data": {
    "created_at": "2021-04-07T10:17:08.362Z",
    "ignoreHooks": false,
    "kid": "dd3403fc-0f96-4134-936a-b505aac8cb9b",
    "modified_at": "2022-03-24T15:47:19.015Z",
    "parents": [
      "6d8fae41-b0b6-4e9a-bc78-8eb5bfbe2ad1"
    ],
    "repository": "kara.moe",
    "tags": {
      "authors": [
        "9cdf3b70-3550-457c-bdb9-038f3253c6ad"
      ],
      "collections": [
        "2fa2fe3f-bb56-45ee-aa38-eae60e76f224",
        "c7db86a0-ff64-4044-9be4-66dd1ef1d1c1"
      ],
      "creators": [
        "fab53939-d926-4eb1-a1cb-02a92ee82255"
      ],
      "families": [
        "dbedd6b3-d125-4cd8-aa32-c4175e4ca3a3"
      ],
      "groups": [
        "8e209ae4-4381-438f-89dc-1b21752027d2"
      ],
      "langs": [
        "4dcf9614-7914-42aa-99f4-dbce2e059133",
        "fd8072b7-4d9b-45d4-8f5b-a931a830edef"
      ],
      "origins": [
        "ac5085db-52d8-44b4-8fbb-1697b24d2046"
      ],
      "series": [
        "36299781-38f0-49f7-b34d-cd9516a0c083"
      ],
      "singers": [
        "fab53939-d926-4eb1-a1cb-02a92ee82255"
      ],
      "songtypes": [
        "42a262ae-acba-4ab5-a446-c5789c96c821"
      ],
      "songwriters": [
        "ef2fa98a-f056-4006-bce5-52f9385c5a70"
      ],
      "franchises": [
        "d39de2d9-b14c-495d-be4a-8fad3b65305f"
      ]
    },
    "titles": {
      "fre": "Quel idiot je fais"
    },
    "titles_default_language": "fre",
    "title": "Quel idiot je fais",
    "year": 2021
  }
}