{
  "header": {
    "version": 4,
    "description": "Karaoke Mugen Karaoke Data File"
  },
  "medias": [
    {
      "version": "Default",
      "filename": "FRE - Aishite Knight - AUDIO - Moi je voudrais te voir.mp3",
      "audiogain": 1.88,
      "loudnorm": "-19.79,-5.01,2.50,-30.05,-0.03",
      "filesize": 6758178,
      "duration": 161,
      "default": true,
      "lyrics": [
        {
          "filename": "FRE - Aishite Knight - AUDIO - Moi je voudrais te voir.ass",
          "default": true,
          "version": "Default"
        }
      ]
    }
  ],
  "data": {
    "created_at": "2022-09-21T20:07:50.307Z",
    "ignoreHooks": false,
    "kid": "f464a963-e185-459b-a7a4-d592f5c20368",
    "modified_at": "2022-09-21T20:44:26.079Z",
    "repository": "kara.moe",
    "tags": {
      "authors": [
        "06852e02-b77e-4106-b6f7-2d03942ad0ea"
      ],
      "collections": [
        "c7db86a0-ff64-4044-9be4-66dd1ef1d1c1"
      ],
      "creators": [
        "f694bf43-b427-4244-9744-9d3f84fd8a31"
      ],
      "families": [
        "0377db02-3af6-43b8-9b08-c759df3d25c3"
      ],
      "genres": [
        "8b6ace6f-a59e-4740-b3ff-e1618720383c"
      ],
      "groups": [
        "7792cc27-9ff9-4d47-9287-2338b7db1575"
      ],
      "langs": [
        "fd8072b7-4d9b-45d4-8f5b-a931a830edef"
      ],
      "origins": [
        "938de218-5343-4865-94d3-fb33f2eaa152"
      ],
      "series": [
        "859e9f92-bf14-476b-b2b1-28964f8f87da"
      ],
      "singers": [
        "c62918de-0d8c-4b1d-a6b7-6b96d1b1f127"
      ],
      "songtypes": [
        "42a262ae-acba-4ab5-a446-c5789c96c821"
      ],
      "songwriters": [
        "a084268b-6cc9-4ce7-ac52-b5ea76e212e1"
      ]
    },
    "titles": {
      "fre": "Moi je voudrais te voir"
    },
    "titles_default_language": "fre",
    "titles_aliases": [
      "Baby I love you"
    ],
    "title": "Moi je voudrais te voir",
    "year": 1983
  }
}