{
  "header": {
    "version": 4,
    "description": "Karaoke Mugen Karaoke Data File"
  },
  "medias": [
    {
      "version": "Default",
      "filename": "FRE - Fatal Bazooka - MV - Fous ta cagoule.mp4",
      "audiogain": -9.89,
      "loudnorm": "-8.50,2.09,3.60,-18.67,-0.32",
      "filesize": 49655478,
      "duration": 238,
      "default": true,
      "lyrics": [
        {
          "filename": "FRE - Fatal Bazooka - MV - Fous ta cagoule.ass",
          "default": true,
          "version": "Default"
        }
      ]
    }
  ],
  "data": {
    "created_at": "2022-01-22T19:49:24.999Z",
    "kid": "0780b90a-b6a3-4350-9cbe-d387a8ce79dd",
    "modified_at": "2022-05-05T14:48:30.130Z",
    "repository": "kara.moe",
    "songorder": null,
    "tags": {
      "authors": [
        "0c8e4377-ee35-4896-89ed-9d06a1b5acd5"
      ],
      "creators": [
        "bd43efab-3cf4-4b4b-8888-dda16ecd0e04"
      ],
      "families": [
        "5391f9fe-638c-415f-8dc9-958e3a2c5787"
      ],
      "groups": [
        "3c14c864-533c-49e6-a3cc-6969f1233775"
      ],
      "langs": [
        "fd8072b7-4d9b-45d4-8f5b-a931a830edef"
      ],
      "singers": [
        "a3d8945b-b0c9-44ee-9f10-65d1538eaf13"
      ],
      "songtypes": [
        "7be1b15c-cff8-4b37-a649-5c90f3d569a9"
      ],
      "songwriters": [
        "b9a69549-2cfe-4225-88b9-be6c6e3d8a55",
        "dcb116e7-c266-4f71-b42f-b36bb39ff057",
        "e6ca100f-8640-48d2-8c51-0d379d1e3b6c"
      ],
      "collections": [
        "efe171c0-e8a1-4d03-98c0-60ecf741ad52"
      ]
    },
    "titles": {
      "eng": "Fous ta cagoule",
      "fre": "Fous ta cagoule"
    },
    "titles_default_language": "eng",
    "title": "Fous ta cagoule",
    "year": 2006
  }
}