{
  "header": {
    "version": 4,
    "description": "Karaoke Mugen Karaoke Data File"
  },
  "medias": [
    {
      "version": "Default",
      "filename": "FRE - Claude Francois - MV - Cette annee-la.mp4",
      "audiogain": 2.84,
      "loudnorm": "-20.09,-9.27,1.50,-30.13,-0.31",
      "filesize": 34163225,
      "duration": 187,
      "default": true,
      "lyrics": [
        {
          "filename": "FRE - Claude Francois - MV - Cette annee-la.ass",
          "default": true,
          "version": "Default",
          "subchecksum": "3d847da8cc58a954cb3c5c131177c3fc"
        }
      ]
    }
  ],
  "data": {
    "created_at": "2020-07-05T19:23:35.675Z",
    "kid": "9e6dcce7-7b62-42c0-9aa8-2dda79ecd960",
    "modified_at": "2021-02-25T14:51:13.740Z",
    "repository": "kara.moe",
    "tags": {
      "authors": [
        "022512f1-ad6c-4ee3-af27-7981cbd99718",
        "3637fdbd-0a33-4f53-8000-c825b6044221"
      ],
      "collections": [
        "efe171c0-e8a1-4d03-98c0-60ecf741ad52"
      ],
      "creators": [
        "f963181a-1214-47f8-b6f9-1705cbc33779"
      ],
      "families": [
        "5391f9fe-638c-415f-8dc9-958e3a2c5787"
      ],
      "groups": [
        "57e5e0c0-e02e-4871-a6cb-d48ea604ebab"
      ],
      "langs": [
        "fd8072b7-4d9b-45d4-8f5b-a931a830edef"
      ],
      "singers": [
        "62bf6a01-ea61-4b89-967d-e4db0b719f75"
      ],
      "songtypes": [
        "7be1b15c-cff8-4b37-a649-5c90f3d569a9"
      ],
      "songwriters": [
        "1f30a722-d9ad-4ff5-9c7a-8053b862b5f0",
        "a67741f1-b6f6-4a72-960f-db45ac30669c"
      ]
    },
    "title": "Cette année-là",
    "titles": {
      "eng": "Cette année-là"
    },
    "year": 1976
  }
}