{
  "header": {
    "version": 4,
    "description": "Karaoke Mugen Karaoke Data File"
  },
  "medias": [
    {
      "version": "Default",
      "filename": "FRE - Superbus - MV - Radio Song.mp4",
      "audiogain": 4.68,
      "loudnorm": "-21.61,-10.88,6.30,-31.79,-1.18",
      "filesize": 9846940,
      "duration": 150,
      "default": true,
      "lyrics": [
        {
          "filename": "FRE - Superbus - MV - Radio Song.ass",
          "default": true,
          "version": "Default",
          "subchecksum": "f066ad15ef6a524a6e1842a24f0ddcad"
        }
      ]
    }
  ],
  "data": {
    "created_at": "2021-05-21T18:34:39.452Z",
    "kid": "48752692-335e-42eb-9274-7c72da5444f8",
    "modified_at": "2021-05-21T19:58:14.453Z",
    "repository": "kara.moe",
    "tags": {
      "authors": [
        "0c8e4377-ee35-4896-89ed-9d06a1b5acd5"
      ],
      "collections": [
        "efe171c0-e8a1-4d03-98c0-60ecf741ad52"
      ],
      "creators": [
        "438a4f9a-8573-40ed-a436-364aa3505f36"
      ],
      "families": [
        "5391f9fe-638c-415f-8dc9-958e3a2c5787"
      ],
      "groups": [
        "3c14c864-533c-49e6-a3cc-6969f1233775"
      ],
      "langs": [
        "fd8072b7-4d9b-45d4-8f5b-a931a830edef"
      ],
      "singers": [
        "4b59d1b2-a90d-4937-9fe0-d9379690211b"
      ],
      "songtypes": [
        "7be1b15c-cff8-4b37-a649-5c90f3d569a9"
      ],
      "songwriters": [
        "900de222-1b66-44fe-84d2-9b09886cd6af"
      ]
    },
    "title": "Radio Song",
    "titles": {
      "eng": "Radio Song"
    },
    "year": 2004
  }
}