{
  "header": {
    "version": 4,
    "description": "Karaoke Mugen Karaoke Data File"
  },
  "medias": [
    {
      "version": "Default",
      "filename": "FRE - Eddy Mitchell - MV - La Derniere Seance.mp4",
      "audiogain": 8.85,
      "loudnorm": "-26.48,-12.00,4.00,-36.65,-0.19",
      "filesize": 107755817,
      "duration": 208,
      "default": true,
      "lyrics": [
        {
          "filename": "FRE - Eddy Mitchell - MV - La Derniere Seance.ass",
          "default": true,
          "version": "Default"
        }
      ]
    }
  ],
  "data": {
    "created_at": "2021-12-04T21:22:21.049Z",
    "kid": "7b606970-358a-4624-b1f9-86de286df84a",
    "modified_at": "2022-04-18T22:11:43.952Z",
    "repository": "kara.moe",
    "songorder": null,
    "tags": {
      "authors": [
        "6ba6f14d-99f6-4bfa-88dd-ccbac78f5efe"
      ],
      "creators": [
        "dee008b3-9388-4984-89a0-08935ecddc0d"
      ],
      "families": [
        "5391f9fe-638c-415f-8dc9-958e3a2c5787"
      ],
      "groups": [
        "57e5e0c0-e02e-4871-a6cb-d48ea604ebab"
      ],
      "langs": [
        "fd8072b7-4d9b-45d4-8f5b-a931a830edef"
      ],
      "singers": [
        "ece96c1d-3256-4167-8032-837e356911b6"
      ],
      "songtypes": [
        "7be1b15c-cff8-4b37-a649-5c90f3d569a9"
      ],
      "songwriters": [
        "de74d299-ca9b-4832-8176-7351a03ec72e",
        "ece96c1d-3256-4167-8032-837e356911b6"
      ],
      "collections": [
        "efe171c0-e8a1-4d03-98c0-60ecf741ad52"
      ]
    },
    "titles": {
      "eng": "La Dernière Séance"
    },
    "titles_default_language": "eng",
    "title": "La Dernière Séance",
    "year": 1977
  }
}