{
  "header": {
    "version": 4,
    "description": "Karaoke Mugen Karaoke Data File"
  },
  "medias": [
    {
      "version": "Default",
      "filename": "FRE - World of Warcraft - GAME PC MV - Premices la chanson de Jaina.mp4",
      "audiogain": -5.67,
      "loudnorm": "-13.20,-1.09,20.50,-25.54,-1.98",
      "filesize": 62389178,
      "duration": 274,
      "default": true,
      "lyrics": [
        {
          "filename": "FRE - World of Warcraft - GAME PC MV - Premices la chanson de Jaina.ass",
          "default": true,
          "version": "Default"
        }
      ]
    }
  ],
  "data": {
    "created_at": "2022-06-06T12:06:50.616Z",
    "ignoreHooks": false,
    "kid": "645140e3-bf04-42e3-97dd-36ed70755c86",
    "modified_at": "2022-10-15T19:30:52.464Z",
    "repository": "kara.moe",
    "tags": {
      "authors": [
        "356ebb44-fc43-4d2c-9a07-fb3b02d9dbd3"
      ],
      "collections": [
        "c7db86a0-ff64-4044-9be4-66dd1ef1d1c1"
      ],
      "creators": [
        "d4b8c4e3-bc15-4368-b5cd-e3e722efad3b"
      ],
      "families": [
        "dbedd6b3-d125-4cd8-aa32-c4175e4ca3a3"
      ],
      "groups": [
        "ae613721-1fbe-480d-ba6b-d6d0702b184d"
      ],
      "langs": [
        "fd8072b7-4d9b-45d4-8f5b-a931a830edef"
      ],
      "misc": [
        "fe819ff1-9db8-4a0f-85dc-0e322c9126c4"
      ],
      "platforms": [
        "3c15f758-e1bc-4266-8bb9-3c14112f504a"
      ],
      "series": [
        "e4d0ebe2-473f-4fd6-946b-2fc29ddd508b"
      ],
      "singers": [
        "5c9cb117-3de9-48e4-b1ae-4b9eb8cfe35c",
        "a224fade-5386-4b39-b0c2-ea1e9b0cea28",
        "ba914ed9-c94c-436e-8065-3ddd9301a731",
        "d3fc73c6-61b9-44e2-bb2a-e835b136c6ad",
        "ee29ec13-3d09-46ae-a609-a098cabbe444"
      ],
      "songtypes": [
        "7be1b15c-cff8-4b37-a649-5c90f3d569a9"
      ],
      "songwriters": [
        "1a9dd667-6acd-4166-8f35-52e82cb1b978",
        "558ee6ac-1256-4843-8813-8265718658bc",
        "1d3f0912-57b7-49e0-983b-6728c6b48372"
      ]
    },
    "titles": {
      "fre": "Prémices : la chanson de Jaina"
    },
    "titles_default_language": "fre",
    "titles_aliases": [
      "Warbringer Jaina FR",
      "Prémices jaina",
      "jaina song",
      "chanson jaina"
    ],
    "title": "Prémices : la chanson de Jaina",
    "year": 2018
  }
}