{
  "header": {
    "version": 4,
    "description": "Karaoke Mugen Karaoke Data File"
  },
  "medias": [
    {
      "version": "Default",
      "filename": "FRE - Moana - MOVIE IN - L'explorateur.mp4",
      "audiogain": 0.23,
      "loudnorm": "-17.73,-0.06,14.40,-28.27,-1.24",
      "filesize": 99664946,
      "duration": 129,
      "default": true,
      "lyrics": [
        {
          "filename": "FRE - Moana - MOVIE IN - L'explorateur.ass",
          "default": true,
          "version": "Default",
          "subchecksum": "2837bf4eb9ff8c7596390500533f4588"
        }
      ]
    }
  ],
  "data": {
    "created_at": "2017-10-11T17:01:43.000Z",
    "kid": "3861947a-d960-4a69-95a9-9bb435bfcf9f",
    "modified_at": "2021-02-25T10:27:09.930Z",
    "repository": "kara.moe",
    "tags": {
      "authors": [
        "f1710fab-7461-468f-a8dd-11eebe4e1fc0"
      ],
      "collections": [
        "c7db86a0-ff64-4044-9be4-66dd1ef1d1c1"
      ],
      "creators": [
        "53ac4d74-c9b8-4fed-bab1-cfa65b2f3142"
      ],
      "groups": [
        "8c22c899-b3ed-42da-a548-ce00f950798b",
        "ae613721-1fbe-480d-ba6b-d6d0702b184d",
        "f5e7d2fc-0cbb-4fb9-a84a-b25dfb0e9e77"
      ],
      "langs": [
        "fd8072b7-4d9b-45d4-8f5b-a931a830edef"
      ],
      "origins": [
        "c8ca9dea-d8b4-48fe-8427-d911653232e9"
      ],
      "series": [
        "4c11d5c6-c8cb-4b88-ba06-ec81e80a950a"
      ],
      "singers": [
        "b2d802e5-1d45-48fd-af48-acec19aef309"
      ],
      "songtypes": [
        "5e5250d9-351a-4a82-98eb-55db50ad8962"
      ],
      "songwriters": [
        "2aa2a899-6640-4a94-8013-a61ae4e10f44",
        "36948b50-18ad-4ed8-a8a5-84e19ea66064"
      ]
    },
    "title": "L'explorateur",
    "titles": {
      "eng": "L'explorateur"
    },
    "year": 2016
  }
}