{
  "header": {
    "version": 4,
    "description": "Karaoke Mugen Karaoke Data File"
  },
  "medias": [
    {
      "version": "Default",
      "filename": "FRE - Pokemon Master Quest - OP - La Quete Ultime.mp4",
      "audiogain": 5.57,
      "loudnorm": "-23.06,-8.94,2.90,-33.09,-0.71",
      "filesize": 9766091,
      "duration": 45,
      "default": true,
      "lyrics": [
        {
          "filename": "FRE - Pokemon Master Quest - OP - La Quete Ultime.ass",
          "default": true,
          "version": "Default",
          "subchecksum": "d21ee2863413f08ce4576daf7f0cb2d2"
        }
      ]
    }
  ],
  "data": {
    "created_at": "2019-05-16T12:45:25.000Z",
    "kid": "d155dd84-5508-46a8-8579-ef9acabc7448",
    "modified_at": "2021-02-25T10:28:32.008Z",
    "repository": "kara.moe",
    "tags": {
      "authors": [
        "1df04771-a378-4f14-a5e1-1455187d681a"
      ],
      "collections": [
        "c7db86a0-ff64-4044-9be4-66dd1ef1d1c1"
      ],
      "creators": [
        "03fe574b-c7f5-4520-96dc-47320c39e2cc"
      ],
      "families": [
        "0377db02-3af6-43b8-9b08-c759df3d25c3"
      ],
      "genres": [
        "a0aeef4a-6428-45ff-a6e1-468b595930c2"
      ],
      "groups": [
        "3c14c864-533c-49e6-a3cc-6969f1233775",
        "f5e7d2fc-0cbb-4fb9-a84a-b25dfb0e9e77"
      ],
      "langs": [
        "fd8072b7-4d9b-45d4-8f5b-a931a830edef"
      ],
      "origins": [
        "938de218-5343-4865-94d3-fb33f2eaa152"
      ],
      "series": [
        "fbe6fe49-eac7-4be0-ac01-7b3919c9d1d3"
      ],
      "singers": [
        "c4e59998-59f2-4d4f-aa7f-177b05889c49"
      ],
      "songtypes": [
        "f02ad9b3-0bd9-4aad-85b3-9976739ba0e4"
      ],
      "songwriters": [
        "6bf7b8ae-6ea3-4ba4-b0d1-5fcacb67e56e",
        "a372bd40-7a4f-47d1-af15-0d97760a45ec",
        "c691f372-ef5c-4327-b91d-038099be0159",
        "ed0baf7c-d259-4c44-af35-0b7a404d3ce5"
      ],
      "franchises": [
        "c6923c03-f8c0-4258-a478-8dfa08f3ccd0"
      ]
    },
    "title": "La Quête Ultime",
    "titles": {
      "eng": "La Quête Ultime"
    },
    "year": 2003
  }
}