{
  "header": {
    "version": 4,
    "description": "Karaoke Mugen Karaoke Data File"
  },
  "medias": [
    {
      "version": "Default",
      "filename": "FRE - Johnny Hallyday - MV - Allumer Le Feu.mp4",
      "audiogain": -4.13,
      "loudnorm": "-13.89,-2.20,5.90,-24.00,-0.82",
      "filesize": 31195344,
      "duration": 260,
      "default": true,
      "lyrics": [
        {
          "filename": "FRE - Johnny Hallyday - MV - Allumer Le Feu.ass",
          "default": true,
          "version": "Default",
          "subchecksum": "a23900fdcebc88c4e981f48a34e0a7ca"
        }
      ]
    }
  ],
  "data": {
    "created_at": "2018-06-18T19:40:28.000Z",
    "kid": "a117db61-fe1a-4079-9188-efc6f221c10c",
    "modified_at": "2021-02-25T14:52:03.767Z",
    "repository": "kara.moe",
    "tags": {
      "authors": [
        "8c22c899-b3ed-42da-a548-ce00f950798b"
      ],
      "collections": [
        "efe171c0-e8a1-4d03-98c0-60ecf741ad52"
      ],
      "creators": [
        "438a4f9a-8573-40ed-a436-364aa3505f36",
        "f5ac7140-7e00-4537-ae0e-4db66f157b9b"
      ],
      "families": [
        "5391f9fe-638c-415f-8dc9-958e3a2c5787"
      ],
      "groups": [
        "24db50aa-a126-4d34-a48a-e45db79c4245",
        "8c22c899-b3ed-42da-a548-ce00f950798b",
        "f5e7d2fc-0cbb-4fb9-a84a-b25dfb0e9e77"
      ],
      "langs": [
        "fd8072b7-4d9b-45d4-8f5b-a931a830edef"
      ],
      "singers": [
        "7916059c-2d8a-4753-a5df-f1ae0ece7b08"
      ],
      "songtypes": [
        "7be1b15c-cff8-4b37-a649-5c90f3d569a9"
      ],
      "songwriters": [
        "21bad7bc-f6da-4d0f-8335-45bdf84f4a35",
        "9cf9bfe9-9af8-4839-877e-2cb58176700e",
        "f41ac6fd-5717-4d14-8dc5-4c6654583020"
      ]
    },
    "title": "Allumer Le Feu",
    "titles": {
      "eng": "Allumer Le Feu"
    },
    "year": 1998
  }
}