{
  "header": {
    "version": 4,
    "description": "Karaoke Mugen Karaoke Data File"
  },
  "medias": [
    {
      "version": "Default",
      "filename": "FRE - Indochine - MV - Station 13.mp4",
      "audiogain": -5.51,
      "loudnorm": "-10.90,0.65,8.20,-21.23,-0.36",
      "filesize": 161280706,
      "duration": 369,
      "default": true,
      "lyrics": [
        {
          "filename": "FRE - Indochine - MV - Station 13.ass",
          "default": true,
          "version": "Default"
        }
      ]
    }
  ],
  "data": {
    "created_at": "2020-06-30T09:58:49.204Z",
    "kid": "8feaba2c-d3c7-4a1e-a78e-64b4cdd0a907",
    "modified_at": "2022-07-20T11:28:55.506Z",
    "repository": "kara.moe",
    "tags": {
      "authors": [
        "fa399f2f-ea1d-4902-8796-ea6d8218aff0"
      ],
      "creators": [
        "5b29bf8d-93e9-4601-9992-0b2b6d87e27d",
        "d8b7a661-c0f1-4044-af8b-44d56f602969"
      ],
      "families": [
        "5391f9fe-638c-415f-8dc9-958e3a2c5787"
      ],
      "groups": [
        "ae613721-1fbe-480d-ba6b-d6d0702b184d"
      ],
      "langs": [
        "fd8072b7-4d9b-45d4-8f5b-a931a830edef"
      ],
      "misc": [
        "86705d4b-24e4-4756-9687-2b9c98bcf366"
      ],
      "singers": [
        "f37601bf-43eb-4504-a148-4946c06cd680"
      ],
      "songtypes": [
        "7be1b15c-cff8-4b37-a649-5c90f3d569a9"
      ],
      "songwriters": [
        "4addcb7b-f975-4db9-a3a1-9cf1f39b87c6"
      ],
      "collections": [
        "efe171c0-e8a1-4d03-98c0-60ecf741ad52"
      ],
      "warnings": [
        "e82ce681-6d7b-4fb6-abe4-daa8aaa9bbf9"
      ]
    },
    "titles": {
      "fre": "Station 13"
    },
    "titles_default_language": "fre",
    "title": "Station 13",
    "year": 2017
  }
}