{
  "header": {
    "version": 4,
    "description": "Karaoke Mugen Karaoke Data File"
  },
  "medias": [
    {
      "version": "Default",
      "filename": "GER - Futari wa PreCure - OP - Nur wir Beide.mp4",
      "audiogain": -0.67,
      "loudnorm": "-17.34,-7.01,1.70,-27.48,-0.19",
      "filesize": 16167820,
      "duration": 75,
      "default": true,
      "lyrics": [
        {
          "filename": "GER - Futari wa PreCure - OP - Nur wir Beide.ass",
          "default": true,
          "version": "Default",
          "subchecksum": "9b22b38c011ea513b5783051ab46e0a8"
        }
      ]
    }
  ],
  "data": {
    "created_at": "2017-10-11T17:01:16.000Z",
    "kid": "e7c2bbd5-d7c4-459c-b74b-30fbee9ba227",
    "modified_at": "2021-02-25T10:31:53.727Z",
    "repository": "kara.moe",
    "tags": {
      "authors": [
        "56ee67d5-8706-4b61-9f4c-9d99e9cf80e8"
      ],
      "collections": [
        "c7db86a0-ff64-4044-9be4-66dd1ef1d1c1"
      ],
      "creators": [
        "f694bf43-b427-4244-9744-9d3f84fd8a31"
      ],
      "families": [
        "0377db02-3af6-43b8-9b08-c759df3d25c3"
      ],
      "genres": [
        "b84e28f9-db1e-447f-b339-7954c3592523"
      ],
      "groups": [
        "3c14c864-533c-49e6-a3cc-6969f1233775"
      ],
      "langs": [
        "b39ffaee-d9cd-44b0-bf35-b019327c3336"
      ],
      "origins": [
        "938de218-5343-4865-94d3-fb33f2eaa152"
      ],
      "series": [
        "d7852ab1-c149-444a-b2a8-e47478a5cdaf"
      ],
      "singers": [
        "1f8dca17-3a0f-40b5-ad27-b06a9559832d"
      ],
      "songtypes": [
        "f02ad9b3-0bd9-4aad-85b3-9976739ba0e4"
      ],
      "songwriters": [
        "285df0bd-134b-4b8a-95b1-7dbc278df8fa",
        "9230ebfc-982a-4ee3-ba7d-f93410433dfb",
        "bcef7e39-c6d0-4ceb-9c9e-79bde3efc1f5"
      ],
      "franchises": [
        "0067bd2a-ad9f-49eb-9e57-4a3ee0c9622a"
      ]
    },
    "title": "Nur wir Beide",
    "titles": {
      "eng": "Nur wir Beide"
    },
    "year": 2005
  }
}