{
  "header": {
    "version": 4,
    "description": "Karaoke Mugen Karaoke Data File"
  },
  "medias": [
    {
      "version": "Default",
      "filename": "GER - Inferno Cop - ONA ED1 - Die Hollen Polizei.mp4",
      "audiogain": -7.15,
      "loudnorm": "-10.69,-1.04,2.00,-20.98,0.23",
      "filesize": 11248328,
      "duration": 33,
      "default": true,
      "lyrics": [
        {
          "filename": "GER - Inferno Cop - ONA ED1 - Die Hollen Polizei.ass",
          "default": true,
          "version": "Default",
          "subchecksum": "695724717f2635636913342bd8f12901"
        }
      ]
    }
  ],
  "data": {
    "created_at": "2017-10-11T17:01:15.000Z",
    "kid": "77907684-cc34-49d9-9cff-d5c83d7a5333",
    "modified_at": "2021-02-25T10:31:57.152Z",
    "repository": "kara.moe",
    "songorder": 1,
    "tags": {
      "authors": [
        "5bdaba57-27f8-4568-8806-76a807728766"
      ],
      "collections": [
        "c7db86a0-ff64-4044-9be4-66dd1ef1d1c1"
      ],
      "creators": [
        "9a515ca0-48ae-4ded-ac8f-3cccc586794a"
      ],
      "families": [
        "0377db02-3af6-43b8-9b08-c759df3d25c3"
      ],
      "groups": [
        "ae613721-1fbe-480d-ba6b-d6d0702b184d"
      ],
      "langs": [
        "b39ffaee-d9cd-44b0-bf35-b019327c3336"
      ],
      "origins": [
        "8db3e098-06ef-45e5-bba9-cb04a21c1e66"
      ],
      "series": [
        "590ac559-572d-4b3b-b878-4f8bcfc9b6ab"
      ],
      "singers": [
        "e71718e6-3d88-444d-9ca9-d08ec338be11"
      ],
      "songtypes": [
        "38c77c56-2b95-4040-b676-0994a8cb0597"
      ],
      "songwriters": [
        "38710cf4-6642-4daf-95a2-49822c2fa91a"
      ]
    },
    "title": "Die Hollen Polizei",
    "titles": {
      "eng": "Die Hollen Polizei"
    },
    "year": 2012
  }
}