{
  "header": {
    "version": 4,
    "description": "Karaoke Mugen Karaoke Data File"
  },
  "medias": [
    {
      "version": "Default",
      "filename": "GER - Die Toten Hosen - MV - Hier kommt Alex.mp4",
      "audiogain": -4.66,
      "loudnorm": "-12.90,-0.36,9.60,-23.27,-1.24",
      "filesize": 22573643,
      "duration": 235,
      "default": true,
      "lyrics": [
        {
          "filename": "GER - Die Toten Hosen - MV - Hier kommt Alex.ass",
          "default": true,
          "version": "Default",
          "subchecksum": "4c62c265d7b98f62431642fa93ea6bc4"
        }
      ]
    }
  ],
  "data": {
    "created_at": "2021-03-19T19:50:59.288Z",
    "kid": "4c8f3021-7c2d-4f55-83a9-051af2f40f15",
    "modified_at": "2021-03-19T20:32:03.000Z",
    "repository": "kara.moe",
    "tags": {
      "authors": [
        "0c8e4377-ee35-4896-89ed-9d06a1b5acd5"
      ],
      "collections": [
        "efe171c0-e8a1-4d03-98c0-60ecf741ad52"
      ],
      "creators": [
        "d266d67c-3f31-4cbc-9805-9288071280b4"
      ],
      "families": [
        "5391f9fe-638c-415f-8dc9-958e3a2c5787"
      ],
      "groups": [
        "7792cc27-9ff9-4d47-9287-2338b7db1575"
      ],
      "langs": [
        "b39ffaee-d9cd-44b0-bf35-b019327c3336"
      ],
      "singers": [
        "bf94493f-d3b9-4719-99d9-98f4c385a876"
      ],
      "songtypes": [
        "7be1b15c-cff8-4b37-a649-5c90f3d569a9"
      ],
      "songwriters": [
        "91132157-6f0f-4e49-8690-914bb1f60a57",
        "c0d26de2-5dea-4317-8963-581252fbd89c"
      ]
    },
    "title": "Hier kommt Alex",
    "titles": {
      "eng": "Hier kommt Alex"
    },
    "year": 1988
  }
}