{
  "header": {
    "version": 4,
    "description": "Karaoke Mugen Karaoke Data File"
  },
  "medias": [
    {
      "version": "Default",
      "filename": "GLE - Metal Gear Solid - PSX GAMECUBE GAME ED - The Best Is Yet To Come.mp4",
      "audiogain": 1.29,
      "loudnorm": "-19.73,-3.11,8.90,-30.10,-1.29",
      "filesize": 36352436,
      "duration": 334,
      "default": true,
      "lyrics": [
        {
          "filename": "GLE - Metal Gear Solid - PSX GAMECUBE GAME ED - The Best Is Yet To Come.ass",
          "default": true,
          "version": "Default",
          "subchecksum": "b8281678d527622e21d1c77544cef197"
        }
      ]
    }
  ],
  "data": {
    "created_at": "2017-10-11T17:03:16.000Z",
    "kid": "fb5f3ee2-e68c-4200-a573-fe7bf79f6dc2",
    "modified_at": "2021-02-25T10:32:26.414Z",
    "repository": "kara.moe",
    "tags": {
      "authors": [
        "5e93f02a-bcd1-40a9-ba7a-91ada6683aea"
      ],
      "collections": [
        "c7db86a0-ff64-4044-9be4-66dd1ef1d1c1"
      ],
      "creators": [
        "22092200-b324-4277-8269-b8b0929f42c1"
      ],
      "families": [
        "dbedd6b3-d125-4cd8-aa32-c4175e4ca3a3"
      ],
      "groups": [
        "24db50aa-a126-4d34-a48a-e45db79c4245"
      ],
      "langs": [
        "080ad6a8-7e69-45c2-9e69-62d5d116c9dd"
      ],
      "misc": [
        "86705d4b-24e4-4756-9687-2b9c98bcf366"
      ],
      "platforms": [
        "9c2e70a6-ac40-4701-9f3e-268cc52500c8",
        "f84b68ac-943a-495a-9c6e-d90ec959b19e"
      ],
      "series": [
        "db305971-d5e2-4caf-928c-0c75d78db190"
      ],
      "singers": [
        "9b2372d0-687a-44ef-81af-a755e66e69f8"
      ],
      "songtypes": [
        "38c77c56-2b95-4040-b676-0994a8cb0597"
      ],
      "songwriters": [
        "67bd01f3-f805-4c14-911f-a2bc646a3563"
      ],
      "franchises": [
        "db305971-d5e2-4caf-928c-0c75d78db190"
      ]
    },
    "title": "The Best Is Yet To Come",
    "titles": {
      "eng": "The Best Is Yet To Come"
    },
    "year": 1998
  }
}