{
  "header": {
    "version": 4,
    "description": "Karaoke Mugen Karaoke Data File"
  },
  "medias": [
    {
      "version": "Default",
      "filename": "JPN - Zero no Tsukaima Princesses No Rondo - ED - Gomen ne.mp4",
      "audiogain": -7.42,
      "loudnorm": "-10.16,0.09,5.00,-20.48,-0.73",
      "filesize": 48056243,
      "duration": 91,
      "default": true,
      "lyrics": [
        {
          "filename": "JPN - Zero no Tsukaima Princesses No Rondo - ED - Gomen ne.ass",
          "default": true,
          "version": "Default",
          "subchecksum": "9af420994fb7ff379b9e2805c2100017"
        }
      ]
    }
  ],
  "data": {
    "created_at": "2019-12-24T00:36:30.392Z",
    "kid": "a478c212-787a-40ea-8106-a43a67a878e3",
    "modified_at": "2021-02-25T13:44:39.389Z",
    "repository": "kara.moe",
    "tags": {
      "authors": [
        "8ba639a3-3640-4ffc-81a5-0b13be29f7d2"
      ],
      "collections": [
        "c7db86a0-ff64-4044-9be4-66dd1ef1d1c1"
      ],
      "creators": [
        "802a8ac8-b16f-40a4-944b-99956798c906"
      ],
      "families": [
        "0377db02-3af6-43b8-9b08-c759df3d25c3"
      ],
      "groups": [
        "3c14c864-533c-49e6-a3cc-6969f1233775"
      ],
      "langs": [
        "4dcf9614-7914-42aa-99f4-dbce2e059133"
      ],
      "misc": [
        "fe819ff1-9db8-4a0f-85dc-0e322c9126c4"
      ],
      "origins": [
        "938de218-5343-4865-94d3-fb33f2eaa152"
      ],
      "series": [
        "01a8b7e2-1260-46f2-946f-89ec82d9be2f"
      ],
      "singers": [
        "4d3d3977-6aa4-47ee-b216-a2955a5f60b9"
      ],
      "songtypes": [
        "38c77c56-2b95-4040-b676-0994a8cb0597"
      ],
      "songwriters": [
        "126d9bae-ad58-4786-8039-c5ff330b104a",
        "12bf3975-e982-4cf7-900b-1784cbbae224",
        "7145091d-e84a-43c2-a305-152647ac1fb0"
      ],
      "franchises": [
        "3a629b10-0be0-47b2-8aba-4a8eea2719ed"
      ]
    },
    "title": "Gomen ne",
    "titles": {
      "qro": "Gomen ne",
      "jpn": "ゴメンネ♥"
    },
    "year": 2008,
    "titles_default_language": "qro"
  }
}