{
  "header": {
    "version": 4,
    "description": "Karaoke Mugen Karaoke Data File"
  },
  "medias": [
    {
      "version": "refrain as Da Capo",
      "filename": "JPN - D.C. III ~Da Capo III~ - GAME OP - endless memory ~ refrain as Da Capo.mp4",
      "audiogain": -10.41,
      "loudnorm": "-7.56,2.10,8.60,-17.80,-1.86",
      "filesize": 38852434,
      "duration": 129,
      "default": true,
      "lyrics": [
        {
          "filename": "JPN - D.C. III ~Da Capo III~ - GAME OP - endless memory ~ refrain as Da Capo.ass",
          "default": true,
          "version": "Default",
          "subchecksum": "1c6bfedafe50c7673d9c934a075749ad"
        }
      ]
    }
  ],
  "data": {
    "created_at": "2017-10-11T17:02:44.000Z",
    "kid": "30dc06a2-53b6-495e-82a7-a9dd5000c8cb",
    "modified_at": "2021-02-25T11:05:38.752Z",
    "repository": "kara.moe",
    "tags": {
      "authors": [
        "8c22c899-b3ed-42da-a548-ce00f950798b"
      ],
      "collections": [
        "c7db86a0-ff64-4044-9be4-66dd1ef1d1c1"
      ],
      "creators": [
        "5563d53b-4386-4c3c-a6e8-dd39869b6246"
      ],
      "families": [
        "dbedd6b3-d125-4cd8-aa32-c4175e4ca3a3"
      ],
      "groups": [
        "8c22c899-b3ed-42da-a548-ce00f950798b",
        "ae613721-1fbe-480d-ba6b-d6d0702b184d"
      ],
      "langs": [
        "4dcf9614-7914-42aa-99f4-dbce2e059133"
      ],
      "origins": [
        "2f96e82c-c61b-4413-817e-e6b247509b95"
      ],
      "series": [
        "d08d5bc6-3013-43f6-815d-77c53d63c22b"
      ],
      "singers": [
        "ffabfc86-2f8d-4ffd-99a8-e24eb877f235"
      ],
      "songtypes": [
        "f02ad9b3-0bd9-4aad-85b3-9976739ba0e4"
      ],
      "songwriters": [
        "71621442-5ffe-4f44-afd0-c2dbdc192d85",
        "7779578c-3d4e-4aa5-8f54-77023879e8e6"
      ],
      "franchises": [
        "16d7c6a0-4074-482f-ab3d-0815556c7daf"
      ]
    },
    "title": "endless memory ~ refrain as Da Capo",
    "titles": {
      "eng": "endless memory ~ refrain as Da Capo"
    },
    "year": 2013,
    "titles_default_language": "eng"
  }
}