{
  "header": {
    "version": 4,
    "description": "Karaoke Mugen Karaoke Data File"
  },
  "medias": [
    {
      "lyrics": [
        {
          "default": true,
          "version": "Default",
          "filename": "JPN - Kamen Rider Revice - OP1 - liveDevil.ass"
        }
      ],
      "default": true,
      "version": "Default",
      "duration": 78,
      "filename": "JPN - Kamen Rider Revice - OP1 - liveDevil.mp4",
      "filesize": 61038809,
      "loudnorm": "-21.99,-7.19,8.50,-32.35,-1.10",
      "audiogain": 3.91
    }
  ],
  "data": {
    "kid": "e3f08d74-e516-4256-b38e-d418fe472674",
    "tags": {
      "authors": [
        "ef611801-6a99-482e-9b99-13ad3d3a0648"
      ],
      "collections": [
        "c7db86a0-ff64-4044-9be4-66dd1ef1d1c1"
      ],
      "creators": [
        "e32b14df-502b-45fa-9ca5-37554a63a4d7"
      ],
      "families": [
        "5391f9fe-638c-415f-8dc9-958e3a2c5787"
      ],
      "groups": [
        "8e209ae4-4381-438f-89dc-1b21752027d2"
      ],
      "langs": [
        "4dcf9614-7914-42aa-99f4-dbce2e059133"
      ],
      "origins": [
        "28650021-2b2a-4a55-aff4-85dd4896c687",
        "938de218-5343-4865-94d3-fb33f2eaa152",
        "d3fac9ab-630d-402d-a392-3d2450c3e62e"
      ],
      "series": [
        "4a03b28b-1908-4bba-9b0c-325e38b812e6"
      ],
      "singers": [
        "23db8344-2b81-4c6e-95fc-c6c78e17607f",
        "787d9b3d-2e20-4dca-b83c-6c9c1b9e2202"
      ],
      "songtypes": [
        "f02ad9b3-0bd9-4aad-85b3-9976739ba0e4"
      ],
      "songwriters": [
        "4c46e698-0f38-4e13-a77c-8eb2a037ad54",
        "6c979eb1-e628-4e8b-88b8-441948ea24d7",
        "912efac1-3302-451b-a50c-807029ad6fe5",
        "f2f0eb4f-3f64-4343-a135-5dd37aab2411"
      ],
      "franchises": [
        "93386847-9ab0-468e-bad0-e1d655e0e0ec"
      ]
    },
    "year": 2021,
    "title": "liveDevil",
    "titles": {
      "eng": "liveDevil"
    },
    "songorder": 1,
    "created_at": "2021-12-23T18:43:55.781Z",
    "repository": "kara.moe",
    "modified_at": "2021-12-23T18:51:09.818Z",
    "titles_default_language": "eng"
  }
}