{
  "header": {
    "version": 4,
    "description": "Karaoke Mugen Karaoke Data File"
  },
  "medias": [
    {
      "version": "Default",
      "filename": "JPN - AKB48 - MV - Aitakatta.mp4",
      "audiogain": -12.04,
      "loudnorm": "-6.19,2.51,8.80,-16.55,-1.32",
      "filesize": 55992575,
      "duration": 277,
      "default": true,
      "lyrics": [
        {
          "filename": "JPN - AKB48 - MV - Aitakatta.ass",
          "default": true,
          "version": "Default"
        }
      ]
    }
  ],
  "data": {
    "created_at": "2019-06-25T20:31:58.000Z",
    "kid": "4141ce47-cc80-4b89-8271-b0038efcbd67",
    "modified_at": "2022-06-04T00:17:09.277Z",
    "repository": "kara.moe",
    "songorder": null,
    "tags": {
      "authors": [
        "269d1464-84f9-44da-9064-1d074bafb602"
      ],
      "creators": [
        "566082ee-060d-4470-ac6f-4a537a50a613"
      ],
      "families": [
        "5391f9fe-638c-415f-8dc9-958e3a2c5787"
      ],
      "groups": [
        "2b4e9972-5e17-481b-99f5-d0787c0ada56",
        "3c14c864-533c-49e6-a3cc-6969f1233775"
      ],
      "langs": [
        "4dcf9614-7914-42aa-99f4-dbce2e059133"
      ],
      "singers": [
        "0efdee07-82c8-47e8-8872-b0c279007c30"
      ],
      "songtypes": [
        "7be1b15c-cff8-4b37-a649-5c90f3d569a9"
      ],
      "songwriters": [
        "19045a57-4bc4-4c83-ad1c-3fa9a3b701b1",
        "dc26c201-943f-46f0-8195-19d80b3761dc"
      ],
      "collections": [
        "dbcf2c22-524d-4708-99bb-601703633927"
      ]
    },
    "titles": {
      "qro": "Aitakatta",
      "jpn": "会いたかった"
    },
    "titles_default_language": "qro",
    "title": "Aitakatta",
    "year": 2006
  }
}