{
  "header": {
    "version": 4,
    "description": "Karaoke Mugen Karaoke Data File"
  },
  "medias": [
    {
      "version": "Default",
      "filename": "JPN - Makai Shin Trillion - PSV GAME OP - Ai no NOISE.mp4",
      "audiogain": -10.32,
      "loudnorm": "-8.08,0.56,4.80,-18.27,-0.44",
      "filesize": 93033396,
      "duration": 120,
      "default": true,
      "lyrics": [
        {
          "filename": "JPN - Makai Shin Trillion - PSV GAME OP - Ai no NOISE.ass",
          "default": true,
          "version": "Default",
          "subchecksum": "02493fdaa616108e65dd59a658999768"
        }
      ]
    }
  ],
  "data": {
    "created_at": "2019-03-11T22:54:43.000Z",
    "kid": "6d5c86b0-1a88-40b0-a099-11176c2ce404",
    "modified_at": "2021-02-25T12:21:04.869Z",
    "repository": "kara.moe",
    "tags": {
      "authors": [
        "ed052207-5a5c-4ccc-af26-08b50ef2e5b3"
      ],
      "collections": [
        "c7db86a0-ff64-4044-9be4-66dd1ef1d1c1"
      ],
      "creators": [
        "2797c42a-c4af-49d2-8aa6-762ef0a41338"
      ],
      "families": [
        "dbedd6b3-d125-4cd8-aa32-c4175e4ca3a3"
      ],
      "groups": [
        "ae613721-1fbe-480d-ba6b-d6d0702b184d"
      ],
      "langs": [
        "4dcf9614-7914-42aa-99f4-dbce2e059133"
      ],
      "platforms": [
        "e791f168-068f-4c05-aa36-e8d63726aa06"
      ],
      "series": [
        "97c5da5b-d236-4718-9fde-e2d2ffa4ac2f"
      ],
      "singers": [
        "f23957de-0a4c-4f4b-ae44-92f9e625d25f"
      ],
      "songtypes": [
        "f02ad9b3-0bd9-4aad-85b3-9976739ba0e4"
      ],
      "songwriters": [
        "b0074a75-4ba6-4e48-81f2-3ea258dc4a18"
      ]
    },
    "title": "Ai no NOISE",
    "titles": {
      "qro": "Ai no NOISE",
      "jpn": "愛のNOISE"
    },
    "year": 2015,
    "titles_default_language": "qro"
  }
}