{
  "header": {
    "version": 4,
    "description": "Karaoke Mugen Karaoke Data File"
  },
  "medias": [
    {
      "version": "Default",
      "filename": "JPN - Dengeki Sentai Changeman - OP - Dengeki Sentai Changeman.mp4",
      "audiogain": 4.85,
      "loudnorm": "-22.93,-12.89,3.10,-32.97,0.47",
      "filesize": 13725612,
      "duration": 79,
      "default": true,
      "lyrics": [
        {
          "filename": "JPN - Dengeki Sentai Changeman - OP - Dengeki Sentai Changeman.ass",
          "default": true,
          "version": "Default",
          "subchecksum": "5d42e0355c4c58149f0da38a826011b4"
        }
      ]
    }
  ],
  "data": {
    "created_at": "2017-10-11T17:03:13.000Z",
    "kid": "38d8a88c-0c27-4631-9f61-799eeb36615c",
    "modified_at": "2021-06-04T15:35:40.129Z",
    "repository": "kara.moe",
    "tags": {
      "authors": [
        "4607780c-f1ef-47cf-9c1c-b13e8f731699"
      ],
      "collections": [
        "c7db86a0-ff64-4044-9be4-66dd1ef1d1c1"
      ],
      "creators": [
        "e32b14df-502b-45fa-9ca5-37554a63a4d7"
      ],
      "families": [
        "5391f9fe-638c-415f-8dc9-958e3a2c5787"
      ],
      "groups": [
        "7792cc27-9ff9-4d47-9287-2338b7db1575"
      ],
      "langs": [
        "4dcf9614-7914-42aa-99f4-dbce2e059133"
      ],
      "origins": [
        "938de218-5343-4865-94d3-fb33f2eaa152",
        "d3fac9ab-630d-402d-a392-3d2450c3e62e"
      ],
      "series": [
        "bdb62477-bc34-4ffa-af9b-13216f0b7085"
      ],
      "singers": [
        "162799fe-de2f-4f72-99a2-8c606aee4f2d"
      ],
      "songtypes": [
        "f02ad9b3-0bd9-4aad-85b3-9976739ba0e4"
      ],
      "songwriters": [
        "b7ee43fb-9d5f-4876-9691-de5faec3e77c",
        "fdc302cb-1a5c-4188-8e7e-4f2c1770288c"
      ]
    },
    "title": "Dengeki Sentai Changeman",
    "titles": {
      "qro": "Dengeki Sentai Changeman",
      "jpn": "電撃戦隊チェンジマン"
    },
    "year": 1985,
    "titles_default_language": "qro"
  }
}