{
  "header": {
    "version": 4,
    "description": "Karaoke Mugen Karaoke Data File"
  },
  "medias": [
    {
      "version": "Default",
      "filename": "JPN - Yu-Gi-Oh! ZeXal - OP5 - Kagami no Dualism.mp4",
      "audiogain": 0.14,
      "loudnorm": "-18.64,-5.99,4.30,-28.82,-1.26",
      "filesize": 103220180,
      "duration": 90,
      "default": true,
      "lyrics": [
        {
          "filename": "JPN - Yu-Gi-Oh! ZeXal - OP5 - Kagami no Dualism.ass",
          "default": true,
          "version": "Default",
          "subchecksum": "6b22202b183ee8c3b760a09e6773088f"
        }
      ]
    }
  ],
  "data": {
    "created_at": "2018-05-31T15:51:17.000Z",
    "kid": "7fe5ead1-8ef8-48b1-825e-7285a0150b3b",
    "modified_at": "2021-02-25T13:42:55.886Z",
    "repository": "kara.moe",
    "songorder": 5,
    "tags": {
      "authors": [
        "05c1e4ad-32ba-490e-8f3c-5cd491c96d85"
      ],
      "collections": [
        "c7db86a0-ff64-4044-9be4-66dd1ef1d1c1"
      ],
      "creators": [
        "3416bd66-667d-4c3f-91f3-6e692001ef25"
      ],
      "families": [
        "0377db02-3af6-43b8-9b08-c759df3d25c3"
      ],
      "groups": [
        "ae613721-1fbe-480d-ba6b-d6d0702b184d"
      ],
      "langs": [
        "4dcf9614-7914-42aa-99f4-dbce2e059133"
      ],
      "origins": [
        "938de218-5343-4865-94d3-fb33f2eaa152"
      ],
      "series": [
        "58ab562a-44e4-4510-b05f-6d5319d4d78d"
      ],
      "singers": [
        "a2f7f6e2-3343-446a-8572-215124e912d9"
      ],
      "songtypes": [
        "f02ad9b3-0bd9-4aad-85b3-9976739ba0e4"
      ],
      "songwriters": [
        "59048889-1e11-42b3-bd82-78802eab40cd",
        "63f4c593-f1a2-4181-9c58-51506ebcab51"
      ],
      "franchises": [
        "e6b60e16-dac4-4bc2-8c7d-b80a4422fc3a"
      ]
    },
    "title": "Kagami no Dualism",
    "titles": {
      "qro": "Kagami no Dual-ism",
      "jpn": "鏡のデュアル・イズム"
    },
    "year": 2013,
    "titles_aliases": [
      "Kagami no Dualism"
    ],
    "titles_default_language": "qro"
  }
}