{
  "header": {
    "version": 4,
    "description": "Karaoke Mugen Karaoke Data File"
  },
  "medias": [
    {
      "version": "Default",
      "filename": "JPN - Higurashi no Naku Koro ni Hou - PS4 SWITCH GAME OP - Complex Image.mp4",
      "audiogain": -6.16,
      "loudnorm": "-10.93,0.03,4.50,-20.95,-0.35",
      "filesize": 35869762,
      "duration": 145,
      "default": true,
      "lyrics": [
        {
          "filename": "JPN - Higurashi no Naku Koro ni Hou - PS4 SWITCH GAME OP - Complex Image.ass",
          "default": true,
          "version": "Default",
          "subchecksum": "bede44c9b841711b2ede9f1ee62e7a87"
        }
      ]
    }
  ],
  "data": {
    "created_at": "2021-03-30T15:47:11.181Z",
    "kid": "7fe66375-db9f-413b-b183-201014ec8008",
    "modified_at": "2021-04-04T18:32:54.282Z",
    "repository": "kara.moe",
    "tags": {
      "authors": [
        "b2bacb3f-542c-44d2-af9b-cd78c1dd4b70"
      ],
      "collections": [
        "c7db86a0-ff64-4044-9be4-66dd1ef1d1c1"
      ],
      "creators": [
        "b2194b36-200d-42c9-a849-6a583d5d6c66",
        "ee8900e9-5aee-4872-9093-0b5ce99c363c"
      ],
      "families": [
        "dbedd6b3-d125-4cd8-aa32-c4175e4ca3a3"
      ],
      "groups": [
        "8c22c899-b3ed-42da-a548-ce00f950798b",
        "ae613721-1fbe-480d-ba6b-d6d0702b184d"
      ],
      "langs": [
        "4dcf9614-7914-42aa-99f4-dbce2e059133"
      ],
      "misc": [
        "fe819ff1-9db8-4a0f-85dc-0e322c9126c4"
      ],
      "origins": [
        "2f96e82c-c61b-4413-817e-e6b247509b95"
      ],
      "platforms": [
        "0a880bfc-d0e5-448b-98d2-4ba7b3106641",
        "248d92ee-8c02-43bc-86e2-cc6029883564"
      ],
      "series": [
        "749d7b51-bf58-44e8-9bdd-7d9cff0345a2"
      ],
      "singers": [
        "527d3a38-559d-4e99-9ed6-2a2fd772f45f"
      ],
      "songtypes": [
        "f02ad9b3-0bd9-4aad-85b3-9976739ba0e4"
      ],
      "songwriters": [
        "305826fe-9529-4981-9584-8984910b798d",
        "66339ced-7df9-40c8-aefd-59b2990df294"
      ],
      "franchises": [
        "8050c613-375d-400c-983a-6578b5c6ca96"
      ]
    },
    "title": "Complex Image",
    "titles": {
      "eng": "Complex Image",
      "jpn": "コンプレックス・イマージュ"
    },
    "year": 2018,
    "titles_default_language": "eng"
  }
}