{
  "header": {
    "version": 4,
    "description": "Karaoke Mugen Karaoke Data File"
  },
  "medias": [
    {
      "version": "Default",
      "filename": "JPN - Hataraku Saibou - ED - CheerS.mp4",
      "audiogain": -4.79,
      "loudnorm": "-14.80,-2.08,5.50,-25.14,-0.71",
      "filesize": 41258515,
      "duration": 91,
      "default": true,
      "lyrics": [
        {
          "filename": "JPN - Hataraku Saibou - ED - CheerS.ass",
          "default": true,
          "version": "Default",
          "subchecksum": "12be1198f065fcd88d8ea8bfc6419533"
        }
      ]
    }
  ],
  "data": {
    "created_at": "2018-08-31T21:02:28.000Z",
    "kid": "3b44030b-2ced-4946-9bc6-5c2118e86e7f",
    "modified_at": "2021-02-25T11:37:49.803Z",
    "repository": "kara.moe",
    "tags": {
      "authors": [
        "b5116310-e69b-4ed4-9e47-c5c53ee69023"
      ],
      "collections": [
        "c7db86a0-ff64-4044-9be4-66dd1ef1d1c1"
      ],
      "creators": [
        "31087ed3-5edd-4d32-8379-ab70bf5db185"
      ],
      "families": [
        "0377db02-3af6-43b8-9b08-c759df3d25c3"
      ],
      "groups": [
        "ae613721-1fbe-480d-ba6b-d6d0702b184d"
      ],
      "langs": [
        "4dcf9614-7914-42aa-99f4-dbce2e059133"
      ],
      "origins": [
        "938de218-5343-4865-94d3-fb33f2eaa152"
      ],
      "series": [
        "b473e8ee-7103-4b8d-b815-17e8216e2e6b"
      ],
      "singers": [
        "ff590105-5f65-4b1f-adf9-2cfb5b789428"
      ],
      "songtypes": [
        "38c77c56-2b95-4040-b676-0994a8cb0597"
      ],
      "songwriters": [
        "2041d1b1-ddd6-4723-aaf9-75aad97e60af",
        "7849f2db-95b5-4605-8055-99e0b8aa501b"
      ],
      "franchises": [
        "b473e8ee-7103-4b8d-b815-17e8216e2e6b"
      ]
    },
    "title": "CheerS",
    "titles": {
      "eng": "CheerS"
    },
    "year": 2018,
    "titles_default_language": "eng"
  }
}