{
  "header": {
    "version": 4,
    "description": "Karaoke Mugen Karaoke Data File"
  },
  "medias": [
    {
      "version": "Default",
      "filename": "JPN - Hikaru Utada - MV - Flavor Of Life -ballad version-.mp4",
      "audiogain": 5.27,
      "loudnorm": "-22.59,-10.24,4.00,-32.75,-0.66",
      "filesize": 18159175,
      "duration": 337,
      "default": true,
      "lyrics": [
        {
          "filename": "JPN - Hikaru Utada - MV - Flavor Of Life -ballad version-.ass",
          "default": true,
          "version": "Default"
        }
      ]
    }
  ],
  "data": {
    "created_at": "2021-11-27T22:01:10.730Z",
    "kid": "fd8c3075-c9ff-4899-b8d8-fa573016f609",
    "modified_at": "2022-06-04T00:20:21.002Z",
    "repository": "kara.moe",
    "songorder": null,
    "tags": {
      "authors": [
        "70e26885-c0b5-4a01-b95b-2f492b8a8f10"
      ],
      "creators": [
        "76505349-8ced-40ad-936d-c5bd3e92b1f7"
      ],
      "families": [
        "5391f9fe-638c-415f-8dc9-958e3a2c5787"
      ],
      "groups": [
        "3c14c864-533c-49e6-a3cc-6969f1233775"
      ],
      "langs": [
        "4dcf9614-7914-42aa-99f4-dbce2e059133"
      ],
      "misc": [
        "86705d4b-24e4-4756-9687-2b9c98bcf366"
      ],
      "singers": [
        "41a9b640-40e6-4019-a55b-9bb0e858e0fc"
      ],
      "songtypes": [
        "7be1b15c-cff8-4b37-a649-5c90f3d569a9"
      ],
      "songwriters": [
        "41a9b640-40e6-4019-a55b-9bb0e858e0fc"
      ],
      "collections": [
        "dbcf2c22-524d-4708-99bb-601703633927"
      ]
    },
    "titles": {
      "eng": "Flavor Of Life -ballad version-"
    },
    "titles_default_language": "eng",
    "title": "Flavor Of Life -ballad version-",
    "year": 2007
  }
}