{
  "header": {
    "version": 4,
    "description": "Karaoke Mugen Karaoke Data File"
  },
  "medias": [
    {
      "version": "Default",
      "filename": "JPN - HACHI, VESPERBELL - MV - Hana ni Ame wo, Kimi ni Uta wo ~ Cover Vers.mp4",
      "audiogain": -0.53,
      "loudnorm": "-17.17,-7.40,4.10,-27.22,-0.84",
      "filesize": 53663513,
      "duration": 259,
      "default": true,
      "lyrics": [
        {
          "filename": "JPN - HACHI, VESPERBELL - MV - Hana ni Ame wo, Kimi ni Uta wo ~ Cover Vers.ass",
          "default": true,
          "version": "Default"
        }
      ]
    }
  ],
  "data": {
    "created_at": "2022-09-07T15:38:20.082Z",
    "ignoreHooks": false,
    "kid": "10d0382a-abb9-45b0-a93c-043de0797629",
    "modified_at": "2022-09-07T17:22:33.578Z",
    "repository": "kara.moe",
    "tags": {
      "authors": [
        "278c6742-0b75-43dd-b317-2ea112952b4a"
      ],
      "collections": [
        "dbcf2c22-524d-4708-99bb-601703633927"
      ],
      "creators": [
        "2bbd15d1-6752-4232-b1d4-732032257fba",
        "c80bd7b5-5a09-4ab1-b229-6ec11eb06bf0"
      ],
      "families": [
        "0377db02-3af6-43b8-9b08-c759df3d25c3"
      ],
      "groups": [
        "8c22c899-b3ed-42da-a548-ce00f950798b",
        "8e209ae4-4381-438f-89dc-1b21752027d2"
      ],
      "langs": [
        "4dcf9614-7914-42aa-99f4-dbce2e059133"
      ],
      "singers": [
        "05b625bb-2313-4b6e-95c8-8ba98ba8a79e",
        "b9bebcd9-18f3-48b5-afa0-6a375d36a0c4"
      ],
      "songtypes": [
        "7be1b15c-cff8-4b37-a649-5c90f3d569a9"
      ],
      "songwriters": [
        "2682f2a6-dc4b-4a48-b3df-87cf02bfbcfb"
      ],
      "versions": [
        "03e1e1d2-8641-47b7-bbcb-39a3df9ff21c"
      ]
    },
    "titles": {
      "eng": "Rain to a flower, a song to you",
      "jpn": "花に雨を、君に歌を",
      "qro": "Hana ni Ame wo, Kimi ni Uta wo"
    },
    "titles_default_language": "qro",
    "title": "Hana ni Ame wo, Kimi ni Uta wo",
    "year": 2022
  }
}