{
  "header": {
    "version": 4,
    "description": "Karaoke Mugen Karaoke Data File"
  },
  "medias": [
    {
      "version": "Miki, Yukiho & Chihaya.",
      "filename": "JPN - The iDOLM@STER Live For You! - XBOX360 GAME IN - Kiramekirari ~ Miki, Yukiho & Chihaya Vers.mp4",
      "audiogain": 4.05,
      "loudnorm": "-23.23,-8.42,6.30,-33.31,-0.90",
      "filesize": 116847403,
      "duration": 131,
      "default": true,
      "lyrics": [
        {
          "filename": "JPN - The iDOLM@STER Live For You! - XBOX360 GAME IN - Kiramekirari ~ Miki, Yukiho & Chihaya Vers.ass",
          "default": true,
          "version": "Default",
          "subchecksum": "516f18038ff1c6baa940c032057fc213"
        }
      ]
    }
  ],
  "data": {
    "created_at": "2017-10-11T17:01:47.000Z",
    "kid": "8754f97d-5aea-4e8c-b8d1-4e5dfd5a3fd0",
    "modified_at": "2021-02-25T13:21:51.126Z",
    "repository": "kara.moe",
    "tags": {
      "authors": [
        "8c22c899-b3ed-42da-a548-ce00f950798b"
      ],
      "collections": [
        "c7db86a0-ff64-4044-9be4-66dd1ef1d1c1"
      ],
      "creators": [
        "c3e622d4-2686-4331-8691-d528c8647088"
      ],
      "families": [
        "dbedd6b3-d125-4cd8-aa32-c4175e4ca3a3"
      ],
      "genres": [
        "caa86df2-0d59-474b-885c-f240a9e891b0"
      ],
      "groups": [
        "3c14c864-533c-49e6-a3cc-6969f1233775",
        "8c22c899-b3ed-42da-a548-ce00f950798b"
      ],
      "langs": [
        "4dcf9614-7914-42aa-99f4-dbce2e059133"
      ],
      "platforms": [
        "d56f8d9d-9ccd-4ac8-a164-da0e62d1c060"
      ],
      "series": [
        "0965b57c-d85a-4fe8-8776-48b23643099b"
      ],
      "singers": [
        "01d27ab4-ba4d-4225-af49-d0ad6d861e61",
        "40a07bc4-5d17-4921-99f0-e1b8e9ece055",
        "cf4351d6-7a21-41cf-ac5e-0601fc673915"
      ],
      "songtypes": [
        "5e5250d9-351a-4a82-98eb-55db50ad8962"
      ],
      "songwriters": [
        "56fed300-010f-4abd-91d7-a384615191bf",
        "d7658a75-7945-4f08-8233-02f38dc385ba"
      ],
      "versions": [
        "9f63c359-d1bf-425a-bcf5-b245c2c9211d"
      ],
      "franchises": [
        "d34ceea8-7d7c-4d85-9213-18d24d2b7666"
      ]
    },
    "title": "Kiramekirari ~ Miki, Yukiho & Chihaya Vers.",
    "titles": {
      "qro": "Kiramekirari ~ Miki, Yukiho & Chihaya Vers.",
      "jpn": "キラメキラリ ~ 美希, 雪歩 & 千早 Vers."
    },
    "year": 2008,
    "titles_default_language": "qro"
  }
}