{
  "header": {
    "version": 4,
    "description": "Karaoke Mugen Karaoke Data File"
  },
  "medias": [
    {
      "version": "Default",
      "filename": "JPN - Digimon Adventure - OP - Butter-Fly.mp4",
      "audiogain": 3.84,
      "loudnorm": "-21.16,-7.06,3.70,-31.25,-0.57",
      "filesize": 23913083,
      "duration": 96,
      "default": true,
      "lyrics": [
        {
          "filename": "JPN - Digimon Adventure - OP - Butter-Fly.ass",
          "default": true,
          "version": "Default"
        }
      ]
    }
  ],
  "data": {
    "created_at": "2017-10-11T17:02:22.000Z",
    "ignoreHooks": false,
    "kid": "e702344c-f032-45ae-9d33-e3d18db59756",
    "modified_at": "2022-10-01T20:13:52.670Z",
    "repository": "kara.moe",
    "tags": {
      "authors": [
        "5bdaba57-27f8-4568-8806-76a807728766"
      ],
      "collections": [
        "c7db86a0-ff64-4044-9be4-66dd1ef1d1c1"
      ],
      "creators": [
        "f694bf43-b427-4244-9744-9d3f84fd8a31"
      ],
      "families": [
        "0377db02-3af6-43b8-9b08-c759df3d25c3"
      ],
      "genres": [
        "4b80eca6-f44f-4262-a8d0-b6879d6b70cb"
      ],
      "groups": [
        "24db50aa-a126-4d34-a48a-e45db79c4245"
      ],
      "langs": [
        "4dcf9614-7914-42aa-99f4-dbce2e059133"
      ],
      "origins": [
        "938de218-5343-4865-94d3-fb33f2eaa152"
      ],
      "series": [
        "2fa3fc52-cad5-4946-a4bb-829c2f71c1ee"
      ],
      "singers": [
        "8cabf7de-7f83-4a4f-83fa-6c1324c0fe51"
      ],
      "songtypes": [
        "f02ad9b3-0bd9-4aad-85b3-9976739ba0e4"
      ],
      "songwriters": [
        "a04ce6fd-9a98-4fb5-aca1-a3b7e97b7522"
      ],
      "franchises": [
        "315185f5-7fec-40da-ad58-8b0badb1c717"
      ]
    },
    "titles": {
      "eng": "Butter-Fly"
    },
    "titles_default_language": "eng",
    "titles_aliases": [
      "Butterfly"
    ],
    "title": "Butter-Fly",
    "year": 1999
  }
}