{
  "header": {
    "version": 4,
    "description": "Karaoke Mugen Karaoke Data File"
  },
  "medias": [
    {
      "version": "Full.",
      "filename": "JPN - Planetes - AUDIO OP - Dive in the Sky ~ Full Vers.mp3",
      "audiogain": -10.36,
      "loudnorm": "-6.00,2.20,5.10,-16.17,-0.98",
      "filesize": 6762754,
      "duration": 265,
      "default": true,
      "lyrics": [
        {
          "filename": "JPN - Planetes - AUDIO OP - Dive in the Sky ~ Full Vers.ass",
          "default": true,
          "version": "Default",
          "subchecksum": "3c9419f753708114ad076347d12d16fe"
        }
      ]
    }
  ],
  "data": {
    "created_at": "2020-07-17T13:49:37.196Z",
    "kid": "c8cc90f4-d149-4870-967e-26c63224aa4a",
    "modified_at": "2021-05-23T22:38:25.377Z",
    "parents": [
      "7717726e-490c-4d41-9a2d-2f05229bcc8f"
    ],
    "repository": "kara.moe",
    "tags": {
      "authors": [
        "60defa7b-774e-4680-8321-51b742c2e009"
      ],
      "collections": [
        "c7db86a0-ff64-4044-9be4-66dd1ef1d1c1"
      ],
      "families": [
        "0377db02-3af6-43b8-9b08-c759df3d25c3"
      ],
      "groups": [
        "3c14c864-533c-49e6-a3cc-6969f1233775",
        "60defa7b-774e-4680-8321-51b742c2e009"
      ],
      "langs": [
        "4dcf9614-7914-42aa-99f4-dbce2e059133"
      ],
      "origins": [
        "938de218-5343-4865-94d3-fb33f2eaa152"
      ],
      "series": [
        "2603ba31-2c03-4f31-ae8d-7f078def888e"
      ],
      "singers": [
        "ae48ad0e-7f43-474d-a388-2c6bb13fab6c"
      ],
      "songtypes": [
        "42a262ae-acba-4ab5-a446-c5789c96c821",
        "f02ad9b3-0bd9-4aad-85b3-9976739ba0e4"
      ],
      "songwriters": [
        "ae48ad0e-7f43-474d-a388-2c6bb13fab6c"
      ],
      "versions": [
        "c2143a7f-6970-450e-8a79-0302db9220a9"
      ]
    },
    "title": "Dive in the Sky",
    "titles": {
      "eng": "Dive in the Sky"
    },
    "year": 2003,
    "titles_default_language": "eng"
  }
}