{
  "header": {
    "version": 4,
    "description": "Karaoke Mugen Karaoke Data File"
  },
  "medias": [
    {
      "version": "Default",
      "filename": "JPN - BanG Dream! - GAME MV - BLACK SHOUT.mp4",
      "audiogain": -8.12,
      "loudnorm": "-9.35,1.79,8.10,-19.41,-1.80",
      "filesize": 47910777,
      "duration": 110,
      "default": true,
      "lyrics": [
        {
          "filename": "JPN - BanG Dream! - GAME MV - BLACK SHOUT.ass",
          "default": true,
          "version": "Default",
          "subchecksum": "ee608198a04b21800d408a0a46a6cddc"
        }
      ]
    }
  ],
  "data": {
    "created_at": "2018-05-02T15:43:25.000Z",
    "kid": "b32f7259-1073-4499-80e5-91d3cbf5077c",
    "modified_at": "2021-02-25T10:50:30.405Z",
    "repository": "kara.moe",
    "tags": {
      "authors": [
        "79e0aa7d-da9a-4e9a-aa2b-64056a83b49b"
      ],
      "collections": [
        "c7db86a0-ff64-4044-9be4-66dd1ef1d1c1"
      ],
      "creators": [
        "bd4564a8-44e5-454a-9c57-bd2a3c8a537e"
      ],
      "families": [
        "dbedd6b3-d125-4cd8-aa32-c4175e4ca3a3"
      ],
      "groups": [
        "ae613721-1fbe-480d-ba6b-d6d0702b184d"
      ],
      "langs": [
        "4dcf9614-7914-42aa-99f4-dbce2e059133"
      ],
      "platforms": [
        "213a1a15-e73a-4a08-b3f6-b6e2745a82e5"
      ],
      "series": [
        "a65e956d-39ab-4995-9ede-889c30a5cbf0"
      ],
      "singers": [
        "371f95d8-5385-4728-8dbb-0cd3e5892ce4",
        "4497072a-f5b1-471b-9427-e4dfd4f7158d",
        "44df6a86-d2e8-471a-b15f-ab3e4fc8b683",
        "7c3886c0-356d-4840-83ad-afa700d96061",
        "b6ca1298-fced-405c-9c84-eab18ebc38ba",
        "bd8e5bbc-7d66-4781-976a-314f6c036a90"
      ],
      "songtypes": [
        "7be1b15c-cff8-4b37-a649-5c90f3d569a9"
      ],
      "songwriters": [
        "60c782e0-d553-46c4-a470-bf13b3c88689",
        "af3ffe51-8059-461c-bbb8-78ea388731f3"
      ],
      "franchises": [
        "a65e956d-39ab-4995-9ede-889c30a5cbf0"
      ]
    },
    "title": "BLACK SHOUT",
    "titles": {
      "eng": "BLACK SHOUT"
    },
    "year": 2017,
    "titles_default_language": "eng"
  }
}