{
  "header": {
    "version": 4,
    "description": "Karaoke Mugen Karaoke Data File"
  },
  "medias": [
    {
      "version": "Default",
      "filename": "JPN - Zero no Tsukaima Futatsuki no Kishi - OP - I Say Yes.mp4",
      "audiogain": -8.52,
      "loudnorm": "-8.85,4.28,3.40,-19.02,-0.66",
      "filesize": 36255216,
      "duration": 91,
      "default": true,
      "lyrics": [
        {
          "filename": "JPN - Zero no Tsukaima Futatsuki no Kishi - OP - I Say Yes.ass",
          "default": true,
          "version": "Default",
          "subchecksum": "5f4a087f58bf72ed279d080f9224bf44"
        }
      ]
    }
  ],
  "data": {
    "created_at": "2017-10-11T17:01:26.000Z",
    "kid": "07d940e6-cca9-419c-b940-dc4511dd7f86",
    "modified_at": "2021-02-25T13:44:36.244Z",
    "repository": "kara.moe",
    "tags": {
      "authors": [
        "5bdaba57-27f8-4568-8806-76a807728766"
      ],
      "collections": [
        "c7db86a0-ff64-4044-9be4-66dd1ef1d1c1"
      ],
      "creators": [
        "802a8ac8-b16f-40a4-944b-99956798c906"
      ],
      "families": [
        "0377db02-3af6-43b8-9b08-c759df3d25c3"
      ],
      "genres": [
        "4b80eca6-f44f-4262-a8d0-b6879d6b70cb"
      ],
      "groups": [
        "3c14c864-533c-49e6-a3cc-6969f1233775"
      ],
      "langs": [
        "4dcf9614-7914-42aa-99f4-dbce2e059133"
      ],
      "origins": [
        "938de218-5343-4865-94d3-fb33f2eaa152"
      ],
      "series": [
        "e7406623-ea86-49c1-9bfd-53e81c921f92"
      ],
      "singers": [
        "8e848b41-55e2-4f75-a153-37aece3c2169"
      ],
      "songtypes": [
        "f02ad9b3-0bd9-4aad-85b3-9976739ba0e4"
      ],
      "songwriters": [
        "12bf3975-e982-4cf7-900b-1784cbbae224",
        "731c9f26-b072-4f14-b3b8-ae8b04835f03"
      ],
      "franchises": [
        "3a629b10-0be0-47b2-8aba-4a8eea2719ed"
      ]
    },
    "title": "I Say Yes",
    "titles": {
      "eng": "I SAY YES"
    },
    "year": 2007,
    "titles_default_language": "eng"
  }
}