{
  "header": {
    "version": 4,
    "description": "Karaoke Mugen Karaoke Data File"
  },
  "medias": [
    {
      "version": "Default",
      "filename": "JPN - Nisekoi 2 - OP1 - Rally Go Round.mp4",
      "audiogain": -9.53,
      "loudnorm": "-7.83,0.04,4.00,-18.06,-0.59",
      "filesize": 76247211,
      "duration": 93,
      "default": true,
      "lyrics": [
        {
          "filename": "JPN - Nisekoi 2 - OP1 - Rally Go Round.ass",
          "default": true,
          "version": "Default",
          "subchecksum": "43c730623047e15f60487e2aa3a8203e"
        }
      ]
    }
  ],
  "data": {
    "created_at": "2017-10-11T17:01:53.000Z",
    "kid": "adb39c6b-b63a-4935-a10b-e56234f33990",
    "modified_at": "2021-02-25T12:37:34.144Z",
    "repository": "kara.moe",
    "songorder": 1,
    "tags": {
      "authors": [
        "5bdaba57-27f8-4568-8806-76a807728766"
      ],
      "collections": [
        "c7db86a0-ff64-4044-9be4-66dd1ef1d1c1"
      ],
      "creators": [
        "c3bd80ef-d1fe-427f-913f-a2ba2fe66114"
      ],
      "families": [
        "0377db02-3af6-43b8-9b08-c759df3d25c3"
      ],
      "genres": [
        "a0aeef4a-6428-45ff-a6e1-468b595930c2"
      ],
      "groups": [
        "ae613721-1fbe-480d-ba6b-d6d0702b184d"
      ],
      "langs": [
        "4dcf9614-7914-42aa-99f4-dbce2e059133"
      ],
      "origins": [
        "938de218-5343-4865-94d3-fb33f2eaa152"
      ],
      "series": [
        "f58f1a35-c793-492d-bd2a-1a06735e03ca"
      ],
      "singers": [
        "41f045f2-1576-496d-91b1-c0f28bab57a4"
      ],
      "songtypes": [
        "f02ad9b3-0bd9-4aad-85b3-9976739ba0e4"
      ],
      "songwriters": [
        "3cd850b0-30a4-4c6b-8680-9cc39ce97c6a",
        "41f045f2-1576-496d-91b1-c0f28bab57a4",
        "cbd3ccbc-14c5-4f13-b461-6cfad840f5cd",
        "e47047f1-9428-41db-9eb2-a32ba03c5ac1"
      ],
      "franchises": [
        "648dcd60-220b-4211-a8ce-23086723374b"
      ]
    },
    "title": "Rally Go Round",
    "titles": {
      "eng": "Rally Go Round"
    },
    "year": 2015,
    "titles_default_language": "eng"
  }
}