{
  "header": {
    "version": 4,
    "description": "Karaoke Mugen Karaoke Data File"
  },
  "medias": [
    {
      "version": "Default",
      "filename": "JPN - Shiroi Suna no Aquatope - ED1 - Gekkai no Yurikago.mp4",
      "audiogain": -3.28,
      "loudnorm": "-14.51,-1.79,6.60,-24.72,-1.35",
      "filesize": 13382246,
      "duration": 90,
      "default": true,
      "lyrics": [
        {
          "filename": "JPN - Shiroi Suna no Aquatope - ED1 - Gekkai no Yurikago.ass",
          "default": true,
          "version": "Default"
        }
      ]
    }
  ],
  "data": {
    "created_at": "2022-12-19T20:01:32.975Z",
    "ignoreHooks": false,
    "kid": "9d8cd87d-3cd1-4a5f-bc86-41cd871ab91b",
    "modified_at": "2022-12-19T20:03:04.416Z",
    "repository": "kara.moe",
    "songorder": 1,
    "tags": {
      "authors": [
        "1631228b-9125-497a-aafc-66f920a44a02"
      ],
      "collections": [
        "c7db86a0-ff64-4044-9be4-66dd1ef1d1c1"
      ],
      "creators": [
        "54259fe3-ce0c-4eca-855e-383f2c5be3a9"
      ],
      "families": [
        "0377db02-3af6-43b8-9b08-c759df3d25c3"
      ],
      "groups": [
        "8c22c899-b3ed-42da-a548-ce00f950798b",
        "8e209ae4-4381-438f-89dc-1b21752027d2"
      ],
      "langs": [
        "4dcf9614-7914-42aa-99f4-dbce2e059133"
      ],
      "misc": [
        "fe819ff1-9db8-4a0f-85dc-0e322c9126c4"
      ],
      "origins": [
        "938de218-5343-4865-94d3-fb33f2eaa152"
      ],
      "series": [
        "ef6b31cd-2190-41f0-8f4b-bdd10c4acf88"
      ],
      "singers": [
        "53a24b3b-e042-439f-bf6b-a52042a11590"
      ],
      "songtypes": [
        "38c77c56-2b95-4040-b676-0994a8cb0597"
      ],
      "songwriters": [
        "0423d0d2-d18a-4a48-bd91-21fe73f0299d",
        "ac0fb7e2-06df-4498-89bd-2015155576c6"
      ]
    },
    "titles": {
      "jpn": "月海の揺り籠",
      "qro": "Gekkai no Yurikago"
    },
    "titles_default_language": "qro",
    "year": 2021
  }
}