{
  "header": {
    "version": 4,
    "description": "Karaoke Mugen Karaoke Data File"
  },
  "medias": [
    {
      "version": "Default",
      "filename": "JPN - Kamen Rider Kabuto - OP - NEXT LEVEL.mp4",
      "audiogain": 6.84,
      "loudnorm": "-23.81,-11.83,1.40,-33.81,-0.04",
      "filesize": 31606193,
      "duration": 69,
      "default": true,
      "lyrics": [
        {
          "filename": "JPN - Kamen Rider Kabuto - OP - NEXT LEVEL.ass",
          "default": true,
          "version": "Default",
          "subchecksum": "1c421d57570b75107097db35173803a1"
        }
      ]
    }
  ],
  "data": {
    "created_at": "2017-10-11T15:01:09.000Z",
    "kid": "71f9757b-81cd-44bd-a9b1-8edcb4f43356",
    "modified_at": "2021-02-25T11:53:09.969Z",
    "repository": "kara.moe",
    "tags": {
      "authors": [
        "5bdaba57-27f8-4568-8806-76a807728766"
      ],
      "collections": [
        "c7db86a0-ff64-4044-9be4-66dd1ef1d1c1"
      ],
      "creators": [
        "e32b14df-502b-45fa-9ca5-37554a63a4d7"
      ],
      "families": [
        "5391f9fe-638c-415f-8dc9-958e3a2c5787"
      ],
      "groups": [
        "3c14c864-533c-49e6-a3cc-6969f1233775"
      ],
      "langs": [
        "4dcf9614-7914-42aa-99f4-dbce2e059133"
      ],
      "origins": [
        "938de218-5343-4865-94d3-fb33f2eaa152",
        "d3fac9ab-630d-402d-a392-3d2450c3e62e"
      ],
      "series": [
        "3f184b1b-7afd-47cf-bd3a-316109ec1ef2"
      ],
      "singers": [
        "847198c2-632a-4028-8f4c-22add0ebf239"
      ],
      "songtypes": [
        "f02ad9b3-0bd9-4aad-85b3-9976739ba0e4"
      ],
      "songwriters": [
        "7145091d-e84a-43c2-a305-152647ac1fb0",
        "ad9de3e0-673e-459b-ac88-178ae5e04341"
      ],
      "franchises": [
        "93386847-9ab0-468e-bad0-e1d655e0e0ec"
      ]
    },
    "title": "NEXT LEVEL",
    "titles": {
      "eng": "NEXT LEVEL"
    },
    "year": 2006,
    "titles_default_language": "eng"
  }
}