{
  "header": {
    "version": 4,
    "description": "Karaoke Mugen Karaoke Data File"
  },
  "medias": [
    {
      "version": "Default",
      "filename": "JPN - Muv-Luv Alternative Chronicles - PC GAME OP2 - Once&Forever.mp4",
      "audiogain": -9.5,
      "loudnorm": "-7.80,1.93,6.60,-17.91,-1.20",
      "filesize": 58524342,
      "duration": 127,
      "default": true,
      "lyrics": [
        {
          "filename": "JPN - Muv-Luv Alternative Chronicles - PC GAME OP2 - Once&Forever.ass",
          "default": true,
          "version": "Default",
          "subchecksum": "d6717d9c19631f89445edf3796789228"
        }
      ]
    }
  ],
  "data": {
    "created_at": "2017-10-11T17:01:49.000Z",
    "kid": "a066d8ed-25ff-484f-89b3-66cda3d8756e",
    "modified_at": "2021-02-25T12:31:27.735Z",
    "repository": "kara.moe",
    "songorder": 2,
    "tags": {
      "authors": [
        "5bdaba57-27f8-4568-8806-76a807728766"
      ],
      "collections": [
        "c7db86a0-ff64-4044-9be4-66dd1ef1d1c1"
      ],
      "creators": [
        "5e87ca69-52dd-4df4-957a-5a24d5a19c94"
      ],
      "families": [
        "dbedd6b3-d125-4cd8-aa32-c4175e4ca3a3"
      ],
      "groups": [
        "ae613721-1fbe-480d-ba6b-d6d0702b184d"
      ],
      "langs": [
        "4dcf9614-7914-42aa-99f4-dbce2e059133"
      ],
      "origins": [
        "2f96e82c-c61b-4413-817e-e6b247509b95"
      ],
      "platforms": [
        "3c15f758-e1bc-4266-8bb9-3c14112f504a"
      ],
      "series": [
        "874fe9d1-3d38-4b83-89af-09e399ce1b1d"
      ],
      "singers": [
        "213ca674-9084-40ad-a7a8-c84d8108fce9"
      ],
      "songtypes": [
        "f02ad9b3-0bd9-4aad-85b3-9976739ba0e4"
      ],
      "songwriters": [
        "8e1f109c-a1d4-40d6-9a55-32abdb12993c",
        "b26b49e2-d439-48b3-8c0f-c7c25648c48a"
      ],
      "franchises": [
        "71cd681c-bb96-412d-b6af-6c134af20758"
      ]
    },
    "title": "Once&Forever",
    "titles": {
      "eng": "Once&Forever"
    },
    "year": 2010,
    "titles_default_language": "eng"
  }
}