{
  "header": {
    "version": 4,
    "description": "Karaoke Mugen Karaoke Data File"
  },
  "medias": [
    {
      "version": "Default",
      "filename": "JPN - Shin Koihime Musou - GAME OP - HEAting Soul.mp4",
      "audiogain": -10.1,
      "loudnorm": "-7.58,1.22,3.60,-17.80,-0.57",
      "filesize": 37090082,
      "duration": 96,
      "default": true,
      "lyrics": [
        {
          "filename": "JPN - Shin Koihime Musou - GAME OP - HEAting Soul.ass",
          "default": true,
          "version": "Default"
        }
      ]
    }
  ],
  "data": {
    "created_at": "2017-10-11T17:02:22.000Z",
    "ignoreHooks": false,
    "kid": "6e7540e3-48de-4244-a8d3-6878cfa0b3d1",
    "modified_at": "2022-02-14T21:50:21.687Z",
    "repository": "kara.moe",
    "tags": {
      "authors": [
        "5bdaba57-27f8-4568-8806-76a807728766"
      ],
      "collections": [
        "c7db86a0-ff64-4044-9be4-66dd1ef1d1c1"
      ],
      "creators": [
        "f2355cb5-91ba-44b9-9df3-4da25f1d90e5"
      ],
      "families": [
        "dbedd6b3-d125-4cd8-aa32-c4175e4ca3a3"
      ],
      "groups": [
        "3c14c864-533c-49e6-a3cc-6969f1233775"
      ],
      "langs": [
        "4dcf9614-7914-42aa-99f4-dbce2e059133"
      ],
      "origins": [
        "2f96e82c-c61b-4413-817e-e6b247509b95"
      ],
      "series": [
        "49c2f8cb-bdb9-400b-95c0-2b95f32003e5"
      ],
      "singers": [
        "40e2d2ae-d3c6-4336-815e-1b4cf19cc3ee"
      ],
      "songtypes": [
        "f02ad9b3-0bd9-4aad-85b3-9976739ba0e4"
      ],
      "songwriters": [
        "2cc3f0ca-cdf2-4372-8f5a-669d0fdb20fc",
        "d9729764-449e-47b5-bd99-21c76989a61c"
      ],
      "franchises": [
        "408dd1b5-2967-485e-b8dc-2ef292928766"
      ]
    },
    "titles": {
      "eng": "HE∀ting Sφul"
    },
    "title": "HE∀ting Sφul",
    "year": 2008,
    "titles_aliases": [
      "HEAting Soul"
    ],
    "titles_default_language": "eng"
  }
}