{
  "header": {
    "version": 4,
    "description": "Karaoke Mugen Karaoke Data File"
  },
  "medias": [
    {
      "version": "Default",
      "filename": "JPN - SoniAni Super Sonico The Animation - ED6 - Nightmare Buster.mp4",
      "audiogain": 6.29,
      "loudnorm": "-23.84,-11.90,2.30,-33.86,-0.15",
      "filesize": 51338353,
      "duration": 91,
      "default": true,
      "lyrics": [
        {
          "filename": "JPN - SoniAni Super Sonico The Animation - ED6 - Nightmare Buster.ass",
          "default": true,
          "version": "Default",
          "subchecksum": "1e4dc6c263aaeeacc8252215136c89bc"
        }
      ]
    }
  ],
  "data": {
    "created_at": "2017-10-11T17:02:46.000Z",
    "kid": "a4c50b99-5ec3-463d-827b-b20c59149f20",
    "modified_at": "2021-02-25T13:09:13.115Z",
    "repository": "kara.moe",
    "songorder": 6,
    "tags": {
      "authors": [
        "5bdaba57-27f8-4568-8806-76a807728766"
      ],
      "collections": [
        "c7db86a0-ff64-4044-9be4-66dd1ef1d1c1"
      ],
      "creators": [
        "01b5630b-d291-4ad5-a781-2cb717804d18"
      ],
      "families": [
        "0377db02-3af6-43b8-9b08-c759df3d25c3"
      ],
      "groups": [
        "ae613721-1fbe-480d-ba6b-d6d0702b184d"
      ],
      "langs": [
        "4dcf9614-7914-42aa-99f4-dbce2e059133"
      ],
      "misc": [
        "fe819ff1-9db8-4a0f-85dc-0e322c9126c4"
      ],
      "origins": [
        "938de218-5343-4865-94d3-fb33f2eaa152"
      ],
      "series": [
        "6690b24e-43ac-4f6b-8546-2e265053f11f"
      ],
      "singers": [
        "8203abed-f60e-4041-8254-dc84cdfda1fb"
      ],
      "songtypes": [
        "38c77c56-2b95-4040-b676-0994a8cb0597"
      ],
      "songwriters": [
        "120111bd-f0dc-4d15-a33a-344620e0d4f7",
        "6b65cb18-21f9-4aa2-9283-da7faf980fd0"
      ],
      "franchises": [
        "8816884c-6651-4868-8c95-f50c492a7de8"
      ]
    },
    "title": "Nightmare Buster",
    "titles": {
      "eng": "Nightmare Buster",
      "jpn": "ナイトメア・バスター"
    },
    "year": 2014,
    "titles_default_language": "eng"
  }
}