{
  "header": {
    "version": 4,
    "description": "Karaoke Mugen Karaoke Data File"
  },
  "medias": [
    {
      "version": "Default",
      "filename": "JPN - Lupin Sansei Kutabare! Nostradamus - MOVIE AUDIO ED - Ai no Tsuzuki.mp3",
      "audiogain": -5.98,
      "loudnorm": "-12.91,-0.47,11.20,-23.28,-1.73",
      "filesize": 7396437,
      "duration": 303,
      "default": true,
      "lyrics": [
        {
          "filename": "JPN - Lupin Sansei Kutabare! Nostradamus - MOVIE AUDIO ED - Ai no Tsuzuki.ass",
          "default": true,
          "version": "Default",
          "subchecksum": "127f853dfab2a58aa70c37567d41d811"
        }
      ]
    }
  ],
  "data": {
    "created_at": "2020-07-19T15:12:08.782Z",
    "kid": "3b74306d-0945-446f-8261-b161672c1ec8",
    "modified_at": "2021-02-25T12:16:00.459Z",
    "repository": "kara.moe",
    "tags": {
      "authors": [
        "5cb3d0c5-479e-4224-b6ec-b27209e933a0"
      ],
      "collections": [
        "c7db86a0-ff64-4044-9be4-66dd1ef1d1c1"
      ],
      "creators": [
        "53e900ec-a1ff-4c95-8b2d-a63995c2936f"
      ],
      "families": [
        "0377db02-3af6-43b8-9b08-c759df3d25c3"
      ],
      "groups": [
        "24db50aa-a126-4d34-a48a-e45db79c4245",
        "60defa7b-774e-4680-8321-51b742c2e009"
      ],
      "langs": [
        "4dcf9614-7914-42aa-99f4-dbce2e059133"
      ],
      "misc": [
        "86705d4b-24e4-4756-9687-2b9c98bcf366"
      ],
      "origins": [
        "c8ca9dea-d8b4-48fe-8427-d911653232e9"
      ],
      "series": [
        "66104873-cf20-45f8-a41d-674413223cae"
      ],
      "singers": [
        "d3f96c0d-68fc-47ec-8e6e-4bc021962fdf"
      ],
      "songtypes": [
        "38c77c56-2b95-4040-b676-0994a8cb0597",
        "42a262ae-acba-4ab5-a446-c5789c96c821"
      ],
      "songwriters": [
        "bd94fe6d-88db-4aa5-8234-2a56e517c7b6",
        "cca4d6f7-94d2-42ee-b34c-a78e69f90a0f"
      ],
      "franchises": [
        "561e6fe6-d886-4eec-881d-fdc9d1504942"
      ]
    },
    "title": "Ai no Tsuzuki",
    "titles": {
      "qro": "Ai no Tsuzuki",
      "jpn": "愛のつづき"
    },
    "year": 1995,
    "titles_default_language": "qro"
  }
}