{
  "header": {
    "version": 4,
    "description": "Karaoke Mugen Karaoke Data File"
  },
  "medias": [
    {
      "version": "Default",
      "filename": "JPN - Date a Live - OP - Date A Live.mp4",
      "audiogain": -0.87,
      "loudnorm": "-16.11,-7.39,3.40,-26.22,-0.52",
      "filesize": 23576631,
      "duration": 101,
      "default": true,
      "lyrics": [
        {
          "filename": "JPN - Date a Live - OP - Date A Live.ass",
          "default": true,
          "version": "Default",
          "subchecksum": "70f431ff79e8c0dc381ab218c83ce4f2"
        }
      ]
    }
  ],
  "data": {
    "created_at": "2017-10-11T17:01:38.000Z",
    "kid": "b513dbdc-cfe4-454d-b0f7-bd548284e170",
    "modified_at": "2021-02-25T11:07:26.998Z",
    "repository": "kara.moe",
    "tags": {
      "authors": [
        "6bebcb04-2694-453c-9e0c-eb1a2e2718d9"
      ],
      "collections": [
        "c7db86a0-ff64-4044-9be4-66dd1ef1d1c1"
      ],
      "creators": [
        "d4f12628-2031-48c0-b2c7-7c07aaf8af94"
      ],
      "families": [
        "0377db02-3af6-43b8-9b08-c759df3d25c3"
      ],
      "groups": [
        "ae613721-1fbe-480d-ba6b-d6d0702b184d"
      ],
      "langs": [
        "4dcf9614-7914-42aa-99f4-dbce2e059133"
      ],
      "origins": [
        "938de218-5343-4865-94d3-fb33f2eaa152"
      ],
      "series": [
        "3ca53c9d-07fe-433f-a2e9-af4b68fa14f9"
      ],
      "singers": [
        "d1b95792-c817-41d6-b91f-9aa70736a2e5"
      ],
      "songtypes": [
        "f02ad9b3-0bd9-4aad-85b3-9976739ba0e4"
      ],
      "songwriters": [
        "731c9f26-b072-4f14-b3b8-ae8b04835f03",
        "cc390c0c-07fd-474a-91c7-c980cc6ca3b1"
      ],
      "franchises": [
        "3ca53c9d-07fe-433f-a2e9-af4b68fa14f9"
      ]
    },
    "title": "Date A Live",
    "titles": {
      "eng": "Date A Live",
      "jpn": "デート・ア・ライブ"
    },
    "year": 2013,
    "titles_default_language": "eng"
  }
}