{
  "header": {
    "version": 4,
    "description": "Karaoke Mugen Karaoke Data File"
  },
  "medias": [
    {
      "version": "Default",
      "filename": "JPN - Momokuri - OP - Daisuki da yo Daisuki da yo Umarete Kite Arigatou.mp4",
      "audiogain": -0.2,
      "loudnorm": "-16.02,-5.91,2.50,-26.24,-0.33",
      "filesize": 26860073,
      "duration": 89,
      "default": true,
      "lyrics": [
        {
          "filename": "JPN - Momokuri - OP - Daisuki da yo Daisuki da yo Umarete Kite Arigatou.ass",
          "default": true,
          "version": "Default"
        }
      ]
    }
  ],
  "data": {
    "created_at": "2022-04-06T15:43:54.470Z",
    "kid": "b2cb57bd-4dda-4d22-8fb1-957357095435",
    "modified_at": "2022-09-19T19:19:43.867Z",
    "repository": "kara.moe",
    "tags": {
      "series": [
        "1da1477c-721c-40ce-9145-6bff3f5af3e3"
      ],
      "singers": [
        "a1ecf5f5-c668-46fa-8bfe-a5085180b888",
        "f2678e2e-c09f-4fa9-a161-d8b9e602c1aa"
      ],
      "songtypes": [
        "f02ad9b3-0bd9-4aad-85b3-9976739ba0e4"
      ],
      "creators": [
        "0041fabf-4b82-4ecd-961b-e4c49b8c88be"
      ],
      "langs": [
        "4dcf9614-7914-42aa-99f4-dbce2e059133"
      ],
      "authors": [
        "da677ad5-b5dd-4ab9-a1fe-5461e36338a2"
      ],
      "songwriters": [
        "5d4acd69-3c02-4b32-9fd9-eac6dd11885b"
      ],
      "groups": [
        "ae613721-1fbe-480d-ba6b-d6d0702b184d"
      ],
      "families": [
        "0377db02-3af6-43b8-9b08-c759df3d25c3"
      ],
      "origins": [
        "938de218-5343-4865-94d3-fb33f2eaa152"
      ],
      "genres": [
        "8b6ace6f-a59e-4740-b3ff-e1618720383c"
      ],
      "collections": [
        "c7db86a0-ff64-4044-9be4-66dd1ef1d1c1"
      ]
    },
    "titles": {
      "qro": "Daisuki da yo Daisuki da yo Umarete Kite Arigatou",
      "jpn": "大好きだよ大好きだよ 生まれてきてありがとう"
    },
    "titles_default_language": "qro",
    "title": "Daisuki da yo Daisuki da yo Umarete Kite Arigatou",
    "year": 2016
  }
}