{
  "header": {
    "version": 4,
    "description": "Karaoke Mugen Karaoke Data File"
  },
  "medias": [
    {
      "version": "Default",
      "filename": "JPN - Monogatari Series Puc Puc - GAME OP - wicked prince.mp4",
      "audiogain": 4.4,
      "loudnorm": "-21.27,-10.63,2.70,-31.49,-0.71",
      "filesize": 79821948,
      "duration": 127,
      "default": true,
      "lyrics": [
        {
          "filename": "JPN - Monogatari Series Puc Puc - GAME OP - wicked prince.ass",
          "default": true,
          "version": "Default",
          "subchecksum": "4fdf0490168b822886632ee15a3160b9"
        }
      ]
    }
  ],
  "data": {
    "created_at": "2019-05-29T14:36:22.000Z",
    "kid": "b9d9a671-2754-407e-866d-3125f723e2f8",
    "modified_at": "2021-02-25T12:29:41.317Z",
    "repository": "kara.moe",
    "tags": {
      "authors": [
        "1df04771-a378-4f14-a5e1-1455187d681a"
      ],
      "collections": [
        "c7db86a0-ff64-4044-9be4-66dd1ef1d1c1"
      ],
      "creators": [
        "c3bd80ef-d1fe-427f-913f-a2ba2fe66114"
      ],
      "families": [
        "0377db02-3af6-43b8-9b08-c759df3d25c3",
        "dbedd6b3-d125-4cd8-aa32-c4175e4ca3a3"
      ],
      "groups": [
        "ae613721-1fbe-480d-ba6b-d6d0702b184d"
      ],
      "langs": [
        "4dcf9614-7914-42aa-99f4-dbce2e059133"
      ],
      "misc": [
        "1d6ceadf-a885-47e5-b23b-c07bf668a424",
        "fe819ff1-9db8-4a0f-85dc-0e322c9126c4"
      ],
      "platforms": [
        "213a1a15-e73a-4a08-b3f6-b6e2745a82e5"
      ],
      "series": [
        "3bc9fa5c-76aa-4611-81d1-4ecc0efa0cf4"
      ],
      "singers": [
        "458739df-9990-45ea-a8e7-ae6348c7534d",
        "55eaaa3c-c46f-4e05-b8c7-c384e49930fb",
        "97f84f38-619d-4a50-9de3-dcee49de9ae2",
        "a6042b25-be94-49bf-ab1b-1ba48a565df3",
        "a6a98cd7-362e-404b-aa73-651526e190bb",
        "e1890e7a-41f1-4ab5-bd7f-6d23960bda9c"
      ],
      "songtypes": [
        "f02ad9b3-0bd9-4aad-85b3-9976739ba0e4"
      ],
      "songwriters": [
        "81d493c9-3353-40d4-b94d-7fa42d3b4229",
        "a8483126-a6eb-482c-b157-5ec40e942b35",
        "d7658a75-7945-4f08-8233-02f38dc385ba"
      ],
      "franchises": [
        "94c05ef3-bfff-4a4d-a1a4-b07c32389971"
      ]
    },
    "title": "wicked prince",
    "titles": {
      "eng": "wicked prince"
    },
    "year": 2018,
    "titles_default_language": "eng"
  }
}