{
  "header": {
    "version": 4,
    "description": "Karaoke Mugen Karaoke Data File"
  },
  "medias": [
    {
      "version": "Default",
      "filename": "JPN - Arakawa Under the Bridge - OP1 - Venus to Jesus.mp4",
      "audiogain": -3.04,
      "loudnorm": "-13.85,-2.28,3.30,-23.86,-0.28",
      "filesize": 45151078,
      "duration": 86,
      "default": true,
      "lyrics": [
        {
          "filename": "JPN - Arakawa Under the Bridge - OP1 - Venus to Jesus.ass",
          "default": true,
          "version": "Default",
          "subchecksum": "cbd1b76918d78a23e09f7dcc4ee8fda4"
        }
      ]
    }
  ],
  "data": {
    "created_at": "2017-10-11T17:01:04.000Z",
    "kid": "408c85fb-9b22-4c2c-9b75-e8f43b9fc4f0",
    "modified_at": "2021-02-25T10:45:37.714Z",
    "repository": "kara.moe",
    "songorder": 1,
    "tags": {
      "authors": [
        "5bdaba57-27f8-4568-8806-76a807728766"
      ],
      "collections": [
        "c7db86a0-ff64-4044-9be4-66dd1ef1d1c1"
      ],
      "creators": [
        "c3bd80ef-d1fe-427f-913f-a2ba2fe66114"
      ],
      "families": [
        "0377db02-3af6-43b8-9b08-c759df3d25c3"
      ],
      "groups": [
        "ae613721-1fbe-480d-ba6b-d6d0702b184d"
      ],
      "langs": [
        "4dcf9614-7914-42aa-99f4-dbce2e059133"
      ],
      "origins": [
        "938de218-5343-4865-94d3-fb33f2eaa152"
      ],
      "series": [
        "d8408c3e-34a1-417d-9be9-7eda946d2b31"
      ],
      "singers": [
        "49f072be-b82b-470e-a3bf-a1600efc1b83"
      ],
      "songtypes": [
        "f02ad9b3-0bd9-4aad-85b3-9976739ba0e4"
      ],
      "songwriters": [
        "6a4ddfcf-aaf4-48e5-af2b-6f6f9451881e"
      ],
      "franchises": [
        "d8408c3e-34a1-417d-9be9-7eda946d2b31"
      ]
    },
    "title": "Venus to Jesus",
    "titles": {
      "qro": "Venus to Jesus",
      "jpn": "ヴィーナスとジーザス"
    },
    "year": 2010,
    "titles_default_language": "qro"
  }
}