{
  "header": {
    "version": 4,
    "description": "Karaoke Mugen Karaoke Data File"
  },
  "medias": [
    {
      "version": "Default",
      "filename": "JPN - Shuuen no Virche -ErroR salvation- - GAME SWITCH OP - Lycoris no Ai.mp4",
      "audiogain": -11.15,
      "loudnorm": "-6.34,1.92,7.40,-16.51,-1.94",
      "filesize": 35854723,
      "duration": 101,
      "default": true,
      "lyrics": [
        {
          "filename": "JPN - Shuuen no Virche -ErroR salvation- - GAME SWITCH OP - Lycoris no Ai.ass",
          "default": true,
          "version": "Default"
        }
      ]
    }
  ],
  "data": {
    "created_at": "2022-10-22T16:58:14.421Z",
    "ignoreHooks": false,
    "kid": "5eb2fdc8-ac34-4c46-be9b-a214a06f2406",
    "modified_at": "2022-10-22T17:09:13.706Z",
    "repository": "kara.moe",
    "tags": {
      "authors": [
        "0c8a5287-3954-48ce-b8ad-3d54e54bf96e"
      ],
      "collections": [
        "c7db86a0-ff64-4044-9be4-66dd1ef1d1c1"
      ],
      "creators": [
        "3b5e1055-c1dd-44ba-9362-eddc4fdffa63",
        "98ab71c6-8066-4d59-84a2-9833a27ec461"
      ],
      "families": [
        "dbedd6b3-d125-4cd8-aa32-c4175e4ca3a3"
      ],
      "groups": [
        "8e209ae4-4381-438f-89dc-1b21752027d2"
      ],
      "langs": [
        "4dcf9614-7914-42aa-99f4-dbce2e059133"
      ],
      "origins": [
        "2f96e82c-c61b-4413-817e-e6b247509b95",
        "7025ae3c-7bd6-4787-8912-2c15063343bb"
      ],
      "platforms": [
        "0a880bfc-d0e5-448b-98d2-4ba7b3106641"
      ],
      "series": [
        "070b3d20-98fa-409a-8219-c67a6f83489e"
      ],
      "singers": [
        "387d98d8-8019-4178-884b-05ee742a9236"
      ],
      "songtypes": [
        "f02ad9b3-0bd9-4aad-85b3-9976739ba0e4"
      ],
      "songwriters": [
        "076b21f0-5393-4d85-9975-8cf31278606f"
      ]
    },
    "titles": {
      "jpn": "リコリスの愛",
      "qro": "Lycoris no Ai"
    },
    "titles_default_language": "qro",
    "titles_aliases": [
      "Ken ga Kimi for S OP"
    ],
    "title": "Lycoris no Ai",
    "year": 2021
  }
}