{
  "header": {
    "version": 4,
    "description": "Karaoke Mugen Karaoke Data File"
  },
  "medias": [
    {
      "version": "Default",
      "filename": "JPN - Hiiro no Kakera Omoi Iro no Kioku - GAME PSV OP - Aki Fuurin.mp4",
      "audiogain": -9.63,
      "loudnorm": "-9.17,1.10,12.80,-19.69,-2.16",
      "filesize": 19304270,
      "duration": 93,
      "default": true,
      "lyrics": [
        {
          "filename": "JPN - Hiiro no Kakera Omoi Iro no Kioku - GAME PSV OP - Aki Fuurin.ass",
          "default": true,
          "version": "Default"
        }
      ]
    }
  ],
  "data": {
    "created_at": "2018-07-07T12:08:16.000Z",
    "ignoreHooks": false,
    "kid": "c88d8255-9868-46b5-a22d-8a2b3d466e42",
    "modified_at": "2022-10-01T10:00:01.995Z",
    "repository": "kara.moe",
    "tags": {
      "authors": [
        "2a9bbf75-0722-4b4a-9935-caa92f38fdd1"
      ],
      "collections": [
        "c7db86a0-ff64-4044-9be4-66dd1ef1d1c1"
      ],
      "creators": [
        "98ab71c6-8066-4d59-84a2-9833a27ec461"
      ],
      "families": [
        "dbedd6b3-d125-4cd8-aa32-c4175e4ca3a3"
      ],
      "groups": [
        "ae613721-1fbe-480d-ba6b-d6d0702b184d"
      ],
      "langs": [
        "4dcf9614-7914-42aa-99f4-dbce2e059133"
      ],
      "origins": [
        "2f96e82c-c61b-4413-817e-e6b247509b95",
        "7025ae3c-7bd6-4787-8912-2c15063343bb"
      ],
      "platforms": [
        "e791f168-068f-4c05-aa36-e8d63726aa06"
      ],
      "series": [
        "bdda8765-dc99-4176-85ba-3a371a0970c0"
      ],
      "singers": [
        "91f2604c-180c-457c-b4c6-389820222579"
      ],
      "songtypes": [
        "f02ad9b3-0bd9-4aad-85b3-9976739ba0e4"
      ],
      "songwriters": [
        "91f2604c-180c-457c-b4c6-389820222579"
      ],
      "franchises": [
        "1bb0aa22-3a30-46cb-9965-236a511e9af4"
      ]
    },
    "titles": {
      "jpn": "秋風鈴",
      "qro": "Aki Fûrin"
    },
    "titles_default_language": "qro",
    "title": "Aki Fûrin",
    "year": 2017,
    "titles_aliases": [
      "Fuurin"
    ]
  }
}