{
  "header": {
    "description": "Karaoke Mugen Karaoke Data File",
    "version": 4
  },
  "medias": [
    {
      "version": "Default",
      "filename": "JPN - Love Live! Sunshine!! - MV - Tatehoko Tsubasa.mp4",
      "audiogain": -0.74,
      "loudnorm": "-17.02,-6.33,5.50,-27.08,-0.66",
      "duration": 253,
      "filesize": 66470849,
      "default": true,
      "lyrics": [
        {
          "filename": "JPN - Love Live! Sunshine!! - MV - Tatehoko Tsubasa.ass",
          "default": true,
          "version": "Default"
        }
      ]
    }
  ],
  "data": {
    "comment": null,
    "created_at": "2021-08-05T21:22:19.297Z",
    "kid": "222c2a89-60d8-4382-b8f6-95de87670a05",
    "modified_at": "2021-08-05T21:35:58.499Z",
    "parents": [],
    "repository": "kara.moe",
    "songorder": null,
    "tags": {
      "authors": [
        "278c6742-0b75-43dd-b317-2ea112952b4a"
      ],
      "creators": [
        "b2805292-730e-473a-96f0-fd8e7ffd1fd7"
      ],
      "families": [
        "0377db02-3af6-43b8-9b08-c759df3d25c3"
      ],
      "genres": [
        "caa86df2-0d59-474b-885c-f240a9e891b0"
      ],
      "groups": [
        "8c22c899-b3ed-42da-a548-ce00f950798b",
        "8e209ae4-4381-438f-89dc-1b21752027d2"
      ],
      "langs": [
        "4dcf9614-7914-42aa-99f4-dbce2e059133"
      ],
      "series": [
        "63466536-1102-4f91-b167-4380d274e2a3"
      ],
      "singers": [
        "8f1cdf03-baf0-4294-bfdf-fdeedcdbeac5"
      ],
      "songtypes": [
        "7be1b15c-cff8-4b37-a649-5c90f3d569a9"
      ],
      "songwriters": [
        "f41e7218-6c19-4e19-9b5f-4612dcd58243"
      ],
      "collections": [
        "c7db86a0-ff64-4044-9be4-66dd1ef1d1c1"
      ],
      "franchises": [
        "fd5d066e-e85a-4eea-8688-2979a887450a"
      ]
    },
    "titles": {
      "qro": "Tatehoko Tsubasa",
      "jpn": "タテホコツバサ"
    },
    "titles_default_language": "qro",
    "title": "Tatehoko Tsubasa",
    "year": 2021
  }
}