{
  "header": {
    "version": 4,
    "description": "Karaoke Mugen Karaoke Data File"
  },
  "medias": [
    {
      "version": "Default",
      "filename": "JPN - GUMI - MV - Amanojaku.mp4",
      "audiogain": -11.77,
      "loudnorm": "-5.86,2.53,3.50,-15.98,-1.44",
      "filesize": 20068202,
      "duration": 191,
      "default": true,
      "lyrics": [
        {
          "filename": "JPN - GUMI - MV - Amanojaku.ass",
          "default": true,
          "version": "Default"
        }
      ]
    }
  ],
  "data": {
    "created_at": "2018-04-03T18:50:43.000Z",
    "ignoreHooks": false,
    "kid": "a601915f-412b-45d0-920b-b42abdc128c4",
    "modified_at": "2022-10-23T16:52:57.864Z",
    "repository": "kara.moe",
    "tags": {
      "authors": [
        "8c22c899-b3ed-42da-a548-ce00f950798b"
      ],
      "collections": [
        "c7db86a0-ff64-4044-9be4-66dd1ef1d1c1"
      ],
      "creators": [
        "cbe95337-550f-481c-8ec2-c5f0f000a065"
      ],
      "families": [
        "0377db02-3af6-43b8-9b08-c759df3d25c3"
      ],
      "genres": [
        "45623cae-6d68-4304-a49b-896d1d6f4580"
      ],
      "groups": [
        "8c22c899-b3ed-42da-a548-ce00f950798b",
        "ae613721-1fbe-480d-ba6b-d6d0702b184d"
      ],
      "langs": [
        "4dcf9614-7914-42aa-99f4-dbce2e059133"
      ],
      "singers": [
        "dafdeefa-0a96-44df-9653-aeb88c400e33"
      ],
      "songtypes": [
        "7be1b15c-cff8-4b37-a649-5c90f3d569a9"
      ],
      "songwriters": [
        "3da2188a-925c-47b4-aede-d9e964334650"
      ]
    },
    "titles": {
      "jpn": "天ノ弱",
      "qro": "Amanojaku"
    },
    "titles_default_language": "qro",
    "title": "Amanojaku",
    "year": 2011
  }
}