{
  "header": {
    "version": 4,
    "description": "Karaoke Mugen Karaoke Data File"
  },
  "medias": [
    {
      "version": "Default",
      "filename": "JPN - Ar tonelico Sekai no Owari de Utai Tsuzukeru Shoujo - GAME AUDIO - EXEC_HYMME_LIFE=W R S.mp3",
      "audiogain": -4.83,
      "loudnorm": "-12.68,0.38,7.30,-22.79,-1.11",
      "filesize": 11823745,
      "duration": 284,
      "default": true,
      "lyrics": [
        {
          "filename": "JPN - Ar tonelico Sekai no Owari de Utai Tsuzukeru Shoujo - GAME AUDIO - EXEC_HYMME_LIFE=W R S.ass",
          "default": true,
          "version": "Default",
          "subchecksum": "d850fd7168fc10ae39d8610b0ff8b049"
        }
      ]
    }
  ],
  "data": {
    "created_at": "2018-08-24T11:17:20.000Z",
    "kid": "b3c40a74-2928-4d4e-a2c1-394438272372",
    "modified_at": "2021-02-25T10:45:32.971Z",
    "repository": "kara.moe",
    "tags": {
      "authors": [
        "0081300d-c0f9-4cff-a4f7-e726a293a76b"
      ],
      "collections": [
        "c7db86a0-ff64-4044-9be4-66dd1ef1d1c1"
      ],
      "creators": [
        "4914b4f7-053a-4e89-adac-e25b526e3b7a"
      ],
      "families": [
        "dbedd6b3-d125-4cd8-aa32-c4175e4ca3a3"
      ],
      "groups": [
        "3c14c864-533c-49e6-a3cc-6969f1233775"
      ],
      "langs": [
        "12bce133-e896-4ea8-9c43-e06a4288ddfc",
        "4dcf9614-7914-42aa-99f4-dbce2e059133"
      ],
      "misc": [
        "1d6ceadf-a885-47e5-b23b-c07bf668a424"
      ],
      "series": [
        "364866c7-95a6-4d74-8c35-68452448e1d0"
      ],
      "singers": [
        "062ef561-7717-4be5-9bee-60482f7bd3e5",
        "c1f1abe1-b414-4404-8ef3-35898778e005"
      ],
      "songtypes": [
        "42a262ae-acba-4ab5-a446-c5789c96c821"
      ],
      "songwriters": [
        "0138472f-7ec9-4617-b674-41b398d661b4",
        "1342d996-5414-4253-b95b-c68bd97470fc"
      ],
      "franchises": [
        "c3da97d2-5ff0-4b28-8598-fc5ccf3e040d"
      ]
    },
    "title": "EXEC_HYMME_LIFE=W:R:S/.",
    "titles": {
      "eng": "EXEC_HYMME_LIFE=W:R:S/."
    },
    "year": 2006,
    "titles_default_language": "eng"
  }
}