{
  "header": {
    "version": 4,
    "description": "Karaoke Mugen Karaoke Data File"
  },
  "medias": [
    {
      "version": "Default",
      "filename": "JPN - Bishoujo Senshi Sailor Moon Super S Shin Shuyaku Soudatsusen - PSX SATURN GAME OP - Moonlight Densetsu.mp4",
      "audiogain": -5.92,
      "loudnorm": "-12.05,-1.07,3.20,-22.30,-0.43",
      "filesize": 10940272,
      "duration": 93,
      "default": true,
      "lyrics": [
        {
          "filename": "JPN - Bishoujo Senshi Sailor Moon Super S Shin Shuyaku Soudatsusen - PSX SATURN GAME OP - Moonlight Densetsu.ass",
          "default": true,
          "version": "Default",
          "subchecksum": "9451aae91fe4cd09800cdadebc56e5d0"
        }
      ]
    }
  ],
  "data": {
    "created_at": "2017-10-11T17:01:53.000Z",
    "kid": "9d2a5214-e33d-4640-b8e1-a9646264943b",
    "modified_at": "2021-02-25T10:52:47.317Z",
    "parents": [
      "d630822b-31f9-4326-9e59-6c4e21862efa"
    ],
    "repository": "kara.moe",
    "tags": {
      "authors": [
        "5bdaba57-27f8-4568-8806-76a807728766"
      ],
      "collections": [
        "c7db86a0-ff64-4044-9be4-66dd1ef1d1c1"
      ],
      "creators": [
        "2112c97c-cbbd-47a2-b3c2-50c7599fe410"
      ],
      "families": [
        "dbedd6b3-d125-4cd8-aa32-c4175e4ca3a3"
      ],
      "groups": [
        "24db50aa-a126-4d34-a48a-e45db79c4245"
      ],
      "langs": [
        "4dcf9614-7914-42aa-99f4-dbce2e059133"
      ],
      "platforms": [
        "e6778c89-1d6b-455e-bd53-37a3b12b7140",
        "f84b68ac-943a-495a-9c6e-d90ec959b19e"
      ],
      "series": [
        "d8d2ff6c-c5b3-4092-9b13-8c6721ee7ac5"
      ],
      "songtypes": [
        "f02ad9b3-0bd9-4aad-85b3-9976739ba0e4"
      ],
      "songwriters": [
        "4afe8e80-16c6-4b14-b09b-733fedd6c193",
        "6bad2316-df4c-48f0-a6af-c313adad248e"
      ],
      "franchises": [
        "c854f2ad-cc94-45b5-b7ba-993eeb9b2d31"
      ]
    },
    "title": "Moonlight Densetsu",
    "titles": {
      "qro": "Moonlight Densetsu",
      "jpn": "ムーンライト伝説"
    },
    "year": 1996,
    "titles_default_language": "qro"
  }
}