{
  "header": {
    "version": 4,
    "description": "Karaoke Mugen Karaoke Data File"
  },
  "medias": [
    {
      "version": "Default",
      "filename": "JPN - Jashin-chan Dropkick - ED - Home Sweet Home!.mp4",
      "audiogain": 5.98,
      "loudnorm": "-22.69,-13.38,2.20,-32.77,-0.18",
      "filesize": 41547639,
      "duration": 90,
      "default": true,
      "lyrics": [
        {
          "filename": "JPN - Jashin-chan Dropkick - ED - Home Sweet Home!.ass",
          "default": true,
          "version": "Default"
        }
      ]
    }
  ],
  "data": {
    "created_at": "2018-08-17T10:45:23.000Z",
    "kid": "b2426378-39c4-4552-8fef-f66812d2f4cf",
    "modified_at": "2022-09-19T19:17:56.570Z",
    "repository": "kara.moe",
    "tags": {
      "series": [
        "57cf694a-9d9f-4cef-8ea5-e91bfae235e8"
      ],
      "singers": [
        "2e1f71f2-6bde-4b23-8ea8-a6c4c420049e"
      ],
      "songtypes": [
        "38c77c56-2b95-4040-b676-0994a8cb0597"
      ],
      "creators": [
        "5530a6ae-4492-4cc1-892c-b21e4ad6c4b6"
      ],
      "langs": [
        "4dcf9614-7914-42aa-99f4-dbce2e059133"
      ],
      "authors": [
        "79e0aa7d-da9a-4e9a-aa2b-64056a83b49b"
      ],
      "songwriters": [
        "5d4acd69-3c02-4b32-9fd9-eac6dd11885b"
      ],
      "groups": [
        "ae613721-1fbe-480d-ba6b-d6d0702b184d"
      ],
      "families": [
        "0377db02-3af6-43b8-9b08-c759df3d25c3"
      ],
      "origins": [
        "938de218-5343-4865-94d3-fb33f2eaa152"
      ],
      "collections": [
        "c7db86a0-ff64-4044-9be4-66dd1ef1d1c1"
      ]
    },
    "titles": {
      "eng": "Home Sweet Home!"
    },
    "titles_default_language": "eng",
    "title": "Home Sweet Home!",
    "year": 2018
  }
}