{
  "header": {
    "version": 4,
    "description": "Karaoke Mugen Karaoke Data File"
  },
  "medias": [
    {
      "version": "Default",
      "filename": "JPN - Seisenshi Dunbine - ED - Mieru darou Byston Well.mp4",
      "audiogain": -1.62,
      "loudnorm": "-16.40,-3.30,5.90,-26.58,-0.98",
      "filesize": 46217884,
      "duration": 60,
      "default": true,
      "lyrics": [
        {
          "filename": "JPN - Seisenshi Dunbine - ED - Mieru darou Byston Well.ass",
          "default": true,
          "version": "Default",
          "subchecksum": "ecba716f32d269533c2de94ff6b818c6"
        }
      ]
    }
  ],
  "data": {
    "created_at": "2017-10-11T15:01:59.000Z",
    "kid": "1ade348c-3921-49d5-92ed-ea2fd8469f63",
    "modified_at": "2021-02-25T12:59:08.053Z",
    "repository": "kara.moe",
    "tags": {
      "authors": [
        "5bdaba57-27f8-4568-8806-76a807728766"
      ],
      "collections": [
        "c7db86a0-ff64-4044-9be4-66dd1ef1d1c1"
      ],
      "creators": [
        "ef8f80e1-d244-4aea-b7f0-984d6dd4b82b"
      ],
      "families": [
        "0377db02-3af6-43b8-9b08-c759df3d25c3"
      ],
      "genres": [
        "4b80eca6-f44f-4262-a8d0-b6879d6b70cb",
        "f60ba57d-5ef4-49e0-b93b-d0dcbcff6592"
      ],
      "groups": [
        "7792cc27-9ff9-4d47-9287-2338b7db1575"
      ],
      "langs": [
        "4dcf9614-7914-42aa-99f4-dbce2e059133"
      ],
      "origins": [
        "938de218-5343-4865-94d3-fb33f2eaa152"
      ],
      "series": [
        "453ca220-7d96-400a-9f31-ea7790dcee28"
      ],
      "singers": [
        "cf75c4a2-d89d-4233-80ed-4f5e2a1f31d0"
      ],
      "songtypes": [
        "38c77c56-2b95-4040-b676-0994a8cb0597"
      ],
      "songwriters": [
        "11a61e52-9236-4f0c-9fef-b23f6e277bae",
        "38e17194-fe7b-48e3-8f52-0ac018250a1b"
      ]
    },
    "title": "Mieru darou Byston Well",
    "titles": {
      "qro": "Mieru darou Byston Well",
      "jpn": "みえるだろうバイストン・ウェル"
    },
    "year": 1983,
    "titles_default_language": "qro"
  }
}