{
  "header": {
    "version": 4,
    "description": "Karaoke Mugen Karaoke Data File"
  },
  "medias": [
    {
      "version": "Default",
      "filename": "JPN - Touhou - REMIX AUDIO - Ame-no-iwafune yo, Ten he Nobore.mp3",
      "audiogain": -10.13,
      "loudnorm": "-6.73,0.60,6.40,-17.12,-0.65",
      "filesize": 10817826,
      "duration": 222,
      "default": true,
      "lyrics": [
        {
          "filename": "JPN - Touhou - REMIX AUDIO - Ame-no-iwafune yo, Ten he Nobore.ass",
          "default": true,
          "version": "Default"
        }
      ]
    }
  ],
  "data": {
    "created_at": "2021-04-01T20:19:58.734Z",
    "ignoreHooks": false,
    "kid": "0355d0b6-4be1-4090-9d99-b9f9ac14995b",
    "modified_at": "2022-10-08T17:43:10.918Z",
    "repository": "kara.moe",
    "tags": {
      "authors": [
        "fb28c6d3-a81e-40c0-9a4c-e3268c60a64b"
      ],
      "collections": [
        "c7db86a0-ff64-4044-9be4-66dd1ef1d1c1"
      ],
      "creators": [
        "eb49131c-b890-422d-9947-0e82292801e1"
      ],
      "groups": [
        "ae613721-1fbe-480d-ba6b-d6d0702b184d"
      ],
      "langs": [
        "4dcf9614-7914-42aa-99f4-dbce2e059133"
      ],
      "misc": [
        "ec4360fa-3e3c-4f6f-b0e1-fb8b12b6dd18"
      ],
      "origins": [
        "ac5085db-52d8-44b4-8fbb-1697b24d2046"
      ],
      "series": [
        "1bdaa5a1-dfa6-4365-b746-7a0b194dafd6"
      ],
      "singers": [
        "a6e3509f-befc-4b8b-ac1c-3614e1c32447"
      ],
      "songtypes": [
        "42a262ae-acba-4ab5-a446-c5789c96c821"
      ],
      "songwriters": [
        "26cb5252-8510-49e0-897c-a611a05fc056",
        "3059eca0-7b9f-41e0-a5a6-2e7e3be5d025",
        "a6e3509f-befc-4b8b-ac1c-3614e1c32447"
      ],
      "franchises": [
        "1bdaa5a1-dfa6-4365-b746-7a0b194dafd6"
      ]
    },
    "titles": {
      "jpn": "天磐船ヨ天ヘ昇レ",
      "qro": "Ame-no-iwafune yo, Ten he Nobore"
    },
    "titles_default_language": "qro",
    "titles_aliases": [
      "Rise to the Sky",
      "Ten e"
    ],
    "title": "Ame-no-iwafune yo, Ten he Nobore",
    "year": 2018
  }
}