{
  "header": {
    "version": 4,
    "description": "Karaoke Mugen Karaoke Data File"
  },
  "medias": [
    {
      "version": "Default",
      "filename": "JPN - Rockman 2 Dr. Wairi no Nazo - GAME MV - Air Man ga Taosenai.mp4",
      "audiogain": -9.27,
      "loudnorm": "-7.36,1.58,1.30,-17.52,-0.13",
      "filesize": 21787039,
      "duration": 229,
      "default": true,
      "lyrics": [
        {
          "filename": "JPN - Rockman 2 Dr. Wairi no Nazo - GAME MV - Air Man ga Taosenai.ass",
          "default": true,
          "version": "Default"
        }
      ]
    }
  ],
  "data": {
    "created_at": "2017-10-11T17:02:49.000Z",
    "ignoreHooks": false,
    "kid": "621a6795-db3e-49d3-be49-133eb1bb31c0",
    "modified_at": "2022-10-05T19:41:32.222Z",
    "repository": "kara.moe",
    "tags": {
      "authors": [
        "8c22c899-b3ed-42da-a548-ce00f950798b"
      ],
      "collections": [
        "c7db86a0-ff64-4044-9be4-66dd1ef1d1c1"
      ],
      "creators": [
        "a9b563c0-8ead-481e-9071-277ad918982e"
      ],
      "families": [
        "dbedd6b3-d125-4cd8-aa32-c4175e4ca3a3"
      ],
      "groups": [
        "3c14c864-533c-49e6-a3cc-6969f1233775",
        "8c22c899-b3ed-42da-a548-ce00f950798b"
      ],
      "langs": [
        "4dcf9614-7914-42aa-99f4-dbce2e059133"
      ],
      "origins": [
        "ac5085db-52d8-44b4-8fbb-1697b24d2046"
      ],
      "series": [
        "08972f72-20d9-4e10-bc6d-27e3bc8518ae"
      ],
      "singers": [
        "353c94da-0e1e-4cf1-b6de-ee5b81a4e332"
      ],
      "songtypes": [
        "7be1b15c-cff8-4b37-a649-5c90f3d569a9"
      ],
      "songwriters": [
        "c9283178-71b4-45f0-801b-89b0762c9ae9"
      ],
      "franchises": [
        "74eff3a1-8127-44f1-aa19-fdddc357af23"
      ]
    },
    "titles": {
      "jpn": "エアーマンが倒せない",
      "qro": "Air Man ga Taosenai"
    },
    "titles_default_language": "qro",
    "titles_aliases": [
      "Airman ga Taosenai",
      "Can't Defeat Air Man",
      "Can't Beat Air Man"
    ],
    "title": "Air Man ga Taosenai",
    "year": 2007
  }
}