{
  "header": {
    "version": 4,
    "description": "Karaoke Mugen Karaoke Data File"
  },
  "medias": [
    {
      "version": "Default",
      "filename": "JPN - Fairy Tail (2011) - OVA ED1 - Nichijou Sanka ~This Place~.mp4",
      "audiogain": -11.32,
      "loudnorm": "-6.05,0.67,2.80,-16.29,-0.85",
      "filesize": 14518730,
      "duration": 93,
      "default": true,
      "lyrics": [
        {
          "filename": "JPN - Fairy Tail (2011) - OVA ED1 - Nichijou Sanka ~This Place~.ass",
          "default": true,
          "version": "Default"
        }
      ]
    }
  ],
  "data": {
    "created_at": "2020-08-19T14:55:02.090Z",
    "ignoreHooks": false,
    "kid": "00e01afd-6012-4035-a2cb-d991ed573c57",
    "modified_at": "2022-10-01T10:57:37.793Z",
    "repository": "kara.moe",
    "songorder": 1,
    "tags": {
      "authors": [
        "1d7745a8-73ea-40bb-ad99-826af98f6e41"
      ],
      "collections": [
        "c7db86a0-ff64-4044-9be4-66dd1ef1d1c1"
      ],
      "creators": [
        "0041fabf-4b82-4ecd-961b-e4c49b8c88be",
        "b96e3686-bbe0-4b9e-815a-a278d5ff31be"
      ],
      "families": [
        "0377db02-3af6-43b8-9b08-c759df3d25c3"
      ],
      "genres": [
        "a0aeef4a-6428-45ff-a6e1-468b595930c2"
      ],
      "groups": [
        "ae613721-1fbe-480d-ba6b-d6d0702b184d"
      ],
      "langs": [
        "4dcf9614-7914-42aa-99f4-dbce2e059133"
      ],
      "misc": [
        "fe819ff1-9db8-4a0f-85dc-0e322c9126c4"
      ],
      "origins": [
        "2a6ef087-a000-4f8e-aeb5-9a7968756a36"
      ],
      "series": [
        "8d5ab6ad-66e7-4f68-99eb-a08e048b12e8"
      ],
      "singers": [
        "488aea99-01a0-4c2c-b475-b61d99efe994"
      ],
      "songtypes": [
        "38c77c56-2b95-4040-b676-0994a8cb0597"
      ],
      "songwriters": [
        "36a4860d-57a2-4254-8473-45367da94d31",
        "bf5fe578-cbe7-48b6-bcb9-1f3380732013"
      ],
      "franchises": [
        "6b849ba8-e1a6-4390-bcb5-1d795d536761"
      ]
    },
    "titles": {
      "jpn": "日常賛歌~This Place~",
      "qro": "Nichijô Sanka ~This Place~"
    },
    "titles_default_language": "qro",
    "title": "Nichijô Sanka ~This Place~",
    "year": 2011,
    "titles_aliases": [
      "Nichijou"
    ]
  }
}