{
  "header": {
    "version": 4,
    "description": "Karaoke Mugen Karaoke Data File"
  },
  "medias": [
    {
      "version": "Default",
      "filename": "JPN - Touhou - REMIX AUDIO - can you understand me question_mark.mp3",
      "audiogain": -4.14,
      "loudnorm": "-12.92,0.30,3.40,-23.04,-0.18",
      "filesize": 10767064,
      "duration": 225,
      "default": true,
      "lyrics": [
        {
          "filename": "JPN - Touhou - REMIX AUDIO - can you understand me question_mark.ass",
          "default": true,
          "version": "Default"
        }
      ]
    }
  ],
  "data": {
    "created_at": "2022-09-19T03:19:54.393Z",
    "kid": "73e01622-5b0c-427f-9657-7b652e59114b",
    "modified_at": "2022-09-19T09:55:37.824Z",
    "repository": "kara.moe",
    "tags": {
      "series": [
        "1bdaa5a1-dfa6-4365-b746-7a0b194dafd6"
      ],
      "singers": [
        "1ff22179-35b8-406b-a7f0-37496bcf6897"
      ],
      "songtypes": [
        "42a262ae-acba-4ab5-a446-c5789c96c821"
      ],
      "creators": [
        "89c6966b-6bb9-4178-84d5-868d36f104e6",
        "dc79d9df-3904-4772-8785-48ad1e332a60"
      ],
      "langs": [
        "4dcf9614-7914-42aa-99f4-dbce2e059133"
      ],
      "authors": [
        "444f6842-1a6b-4ade-b8fa-e48490ebc39d"
      ],
      "misc": [
        "ec4360fa-3e3c-4f6f-b0e1-fb8b12b6dd18"
      ],
      "songwriters": [
        "26cb5252-8510-49e0-897c-a611a05fc056",
        "1ff22179-35b8-406b-a7f0-37496bcf6897"
      ],
      "groups": [
        "ae613721-1fbe-480d-ba6b-d6d0702b184d"
      ],
      "collections": [
        "c7db86a0-ff64-4044-9be4-66dd1ef1d1c1"
      ],
      "franchises": [
        "1bdaa5a1-dfa6-4365-b746-7a0b194dafd6"
      ]
    },
    "titles": {
      "eng": "can you understand me?"
    },
    "titles_default_language": "eng",
    "title": "can you understand me?",
    "year": 2015
  }
}