{
  "header": {
    "version": 4,
    "description": "Karaoke Mugen Karaoke Data File"
  },
  "medias": [
    {
      "version": "Default",
      "filename": "JPN - Sister Angel - PC GAME OP - days happy.mp4",
      "audiogain": -1.67,
      "loudnorm": "-17.07,-5.68,5.20,-27.22,-0.91",
      "filesize": 40492871,
      "duration": 94,
      "default": true,
      "lyrics": [
        {
          "filename": "JPN - Sister Angel - PC GAME OP - days happy.ass",
          "default": true,
          "version": "Default",
          "subchecksum": "139e7a85ed96ce54592f258023ac92b1"
        }
      ]
    }
  ],
  "data": {
    "created_at": "2021-04-09T12:28:54.279Z",
    "kid": "8ee39cda-02a6-4355-9bf3-fdf41aad794c",
    "modified_at": "2021-04-09T12:46:53.550Z",
    "repository": "kara.moe",
    "tags": {
      "authors": [
        "a5dbab74-510b-48c5-9cea-5a537a81c974"
      ],
      "collections": [
        "c7db86a0-ff64-4044-9be4-66dd1ef1d1c1"
      ],
      "creators": [
        "99ee1d08-2e05-44e2-b7ac-dd79b40490a0"
      ],
      "families": [
        "dbedd6b3-d125-4cd8-aa32-c4175e4ca3a3"
      ],
      "groups": [
        "3c14c864-533c-49e6-a3cc-6969f1233775",
        "8c22c899-b3ed-42da-a548-ce00f950798b"
      ],
      "langs": [
        "4dcf9614-7914-42aa-99f4-dbce2e059133"
      ],
      "platforms": [
        "3c15f758-e1bc-4266-8bb9-3c14112f504a"
      ],
      "series": [
        "d6156255-bb64-43f6-89e3-874b22bca161"
      ],
      "singers": [
        "d715d742-9c30-4314-8de7-f3e984a5c283"
      ],
      "songtypes": [
        "f02ad9b3-0bd9-4aad-85b3-9976739ba0e4"
      ],
      "songwriters": [
        "c4f69dca-3a76-4d78-a4d8-082239d2b8ad"
      ]
    },
    "title": "days happy",
    "titles": {
      "eng": "days happy"
    },
    "year": 2002,
    "titles_default_language": "eng"
  }
}