{
  "header": {
    "version": 4,
    "description": "Karaoke Mugen Karaoke Data File"
  },
  "medias": [
    {
      "version": "Default",
      "filename": "JPN - Persona ~Trinity Soul~ - OP1 - Breakin' through.mp4",
      "audiogain": -1.05,
      "loudnorm": "-16.06,-7.43,2.40,-26.09,-0.56",
      "filesize": 14058125,
      "duration": 90,
      "default": true,
      "lyrics": [
        {
          "filename": "JPN - Persona ~Trinity Soul~ - OP1 - Breakin' through.ass",
          "default": true,
          "version": "Default",
          "subchecksum": "d84c9c1c46ad7e5dae895bdd73de2d5c"
        }
      ]
    }
  ],
  "data": {
    "created_at": "2017-10-11T17:02:46.000Z",
    "kid": "4f004677-e80a-4ad3-b35a-a1c602d3459a",
    "modified_at": "2021-02-25T12:45:20.152Z",
    "repository": "kara.moe",
    "songorder": 1,
    "tags": {
      "authors": [
        "5bdaba57-27f8-4568-8806-76a807728766"
      ],
      "collections": [
        "c7db86a0-ff64-4044-9be4-66dd1ef1d1c1"
      ],
      "creators": [
        "b96e3686-bbe0-4b9e-815a-a278d5ff31be"
      ],
      "families": [
        "0377db02-3af6-43b8-9b08-c759df3d25c3"
      ],
      "groups": [
        "3c14c864-533c-49e6-a3cc-6969f1233775"
      ],
      "langs": [
        "4dcf9614-7914-42aa-99f4-dbce2e059133"
      ],
      "origins": [
        "938de218-5343-4865-94d3-fb33f2eaa152"
      ],
      "series": [
        "706217a6-fb0d-4f78-802b-3f63ec0e126f"
      ],
      "singers": [
        "37f5341e-43f5-4578-93e5-c3fbc07d18c3"
      ],
      "songtypes": [
        "f02ad9b3-0bd9-4aad-85b3-9976739ba0e4"
      ],
      "songwriters": [
        "23f1e99f-3964-44cf-b36a-de1341b1f213",
        "8f0ed10d-bd65-4b59-a51b-82cac587bbfa"
      ],
      "franchises": [
        "d8030743-4563-41b9-a3e3-30a0b2fb2edb"
      ]
    },
    "title": "Breakin' through",
    "titles": {
      "eng": "Breakin' through"
    },
    "year": 2008,
    "titles_default_language": "eng"
  }
}