{
  "header": {
    "version": 4,
    "description": "Karaoke Mugen Karaoke Data File"
  },
  "medias": [
    {
      "version": "Default",
      "filename": "JPN - Okane ga Nai! - OVA OP - Romance Way.avi",
      "audiogain": -7.14,
      "loudnorm": "-10.00,-0.02,5.60,-20.27,-0.91",
      "filesize": 30990852,
      "duration": 91,
      "default": true,
      "lyrics": [
        {
          "filename": "JPN - Okane ga Nai! - OVA OP - Romance Way.ass",
          "default": true,
          "version": "Default",
          "subchecksum": "9c3c4529688d9f830ed7ef6afd936d11"
        }
      ]
    }
  ],
  "data": {
    "created_at": "2017-10-11T17:01:44.000Z",
    "kid": "8f37a38a-e055-4e51-9728-e4f63a15dfdf",
    "modified_at": "2021-02-25T12:40:23.940Z",
    "repository": "kara.moe",
    "tags": {
      "authors": [
        "5bdaba57-27f8-4568-8806-76a807728766"
      ],
      "collections": [
        "c7db86a0-ff64-4044-9be4-66dd1ef1d1c1"
      ],
      "creators": [
        "e05981b7-88da-43d8-875d-554172d057ec"
      ],
      "families": [
        "0377db02-3af6-43b8-9b08-c759df3d25c3"
      ],
      "genres": [
        "724d2d80-a531-4579-bdaf-4a0db9a313d9"
      ],
      "groups": [
        "3c14c864-533c-49e6-a3cc-6969f1233775"
      ],
      "langs": [
        "4dcf9614-7914-42aa-99f4-dbce2e059133"
      ],
      "origins": [
        "2a6ef087-a000-4f8e-aeb5-9a7968756a36"
      ],
      "series": [
        "8887a57d-44ea-4eaa-b957-de3f86cb5283"
      ],
      "singers": [
        "8f741184-3c77-477f-a9e0-23179b5a8782"
      ],
      "songtypes": [
        "f02ad9b3-0bd9-4aad-85b3-9976739ba0e4"
      ],
      "songwriters": [
        "8f741184-3c77-477f-a9e0-23179b5a8782"
      ]
    },
    "title": "Romance Way",
    "titles": {
      "eng": "Romance way"
    },
    "year": 2007,
    "titles_default_language": "eng"
  }
}