{
  "header": {
    "version": 4,
    "description": "Karaoke Mugen Karaoke Data File"
  },
  "medias": [
    {
      "version": "Default",
      "filename": "JPN - Re ZERO Starting Life in Another World The Prophecy of the Throne - GAME SWITCH OP - Reline.mp4",
      "audiogain": -9.46,
      "loudnorm": "-6.40,1.17,2.00,-16.60,-0.28",
      "filesize": 98501209,
      "duration": 98,
      "default": true,
      "lyrics": [
        {
          "filename": "JPN - Re ZERO Starting Life in Another World The Prophecy of the Throne - GAME SWITCH OP - Reline.ass",
          "default": true,
          "version": "Default"
        }
      ]
    }
  ],
  "data": {
    "created_at": "2022-12-08T17:20:00.340Z",
    "ignoreHooks": false,
    "kid": "250cfb22-87cf-4449-bc7b-1cf19c0c6af2",
    "modified_at": "2022-12-08T17:23:49.480Z",
    "repository": "kara.moe",
    "tags": {
      "authors": [
        "96288f85-e1fe-4b30-8003-999b98707e59"
      ],
      "collections": [
        "c7db86a0-ff64-4044-9be4-66dd1ef1d1c1"
      ],
      "creators": [
        "8b91b9b3-760c-464d-b899-871b8a158be5",
        "930330fc-79d4-464b-86d7-72cf60716fc6"
      ],
      "families": [
        "dbedd6b3-d125-4cd8-aa32-c4175e4ca3a3"
      ],
      "genres": [
        "4b80eca6-f44f-4262-a8d0-b6879d6b70cb"
      ],
      "groups": [
        "8e209ae4-4381-438f-89dc-1b21752027d2"
      ],
      "langs": [
        "4dcf9614-7914-42aa-99f4-dbce2e059133"
      ],
      "origins": [
        "2f96e82c-c61b-4413-817e-e6b247509b95"
      ],
      "platforms": [
        "0a880bfc-d0e5-448b-98d2-4ba7b3106641",
        "248d92ee-8c02-43bc-86e2-cc6029883564",
        "3c15f758-e1bc-4266-8bb9-3c14112f504a"
      ],
      "series": [
        "8cdbf512-e8dd-420d-bf6d-ec476c265f35"
      ],
      "singers": [
        "c250b430-d384-46da-a0bb-594ba061b8a6"
      ],
      "songtypes": [
        "f02ad9b3-0bd9-4aad-85b3-9976739ba0e4"
      ],
      "songwriters": [
        "c5a951cb-53d8-4472-ac1d-9f31a38fdb2f",
        "e4be2734-71a0-4cb8-9cf4-e172073f03d3"
      ],
      "franchises": [
        "6339add6-b9a3-46c4-9488-2660caa30487"
      ]
    },
    "titles": {
      "qro": "Reline"
    },
    "titles_default_language": "qro",
    "year": 2021
  }
}