{
  "header": {
    "version": 4,
    "description": "Karaoke Mugen Karaoke Data File"
  },
  "medias": [
    {
      "version": "Default",
      "filename": "JPN - KANA-BOON - AUDIO - Kimi to Iu Hana ~ Cover Vers.mp3",
      "audiogain": -9.72,
      "loudnorm": "-6.98,2.05,2.80,-16.98,-0.64",
      "filesize": 6159131,
      "duration": 370,
      "default": true,
      "lyrics": [
        {
          "filename": "JPN - KANA-BOON - AUDIO - Kimi to Iu Hana ~ Cover Vers.ass",
          "default": true,
          "version": "Default",
          "subchecksum": "32bbc0a5d4c29afbc0f36cef800d1042"
        }
      ]
    }
  ],
  "data": {
    "created_at": "2020-04-19T20:22:38.343Z",
    "kid": "930c4866-7bcd-4f9c-855f-65f02729fa56",
    "modified_at": "2021-05-15T16:29:07.658Z",
    "repository": "kara.moe",
    "tags": {
      "authors": [
        "60defa7b-774e-4680-8321-51b742c2e009"
      ],
      "collections": [
        "c7db86a0-ff64-4044-9be4-66dd1ef1d1c1"
      ],
      "creators": [
        "6df34030-d5ec-4480-a1c2-20103a7c0b63"
      ],
      "groups": [
        "60defa7b-774e-4680-8321-51b742c2e009",
        "ae613721-1fbe-480d-ba6b-d6d0702b184d"
      ],
      "langs": [
        "4dcf9614-7914-42aa-99f4-dbce2e059133"
      ],
      "misc": [
        "86705d4b-24e4-4756-9687-2b9c98bcf366"
      ],
      "singers": [
        "f643201d-124a-46e7-9599-7d9d31b668d5"
      ],
      "songtypes": [
        "42a262ae-acba-4ab5-a446-c5789c96c821"
      ],
      "songwriters": [
        "8bede077-b96f-415c-8057-552e236fe01a"
      ],
      "versions": [
        "03e1e1d2-8641-47b7-bbcb-39a3df9ff21c"
      ]
    },
    "title": "Kimi to Iu Hana",
    "titles": {
      "qro": "Kimi to Iu Hana",
      "jpn": " 君という花"
    },
    "year": 2017,
    "titles_default_language": "qro"
  }
}