{
  "header": {
    "version": 4,
    "description": "Karaoke Mugen Karaoke Data File"
  },
  "medias": [
    {
      "version": "Default",
      "filename": "JPN - Aikatsu Stars! - OP1 - Start Line!.mp4",
      "audiogain": 1.11,
      "loudnorm": "-19.30,-9.83,8.10,-29.49,-0.89",
      "filesize": 53782004,
      "duration": 91,
      "default": true,
      "lyrics": [
        {
          "filename": "JPN - Aikatsu Stars! - OP1 - Start Line!.ass",
          "default": true,
          "version": "Default",
          "subchecksum": "fe8f15846f07d4fc7270248658e77ced"
        }
      ]
    }
  ],
  "data": {
    "created_at": "2018-10-13T12:12:55.000Z",
    "kid": "5c7eee22-a55f-497d-8672-2f3f71868c64",
    "modified_at": "2021-02-25T10:37:49.350Z",
    "repository": "kara.moe",
    "songorder": 1,
    "tags": {
      "authors": [
        "b5116310-e69b-4ed4-9e47-c5c53ee69023"
      ],
      "collections": [
        "c7db86a0-ff64-4044-9be4-66dd1ef1d1c1"
      ],
      "creators": [
        "4d17b0cf-92fd-4ab3-8035-8a260a772e51"
      ],
      "families": [
        "0377db02-3af6-43b8-9b08-c759df3d25c3"
      ],
      "genres": [
        "caa86df2-0d59-474b-885c-f240a9e891b0"
      ],
      "groups": [
        "ae613721-1fbe-480d-ba6b-d6d0702b184d"
      ],
      "langs": [
        "4dcf9614-7914-42aa-99f4-dbce2e059133"
      ],
      "origins": [
        "938de218-5343-4865-94d3-fb33f2eaa152"
      ],
      "series": [
        "8662068a-0e26-432e-9341-f695888d7214"
      ],
      "singers": [
        "71b806f7-02e2-40e1-b343-3e3bddb331e6",
        "fdd32f52-27f4-4df9-9e1d-92cdba1833d4"
      ],
      "songtypes": [
        "f02ad9b3-0bd9-4aad-85b3-9976739ba0e4"
      ],
      "songwriters": [
        "66398329-540a-4fbd-bd95-4d1ee5d10ccf",
        "7e72484d-b638-4d9a-95f2-5947c59d721b"
      ],
      "franchises": [
        "2ed8f878-186e-4108-a152-c607efbcfcb2"
      ]
    },
    "title": "Start Line!",
    "titles": {
      "eng": "Start Line!",
      "jpn": "スタートライン!"
    },
    "year": 2016,
    "titles_default_language": "eng"
  }
}