{
  "header": {
    "version": 4,
    "description": "Karaoke Mugen Karaoke Data File"
  },
  "medias": [
    {
      "version": "Default",
      "filename": "JPN - Zombieland Saga Revenge - IN - Ika no Tamashii Muda ni wa Shinai ~Kojima Shokuhin Koujou Kabushikigaisha Shaka~.mp4",
      "audiogain": -1.3,
      "loudnorm": "-17.06,-3.59,4.60,-27.28,-0.96",
      "filesize": 27794593,
      "duration": 91,
      "default": true,
      "lyrics": [
        {
          "filename": "JPN - Zombieland Saga Revenge - IN - Ika no Tamashii Muda ni wa Shinai ~Kojima Shokuhin Koujou Kabushikigaisha Shaka~.ass",
          "default": true,
          "version": "Default"
        }
      ]
    }
  ],
  "data": {
    "created_at": "2021-06-27T19:03:59.668Z",
    "kid": "1ca947dd-168d-4a98-969e-13d980de5c3a",
    "modified_at": "2021-11-27T16:10:31.499Z",
    "repository": "kara.moe",
    "tags": {
      "authors": [
        "1631228b-9125-497a-aafc-66f920a44a02"
      ],
      "collections": [
        "c7db86a0-ff64-4044-9be4-66dd1ef1d1c1"
      ],
      "creators": [
        "0a86e9ea-5e17-4371-8f2a-60c818324d58"
      ],
      "families": [
        "0377db02-3af6-43b8-9b08-c759df3d25c3"
      ],
      "groups": [
        "8c22c899-b3ed-42da-a548-ce00f950798b",
        "8e209ae4-4381-438f-89dc-1b21752027d2"
      ],
      "langs": [
        "4dcf9614-7914-42aa-99f4-dbce2e059133"
      ],
      "origins": [
        "938de218-5343-4865-94d3-fb33f2eaa152"
      ],
      "series": [
        "7710df0b-8906-4282-9f59-3ef39c7accd5"
      ],
      "singers": [
        "014c7498-5c8c-42e3-b97f-7d022bbc0f08"
      ],
      "songtypes": [
        "5e5250d9-351a-4a82-98eb-55db50ad8962"
      ],
      "songwriters": [
        "1498e794-7325-4902-aa0f-aec73bf4af07"
      ],
      "franchises": [
        "8d73a7d5-dc57-4e08-9a54-1b79364c2e0b"
      ]
    },
    "titles": {
      "qro": "Ika no Tamashii Muda ni wa Shinai ~Kojima Shokuhin Kôjô Kabushikigaisha Shaka~",
      "jpn": " イカの魂無駄にはしない~小島食品工場株式会社社歌~"
    },
    "title": "Ika no Tamashii Muda ni wa Shinai ~Kojima Shokuhin Kôjô Kabushikigaisha Shaka~",
    "year": 2021,
    "titles_default_language": "qro"
  }
}