{
  "header": {
    "version": 4,
    "description": "Karaoke Mugen Karaoke Data File"
  },
  "medias": [
    {
      "version": "Default",
      "filename": "JPN - Tenchi Souzou Design-bu - ED - DESIGNED BY HEAVEN!.mp4",
      "audiogain": -3.11,
      "loudnorm": "-14.58,-4.00,3.00,-24.64,-0.26",
      "filesize": 21629853,
      "duration": 88,
      "default": true,
      "lyrics": [
        {
          "filename": "JPN - Tenchi Souzou Design-bu - ED - DESIGNED BY HEAVEN!.ass",
          "default": true,
          "version": "Default"
        }
      ]
    }
  ],
  "data": {
    "created_at": "2022-06-26T14:49:15.708Z",
    "ignoreHooks": false,
    "kid": "f5836c87-e95e-48e1-bd0e-4f5013842705",
    "modified_at": "2022-06-26T15:48:11.054Z",
    "repository": "kara.moe",
    "tags": {
      "authors": [
        "ee8628c8-9b7f-415b-bc0d-9b712d5daf8c"
      ],
      "collections": [
        "c7db86a0-ff64-4044-9be4-66dd1ef1d1c1"
      ],
      "creators": [
        "b48f634d-00cf-46f1-8a64-a9696a3d3b32"
      ],
      "families": [
        "0377db02-3af6-43b8-9b08-c759df3d25c3"
      ],
      "groups": [
        "8e209ae4-4381-438f-89dc-1b21752027d2"
      ],
      "langs": [
        "4dcf9614-7914-42aa-99f4-dbce2e059133"
      ],
      "origins": [
        "938de218-5343-4865-94d3-fb33f2eaa152"
      ],
      "series": [
        "587dd2f7-ce34-4e3a-9303-5674e638e76c"
      ],
      "singers": [
        "06e8a716-74ae-4ccc-843f-21a9a8927a36",
        "08bfd717-9f49-4dbd-8037-5a750964fda8",
        "2e111d0f-9e9a-4005-a85f-d1084f94bb1d",
        "37e60254-e1a6-402d-9c70-b0fe11919cc7",
        "8955600f-ac9a-49f7-a6cd-fcba5f24acbb",
        "9bdf3363-b8b1-4ae3-82d9-41a7a1527eee",
        "a80c4ddc-4b7a-4978-8fbc-745db636c4d1",
        "c5855fd3-6424-48a7-879a-1a8471d8fc6c",
        "ef0cbfb4-52f3-4b33-b8b9-bef518530e47",
        "f3362be6-9209-4426-b39b-226f1eaabab1"
      ],
      "songtypes": [
        "38c77c56-2b95-4040-b676-0994a8cb0597"
      ],
      "songwriters": [
        "ab810184-53f6-43f5-9133-ffeeb4f5d7e5"
      ]
    },
    "titles": {
      "eng": "DESIGNED BY HEAVEN!"
    },
    "titles_default_language": "eng",
    "title": "DESIGNED BY HEAVEN!",
    "year": 2021
  }
}