{
  "header": {
    "version": 4,
    "description": "Karaoke Mugen Karaoke Data File"
  },
  "medias": [
    {
      "version": "Default",
      "filename": "JPN - Princess Bride - GAME OP - Princess Bride!.mp4",
      "audiogain": -9.7,
      "loudnorm": "-8.18,2.42,4.70,-18.32,-0.88",
      "filesize": 4829825,
      "duration": 130,
      "default": true,
      "lyrics": [
        {
          "filename": "JPN - Princess Bride - GAME OP - Princess Bride!.ass",
          "default": true,
          "version": "Default"
        }
      ]
    }
  ],
  "data": {
    "created_at": "2019-06-14T22:59:14.000Z",
    "ignoreHooks": false,
    "kid": "284fb1a3-cec6-461c-8766-b2a728488e8b",
    "modified_at": "2022-08-01T11:04:32.577Z",
    "repository": "kara.moe",
    "tags": {
      "authors": [
        "2b4e9972-5e17-481b-99f5-d0787c0ada56"
      ],
      "collections": [
        "c7db86a0-ff64-4044-9be4-66dd1ef1d1c1"
      ],
      "creators": [
        "a98dcfa8-1904-4320-aae5-8aefec6cffca"
      ],
      "families": [
        "dbedd6b3-d125-4cd8-aa32-c4175e4ca3a3"
      ],
      "groups": [
        "2b4e9972-5e17-481b-99f5-d0787c0ada56",
        "3c14c864-533c-49e6-a3cc-6969f1233775"
      ],
      "langs": [
        "4dcf9614-7914-42aa-99f4-dbce2e059133"
      ],
      "origins": [
        "2f96e82c-c61b-4413-817e-e6b247509b95"
      ],
      "series": [
        "4168d7ae-ff3c-4073-8df6-19fd7ed8e457"
      ],
      "singers": [
        "06c618ba-0261-4ad5-9a40-e2d31ef6c330"
      ],
      "songtypes": [
        "f02ad9b3-0bd9-4aad-85b3-9976739ba0e4"
      ],
      "songwriters": [
        "06c618ba-0261-4ad5-9a40-e2d31ef6c330",
        "a5f4fa0f-a370-4758-95bb-df3bf2b832fe"
      ],
      "warnings": [
        "e82ce681-6d7b-4fb6-abe4-daa8aaa9bbf9"
      ]
    },
    "titles": {
      "eng": "Princess Bride!"
    },
    "titles_default_language": "eng",
    "title": "Princess Bride!",
    "year": 2003
  }
}