{
  "header": {
    "version": 4,
    "description": "Karaoke Mugen Karaoke Data File"
  },
  "medias": [
    {
      "version": "Default",
      "filename": "JPN - Love Live! Sunshine!! - LIVE - No.10 ~ Full Vers.mp4",
      "audiogain": -7.3,
      "loudnorm": "-9.36,0.43,7.10,-19.60,-0.81",
      "filesize": 360134248,
      "duration": 330,
      "default": true,
      "lyrics": [
        {
          "filename": "JPN - Love Live! Sunshine!! - LIVE - No.10 ~ Full Vers.ass",
          "default": true,
          "version": "Default"
        }
      ]
    }
  ],
  "data": {
    "created_at": "2022-07-04T22:33:12.073Z",
    "ignoreHooks": false,
    "kid": "c98c9b05-ac7e-45e8-a907-1137a73984ad",
    "modified_at": "2022-11-15T18:31:41.325Z",
    "repository": "kara.moe",
    "tags": {
      "authors": [
        "449844e4-3a1f-46e1-8a92-bf72e2d1b6f1"
      ],
      "collections": [
        "dbcf2c22-524d-4708-99bb-601703633927"
      ],
      "creators": [
        "b2805292-730e-473a-96f0-fd8e7ffd1fd7"
      ],
      "families": [
        "5391f9fe-638c-415f-8dc9-958e3a2c5787"
      ],
      "genres": [
        "caa86df2-0d59-474b-885c-f240a9e891b0"
      ],
      "groups": [
        "ae613721-1fbe-480d-ba6b-d6d0702b184d"
      ],
      "langs": [
        "4dcf9614-7914-42aa-99f4-dbce2e059133"
      ],
      "misc": [
        "86705d4b-24e4-4756-9687-2b9c98bcf366"
      ],
      "series": [
        "63466536-1102-4f91-b167-4380d274e2a3"
      ],
      "singers": [
        "0bbc3f71-4849-4e38-9980-2331d0293168",
        "18b9be9d-c627-47d1-ab88-56201f59a609",
        "2dcdc517-a816-496e-8bc8-8ce976e608c4",
        "5db2e941-73cc-4374-af8e-a078458645ca",
        "81f96b53-701d-4886-80ba-71f256e051a2",
        "8f1cdf03-baf0-4294-bfdf-fdeedcdbeac5",
        "9cd8d2dd-4328-4186-9d11-d5b021ae9fc0",
        "b4084895-9bbd-426a-8384-feef794ca53c",
        "e3ef4054-6292-4b5f-ad14-1008bae5e375"
      ],
      "singergroups": [
        "b34161c7-a60d-4f1a-8436-11abc0875436"
      ],
      "songtypes": [
        "a0167949-580c-4de3-bf13-497e462e02f3"
      ],
      "songwriters": [
        "2c7a749c-da9e-4469-9607-8e2db15e59b7",
        "370a02b3-b23f-4d24-a201-6ef5e660bad7",
        "f41e7218-6c19-4e19-9b5f-4612dcd58243"
      ],
      "versions": [
        "c2143a7f-6970-450e-8a79-0302db9220a9"
      ],
      "franchises": [
        "fd5d066e-e85a-4eea-8688-2979a887450a"
      ]
    },
    "titles": {
      "eng": "No.10"
    },
    "titles_default_language": "eng",
    "year": 2019
  }
}