{
  "header": {
    "version": 4,
    "description": "Karaoke Mugen Karaoke Data File"
  },
  "medias": [
    {
      "version": "Sedeto. bis",
      "filename": "JPN - Sakura Taisen - STREAM - Geki! Teikoku Kagekidan ~ Sedeto Vers. bis ~ Cover Vers.mp4",
      "audiogain": 12.51,
      "loudnorm": "-32.84,-17.90,9.80,-44.01,-0.74",
      "filesize": 52401778,
      "duration": 89,
      "default": true,
      "lyrics": [
        {
          "filename": "JPN - Sakura Taisen - STREAM - Geki! Teikoku Kagekidan ~ Sedeto Vers. bis ~ Cover Vers.ass",
          "default": true,
          "version": "Default"
        }
      ]
    }
  ],
  "data": {
    "created_at": "2021-07-23T23:08:09.415Z",
    "kid": "4ab8d309-33a1-498f-9698-d5eb6c7c5fac",
    "modified_at": "2021-12-27T17:46:34.911Z",
    "parents": [
      "a5d4a23e-7ba6-41b1-a701-491e84feab6a"
    ],
    "repository": "kara.moe",
    "tags": {
      "authors": [
        "71fa8328-ef48-4a8c-a965-7db0f182d05d"
      ],
      "collections": [
        "c7db86a0-ff64-4044-9be4-66dd1ef1d1c1"
      ],
      "creators": [
        "ba237226-a5bf-4192-a598-ca6494779b03"
      ],
      "families": [
        "0377db02-3af6-43b8-9b08-c759df3d25c3"
      ],
      "groups": [
        "8c22c899-b3ed-42da-a548-ce00f950798b",
        "8e209ae4-4381-438f-89dc-1b21752027d2"
      ],
      "langs": [
        "4dcf9614-7914-42aa-99f4-dbce2e059133"
      ],
      "origins": [
        "5106d71b-a78e-4d19-a16d-f8fb6719538a"
      ],
      "series": [
        "3843ae35-0d40-4fef-9bda-0c222c2e5682"
      ],
      "singers": [
        "ba237226-a5bf-4192-a598-ca6494779b03"
      ],
      "songtypes": [
        "55ce3d79-dcc2-453c-b00a-60ce0c1eba1c"
      ],
      "songwriters": [
        "2461dcff-0d44-481a-9841-a8ae3e3d53db",
        "2d718c99-fcaf-494b-8216-06f2d66e66a5"
      ],
      "versions": [
        "03e1e1d2-8641-47b7-bbcb-39a3df9ff21c"
      ],
      "franchises": [
        "3843ae35-0d40-4fef-9bda-0c222c2e5682"
      ]
    },
    "titles": {
      "qro": "Geki! Teikoku Kagekidan ~ Sedeto Vers. bis",
      "jpn": "檄!帝国華撃団 ~ Sedeto Vers. bis"
    },
    "title": "Geki! Teikoku Kagekidan ~ Sedeto Vers. bis",
    "year": 2021,
    "titles_default_language": "qro"
  }
}