{
  "header": {
    "version": 4,
    "description": "Karaoke Mugen Karaoke Data File"
  },
  "medias": [
    {
      "version": "Default",
      "filename": "JPN - Magic Kaito 1412 - OP1 - Kimi no Matsu Sekai.mp4",
      "audiogain": -9.45,
      "loudnorm": "-7.49,0.30,3.20,-17.66,-0.88",
      "filesize": 42386552,
      "duration": 90,
      "default": true,
      "lyrics": [
        {
          "filename": "JPN - Magic Kaito 1412 - OP1 - Kimi no Matsu Sekai.ass",
          "default": true,
          "version": "Default",
          "subchecksum": "dfbe08015fd6144a13d98aa332e439ed"
        }
      ]
    }
  ],
  "data": {
    "created_at": "2017-10-11T17:02:36.000Z",
    "kid": "0818fa76-6d15-42a3-9bf7-ef98752c19ac",
    "modified_at": "2021-05-23T15:26:47.793Z",
    "repository": "kara.moe",
    "songorder": 1,
    "tags": {
      "authors": [
        "5bdaba57-27f8-4568-8806-76a807728766"
      ],
      "collections": [
        "c7db86a0-ff64-4044-9be4-66dd1ef1d1c1"
      ],
      "creators": [
        "b96e3686-bbe0-4b9e-815a-a278d5ff31be"
      ],
      "families": [
        "0377db02-3af6-43b8-9b08-c759df3d25c3"
      ],
      "groups": [
        "ae613721-1fbe-480d-ba6b-d6d0702b184d"
      ],
      "langs": [
        "4dcf9614-7914-42aa-99f4-dbce2e059133"
      ],
      "misc": [
        "fe819ff1-9db8-4a0f-85dc-0e322c9126c4"
      ],
      "origins": [
        "938de218-5343-4865-94d3-fb33f2eaa152"
      ],
      "series": [
        "00ae64ba-24f7-4fb3-aa4a-dd0831c77505"
      ],
      "singers": [
        "f0a5dccd-aa82-4489-bcf8-c2f7009f4c8f"
      ],
      "songtypes": [
        "f02ad9b3-0bd9-4aad-85b3-9976739ba0e4"
      ],
      "songwriters": [
        "2574f2c9-df9b-4997-bce5-02f2c72f4dfd",
        "8a9830d2-54cf-4180-b436-4a1df748176e"
      ],
      "franchises": [
        "96a91190-9bee-413e-843c-0d2508b1e329"
      ]
    },
    "title": "Kimi no Matsu Sekai",
    "titles": {
      "qro": "Kimi no Matsu Sekai",
      "jpn": "君の待つ世界"
    },
    "year": 2014,
    "titles_default_language": "qro"
  }
}