{
  "header": {
    "version": 4,
    "description": "Karaoke Mugen Karaoke Data File"
  },
  "medias": [
    {
      "version": "Default",
      "filename": "JPN - Monark - GAME SWITCH OP - Nihil.mp4",
      "audiogain": -0.38,
      "loudnorm": "-17.01,-7.24,6.40,-27.39,-1.20",
      "filesize": 99723408,
      "duration": 92,
      "default": true,
      "lyrics": [
        {
          "filename": "JPN - Monark - GAME SWITCH OP - Nihil.ass",
          "default": true,
          "version": "Default"
        }
      ]
    }
  ],
  "data": {
    "created_at": "2022-09-16T17:03:49.893Z",
    "ignoreHooks": false,
    "kid": "f7777772-44ed-4b25-8473-bb4805d72715",
    "modified_at": "2022-09-16T17:04:43.922Z",
    "repository": "kara.moe",
    "tags": {
      "authors": [
        "1631228b-9125-497a-aafc-66f920a44a02"
      ],
      "collections": [
        "c7db86a0-ff64-4044-9be4-66dd1ef1d1c1"
      ],
      "creators": [
        "907cc541-deab-45e6-bf9d-da523438f307"
      ],
      "families": [
        "dbedd6b3-d125-4cd8-aa32-c4175e4ca3a3"
      ],
      "groups": [
        "8c22c899-b3ed-42da-a548-ce00f950798b",
        "8e209ae4-4381-438f-89dc-1b21752027d2"
      ],
      "langs": [
        "4dcf9614-7914-42aa-99f4-dbce2e059133"
      ],
      "origins": [
        "5106d71b-a78e-4d19-a16d-f8fb6719538a"
      ],
      "platforms": [
        "0a880bfc-d0e5-448b-98d2-4ba7b3106641",
        "248d92ee-8c02-43bc-86e2-cc6029883564",
        "3c15f758-e1bc-4266-8bb9-3c14112f504a",
        "d22db878-440d-46c1-a749-ae575c78983d"
      ],
      "series": [
        "b0828c70-69ba-4a5e-922a-489d11add9c7"
      ],
      "singers": [
        "34fd5f54-8fd9-4a0e-b8eb-5653e21b03ec"
      ],
      "songtypes": [
        "f02ad9b3-0bd9-4aad-85b3-9976739ba0e4"
      ],
      "songwriters": [
        "babc6ded-0908-446f-b3a9-5066fea0e6dc"
      ]
    },
    "titles": {
      "eng": "Nihil",
      "jpn": "ニヒル"
    },
    "titles_default_language": "eng",
    "title": "Nihil",
    "year": 2021
  }
}