{
  "header": {
    "version": 4,
    "description": "Karaoke Mugen Karaoke Data File"
  },
  "medias": [
    {
      "version": "Default",
      "filename": "JPN - Kekkai Sensen - MV - Hello, world! ~ Full Vers.mp4",
      "audiogain": -11.23,
      "loudnorm": "-6.15,1.99,3.40,-16.19,-1.42",
      "filesize": 45049422,
      "duration": 262,
      "default": true,
      "lyrics": [
        {
          "filename": "JPN - Kekkai Sensen - MV - Hello, world! ~ Full Vers.ass",
          "default": true,
          "version": "Default"
        }
      ]
    }
  ],
  "data": {
    "created_at": "2020-04-19T22:03:01.961Z",
    "kid": "8b9d87bc-2ca9-409b-9158-c1d242a1e703",
    "modified_at": "2022-06-04T00:18:42.064Z",
    "parents": [
      "2c0ea5fd-b545-4704-ab1f-9aff90ce1587"
    ],
    "repository": "kara.moe",
    "songorder": null,
    "tags": {
      "authors": [
        "87096920-112f-485f-a310-04156cb4624d"
      ],
      "creators": [
        "6697d31b-7f60-4d11-b237-8eb72740fd8a"
      ],
      "families": [
        "5391f9fe-638c-415f-8dc9-958e3a2c5787"
      ],
      "groups": [
        "60defa7b-774e-4680-8321-51b742c2e009",
        "ae613721-1fbe-480d-ba6b-d6d0702b184d"
      ],
      "langs": [
        "4dcf9614-7914-42aa-99f4-dbce2e059133"
      ],
      "series": [
        "2df178ec-c2fd-41cb-a518-ab5c439b76f1"
      ],
      "singers": [
        "a027724c-6136-4dc1-b585-7ae8f780c8d2"
      ],
      "songtypes": [
        "7be1b15c-cff8-4b37-a649-5c90f3d569a9"
      ],
      "songwriters": [
        "20a392bf-0517-4d22-a08c-46345d1077fe"
      ],
      "versions": [
        "c2143a7f-6970-450e-8a79-0302db9220a9"
      ],
      "collections": [
        "dbcf2c22-524d-4708-99bb-601703633927"
      ],
      "franchises": [
        "2df178ec-c2fd-41cb-a518-ab5c439b76f1"
      ]
    },
    "titles": {
      "eng": "Hello, world!"
    },
    "titles_default_language": "eng",
    "title": "Hello, world!",
    "year": 2015
  }
}