{
  "header": {
    "version": 4,
    "description": "Karaoke Mugen Karaoke Data File"
  },
  "medias": [
    {
      "version": "Default",
      "filename": "JPN - Princess Connect! Re Dive - GAME ED - Re lation.mp4",
      "audiogain": 2.07,
      "loudnorm": "-19.76,-10.80,5.10,-30.01,-1.68",
      "filesize": 5892425,
      "duration": 67,
      "default": true,
      "lyrics": [
        {
          "filename": "JPN - Princess Connect! Re Dive - GAME ED - Re lation.ass",
          "default": true,
          "version": "Default"
        }
      ]
    }
  ],
  "data": {
    "created_at": "2021-07-03T23:07:50.590Z",
    "ignoreHooks": false,
    "kid": "54f98956-2e5b-4894-b11c-a5d00b38e14d",
    "modified_at": "2022-10-01T23:42:48.662Z",
    "repository": "kara.moe",
    "tags": {
      "authors": [
        "ba4c7606-1e96-4c45-8e21-d5103477336b"
      ],
      "collections": [
        "c7db86a0-ff64-4044-9be4-66dd1ef1d1c1"
      ],
      "creators": [
        "344cb973-3dac-4bac-b6b0-71243417856b"
      ],
      "families": [
        "dbedd6b3-d125-4cd8-aa32-c4175e4ca3a3"
      ],
      "groups": [
        "2b4e9972-5e17-481b-99f5-d0787c0ada56",
        "ae613721-1fbe-480d-ba6b-d6d0702b184d"
      ],
      "langs": [
        "4dcf9614-7914-42aa-99f4-dbce2e059133"
      ],
      "platforms": [
        "213a1a15-e73a-4a08-b3f6-b6e2745a82e5"
      ],
      "series": [
        "ab7828d2-8048-4392-bd92-4c8aed8d6089"
      ],
      "singers": [
        "c786a8e4-a740-4031-849e-c7aed853b0ea",
        "f2d7b99d-52df-4590-8828-7d89c44d9930"
      ],
      "songtypes": [
        "38c77c56-2b95-4040-b676-0994a8cb0597"
      ],
      "songwriters": [
        "c786a8e4-a740-4031-849e-c7aed853b0ea",
        "f2d7b99d-52df-4590-8828-7d89c44d9930"
      ],
      "franchises": [
        "ab7828d2-8048-4392-bd92-4c8aed8d6089"
      ]
    },
    "titles": {
      "eng": "Re:lation"
    },
    "titles_default_language": "eng",
    "titles_aliases": [
      "Relation"
    ],
    "title": "Re:lation",
    "year": 2019
  }
}