{
  "header": {
    "version": 4,
    "description": "Karaoke Mugen Karaoke Data File"
  },
  "medias": [
    {
      "version": "Kabe-Taijin & Nanami.",
      "filename": "JPN - Paripi Koumei - AUDIO ED - Kibun Joujou UpUp ~ Kabe-Taijin & Nanami Vers. ~ Cover Full Vers.mp3",
      "audiogain": -10.68,
      "loudnorm": "-7.07,-0.41,4.10,-17.16,-0.20",
      "filesize": 8327512,
      "duration": 231,
      "default": true,
      "lyrics": [
        {
          "filename": "JPN - Paripi Koumei - AUDIO ED - Kibun Joujou UpUp ~ Kabe-Taijin & Nanami Vers. ~ Cover Full Vers.ass",
          "default": true,
          "version": "Default"
        }
      ]
    }
  ],
  "data": {
    "created_at": "2022-09-11T12:38:56.971Z",
    "ignoreHooks": false,
    "kid": "d49f9bd4-d6cc-47cd-ade1-37d74384e69d",
    "modified_at": "2022-09-11T14:22:27.604Z",
    "parents": [
      "40cd9e3a-f371-4c11-b69a-1955928f9f7c"
    ],
    "repository": "kara.moe",
    "tags": {
      "authors": [
        "9cdf3b70-3550-457c-bdb9-038f3253c6ad"
      ],
      "collections": [
        "c7db86a0-ff64-4044-9be4-66dd1ef1d1c1"
      ],
      "creators": [
        "54259fe3-ce0c-4eca-855e-383f2c5be3a9"
      ],
      "families": [
        "0377db02-3af6-43b8-9b08-c759df3d25c3"
      ],
      "groups": [
        "2b4e9972-5e17-481b-99f5-d0787c0ada56",
        "8e209ae4-4381-438f-89dc-1b21752027d2"
      ],
      "langs": [
        "4dcf9614-7914-42aa-99f4-dbce2e059133"
      ],
      "misc": [
        "1d6ceadf-a885-47e5-b23b-c07bf668a424"
      ],
      "origins": [
        "938de218-5343-4865-94d3-fb33f2eaa152"
      ],
      "series": [
        "cee09d3c-75e6-4501-9fda-cb4a6b4755c7"
      ],
      "singers": [
        "32c304d7-49ff-482f-a586-7223aba33639",
        "a2456f57-e751-4761-9440-91a986997e92",
        "ac62e72e-fa3f-475c-b2ab-05e4fc65f31a",
        "ddd17e71-911e-4df4-b414-5dce382a6af0"
      ],
      "songtypes": [
        "38c77c56-2b95-4040-b676-0994a8cb0597",
        "42a262ae-acba-4ab5-a446-c5789c96c821"
      ],
      "songwriters": [
        "18b06c3d-62b8-421b-8e51-f3a07a16487b",
        "7c57935d-4ec3-45fe-a636-1c6de1a9e036",
        "d333281f-ec6a-4c0e-ae26-fd5c97fa10ff",
        "de1e3398-5529-4f8b-b9f8-8b88bb5d59b3",
        "f461dca9-d025-49eb-b211-435ca67dc681"
      ],
      "versions": [
        "03e1e1d2-8641-47b7-bbcb-39a3df9ff21c",
        "c2143a7f-6970-450e-8a79-0302db9220a9"
      ]
    },
    "titles": {
      "jpn": "気分上々↑↑ ~ KABE太人 & 七海 Vers.",
      "qro": "Kibun Jôjô ￪￪ ~ Kabe-Taijin & Nanami Vers."
    },
    "titles_default_language": "qro",
    "titles_aliases": [
      "Joujou",
      "Joujô"
    ],
    "title": "Kibun Jôjô ￪￪ ~ Kabe-Taijin & Nanami Vers.",
    "year": 2022
  }
}