{
  "header": {
    "version": 4,
    "description": "Karaoke Mugen Karaoke Data File"
  },
  "medias": [
    {
      "version": "Default",
      "filename": "JPN - Jinzou Ningen Kikaider - OP - Go Go Kikaider.mp4",
      "audiogain": 3.37,
      "loudnorm": "-20.64,-9.29,1.80,-30.64,-0.60",
      "filesize": 17995882,
      "duration": 44,
      "default": true,
      "lyrics": [
        {
          "filename": "JPN - Jinzou Ningen Kikaider - OP - Go Go Kikaider.ass",
          "default": true,
          "version": "Default",
          "subchecksum": "cf290656ae1192bbdf2c1391cd8093d5"
        }
      ]
    }
  ],
  "data": {
    "created_at": "2021-01-13T17:50:55.224Z",
    "kid": "b3e55972-4899-44eb-83ce-062322312da0",
    "modified_at": "2021-02-25T11:48:52.566Z",
    "repository": "kara.moe",
    "tags": {
      "authors": [
        "4607780c-f1ef-47cf-9c1c-b13e8f731699"
      ],
      "collections": [
        "c7db86a0-ff64-4044-9be4-66dd1ef1d1c1"
      ],
      "creators": [
        "e32b14df-502b-45fa-9ca5-37554a63a4d7"
      ],
      "families": [
        "5391f9fe-638c-415f-8dc9-958e3a2c5787"
      ],
      "groups": [
        "57e5e0c0-e02e-4871-a6cb-d48ea604ebab"
      ],
      "langs": [
        "4dcf9614-7914-42aa-99f4-dbce2e059133"
      ],
      "origins": [
        "938de218-5343-4865-94d3-fb33f2eaa152",
        "d3fac9ab-630d-402d-a392-3d2450c3e62e"
      ],
      "series": [
        "033680bc-3991-4c4d-9099-ad78a79c594b"
      ],
      "singers": [
        "802893d4-88b9-492c-b75d-c006e8de53a7",
        "9d8a7c8a-89b8-40a7-80f6-35826f3718c9"
      ],
      "songtypes": [
        "f02ad9b3-0bd9-4aad-85b3-9976739ba0e4"
      ],
      "songwriters": [
        "2740545b-049c-4992-ab1c-4a0e039f93fe",
        "d7ba6db9-164d-451c-a74b-ceb9c5435fe3"
      ]
    },
    "title": "Go Go Kikaider",
    "titles": {
      "qro": "Go Go Kikaider",
      "jpn": "ゴーゴー・キカイダー"
    },
    "year": 1972,
    "titles_default_language": "qro"
  }
}