{
  "header": {
    "version": 4,
    "description": "Karaoke Mugen Karaoke Data File"
  },
  "medias": [
    {
      "version": "Default",
      "filename": "JPN - Arata Kangatari - OP - Genesis Aria.mp4",
      "audiogain": 0.25,
      "loudnorm": "-18.08,-6.58,5.40,-28.19,-1.25",
      "filesize": 34403694,
      "duration": 93,
      "default": true,
      "lyrics": [
        {
          "filename": "JPN - Arata Kangatari - OP - Genesis Aria.ass",
          "default": true,
          "version": "Default",
          "subchecksum": "90f39f34c5754e9f4aa7cb3f73ce0114"
        }
      ]
    }
  ],
  "data": {
    "created_at": "2017-10-11T17:02:53.000Z",
    "kid": "b58155ac-a219-4f69-84a2-603306aa08d0",
    "modified_at": "2021-02-25T10:45:46.857Z",
    "repository": "kara.moe",
    "tags": {
      "authors": [
        "5bdaba57-27f8-4568-8806-76a807728766"
      ],
      "collections": [
        "c7db86a0-ff64-4044-9be4-66dd1ef1d1c1"
      ],
      "creators": [
        "0041fabf-4b82-4ecd-961b-e4c49b8c88be"
      ],
      "families": [
        "0377db02-3af6-43b8-9b08-c759df3d25c3"
      ],
      "groups": [
        "ae613721-1fbe-480d-ba6b-d6d0702b184d"
      ],
      "langs": [
        "4dcf9614-7914-42aa-99f4-dbce2e059133"
      ],
      "misc": [
        "fe819ff1-9db8-4a0f-85dc-0e322c9126c4"
      ],
      "origins": [
        "938de218-5343-4865-94d3-fb33f2eaa152"
      ],
      "series": [
        "db436e38-c885-485f-bac9-96a21dfd36fc"
      ],
      "singers": [
        "256792ea-599e-41d8-98cd-9023a4e6c422"
      ],
      "songtypes": [
        "f02ad9b3-0bd9-4aad-85b3-9976739ba0e4"
      ],
      "songwriters": [
        "36ed7846-c93a-4e89-b677-34c3a8371964",
        "400922df-5396-43ea-a338-90771426a74f"
      ]
    },
    "title": "Genesis Aria",
    "titles": {
      "eng": "GENESIS ARIA"
    },
    "year": 2013,
    "titles_default_language": "eng"
  }
}