{
  "header": {
    "version": 4,
    "description": "Karaoke Mugen Karaoke Data File"
  },
  "medias": [
    {
      "version": "Default",
      "filename": "JPN - 96Neko - REMIX GAME STREAM - Osakana tengoku ~ Cover Vers.mp4",
      "audiogain": -0.79,
      "loudnorm": "-17.72,-0.41,6.90,-27.82,-1.03",
      "filesize": 227526156,
      "duration": 257,
      "default": true,
      "lyrics": [
        {
          "filename": "JPN - 96Neko - REMIX GAME STREAM - Osakana tengoku ~ Cover Vers.ass",
          "default": true,
          "version": "Default"
        }
      ]
    }
  ],
  "data": {
    "created_at": "2022-01-18T14:08:18.104Z",
    "ignoreHooks": false,
    "kid": "18a43ce0-d61a-4ddf-8324-b94cd01ff088",
    "modified_at": "2022-01-18T14:08:18.105Z",
    "repository": "kara.moe",
    "tags": {
      "authors": [
        "84157b43-8a7a-482c-95d3-516757353835"
      ],
      "collections": [
        "c7db86a0-ff64-4044-9be4-66dd1ef1d1c1"
      ],
      "families": [
        "dbedd6b3-d125-4cd8-aa32-c4175e4ca3a3"
      ],
      "groups": [
        "8e209ae4-4381-438f-89dc-1b21752027d2"
      ],
      "langs": [
        "4dcf9614-7914-42aa-99f4-dbce2e059133"
      ],
      "misc": [
        "ec4360fa-3e3c-4f6f-b0e1-fb8b12b6dd18"
      ],
      "origins": [
        "5106d71b-a78e-4d19-a16d-f8fb6719538a"
      ],
      "singers": [
        "32c304d7-49ff-482f-a586-7223aba33639"
      ],
      "songtypes": [
        "55ce3d79-dcc2-453c-b00a-60ce0c1eba1c"
      ],
      "songwriters": [
        "6bcb8b50-2d48-45b6-b8c6-85a201f1a7b1",
        "c5fcd28f-0b5d-4469-bf59-f67b3d7698dc"
      ],
      "versions": [
        "03e1e1d2-8641-47b7-bbcb-39a3df9ff21c"
      ]
    },
    "titles": {
      "qro": "Osakana Tengoku",
      "jpn": "おさかな天国"
    },
    "title": "Osakana tengoku",
    "year": 2021,
    "titles_default_language": "qro"
  }
}