{
  "header": {
    "version": 4,
    "description": "Karaoke Mugen Karaoke Data File"
  },
  "medias": [
    {
      "version": "Default",
      "filename": "JPN - Zombieland Saga Revenge - IN - REVENGE.mp4",
      "audiogain": 1.76,
      "loudnorm": "-19.45,-6.98,4.50,-29.48,-0.61",
      "filesize": 77088557,
      "duration": 250,
      "default": true,
      "lyrics": [
        {
          "filename": "JPN - Zombieland Saga Revenge - IN - REVENGE.ass",
          "default": true,
          "version": "Default"
        }
      ]
    }
  ],
  "data": {
    "created_at": "2021-07-19T22:22:29.427Z",
    "kid": "85d0d21f-f84a-4f86-989e-b083cbb58a2a",
    "modified_at": "2021-09-04T00:03:01.544Z",
    "repository": "kara.moe",
    "tags": {
      "authors": [
        "18fd6fb8-e71a-4abb-bae3-431ebb623fe8"
      ],
      "collections": [
        "c7db86a0-ff64-4044-9be4-66dd1ef1d1c1"
      ],
      "creators": [
        "0a86e9ea-5e17-4371-8f2a-60c818324d58"
      ],
      "families": [
        "0377db02-3af6-43b8-9b08-c759df3d25c3"
      ],
      "groups": [
        "8e209ae4-4381-438f-89dc-1b21752027d2"
      ],
      "langs": [
        "4dcf9614-7914-42aa-99f4-dbce2e059133"
      ],
      "origins": [
        "938de218-5343-4865-94d3-fb33f2eaa152"
      ],
      "series": [
        "7710df0b-8906-4282-9f59-3ef39c7accd5"
      ],
      "singers": [
        "1c0c11e8-e365-4c49-b7cb-ab9ca077560d",
        "296a7e5c-acf6-4459-938f-ba3cbfa957f9",
        "29774a6a-2bba-440d-b7e2-d033a3cca0cc",
        "6181ba3a-4b14-4fab-bbe9-0fa4147a6072",
        "f335316b-fad2-44bc-bc41-717f11ed454e",
        "f4dad5ba-e4b8-464d-98da-7002b9806862",
        "f574b547-1b37-4072-848c-93562d7a09d8"
      ],
      "songtypes": [
        "5e5250d9-351a-4a82-98eb-55db50ad8962"
      ],
      "songwriters": [
        "3dddfa51-de14-4da0-8baf-2b40c94f3eb2",
        "cbd3ccbc-14c5-4f13-b461-6cfad840f5cd"
      ],
      "franchises": [
        "8d73a7d5-dc57-4e08-9a54-1b79364c2e0b"
      ]
    },
    "titles": {
      "eng": "REVENGE"
    },
    "title": "REVENGE",
    "year": 2021,
    "titles_default_language": "eng"
  }
}