{
  "header": {
    "version": 4,
    "description": "Karaoke Mugen Karaoke Data File"
  },
  "medias": [
    {
      "version": "Default",
      "filename": "JPN - Yu-Gi-Oh! Duel Monsters GX - OP4 - Precious Time, Glory Days.mp4",
      "audiogain": 3.97,
      "loudnorm": "-20.78,-11.26,4.60,-30.92,-0.97",
      "filesize": 24362489,
      "duration": 90,
      "default": true,
      "lyrics": [
        {
          "filename": "JPN - Yu-Gi-Oh! Duel Monsters GX - OP4 - Precious Time, Glory Days.ass",
          "default": true,
          "version": "Default",
          "subchecksum": "02d0c3f45b79c821ff78001fa8eda894"
        }
      ]
    }
  ],
  "data": {
    "created_at": "2017-10-11T17:02:15.000Z",
    "kid": "2bcac21d-02fe-4438-a399-a3a29b3d0c07",
    "modified_at": "2021-02-25T13:42:23.993Z",
    "repository": "kara.moe",
    "songorder": 4,
    "tags": {
      "authors": [
        "05c1e4ad-32ba-490e-8f3c-5cd491c96d85"
      ],
      "collections": [
        "c7db86a0-ff64-4044-9be4-66dd1ef1d1c1"
      ],
      "creators": [
        "3416bd66-667d-4c3f-91f3-6e692001ef25"
      ],
      "families": [
        "0377db02-3af6-43b8-9b08-c759df3d25c3"
      ],
      "groups": [
        "3c14c864-533c-49e6-a3cc-6969f1233775"
      ],
      "langs": [
        "4dcf9614-7914-42aa-99f4-dbce2e059133"
      ],
      "origins": [
        "938de218-5343-4865-94d3-fb33f2eaa152"
      ],
      "series": [
        "61243592-781d-4f44-9ada-e26a7a2d5f18"
      ],
      "singers": [
        "3b75a414-4863-46bd-b196-e573fa087462"
      ],
      "songtypes": [
        "f02ad9b3-0bd9-4aad-85b3-9976739ba0e4"
      ],
      "songwriters": [
        "2b187003-4a47-4f76-9583-fae23a7964f6"
      ],
      "franchises": [
        "e6b60e16-dac4-4bc2-8c7d-b80a4422fc3a"
      ]
    },
    "title": "Precious Time, Glory Days",
    "titles": {
      "eng": "Precious Time, Glory Days"
    },
    "year": 2007,
    "titles_default_language": "eng"
  }
}