{
  "header": {
    "version": 4,
    "description": "Karaoke Mugen Karaoke Data File"
  },
  "medias": [
    {
      "version": "Default",
      "filename": "JPN - Tales of Vesperia - PS3 XBOX360 GAME OP - Kane wo Narashite.mp4",
      "audiogain": -10.31,
      "loudnorm": "-8.02,0.41,3.00,-18.16,-0.44",
      "filesize": 77868497,
      "duration": 134,
      "default": true,
      "lyrics": [
        {
          "filename": "JPN - Tales of Vesperia - PS3 XBOX360 GAME OP - Kane wo Narashite.ass",
          "default": true,
          "version": "Default",
          "subchecksum": "610e78c1efccb98aa7eb933bd0ba55ef"
        }
      ]
    }
  ],
  "data": {
    "created_at": "2017-10-11T15:01:54.000Z",
    "kid": "95e59a6f-dbda-46f2-9efb-f210c3e99712",
    "modified_at": "2021-02-25T13:17:25.990Z",
    "repository": "kara.moe",
    "tags": {
      "authors": [
        "821feaa9-41d5-46f4-9466-a00fb27edcae"
      ],
      "collections": [
        "c7db86a0-ff64-4044-9be4-66dd1ef1d1c1"
      ],
      "creators": [
        "c3e622d4-2686-4331-8691-d528c8647088"
      ],
      "families": [
        "dbedd6b3-d125-4cd8-aa32-c4175e4ca3a3"
      ],
      "groups": [
        "3c14c864-533c-49e6-a3cc-6969f1233775",
        "8c22c899-b3ed-42da-a548-ce00f950798b"
      ],
      "langs": [
        "4dcf9614-7914-42aa-99f4-dbce2e059133"
      ],
      "platforms": [
        "7f63ff91-7961-4488-888d-4bf46eea3a2a",
        "d56f8d9d-9ccd-4ac8-a164-da0e62d1c060"
      ],
      "series": [
        "a8857129-55a1-44fa-ab6a-5b5b50ed8dde"
      ],
      "singers": [
        "7e4b0aed-efae-469f-b923-33bde55ab3e8"
      ],
      "songtypes": [
        "f02ad9b3-0bd9-4aad-85b3-9976739ba0e4"
      ],
      "songwriters": [
        "7e4b0aed-efae-469f-b923-33bde55ab3e8"
      ],
      "franchises": [
        "457ab7f6-9644-4493-b61b-8778400aaf54"
      ]
    },
    "title": "Kane wo Narashite",
    "titles": {
      "qro": "Kane wo Narashite",
      "jpn": "鐘を鳴らして"
    },
    "year": 2008,
    "titles_default_language": "qro"
  }
}