{
  "header": {
    "version": 4,
    "description": "Karaoke Mugen Karaoke Data File"
  },
  "medias": [
    {
      "version": "Default",
      "filename": "JPN - Dragon Ball Z Budokai 2 - PS2 GAMECUBE GAME OP - Kasuburu Heart.mp4",
      "audiogain": 0.64,
      "loudnorm": "-16.62,-4.63,1.00,-26.65,-0.22",
      "filesize": 38583967,
      "duration": 97,
      "default": true,
      "lyrics": [
        {
          "filename": "JPN - Dragon Ball Z Budokai 2 - PS2 GAMECUBE GAME OP - Kasuburu Heart.ass",
          "default": true,
          "version": "Default",
          "subchecksum": "805af6a943faeb4556f920b64237cbd4"
        }
      ]
    }
  ],
  "data": {
    "created_at": "2017-10-11T17:02:19.000Z",
    "kid": "02a693a0-8621-4bb9-a49a-9c4e3ddbee5a",
    "modified_at": "2021-03-13T15:18:03.253Z",
    "repository": "kara.moe",
    "tags": {
      "authors": [
        "8c22c899-b3ed-42da-a548-ce00f950798b"
      ],
      "collections": [
        "c7db86a0-ff64-4044-9be4-66dd1ef1d1c1"
      ],
      "creators": [
        "7983561a-69d0-432d-8ced-34ddbe44b0bd"
      ],
      "families": [
        "dbedd6b3-d125-4cd8-aa32-c4175e4ca3a3"
      ],
      "groups": [
        "3c14c864-533c-49e6-a3cc-6969f1233775",
        "8c22c899-b3ed-42da-a548-ce00f950798b"
      ],
      "langs": [
        "4dcf9614-7914-42aa-99f4-dbce2e059133"
      ],
      "platforms": [
        "2173004e-21da-45c9-9dfb-26014423c566",
        "9c2e70a6-ac40-4701-9f3e-268cc52500c8"
      ],
      "series": [
        "53c86457-722e-4322-b3f7-d680042c7427"
      ],
      "singers": [
        "162799fe-de2f-4f72-99a2-8c606aee4f2d"
      ],
      "songtypes": [
        "f02ad9b3-0bd9-4aad-85b3-9976739ba0e4"
      ],
      "songwriters": [
        "12bf3975-e982-4cf7-900b-1784cbbae224",
        "aaea4d26-7009-43ff-a138-be2511b0c65d"
      ],
      "franchises": [
        "c46f5c45-e15a-41b3-a3e6-a1ac023116e1"
      ]
    },
    "title": "Kasuburu Heart",
    "titles": {
      "qro": "Kusuburu heart ni Hi wo Tsukero!!",
      "jpn": "くすぶるheartに火をつけろ!!"
    },
    "year": 2003,
    "titles_default_language": "qro"
  }
}