{
  "header": {
    "version": 4,
    "description": "Karaoke Mugen Karaoke Data File"
  },
  "medias": [
    {
      "version": "Default",
      "filename": "JPN - Iris no Atelier Eternal Mana - PS2 GAME OP - Byakuya Gensoutan.mp4",
      "audiogain": 7.78,
      "loudnorm": "-25.56,-11.23,7.70,-35.71,-0.75",
      "filesize": 27247523,
      "duration": 121,
      "default": true,
      "lyrics": [
        {
          "filename": "JPN - Iris no Atelier Eternal Mana - PS2 GAME OP - Byakuya Gensoutan.ass",
          "default": true,
          "version": "Default",
          "subchecksum": "3887c96db35e0d735c6a510916eb5a67"
        }
      ]
    }
  ],
  "data": {
    "created_at": "2020-11-15T18:34:58.211Z",
    "kid": "be8af893-0f94-430c-a919-15cd3f36441c",
    "modified_at": "2021-02-25T11:47:44.984Z",
    "repository": "kara.moe",
    "tags": {
      "authors": [
        "1df04771-a378-4f14-a5e1-1455187d681a"
      ],
      "collections": [
        "c7db86a0-ff64-4044-9be4-66dd1ef1d1c1"
      ],
      "creators": [
        "f98c40bf-9da0-493c-a0e7-f5a07805092c"
      ],
      "families": [
        "dbedd6b3-d125-4cd8-aa32-c4175e4ca3a3"
      ],
      "groups": [
        "3c14c864-533c-49e6-a3cc-6969f1233775"
      ],
      "langs": [
        "4dcf9614-7914-42aa-99f4-dbce2e059133"
      ],
      "platforms": [
        "2173004e-21da-45c9-9dfb-26014423c566"
      ],
      "series": [
        "b48056ce-2e6d-4dbc-9932-0f7a1283d0bc"
      ],
      "singers": [
        "062ef561-7717-4be5-9bee-60482f7bd3e5"
      ],
      "songtypes": [
        "f02ad9b3-0bd9-4aad-85b3-9976739ba0e4"
      ],
      "songwriters": [
        "1342d996-5414-4253-b95b-c68bd97470fc",
        "73929143-1185-47f8-bc94-9ac7bbd4d2d7"
      ],
      "franchises": [
        "60ce9235-1314-497c-a74e-3f9f4b7b7c24"
      ]
    },
    "title": "Byakuya Gensôtan",
    "titles": {
      "qro": "Byakuya Gensôtan",
      "jpn": "白夜幻想譚"
    },
    "year": 2004,
    "titles_default_language": "qro"
  }
}