{
  "header": {
    "version": 4,
    "description": "Karaoke Mugen Karaoke Data File"
  },
  "medias": [
    {
      "version": "Default",
      "filename": "JPN - Bleach - MV - After Dark ~ Full Vers.mp4",
      "audiogain": -3.46,
      "loudnorm": "-13.33,-0.32,5.00,-23.46,-1.12",
      "filesize": 19109374,
      "duration": 206,
      "default": true,
      "lyrics": [
        {
          "filename": "JPN - Bleach - MV - After Dark ~ Full Vers.ass",
          "default": true,
          "version": "Default"
        }
      ]
    }
  ],
  "data": {
    "created_at": "2019-11-17T15:33:25.815Z",
    "kid": "114590c1-91ca-4625-a375-e7e1676a1108",
    "modified_at": "2022-06-04T00:17:26.364Z",
    "parents": [
      "ee4cfbbc-2725-4558-b218-d8ab5c3a2dbd"
    ],
    "repository": "kara.moe",
    "songorder": null,
    "tags": {
      "authors": [
        "1db1738f-acdc-42fc-aec3-60f4bddf660d"
      ],
      "creators": [
        "6df34030-d5ec-4480-a1c2-20103a7c0b63"
      ],
      "families": [
        "5391f9fe-638c-415f-8dc9-958e3a2c5787"
      ],
      "groups": [
        "3c14c864-533c-49e6-a3cc-6969f1233775"
      ],
      "langs": [
        "4dcf9614-7914-42aa-99f4-dbce2e059133"
      ],
      "series": [
        "d68e6557-fdc3-4c8b-805c-9778918abd03"
      ],
      "singers": [
        "6d7243f4-797e-40a2-980d-1fc467d456d8"
      ],
      "songtypes": [
        "7be1b15c-cff8-4b37-a649-5c90f3d569a9"
      ],
      "songwriters": [
        "1f556f0c-f8a6-43c1-aa60-453b54a074fa",
        "8bede077-b96f-415c-8057-552e236fe01a"
      ],
      "versions": [
        "c2143a7f-6970-450e-8a79-0302db9220a9"
      ],
      "collections": [
        "dbcf2c22-524d-4708-99bb-601703633927"
      ],
      "franchises": [
        "d68e6557-fdc3-4c8b-805c-9778918abd03"
      ]
    },
    "titles": {
      "eng": "After Dark",
      "jpn": "アフターダーク"
    },
    "titles_default_language": "eng",
    "title": "After Dark",
    "year": 2007
  }
}