{
  "header": {
    "version": 4,
    "description": "Karaoke Mugen Karaoke Data File"
  },
  "medias": [
    {
      "version": "Default",
      "filename": "JPN - Princess Waltz - GAME OP - dissonant chord.mp4",
      "audiogain": -10.95,
      "loudnorm": "-6.95,1.38,3.60,-17.28,-0.65",
      "filesize": 11020247,
      "duration": 92,
      "default": true,
      "lyrics": [
        {
          "filename": "JPN - Princess Waltz - GAME OP - dissonant chord.ass",
          "default": true,
          "version": "Default",
          "subchecksum": "0dfd56f551a6f3e17e2c78a7bc92e4ab"
        }
      ]
    }
  ],
  "data": {
    "created_at": "2017-10-11T17:01:52.000Z",
    "kid": "50a5c54e-3a09-4558-8ba8-6c4d4c77dd73",
    "modified_at": "2021-02-25T12:47:29.280Z",
    "repository": "kara.moe",
    "tags": {
      "authors": [
        "5bdaba57-27f8-4568-8806-76a807728766"
      ],
      "collections": [
        "c7db86a0-ff64-4044-9be4-66dd1ef1d1c1"
      ],
      "creators": [
        "762132b0-07b6-4b37-80c4-379caf942289"
      ],
      "families": [
        "dbedd6b3-d125-4cd8-aa32-c4175e4ca3a3"
      ],
      "groups": [
        "3c14c864-533c-49e6-a3cc-6969f1233775"
      ],
      "langs": [
        "4dcf9614-7914-42aa-99f4-dbce2e059133"
      ],
      "origins": [
        "2f96e82c-c61b-4413-817e-e6b247509b95"
      ],
      "series": [
        "e37d2140-d67f-4437-b206-e3006e9af966"
      ],
      "singers": [
        "59627981-d6fe-473f-bdbf-f5d82d31667c"
      ],
      "songtypes": [
        "f02ad9b3-0bd9-4aad-85b3-9976739ba0e4"
      ],
      "songwriters": [
        "353d203a-44b2-4546-9e8e-efafd410ff93",
        "af3ffe51-8059-461c-bbb8-78ea388731f3"
      ]
    },
    "title": "dissonant chord",
    "titles": {
      "eng": "dissonant chord"
    },
    "year": 2006,
    "titles_default_language": "eng"
  }
}