{
  "header": {
    "version": 4,
    "description": "Karaoke Mugen Karaoke Data File"
  },
  "medias": [
    {
      "version": "Default",
      "filename": "JPN - Aimer - MV - ONE.mp4",
      "audiogain": -10.2,
      "loudnorm": "-6.48,3.63,4.20,-16.63,-1.32",
      "filesize": 179922770,
      "duration": 338,
      "default": true,
      "lyrics": [
        {
          "filename": "JPN - Aimer - MV - ONE.ass",
          "default": true,
          "version": "Default"
        }
      ]
    }
  ],
  "data": {
    "created_at": "2019-09-21T23:13:41.000Z",
    "kid": "37718015-5c8d-454b-a12a-430110284910",
    "modified_at": "2022-06-04T00:15:32.456Z",
    "repository": "kara.moe",
    "songorder": null,
    "tags": {
      "authors": [
        "2b4e9972-5e17-481b-99f5-d0787c0ada56"
      ],
      "creators": [
        "6fa9de67-21cf-420b-9ddb-57edb5abe523"
      ],
      "families": [
        "5391f9fe-638c-415f-8dc9-958e3a2c5787"
      ],
      "groups": [
        "2b4e9972-5e17-481b-99f5-d0787c0ada56",
        "ae613721-1fbe-480d-ba6b-d6d0702b184d"
      ],
      "langs": [
        "4dcf9614-7914-42aa-99f4-dbce2e059133"
      ],
      "misc": [
        "86705d4b-24e4-4756-9687-2b9c98bcf366"
      ],
      "singers": [
        "6cfc20ab-c855-4f24-8bed-0981e465630b"
      ],
      "songtypes": [
        "7be1b15c-cff8-4b37-a649-5c90f3d569a9"
      ],
      "songwriters": [
        "6cfc20ab-c855-4f24-8bed-0981e465630b"
      ],
      "collections": [
        "dbcf2c22-524d-4708-99bb-601703633927"
      ]
    },
    "titles": {
      "eng": "ONE"
    },
    "titles_default_language": "eng",
    "title": "ONE",
    "year": 2017
  }
}