{
  "header": {
    "version": 4,
    "description": "Karaoke Mugen Karaoke Data File"
  },
  "medias": [
    {
      "version": "Default",
      "filename": "JPN - Princess Connect! Re Dive - GAME ED5 - Kinkira Happiness.mp4",
      "audiogain": 1.02,
      "loudnorm": "-18.78,-5.97,4.60,-29.09,-0.36",
      "filesize": 18187039,
      "duration": 82,
      "default": true,
      "lyrics": [
        {
          "filename": "JPN - Princess Connect! Re Dive - GAME ED5 - Kinkira Happiness.ass",
          "default": true,
          "version": "Default"
        }
      ]
    }
  ],
  "data": {
    "created_at": "2022-03-24T22:41:54.788Z",
    "ignoreHooks": false,
    "kid": "e925cd12-be8e-4734-8abe-9bda5795a3b2",
    "modified_at": "2022-03-24T22:41:54.789Z",
    "repository": "kara.moe",
    "songorder": 5,
    "tags": {
      "authors": [
        "06852e02-b77e-4106-b6f7-2d03942ad0ea"
      ],
      "collections": [
        "c7db86a0-ff64-4044-9be4-66dd1ef1d1c1"
      ],
      "creators": [
        "344cb973-3dac-4bac-b6b0-71243417856b"
      ],
      "families": [
        "dbedd6b3-d125-4cd8-aa32-c4175e4ca3a3"
      ],
      "genres": [
        "4b80eca6-f44f-4262-a8d0-b6879d6b70cb"
      ],
      "langs": [
        "4dcf9614-7914-42aa-99f4-dbce2e059133"
      ],
      "misc": [
        "fe819ff1-9db8-4a0f-85dc-0e322c9126c4",
        "1d6ceadf-a885-47e5-b23b-c07bf668a424"
      ],
      "platforms": [
        "213a1a15-e73a-4a08-b3f6-b6e2745a82e5"
      ],
      "series": [
        "ab7828d2-8048-4392-bd92-4c8aed8d6089"
      ],
      "singers": [
        "b7460704-94c8-4850-98f3-07a179e4b834",
        "75185227-62d2-4e2c-9be9-b64ccee0fb25",
        "01d27ab4-ba4d-4225-af49-d0ad6d861e61",
        "6b75c031-a5e4-4779-86e8-fba0e96bd29a"
      ],
      "songtypes": [
        "38c77c56-2b95-4040-b676-0994a8cb0597"
      ],
      "songwriters": [
        "3183faf9-c138-45e5-b24f-f41f70895f6f",
        "218cce1b-2990-4737-9f0d-60fd008ebd54"
      ],
      "groups": [
        "ae613721-1fbe-480d-ba6b-d6d0702b184d"
      ],
      "franchises": [
        "ab7828d2-8048-4392-bd92-4c8aed8d6089"
      ]
    },
    "titles": {
      "qro": "Kinkira☆Happiness",
      "jpn": "キンキラ☆ハピネス"
    },
    "titles_default_language": "qro",
    "title": "Kinkira☆Happiness",
    "year": 2018
  }
}