{
  "header": {
    "version": 4,
    "description": "Karaoke Mugen Karaoke Data File"
  },
  "medias": [
    {
      "version": "Default",
      "filename": "JPN - Katanagatari - OP2 - Katana to Saya.mp4",
      "audiogain": 2.72,
      "loudnorm": "-20.31,-7.72,3.60,-30.46,-0.56",
      "filesize": 36945829,
      "duration": 91,
      "default": true,
      "lyrics": [
        {
          "filename": "JPN - Katanagatari - OP2 - Katana to Saya.ass",
          "default": true,
          "version": "Default",
          "subchecksum": "09fff17489cfdfb97e14dd787058d621"
        }
      ]
    }
  ],
  "data": {
    "created_at": "2017-10-11T17:02:11.000Z",
    "kid": "37f8ff6f-060d-462a-873d-b4b0e452af24",
    "modified_at": "2021-02-25T11:55:42.453Z",
    "repository": "kara.moe",
    "songorder": 2,
    "tags": {
      "authors": [
        "5bdaba57-27f8-4568-8806-76a807728766"
      ],
      "collections": [
        "c7db86a0-ff64-4044-9be4-66dd1ef1d1c1"
      ],
      "creators": [
        "01b5630b-d291-4ad5-a781-2cb717804d18"
      ],
      "families": [
        "0377db02-3af6-43b8-9b08-c759df3d25c3"
      ],
      "groups": [
        "33881a14-788e-4e2a-a97d-1e5f51542a26",
        "ae613721-1fbe-480d-ba6b-d6d0702b184d"
      ],
      "langs": [
        "4dcf9614-7914-42aa-99f4-dbce2e059133"
      ],
      "origins": [
        "938de218-5343-4865-94d3-fb33f2eaa152"
      ],
      "series": [
        "4fbf69ef-45f0-42d0-a096-74cc5be72ed1"
      ],
      "singers": [
        "f4d627b6-f0f8-46c9-ad63-24148031d21b"
      ],
      "songtypes": [
        "f02ad9b3-0bd9-4aad-85b3-9976739ba0e4"
      ],
      "songwriters": [
        "7a226f8d-65e2-4a0e-bb80-64d5f5ff062c",
        "ffb2194e-3dd1-478f-ac22-71b3bcbd426a"
      ],
      "franchises": [
        "4fbf69ef-45f0-42d0-a096-74cc5be72ed1"
      ]
    },
    "title": "Katana to Saya",
    "titles": {
      "qro": "Katana to Saya",
      "jpn": "刀と鞘"
    },
    "year": 2010,
    "titles_default_language": "qro"
  }
}