{
  "header": {
    "version": 4,
    "description": "Karaoke Mugen Karaoke Data File"
  },
  "medias": [
    {
      "version": "Moebius no Sora wo Koete ~",
      "filename": "JPN - Kidou Senshi Gundam Gyakushuu no Char - AMV - BEYOND THE TIME ~ Moebius no Sora wo Koete ~ ~ Full Vers.mp4",
      "audiogain": -11.53,
      "loudnorm": "-6.12,2.20,6.30,-16.30,-1.20",
      "filesize": 166688627,
      "duration": 330,
      "default": true,
      "lyrics": [
        {
          "filename": "JPN - Kidou Senshi Gundam Gyakushuu no Char - AMV - BEYOND THE TIME ~ Moebius no Sora wo Koete ~ ~ Full Vers.ass",
          "default": true,
          "version": "Default"
        }
      ]
    }
  ],
  "data": {
    "created_at": "2021-12-30T02:04:10.208Z",
    "kid": "9ac0dd7f-0403-4c30-8bfd-0138b49b2ede",
    "modified_at": "2022-07-20T11:38:46.114Z",
    "repository": "kara.moe",
    "tags": {
      "authors": [
        "06852e02-b77e-4106-b6f7-2d03942ad0ea"
      ],
      "creators": [
        "cd51a214-b73e-446c-862a-e2944a281382",
        "ef8f80e1-d244-4aea-b7f0-984d6dd4b82b"
      ],
      "families": [
        "0377db02-3af6-43b8-9b08-c759df3d25c3"
      ],
      "genres": [
        "f60ba57d-5ef4-49e0-b93b-d0dcbcff6592"
      ],
      "groups": [
        "7792cc27-9ff9-4d47-9287-2338b7db1575"
      ],
      "langs": [
        "4dcf9614-7914-42aa-99f4-dbce2e059133"
      ],
      "misc": [
        "86705d4b-24e4-4756-9687-2b9c98bcf366"
      ],
      "series": [
        "6e797396-5d43-4b0a-8faf-3191874f1d86"
      ],
      "singers": [
        "366d87ab-9567-4f58-ae56-e87160499e40"
      ],
      "songtypes": [
        "a6c79ce5-89ee-4d50-afe8-3abd7317f6c2"
      ],
      "songwriters": [
        "0f0afbed-006d-49ed-90e3-c054b178d18c",
        "9a1650e0-13a2-4d49-817e-8e9e4dc4d5ac"
      ],
      "versions": [
        "c2143a7f-6970-450e-8a79-0302db9220a9"
      ],
      "collections": [
        "c7db86a0-ff64-4044-9be4-66dd1ef1d1c1"
      ],
      "warnings": [
        "24371984-5e4c-4485-a937-fb0c480ca23b"
      ],
      "franchises": [
        "e6ade589-c2e4-49a1-acdb-ea9b03e57240"
      ]
    },
    "titles": {
      "qro": "BEYOND THE TIME ~ Moebius no Sora wo Koete ~",
      "jpn": "BEYOND THE TIME ～メビウスの宇宙を超えて～"
    },
    "titles_default_language": "qro",
    "title": "BEYOND THE TIME ~ Moebius no Sora wo Koete ~",
    "year": 1988
  }
}