{
  "header": {
    "version": 4,
    "description": "Karaoke Mugen Karaoke Data File"
  },
  "medias": [
    {
      "version": "Default",
      "filename": "JPN - Aikatsu! Photo on Stage!! - GAME MV - Tsukiyo no Ragtime.mp4",
      "audiogain": -8.53,
      "loudnorm": "-8.47,1.81,2.70,-18.53,-0.93",
      "filesize": 54177368,
      "duration": 138,
      "default": true,
      "lyrics": [
        {
          "filename": "JPN - Aikatsu! Photo on Stage!! - GAME MV - Tsukiyo no Ragtime.ass",
          "default": true,
          "version": "Default",
          "subchecksum": "c7c20f54c81a40a7f1d8b3acd01bdfcc"
        }
      ]
    }
  ],
  "data": {
    "created_at": "2018-05-31T11:36:43.000Z",
    "kid": "6ee6396e-2aef-427c-9f8a-3b668f4de7fd",
    "modified_at": "2021-02-25T10:38:51.593Z",
    "repository": "kara.moe",
    "tags": {
      "authors": [
        "79e0aa7d-da9a-4e9a-aa2b-64056a83b49b"
      ],
      "collections": [
        "c7db86a0-ff64-4044-9be4-66dd1ef1d1c1"
      ],
      "creators": [
        "c3e622d4-2686-4331-8691-d528c8647088"
      ],
      "families": [
        "0377db02-3af6-43b8-9b08-c759df3d25c3",
        "dbedd6b3-d125-4cd8-aa32-c4175e4ca3a3"
      ],
      "genres": [
        "caa86df2-0d59-474b-885c-f240a9e891b0"
      ],
      "groups": [
        "ae613721-1fbe-480d-ba6b-d6d0702b184d"
      ],
      "langs": [
        "4dcf9614-7914-42aa-99f4-dbce2e059133"
      ],
      "misc": [
        "1d6ceadf-a885-47e5-b23b-c07bf668a424"
      ],
      "platforms": [
        "213a1a15-e73a-4a08-b3f6-b6e2745a82e5"
      ],
      "series": [
        "61905001-762c-486a-a45d-390c86c41849"
      ],
      "singers": [
        "2a2e195a-bc93-49dc-b43f-69a7e515b2b1",
        "f7732ea9-5bdc-454f-8734-d45c876c2b6e"
      ],
      "songtypes": [
        "7be1b15c-cff8-4b37-a649-5c90f3d569a9"
      ],
      "songwriters": [
        "0283d57b-1211-4661-a1f1-364bec6eb869",
        "9f9ec9b5-2e74-45a1-a18c-1bcb889a7643"
      ],
      "franchises": [
        "2ed8f878-186e-4108-a152-c607efbcfcb2"
      ]
    },
    "title": "Tsukiyo no Ragtime",
    "titles": {
      "qro": "Tsukiyo no Ragtime",
      "jpn": "月夜のラグタイム"
    },
    "year": 2018,
    "titles_default_language": "qro"
  }
}