{
  "header": {
    "version": 4,
    "description": "Karaoke Mugen Karaoke Data File"
  },
  "medias": [
    {
      "version": "Default",
      "filename": "JPN - Robotics Notes - GAME OP - Kakuchou Places.mp4",
      "audiogain": -4.26,
      "loudnorm": "-12.92,-0.76,6.60,-23.34,-0.58",
      "filesize": 38482905,
      "duration": 117,
      "default": true,
      "lyrics": [
        {
          "filename": "JPN - Robotics Notes - GAME OP - Kakuchou Places.ass",
          "default": true,
          "version": "Default"
        }
      ]
    }
  ],
  "data": {
    "created_at": "2017-10-11T17:00:51.000Z",
    "kid": "90fa4ac5-d03a-4538-9f8e-4d08ed7ed924",
    "modified_at": "2021-09-29T15:10:40.516Z",
    "repository": "kara.moe",
    "tags": {
      "authors": [
        "cfdaf046-d5cd-419c-9e71-16d69a8eabca"
      ],
      "collections": [
        "c7db86a0-ff64-4044-9be4-66dd1ef1d1c1"
      ],
      "creators": [
        "7a8ad2ad-018d-4341-9be4-77bfc39a6edd"
      ],
      "families": [
        "dbedd6b3-d125-4cd8-aa32-c4175e4ca3a3"
      ],
      "groups": [
        "8c22c899-b3ed-42da-a548-ce00f950798b",
        "ae613721-1fbe-480d-ba6b-d6d0702b184d"
      ],
      "langs": [
        "4dcf9614-7914-42aa-99f4-dbce2e059133"
      ],
      "series": [
        "e7519ade-4a52-4f91-8aec-70c519a25063"
      ],
      "singers": [
        "a5f6e279-1434-4e16-9034-0b70c726f581"
      ],
      "songtypes": [
        "f02ad9b3-0bd9-4aad-85b3-9976739ba0e4"
      ],
      "songwriters": [
        "66339ced-7df9-40c8-aefd-59b2990df294"
      ],
      "franchises": [
        "e7519ade-4a52-4f91-8aec-70c519a25063"
      ]
    },
    "titles": {
      "qro": "Kakuchou Place",
      "jpn": "拡張プレイス"
    },
    "title": "Kakuchou Places",
    "year": 2012,
    "titles_default_language": "qro"
  }
}