{
  "header": {
    "version": 4,
    "description": "Karaoke Mugen Karaoke Data File"
  },
  "medias": [
    {
      "version": "Default",
      "filename": "JPN - Ultra Seven - OP - Ultraseven no Uta.mp4",
      "audiogain": 3.98,
      "loudnorm": "-22.41,-8.75,4.30,-32.54,0.07",
      "filesize": 38491532,
      "duration": 101,
      "default": true,
      "lyrics": [
        {
          "filename": "JPN - Ultra Seven - OP - Ultraseven no Uta.ass",
          "default": true,
          "version": "Default",
          "subchecksum": "84e5551cc2da994872b8b4a8010c8616"
        }
      ]
    }
  ],
  "data": {
    "created_at": "2017-10-11T17:02:21.000Z",
    "kid": "6f5ee59e-f4a7-4830-a624-ee695c48eda9",
    "modified_at": "2021-02-25T13:31:47.202Z",
    "repository": "kara.moe",
    "tags": {
      "authors": [
        "5bdaba57-27f8-4568-8806-76a807728766"
      ],
      "collections": [
        "c7db86a0-ff64-4044-9be4-66dd1ef1d1c1"
      ],
      "creators": [
        "308ee11d-80d2-4870-9ff4-e042b72070ee"
      ],
      "groups": [
        "b4240f1f-200d-4d10-b5eb-d3a740eed323"
      ],
      "langs": [
        "4dcf9614-7914-42aa-99f4-dbce2e059133"
      ],
      "origins": [
        "938de218-5343-4865-94d3-fb33f2eaa152",
        "d3fac9ab-630d-402d-a392-3d2450c3e62e"
      ],
      "series": [
        "b9fa8a24-bbee-4f81-bddf-32e306436afc"
      ],
      "singers": [
        "4fe37b3c-caa5-4cbb-9d08-a9c6e94885c3",
        "a3b21ee8-92ea-42ed-86b7-a9e8de47458b"
      ],
      "songtypes": [
        "f02ad9b3-0bd9-4aad-85b3-9976739ba0e4"
      ],
      "songwriters": [
        "1d1e2919-7dcb-4d2d-bd68-5f4a1bb52ae8",
        "4148c233-e924-489c-875e-25facc91b4c5"
      ],
      "franchises": [
        "e0d0d8b0-bf67-40a0-b0c1-082cd4ccc58b"
      ]
    },
    "title": "Ultraseven no Uta",
    "titles": {
      "qro": "Ultraseven no Uta",
      "jpn": "ウルトラセブンの歌"
    },
    "year": 1967,
    "titles_default_language": "qro"
  }
}