{
  "header": {
    "version": 4,
    "description": "Karaoke Mugen Karaoke Data File"
  },
  "medias": [
    {
      "version": "Default",
      "filename": "JPN - DBSK - MV - Doushite Kimi o Suki ni Natte Shimattandarou question_mark.mp4",
      "audiogain": -8.38,
      "loudnorm": "-9.81,2.49,16.00,-21.22,-0.91",
      "filesize": 13371456,
      "duration": 288,
      "default": true,
      "lyrics": [
        {
          "filename": "JPN - DBSK - MV - Doushite Kimi o Suki ni Natte Shimattandarou question_mark.ass",
          "default": true,
          "version": "Default"
        }
      ]
    }
  ],
  "data": {
    "created_at": "2020-01-04T18:59:28.089Z",
    "kid": "4f0fca9c-5ab5-4ddf-8d51-3f271a0b204d",
    "modified_at": "2022-06-04T00:15:42.088Z",
    "repository": "kara.moe",
    "songorder": null,
    "tags": {
      "authors": [
        "1db1738f-acdc-42fc-aec3-60f4bddf660d"
      ],
      "creators": [
        "90caf15e-bc86-46e1-8793-9af7906c8310"
      ],
      "families": [
        "5391f9fe-638c-415f-8dc9-958e3a2c5787"
      ],
      "groups": [
        "3c14c864-533c-49e6-a3cc-6969f1233775"
      ],
      "langs": [
        "4dcf9614-7914-42aa-99f4-dbce2e059133"
      ],
      "singers": [
        "be7bb7f0-9525-49d6-82ed-ac4c60d3c55a"
      ],
      "songtypes": [
        "7be1b15c-cff8-4b37-a649-5c90f3d569a9"
      ],
      "songwriters": [
        "56f9f3e6-f2e8-4a1d-972e-15a73b6cb6c6",
        "639b6b87-36cc-4488-be6a-906fea947793",
        "8c31b0c1-6c90-4afb-8a93-3950c9952288",
        "f294a9bf-7ce3-4e4e-a017-6db9654ee2b5"
      ],
      "collections": [
        "dbcf2c22-524d-4708-99bb-601703633927"
      ]
    },
    "titles": {
      "qro": "Dôshite Kimi o Suki ni Natte Shimattandarô?",
      "jpn": "どうして君を好きになってしまったんだろう？"
    },
    "titles_default_language": "qro",
    "titles_aliases": [
      "Doushite"
    ],
    "title": "Dôshite Kimi o Suki ni Natte Shimattandarô?",
    "year": 2008
  }
}