{
  "header": {
    "version": 4,
    "description": "Karaoke Mugen Karaoke Data File"
  },
  "medias": [
    {
      "version": "Default",
      "filename": "JPN - beatmania IIDX - GAME MV - Dadadadadadadadadada.mp4",
      "audiogain": -6.81,
      "loudnorm": "-9.32,0.43,3.30,-19.61,-0.78",
      "filesize": 18424150,
      "duration": 107,
      "default": true,
      "lyrics": [
        {
          "filename": "JPN - beatmania IIDX - GAME MV - Dadadadadadadadadada.ass",
          "default": true,
          "version": "Default",
          "subchecksum": "d752cac15f5bf4df32b3861bab42f71c"
        }
      ]
    }
  ],
  "data": {
    "created_at": "2019-04-04T21:15:07.000Z",
    "kid": "d7810593-be30-4b22-ad40-51eec23a306f",
    "modified_at": "2021-05-13T16:22:13.644Z",
    "repository": "kara.moe",
    "tags": {
      "authors": [
        "87096920-112f-485f-a310-04156cb4624d"
      ],
      "collections": [
        "c7db86a0-ff64-4044-9be4-66dd1ef1d1c1"
      ],
      "creators": [
        "22092200-b324-4277-8269-b8b0929f42c1"
      ],
      "families": [
        "0377db02-3af6-43b8-9b08-c759df3d25c3",
        "dbedd6b3-d125-4cd8-aa32-c4175e4ca3a3"
      ],
      "groups": [
        "60defa7b-774e-4680-8321-51b742c2e009",
        "ae613721-1fbe-480d-ba6b-d6d0702b184d"
      ],
      "langs": [
        "4dcf9614-7914-42aa-99f4-dbce2e059133"
      ],
      "misc": [
        "ec4fee75-71fb-45b4-9772-2ca374b4b600"
      ],
      "series": [
        "b6d2d054-d875-44bc-a5a7-218fca59c358"
      ],
      "singers": [
        "5d16da11-37e8-4e20-9d3e-9317c4fc65e9",
        "ad8ef7bf-28ee-4c9b-b454-07bef357f053"
      ],
      "songtypes": [
        "7be1b15c-cff8-4b37-a649-5c90f3d569a9"
      ],
      "songwriters": [
        "ad8ef7bf-28ee-4c9b-b454-07bef357f053"
      ]
    },
    "title": "Dadadadadadadadadada",
    "titles": {
      "qro": "Dadadadadadadadadada",
      "jpn": "‎打打打打打打打打打打"
    },
    "year": 2014,
    "titles_default_language": "qro"
  }
}