{
  "header": {
    "version": 4,
    "description": "Karaoke Mugen Karaoke Data File"
  },
  "medias": [
    {
      "version": "Default",
      "filename": "JPN - Zero no Tsukaima Koakuma to Harukaze no Concerto - GAME PS2 OP - Treasure.mp4",
      "audiogain": -0.84,
      "loudnorm": "-16.99,-7.16,4.70,-27.23,-0.40",
      "filesize": 21359605,
      "duration": 98,
      "default": true,
      "lyrics": [
        {
          "filename": "JPN - Zero no Tsukaima Koakuma to Harukaze no Concerto - GAME PS2 OP - Treasure.ass",
          "default": true,
          "version": "Default"
        }
      ]
    }
  ],
  "data": {
    "created_at": "2017-10-11T17:00:52.000Z",
    "ignoreHooks": false,
    "kid": "4997bf23-b1f8-432f-b51b-c518fafbf8e7",
    "modified_at": "2022-08-06T19:45:57.498Z",
    "repository": "kara.moe",
    "tags": {
      "authors": [
        "1df04771-a378-4f14-a5e1-1455187d681a"
      ],
      "collections": [
        "c7db86a0-ff64-4044-9be4-66dd1ef1d1c1"
      ],
      "creators": [
        "17464ee5-cbb1-425f-855a-f1002962b421"
      ],
      "families": [
        "dbedd6b3-d125-4cd8-aa32-c4175e4ca3a3"
      ],
      "genres": [
        "4b80eca6-f44f-4262-a8d0-b6879d6b70cb"
      ],
      "groups": [
        "3c14c864-533c-49e6-a3cc-6969f1233775"
      ],
      "langs": [
        "4dcf9614-7914-42aa-99f4-dbce2e059133"
      ],
      "origins": [
        "2f96e82c-c61b-4413-817e-e6b247509b95"
      ],
      "platforms": [
        "2173004e-21da-45c9-9dfb-26014423c566"
      ],
      "series": [
        "86d11bc2-dd5d-4738-ad98-9ba628016158"
      ],
      "singers": [
        "8e848b41-55e2-4f75-a153-37aece3c2169"
      ],
      "songtypes": [
        "f02ad9b3-0bd9-4aad-85b3-9976739ba0e4"
      ],
      "songwriters": [
        "00893235-7d8a-43dc-a4d8-6fb9d40e20be",
        "8e848b41-55e2-4f75-a153-37aece3c2169"
      ],
      "franchises": [
        "3a629b10-0be0-47b2-8aba-4a8eea2719ed"
      ]
    },
    "titles": {
      "eng": "Treasure"
    },
    "titles_default_language": "eng",
    "title": "Treasure",
    "year": 2007
  }
}