{
  "header": {
    "version": 4,
    "description": "Karaoke Mugen Karaoke Data File"
  },
  "medias": [
    {
      "version": "Default",
      "filename": "JPN - Dragon Ball Heroes - GAME OP2 - Hakuryuu Mission.mp4",
      "audiogain": 2.01,
      "loudnorm": "-20.39,-6.83,5.40,-30.67,-0.05",
      "filesize": 15844262,
      "duration": 63,
      "default": true,
      "lyrics": [
        {
          "filename": "JPN - Dragon Ball Heroes - GAME OP2 - Hakuryuu Mission.ass",
          "default": true,
          "version": "Default",
          "subchecksum": "2936fb1bb14c7022d674a6fc0fe6ae03"
        }
      ]
    }
  ],
  "data": {
    "created_at": "2019-12-15T23:07:00.939Z",
    "kid": "448f0fc3-a0a4-460c-9b70-2c3e182a09e5",
    "modified_at": "2021-02-25T11:11:48.697Z",
    "repository": "kara.moe",
    "songorder": 2,
    "tags": {
      "authors": [
        "42ff8105-afa5-49c2-93b6-7951877c956d"
      ],
      "collections": [
        "c7db86a0-ff64-4044-9be4-66dd1ef1d1c1"
      ],
      "creators": [
        "7983561a-69d0-432d-8ced-34ddbe44b0bd"
      ],
      "families": [
        "dbedd6b3-d125-4cd8-aa32-c4175e4ca3a3"
      ],
      "groups": [
        "ae613721-1fbe-480d-ba6b-d6d0702b184d"
      ],
      "langs": [
        "4dcf9614-7914-42aa-99f4-dbce2e059133"
      ],
      "platforms": [
        "213a1a15-e73a-4a08-b3f6-b6e2745a82e5"
      ],
      "series": [
        "2b0674fb-fd5d-41a4-813a-58c2e3ad7263"
      ],
      "singers": [
        "6d55b0b6-1009-4b36-bf16-15caabc456bc"
      ],
      "songtypes": [
        "f02ad9b3-0bd9-4aad-85b3-9976739ba0e4"
      ],
      "franchises": [
        "c46f5c45-e15a-41b3-a3e6-a1ac023116e1"
      ]
    },
    "title": "Hakuryû Mission",
    "titles": {
      "qro": "Jaaku Ryuu Mission",
      "jpn": "邪悪龍ミッション"
    },
    "year": 2010,
    "titles_default_language": "qro"
  }
}