{
  "header": {
    "version": 4,
    "description": "Karaoke Mugen Karaoke Data File"
  },
  "medias": [
    {
      "version": "Default",
      "filename": "JPN - Saint Seiya - AMV - Pegasus Fantasy ~ Full Vers.mp4",
      "audiogain": -6.71,
      "loudnorm": "-10.67,-3.71,3.10,-20.77,-0.06",
      "filesize": 76742628,
      "duration": 219,
      "default": true,
      "lyrics": [
        {
          "filename": "JPN - Saint Seiya - AMV - Pegasus Fantasy ~ Full Vers.ass",
          "default": true,
          "version": "Default",
          "subchecksum": "ef046212d6b673bc2828d4fc166f032b"
        }
      ]
    }
  ],
  "data": {
    "created_at": "2021-06-06T13:23:50.174Z",
    "kid": "835c8cb0-fd95-450b-9de9-274a2978659d",
    "modified_at": "2021-06-06T13:43:21.670Z",
    "parents": [
      "9ef7c26a-09bf-4548-94e1-2ecccdc63aeb"
    ],
    "repository": "kara.moe",
    "tags": {
      "authors": [
        "70e26885-c0b5-4a01-b95b-2f492b8a8f10"
      ],
      "collections": [
        "c7db86a0-ff64-4044-9be4-66dd1ef1d1c1"
      ],
      "creators": [
        "f694bf43-b427-4244-9744-9d3f84fd8a31"
      ],
      "families": [
        "0377db02-3af6-43b8-9b08-c759df3d25c3"
      ],
      "genres": [
        "a0aeef4a-6428-45ff-a6e1-468b595930c2"
      ],
      "groups": [
        "7792cc27-9ff9-4d47-9287-2338b7db1575"
      ],
      "langs": [
        "4dcf9614-7914-42aa-99f4-dbce2e059133"
      ],
      "origins": [
        "938de218-5343-4865-94d3-fb33f2eaa152"
      ],
      "series": [
        "1caa7a95-4922-4933-a945-7c396e2be1e5"
      ],
      "singers": [
        "2fadf687-7866-41db-9bb3-80e8a33f2351"
      ],
      "songtypes": [
        "a6c79ce5-89ee-4d50-afe8-3abd7317f6c2"
      ],
      "songwriters": [
        "12bd774b-282b-4ce2-9194-5340fea20c48",
        "5934d2c0-f351-4a49-a1eb-0368a4594485"
      ],
      "versions": [
        "c2143a7f-6970-450e-8a79-0302db9220a9"
      ],
      "franchises": [
        "1caa7a95-4922-4933-a945-7c396e2be1e5"
      ]
    },
    "title": "Pegasus Fantasy",
    "titles": {
      "eng": "Pegasus Fantasy",
      "jpn": "ペガサス幻想-Pegasus Fantasy-"
    },
    "year": 1986,
    "titles_default_language": "eng"
  }
}