{
  "header": {
    "version": 4,
    "description": "Karaoke Mugen Karaoke Data File"
  },
  "medias": [
    {
      "version": "Default",
      "filename": "JPN - Saint Seiya The Lost Canvas - Meiou Shinwa - OVA ED - Hana no Kusari.mp4",
      "audiogain": -5.67,
      "loudnorm": "-11.97,-0.16,6.30,-22.08,-1.44",
      "filesize": 15945892,
      "duration": 91,
      "default": true,
      "lyrics": [
        {
          "filename": "JPN - Saint Seiya The Lost Canvas - Meiou Shinwa - OVA ED - Hana no Kusari.ass",
          "default": true,
          "version": "Default",
          "subchecksum": "b03d5e21654eac3b0e7b41c135213bc4"
        }
      ]
    }
  ],
  "data": {
    "created_at": "2020-08-30T12:07:29.254Z",
    "kid": "aea0f88d-ec60-4ec6-9b79-bb4b23f687a8",
    "modified_at": "2021-02-25T12:54:54.678Z",
    "repository": "kara.moe",
    "tags": {
      "authors": [
        "4d71ce82-eed1-4c44-ac85-5f7255f3dad3"
      ],
      "collections": [
        "c7db86a0-ff64-4044-9be4-66dd1ef1d1c1"
      ],
      "creators": [
        "53e900ec-a1ff-4c95-8b2d-a63995c2936f"
      ],
      "families": [
        "0377db02-3af6-43b8-9b08-c759df3d25c3"
      ],
      "genres": [
        "a0aeef4a-6428-45ff-a6e1-468b595930c2"
      ],
      "groups": [
        "3c14c864-533c-49e6-a3cc-6969f1233775"
      ],
      "langs": [
        "4dcf9614-7914-42aa-99f4-dbce2e059133"
      ],
      "misc": [
        "fe819ff1-9db8-4a0f-85dc-0e322c9126c4"
      ],
      "origins": [
        "2a6ef087-a000-4f8e-aeb5-9a7968756a36"
      ],
      "series": [
        "334a8048-1a1e-4dd5-bec3-39b704323f88"
      ],
      "singers": [
        "024cde95-7763-450d-b623-b738adf9b87b",
        "5a2d1c05-3180-4f2d-8dde-e364128f4961"
      ],
      "songtypes": [
        "38c77c56-2b95-4040-b676-0994a8cb0597"
      ],
      "songwriters": [
        "26819f39-07cd-4202-aa97-db26e104437d",
        "33ffd898-a5e2-4aaa-96be-b3bac98c1240",
        "b4f3ad9e-642a-41fa-9ab1-548c6a90f37d"
      ],
      "franchises": [
        "1caa7a95-4922-4933-a945-7c396e2be1e5"
      ]
    },
    "title": "Hana no Kusari",
    "titles": {
      "qro": "Hana no Kusari",
      "jpn": "花の鎖"
    },
    "year": 2009,
    "titles_default_language": "qro"
  }
}