{
  "header": {
    "description": "Karaoke Mugen Karaoke Data File",
    "version": 4
  },
  "medias": [
    {
      "version": "Default",
      "filename": "JPN - Ken ga Kimi - GAME PC CS - Shin'ai ~ Short Vers.mp4",
      "audiogain": -7.07,
      "loudnorm": "-10.63,0.48,3.40,-20.91,-0.41",
      "filesize": 28153185,
      "duration": 102,
      "default": true,
      "lyrics": [
        {
          "filename": "JPN - Ken ga Kimi - GAME PC CS - Shin'ai ~ Short Vers.ass",
          "default": true,
          "version": "Default"
        }
      ]
    }
  ],
  "data": {
    "created_at": "2022-11-06T17:22:34.926Z",
    "kid": "b9c19d3b-c1d9-4349-918c-2886b43a3d23",
    "modified_at": "2022-11-06T17:22:34.926Z",
    "tags": {
      "authors": [
        "0c8a5287-3954-48ce-b8ad-3d54e54bf96e"
      ],
      "collections": [
        "c7db86a0-ff64-4044-9be4-66dd1ef1d1c1"
      ],
      "creators": [
        "0a0e4a48-34fa-4892-8ff0-0307e778f9ec"
      ],
      "families": [
        "dbedd6b3-d125-4cd8-aa32-c4175e4ca3a3"
      ],
      "groups": [
        "ae613721-1fbe-480d-ba6b-d6d0702b184d"
      ],
      "langs": [
        "4dcf9614-7914-42aa-99f4-dbce2e059133"
      ],
      "misc": [
        "1d6ceadf-a885-47e5-b23b-c07bf668a424"
      ],
      "origins": [
        "7025ae3c-7bd6-4787-8912-2c15063343bb",
        "2f96e82c-c61b-4413-817e-e6b247509b95"
      ],
      "platforms": [
        "3c15f758-e1bc-4266-8bb9-3c14112f504a",
        "e791f168-068f-4c05-aa36-e8d63726aa06",
        "0a880bfc-d0e5-448b-98d2-4ba7b3106641"
      ],
      "series": [
        "8ba8e0a6-0637-4261-887e-7fd6172e0de7"
      ],
      "singers": [
        "d182360c-21ed-4887-a15f-8640f11a934a",
        "de21a500-3812-45af-aec7-356a7d76d2c5"
      ],
      "songtypes": [
        "a8a2616c-b5a1-4df3-ad6f-89291bc67dee"
      ],
      "songwriters": [
        "c41cb891-206a-45e5-bf1c-5b98f2958b89",
        "46cc8524-518b-4090-a322-4082a047dd21"
      ],
      "versions": [
        "d125c80a-86c1-4321-88e9-07b7800679b6"
      ],
      "franchises": [
        "77fe4d4a-2893-4f5f-9ab0-912a7474f4f7"
      ]
    },
    "titles": {
      "qro": "Shin'ai",
      "jpn": "真愛"
    },
    "titles_default_language": "qro",
    "titles_aliases": [],
    "title": "Shin'ai",
    "year": "2015",
    "repository": "kara.moe"
  }
}