{
  "header": {
    "version": 4,
    "description": "Karaoke Mugen Karaoke Data File"
  },
  "medias": [
    {
      "version": "Default",
      "filename": "JPN - Gintama - ED6 - Kiseki.mp4",
      "audiogain": -1.7,
      "loudnorm": "-16.03,-4.49,3.40,-26.21,-0.64",
      "filesize": 13155685,
      "duration": 91,
      "default": true,
      "lyrics": [
        {
          "filename": "JPN - Gintama - ED6 - Kiseki.ass",
          "default": true,
          "version": "Default",
          "subchecksum": "f29ce39fa371da64a7b6982c5fe96c2b"
        }
      ]
    }
  ],
  "data": {
    "created_at": "2021-03-07T14:16:59.249Z",
    "kid": "1f9fd76d-eead-4958-8327-d4ac61a54085",
    "modified_at": "2021-03-07T14:20:32.392Z",
    "repository": "kara.moe",
    "songorder": 6,
    "tags": {
      "authors": [
        "1d7745a8-73ea-40bb-ad99-826af98f6e41"
      ],
      "collections": [
        "c7db86a0-ff64-4044-9be4-66dd1ef1d1c1"
      ],
      "creators": [
        "ef8f80e1-d244-4aea-b7f0-984d6dd4b82b"
      ],
      "families": [
        "0377db02-3af6-43b8-9b08-c759df3d25c3"
      ],
      "genres": [
        "a0aeef4a-6428-45ff-a6e1-468b595930c2"
      ],
      "groups": [
        "3c14c864-533c-49e6-a3cc-6969f1233775"
      ],
      "langs": [
        "4dcf9614-7914-42aa-99f4-dbce2e059133"
      ],
      "origins": [
        "938de218-5343-4865-94d3-fb33f2eaa152"
      ],
      "series": [
        "0433ab0b-74bb-4837-8f1b-fd17a9e0c526"
      ],
      "singers": [
        "8ff56415-efe1-454e-8f4d-7f7907ca3747"
      ],
      "songtypes": [
        "38c77c56-2b95-4040-b676-0994a8cb0597"
      ],
      "songwriters": [
        "01bdd656-7fc9-467b-8d1f-ab3eed0a9f37"
      ],
      "franchises": [
        "0433ab0b-74bb-4837-8f1b-fd17a9e0c526"
      ]
    },
    "title": "Kiseki",
    "titles": {
      "qro": "Kiseki",
      "jpn": "奇跡"
    },
    "year": 2007,
    "titles_default_language": "qro"
  }
}