{
  "header": {
    "version": 4,
    "description": "Karaoke Mugen Karaoke Data File"
  },
  "medias": [
    {
      "version": "Default",
      "filename": "JPN - Shokugeki no Souma Ni no Sara - ED - Snow Drop.mp4",
      "audiogain": 0.24,
      "loudnorm": "-18.54,-11.67,6.70,-28.62,-1.00",
      "filesize": 24061594,
      "duration": 91,
      "default": true,
      "lyrics": [
        {
          "filename": "JPN - Shokugeki no Souma Ni no Sara - ED - Snow Drop.ass",
          "default": true,
          "version": "Default"
        }
      ]
    }
  ],
  "data": {
    "created_at": "2018-10-27T16:15:39.000Z",
    "ignoreHooks": false,
    "kid": "67285b85-849d-4eec-8d29-4f0784a2506b",
    "modified_at": "2022-05-05T20:39:35.919Z",
    "repository": "kara.moe",
    "tags": {
      "authors": [
        "b5116310-e69b-4ed4-9e47-c5c53ee69023"
      ],
      "collections": [
        "c7db86a0-ff64-4044-9be4-66dd1ef1d1c1"
      ],
      "creators": [
        "802a8ac8-b16f-40a4-944b-99956798c906"
      ],
      "families": [
        "0377db02-3af6-43b8-9b08-c759df3d25c3"
      ],
      "genres": [
        "a0aeef4a-6428-45ff-a6e1-468b595930c2"
      ],
      "groups": [
        "ae613721-1fbe-480d-ba6b-d6d0702b184d"
      ],
      "langs": [
        "4dcf9614-7914-42aa-99f4-dbce2e059133"
      ],
      "origins": [
        "938de218-5343-4865-94d3-fb33f2eaa152"
      ],
      "series": [
        "34ea0292-d56d-49da-b21f-4d326a4ccf75"
      ],
      "singers": [
        "705e40f8-00f0-46e5-838a-4181d93de4b2"
      ],
      "songtypes": [
        "38c77c56-2b95-4040-b676-0994a8cb0597"
      ],
      "songwriters": [
        "222ae5d2-c7d4-4ba9-852c-681baf61ece4",
        "832bbda8-bb5b-4e9d-b7e6-460541a144d8"
      ],
      "franchises": [
        "e1a94b71-a932-43e4-a0db-7e702c59b99c"
      ]
    },
    "titles": {
      "eng": "Snow Drop",
      "jpn": "スノードロップ"
    },
    "titles_default_language": "eng",
    "title": "Snow Drop",
    "year": 2016
  }
}