{
  "header": {
    "version": 4,
    "description": "Karaoke Mugen Karaoke Data File"
  },
  "medias": [
    {
      "version": "Marine Hôshô.",
      "filename": "JPN - Sakura Taisen 3 Paris wa Moeteiru ka - STREAM - Erica Ohayou Dance ~ Marine Houshou Vers. ~ Cover Vers.mp4",
      "audiogain": -2.47,
      "loudnorm": "-18.51,-2.40,3.00,-28.76,-0.21",
      "filesize": 11366406,
      "duration": 22,
      "default": true,
      "lyrics": [
        {
          "filename": "JPN - Sakura Taisen 3 Paris wa Moeteiru ka - STREAM - Erica Ohayou Dance ~ Marine Houshou Vers. ~ Cover Vers.ass",
          "default": true,
          "version": "Default"
        }
      ]
    }
  ],
  "data": {
    "created_at": "2021-03-15T15:20:56.584Z",
    "ignoreHooks": false,
    "kid": "324b0f8f-1bff-4546-b035-58b8831b8e69",
    "modified_at": "2022-09-30T19:53:41.624Z",
    "parents": [
      "caf272d7-dbf8-46c3-82df-e2fb641a8334"
    ],
    "repository": "kara.moe",
    "tags": {
      "authors": [
        "1df04771-a378-4f14-a5e1-1455187d681a"
      ],
      "collections": [
        "c7db86a0-ff64-4044-9be4-66dd1ef1d1c1"
      ],
      "creators": [
        "0263d413-17bb-4cee-a311-6dd896eda1c9"
      ],
      "families": [
        "0377db02-3af6-43b8-9b08-c759df3d25c3"
      ],
      "groups": [
        "8e209ae4-4381-438f-89dc-1b21752027d2"
      ],
      "langs": [
        "4dcf9614-7914-42aa-99f4-dbce2e059133"
      ],
      "origins": [
        "5106d71b-a78e-4d19-a16d-f8fb6719538a"
      ],
      "series": [
        "0f249c53-0ce0-4d64-8ed0-50586148b8f9"
      ],
      "singers": [
        "77848990-54ab-4ef6-bba7-e1258fda78a5"
      ],
      "songtypes": [
        "55ce3d79-dcc2-453c-b00a-60ce0c1eba1c"
      ],
      "songwriters": [
        "2461dcff-0d44-481a-9841-a8ae3e3d53db"
      ],
      "versions": [
        "03e1e1d2-8641-47b7-bbcb-39a3df9ff21c"
      ],
      "franchises": [
        "3843ae35-0d40-4fef-9bda-0c222c2e5682"
      ]
    },
    "titles": {
      "jpn": "エリカ おはようダンス ~ Marine Hôshô Vers.",
      "qro": "Erica Ohayô Dance ~ Marine Hôshô Vers."
    },
    "titles_default_language": "qro",
    "title": "Erica Ohayô Dance ~ Marine Hôshô Vers.",
    "year": 2021,
    "titles_aliases": [
      "Ohayou",
      "Houshou"
    ]
  }
}