{
  "header": {
    "version": 4,
    "description": "Karaoke Mugen Karaoke Data File"
  },
  "medias": [
    {
      "version": "Default",
      "filename": "JPN - Gosei Sentai Dairanger - ED - Ore-Tachi Muteki Sa!! Dairanger.mp4",
      "audiogain": -0.41,
      "loudnorm": "-17.95,-3.97,3.50,-28.01,-0.85",
      "filesize": 11003022,
      "duration": 59,
      "default": true,
      "lyrics": [
        {
          "filename": "JPN - Gosei Sentai Dairanger - ED - Ore-Tachi Muteki Sa!! Dairanger.ass",
          "default": true,
          "version": "Default",
          "subchecksum": "fcf6f03a3dd312b3cf5524e9f1e8a504"
        }
      ]
    }
  ],
  "data": {
    "created_at": "2018-11-27T18:46:40.000Z",
    "kid": "825d44ad-8691-4138-bf89-56af70d6e700",
    "modified_at": "2021-02-25T11:31:25.139Z",
    "repository": "kara.moe",
    "tags": {
      "authors": [
        "4607780c-f1ef-47cf-9c1c-b13e8f731699"
      ],
      "collections": [
        "c7db86a0-ff64-4044-9be4-66dd1ef1d1c1"
      ],
      "creators": [
        "e32b14df-502b-45fa-9ca5-37554a63a4d7"
      ],
      "families": [
        "5391f9fe-638c-415f-8dc9-958e3a2c5787"
      ],
      "groups": [
        "24db50aa-a126-4d34-a48a-e45db79c4245"
      ],
      "langs": [
        "4dcf9614-7914-42aa-99f4-dbce2e059133"
      ],
      "origins": [
        "938de218-5343-4865-94d3-fb33f2eaa152",
        "d3fac9ab-630d-402d-a392-3d2450c3e62e"
      ],
      "series": [
        "e9de15ef-6e45-4808-8110-7c6d74549c3e"
      ],
      "singers": [
        "7fbfd1fc-6c89-4849-8186-7c37eacebbaf"
      ],
      "songtypes": [
        "38c77c56-2b95-4040-b676-0994a8cb0597"
      ],
      "songwriters": [
        "b7ee43fb-9d5f-4876-9691-de5faec3e77c",
        "c8cc27d8-1322-4346-9fce-8f69001f0445"
      ]
    },
    "title": "Ore-Tachi Muteki Sa!! Dairanger",
    "titles": {
      "qro": "Oretachi Muteki Sa!! Dairanger",
      "jpn": "俺たち無敵さ!!ダイレンジャー"
    },
    "year": 1993,
    "titles_default_language": "qro"
  }
}