{
  "header": {
    "version": 4,
    "description": "Karaoke Mugen Karaoke Data File"
  },
  "medias": [
    {
      "version": "Default",
      "filename": "JPN - Uta no Prince-sama ~ Maji Love 2000 percent - IN - Yume Oibito e no Symphony.mp4",
      "audiogain": -3.42,
      "loudnorm": "-14.13,-0.68,4.90,-24.28,-1.44",
      "filesize": 19990964,
      "duration": 121,
      "default": true,
      "lyrics": [
        {
          "filename": "JPN - Uta no Prince-sama ~ Maji Love 2000 percent - IN - Yume Oibito e no Symphony.ass",
          "default": true,
          "version": "Default"
        }
      ]
    }
  ],
  "data": {
    "created_at": "2021-03-07T19:03:32.266Z",
    "ignoreHooks": false,
    "kid": "4db9dda8-e42d-4067-b2c1-ffaf9d1607de",
    "modified_at": "2022-10-08T18:29:00.045Z",
    "repository": "kara.moe",
    "tags": {
      "authors": [
        "1d7745a8-73ea-40bb-ad99-826af98f6e41"
      ],
      "collections": [
        "c7db86a0-ff64-4044-9be4-66dd1ef1d1c1"
      ],
      "creators": [
        "b96e3686-bbe0-4b9e-815a-a278d5ff31be"
      ],
      "families": [
        "0377db02-3af6-43b8-9b08-c759df3d25c3"
      ],
      "genres": [
        "caa86df2-0d59-474b-885c-f240a9e891b0"
      ],
      "groups": [
        "ae613721-1fbe-480d-ba6b-d6d0702b184d"
      ],
      "langs": [
        "4dcf9614-7914-42aa-99f4-dbce2e059133"
      ],
      "origins": [
        "938de218-5343-4865-94d3-fb33f2eaa152"
      ],
      "series": [
        "08cd2be0-50ea-45d5-9b9e-853f10800f3b"
      ],
      "singers": [
        "035d6c0d-0cbe-409a-a41a-262d732f7e20",
        "06e8a716-74ae-4ccc-843f-21a9a8927a36",
        "1b061bf9-73e5-4365-b3f3-c31872fd8dab",
        "25b5b099-190e-4322-b0a8-04f4048d4ac8",
        "7ef605c3-a982-4b3e-ae9f-33d59bf35e85",
        "a5953838-93af-4574-b5ce-b8bc0c5b05f0",
        "b26b49e2-d439-48b3-8c0f-c7c25648c48a",
        "f19d7c44-48cb-4d7b-89f2-f85f332b8f02"
      ],
      "songtypes": [
        "5e5250d9-351a-4a82-98eb-55db50ad8962"
      ],
      "songwriters": [
        "ac0fb7e2-06df-4498-89bd-2015155576c6",
        "af3ffe51-8059-461c-bbb8-78ea388731f3"
      ],
      "franchises": [
        "c12bb49d-bf8e-466a-b38f-d1b00772d462"
      ]
    },
    "titles": {
      "jpn": "夢追人へのSymphony",
      "qro": "Yume Oibito e no Symphony"
    },
    "titles_default_language": "qro",
    "titles_aliases": [
      "Oibito he"
    ],
    "title": "Yume Oibito e no Symphony",
    "year": 2013
  }
}