{
  "header": {
    "version": 4,
    "description": "Karaoke Mugen Karaoke Data File"
  },
  "medias": [
    {
      "version": "Default",
      "filename": "JPN - No.6 - MV - Roku Tousei no Yoru ~ Full Vers.mp4",
      "audiogain": -7.1,
      "loudnorm": "-10.24,1.10,9.60,-20.46,-1.18",
      "filesize": 148068705,
      "duration": 340,
      "default": true,
      "lyrics": [
        {
          "filename": "JPN - No.6 - MV - Roku Tousei no Yoru ~ Full Vers.ass",
          "default": true,
          "version": "Default"
        }
      ]
    }
  ],
  "data": {
    "created_at": "2020-04-26T11:38:24.309Z",
    "kid": "4c7c49f7-70cf-4fb1-9412-53b2550502ee",
    "modified_at": "2022-06-04T00:13:29.541Z",
    "parents": [
      "89dcf897-2046-47a4-8841-a122f0769491"
    ],
    "repository": "kara.moe",
    "songorder": null,
    "tags": {
      "authors": [
        "037c94c8-6f53-42d0-ab3d-8d057729ba17"
      ],
      "creators": [
        "6fa9de67-21cf-420b-9ddb-57edb5abe523"
      ],
      "families": [
        "5391f9fe-638c-415f-8dc9-958e3a2c5787"
      ],
      "groups": [
        "60defa7b-774e-4680-8321-51b742c2e009",
        "ae613721-1fbe-480d-ba6b-d6d0702b184d"
      ],
      "langs": [
        "4dcf9614-7914-42aa-99f4-dbce2e059133"
      ],
      "misc": [
        "86705d4b-24e4-4756-9687-2b9c98bcf366"
      ],
      "series": [
        "fa736255-b0f7-409c-b51b-0112c966f7b9"
      ],
      "singers": [
        "6cfc20ab-c855-4f24-8bed-0981e465630b"
      ],
      "songtypes": [
        "7be1b15c-cff8-4b37-a649-5c90f3d569a9"
      ],
      "songwriters": [
        "68890898-72a2-44a1-bdfc-f9c9d9c03899",
        "c4b955ea-a5a1-4554-a8f8-eb4ad5b9c5ac"
      ],
      "versions": [
        "c2143a7f-6970-450e-8a79-0302db9220a9"
      ],
      "collections": [
        "dbcf2c22-524d-4708-99bb-601703633927"
      ]
    },
    "titles": {
      "qro": "Roku Tôsei no Yoru",
      "jpn": "六等星の夜"
    },
    "titles_default_language": "qro",
    "titles_aliases": [
      "Tousei"
    ],
    "title": "Roku Tôsei no Yoru",
    "year": 2011
  }
}