{
  "header": {
    "version": 4,
    "description": "Karaoke Mugen Karaoke Data File"
  },
  "medias": [
    {
      "version": "Default",
      "filename": "JPN - Inazuma Eleven - OP5 - Good Guitar!.mp4",
      "audiogain": 2.84,
      "loudnorm": "-19.73,-10.67,2.10,-29.80,0.04",
      "filesize": 40249923,
      "duration": 90,
      "default": true,
      "lyrics": [
        {
          "filename": "JPN - Inazuma Eleven - OP5 - Good Guitar!.ass",
          "default": true,
          "version": "Default",
          "subchecksum": "3b76570fc8a725b381f2b6949d8e6445"
        }
      ]
    }
  ],
  "data": {
    "created_at": "2020-04-19T12:44:29.089Z",
    "kid": "ad3209cb-d83c-41aa-a327-1c69caee43ea",
    "modified_at": "2021-02-25T11:46:50.980Z",
    "repository": "kara.moe",
    "songorder": 5,
    "tags": {
      "authors": [
        "60defa7b-774e-4680-8321-51b742c2e009"
      ],
      "collections": [
        "c7db86a0-ff64-4044-9be4-66dd1ef1d1c1"
      ],
      "creators": [
        "03fe574b-c7f5-4520-96dc-47320c39e2cc"
      ],
      "families": [
        "0377db02-3af6-43b8-9b08-c759df3d25c3"
      ],
      "genres": [
        "a0aeef4a-6428-45ff-a6e1-468b595930c2"
      ],
      "groups": [
        "60defa7b-774e-4680-8321-51b742c2e009",
        "ae613721-1fbe-480d-ba6b-d6d0702b184d"
      ],
      "langs": [
        "4dcf9614-7914-42aa-99f4-dbce2e059133"
      ],
      "origins": [
        "938de218-5343-4865-94d3-fb33f2eaa152"
      ],
      "series": [
        "8736c98c-8f96-4e0e-96a9-1d6eb10be540"
      ],
      "singers": [
        "649d36f3-728d-4230-9655-acd474036312",
        "a3e69301-4f5a-43fd-96d4-0a51b23f34ac"
      ],
      "songtypes": [
        "f02ad9b3-0bd9-4aad-85b3-9976739ba0e4"
      ],
      "songwriters": [
        "a3e69301-4f5a-43fd-96d4-0a51b23f34ac",
        "fb42506e-9b6d-4807-9d8c-28caec4baed8"
      ],
      "franchises": [
        "8736c98c-8f96-4e0e-96a9-1d6eb10be540"
      ]
    },
    "title": "Good Guitar!",
    "titles": {
      "eng": "Good Guitar!",
      "jpn": "GOODキター!"
    },
    "year": 2010,
    "titles_default_language": "eng"
  }
}