{
  "header": {
    "version": 4,
    "description": "Karaoke Mugen Karaoke Data File"
  },
  "medias": [
    {
      "version": "Default",
      "filename": "JPN - Innocence Enzai Bengoushi - MV - Hakujitsu.mp4",
      "audiogain": -12.3,
      "loudnorm": "-5.61,1.98,7.40,-15.85,-1.18",
      "filesize": 62924099,
      "duration": 279,
      "default": true,
      "lyrics": [
        {
          "filename": "JPN - Innocence Enzai Bengoushi - MV - Hakujitsu.ass",
          "default": true,
          "version": "Default"
        }
      ]
    }
  ],
  "data": {
    "created_at": "2020-01-28T22:43:38.918Z",
    "kid": "c27f467b-2d58-465e-8238-f6ae2a6c4f67",
    "modified_at": "2022-06-04T00:14:29.652Z",
    "repository": "kara.moe",
    "songorder": null,
    "tags": {
      "authors": [
        "269d1464-84f9-44da-9064-1d074bafb602"
      ],
      "creators": [
        "f49e3aff-8f9c-4b83-accb-b1d31f4a0289"
      ],
      "families": [
        "5391f9fe-638c-415f-8dc9-958e3a2c5787"
      ],
      "groups": [
        "2b4e9972-5e17-481b-99f5-d0787c0ada56",
        "ae613721-1fbe-480d-ba6b-d6d0702b184d"
      ],
      "langs": [
        "4dcf9614-7914-42aa-99f4-dbce2e059133"
      ],
      "series": [
        "625c4de0-9722-476c-9bb5-ea692c9a0843"
      ],
      "singers": [
        "0a7237a8-5da5-4b94-9c57-c79f73435105"
      ],
      "songtypes": [
        "7be1b15c-cff8-4b37-a649-5c90f3d569a9"
      ],
      "songwriters": [
        "13c1ef7a-0b82-4f0e-9ebb-0aef854fcc59"
      ],
      "collections": [
        "dbcf2c22-524d-4708-99bb-601703633927"
      ]
    },
    "titles": {
      "qro": "Hakujitsu",
      "jpn": "白日"
    },
    "titles_default_language": "qro",
    "title": "Hakujitsu",
    "year": 2019
  }
}