{
  "header": {
    "version": 4,
    "description": "Karaoke Mugen Karaoke Data File"
  },
  "medias": [
    {
      "version": "Default",
      "filename": "JPN - Naruto - OP4 - GO!!!.mp4",
      "audiogain": -6.35,
      "loudnorm": "-10.20,0.47,1.50,-20.23,-0.13",
      "filesize": 34175181,
      "duration": 91,
      "default": true,
      "lyrics": [
        {
          "filename": "JPN - Naruto - OP4 - GO!!!.ass",
          "default": true,
          "version": "Default",
          "subchecksum": "959618c9d72f39c387225a15c1928c76"
        }
      ]
    }
  ],
  "data": {
    "created_at": "2017-10-11T17:02:51.000Z",
    "kid": "06382b03-60a3-4e7f-b20f-28c6ce40b408",
    "modified_at": "2021-02-25T12:33:24.866Z",
    "repository": "kara.moe",
    "songorder": 4,
    "tags": {
      "authors": [
        "5bdaba57-27f8-4568-8806-76a807728766"
      ],
      "collections": [
        "c7db86a0-ff64-4044-9be4-66dd1ef1d1c1"
      ],
      "creators": [
        "aaff4ba6-9a12-4bac-9bd0-c0cb783e4177"
      ],
      "families": [
        "0377db02-3af6-43b8-9b08-c759df3d25c3"
      ],
      "genres": [
        "a0aeef4a-6428-45ff-a6e1-468b595930c2"
      ],
      "groups": [
        "3c14c864-533c-49e6-a3cc-6969f1233775"
      ],
      "langs": [
        "4dcf9614-7914-42aa-99f4-dbce2e059133"
      ],
      "origins": [
        "938de218-5343-4865-94d3-fb33f2eaa152"
      ],
      "series": [
        "3201e723-3e75-46f9-bb21-d991f4f7731e"
      ],
      "singers": [
        "fa3c1f40-c7ef-4ba2-9630-f540bcf94b43"
      ],
      "songtypes": [
        "f02ad9b3-0bd9-4aad-85b3-9976739ba0e4"
      ],
      "songwriters": [
        "059c908e-e210-4405-a509-04ae79271c6e",
        "ad341f74-d55c-43fb-829a-c41927619998"
      ],
      "franchises": [
        "3201e723-3e75-46f9-bb21-d991f4f7731e"
      ]
    },
    "title": "GO!!!",
    "titles": {
      "eng": "Go!!!"
    },
    "year": 2002,
    "titles_default_language": "eng"
  }
}