{
  "header": {
    "version": 4,
    "description": "Karaoke Mugen Karaoke Data File"
  },
  "medias": [
    {
      "version": "Default",
      "filename": "JPN - Ayumi Hamasaki - MV - Daybreak.mp4",
      "audiogain": -6.1,
      "loudnorm": "-12.26,0.39,11.30,-22.46,-1.59",
      "filesize": 79664126,
      "duration": 335,
      "default": true,
      "lyrics": [
        {
          "filename": "JPN - Ayumi Hamasaki - MV - Daybreak.ass",
          "default": true,
          "version": "Default"
        }
      ]
    }
  ],
  "data": {
    "created_at": "2017-10-11T17:02:56.000Z",
    "kid": "b1da296b-6e8f-4bef-8678-605706a98db1",
    "modified_at": "2022-06-04T00:24:14.990Z",
    "repository": "kara.moe",
    "songorder": null,
    "tags": {
      "authors": [
        "5bdaba57-27f8-4568-8806-76a807728766"
      ],
      "creators": [
        "90caf15e-bc86-46e1-8793-9af7906c8310"
      ],
      "families": [
        "5391f9fe-638c-415f-8dc9-958e3a2c5787"
      ],
      "groups": [
        "3c14c864-533c-49e6-a3cc-6969f1233775"
      ],
      "langs": [
        "4dcf9614-7914-42aa-99f4-dbce2e059133"
      ],
      "misc": [
        "86705d4b-24e4-4756-9687-2b9c98bcf366",
        "fe819ff1-9db8-4a0f-85dc-0e322c9126c4"
      ],
      "singers": [
        "c10e51ef-eccd-4c18-b0e6-ada13851361a"
      ],
      "songtypes": [
        "7be1b15c-cff8-4b37-a649-5c90f3d569a9"
      ],
      "songwriters": [
        "7d2bbee2-8fd1-483b-bf8d-f56038ae5342",
        "a118fe6b-7295-41c3-9ae0-bc8b180f1095",
        "c10e51ef-eccd-4c18-b0e6-ada13851361a"
      ],
      "collections": [
        "dbcf2c22-524d-4708-99bb-601703633927"
      ]
    },
    "titles": {
      "eng": "Daybreak"
    },
    "titles_default_language": "eng",
    "title": "Daybreak",
    "year": 2002
  }
}