{
  "header": {
    "version": 4,
    "description": "Karaoke Mugen Karaoke Data File"
  },
  "medias": [
    {
      "version": "Default",
      "filename": "JPN - Concerto. - PC GAME OP - Let's take power!.mp4",
      "audiogain": -0.58,
      "loudnorm": "-17.19,-0.13,4.70,-27.30,-0.03",
      "filesize": 6675239,
      "duration": 121,
      "default": true,
      "lyrics": [
        {
          "filename": "JPN - Concerto. - PC GAME OP - Let's take power!.ass",
          "default": true,
          "version": "Default",
          "subchecksum": "54a5e9b6a052554074137abd6016ff5f"
        }
      ]
    }
  ],
  "data": {
    "created_at": "2021-04-14T23:43:26.996Z",
    "kid": "2c01471c-717b-43c4-a4e3-b4f7e6afc9de",
    "modified_at": "2021-04-14T23:45:12.477Z",
    "repository": "kara.moe",
    "tags": {
      "authors": [
        "a5dbab74-510b-48c5-9cea-5a537a81c974"
      ],
      "collections": [
        "c7db86a0-ff64-4044-9be4-66dd1ef1d1c1"
      ],
      "creators": [
        "23222c65-54f5-42ea-9868-65bfb7a5a8aa"
      ],
      "families": [
        "dbedd6b3-d125-4cd8-aa32-c4175e4ca3a3"
      ],
      "groups": [
        "3c14c864-533c-49e6-a3cc-6969f1233775",
        "8c22c899-b3ed-42da-a548-ce00f950798b"
      ],
      "langs": [
        "4dcf9614-7914-42aa-99f4-dbce2e059133"
      ],
      "origins": [
        "2f96e82c-c61b-4413-817e-e6b247509b95"
      ],
      "platforms": [
        "3c15f758-e1bc-4266-8bb9-3c14112f504a"
      ],
      "series": [
        "abf8a83e-6742-42e7-9afd-82f4c16498d4"
      ],
      "singers": [
        "03fb77e1-fb0b-466d-804b-ba182641cda0"
      ],
      "songtypes": [
        "f02ad9b3-0bd9-4aad-85b3-9976739ba0e4"
      ],
      "songwriters": [
        "1d4d0aaa-637e-4fc0-aa33-2f802abe5e26",
        "45ac68a0-450e-429b-914d-a56f88d68b2f"
      ]
    },
    "title": "Let's take power!",
    "titles": {
      "eng": "Let's take power!"
    },
    "year": 2001,
    "titles_default_language": "eng"
  }
}