{
  "header": {
    "version": 4,
    "description": "Karaoke Mugen Karaoke Data File"
  },
  "medias": [
    {
      "version": "Default",
      "filename": "JPN - Durarara!! - ED1 - Trust Me.mp4",
      "audiogain": -0.94,
      "loudnorm": "-16.10,-4.10,3.30,-26.33,-0.44",
      "filesize": 13339984,
      "duration": 91,
      "default": true,
      "lyrics": [
        {
          "filename": "JPN - Durarara!! - ED1 - Trust Me.ass",
          "default": true,
          "version": "Default",
          "subchecksum": "fc2e368c5310e3990a703bbee81c7a1a"
        }
      ]
    }
  ],
  "data": {
    "created_at": "2017-10-11T17:02:11.000Z",
    "kid": "99b246cd-1bd4-4e6c-896e-fb441156e2bd",
    "modified_at": "2021-02-25T11:13:43.180Z",
    "repository": "kara.moe",
    "songorder": 1,
    "tags": {
      "authors": [
        "5bdaba57-27f8-4568-8806-76a807728766"
      ],
      "collections": [
        "c7db86a0-ff64-4044-9be4-66dd1ef1d1c1"
      ],
      "creators": [
        "a06f41a3-31b6-462a-a195-e48a11386da3"
      ],
      "families": [
        "0377db02-3af6-43b8-9b08-c759df3d25c3"
      ],
      "groups": [
        "ae613721-1fbe-480d-ba6b-d6d0702b184d"
      ],
      "langs": [
        "4dcf9614-7914-42aa-99f4-dbce2e059133"
      ],
      "origins": [
        "938de218-5343-4865-94d3-fb33f2eaa152"
      ],
      "series": [
        "e045db8b-053c-41b5-b99f-470d02b871fa"
      ],
      "singers": [
        "b331941f-c11d-424b-ab3b-761ea8284470"
      ],
      "songtypes": [
        "38c77c56-2b95-4040-b676-0994a8cb0597"
      ],
      "songwriters": [
        "7ce099df-664d-4a12-97e8-f2a361a43f1e",
        "7e997c01-f7ff-409d-a0e7-f8158a53d872",
        "923e03e3-9cd5-49fb-8189-6b9474e8bfc9"
      ],
      "franchises": [
        "e045db8b-053c-41b5-b99f-470d02b871fa"
      ]
    },
    "title": "Trust Me",
    "titles": {
      "eng": "Trust Me"
    },
    "year": 2010,
    "titles_default_language": "eng"
  }
}