{
  "header": {
    "version": 4,
    "description": "Karaoke Mugen Karaoke Data File"
  },
  "medias": [
    {
      "version": "Default",
      "filename": "JPN - Needless - OP1 - Modern Strange Cowboy.mp4",
      "audiogain": 2.83,
      "loudnorm": "-20.15,-13.69,4.40,-30.27,-0.49",
      "filesize": 49235511,
      "duration": 91,
      "default": true,
      "lyrics": [
        {
          "filename": "JPN - Needless - OP1 - Modern Strange Cowboy.ass",
          "default": true,
          "version": "Default",
          "subchecksum": "f4681f6aa6aa5e3b8b56e03ad8145d65"
        }
      ]
    }
  ],
  "data": {
    "created_at": "2017-10-11T17:03:04.000Z",
    "kid": "ca084a56-1a21-49e0-8a6e-1024749fc869",
    "modified_at": "2021-02-25T12:34:56.611Z",
    "repository": "kara.moe",
    "songorder": 1,
    "tags": {
      "authors": [
        "5bdaba57-27f8-4568-8806-76a807728766"
      ],
      "collections": [
        "c7db86a0-ff64-4044-9be4-66dd1ef1d1c1"
      ],
      "creators": [
        "9c5cf6ba-0bc8-4cfe-a63c-e9be3a14e9fd"
      ],
      "families": [
        "0377db02-3af6-43b8-9b08-c759df3d25c3"
      ],
      "groups": [
        "3c14c864-533c-49e6-a3cc-6969f1233775"
      ],
      "langs": [
        "4dcf9614-7914-42aa-99f4-dbce2e059133"
      ],
      "origins": [
        "938de218-5343-4865-94d3-fb33f2eaa152"
      ],
      "series": [
        "e83593a4-8a1d-4530-b846-c32d1d511dce"
      ],
      "singers": [
        "213ca674-9084-40ad-a7a8-c84d8108fce9"
      ],
      "songtypes": [
        "f02ad9b3-0bd9-4aad-85b3-9976739ba0e4"
      ],
      "songwriters": [
        "8e1f109c-a1d4-40d6-9a55-32abdb12993c",
        "b26b49e2-d439-48b3-8c0f-c7c25648c48a"
      ]
    },
    "title": "Modern Strange Cowboy",
    "titles": {
      "eng": "Modern Strange Cowboy"
    },
    "year": 2009,
    "titles_default_language": "eng"
  }
}