{
  "header": {
    "version": 4,
    "description": "Karaoke Mugen Karaoke Data File"
  },
  "medias": [
    {
      "version": "Default",
      "filename": "JPN - Gintama - OP6 - Anata Magic.mp4",
      "audiogain": -0.09,
      "loudnorm": "-17.31,-7.96,2.00,-27.53,-0.15",
      "filesize": 22834773,
      "duration": 93,
      "default": true,
      "lyrics": [
        {
          "filename": "JPN - Gintama - OP6 - Anata Magic.ass",
          "default": true,
          "version": "Default",
          "subchecksum": "9ecbc7eb14781a5d34f32e39d5252c14"
        }
      ]
    }
  ],
  "data": {
    "created_at": "2017-10-11T17:01:52.000Z",
    "kid": "31a13f94-608f-4cb3-ae93-54895fdfb3ed",
    "modified_at": "2021-02-25T11:28:50.251Z",
    "repository": "kara.moe",
    "songorder": 6,
    "tags": {
      "authors": [
        "5bdaba57-27f8-4568-8806-76a807728766"
      ],
      "collections": [
        "c7db86a0-ff64-4044-9be4-66dd1ef1d1c1"
      ],
      "creators": [
        "ef8f80e1-d244-4aea-b7f0-984d6dd4b82b"
      ],
      "families": [
        "0377db02-3af6-43b8-9b08-c759df3d25c3"
      ],
      "genres": [
        "a0aeef4a-6428-45ff-a6e1-468b595930c2"
      ],
      "groups": [
        "3c14c864-533c-49e6-a3cc-6969f1233775"
      ],
      "langs": [
        "4dcf9614-7914-42aa-99f4-dbce2e059133"
      ],
      "origins": [
        "938de218-5343-4865-94d3-fb33f2eaa152"
      ],
      "series": [
        "0433ab0b-74bb-4837-8f1b-fd17a9e0c526"
      ],
      "singers": [
        "f497de89-042f-4deb-9e46-0d68834bcb45"
      ],
      "songtypes": [
        "f02ad9b3-0bd9-4aad-85b3-9976739ba0e4"
      ],
      "songwriters": [
        "4701235e-a7c3-4b01-971d-7e6d09ad4933"
      ],
      "franchises": [
        "0433ab0b-74bb-4837-8f1b-fd17a9e0c526"
      ]
    },
    "title": "Anata Magic",
    "titles": {
      "qro": "Anata Magic",
      "jpn": "アナタMAGIC"
    },
    "year": 2006,
    "titles_default_language": "qro"
  }
}