{
  "header": {
    "version": 4,
    "description": "Karaoke Mugen Karaoke Data File"
  },
  "medias": [
    {
      "version": "Default",
      "filename": "JPN - Pocket Monsters Sun & Moon (Game) - 3DS GAME PV - Mimikyu no Uta.mp4",
      "audiogain": -7.44,
      "loudnorm": "-8.80,0.76,3.80,-19.11,-0.83",
      "filesize": 40118843,
      "duration": 83,
      "default": true,
      "lyrics": [
        {
          "filename": "JPN - Pocket Monsters Sun & Moon (Game) - 3DS GAME PV - Mimikyu no Uta.ass",
          "default": true,
          "version": "Default",
          "subchecksum": "865267d3421d9841ce7d301e17835861"
        }
      ]
    }
  ],
  "data": {
    "created_at": "2017-10-11T17:01:10.000Z",
    "kid": "361cf161-ea3e-48f8-9eb8-be14f822f7bf",
    "modified_at": "2021-02-25T12:46:27.628Z",
    "repository": "kara.moe",
    "tags": {
      "authors": [
        "f1710fab-7461-468f-a8dd-11eebe4e1fc0"
      ],
      "collections": [
        "c7db86a0-ff64-4044-9be4-66dd1ef1d1c1"
      ],
      "creators": [
        "c3cbd790-dfee-4e5e-a21e-9c36d5f8c542"
      ],
      "families": [
        "dbedd6b3-d125-4cd8-aa32-c4175e4ca3a3"
      ],
      "groups": [
        "8c22c899-b3ed-42da-a548-ce00f950798b",
        "ae613721-1fbe-480d-ba6b-d6d0702b184d"
      ],
      "langs": [
        "4dcf9614-7914-42aa-99f4-dbce2e059133"
      ],
      "platforms": [
        "d7393757-7de7-4247-ba59-120b3ceea9bf"
      ],
      "series": [
        "9b0b0930-0227-4016-b01f-e5986f2d6a2b"
      ],
      "singers": [
        "5aa90354-4e6e-4f68-a280-49ab16b3fe8b"
      ],
      "songtypes": [
        "66e195b9-64ea-432d-a917-2e2c88d26052"
      ],
      "franchises": [
        "c6923c03-f8c0-4258-a478-8dfa08f3ccd0"
      ]
    },
    "title": "Mimikyu no Uta",
    "titles": {
      "qro": "Mimikyu no Uta",
      "jpn": "ミミッキュのうた"
    },
    "year": 2016,
    "titles_default_language": "qro"
  }
}