{
  "header": {
    "version": 4,
    "description": "Karaoke Mugen Karaoke Data File"
  },
  "medias": [
    {
      "version": "Default",
      "filename": "JPN - Rurouni Kenshin Meiji Kenkaku Romantan - MV - Sanbun no Ichi no Junjou na Kanjou ~ Full Vers.mp4",
      "audiogain": -12.76,
      "loudnorm": "-4.27,3.07,4.10,-14.49,-0.96",
      "filesize": 121790337,
      "duration": 226,
      "default": true,
      "lyrics": [
        {
          "filename": "JPN - Rurouni Kenshin Meiji Kenkaku Romantan - MV - Sanbun no Ichi no Junjou na Kanjou ~ Full Vers.ass",
          "default": true,
          "version": "Default"
        }
      ]
    }
  ],
  "data": {
    "created_at": "2021-06-13T08:37:16.874Z",
    "ignoreHooks": false,
    "kid": "68cf33a0-7b28-4d31-9472-3e3400cc6130",
    "modified_at": "2022-10-02T12:21:06.740Z",
    "parents": [
      "15b295ec-8a11-49bc-af44-a67ac2921b4a"
    ],
    "repository": "kara.moe",
    "tags": {
      "authors": [
        "70e26885-c0b5-4a01-b95b-2f492b8a8f10"
      ],
      "collections": [
        "dbcf2c22-524d-4708-99bb-601703633927"
      ],
      "creators": [
        "6fa9de67-21cf-420b-9ddb-57edb5abe523"
      ],
      "families": [
        "5391f9fe-638c-415f-8dc9-958e3a2c5787"
      ],
      "groups": [
        "24db50aa-a126-4d34-a48a-e45db79c4245"
      ],
      "langs": [
        "4dcf9614-7914-42aa-99f4-dbce2e059133"
      ],
      "series": [
        "b4865b94-04c8-4892-b7c9-128f5071d1f4"
      ],
      "singers": [
        "ef03de76-2f20-4c31-9b74-c475ddde41f1"
      ],
      "songtypes": [
        "7be1b15c-cff8-4b37-a649-5c90f3d569a9"
      ],
      "songwriters": [
        "ef03de76-2f20-4c31-9b74-c475ddde41f1"
      ],
      "versions": [
        "c2143a7f-6970-450e-8a79-0302db9220a9"
      ],
      "franchises": [
        "49303ca9-7e49-459b-b115-6f3e067d0c11"
      ]
    },
    "titles": {
      "jpn": "1/3の純情な感情",
      "qro": "Sanbun no Ichi no Junjô na Kanjô"
    },
    "titles_default_language": "qro",
    "titles_aliases": [
      "Kanjou",
      "Junjou"
    ],
    "title": "Sanbun no Ichi no Junjô na Kanjô",
    "year": 1996
  }
}