{
  "header": {
    "version": 4,
    "description": "Karaoke Mugen Karaoke Data File"
  },
  "medias": [
    {
      "version": "Default",
      "filename": "JPN - Psycho-Pass 2 - ED - Fallen.mp4",
      "audiogain": 0.37,
      "loudnorm": "-17.16,-6.85,7.50,-27.23,-1.84",
      "filesize": 44891757,
      "duration": 92,
      "default": true,
      "lyrics": [
        {
          "filename": "JPN - Psycho-Pass 2 - ED - Fallen.ass",
          "default": true,
          "version": "Default",
          "subchecksum": "c7086156f5d533238d47fd697095c713"
        }
      ]
    }
  ],
  "data": {
    "created_at": "2017-10-11T17:02:38.000Z",
    "kid": "2c8f0803-e9de-4d97-ad61-f0b54e41023e",
    "modified_at": "2021-02-25T12:48:07.010Z",
    "repository": "kara.moe",
    "tags": {
      "authors": [
        "5bdaba57-27f8-4568-8806-76a807728766"
      ],
      "collections": [
        "c7db86a0-ff64-4044-9be4-66dd1ef1d1c1"
      ],
      "creators": [
        "cfdb2d1e-499d-47a1-b9f8-070153b5048e"
      ],
      "families": [
        "0377db02-3af6-43b8-9b08-c759df3d25c3"
      ],
      "groups": [
        "33881a14-788e-4e2a-a97d-1e5f51542a26",
        "ae613721-1fbe-480d-ba6b-d6d0702b184d"
      ],
      "langs": [
        "4dcf9614-7914-42aa-99f4-dbce2e059133"
      ],
      "origins": [
        "938de218-5343-4865-94d3-fb33f2eaa152"
      ],
      "series": [
        "8b0c4199-76a7-41c9-a526-05da41c8c6f7"
      ],
      "singers": [
        "e22fbc73-32ed-46af-ab06-c358c02aee1d"
      ],
      "songtypes": [
        "38c77c56-2b95-4040-b676-0994a8cb0597"
      ],
      "songwriters": [
        "b269bf90-79fc-4167-a78d-e22328df4ee0"
      ],
      "franchises": [
        "32e03772-7129-46dd-95a3-5651354f5e0f"
      ]
    },
    "title": "Fallen",
    "titles": {
      "eng": "Fallen"
    },
    "year": 2014,
    "titles_default_language": "eng"
  }
}