{
  "header": {
    "version": 4,
    "description": "Karaoke Mugen Karaoke Data File"
  },
  "medias": [
    {
      "version": "Default",
      "filename": "JPN - Nisekoi - OP2 - STEP.mp4",
      "audiogain": -9.22,
      "loudnorm": "-8.44,-0.36,4.30,-18.57,-1.30",
      "filesize": 74415029,
      "duration": 92,
      "default": true,
      "lyrics": [
        {
          "filename": "JPN - Nisekoi - OP2 - STEP.ass",
          "default": true,
          "version": "Default",
          "subchecksum": "75c6ea18cce027b900bccc6876e9de41"
        }
      ]
    }
  ],
  "data": {
    "created_at": "2017-10-11T17:01:17.000Z",
    "kid": "54515e24-6c74-48e4-8ba6-5c74850ae6b0",
    "modified_at": "2021-02-25T12:37:22.814Z",
    "repository": "kara.moe",
    "songorder": 2,
    "tags": {
      "authors": [
        "5bdaba57-27f8-4568-8806-76a807728766"
      ],
      "collections": [
        "c7db86a0-ff64-4044-9be4-66dd1ef1d1c1"
      ],
      "creators": [
        "c3bd80ef-d1fe-427f-913f-a2ba2fe66114"
      ],
      "families": [
        "0377db02-3af6-43b8-9b08-c759df3d25c3"
      ],
      "genres": [
        "a0aeef4a-6428-45ff-a6e1-468b595930c2"
      ],
      "groups": [
        "ae613721-1fbe-480d-ba6b-d6d0702b184d"
      ],
      "langs": [
        "4dcf9614-7914-42aa-99f4-dbce2e059133"
      ],
      "origins": [
        "938de218-5343-4865-94d3-fb33f2eaa152"
      ],
      "series": [
        "648dcd60-220b-4211-a8ce-23086723374b"
      ],
      "singers": [
        "ff590105-5f65-4b1f-adf9-2cfb5b789428"
      ],
      "songtypes": [
        "f02ad9b3-0bd9-4aad-85b3-9976739ba0e4"
      ],
      "songwriters": [
        "0098edaf-b60b-4b75-bc82-ccf824f506ce"
      ],
      "franchises": [
        "648dcd60-220b-4211-a8ce-23086723374b"
      ]
    },
    "title": "STEP",
    "titles": {
      "eng": "STEP"
    },
    "year": 2014,
    "titles_default_language": "eng"
  }
}