{
  "header": {
    "version": 4,
    "description": "Karaoke Mugen Karaoke Data File"
  },
  "medias": [
    {
      "version": "Default",
      "filename": "JPN - Fate Extra CCC - GAME PSP OP - Sakura Meikyuu.mp4",
      "audiogain": -0.8,
      "loudnorm": "-17.00,-7.03,5.60,-27.32,-0.73",
      "filesize": 60446129,
      "duration": 91,
      "default": true,
      "lyrics": [
        {
          "filename": "JPN - Fate Extra CCC - GAME PSP OP - Sakura Meikyuu.ass",
          "default": true,
          "version": "Default"
        }
      ]
    }
  ],
  "data": {
    "created_at": "2021-03-07T12:36:34.679Z",
    "ignoreHooks": false,
    "kid": "2923e829-d40f-4aee-a85d-0552943dda8b",
    "modified_at": "2022-07-09T12:24:09.889Z",
    "repository": "kara.moe",
    "tags": {
      "authors": [
        "278c6742-0b75-43dd-b317-2ea112952b4a"
      ],
      "collections": [
        "c7db86a0-ff64-4044-9be4-66dd1ef1d1c1"
      ],
      "creators": [
        "211ed332-b979-4c23-9fac-c48ad71f3b8f",
        "f2135722-dc64-49da-9e67-8a2d6262ca98"
      ],
      "families": [
        "dbedd6b3-d125-4cd8-aa32-c4175e4ca3a3"
      ],
      "groups": [
        "8c22c899-b3ed-42da-a548-ce00f950798b",
        "ae613721-1fbe-480d-ba6b-d6d0702b184d"
      ],
      "langs": [
        "4dcf9614-7914-42aa-99f4-dbce2e059133"
      ],
      "origins": [
        "2f96e82c-c61b-4413-817e-e6b247509b95"
      ],
      "platforms": [
        "6b101aff-4b7b-4b0d-b35e-0f1b67e38c9b"
      ],
      "series": [
        "da3c41dc-9c2d-4d90-a3d4-aa04b889ddc5"
      ],
      "singers": [
        "05f19984-0588-43e4-b0da-b8e145b95c91"
      ],
      "songtypes": [
        "f02ad9b3-0bd9-4aad-85b3-9976739ba0e4"
      ],
      "songwriters": [
        "05f19984-0588-43e4-b0da-b8e145b95c91"
      ],
      "franchises": [
        "564373dc-4cfa-454e-8af1-bcccb886c007"
      ]
    },
    "titles": {
      "qro": "Sakura Meikyû",
      "jpn": "サクラメイキュウ"
    },
    "titles_default_language": "qro",
    "titles_aliases": [
      "Meikyuu"
    ],
    "title": "Sakura Meikyû",
    "year": 2013
  }
}