{
  "header": {
    "version": 4,
    "description": "Karaoke Mugen Karaoke Data File"
  },
  "medias": [
    {
      "version": "Default",
      "filename": "JPN - Naruto Shippuuden - LIVE - Blue Bird ~ Full Vers.mp4",
      "audiogain": -9.89,
      "loudnorm": "-7.19,0.89,2.80,-17.37,-0.20",
      "filesize": 50652871,
      "duration": 228,
      "default": true,
      "lyrics": [
        {
          "filename": "JPN - Naruto Shippuuden - LIVE - Blue Bird ~ Full Vers.ass",
          "default": true,
          "version": "Default"
        }
      ]
    }
  ],
  "data": {
    "created_at": "2018-06-26T15:08:34.000Z",
    "ignoreHooks": false,
    "kid": "f439f708-ebab-490b-8302-48f6690a4afe",
    "modified_at": "2022-12-21T22:36:39.521Z",
    "parents": [
      "c0d56c4c-26ab-4149-a9a0-7a24b7bacdb8"
    ],
    "repository": "kara.moe",
    "tags": {
      "authors": [
        "05c1e4ad-32ba-490e-8f3c-5cd491c96d85"
      ],
      "collections": [
        "dbcf2c22-524d-4708-99bb-601703633927"
      ],
      "creators": [
        "221d01d3-cf22-45d6-b187-5e7806dd6d1e"
      ],
      "families": [
        "5391f9fe-638c-415f-8dc9-958e3a2c5787"
      ],
      "groups": [
        "ae613721-1fbe-480d-ba6b-d6d0702b184d"
      ],
      "langs": [
        "4dcf9614-7914-42aa-99f4-dbce2e059133"
      ],
      "series": [
        "afd38f79-188d-47e4-95c6-f74c38895574"
      ],
      "singers": [
        "898d5ea4-56eb-47dc-a2ce-1549a3237709"
      ],
      "songtypes": [
        "a0167949-580c-4de3-bf13-497e462e02f3"
      ],
      "songwriters": [
        "52944693-acb2-44bf-86bb-5057d837def8"
      ],
      "versions": [
        "c2143a7f-6970-450e-8a79-0302db9220a9"
      ],
      "franchises": [
        "3201e723-3e75-46f9-bb21-d991f4f7731e"
      ]
    },
    "titles": {
      "eng": "Blue Bird",
      "jpn": "ブルーバード"
    },
    "titles_default_language": "eng",
    "year": 2016
  }
}