{
  "header": {
    "version": 4,
    "description": "Karaoke Mugen Karaoke Data File"
  },
  "medias": [
    {
      "version": "Default",
      "filename": "JPN - Tsukuyomi - MV - Ikiru Yosuga.mp4",
      "audiogain": -10.37,
      "loudnorm": "-7.17,1.37,5.00,-17.29,-1.02",
      "filesize": 27404419,
      "duration": 244,
      "default": true,
      "lyrics": [
        {
          "filename": "JPN - Tsukuyomi - MV - Ikiru Yosuga.ass",
          "default": true,
          "version": "Default"
        }
      ]
    }
  ],
  "data": {
    "created_at": "2022-09-03T13:24:34.238Z",
    "ignoreHooks": false,
    "kid": "e5b62194-659c-45bf-ad4a-0888db95b1d7",
    "modified_at": "2022-12-11T16:05:33.626Z",
    "repository": "kara.moe",
    "tags": {
      "authors": [
        "ba4c7606-1e96-4c45-8e21-d5103477336b"
      ],
      "collections": [
        "c7db86a0-ff64-4044-9be4-66dd1ef1d1c1",
        "dbcf2c22-524d-4708-99bb-601703633927"
      ],
      "creators": [
        "21963342-2c22-4e16-b471-b28f494fb72f"
      ],
      "families": [
        "0377db02-3af6-43b8-9b08-c759df3d25c3"
      ],
      "groups": [
        "2b4e9972-5e17-481b-99f5-d0787c0ada56",
        "8e209ae4-4381-438f-89dc-1b21752027d2"
      ],
      "langs": [
        "4dcf9614-7914-42aa-99f4-dbce2e059133"
      ],
      "singers": [
        "eec1b815-ee7f-447d-a696-5121dc4a4a18"
      ],
      "songtypes": [
        "7be1b15c-cff8-4b37-a649-5c90f3d569a9"
      ],
      "songwriters": [
        "2682f2a6-dc4b-4a48-b3df-87cf02bfbcfb"
      ]
    },
    "titles": {
      "jpn": "生きるよすが",
      "qro": "Ikiru Yosuga"
    },
    "titles_default_language": "qro",
    "year": 2022
  }
}