{
  "header": {
    "version": 4,
    "description": "Karaoke Mugen Karaoke Data File"
  },
  "medias": [
    {
      "version": "Default",
      "filename": "JPN - Devil Survivor Overclock - 3DS GAME OP - Soul Survive.mp4",
      "audiogain": 0.16,
      "loudnorm": "-17.14,-8.92,4.00,-27.57,-0.94",
      "filesize": 49582134,
      "duration": 63,
      "default": true,
      "lyrics": [
        {
          "filename": "JPN - Devil Survivor Overclock - 3DS GAME OP - Soul Survive.ass",
          "default": true,
          "version": "Default",
          "subchecksum": "adba124b6b7d1bb8dbce9c49504db54b"
        }
      ]
    }
  ],
  "data": {
    "created_at": "2021-02-08T19:51:03.898Z",
    "kid": "083abd09-a14c-47a8-bd01-5c4b16bc78ea",
    "modified_at": "2021-02-25T11:09:01.429Z",
    "repository": "kara.moe",
    "tags": {
      "authors": [
        "56b54c89-86ae-4635-992f-ddc1234b8015"
      ],
      "collections": [
        "c7db86a0-ff64-4044-9be4-66dd1ef1d1c1"
      ],
      "creators": [
        "e5b206a5-c7f9-4ec9-bffb-2f1de7de6757"
      ],
      "families": [
        "dbedd6b3-d125-4cd8-aa32-c4175e4ca3a3"
      ],
      "groups": [
        "8c22c899-b3ed-42da-a548-ce00f950798b",
        "ae613721-1fbe-480d-ba6b-d6d0702b184d"
      ],
      "langs": [
        "4dcf9614-7914-42aa-99f4-dbce2e059133"
      ],
      "platforms": [
        "d7393757-7de7-4247-ba59-120b3ceea9bf"
      ],
      "series": [
        "87973e4a-d671-4093-81b9-5aa6d7276f47"
      ],
      "singers": [
        "080dd908-77c2-4f9e-b77c-1f79643bf255"
      ],
      "songtypes": [
        "f02ad9b3-0bd9-4aad-85b3-9976739ba0e4"
      ],
      "songwriters": [
        "f87e9a45-e7c9-4e2e-ab29-9d99b6ea7848"
      ],
      "franchises": [
        "7d366d3c-9cc2-439c-b974-b5bba44281be"
      ]
    },
    "title": "Soul Survive",
    "titles": {
      "eng": "Soul Survive"
    },
    "year": 2011,
    "titles_default_language": "eng"
  }
}