{
  "header": {
    "version": 4,
    "description": "Karaoke Mugen Karaoke Data File"
  },
  "medias": [
    {
      "version": "Default",
      "filename": "JPN - Love Live! School Idol Project - LIVE - Cutie Panther ~ Full Vers.mp4",
      "audiogain": -8.89,
      "loudnorm": "-8.25,0.70,3.60,-18.39,-0.79",
      "filesize": 46312055,
      "duration": 95,
      "default": true,
      "lyrics": [
        {
          "filename": "JPN - Love Live! School Idol Project - LIVE - Cutie Panther ~ Full Vers.ass",
          "default": true,
          "version": "Default"
        }
      ]
    }
  ],
  "data": {
    "created_at": "2017-10-11T17:02:04.000Z",
    "ignoreHooks": false,
    "kid": "1d848a72-0877-488f-ac19-b1acfe512981",
    "modified_at": "2022-11-13T18:19:35.297Z",
    "parents": [
      "384aa379-6049-4a2d-89dd-a598e231a3fe"
    ],
    "repository": "kara.moe",
    "tags": {
      "authors": [
        "5bdaba57-27f8-4568-8806-76a807728766"
      ],
      "collections": [
        "dbcf2c22-524d-4708-99bb-601703633927"
      ],
      "creators": [
        "b2805292-730e-473a-96f0-fd8e7ffd1fd7"
      ],
      "families": [
        "5391f9fe-638c-415f-8dc9-958e3a2c5787"
      ],
      "genres": [
        "caa86df2-0d59-474b-885c-f240a9e891b0"
      ],
      "groups": [
        "ae613721-1fbe-480d-ba6b-d6d0702b184d"
      ],
      "langs": [
        "4dcf9614-7914-42aa-99f4-dbce2e059133"
      ],
      "series": [
        "dd93f278-a55d-4040-aaab-d0c50b58b087"
      ],
      "singers": [
        "1d00d52c-e265-4be6-8902-55d7f425f86c",
        "7779578c-3d4e-4aa5-8f54-77023879e8e6",
        "a1b1a298-ff71-4cda-a407-f1cbdb4f415d"
      ],
      "singergroups": [
        "8ddeed4c-d8d1-480b-ab2e-179013612a48"
      ],
      "songtypes": [
        "a0167949-580c-4de3-bf13-497e462e02f3"
      ],
      "songwriters": [
        "38872736-79f3-4d50-a95a-f6b851097d76",
        "f41e7218-6c19-4e19-9b5f-4612dcd58243"
      ],
      "versions": [
        "c2143a7f-6970-450e-8a79-0302db9220a9"
      ],
      "franchises": [
        "fd5d066e-e85a-4eea-8688-2979a887450a"
      ]
    },
    "titles": {
      "eng": "Cutie Panther"
    },
    "titles_default_language": "eng",
    "year": 2013
  }
}