{
  "header": {
    "version": 4,
    "description": "Karaoke Mugen Karaoke Data File"
  },
  "medias": [
    {
      "version": "Default",
      "filename": "JPN - D.Gray-man - AUDIO IN - Tsunaida Te ni Kiss wo.mp3",
      "audiogain": -6.65,
      "loudnorm": "-12.30,-0.01,8.30,-22.61,-1.45",
      "filesize": 12873580,
      "duration": 284,
      "default": true,
      "lyrics": [
        {
          "filename": "JPN - D.Gray-man - AUDIO IN - Tsunaida Te ni Kiss wo.ass",
          "default": true,
          "version": "Default",
          "subchecksum": "bbd4299a88f0b1989085498c1a6c26ec"
        }
      ]
    }
  ],
  "data": {
    "created_at": "2020-07-12T18:11:16.755Z",
    "kid": "b44e4756-3203-4630-af54-be048dbe2e99",
    "modified_at": "2021-02-25T11:05:54.806Z",
    "repository": "kara.moe",
    "tags": {
      "authors": [
        "60defa7b-774e-4680-8321-51b742c2e009"
      ],
      "collections": [
        "c7db86a0-ff64-4044-9be4-66dd1ef1d1c1"
      ],
      "families": [
        "0377db02-3af6-43b8-9b08-c759df3d25c3"
      ],
      "groups": [
        "3c14c864-533c-49e6-a3cc-6969f1233775",
        "60defa7b-774e-4680-8321-51b742c2e009"
      ],
      "langs": [
        "4dcf9614-7914-42aa-99f4-dbce2e059133"
      ],
      "origins": [
        "938de218-5343-4865-94d3-fb33f2eaa152"
      ],
      "series": [
        "8024310d-f718-4b8a-bae9-da27e3ddb950"
      ],
      "singers": [
        "a9cdab3f-14ef-4ddf-9163-1c2f5cac2f56"
      ],
      "songtypes": [
        "42a262ae-acba-4ab5-a446-c5789c96c821",
        "5e5250d9-351a-4a82-98eb-55db50ad8962"
      ],
      "songwriters": [
        "225a9922-b081-420a-af32-f0b2bfea8534",
        "70c8669a-6fbc-4ce6-9158-825201b7775d"
      ],
      "franchises": [
        "8024310d-f718-4b8a-bae9-da27e3ddb950"
      ]
    },
    "title": "Tsunaida Te ni Kiss wo",
    "titles": {
      "qro": "Tsunaida Te ni Kiss wo",
      "jpn": "つないだ手にキスを"
    },
    "year": 2006,
    "titles_default_language": "qro"
  }
}