{
  "header": {
    "version": 4,
    "description": "Karaoke Mugen Karaoke Data File"
  },
  "medias": [
    {
      "version": "Default",
      "filename": "JPN - Naruto Shippuuden - OP17 - Kaze.mp4",
      "audiogain": -5.12,
      "loudnorm": "-12.82,-1.26,3.40,-22.97,-0.74",
      "filesize": 35675164,
      "duration": 91,
      "default": true,
      "lyrics": [
        {
          "filename": "JPN - Naruto Shippuuden - OP17 - Kaze.ass",
          "default": true,
          "version": "Default",
          "subchecksum": "5fea1c93e0f23ec968762da24fd5e9e5"
        }
      ]
    }
  ],
  "data": {
    "created_at": "2017-10-11T17:02:11.000Z",
    "kid": "c63e2109-f3b0-43d7-8fab-58abc4246cca",
    "modified_at": "2021-02-25T12:34:17.074Z",
    "repository": "kara.moe",
    "songorder": 17,
    "tags": {
      "authors": [
        "5bdaba57-27f8-4568-8806-76a807728766"
      ],
      "collections": [
        "c7db86a0-ff64-4044-9be4-66dd1ef1d1c1"
      ],
      "creators": [
        "aaff4ba6-9a12-4bac-9bd0-c0cb783e4177"
      ],
      "families": [
        "0377db02-3af6-43b8-9b08-c759df3d25c3"
      ],
      "genres": [
        "a0aeef4a-6428-45ff-a6e1-468b595930c2"
      ],
      "groups": [
        "3c14c864-533c-49e6-a3cc-6969f1233775"
      ],
      "langs": [
        "4dcf9614-7914-42aa-99f4-dbce2e059133"
      ],
      "origins": [
        "938de218-5343-4865-94d3-fb33f2eaa152"
      ],
      "series": [
        "afd38f79-188d-47e4-95c6-f74c38895574"
      ],
      "singers": [
        "ffc12c83-ffd1-4c42-8980-cd5853c60b0e"
      ],
      "songtypes": [
        "f02ad9b3-0bd9-4aad-85b3-9976739ba0e4"
      ],
      "songwriters": [
        "cdcb83c1-b979-4334-b5cd-17c0350ecd8a",
        "ffc12c83-ffd1-4c42-8980-cd5853c60b0e"
      ],
      "franchises": [
        "3201e723-3e75-46f9-bb21-d991f4f7731e"
      ]
    },
    "title": "Kaze",
    "titles": {
      "qro": "Kaze",
      "jpn": "風"
    },
    "year": 2007,
    "titles_default_language": "qro"
  }
}