{
  "header": {
    "version": 4,
    "description": "Karaoke Mugen Karaoke Data File"
  },
  "medias": [
    {
      "version": "Default",
      "filename": "JPN - Hypnosis Mic Division Rap Battle - Rhyme Anima - OP - Hypnosis Mic Rhyme Anima.mp4",
      "audiogain": -0.09,
      "loudnorm": "-17.09,-4.17,2.80,-27.10,-0.15",
      "filesize": 99385799,
      "duration": 90,
      "default": true,
      "lyrics": [
        {
          "filename": "JPN - Hypnosis Mic Division Rap Battle - Rhyme Anima - OP - Hypnosis Mic Rhyme Anima.ass",
          "default": true,
          "version": "Default"
        }
      ]
    }
  ],
  "data": {
    "created_at": "2022-02-17T18:12:05.397Z",
    "ignoreHooks": false,
    "kid": "dd694f33-5277-445b-9297-4e517315f33a",
    "modified_at": "2023-02-02T18:57:38.333Z",
    "repository": "kara.moe",
    "tags": {
      "authors": [
        "c5666406-28f1-4877-97a0-1c3961de9154"
      ],
      "collections": [
        "c7db86a0-ff64-4044-9be4-66dd1ef1d1c1"
      ],
      "creators": [
        "b96e3686-bbe0-4b9e-815a-a278d5ff31be"
      ],
      "families": [
        "0377db02-3af6-43b8-9b08-c759df3d25c3"
      ],
      "groups": [
        "8c22c899-b3ed-42da-a548-ce00f950798b",
        "8e209ae4-4381-438f-89dc-1b21752027d2"
      ],
      "langs": [
        "4dcf9614-7914-42aa-99f4-dbce2e059133"
      ],
      "origins": [
        "938de218-5343-4865-94d3-fb33f2eaa152"
      ],
      "series": [
        "647e4e21-c000-4178-bb2c-569f534d3bbd"
      ],
      "singers": [
        "001574c7-e714-429e-9f67-001d4ddbb080",
        "01c71ea7-b3d5-4ab2-927e-9f56fb3327fd",
        "1a3f89aa-09c0-46e2-ab7d-87f8ff49d11d",
        "245206bf-7e1c-4da3-8001-7f7b61aa65ec",
        "28aa4244-7868-43ff-8c35-c67e636e858c",
        "2ebbacb4-48f6-4b38-ab02-24fc5b7ffef8",
        "496d9fd8-7ed9-4c76-9567-332012b1c0ed",
        "67a15f6e-419f-4dae-a239-76648fa39fe5",
        "67b22a49-c3d2-48a9-90e8-4fb2842cfce5",
        "6fc680bc-6637-41af-884c-ec7d86524c41",
        "787d9b3d-2e20-4dca-b83c-6c9c1b9e2202",
        "7dc3c9cd-cf42-4b32-8cb2-9bc868e97564",
        "9a9da3af-c891-42ae-bd3e-f0696a361c04",
        "a249b8bf-618c-4146-ba30-4cff563cd6b5",
        "d3d2814b-b117-43bd-b221-e09926080f54",
        "d72701c8-4aa0-4619-a4ea-aea77d37422c",
        "d7a900d6-65f2-4d9a-a4df-6a5e0f4ecb1e",
        "e88203e1-642b-4754-85b0-4ba62dc18563",
        "fb311ac5-75b0-4125-88e8-4a4f9ba32556"
      ],
      "singergroups": [
        "3038a30c-d18d-49bb-a54c-fe01c7288689",
        "3c237bb1-08aa-40d5-9b45-79cb5e548ad5",
        "3e33190c-5796-4b46-ba8f-53162959bb1c",
        "be071892-82b3-4b8e-85cf-ea9ae502ae67",
        "58083e61-6d68-48a8-a5b3-4bbfa418cf81",
        "e92f40ba-fd68-4f04-b44a-c1dced02c6c2"
      ],
      "songtypes": [
        "f02ad9b3-0bd9-4aad-85b3-9976739ba0e4"
      ],
      "songwriters": [
        "3c5557fb-c51c-45b5-b25c-52351c44f7e7"
      ],
      "franchises": [
        "8969c1d9-a552-4216-837c-36945e5e730a"
      ]
    },
    "titles": {
      "eng": "Hypnosis Mic: Rhyme Anima",
      "jpn": "ヒプノシスマイク -Rhyme Anima-"
    },
    "titles_default_language": "eng",
    "year": 2020
  }
}