{
  "header": {
    "version": 4,
    "description": "Karaoke Mugen Karaoke Data File"
  },
  "medias": [
    {
      "version": "Default",
      "filename": "JPN - Kyouryuu Sentai Zyuranger - OP - Kyouryuu Sentai Zyuranger.mp4",
      "audiogain": -0.13,
      "loudnorm": "-18.07,-5.70,4.10,-28.19,-0.42",
      "filesize": 14055005,
      "duration": 90,
      "default": true,
      "lyrics": [
        {
          "filename": "JPN - Kyouryuu Sentai Zyuranger - OP - Kyouryuu Sentai Zyuranger.ass",
          "default": true,
          "version": "Default"
        }
      ]
    }
  ],
  "data": {
    "created_at": "2017-10-11T17:02:55.000Z",
    "ignoreHooks": false,
    "kid": "1ce93d5d-b81a-4421-9d40-18cbe38c6803",
    "modified_at": "2022-09-30T21:31:45.250Z",
    "repository": "kara.moe",
    "tags": {
      "authors": [
        "4607780c-f1ef-47cf-9c1c-b13e8f731699"
      ],
      "collections": [
        "c7db86a0-ff64-4044-9be4-66dd1ef1d1c1"
      ],
      "creators": [
        "e32b14df-502b-45fa-9ca5-37554a63a4d7"
      ],
      "families": [
        "5391f9fe-638c-415f-8dc9-958e3a2c5787"
      ],
      "groups": [
        "24db50aa-a126-4d34-a48a-e45db79c4245"
      ],
      "langs": [
        "4dcf9614-7914-42aa-99f4-dbce2e059133"
      ],
      "origins": [
        "938de218-5343-4865-94d3-fb33f2eaa152",
        "d3fac9ab-630d-402d-a392-3d2450c3e62e"
      ],
      "series": [
        "712ddf36-8bbf-42a2-9733-1930b7d81cb7"
      ],
      "singers": [
        "369f824e-8dbe-4258-8bff-588f798cfcb7"
      ],
      "songtypes": [
        "f02ad9b3-0bd9-4aad-85b3-9976739ba0e4"
      ],
      "songwriters": [
        "0203aaac-a13a-48b9-ae97-97d6cc09414a",
        "73bd7db9-dafe-49c3-85b3-8c6da74c99a8"
      ]
    },
    "titles": {
      "jpn": "恐竜戦隊ジュウレンジャー",
      "qro": "Kyôryû Sentai Zyuranger"
    },
    "titles_default_language": "qro",
    "title": "Kyôryû Sentai Zyuranger",
    "year": 1992,
    "titles_aliases": [
      "Kyouryuu"
    ]
  }
}