{
  "header": {
    "version": 4,
    "description": "Karaoke Mugen Karaoke Data File"
  },
  "medias": [
    {
      "version": "CS Edition.",
      "filename": "JPN - Tomoyo After - PC GAME OP - Light colors ~ CS Edition Vers.mp4",
      "audiogain": -6.94,
      "loudnorm": "-9.69,0.13,4.80,-19.74,-1.01",
      "filesize": 34872087,
      "duration": 160,
      "default": true,
      "lyrics": [
        {
          "filename": "JPN - Tomoyo After - PC GAME OP - Light colors ~ CS Edition Vers.ass",
          "default": true,
          "version": "Default",
          "subchecksum": "22b1895741f160cc7a8975fdc1d0db58"
        }
      ]
    }
  ],
  "data": {
    "created_at": "2017-10-11T17:01:11.000Z",
    "kid": "2ea393ac-70e0-4c68-949f-2cd56a89f310",
    "modified_at": "2021-02-25T13:25:55.960Z",
    "parents": [
      "2b79091f-6765-440a-a6b8-a3630f66c591"
    ],
    "repository": "kara.moe",
    "tags": {
      "authors": [
        "1df04771-a378-4f14-a5e1-1455187d681a"
      ],
      "collections": [
        "c7db86a0-ff64-4044-9be4-66dd1ef1d1c1"
      ],
      "creators": [
        "4dd6987d-3036-4454-859b-ff18954541bf"
      ],
      "families": [
        "dbedd6b3-d125-4cd8-aa32-c4175e4ca3a3"
      ],
      "groups": [
        "3c14c864-533c-49e6-a3cc-6969f1233775"
      ],
      "langs": [
        "4dcf9614-7914-42aa-99f4-dbce2e059133"
      ],
      "origins": [
        "2f96e82c-c61b-4413-817e-e6b247509b95"
      ],
      "platforms": [
        "3c15f758-e1bc-4266-8bb9-3c14112f504a"
      ],
      "series": [
        "70604798-a689-45cd-8120-a8a210a961b9"
      ],
      "singers": [
        "bb51b8eb-d68c-4210-9a94-c8d67daa14d3"
      ],
      "songtypes": [
        "f02ad9b3-0bd9-4aad-85b3-9976739ba0e4"
      ],
      "songwriters": [
        "0259ea3f-ee5c-4906-991e-ca3c8dbb3221",
        "6f9382dc-3b8f-4948-899c-23477cd9e23b"
      ],
      "versions": [
        "9f63c359-d1bf-425a-bcf5-b245c2c9211d"
      ],
      "franchises": [
        "03831007-d498-4a8d-8a4c-6a6fac0c92c5"
      ]
    },
    "title": "Light colors ~ CS Edition Vers.",
    "titles": {
      "eng": "Light colors ~ CS Edition Vers."
    },
    "year": 2007,
    "titles_default_language": "eng"
  }
}