{
  "header": {
    "version": 4,
    "description": "Karaoke Mugen Karaoke Data File"
  },
  "medias": [
    {
      "version": "Default",
      "filename": "JPN - Fuujin Ryouiki Eretzvaju - GAME PSX OP - Kiss in the Dark.mp4",
      "audiogain": -6.91,
      "loudnorm": "-11.53,-0.04,7.50,-21.96,-1.39",
      "filesize": 10128352,
      "duration": 120,
      "default": true,
      "lyrics": [
        {
          "filename": "JPN - Fuujin Ryouiki Eretzvaju - GAME PSX OP - Kiss in the Dark.ass",
          "default": true,
          "version": "Default"
        }
      ]
    }
  ],
  "data": {
    "created_at": "2017-10-11T17:02:32.000Z",
    "kid": "4eaacfa4-3d84-46f0-8b11-9322cfa4d9a8",
    "modified_at": "2021-09-19T14:56:33.369Z",
    "repository": "kara.moe",
    "tags": {
      "authors": [
        "5bdaba57-27f8-4568-8806-76a807728766"
      ],
      "collections": [
        "c7db86a0-ff64-4044-9be4-66dd1ef1d1c1"
      ],
      "creators": [
        "60c72451-4bf9-4137-9d20-6d01361c02bc"
      ],
      "families": [
        "dbedd6b3-d125-4cd8-aa32-c4175e4ca3a3"
      ],
      "groups": [
        "24db50aa-a126-4d34-a48a-e45db79c4245"
      ],
      "langs": [
        "4dcf9614-7914-42aa-99f4-dbce2e059133"
      ],
      "platforms": [
        "f84b68ac-943a-495a-9c6e-d90ec959b19e"
      ],
      "series": [
        "4d479e48-c6bf-4e9a-97ed-b4b969a38820"
      ],
      "singers": [
        "6a753fb0-b967-466a-93d5-9cb565276787"
      ],
      "songtypes": [
        "f02ad9b3-0bd9-4aad-85b3-9976739ba0e4"
      ],
      "songwriters": [
        "6a753fb0-b967-466a-93d5-9cb565276787"
      ]
    },
    "titles": {
      "qro": "Kiss in the Dark"
    },
    "title": "Kiss in the Dark",
    "year": 1999,
    "titles_default_language": "qro"
  }
}