{
  "header": {
    "version": 4,
    "description": "Karaoke Mugen Karaoke Data File"
  },
  "medias": [
    {
      "version": "Default",
      "filename": "JPN - Suzume no Tojimari - MOVIE PV - Suzume.mp4",
      "audiogain": -2.47,
      "loudnorm": "-14.97,-0.44,8.30,-25.35,-1.61",
      "filesize": 20838173,
      "duration": 101,
      "default": true,
      "lyrics": [
        {
          "filename": "JPN - Suzume no Tojimari - MOVIE PV - Suzume.ass",
          "default": true,
          "version": "Default"
        }
      ]
    }
  ],
  "data": {
    "created_at": "2022-07-17T13:59:26.957Z",
    "ignoreHooks": false,
    "kid": "14a9b9a7-d3b4-4c86-b6a8-314ce44cac66",
    "modified_at": "2022-07-17T14:10:40.438Z",
    "repository": "kara.moe",
    "tags": {
      "authors": [
        "269d1464-84f9-44da-9064-1d074bafb602"
      ],
      "collections": [
        "c7db86a0-ff64-4044-9be4-66dd1ef1d1c1"
      ],
      "creators": [
        "855072bc-b53e-4b85-b692-668294b4e151"
      ],
      "families": [
        "0377db02-3af6-43b8-9b08-c759df3d25c3"
      ],
      "groups": [
        "2b4e9972-5e17-481b-99f5-d0787c0ada56",
        "8e209ae4-4381-438f-89dc-1b21752027d2"
      ],
      "langs": [
        "4dcf9614-7914-42aa-99f4-dbce2e059133"
      ],
      "origins": [
        "c8ca9dea-d8b4-48fe-8427-d911653232e9"
      ],
      "series": [
        "b869c173-4d4b-4540-b88d-56bdc22b5705"
      ],
      "singers": [
        "d732c322-2c1c-4a53-b14b-a417e96c21e6"
      ],
      "songtypes": [
        "66e195b9-64ea-432d-a917-2e2c88d26052"
      ],
      "warnings": [
        "24371984-5e4c-4485-a937-fb0c480ca23b"
      ]
    },
    "titles": {
      "jpn": "すずめ ",
      "qro": "Suzume"
    },
    "titles_default_language": "qro",
    "title": "Suzume",
    "year": 2022
  }
}