{
  "header": {
    "version": 4,
    "description": "Karaoke Mugen Karaoke Data File"
  },
  "medias": [
    {
      "version": "Default",
      "filename": "JPN - Violet Evergarden - OVA IN - Letter.mp4",
      "audiogain": -1.18,
      "loudnorm": "-17.10,-3.19,7.60,-27.30,-0.54",
      "filesize": 29349549,
      "duration": 214,
      "default": true,
      "lyrics": [
        {
          "filename": "JPN - Violet Evergarden - OVA IN - Letter.ass",
          "default": true,
          "version": "Default",
          "subchecksum": "9cff5a42e665515a459123c9bdbb0042"
        }
      ]
    }
  ],
  "data": {
    "created_at": "2020-12-30T01:17:39.144Z",
    "kid": "3d792523-1e2c-4cad-9b7a-b2d07484dd68",
    "modified_at": "2021-02-25T13:35:49.495Z",
    "repository": "kara.moe",
    "tags": {
      "authors": [
        "b2bacb3f-542c-44d2-af9b-cd78c1dd4b70"
      ],
      "collections": [
        "c7db86a0-ff64-4044-9be4-66dd1ef1d1c1"
      ],
      "creators": [
        "d93786af-5098-49b2-9928-37edfb3d0322"
      ],
      "families": [
        "0377db02-3af6-43b8-9b08-c759df3d25c3"
      ],
      "groups": [
        "8c22c899-b3ed-42da-a548-ce00f950798b",
        "ae613721-1fbe-480d-ba6b-d6d0702b184d"
      ],
      "langs": [
        "4dcf9614-7914-42aa-99f4-dbce2e059133"
      ],
      "origins": [
        "2a6ef087-a000-4f8e-aeb5-9a7968756a36"
      ],
      "series": [
        "df77f381-0db4-4c22-96f3-fd1e458bed97"
      ],
      "singers": [
        "61c5e3d4-6a0e-46b6-b622-06f5bc6d3294"
      ],
      "songtypes": [
        "5e5250d9-351a-4a82-98eb-55db50ad8962"
      ],
      "songwriters": [
        "5d1704bf-c5e0-4295-b1a4-f74d6afe89e8",
        "7e72484d-b638-4d9a-95f2-5947c59d721b",
        "d1414e5d-6845-48ca-ada8-ec38a069ec2f"
      ],
      "franchises": [
        "df77f381-0db4-4c22-96f3-fd1e458bed97"
      ]
    },
    "title": "Letter",
    "titles": {
      "eng": "Letter"
    },
    "year": 2018,
    "titles_default_language": "eng"
  }
}