{
  "header": {
    "version": 4,
    "description": "Karaoke Mugen Karaoke Data File"
  },
  "medias": [
    {
      "version": "Default",
      "filename": "JPN - Calliope Mori, Reine Pavolia, Suisei Hoshimachi - MV - Beat Eater ~ Cover Vers.mp4",
      "audiogain": -7.25,
      "loudnorm": "-9.58,0.63,3.40,-19.61,-0.48",
      "filesize": 105289339,
      "duration": 214,
      "default": true,
      "lyrics": [
        {
          "filename": "JPN - Calliope Mori, Reine Pavolia, Suisei Hoshimachi - MV - Beat Eater ~ Cover Vers.ass",
          "default": true,
          "version": "Default"
        }
      ]
    }
  ],
  "data": {
    "created_at": "2022-04-24T20:58:24.001Z",
    "ignoreHooks": false,
    "kid": "bab156f4-4520-4857-bdd0-7e3d473c7979",
    "modified_at": "2022-05-28T16:41:43.342Z",
    "parents": [
      "c99b13e1-2969-4d6d-9af1-5a5bf12c331a"
    ],
    "repository": "kara.moe",
    "tags": {
      "authors": [
        "10891649-d475-46eb-b515-8eb3c1e14622"
      ],
      "collections": [
        "c7db86a0-ff64-4044-9be4-66dd1ef1d1c1"
      ],
      "creators": [
        "057411b1-17ab-4ce2-8f26-800568d724b4",
        "794f476b-e34a-46c0-89dc-4a58d1c789d9"
      ],
      "families": [
        "0377db02-3af6-43b8-9b08-c759df3d25c3"
      ],
      "genres": [
        "45623cae-6d68-4304-a49b-896d1d6f4580"
      ],
      "groups": [
        "8e209ae4-4381-438f-89dc-1b21752027d2"
      ],
      "langs": [
        "4dcf9614-7914-42aa-99f4-dbce2e059133"
      ],
      "origins": [
        "5106d71b-a78e-4d19-a16d-f8fb6719538a"
      ],
      "singers": [
        "0c70150b-cccd-4f24-b684-041f1163bede",
        "83b3a34b-d13b-452c-8574-d63545edf650",
        "c4cd517c-9219-4757-9d66-0ffb56c754f9"
      ],
      "songtypes": [
        "7be1b15c-cff8-4b37-a649-5c90f3d569a9"
      ],
      "songwriters": [
        "05dcfd3a-8364-4fc9-891f-ad37784cd104",
        "8461a5ca-079e-46d0-a5ba-5343a5101e63",
        "ae4ced6e-05a2-4092-9d9f-d0c7afe152c8"
      ],
      "versions": [
        "03e1e1d2-8641-47b7-bbcb-39a3df9ff21c"
      ]
    },
    "titles": {
      "eng": "Beat Eater"
    },
    "titles_default_language": "eng",
    "title": "Beat Eater",
    "year": 2021
  }
}