{
  "header": {
    "version": 4,
    "description": "Karaoke Mugen Karaoke Data File"
  },
  "medias": [
    {
      "version": "Default",
      "filename": "JPN - Touhou - MV - Marisa Stole the Precious Thing ~ Off Vocal Vers.mp4",
      "audiogain": -6.99,
      "loudnorm": "-9.73,0.08,6.20,-20.02,-0.94",
      "filesize": 70492156,
      "duration": 240,
      "default": true,
      "lyrics": [
        {
          "filename": "JPN - Touhou - MV - Marisa Stole the Precious Thing ~ Off Vocal Vers.ass",
          "default": true,
          "version": "Default"
        }
      ]
    }
  ],
  "data": {
    "created_at": "2022-12-25T12:32:22.656Z",
    "ignoreHooks": false,
    "kid": "2401cb9c-7bcd-41ce-b2f2-096be9fffc59",
    "modified_at": "2022-12-25T12:32:22.809Z",
    "parents": [
      "f9d9e339-8ef6-4dae-80e8-4cd00c4c54bc"
    ],
    "repository": "kara.moe",
    "tags": {
      "authors": [
        "1df04771-a378-4f14-a5e1-1455187d681a"
      ],
      "collections": [
        "c7db86a0-ff64-4044-9be4-66dd1ef1d1c1"
      ],
      "creators": [
        "25fc251a-0514-4bf5-a818-dd0547723f4a",
        "a56ed9e7-a3dc-4203-b91c-4128bcf7bfa9",
        "dfdca219-b7f2-4e7b-a18a-0229108ff1cd"
      ],
      "families": [
        "0377db02-3af6-43b8-9b08-c759df3d25c3"
      ],
      "groups": [
        "3c14c864-533c-49e6-a3cc-6969f1233775"
      ],
      "langs": [
        "4dcf9614-7914-42aa-99f4-dbce2e059133"
      ],
      "series": [
        "1bdaa5a1-dfa6-4365-b746-7a0b194dafd6"
      ],
      "singers": [
        "63c7ee79-bff6-41ba-aa5b-547cb44012bc"
      ],
      "songtypes": [
        "7be1b15c-cff8-4b37-a649-5c90f3d569a9"
      ],
      "songwriters": [
        "1dae52a9-d1e0-447b-8dd3-cfd10119a3a8",
        "26cb5252-8510-49e0-897c-a611a05fc056",
        "feceb592-efac-4eda-9b03-c27cf509004c"
      ],
      "versions": [
        "c0cc87b9-55b9-40f0-878a-fbb9e34c151e"
      ],
      "franchises": [
        "1bdaa5a1-dfa6-4365-b746-7a0b194dafd6"
      ]
    },
    "titles": {
      "eng": "Marisa Stole the Precious Thing",
      "jpn": "魔理沙は大変なものを盗んでいきました",
      "qro": "Marisa wa Taihen na Mono wo Nusunde Ikimashita"
    },
    "titles_default_language": "eng",
    "year": 2006
  }
}