{
  "header": {
    "version": 4,
    "description": "Karaoke Mugen Karaoke Data File"
  },
  "medias": [
    {
      "version": "Default",
      "filename": "JPN - Starry Sky Summer Stories - PSV GAME OP - Sea-StaR.mp4",
      "audiogain": -9.71,
      "loudnorm": "-7.32,1.68,2.20,-17.70,-0.50",
      "filesize": 9731635,
      "duration": 93,
      "default": true,
      "lyrics": [
        {
          "filename": "JPN - Starry Sky Summer Stories - PSV GAME OP - Sea-StaR.ass",
          "default": true,
          "version": "Default",
          "subchecksum": "1fa06b7cd09dfe6455a91cc969f6358f"
        }
      ]
    }
  ],
  "data": {
    "created_at": "2019-05-21T21:13:09.000Z",
    "kid": "8bb0b14f-83e2-4bc7-ad14-a310bfb30c1b",
    "modified_at": "2021-02-25T13:11:57.339Z",
    "repository": "kara.moe",
    "tags": {
      "authors": [
        "2a9bbf75-0722-4b4a-9935-caa92f38fdd1"
      ],
      "collections": [
        "c7db86a0-ff64-4044-9be4-66dd1ef1d1c1"
      ],
      "creators": [
        "548d24b0-c129-4d48-8c57-e896eb101f1a"
      ],
      "families": [
        "dbedd6b3-d125-4cd8-aa32-c4175e4ca3a3"
      ],
      "groups": [
        "ae613721-1fbe-480d-ba6b-d6d0702b184d"
      ],
      "langs": [
        "4dcf9614-7914-42aa-99f4-dbce2e059133"
      ],
      "origins": [
        "2f96e82c-c61b-4413-817e-e6b247509b95",
        "7025ae3c-7bd6-4787-8912-2c15063343bb"
      ],
      "platforms": [
        "e791f168-068f-4c05-aa36-e8d63726aa06"
      ],
      "series": [
        "4addb480-7b54-4256-ad57-5f466eff7c25"
      ],
      "singers": [
        "25139a5f-88b3-4c9e-8179-739af30592c4"
      ],
      "songtypes": [
        "f02ad9b3-0bd9-4aad-85b3-9976739ba0e4"
      ],
      "songwriters": [
        "402828c1-3abb-4a2d-94e2-3365b59c408e"
      ],
      "franchises": [
        "7f516709-a344-4a5c-9dc9-daabaf54a3df"
      ]
    },
    "title": "Sea-StaR",
    "titles": {
      "eng": "Sea-StaR"
    },
    "year": 2017,
    "titles_default_language": "eng"
  }
}