{
  "header": {
    "version": 4,
    "description": "Karaoke Mugen Karaoke Data File"
  },
  "medias": [
    {
      "version": "Default",
      "filename": "JPN - SCANDAL - MV - Namida no REGRET.mp4",
      "audiogain": -7.76,
      "loudnorm": "-9.80,0.66,6.00,-20.11,-0.97",
      "filesize": 104190173,
      "duration": 310,
      "default": true,
      "lyrics": [
        {
          "filename": "JPN - SCANDAL - MV - Namida no REGRET.ass",
          "default": true,
          "version": "Default"
        }
      ]
    }
  ],
  "data": {
    "created_at": "2019-09-08T20:43:28.000Z",
    "kid": "8acc2fc6-8f61-4f04-bf69-cb0357b45fa3",
    "modified_at": "2022-06-04T00:21:17.071Z",
    "repository": "kara.moe",
    "songorder": null,
    "tags": {
      "authors": [
        "2b4e9972-5e17-481b-99f5-d0787c0ada56"
      ],
      "creators": [
        "221d01d3-cf22-45d6-b187-5e7806dd6d1e"
      ],
      "families": [
        "5391f9fe-638c-415f-8dc9-958e3a2c5787"
      ],
      "groups": [
        "2b4e9972-5e17-481b-99f5-d0787c0ada56",
        "ae613721-1fbe-480d-ba6b-d6d0702b184d"
      ],
      "langs": [
        "4dcf9614-7914-42aa-99f4-dbce2e059133"
      ],
      "misc": [
        "86705d4b-24e4-4756-9687-2b9c98bcf366"
      ],
      "singers": [
        "581aad8c-8d51-44af-8b8c-4b1a507484eb"
      ],
      "songtypes": [
        "7be1b15c-cff8-4b37-a649-5c90f3d569a9"
      ],
      "songwriters": [
        "899f912c-47c8-45ed-bc64-d7afcd15e6a5",
        "da3cae77-dbb4-48b8-83c3-77da763a9148"
      ],
      "collections": [
        "dbcf2c22-524d-4708-99bb-601703633927"
      ]
    },
    "titles": {
      "qro": "Namida no REGRET",
      "jpn": "涙のリグレット"
    },
    "titles_default_language": "qro",
    "title": "Namida no REGRET",
    "year": 2010
  }
}