{
  "header": {
    "version": 4,
    "description": "Karaoke Mugen Karaoke Data File"
  },
  "medias": [
    {
      "version": "Default",
      "filename": "JPN - Kyoukai no Rinne - OP2 - Ura no Ura.mp4",
      "audiogain": 5.7,
      "loudnorm": "-22.30,-12.21,1.80,-32.32,0.21",
      "filesize": 29322610,
      "duration": 89,
      "default": true,
      "lyrics": [
        {
          "filename": "JPN - Kyoukai no Rinne - OP2 - Ura no Ura.ass",
          "default": true,
          "version": "Default"
        }
      ]
    }
  ],
  "data": {
    "created_at": "2019-05-07T17:52:24.000Z",
    "kid": "ef8ebff5-75e1-4f98-9ed0-0332f3a86b37",
    "modified_at": "2021-07-22T19:08:18.376Z",
    "repository": "kara.moe",
    "songorder": 2,
    "tags": {
      "authors": [
        "57e2d8c3-b3f3-4b82-88a4-2491946b24d9"
      ],
      "collections": [
        "c7db86a0-ff64-4044-9be4-66dd1ef1d1c1"
      ],
      "creators": [
        "a06f41a3-31b6-462a-a195-e48a11386da3"
      ],
      "families": [
        "0377db02-3af6-43b8-9b08-c759df3d25c3"
      ],
      "groups": [
        "2b4e9972-5e17-481b-99f5-d0787c0ada56",
        "ae613721-1fbe-480d-ba6b-d6d0702b184d"
      ],
      "langs": [
        "4dcf9614-7914-42aa-99f4-dbce2e059133"
      ],
      "origins": [
        "938de218-5343-4865-94d3-fb33f2eaa152"
      ],
      "series": [
        "a89db341-e70a-4bdb-a3d8-4200150fd00b"
      ],
      "singers": [
        "fdb4d1e3-7916-428c-9e79-d086a86756d4"
      ],
      "songtypes": [
        "f02ad9b3-0bd9-4aad-85b3-9976739ba0e4"
      ],
      "songwriters": [
        "5b489ff9-a94b-43ec-9b47-f113c59d563e",
        "c3dcae82-d5b4-425b-8a27-fda7afa1787b"
      ]
    },
    "title": "Ura no Ura",
    "titles": {
      "qro": "Ura no Ura",
      "jpn": "裏の裏"
    },
    "year": 2015,
    "titles_default_language": "qro"
  }
}