{
  "header": {
    "version": 4,
    "description": "Karaoke Mugen Karaoke Data File"
  },
  "medias": [
    {
      "version": "Default",
      "filename": "JPN - Project Zero II Crimson Butterfly - PS2 GAME AMV - Tamakui.mp4",
      "audiogain": -8.99,
      "loudnorm": "-8.08,2.20,5.60,-18.37,-0.80",
      "filesize": 26221414,
      "duration": 284,
      "default": true,
      "lyrics": [
        {
          "filename": "JPN - Project Zero II Crimson Butterfly - PS2 GAME AMV - Tamakui.ass",
          "default": true,
          "version": "Default"
        }
      ]
    }
  ],
  "data": {
    "created_at": "2019-10-08T19:50:05.000Z",
    "kid": "f9e3ae61-da0c-4535-813e-d26f798c3929",
    "modified_at": "2021-07-22T19:12:21.310Z",
    "repository": "kara.moe",
    "tags": {
      "authors": [
        "57e2d8c3-b3f3-4b82-88a4-2491946b24d9"
      ],
      "collections": [
        "c7db86a0-ff64-4044-9be4-66dd1ef1d1c1"
      ],
      "creators": [
        "51843ea1-4de2-4ddd-9262-60004a04e5a4"
      ],
      "families": [
        "dbedd6b3-d125-4cd8-aa32-c4175e4ca3a3"
      ],
      "groups": [
        "2b4e9972-5e17-481b-99f5-d0787c0ada56",
        "3c14c864-533c-49e6-a3cc-6969f1233775"
      ],
      "langs": [
        "4dcf9614-7914-42aa-99f4-dbce2e059133"
      ],
      "platforms": [
        "2173004e-21da-45c9-9dfb-26014423c566"
      ],
      "series": [
        "c07e463e-30d6-4f1a-a80b-b9b748776cc2"
      ],
      "singers": [
        "372bb93f-bb44-40f1-b7ae-ae4ede520d9f"
      ],
      "songtypes": [
        "a6c79ce5-89ee-4d50-afe8-3abd7317f6c2"
      ],
      "songwriters": [
        "1c535341-c54a-42f7-a3c4-094a1ed50c6c",
        "c7157cf5-e8bc-4e99-8028-33edbb268298"
      ]
    },
    "title": "Tamakui",
    "titles": {
      "qro": "Tamakui",
      "jpn": "霊喰い"
    },
    "year": 2008,
    "titles_default_language": "qro"
  }
}