{
  "header": {
    "version": 4,
    "description": "Karaoke Mugen Karaoke Data File"
  },
  "medias": [
    {
      "version": "Default",
      "filename": "JPN - Kaitou Sentai Lupinranger VS Keisatsu Sentai Patranger - OP - Lupinranger VS Patranger.mp4",
      "audiogain": 6.61,
      "loudnorm": "-23.78,-8.64,1.90,-33.78,-0.01",
      "filesize": 44590604,
      "duration": 89,
      "default": true,
      "lyrics": [
        {
          "filename": "JPN - Kaitou Sentai Lupinranger VS Keisatsu Sentai Patranger - OP - Lupinranger VS Patranger.ass",
          "default": true,
          "version": "Default",
          "subchecksum": "526991f5c3b6676dffc3f86b3b861c96"
        }
      ]
    }
  ],
  "data": {
    "created_at": "2018-03-21T20:20:38.000Z",
    "kid": "86f0dac8-fc13-42d1-871f-1f68485a1331",
    "modified_at": "2021-06-24T10:49:38.826Z",
    "repository": "kara.moe",
    "tags": {
      "authors": [
        "05c1e4ad-32ba-490e-8f3c-5cd491c96d85"
      ],
      "collections": [
        "c7db86a0-ff64-4044-9be4-66dd1ef1d1c1"
      ],
      "creators": [
        "e32b14df-502b-45fa-9ca5-37554a63a4d7"
      ],
      "families": [
        "5391f9fe-638c-415f-8dc9-958e3a2c5787"
      ],
      "groups": [
        "ae613721-1fbe-480d-ba6b-d6d0702b184d"
      ],
      "langs": [
        "4dcf9614-7914-42aa-99f4-dbce2e059133"
      ],
      "misc": [
        "1d6ceadf-a885-47e5-b23b-c07bf668a424"
      ],
      "origins": [
        "d3fac9ab-630d-402d-a392-3d2450c3e62e"
      ],
      "series": [
        "905d6980-2868-4a71-9f98-d4e7e5383f51"
      ],
      "singers": [
        "f014477e-41c8-4fc8-90db-a7681ea94688",
        "f6f98baa-ec19-4d39-ba0a-03ca38ee986f"
      ],
      "songtypes": [
        "f02ad9b3-0bd9-4aad-85b3-9976739ba0e4"
      ],
      "songwriters": [
        "3c6f8d48-f577-4055-813a-6d962157f5c2",
        "ad9de3e0-673e-459b-ac88-178ae5e04341"
      ]
    },
    "title": "Lupinranger VS Patranger",
    "titles": {
      "qro": "Lupinranger VS Patranger",
      "jpn": "ルパンレンジャーＶＳパトレンジャー"
    },
    "year": 2018,
    "titles_default_language": "qro"
  }
}