{
  "header": {
    "version": 4,
    "description": "Karaoke Mugen Karaoke Data File"
  },
  "medias": [
    {
      "version": "Default",
      "filename": "JPN - Black Clover (2017) - OP1 - Haruka Mirai.mp4",
      "audiogain": -8.44,
      "loudnorm": "-9.04,0.43,3.10,-19.16,-0.22",
      "filesize": 34143551,
      "duration": 90,
      "default": true,
      "lyrics": [
        {
          "filename": "JPN - Black Clover (2017) - OP1 - Haruka Mirai.ass",
          "default": true,
          "version": "Default",
          "subchecksum": "20fce1050ec67b2171c00dec40dec54c"
        }
      ]
    }
  ],
  "data": {
    "created_at": "2018-07-24T18:20:16.000Z",
    "kid": "b1f57a20-3b3b-4b60-82dc-7863c794ff84",
    "modified_at": "2021-02-25T10:53:06.021Z",
    "repository": "kara.moe",
    "songorder": 1,
    "tags": {
      "authors": [
        "b5116310-e69b-4ed4-9e47-c5c53ee69023"
      ],
      "collections": [
        "c7db86a0-ff64-4044-9be4-66dd1ef1d1c1"
      ],
      "creators": [
        "aaff4ba6-9a12-4bac-9bd0-c0cb783e4177"
      ],
      "families": [
        "0377db02-3af6-43b8-9b08-c759df3d25c3"
      ],
      "genres": [
        "a0aeef4a-6428-45ff-a6e1-468b595930c2"
      ],
      "groups": [
        "ae613721-1fbe-480d-ba6b-d6d0702b184d"
      ],
      "langs": [
        "4dcf9614-7914-42aa-99f4-dbce2e059133"
      ],
      "origins": [
        "938de218-5343-4865-94d3-fb33f2eaa152"
      ],
      "series": [
        "db775746-e1f4-49e0-9cca-e507222b80a8"
      ],
      "singers": [
        "d3876b0f-497a-4f44-bc40-6f12b38e84c5"
      ],
      "songtypes": [
        "f02ad9b3-0bd9-4aad-85b3-9976739ba0e4"
      ],
      "songwriters": [
        "127e0649-0be4-49b3-ad6d-a6ed870d34a4",
        "734492ad-f09d-453f-be2c-76ca25a37b79"
      ]
    },
    "title": "Haruka Mirai",
    "titles": {
      "qro": "Haruka Mirai",
      "jpn": "ハルカミライ"
    },
    "year": 2017,
    "titles_default_language": "qro"
  }
}