{
  "header": {
    "version": 4,
    "description": "Karaoke Mugen Karaoke Data File"
  },
  "medias": [
    {
      "version": "Default",
      "filename": "JPN - Digimon Adventure Last Evolution Kizuna - MOVIE IN - Sono Saki e.mp4",
      "audiogain": -3.09,
      "loudnorm": "-14.64,-0.28,19.10,-26.34,-1.43",
      "filesize": 106806035,
      "duration": 160,
      "default": true,
      "lyrics": [
        {
          "filename": "JPN - Digimon Adventure Last Evolution Kizuna - MOVIE IN - Sono Saki e.ass",
          "default": true,
          "version": "Default"
        }
      ]
    }
  ],
  "data": {
    "created_at": "2020-09-25T21:12:53.762Z",
    "kid": "d5d3ce1e-c654-4ec2-b574-79eee0a4c906",
    "modified_at": "2022-07-20T11:37:36.553Z",
    "repository": "kara.moe",
    "tags": {
      "authors": [
        "1df04771-a378-4f14-a5e1-1455187d681a"
      ],
      "creators": [
        "f694bf43-b427-4244-9744-9d3f84fd8a31"
      ],
      "families": [
        "0377db02-3af6-43b8-9b08-c759df3d25c3"
      ],
      "genres": [
        "a0aeef4a-6428-45ff-a6e1-468b595930c2"
      ],
      "groups": [
        "8e209ae4-4381-438f-89dc-1b21752027d2"
      ],
      "langs": [
        "4dcf9614-7914-42aa-99f4-dbce2e059133"
      ],
      "origins": [
        "c8ca9dea-d8b4-48fe-8427-d911653232e9"
      ],
      "series": [
        "317ea35b-5607-4b6e-8c64-5e65e4dba6c0"
      ],
      "singers": [
        "9b700920-91ff-4f43-9ebc-5d584792a1d4"
      ],
      "songtypes": [
        "5e5250d9-351a-4a82-98eb-55db50ad8962"
      ],
      "songwriters": [
        "40de4d82-e5c8-41b6-8c14-6552265af4cb",
        "7145091d-e84a-43c2-a305-152647ac1fb0",
        "d077f16e-8e17-40ff-9860-1f8ebd9ad5a5"
      ],
      "collections": [
        "c7db86a0-ff64-4044-9be4-66dd1ef1d1c1"
      ],
      "warnings": [
        "24371984-5e4c-4485-a937-fb0c480ca23b"
      ],
      "franchises": [
        "315185f5-7fec-40da-ad58-8b0badb1c717"
      ]
    },
    "titles": {
      "qro": "Sono Saki he",
      "jpn": "その先へ"
    },
    "titles_default_language": "qro",
    "title": "Sono Saki e",
    "year": 2020
  }
}