{
  "header": {
    "version": 4,
    "description": "Karaoke Mugen Karaoke Data File"
  },
  "medias": [
    {
      "version": "Default",
      "filename": "JPN - Sharin no Kuni Himawari no Shoujo - GAME OP - Akazora Renka.mp4",
      "audiogain": -7.85,
      "loudnorm": "-10.83,-0.63,15.50,-21.80,-2.37",
      "filesize": 34482406,
      "duration": 141,
      "default": true,
      "lyrics": [
        {
          "filename": "JPN - Sharin no Kuni Himawari no Shoujo - GAME OP - Akazora Renka.ass",
          "default": true,
          "version": "Default"
        }
      ]
    }
  ],
  "data": {
    "created_at": "2017-10-11T17:02:17.000Z",
    "ignoreHooks": false,
    "kid": "c29c201e-7978-4e17-a63d-30bcc7ded39d",
    "modified_at": "2022-07-24T21:48:27.196Z",
    "repository": "kara.moe",
    "tags": {
      "authors": [
        "5bdaba57-27f8-4568-8806-76a807728766"
      ],
      "collections": [
        "c7db86a0-ff64-4044-9be4-66dd1ef1d1c1"
      ],
      "creators": [
        "ffd0e932-5dbc-4d7e-86be-95da7d837700"
      ],
      "families": [
        "dbedd6b3-d125-4cd8-aa32-c4175e4ca3a3"
      ],
      "groups": [
        "3c14c864-533c-49e6-a3cc-6969f1233775"
      ],
      "langs": [
        "4dcf9614-7914-42aa-99f4-dbce2e059133"
      ],
      "origins": [
        "2f96e82c-c61b-4413-817e-e6b247509b95"
      ],
      "series": [
        "a639c4eb-75b5-4c6c-973d-9f7973ac3c35"
      ],
      "singers": [
        "40e2d2ae-d3c6-4336-815e-1b4cf19cc3ee"
      ],
      "songtypes": [
        "f02ad9b3-0bd9-4aad-85b3-9976739ba0e4"
      ],
      "songwriters": [
        "40e2d2ae-d3c6-4336-815e-1b4cf19cc3ee"
      ]
    },
    "titles": {
      "qro": "Akazora Renka",
      "jpn": "赤空恋歌"
    },
    "titles_default_language": "qro",
    "title": "Akazora Renka",
    "year": 2005
  }
}