{
  "header": {
    "description": "Karaoke Mugen Karaoke Data File",
    "version": 4
  },
  "medias": [
    {
      "version": "Default",
      "filename": "JPN - Code Geass Hangyaku no Lelouch - MV - Dice.mp4",
      "audiogain": -9.75,
      "loudnorm": "-7.37,1.44,4.00,-17.46,-0.76",
      "filesize": 75392878,
      "duration": 266,
      "default": true,
      "lyrics": [
        {
          "filename": "JPN - Code Geass Hangyaku no Lelouch - MV - Dice.ass",
          "default": true,
          "version": "Default"
        }
      ]
    }
  ],
  "data": {
    "created_at": "2022-07-31T16:58:43.541Z",
    "kid": "c627c7bd-4b6e-41ce-900f-7ea1541f2175",
    "modified_at": "2022-07-31T16:58:43.541Z",
    "tags": {
      "authors": [
        "2c1f4c76-4de9-4548-9aa5-bc64ab296076"
      ],
      "creators": [
        "771735da-6b67-403d-8d5c-2761a0665168"
      ],
      "families": [
        "5391f9fe-638c-415f-8dc9-958e3a2c5787"
      ],
      "langs": [
        "4dcf9614-7914-42aa-99f4-dbce2e059133"
      ],
      "series": [
        "1cb3b851-435a-4078-8619-8711f963a92f"
      ],
      "singers": [
        "fa3c1f40-c7ef-4ba2-9630-f540bcf94b43"
      ],
      "songtypes": [
        "7be1b15c-cff8-4b37-a649-5c90f3d569a9"
      ],
      "songwriters": [
        "059c908e-e210-4405-a509-04ae79271c6e",
        "ad341f74-d55c-43fb-829a-c41927619998",
        "6a88984a-ec66-4027-b53c-66fb74ea3ab9"
      ],
      "collections": [
        "dbcf2c22-524d-4708-99bb-601703633927"
      ],
      "franchises": [
        "1cb3b851-435a-4078-8619-8711f963a92f"
      ]
    },
    "titles": {
      "eng": "Dice"
    },
    "titles_default_language": "eng",
    "titles_aliases": [],
    "title": "Dice",
    "year": "2021",
    "repository": "kara.moe"
  }
}