{
  "header": {
    "description": "Karaoke Mugen Karaoke Data File",
    "version": 4
  },
  "medias": [
    {
      "version": "Default",
      "filename": "JPN - Touhou - REMIX MV - Shuwa Super Daisakusen.mp4",
      "audiogain": -3.17,
      "loudnorm": "-14.83,-5.42,4.30,-24.95,-1.08",
      "filesize": 44988597,
      "duration": 175,
      "default": true,
      "lyrics": [
        {
          "filename": "JPN - Touhou - REMIX MV - Shuwa Super Daisakusen.ass",
          "default": true,
          "version": "Default"
        }
      ]
    }
  ],
  "data": {
    "created_at": "2022-10-10T20:18:14.466Z",
    "kid": "0f2e9daf-7e04-48ac-bcbb-fa0d46f36d33",
    "modified_at": "2022-10-10T20:18:14.466Z",
    "tags": {
      "authors": [
        "1fbfef73-6731-40df-ba51-65a54b9d1605"
      ],
      "collections": [
        "c7db86a0-ff64-4044-9be4-66dd1ef1d1c1"
      ],
      "creators": [
        "ca654b25-30b5-4054-a2c0-35028fdcae22"
      ],
      "families": [
        "0377db02-3af6-43b8-9b08-c759df3d25c3"
      ],
      "groups": [
        "ae613721-1fbe-480d-ba6b-d6d0702b184d"
      ],
      "langs": [
        "4dcf9614-7914-42aa-99f4-dbce2e059133"
      ],
      "misc": [
        "ec4360fa-3e3c-4f6f-b0e1-fb8b12b6dd18"
      ],
      "origins": [
        "ac5085db-52d8-44b4-8fbb-1697b24d2046"
      ],
      "series": [
        "1bdaa5a1-dfa6-4365-b746-7a0b194dafd6"
      ],
      "singers": [
        "d5f9e745-a3ca-4184-a2bc-07369a2485b4"
      ],
      "songtypes": [
        "7be1b15c-cff8-4b37-a649-5c90f3d569a9"
      ],
      "songwriters": [
        "d5f9e745-a3ca-4184-a2bc-07369a2485b4",
        "26cb5252-8510-49e0-897c-a611a05fc056"
      ],
      "franchises": [
        "1bdaa5a1-dfa6-4365-b746-7a0b194dafd6"
      ]
    },
    "titles": {
      "jpn": "しゅわスパ大作戦☆",
      "qro": "Shuwa Super Daisakusen",
      "eng": "Shuwa Super Plan"
    },
    "titles_default_language": "qro",
    "titles_aliases": [],
    "title": "Shuwa Super Daisakusen",
    "year": "2010",
    "repository": "kara.moe"
  }
}