{
  "header": {
    "version": 4,
    "description": "Karaoke Mugen Karaoke Data File"
  },
  "medias": [
    {
      "version": "Default",
      "filename": "JPN - Mousou Calibration, Yumeko Mizuki - MV - Bang Bang No.1.mp4",
      "audiogain": -11.33,
      "loudnorm": "-6.17,2.15,3.00,-16.43,0.14",
      "filesize": 101411906,
      "duration": 255,
      "default": true,
      "lyrics": [
        {
          "filename": "JPN - Mousou Calibration, Yumeko Mizuki - MV - Bang Bang No.1.ass",
          "default": true,
          "version": "Default"
        }
      ]
    }
  ],
  "data": {
    "created_at": "2022-01-08T20:34:38.343Z",
    "kid": "91d2ae65-b411-48ff-87cc-1f389ba3d4bf",
    "modified_at": "2022-06-04T00:15:23.317Z",
    "repository": "kara.moe",
    "songorder": null,
    "tags": {
      "authors": [
        "f5fd83aa-5022-41ab-82ec-4b9dc38ea653"
      ],
      "creators": [
        "9f10c180-4ed1-4a4e-9e39-c37e09b91d5f"
      ],
      "families": [
        "5391f9fe-638c-415f-8dc9-958e3a2c5787"
      ],
      "genres": [
        "caa86df2-0d59-474b-885c-f240a9e891b0"
      ],
      "groups": [
        "ae613721-1fbe-480d-ba6b-d6d0702b184d"
      ],
      "langs": [
        "4dcf9614-7914-42aa-99f4-dbce2e059133"
      ],
      "singers": [
        "1ab5bc5a-d744-4ad9-8b75-5acbe3422986",
        "2427ce8d-8f8e-4198-a77e-490c56d43e7d",
        "3ec0f0e4-9603-4eb0-8ee5-2c05f3873b4c",
        "55aa2f4a-0d91-4471-915e-5d65bb0246a9",
        "9d72af27-eaeb-49d8-aa6e-02c2b661b01f",
        "9f73d6a8-51b2-4d3d-aea7-d4ae48b67ba0"
      ],
      "songtypes": [
        "7be1b15c-cff8-4b37-a649-5c90f3d569a9"
      ],
      "songwriters": [
        "2427ce8d-8f8e-4198-a77e-490c56d43e7d",
        "e6eaa8e0-1949-4e20-8f5c-fb2eec33acf8",
        "e8ff8ee0-e6c6-4e42-9ed2-f69e1e1efbd5"
      ],
      "collections": [
        "dbcf2c22-524d-4708-99bb-601703633927"
      ]
    },
    "titles": {
      "eng": "Bang Bang No.1"
    },
    "titles_default_language": "eng",
    "title": "Bang Bang No.1",
    "year": 2016
  }
}