{
  "header": {
    "version": 4,
    "description": "Karaoke Mugen Karaoke Data File"
  },
  "medias": [
    {
      "version": "Default",
      "filename": "JPN - Love Live! School Idol Project - AUDIO - soldier game.mp3",
      "audiogain": -11.54,
      "loudnorm": "-6.47,1.37,2.70,-16.57,-0.64",
      "filesize": 9166564,
      "duration": 221,
      "default": true,
      "lyrics": [
        {
          "filename": "JPN - Love Live! School Idol Project - AUDIO - soldier game.ass",
          "default": true,
          "version": "Default",
          "subchecksum": "8bd94466f01aa77d8335abff91a0ac6a"
        }
      ]
    }
  ],
  "data": {
    "created_at": "2020-09-19T13:42:39.953Z",
    "kid": "2b8d6ebc-bba6-4a8a-88f4-56be4b7e2298",
    "modified_at": "2021-04-23T13:47:46.772Z",
    "repository": "kara.moe",
    "tags": {
      "authors": [
        "78d42fee-8d3e-4bd5-9c44-98ce55f7d21f",
        "90698f28-1d62-4673-82c4-33ae96b1ba97"
      ],
      "collections": [
        "c7db86a0-ff64-4044-9be4-66dd1ef1d1c1"
      ],
      "creators": [
        "b2805292-730e-473a-96f0-fd8e7ffd1fd7"
      ],
      "genres": [
        "caa86df2-0d59-474b-885c-f240a9e891b0"
      ],
      "groups": [
        "ae613721-1fbe-480d-ba6b-d6d0702b184d"
      ],
      "langs": [
        "4dcf9614-7914-42aa-99f4-dbce2e059133"
      ],
      "misc": [
        "1d6ceadf-a885-47e5-b23b-c07bf668a424"
      ],
      "origins": [
        "938de218-5343-4865-94d3-fb33f2eaa152"
      ],
      "series": [
        "dd93f278-a55d-4040-aaab-d0c50b58b087"
      ],
      "singers": [
        "1d00d52c-e265-4be6-8902-55d7f425f86c",
        "4fc68333-b1f6-44ce-b2be-ac4866b78932",
        "7779578c-3d4e-4aa5-8f54-77023879e8e6"
      ],
      "songtypes": [
        "42a262ae-acba-4ab5-a446-c5789c96c821"
      ],
      "songwriters": [
        "595dd7ad-6df3-4757-94b3-4014f25dee23",
        "f41e7218-6c19-4e19-9b5f-4612dcd58243"
      ],
      "franchises": [
        "fd5d066e-e85a-4eea-8688-2979a887450a"
      ]
    },
    "title": "soldier game",
    "titles": {
      "eng": "soldier game"
    },
    "year": 2012,
    "titles_default_language": "eng"
  }
}