{
  "header": {
    "version": 4,
    "description": "Karaoke Mugen Karaoke Data File"
  },
  "medias": [
    {
      "version": "Default",
      "filename": "JPN - Boku no Hero Academia the Movie World Heroes` Mission - MOVIE IN - Flowers.mp4",
      "audiogain": -1.31,
      "loudnorm": "-17.34,-4.81,10.70,-27.67,-2.41",
      "filesize": 36059245,
      "duration": 179,
      "default": true,
      "lyrics": [
        {
          "filename": "JPN - Boku no Hero Academia the Movie World Heroes` Mission - MOVIE IN - Flowers.ass",
          "default": true,
          "version": "Default"
        }
      ]
    }
  ],
  "data": {
    "created_at": "2022-09-03T12:13:13.150Z",
    "ignoreHooks": false,
    "kid": "69531e74-17e3-4233-a6e9-26dd0d3ef191",
    "modified_at": "2022-09-03T12:13:14.717Z",
    "repository": "kara.moe",
    "tags": {
      "authors": [
        "ee8628c8-9b7f-415b-bc0d-9b712d5daf8c"
      ],
      "collections": [
        "c7db86a0-ff64-4044-9be4-66dd1ef1d1c1"
      ],
      "creators": [
        "57ffcdd9-7e4f-4971-85ce-0fb3aa8151ac"
      ],
      "families": [
        "0377db02-3af6-43b8-9b08-c759df3d25c3"
      ],
      "genres": [
        "a0aeef4a-6428-45ff-a6e1-468b595930c2"
      ],
      "groups": [
        "8e209ae4-4381-438f-89dc-1b21752027d2"
      ],
      "langs": [
        "4dcf9614-7914-42aa-99f4-dbce2e059133"
      ],
      "origins": [
        "c8ca9dea-d8b4-48fe-8427-d911653232e9"
      ],
      "series": [
        "f0daedf2-7ac8-494e-b9a4-e43c80180470"
      ],
      "singers": [
        "6d7243f4-797e-40a2-980d-1fc467d456d8"
      ],
      "songtypes": [
        "5e5250d9-351a-4a82-98eb-55db50ad8962"
      ],
      "songwriters": [
        "8bede077-b96f-415c-8057-552e236fe01a"
      ],
      "franchises": [
        "8c9bbcc8-9928-46d1-aecd-7a31a8c9bba3"
      ]
    },
    "titles": {
      "jpn": "フラワーズ ",
      "qro": "Flowers"
    },
    "titles_default_language": "qro",
    "title": "Flowers",
    "year": 2021
  }
}