{
  "header": {
    "version": 4,
    "description": "Karaoke Mugen Karaoke Data File"
  },
  "medias": [
    {
      "version": "Default",
      "filename": "JPN - Choudenshi Bioman - LIVE - Choudenshi Bioman.mp4",
      "audiogain": 0.56,
      "loudnorm": "-19.34,-5.02,4.80,-29.44,-0.94",
      "filesize": 48918524,
      "duration": 171,
      "default": true,
      "lyrics": [
        {
          "filename": "JPN - Choudenshi Bioman - LIVE - Choudenshi Bioman.ass",
          "default": true,
          "version": "Default"
        }
      ]
    }
  ],
  "data": {
    "created_at": "2021-05-30T10:19:40.227Z",
    "ignoreHooks": false,
    "kid": "3ade31a0-9d95-41e2-b934-83598c1ab5e8",
    "modified_at": "2022-10-01T11:21:21.575Z",
    "parents": [
      "25757127-62a7-4efe-a911-08b1d45a3ffd"
    ],
    "repository": "kara.moe",
    "tags": {
      "authors": [
        "05c1e4ad-32ba-490e-8f3c-5cd491c96d85"
      ],
      "collections": [
        "dbcf2c22-524d-4708-99bb-601703633927"
      ],
      "creators": [
        "e32b14df-502b-45fa-9ca5-37554a63a4d7"
      ],
      "families": [
        "5391f9fe-638c-415f-8dc9-958e3a2c5787"
      ],
      "groups": [
        "3c14c864-533c-49e6-a3cc-6969f1233775"
      ],
      "langs": [
        "4dcf9614-7914-42aa-99f4-dbce2e059133"
      ],
      "origins": [
        "d3fac9ab-630d-402d-a392-3d2450c3e62e"
      ],
      "series": [
        "f35fbddf-dfb1-482b-91d2-8fe6cf08ffa3"
      ],
      "singers": [
        "331793cb-f1c3-4be7-a765-ab7fc5801031",
        "da3a7a95-256b-4b15-9dfc-840c7b1c1cff"
      ],
      "songtypes": [
        "a0167949-580c-4de3-bf13-497e462e02f3"
      ]
    },
    "titles": {
      "jpn": "超電子バイオマン",
      "qro": "Chôdenshi Bioman"
    },
    "titles_default_language": "qro",
    "titles_aliases": [
      "Choudenshi"
    ],
    "title": "Chôdenshi Bioman",
    "year": 2008
  }
}