{
  "header": {
    "version": 4,
    "description": "Karaoke Mugen Karaoke Data File"
  },
  "medias": [
    {
      "version": "Default",
      "filename": "JPN - XenobladeX - WIIU GAME PV - The key we've lost.mp4",
      "audiogain": -2.64,
      "loudnorm": "-15.18,-0.48,9.80,-25.49,-2.05",
      "filesize": 30531367,
      "duration": 85,
      "default": true,
      "lyrics": [
        {
          "filename": "JPN - XenobladeX - WIIU GAME PV - The key we've lost.ass",
          "default": true,
          "version": "Default"
        }
      ]
    }
  ],
  "data": {
    "created_at": "2019-06-15T11:38:14.000Z",
    "kid": "bd161894-64c5-4c1b-83fc-683b3308b606",
    "modified_at": "2021-07-22T19:16:25.846Z",
    "repository": "kara.moe",
    "tags": {
      "authors": [
        "57e2d8c3-b3f3-4b82-88a4-2491946b24d9"
      ],
      "collections": [
        "c7db86a0-ff64-4044-9be4-66dd1ef1d1c1"
      ],
      "creators": [
        "a2457034-11ec-4d4e-b8cb-c3d313cc043d"
      ],
      "families": [
        "dbedd6b3-d125-4cd8-aa32-c4175e4ca3a3"
      ],
      "groups": [
        "2b4e9972-5e17-481b-99f5-d0787c0ada56",
        "ae613721-1fbe-480d-ba6b-d6d0702b184d"
      ],
      "langs": [
        "4dcf9614-7914-42aa-99f4-dbce2e059133"
      ],
      "platforms": [
        "293e4786-9ac8-4c83-84f2-2e6cd14b5e8d"
      ],
      "series": [
        "cce18d0c-b6e1-4802-8591-1dc475786089"
      ],
      "singers": [
        "bf9c4a15-8bfe-444b-8fc2-e4802c7d712b"
      ],
      "songtypes": [
        "66e195b9-64ea-432d-a917-2e2c88d26052"
      ],
      "songwriters": [
        "59621685-8dc1-4ce1-93b3-cf6c11dda3aa",
        "d4986569-4951-4e55-83ee-d87104a2f799"
      ],
      "franchises": [
        "92362d21-a6ff-4e7c-ade5-1032c1c7d931"
      ]
    },
    "title": "The key we've lost",
    "titles": {
      "eng": "The key we've lost"
    },
    "year": 2015,
    "titles_default_language": "eng"
  }
}