{
  "header": {
    "version": 4,
    "description": "Karaoke Mugen Karaoke Data File"
  },
  "medias": [
    {
      "version": "Symphonic.",
      "filename": "JPN - Re_Hamatora - REMIX AUDIO OP - Sen no Tsubasa ~ Symphonic Vers. ~ Cover Metal Vers.mp3",
      "audiogain": -5.68,
      "loudnorm": "-10.46,-3.02,1.50,-20.58,-0.19",
      "filesize": 7767658,
      "duration": 223,
      "default": true,
      "lyrics": [
        {
          "filename": "JPN - Re_Hamatora - REMIX AUDIO OP - Sen no Tsubasa ~ Symphonic Vers. ~ Cover Metal Vers.ass",
          "default": true,
          "version": "Default",
          "subchecksum": "a10929d89b21071537266c49dbc06c6e"
        }
      ]
    }
  ],
  "data": {
    "created_at": "2020-08-07T19:19:44.363Z",
    "kid": "9ade01e5-ddac-45af-9782-240e830bfa82",
    "modified_at": "2021-05-23T23:05:07.971Z",
    "parents": [
      "028b69b2-cc6d-470c-b11f-44e54c6cab5f"
    ],
    "repository": "kara.moe",
    "tags": {
      "authors": [
        "87096920-112f-485f-a310-04156cb4624d"
      ],
      "collections": [
        "c7db86a0-ff64-4044-9be4-66dd1ef1d1c1"
      ],
      "families": [
        "0377db02-3af6-43b8-9b08-c759df3d25c3"
      ],
      "groups": [
        "60defa7b-774e-4680-8321-51b742c2e009",
        "ae613721-1fbe-480d-ba6b-d6d0702b184d"
      ],
      "langs": [
        "4dcf9614-7914-42aa-99f4-dbce2e059133"
      ],
      "misc": [
        "ec4360fa-3e3c-4f6f-b0e1-fb8b12b6dd18"
      ],
      "origins": [
        "938de218-5343-4865-94d3-fb33f2eaa152"
      ],
      "series": [
        "780ab904-e818-47d9-b34c-463dfb9d414d"
      ],
      "singers": [
        "8e0be719-5184-4ef9-8079-eca976c90fcc",
        "e8620b34-9a74-4e19-b9cb-9ffc44ae2d5f"
      ],
      "songtypes": [
        "42a262ae-acba-4ab5-a446-c5789c96c821",
        "f02ad9b3-0bd9-4aad-85b3-9976739ba0e4"
      ],
      "songwriters": [
        "0098edaf-b60b-4b75-bc82-ccf824f506ce",
        "350c2643-d532-4f19-b1cf-54a5ea832440"
      ],
      "versions": [
        "03e1e1d2-8641-47b7-bbcb-39a3df9ff21c",
        "188a5c46-63ff-4e9f-89e4-763468b6ea4a"
      ]
    },
    "title": "Sen no Tsubasa ~ Symphonic Vers.",
    "titles": {
      "qro": "Sen no Tsubasa ~ Symphonic Vers.",
      "jpn": "千の翼 ~ シンフォニック Vers."
    },
    "year": 2019,
    "titles_default_language": "qro"
  }
}