{
  "header": {
    "version": 4,
    "description": "Karaoke Mugen Karaoke Data File"
  },
  "medias": [
    {
      "version": "Default",
      "filename": "JPN - Star Ocean Second Evolution - PSP GAME OP - Start.mp4",
      "audiogain": -4.62,
      "loudnorm": "-14.24,-1.34,8.30,-24.47,-2.07",
      "filesize": 6516555,
      "duration": 64,
      "default": true,
      "lyrics": [
        {
          "filename": "JPN - Star Ocean Second Evolution - PSP GAME OP - Start.ass",
          "default": true,
          "version": "Default",
          "subchecksum": "f92b8887d08926374534fab7f7203c2b"
        }
      ]
    }
  ],
  "data": {
    "created_at": "2017-10-11T17:02:33.000Z",
    "kid": "1b83d073-ac50-4601-9f69-b8f327be0e8d",
    "modified_at": "2021-05-22T22:14:03.465Z",
    "repository": "kara.moe",
    "tags": {
      "authors": [
        "5bdaba57-27f8-4568-8806-76a807728766"
      ],
      "collections": [
        "c7db86a0-ff64-4044-9be4-66dd1ef1d1c1"
      ],
      "creators": [
        "60195b73-1504-4121-a0fc-6f26708ae524"
      ],
      "families": [
        "dbedd6b3-d125-4cd8-aa32-c4175e4ca3a3"
      ],
      "groups": [
        "3c14c864-533c-49e6-a3cc-6969f1233775"
      ],
      "langs": [
        "4dcf9614-7914-42aa-99f4-dbce2e059133"
      ],
      "platforms": [
        "6b101aff-4b7b-4b0d-b35e-0f1b67e38c9b"
      ],
      "series": [
        "3ff8afc9-a1d4-4b57-b00a-6d963fcd7d4e"
      ],
      "singers": [
        "581aad8c-8d51-44af-8b8c-4b1a507484eb"
      ],
      "songtypes": [
        "f02ad9b3-0bd9-4aad-85b3-9976739ba0e4"
      ],
      "songwriters": [
        "0e258fca-9263-4aa9-b11c-f65570c9ed7e",
        "14984d84-61b5-4234-a6a0-3cd18f649b5b"
      ],
      "franchises": [
        "223d6319-1a97-4537-ac35-ae454fe1cdc5"
      ]
    },
    "title": "Start",
    "titles": {
      "eng": "START"
    },
    "year": 2008,
    "titles_default_language": "eng"
  }
}