{
  "header": {
    "version": 4,
    "description": "Karaoke Mugen Karaoke Data File"
  },
  "medias": [
    {
      "version": "Default",
      "filename": "JPN - Project SEKAI COLORFUL STAGE! - GAME AMV - Fixer ~ Cover Short Vers.mp4",
      "audiogain": -10.14,
      "loudnorm": "-8.24,0.98,7.00,-18.54,-1.85",
      "filesize": 26791760,
      "duration": 119,
      "default": true,
      "lyrics": [
        {
          "filename": "JPN - Project SEKAI COLORFUL STAGE! - GAME AMV - Fixer ~ Cover Short Vers.ass",
          "default": true,
          "version": "Default"
        }
      ]
    }
  ],
  "data": {
    "comment": "je comprends rien à ce qu'ils disent au début du coup je ne synchronise pas les voix en fond...",
    "created_at": "2023-01-09T00:47:40.884Z",
    "ignoreHooks": false,
    "kid": "802b3bb8-3276-4e54-812d-6c2d462eca89",
    "modified_at": "2023-01-09T01:01:23.454Z",
    "repository": "kara.moe",
    "tags": {
      "authors": [
        "a3a99b23-6c42-4d38-8863-491153187437"
      ],
      "collections": [
        "c7db86a0-ff64-4044-9be4-66dd1ef1d1c1"
      ],
      "creators": [
        "b21a10d2-d4f5-42a2-9608-dde38236e82b"
      ],
      "families": [
        "0377db02-3af6-43b8-9b08-c759df3d25c3",
        "dbedd6b3-d125-4cd8-aa32-c4175e4ca3a3"
      ],
      "genres": [
        "45623cae-6d68-4304-a49b-896d1d6f4580"
      ],
      "groups": [
        "8e209ae4-4381-438f-89dc-1b21752027d2"
      ],
      "langs": [
        "4dcf9614-7914-42aa-99f4-dbce2e059133"
      ],
      "misc": [
        "1d6ceadf-a885-47e5-b23b-c07bf668a424"
      ],
      "platforms": [
        "213a1a15-e73a-4a08-b3f6-b6e2745a82e5"
      ],
      "series": [
        "192b33fb-638a-4680-bdb2-a5adb9889849"
      ],
      "singers": [
        "48dc9597-7cd1-482f-8dc0-3e7c72f4b7c3",
        "c889c0b5-a571-408f-8b6a-b3c1d4c6296f"
      ],
      "singergroups": [
        "3978f3e3-2631-47a9-bfc8-9d2804c1074d"
      ],
      "songtypes": [
        "a6c79ce5-89ee-4d50-afe8-3abd7317f6c2"
      ],
      "songwriters": [
        "85f43623-05fd-4be1-808f-1392ff70e1c8"
      ],
      "versions": [
        "03e1e1d2-8641-47b7-bbcb-39a3df9ff21c",
        "d125c80a-86c1-4321-88e9-07b7800679b6"
      ]
    },
    "titles": {
      "eng": "Fixer",
      "jpn": "フィクサー"
    },
    "titles_default_language": "eng",
    "year": 2021
  }
}