{
  "header": {
    "version": 4,
    "description": "Karaoke Mugen Karaoke Data File"
  },
  "medias": [
    {
      "version": "Default",
      "filename": "JPN - Motto! Haramase! Honoo no Oppai Chou Ero Appli Gakuen - GAME PC OP - Saikyou Muteki! Ero Appli! -remix-.mp4",
      "audiogain": 0.27,
      "loudnorm": "-17.21,-4.79,3.10,-27.37,-0.52",
      "filesize": 17623979,
      "duration": 96,
      "default": true,
      "lyrics": [
        {
          "filename": "JPN - Motto! Haramase! Honoo no Oppai Chou Ero Appli Gakuen - GAME PC OP - Saikyou Muteki! Ero Appli! -remix-.ass",
          "default": true,
          "version": "Default"
        }
      ]
    }
  ],
  "data": {
    "created_at": "2020-10-10T21:55:06.059Z",
    "ignoreHooks": false,
    "kid": "8c23ee2a-b2d5-4eb1-8f21-00c9e7dc286b",
    "modified_at": "2022-09-30T21:40:46.172Z",
    "repository": "kara.moe",
    "tags": {
      "authors": [
        "a5dbab74-510b-48c5-9cea-5a537a81c974"
      ],
      "collections": [
        "c7db86a0-ff64-4044-9be4-66dd1ef1d1c1"
      ],
      "creators": [
        "1d94c58f-c05c-4f17-9f13-360d32818fb1"
      ],
      "families": [
        "dbedd6b3-d125-4cd8-aa32-c4175e4ca3a3"
      ],
      "groups": [
        "8c22c899-b3ed-42da-a548-ce00f950798b",
        "ae613721-1fbe-480d-ba6b-d6d0702b184d"
      ],
      "langs": [
        "4dcf9614-7914-42aa-99f4-dbce2e059133"
      ],
      "platforms": [
        "3c15f758-e1bc-4266-8bb9-3c14112f504a"
      ],
      "series": [
        "da3a972d-6189-495c-aab5-593707d83090"
      ],
      "singers": [
        "6bac66f4-74d2-4af8-aafb-8ddaefda5c73",
        "83b6a9ec-0d46-4bed-9932-cedaacb448f4",
        "b782c135-8632-4766-b5b6-50359d77cfd8"
      ],
      "songtypes": [
        "f02ad9b3-0bd9-4aad-85b3-9976739ba0e4"
      ],
      "songwriters": [
        "60f46072-08ad-477f-b45f-626ed3b020ee"
      ],
      "warnings": [
        "e82ce681-6d7b-4fb6-abe4-daa8aaa9bbf9"
      ]
    },
    "titles": {
      "jpn": "最強無敵☆エロアプリ！",
      "qro": "Saikyô Muteki! ☆ Ero Appli! -remix-"
    },
    "titles_default_language": "qro",
    "titles_aliases": [
      "Saikyou"
    ],
    "title": "Saikyô Muteki! ☆ Ero Appli! -remix-",
    "year": 2019
  }
}