{
  "header": {
    "version": 4,
    "description": "Karaoke Mugen Karaoke Data File"
  },
  "medias": [
    {
      "version": "Default",
      "filename": "JPN - Another - MV - Kyoumu Densen ~ Full Vers.mp4",
      "audiogain": 6.4,
      "loudnorm": "-24.42,-13.38,4.90,-34.48,-0.13",
      "filesize": 72786612,
      "duration": 263,
      "default": true,
      "lyrics": [
        {
          "filename": "JPN - Another - MV - Kyoumu Densen ~ Full Vers.ass",
          "default": true,
          "version": "Default"
        }
      ]
    }
  ],
  "data": {
    "created_at": "2019-10-28T12:02:40.000Z",
    "ignoreHooks": false,
    "kid": "2b9a81a7-3c68-44f8-9263-5e30d010926a",
    "modified_at": "2022-10-01T11:43:00.392Z",
    "parents": [
      "8c21f4cb-b8ad-4d2d-9bbd-5d741808bc49"
    ],
    "repository": "kara.moe",
    "tags": {
      "authors": [
        "1db1738f-acdc-42fc-aec3-60f4bddf660d"
      ],
      "collections": [
        "dbcf2c22-524d-4708-99bb-601703633927"
      ],
      "creators": [
        "b2805292-730e-473a-96f0-fd8e7ffd1fd7"
      ],
      "families": [
        "5391f9fe-638c-415f-8dc9-958e3a2c5787"
      ],
      "groups": [
        "ae613721-1fbe-480d-ba6b-d6d0702b184d"
      ],
      "langs": [
        "4dcf9614-7914-42aa-99f4-dbce2e059133"
      ],
      "series": [
        "5eb7d77e-a815-48b6-9fee-dc235b61c407"
      ],
      "singers": [
        "f4d627b6-f0f8-46c9-ad63-24148031d21b"
      ],
      "songtypes": [
        "7be1b15c-cff8-4b37-a649-5c90f3d569a9"
      ],
      "songwriters": [
        "7a226f8d-65e2-4a0e-bb80-64d5f5ff062c"
      ],
      "versions": [
        "c2143a7f-6970-450e-8a79-0302db9220a9"
      ]
    },
    "titles": {
      "jpn": "凶夢伝染",
      "qro": "Kyômu Densen"
    },
    "titles_default_language": "qro",
    "titles_aliases": [
      "Kyoumu"
    ],
    "title": "Kyômu Densen",
    "year": 2012
  }
}