{
  "header": {
    "version": 4,
    "description": "Karaoke Mugen Karaoke Data File"
  },
  "medias": [
    {
      "version": "Default",
      "filename": "JPN - Green Green - OP - Guri Guri.mp4",
      "audiogain": 4.49,
      "loudnorm": "-21.32,-10.44,1.60,-31.34,-0.43",
      "filesize": 20287709,
      "duration": 99,
      "default": true,
      "lyrics": [
        {
          "filename": "JPN - Green Green - OP - Guri Guri.ass",
          "default": true,
          "version": "Default"
        }
      ]
    }
  ],
  "data": {
    "created_at": "2017-10-11T17:02:13.000Z",
    "kid": "9e59f6d9-640f-4690-990d-e765c771a937",
    "modified_at": "2022-07-20T11:28:39.506Z",
    "repository": "kara.moe",
    "tags": {
      "authors": [
        "5bdaba57-27f8-4568-8806-76a807728766"
      ],
      "creators": [
        "3c8e31d4-ab72-40f9-b143-21200a47577b"
      ],
      "families": [
        "0377db02-3af6-43b8-9b08-c759df3d25c3"
      ],
      "groups": [
        "3c14c864-533c-49e6-a3cc-6969f1233775"
      ],
      "langs": [
        "4dcf9614-7914-42aa-99f4-dbce2e059133"
      ],
      "origins": [
        "938de218-5343-4865-94d3-fb33f2eaa152"
      ],
      "series": [
        "87b16a73-8c63-449b-902e-09191313a747"
      ],
      "singers": [
        "4b7f25c1-0e12-4a64-b2eb-4425cad3e8f4"
      ],
      "songtypes": [
        "f02ad9b3-0bd9-4aad-85b3-9976739ba0e4"
      ],
      "songwriters": [
        "cfe94ae6-073a-44a8-866e-3d98ec1e7af6"
      ],
      "collections": [
        "c7db86a0-ff64-4044-9be4-66dd1ef1d1c1"
      ],
      "warnings": [
        "e82ce681-6d7b-4fb6-abe4-daa8aaa9bbf9"
      ]
    },
    "titles": {
      "qro": "Guri Guri"
    },
    "titles_default_language": "qro",
    "title": "Guri Guri",
    "year": 2003
  }
}