{
  "header": {
    "version": 4,
    "description": "Karaoke Mugen Karaoke Data File"
  },
  "medias": [
    {
      "version": "Default",
      "filename": "JPN - Suzumiya Haruhi no Yuuutsu - IN - Lost my music ~ Short Vers.mp4",
      "audiogain": 0.48,
      "loudnorm": "-17.66,-5.95,8.50,-28.13,-0.16",
      "filesize": 47564652,
      "duration": 82,
      "default": true,
      "lyrics": [
        {
          "filename": "JPN - Suzumiya Haruhi no Yuuutsu - IN - Lost my music ~ Short Vers.ass",
          "default": true,
          "version": "Default"
        }
      ]
    }
  ],
  "data": {
    "created_at": "2017-10-11T17:03:05.000Z",
    "ignoreHooks": false,
    "kid": "f4797c9d-3c0c-41fc-8b2d-4fa26c5acb9b",
    "modified_at": "2022-10-11T23:03:37.519Z",
    "parents": [
      "9d459081-5a5d-4fa4-b17c-e0fd31b44ac8"
    ],
    "repository": "kara.moe",
    "tags": {
      "authors": [
        "48041dfe-a5c4-49fa-8bdd-d17f9388f142"
      ],
      "collections": [
        "c7db86a0-ff64-4044-9be4-66dd1ef1d1c1"
      ],
      "creators": [
        "d93786af-5098-49b2-9928-37edfb3d0322"
      ],
      "families": [
        "0377db02-3af6-43b8-9b08-c759df3d25c3"
      ],
      "groups": [
        "3c14c864-533c-49e6-a3cc-6969f1233775"
      ],
      "langs": [
        "4dcf9614-7914-42aa-99f4-dbce2e059133"
      ],
      "origins": [
        "938de218-5343-4865-94d3-fb33f2eaa152"
      ],
      "series": [
        "4f132535-c7b6-4147-a324-6995aad44df7"
      ],
      "singers": [
        "488aea99-01a0-4c2c-b475-b61d99efe994"
      ],
      "songtypes": [
        "5e5250d9-351a-4a82-98eb-55db50ad8962"
      ],
      "songwriters": [
        "d7658a75-7945-4f08-8233-02f38dc385ba",
        "f41e7218-6c19-4e19-9b5f-4612dcd58243"
      ],
      "versions": [
        "d125c80a-86c1-4321-88e9-07b7800679b6"
      ],
      "franchises": [
        "4f132535-c7b6-4147-a324-6995aad44df7"
      ]
    },
    "titles": {
      "eng": "Lost my music"
    },
    "titles_default_language": "eng",
    "title": "Lost my music",
    "year": 2006
  }
}