{
  "header": {
    "version": 4,
    "description": "Karaoke Mugen Karaoke Data File"
  },
  "medias": [
    {
      "version": "Default",
      "filename": "JPN - Magma Taishi - OP - Magma Taishi.mp4",
      "audiogain": -6.43,
      "loudnorm": "-13.51,0.08,4.30,-23.77,0.52",
      "filesize": 73667411,
      "duration": 98,
      "default": true,
      "lyrics": [
        {
          "filename": "JPN - Magma Taishi - OP - Magma Taishi.ass",
          "default": true,
          "version": "Default",
          "subchecksum": "37d1dd6064c3b1630b8419c14bc0199f"
        }
      ]
    }
  ],
  "data": {
    "created_at": "2017-10-11T17:01:17.000Z",
    "kid": "7fc85620-9594-475b-b4b4-8109f0a27777",
    "modified_at": "2021-02-25T12:18:25.811Z",
    "repository": "kara.moe",
    "tags": {
      "authors": [
        "5bdaba57-27f8-4568-8806-76a807728766"
      ],
      "collections": [
        "c7db86a0-ff64-4044-9be4-66dd1ef1d1c1"
      ],
      "creators": [
        "d3250c84-51d4-432e-a281-f062f9e731cc"
      ],
      "groups": [
        "b4240f1f-200d-4d10-b5eb-d3a740eed323"
      ],
      "langs": [
        "4dcf9614-7914-42aa-99f4-dbce2e059133"
      ],
      "origins": [
        "938de218-5343-4865-94d3-fb33f2eaa152",
        "d3fac9ab-630d-402d-a392-3d2450c3e62e"
      ],
      "series": [
        "ab2dfde8-38e0-4600-917e-1ef5181ae8dc"
      ],
      "singers": [
        "c93b731d-ac5e-46e7-b381-bdf4747ef709"
      ],
      "songtypes": [
        "f02ad9b3-0bd9-4aad-85b3-9976739ba0e4"
      ],
      "songwriters": [
        "bbfb856d-b5d0-44d4-acfa-1e00dd4b2192",
        "eb9e5cb2-8453-4b2b-bf17-4fe0921cd26f"
      ]
    },
    "title": "Magma Taishi",
    "titles": {
      "qro": "Magma Taishi",
      "jpn": "マグマ大使"
    },
    "year": 1966,
    "titles_default_language": "qro"
  }
}