{
  "header": {
    "version": 4,
    "description": "Karaoke Mugen Karaoke Data File"
  },
  "medias": [
    {
      "version": "Default",
      "filename": "JPN - Boku no Hitori Sensou - PC GAME OP - Sacrifice Love.mp4",
      "audiogain": -6.38,
      "loudnorm": "-11.77,0.62,9.40,-22.05,-1.99",
      "filesize": 14382032,
      "duration": 135,
      "default": true,
      "lyrics": [
        {
          "filename": "JPN - Boku no Hitori Sensou - PC GAME OP - Sacrifice Love.ass",
          "default": true,
          "version": "Default",
          "subchecksum": "a9d81bc6a2ea70761c833e3da978cedb"
        }
      ]
    }
  ],
  "data": {
    "created_at": "2017-10-11T17:01:53.000Z",
    "kid": "e08cebee-b202-4ee7-ad72-83ec8d8a384b",
    "modified_at": "2021-02-25T10:55:49.947Z",
    "repository": "kara.moe",
    "tags": {
      "authors": [
        "5bdaba57-27f8-4568-8806-76a807728766"
      ],
      "collections": [
        "c7db86a0-ff64-4044-9be4-66dd1ef1d1c1"
      ],
      "creators": [
        "ffd0e932-5dbc-4d7e-86be-95da7d837700"
      ],
      "families": [
        "dbedd6b3-d125-4cd8-aa32-c4175e4ca3a3"
      ],
      "groups": [
        "ae613721-1fbe-480d-ba6b-d6d0702b184d"
      ],
      "langs": [
        "4dcf9614-7914-42aa-99f4-dbce2e059133"
      ],
      "origins": [
        "2f96e82c-c61b-4413-817e-e6b247509b95"
      ],
      "platforms": [
        "3c15f758-e1bc-4266-8bb9-3c14112f504a"
      ],
      "series": [
        "e10bf982-773b-4b43-b79b-07dc649324eb"
      ],
      "singers": [
        "7c3886c0-356d-4840-83ad-afa700d96061"
      ],
      "songtypes": [
        "f02ad9b3-0bd9-4aad-85b3-9976739ba0e4"
      ],
      "songwriters": [
        "4cc2a8d4-2898-419a-8959-9b4fe89c89e0",
        "af3ffe51-8059-461c-bbb8-78ea388731f3"
      ]
    },
    "title": "Sacrifice Love",
    "titles": {
      "eng": "Sacrifice Love"
    },
    "year": 2015,
    "titles_default_language": "eng"
  }
}