{
  "header": {
    "version": 4,
    "description": "Karaoke Mugen Karaoke Data File"
  },
  "medias": [
    {
      "version": "Default",
      "filename": "JPN - Aldnoah.Zero - MV - &Z ~ Full Vers.mp4",
      "audiogain": -8.27,
      "loudnorm": "-9.14,0.52,5.90,-19.28,-0.69",
      "filesize": 64408575,
      "duration": 282,
      "default": true,
      "lyrics": [
        {
          "filename": "JPN - Aldnoah.Zero - MV - &Z ~ Full Vers.ass",
          "default": true,
          "version": "Default"
        }
      ]
    }
  ],
  "data": {
    "created_at": "2022-01-11T22:02:44.656Z",
    "kid": "8b085063-1765-48f1-ac5c-019351da6e2e",
    "modified_at": "2022-06-04T00:16:00.782Z",
    "parents": [
      "5efda024-9de9-471d-b295-54eb41bc3d2a"
    ],
    "repository": "kara.moe",
    "songorder": null,
    "tags": {
      "authors": [
        "8605a8b9-3b45-44b9-9d98-1a25096bf702"
      ],
      "creators": [
        "6fa9de67-21cf-420b-9ddb-57edb5abe523"
      ],
      "families": [
        "5391f9fe-638c-415f-8dc9-958e3a2c5787"
      ],
      "groups": [
        "ae613721-1fbe-480d-ba6b-d6d0702b184d"
      ],
      "langs": [
        "4dcf9614-7914-42aa-99f4-dbce2e059133"
      ],
      "series": [
        "a30691d4-41a8-4b3c-a4e3-29d89ebd0948"
      ],
      "singers": [
        "860997b6-f748-4703-8625-bae1052e1158"
      ],
      "songtypes": [
        "7be1b15c-cff8-4b37-a649-5c90f3d569a9"
      ],
      "songwriters": [
        "59621685-8dc1-4ce1-93b3-cf6c11dda3aa"
      ],
      "versions": [
        "c2143a7f-6970-450e-8a79-0302db9220a9"
      ],
      "collections": [
        "dbcf2c22-524d-4708-99bb-601703633927"
      ]
    },
    "titles": {
      "eng": "&Z"
    },
    "titles_default_language": "eng",
    "title": "&Z",
    "year": 2015
  }
}