{
  "header": {
    "version": 4,
    "description": "Karaoke Mugen Karaoke Data File"
  },
  "medias": [
    {
      "version": "Default",
      "filename": "JPN - Paripi Koumei - AUDIO IN - UNDERWORLD ~ Full Vers.mp3",
      "audiogain": -11.4,
      "loudnorm": "-5.22,3.25,5.60,-15.39,-0.85",
      "filesize": 11488601,
      "duration": 281,
      "default": true,
      "lyrics": [
        {
          "filename": "JPN - Paripi Koumei - AUDIO IN - UNDERWORLD ~ Full Vers.ass",
          "default": true,
          "version": "Default"
        }
      ]
    }
  ],
  "data": {
    "created_at": "2022-09-30T05:12:01.922Z",
    "ignoreHooks": false,
    "kid": "eaedd478-c865-4bee-ae96-9935c3239fdc",
    "modified_at": "2022-10-12T21:36:01.738Z",
    "repository": "kara.moe",
    "tags": {
      "authors": [
        "449844e4-3a1f-46e1-8a92-bf72e2d1b6f1"
      ],
      "collections": [
        "c7db86a0-ff64-4044-9be4-66dd1ef1d1c1"
      ],
      "creators": [
        "54259fe3-ce0c-4eca-855e-383f2c5be3a9"
      ],
      "families": [
        "0377db02-3af6-43b8-9b08-c759df3d25c3"
      ],
      "groups": [
        "8e209ae4-4381-438f-89dc-1b21752027d2"
      ],
      "langs": [
        "4dcf9614-7914-42aa-99f4-dbce2e059133"
      ],
      "origins": [
        "938de218-5343-4865-94d3-fb33f2eaa152"
      ],
      "series": [
        "cee09d3c-75e6-4501-9fda-cb4a6b4755c7"
      ],
      "singers": [
        "ac62e72e-fa3f-475c-b2ab-05e4fc65f31a"
      ],
      "songtypes": [
        "42a262ae-acba-4ab5-a446-c5789c96c821",
        "5e5250d9-351a-4a82-98eb-55db50ad8962"
      ],
      "songwriters": [
        "8f803534-ffb2-43d4-b6c3-6fa72f1ffc5e",
        "a8e6a5c2-4719-423a-9b9b-b45f16ad277b"
      ],
      "versions": [
        "c2143a7f-6970-450e-8a79-0302db9220a9"
      ]
    },
    "titles": {
      "eng": "UNDERWORLD"
    },
    "titles_default_language": "eng",
    "title": "UNDERWORLD",
    "year": 2022
  }
}