{
  "header": {
    "version": 4,
    "description": "Karaoke Mugen Karaoke Data File"
  },
  "medias": [
    {
      "version": "Default",
      "filename": "JPN - WORLD ORDER - MV - BOY MEETS GIRL.mp4",
      "audiogain": -0.6,
      "loudnorm": "-16.19,-2.31,4.40,-26.35,-0.91",
      "filesize": 20855252,
      "duration": 282,
      "default": true,
      "lyrics": [
        {
          "filename": "JPN - WORLD ORDER - MV - BOY MEETS GIRL.ass",
          "default": true,
          "version": "Default"
        }
      ]
    }
  ],
  "data": {
    "created_at": "2017-10-11T17:02:42.000Z",
    "kid": "9cbf4f79-28a6-4425-bcda-ac0e9a9da143",
    "modified_at": "2022-06-04T00:18:19.222Z",
    "repository": "kara.moe",
    "songorder": null,
    "tags": {
      "authors": [
        "d04d6a20-790f-4fb2-b996-51c250cf4bd7"
      ],
      "creators": [
        "db7bfefa-98e1-4a78-97b9-3d7f25cb5f95"
      ],
      "families": [
        "5391f9fe-638c-415f-8dc9-958e3a2c5787"
      ],
      "groups": [
        "ae613721-1fbe-480d-ba6b-d6d0702b184d"
      ],
      "langs": [
        "4dcf9614-7914-42aa-99f4-dbce2e059133"
      ],
      "singers": [
        "94c8e59b-1e6a-43cc-80b1-720ea6a20942"
      ],
      "songtypes": [
        "7be1b15c-cff8-4b37-a649-5c90f3d569a9"
      ],
      "songwriters": [
        "94c8e59b-1e6a-43cc-80b1-720ea6a20942"
      ],
      "collections": [
        "dbcf2c22-524d-4708-99bb-601703633927"
      ]
    },
    "titles": {
      "eng": "BOY MEETS GIRL"
    },
    "titles_default_language": "eng",
    "title": "BOY MEETS GIRL",
    "year": 2010
  }
}