{
  "header": {
    "version": 4,
    "description": "Karaoke Mugen Karaoke Data File"
  },
  "medias": [
    {
      "version": "Default",
      "filename": "JPN - Fate stay night Unlimited Blade Works - MV - Brave Shine ~ Full Vers.mp4",
      "audiogain": -8.44,
      "loudnorm": "-8.33,1.18,5.00,-18.46,-0.74",
      "filesize": 59924293,
      "duration": 232,
      "default": true,
      "lyrics": [
        {
          "filename": "JPN - Fate stay night Unlimited Blade Works - MV - Brave Shine ~ Full Vers.ass",
          "default": true,
          "version": "Default"
        }
      ]
    }
  ],
  "data": {
    "created_at": "2020-02-25T19:06:51.049Z",
    "kid": "17a2577c-dc1d-4fd3-bbff-e1fa2d1ec42d",
    "modified_at": "2022-08-21T16:16:07.072Z",
    "parents": [
      "c3ec6694-871b-436f-90f0-b64f598f370e"
    ],
    "repository": "kara.moe",
    "tags": {
      "series": [
        "c94bba57-31e0-445d-bc35-c422aeab8d9e"
      ],
      "singers": [
        "6cfc20ab-c855-4f24-8bed-0981e465630b"
      ],
      "songtypes": [
        "7be1b15c-cff8-4b37-a649-5c90f3d569a9"
      ],
      "langs": [
        "4dcf9614-7914-42aa-99f4-dbce2e059133"
      ],
      "authors": [
        "60defa7b-774e-4680-8321-51b742c2e009"
      ],
      "songwriters": [
        "491f0910-d091-4323-b505-a0d46fe5705f",
        "68890898-72a2-44a1-bdfc-f9c9d9c03899"
      ],
      "groups": [
        "60defa7b-774e-4680-8321-51b742c2e009",
        "ae613721-1fbe-480d-ba6b-d6d0702b184d"
      ],
      "families": [
        "5391f9fe-638c-415f-8dc9-958e3a2c5787"
      ],
      "origins": [
        "938de218-5343-4865-94d3-fb33f2eaa152"
      ],
      "versions": [
        "c2143a7f-6970-450e-8a79-0302db9220a9"
      ],
      "collections": [
        "dbcf2c22-524d-4708-99bb-601703633927"
      ],
      "franchises": [
        "564373dc-4cfa-454e-8af1-bcccb886c007"
      ]
    },
    "titles": {
      "eng": "Brave Shine"
    },
    "titles_default_language": "eng",
    "title": "Brave Shine",
    "year": 2015
  }
}