{
  "header": {
    "version": 4,
    "description": "Karaoke Mugen Karaoke Data File"
  },
  "medias": [
    {
      "version": "Default",
      "filename": "JPN - Sakura Taisen Monogatari ~Mysterious Paris~ - PS2 GAME OP - Mihata no Moto ni.mp4",
      "audiogain": -3.5,
      "loudnorm": "-16.23,-3.14,9.10,-26.43,-1.07",
      "filesize": 29586753,
      "duration": 104,
      "default": true,
      "lyrics": [
        {
          "filename": "JPN - Sakura Taisen Monogatari ~Mysterious Paris~ - PS2 GAME OP - Mihata no Moto ni.ass",
          "default": true,
          "version": "Default",
          "subchecksum": "19af983f6ba52795c52cb741a9e77d04"
        }
      ]
    }
  ],
  "data": {
    "created_at": "2020-03-26T15:25:20.170Z",
    "kid": "ff166bd2-5a00-49d8-8b1a-1aedc96e6606",
    "modified_at": "2021-02-25T12:56:37.364Z",
    "parents": [
      "08a4f377-1093-4cac-94d6-b1015c66a6e4"
    ],
    "repository": "kara.moe",
    "tags": {
      "authors": [
        "1df04771-a378-4f14-a5e1-1455187d681a"
      ],
      "collections": [
        "c7db86a0-ff64-4044-9be4-66dd1ef1d1c1"
      ],
      "creators": [
        "500e2283-ec1c-46cf-a559-8e11e3e86d99",
        "b8a3778d-0864-4135-9053-1def02d3262e"
      ],
      "families": [
        "dbedd6b3-d125-4cd8-aa32-c4175e4ca3a3"
      ],
      "groups": [
        "3c14c864-533c-49e6-a3cc-6969f1233775"
      ],
      "langs": [
        "4dcf9614-7914-42aa-99f4-dbce2e059133"
      ],
      "platforms": [
        "2173004e-21da-45c9-9dfb-26014423c566"
      ],
      "series": [
        "933e0784-3a78-4b44-837a-d7084fc4e073"
      ],
      "singers": [
        "45d60c9a-d4a2-4fcc-b101-24005218f36e",
        "5fe433a6-1604-4892-b859-b71bc8212b78",
        "6fbd9a22-5015-4f6d-9d67-a81c2291ac55",
        "8f7f8994-bfef-4fc9-b2e7-a0eeffbca01e",
        "9eba9b17-ad7f-4b5b-876c-3e5c0254c9d4"
      ],
      "songtypes": [
        "f02ad9b3-0bd9-4aad-85b3-9976739ba0e4"
      ],
      "songwriters": [
        "2461dcff-0d44-481a-9841-a8ae3e3d53db",
        "2d718c99-fcaf-494b-8216-06f2d66e66a5"
      ],
      "franchises": [
        "3843ae35-0d40-4fef-9bda-0c222c2e5682"
      ]
    },
    "title": "Mihata no Moto ni",
    "titles": {
      "qro": "Mihata no Moto ni",
      "jpn": "御旗のもとに"
    },
    "year": 2004,
    "titles_default_language": "qro"
  }
}