{
  "header": {
    "version": 4,
    "description": "Karaoke Mugen Karaoke Data File"
  },
  "medias": [
    {
      "version": "Default",
      "filename": "JPN - Tensou Sentai Goseiger - OP - Tensou Sentai Goseiger.mp4",
      "audiogain": 1.66,
      "loudnorm": "-19.78,-5.91,3.90,-29.93,0.01",
      "filesize": 26739662,
      "duration": 86,
      "default": true,
      "lyrics": [
        {
          "filename": "JPN - Tensou Sentai Goseiger - OP - Tensou Sentai Goseiger.ass",
          "default": true,
          "version": "Default",
          "subchecksum": "67da88e29ee3ef2b03265b669518f377"
        }
      ]
    }
  ],
  "data": {
    "created_at": "2020-03-19T17:52:01.858Z",
    "kid": "01b96061-6ad1-4bdd-add5-31fb03783cce",
    "modified_at": "2021-02-25T13:20:16.429Z",
    "repository": "kara.moe",
    "tags": {
      "authors": [
        "e746046a-82f1-41af-aa58-e59c92f5c273"
      ],
      "collections": [
        "c7db86a0-ff64-4044-9be4-66dd1ef1d1c1"
      ],
      "creators": [
        "e32b14df-502b-45fa-9ca5-37554a63a4d7"
      ],
      "families": [
        "5391f9fe-638c-415f-8dc9-958e3a2c5787"
      ],
      "groups": [
        "ae613721-1fbe-480d-ba6b-d6d0702b184d"
      ],
      "langs": [
        "4dcf9614-7914-42aa-99f4-dbce2e059133"
      ],
      "origins": [
        "938de218-5343-4865-94d3-fb33f2eaa152",
        "d3fac9ab-630d-402d-a392-3d2450c3e62e"
      ],
      "series": [
        "4a82cc78-bad2-45c2-b36c-33def8aec1ae"
      ],
      "singers": [
        "9ea31ca2-d68b-476f-a79d-2726076f2d36"
      ],
      "songtypes": [
        "f02ad9b3-0bd9-4aad-85b3-9976739ba0e4"
      ],
      "songwriters": [
        "9a5bd095-2b3b-4599-9057-3a9c23b64c6c"
      ]
    },
    "title": "Tensou Sentai Goseiger",
    "titles": {
      "qro": "Tensou Sentai Goseiger",
      "jpn": "天装戦隊ゴセイジャー"
    },
    "year": 2010,
    "titles_default_language": "qro"
  }
}