{
  "header": {
    "version": 4,
    "description": "Karaoke Mugen Karaoke Data File"
  },
  "medias": [
    {
      "version": "Default",
      "filename": "JPN - Naruto Shippuuden - OP7 - Toumei Datta Sekai.mp4",
      "audiogain": -8.79,
      "loudnorm": "-8.83,0.91,4.50,-18.86,-0.52",
      "filesize": 32464516,
      "duration": 90,
      "default": true,
      "lyrics": [
        {
          "filename": "JPN - Naruto Shippuuden - OP7 - Toumei Datta Sekai.ass",
          "default": true,
          "version": "Default",
          "subchecksum": "da89a9e60dc6fc266b59b7f574dee38c"
        }
      ]
    }
  ],
  "data": {
    "created_at": "2017-10-11T17:03:02.000Z",
    "kid": "9feba08b-e672-417c-aa6e-33d90720cb39",
    "modified_at": "2021-02-25T12:34:25.950Z",
    "repository": "kara.moe",
    "songorder": 7,
    "tags": {
      "authors": [
        "5bdaba57-27f8-4568-8806-76a807728766"
      ],
      "collections": [
        "c7db86a0-ff64-4044-9be4-66dd1ef1d1c1"
      ],
      "creators": [
        "aaff4ba6-9a12-4bac-9bd0-c0cb783e4177"
      ],
      "families": [
        "0377db02-3af6-43b8-9b08-c759df3d25c3"
      ],
      "genres": [
        "a0aeef4a-6428-45ff-a6e1-468b595930c2"
      ],
      "groups": [
        "3c14c864-533c-49e6-a3cc-6969f1233775"
      ],
      "langs": [
        "4dcf9614-7914-42aa-99f4-dbce2e059133"
      ],
      "origins": [
        "938de218-5343-4865-94d3-fb33f2eaa152"
      ],
      "series": [
        "afd38f79-188d-47e4-95c6-f74c38895574"
      ],
      "singers": [
        "2ee7e71d-4298-4d30-bf69-16e10d915c5b"
      ],
      "songtypes": [
        "f02ad9b3-0bd9-4aad-85b3-9976739ba0e4"
      ],
      "songwriters": [
        "2ee7e71d-4298-4d30-bf69-16e10d915c5b"
      ],
      "franchises": [
        "3201e723-3e75-46f9-bb21-d991f4f7731e"
      ]
    },
    "title": "Toumei Datta Sekai",
    "titles": {
      "qro": "Toumei Datta Sekai",
      "jpn": "透明だった世界"
    },
    "year": 2007,
    "titles_default_language": "qro"
  }
}