{
  "header": {
    "version": 4,
    "description": "Karaoke Mugen Karaoke Data File"
  },
  "medias": [
    {
      "version": "Default",
      "filename": "JPN - 11eyes -Tsumi to Batsu to Aganai no Shoujo- - PC GAME OP - Lunatic Tears.mp4",
      "audiogain": -8.71,
      "loudnorm": "-8.14,2.39,3.60,-18.35,-0.71",
      "filesize": 32931033,
      "duration": 132,
      "default": true,
      "lyrics": [
        {
          "filename": "JPN - 11eyes -Tsumi to Batsu to Aganai no Shoujo- - PC GAME OP - Lunatic Tears.ass",
          "default": true,
          "version": "Default",
          "subchecksum": "5fb6f44730b93fe11f3b9a2e1102d7d0"
        }
      ]
    }
  ],
  "data": {
    "created_at": "2017-10-11T17:02:13.000Z",
    "kid": "fdbf58af-e8db-41b7-8913-4da07ff0d4ee",
    "modified_at": "2021-02-25T10:34:27.243Z",
    "repository": "kara.moe",
    "tags": {
      "authors": [
        "5bdaba57-27f8-4568-8806-76a807728766"
      ],
      "collections": [
        "c7db86a0-ff64-4044-9be4-66dd1ef1d1c1"
      ],
      "creators": [
        "d43ae6aa-adfe-4f2f-bad9-ce50dd7c27c5"
      ],
      "families": [
        "dbedd6b3-d125-4cd8-aa32-c4175e4ca3a3"
      ],
      "groups": [
        "3c14c864-533c-49e6-a3cc-6969f1233775"
      ],
      "langs": [
        "4dcf9614-7914-42aa-99f4-dbce2e059133"
      ],
      "origins": [
        "2f96e82c-c61b-4413-817e-e6b247509b95"
      ],
      "platforms": [
        "3c15f758-e1bc-4266-8bb9-3c14112f504a"
      ],
      "series": [
        "153449fb-69f4-4b35-a13b-22e1a544bc54"
      ],
      "singers": [
        "527d3a38-559d-4e99-9ed6-2a2fd772f45f"
      ],
      "songtypes": [
        "f02ad9b3-0bd9-4aad-85b3-9976739ba0e4"
      ],
      "songwriters": [
        "1ddc4422-c3e9-4b7d-b6f5-e4e2f3247d68",
        "527d3a38-559d-4e99-9ed6-2a2fd772f45f"
      ],
      "franchises": [
        "16825e96-4585-44f5-b502-3959fb51b0da"
      ]
    },
    "title": "Lunatic Tears",
    "titles": {
      "eng": "Lunatic Tears..."
    },
    "year": 2008,
    "titles_default_language": "eng"
  }
}