{
  "header": {
    "version": 4,
    "description": "Karaoke Mugen Karaoke Data File"
  },
  "medias": [
    {
      "version": "Default",
      "filename": "JPN - YUI - MV - Summer Song.mp4",
      "audiogain": -0.17,
      "loudnorm": "-17.80,-6.72,4.80,-28.03,-0.86",
      "filesize": 34931779,
      "duration": 206,
      "default": true,
      "lyrics": [
        {
          "filename": "JPN - YUI - MV - Summer Song.ass",
          "default": true,
          "version": "Default"
        }
      ]
    }
  ],
  "data": {
    "created_at": "2019-10-12T08:21:44.000Z",
    "kid": "1b70f3be-7919-4108-95da-6ff1a6dbfbd6",
    "modified_at": "2022-06-04T00:23:08.167Z",
    "repository": "kara.moe",
    "songorder": null,
    "tags": {
      "authors": [
        "57e2d8c3-b3f3-4b82-88a4-2491946b24d9"
      ],
      "creators": [
        "9f10c180-4ed1-4a4e-9e39-c37e09b91d5f"
      ],
      "families": [
        "5391f9fe-638c-415f-8dc9-958e3a2c5787"
      ],
      "groups": [
        "2b4e9972-5e17-481b-99f5-d0787c0ada56",
        "3c14c864-533c-49e6-a3cc-6969f1233775"
      ],
      "langs": [
        "4dcf9614-7914-42aa-99f4-dbce2e059133"
      ],
      "singers": [
        "c7157cf5-e8bc-4e99-8028-33edbb268298"
      ],
      "songtypes": [
        "7be1b15c-cff8-4b37-a649-5c90f3d569a9"
      ],
      "songwriters": [
        "c7157cf5-e8bc-4e99-8028-33edbb268298"
      ],
      "collections": [
        "dbcf2c22-524d-4708-99bb-601703633927"
      ]
    },
    "titles": {
      "eng": "Summer Song"
    },
    "titles_default_language": "eng",
    "title": "Summer Song",
    "year": 2008
  }
}