{
  "header": {
    "version": 4,
    "description": "Karaoke Mugen Karaoke Data File"
  },
  "medias": [
    {
      "version": "Default",
      "filename": "JPN - Mumei Nanashi - MV - Dandan Chikaku Naru ~ Cover Vers.mp4",
      "audiogain": -5.51,
      "loudnorm": "-13.65,-0.26,7.50,-23.99,-0.73",
      "filesize": 27917687,
      "duration": 92,
      "default": true,
      "lyrics": [
        {
          "filename": "JPN - Mumei Nanashi - MV - Dandan Chikaku Naru ~ Cover Vers.ass",
          "default": true,
          "version": "Default"
        }
      ]
    }
  ],
  "data": {
    "created_at": "2022-09-09T20:42:10.912Z",
    "ignoreHooks": false,
    "kid": "6b903e3e-61e6-4ad5-aadb-896ecd4343d3",
    "modified_at": "2022-09-09T20:42:11.544Z",
    "parents": [
      "51871808-c6ee-416d-a548-f40ea17494e7"
    ],
    "repository": "kara.moe",
    "tags": {
      "authors": [
        "4b50fcec-273e-4cc5-83f2-b156c2300f7f"
      ],
      "collections": [
        "c7db86a0-ff64-4044-9be4-66dd1ef1d1c1"
      ],
      "creators": [
        "0263d413-17bb-4cee-a311-6dd896eda1c9"
      ],
      "langs": [
        "4dcf9614-7914-42aa-99f4-dbce2e059133"
      ],
      "origins": [
        "5106d71b-a78e-4d19-a16d-f8fb6719538a"
      ],
      "singers": [
        "def3e764-d93a-4f14-9a0e-2e62afd11d27"
      ],
      "songtypes": [
        "7be1b15c-cff8-4b37-a649-5c90f3d569a9"
      ],
      "songwriters": [
        "ca0ed795-716a-4e9b-ae11-2f3f1c7f63a9"
      ],
      "versions": [
        "03e1e1d2-8641-47b7-bbcb-39a3df9ff21c"
      ],
      "groups": [
        "8e209ae4-4381-438f-89dc-1b21752027d2"
      ]
    },
    "titles": {
      "jpn": "だんだん近くなる",
      "qro": "Dandan Chikaku Naru"
    },
    "titles_default_language": "qro",
    "title": "Dandan Chikaku Naru",
    "year": 2022
  }
}