{
  "header": {
    "version": 4,
    "description": "Karaoke Mugen Karaoke Data File"
  },
  "medias": [
    {
      "version": "Default",
      "filename": "JPN - Violet Evergarden - LIVE - Michishirube ~ Full Vers.mp4",
      "audiogain": 7.03,
      "loudnorm": "-26.74,-15.08,10.70,-37.10,-1.77",
      "filesize": 77966274,
      "duration": 299,
      "default": true,
      "lyrics": [
        {
          "filename": "JPN - Violet Evergarden - LIVE - Michishirube ~ Full Vers.ass",
          "default": true,
          "version": "Default"
        }
      ]
    }
  ],
  "data": {
    "created_at": "2019-01-30T17:11:12.000Z",
    "ignoreHooks": false,
    "kid": "c455bec6-1a12-4b48-912b-591ef86e23a0",
    "modified_at": "2022-12-22T16:08:56.369Z",
    "parents": [
      "606bf0dd-3456-4d64-90a7-e63ec16027bc"
    ],
    "repository": "kara.moe",
    "tags": {
      "authors": [
        "fa399f2f-ea1d-4902-8796-ea6d8218aff0"
      ],
      "collections": [
        "c7db86a0-ff64-4044-9be4-66dd1ef1d1c1"
      ],
      "creators": [
        "d93786af-5098-49b2-9928-37edfb3d0322"
      ],
      "families": [
        "0377db02-3af6-43b8-9b08-c759df3d25c3"
      ],
      "groups": [
        "ae613721-1fbe-480d-ba6b-d6d0702b184d"
      ],
      "langs": [
        "4dcf9614-7914-42aa-99f4-dbce2e059133"
      ],
      "origins": [
        "938de218-5343-4865-94d3-fb33f2eaa152"
      ],
      "series": [
        "df77f381-0db4-4c22-96f3-fd1e458bed97"
      ],
      "singers": [
        "8c3ef7dd-5265-4527-ac49-c604ab822add"
      ],
      "songtypes": [
        "a0167949-580c-4de3-bf13-497e462e02f3"
      ],
      "songwriters": [
        "400922df-5396-43ea-a338-90771426a74f",
        "8c3ef7dd-5265-4527-ac49-c604ab822add"
      ],
      "versions": [
        "c2143a7f-6970-450e-8a79-0302db9220a9"
      ],
      "franchises": [
        "df77f381-0db4-4c22-96f3-fd1e458bed97"
      ]
    },
    "titles": {
      "jpn": "みちしるべ",
      "qro": "Michishirube"
    },
    "titles_default_language": "qro",
    "year": 2018
  }
}