{
  "header": {
    "version": 4,
    "description": "Karaoke Mugen Karaoke Data File"
  },
  "medias": [
    {
      "lyrics": [
        {
          "default": true,
          "version": "Default",
          "filename": "JPN - Choko Senshi Changerion - OP1 - OVER THE TIMES ~ Ima o Koete.ass"
        }
      ],
      "default": true,
      "version": "Ima o Koete",
      "duration": 84,
      "filename": "JPN - Choko Senshi Changerion - OP1 - OVER THE TIMES ~ Ima o Koete.mp4",
      "filesize": 15829923,
      "loudnorm": "-20.90,-4.92,4.90,-31.06,-0.34",
      "audiogain": 1.47
    }
  ],
  "data": {
    "kid": "98492a1a-ad60-492e-a4fc-d428f478f558",
    "tags": {
      "authors": [
        "ef611801-6a99-482e-9b99-13ad3d3a0648"
      ],
      "collections": [
        "c7db86a0-ff64-4044-9be4-66dd1ef1d1c1"
      ],
      "creators": [
        "e32b14df-502b-45fa-9ca5-37554a63a4d7"
      ],
      "families": [
        "5391f9fe-638c-415f-8dc9-958e3a2c5787"
      ],
      "groups": [
        "24db50aa-a126-4d34-a48a-e45db79c4245"
      ],
      "langs": [
        "4dcf9614-7914-42aa-99f4-dbce2e059133"
      ],
      "origins": [
        "28650021-2b2a-4a55-aff4-85dd4896c687",
        "938de218-5343-4865-94d3-fb33f2eaa152",
        "d3fac9ab-630d-402d-a392-3d2450c3e62e"
      ],
      "series": [
        "beef6766-2449-4037-a2d3-48ee7ccad7ce"
      ],
      "singers": [
        "14d59a01-bcf9-4c75-8bec-8290c4534357"
      ],
      "songtypes": [
        "f02ad9b3-0bd9-4aad-85b3-9976739ba0e4"
      ]
    },
    "year": 1996,
    "title": "OVER THE TIMES ~ Ima o Koete",
    "titles": {
      "qro": "OVER THE TIMES ~ Ima wo Koete",
      "jpn": "OVER THE TIMES～時を超えて"
    },
    "songorder": 1,
    "created_at": "2021-12-23T18:43:55.781Z",
    "repository": "kara.moe",
    "modified_at": "2021-12-23T18:56:42.339Z",
    "titles_default_language": "qro"
  }
}