{
  "header": {
    "version": 4,
    "description": "Karaoke Mugen Karaoke Data File"
  },
  "medias": [
    {
      "version": "Default",
      "filename": "JPN - MadLax - OP - Hitomi no Kakera.mp4",
      "audiogain": -7.54,
      "loudnorm": "-11.35,1.40,7.30,-21.53,-1.39",
      "filesize": 11270276,
      "duration": 90,
      "default": true,
      "lyrics": [
        {
          "filename": "JPN - MadLax - OP - Hitomi no Kakera.ass",
          "default": true,
          "version": "Default",
          "subchecksum": "fe78de7b6bef380e1b7e7eaedf473c00"
        }
      ]
    }
  ],
  "data": {
    "created_at": "2017-10-11T17:02:36.000Z",
    "kid": "d8a1c398-0a9a-46b0-805a-b0924535e622",
    "modified_at": "2021-02-25T12:17:29.963Z",
    "repository": "kara.moe",
    "tags": {
      "authors": [
        "5bdaba57-27f8-4568-8806-76a807728766"
      ],
      "collections": [
        "c7db86a0-ff64-4044-9be4-66dd1ef1d1c1"
      ],
      "creators": [
        "53c428f6-4ad6-464f-8529-40e7b9941c7f"
      ],
      "families": [
        "0377db02-3af6-43b8-9b08-c759df3d25c3"
      ],
      "groups": [
        "3c14c864-533c-49e6-a3cc-6969f1233775"
      ],
      "langs": [
        "4dcf9614-7914-42aa-99f4-dbce2e059133"
      ],
      "origins": [
        "938de218-5343-4865-94d3-fb33f2eaa152"
      ],
      "series": [
        "0804fcd3-9f24-4a26-9a82-751f811b19a7"
      ],
      "singers": [
        "f628390a-1a0f-4e4f-9207-28f6aef85616"
      ],
      "songtypes": [
        "f02ad9b3-0bd9-4aad-85b3-9976739ba0e4"
      ],
      "songwriters": [
        "1f324dc7-f858-415b-bbc1-41fcce3d6ac7"
      ]
    },
    "title": "Hitomi no Kakera",
    "titles": {
      "qro": "Hitomi no Kakera",
      "jpn": "瞳の欠片"
    },
    "year": 2004,
    "titles_default_language": "qro"
  }
}