{
  "header": {
    "version": 4,
    "description": "Karaoke Mugen Karaoke Data File"
  },
  "medias": [
    {
      "version": "Default",
      "filename": "JPN - Magia Record Mahou Shoujo Madoka Magica Gaiden - GAME OP3 - Utsuroi.mp4",
      "audiogain": -9.49,
      "loudnorm": "-8.09,0.97,4.00,-18.10,-1.51",
      "filesize": 19787115,
      "duration": 89,
      "default": true,
      "lyrics": [
        {
          "filename": "JPN - Magia Record Mahou Shoujo Madoka Magica Gaiden - GAME OP3 - Utsuroi.ass",
          "default": true,
          "version": "Default",
          "subchecksum": "3d79ce89c8f899c335b3f4811e0a9f63"
        }
      ]
    }
  ],
  "data": {
    "created_at": "2021-07-03T19:25:06.597Z",
    "kid": "e2841962-1f0e-4195-a2ba-1221110fc40e",
    "modified_at": "2021-07-03T19:30:41.071Z",
    "repository": "kara.moe",
    "songorder": 3,
    "tags": {
      "authors": [
        "1df04771-a378-4f14-a5e1-1455187d681a"
      ],
      "collections": [
        "c7db86a0-ff64-4044-9be4-66dd1ef1d1c1"
      ],
      "creators": [
        "dc045ff3-dbd9-4080-821b-2e6ee13d0e4d"
      ],
      "families": [
        "dbedd6b3-d125-4cd8-aa32-c4175e4ca3a3"
      ],
      "genres": [
        "b84e28f9-db1e-447f-b339-7954c3592523"
      ],
      "groups": [
        "ae613721-1fbe-480d-ba6b-d6d0702b184d"
      ],
      "langs": [
        "4dcf9614-7914-42aa-99f4-dbce2e059133"
      ],
      "platforms": [
        "213a1a15-e73a-4a08-b3f6-b6e2745a82e5"
      ],
      "series": [
        "bb08329a-f9ca-4e28-8b58-199bdc4cea06"
      ],
      "singers": [
        "42c260b0-8661-4bb8-ae30-ed0c607060ab",
        "6c2557cb-9bde-4bad-b5a6-8af24a080047",
        "c3e0136f-ad29-4315-9014-cc6b115472f1",
        "cdf462a4-d0ff-4a2c-8c79-a9028cc6395a"
      ],
      "songtypes": [
        "f02ad9b3-0bd9-4aad-85b3-9976739ba0e4"
      ],
      "songwriters": [
        "9d5e8cc9-76ca-415b-b000-0524cdb3302e",
        "b4279339-b1d8-4da7-8bf9-1f6d5b69be11"
      ],
      "franchises": [
        "c31a2b6a-96f5-4244-bce3-e04cd8b5c2ae"
      ]
    },
    "title": "Utsuroi",
    "titles": {
      "qro": "Utsuroi",
      "jpn": "うつろい"
    },
    "year": 2019,
    "titles_default_language": "qro"
  }
}