{
  "header": {
    "version": 4,
    "description": "Karaoke Mugen Karaoke Data File"
  },
  "medias": [
    {
      "version": "Default",
      "filename": "JPN - Azumanga Daiou The Animation (2002) - ED - Raspberry Heaven.mp4",
      "audiogain": -2.9,
      "loudnorm": "-15.44,0.08,4.40,-25.56,-1.13",
      "filesize": 12567906,
      "duration": 95,
      "default": true,
      "lyrics": [
        {
          "filename": "JPN - Azumanga Daiou The Animation (2002) - ED - Raspberry Heaven.ass",
          "default": true,
          "version": "Default",
          "subchecksum": "4bd248e29291a180a704c14dc98882e4"
        }
      ]
    }
  ],
  "data": {
    "created_at": "2017-10-11T17:01:04.000Z",
    "kid": "3325a912-9a70-4c7a-b379-b248cd39ae5e",
    "modified_at": "2021-02-25T10:48:09.799Z",
    "repository": "kara.moe",
    "tags": {
      "authors": [
        "8c22c899-b3ed-42da-a548-ce00f950798b"
      ],
      "collections": [
        "c7db86a0-ff64-4044-9be4-66dd1ef1d1c1"
      ],
      "creators": [
        "802a8ac8-b16f-40a4-944b-99956798c906"
      ],
      "families": [
        "0377db02-3af6-43b8-9b08-c759df3d25c3"
      ],
      "groups": [
        "3c14c864-533c-49e6-a3cc-6969f1233775",
        "8c22c899-b3ed-42da-a548-ce00f950798b"
      ],
      "langs": [
        "4dcf9614-7914-42aa-99f4-dbce2e059133"
      ],
      "origins": [
        "938de218-5343-4865-94d3-fb33f2eaa152"
      ],
      "series": [
        "646540b7-0a90-4524-a99d-3e933d95fd0a"
      ],
      "singers": [
        "bd8431ad-0ea3-4d9c-9835-9fb31bbf84a4"
      ],
      "songtypes": [
        "38c77c56-2b95-4040-b676-0994a8cb0597"
      ],
      "songwriters": [
        "8afef651-f516-4678-944b-92845bcf8b9f",
        "f41e7218-6c19-4e19-9b5f-4612dcd58243"
      ]
    },
    "title": "Raspberry Heaven",
    "titles": {
      "eng": "Raspberry Heaven"
    },
    "year": 2002,
    "titles_default_language": "eng"
  }
}