{
  "header": {
    "version": 4,
    "description": "Karaoke Mugen Karaoke Data File"
  },
  "medias": [
    {
      "version": "Default",
      "filename": "JPN - Code Geass Hangyaku no Lelouch - MV - Colors ~ Full Vers.mp4",
      "audiogain": -7.52,
      "loudnorm": "-9.26,-0.41,3.40,-19.37,-0.90",
      "filesize": 14115392,
      "duration": 221,
      "default": true,
      "lyrics": [
        {
          "filename": "JPN - Code Geass Hangyaku no Lelouch - MV - Colors ~ Full Vers.ass",
          "default": true,
          "version": "Default"
        }
      ]
    }
  ],
  "data": {
    "created_at": "2019-11-24T21:24:02.491Z",
    "kid": "8a9d9120-1983-4422-b366-90478f4d29c9",
    "modified_at": "2022-06-04T00:14:25.491Z",
    "parents": [
      "5785f80a-8f03-43a1-907e-e076b8b69a17"
    ],
    "repository": "kara.moe",
    "songorder": null,
    "tags": {
      "authors": [
        "1db1738f-acdc-42fc-aec3-60f4bddf660d"
      ],
      "creators": [
        "6df34030-d5ec-4480-a1c2-20103a7c0b63"
      ],
      "families": [
        "5391f9fe-638c-415f-8dc9-958e3a2c5787"
      ],
      "groups": [
        "3c14c864-533c-49e6-a3cc-6969f1233775"
      ],
      "langs": [
        "4dcf9614-7914-42aa-99f4-dbce2e059133"
      ],
      "series": [
        "1cb3b851-435a-4078-8619-8711f963a92f"
      ],
      "singers": [
        "fa3c1f40-c7ef-4ba2-9630-f540bcf94b43"
      ],
      "songtypes": [
        "7be1b15c-cff8-4b37-a649-5c90f3d569a9"
      ],
      "songwriters": [
        "059c908e-e210-4405-a509-04ae79271c6e",
        "6a88984a-ec66-4027-b53c-66fb74ea3ab9",
        "ad341f74-d55c-43fb-829a-c41927619998"
      ],
      "versions": [
        "c2143a7f-6970-450e-8a79-0302db9220a9"
      ],
      "collections": [
        "dbcf2c22-524d-4708-99bb-601703633927"
      ],
      "franchises": [
        "1cb3b851-435a-4078-8619-8711f963a92f"
      ]
    },
    "titles": {
      "eng": "COLORS"
    },
    "titles_default_language": "eng",
    "title": "Colors",
    "year": 2006
  }
}