{
  "header": {
    "version": 4,
    "description": "Karaoke Mugen Karaoke Data File"
  },
  "medias": [
    {
      "version": "Default",
      "filename": "JPN - Touhou - MV - Hatate no Bakkoi Satsujinjiken.mp4",
      "audiogain": -10.87,
      "loudnorm": "-6.69,2.80,3.50,-16.83,-0.33",
      "filesize": 10470377,
      "duration": 115,
      "default": true,
      "lyrics": [
        {
          "filename": "JPN - Touhou - MV - Hatate no Bakkoi Satsujinjiken.ass",
          "default": true,
          "version": "Default"
        }
      ]
    }
  ],
  "data": {
    "created_at": "2023-02-01T00:59:17.525Z",
    "ignoreHooks": false,
    "kid": "80b6b8c8-6446-4de4-8dcc-1b79b663f7fe",
    "modified_at": "2023-02-01T00:59:18.299Z",
    "repository": "kara.moe",
    "tags": {
      "authors": [
        "fb28c6d3-a81e-40c0-9a4c-e3268c60a64b"
      ],
      "collections": [
        "c7db86a0-ff64-4044-9be4-66dd1ef1d1c1"
      ],
      "creators": [
        "25fc251a-0514-4bf5-a818-dd0547723f4a"
      ],
      "families": [
        "0377db02-3af6-43b8-9b08-c759df3d25c3"
      ],
      "langs": [
        "4dcf9614-7914-42aa-99f4-dbce2e059133"
      ],
      "misc": [
        "ec4fee75-71fb-45b4-9772-2ca374b4b600"
      ],
      "origins": [
        "ac5085db-52d8-44b4-8fbb-1697b24d2046"
      ],
      "series": [
        "1bdaa5a1-dfa6-4365-b746-7a0b194dafd6"
      ],
      "singers": [
        "98cd2e0e-44fb-4feb-aada-1b418e94af37"
      ],
      "songtypes": [
        "7be1b15c-cff8-4b37-a649-5c90f3d569a9"
      ],
      "songwriters": [
        "26cb5252-8510-49e0-897c-a611a05fc056",
        "feceb592-efac-4eda-9b03-c27cf509004c",
        "1dae52a9-d1e0-447b-8dd3-cfd10119a3a8"
      ],
      "franchises": [
        "1bdaa5a1-dfa6-4365-b746-7a0b194dafd6"
      ],
      "groups": [
        "ae613721-1fbe-480d-ba6b-d6d0702b184d"
      ]
    },
    "titles": {
      "jpn": "はたてのバッコイ殺人事件",
      "qro": "Hatate no Bakkoi Satsujinjiken"
    },
    "titles_default_language": "qro",
    "titles_aliases": [
      "satsujin jiken",
      "murder case"
    ],
    "year": 2010
  }
}