{
  "header": {
    "version": 4,
    "description": "Karaoke Mugen Karaoke Data File"
  },
  "medias": [
    {
      "version": "Default",
      "filename": "JPN - Una Otomachi - MV - Teratera ~ Off Vocal Vers.mp4",
      "audiogain": -5.79,
      "loudnorm": "-10.81,0.80,3.60,-20.86,-0.31",
      "filesize": 52404089,
      "duration": 199,
      "default": true,
      "lyrics": [
        {
          "filename": "JPN - Una Otomachi - MV - Teratera ~ Off Vocal Vers.ass",
          "default": true,
          "version": "Default"
        }
      ]
    }
  ],
  "data": {
    "created_at": "2022-11-05T15:19:02.626Z",
    "ignoreHooks": false,
    "kid": "3f6f7241-e633-4487-bff1-23740afbaf59",
    "modified_at": "2022-11-05T15:19:02.761Z",
    "parents": [
      "aeac0ed1-8da3-47ca-b976-e945772be76e"
    ],
    "repository": "kara.moe",
    "tags": {
      "authors": [
        "10891649-d475-46eb-b515-8eb3c1e14622"
      ],
      "collections": [
        "c7db86a0-ff64-4044-9be4-66dd1ef1d1c1"
      ],
      "creators": [
        "62b02c9d-2a5e-493f-a210-3c3a251950fa",
        "79a04ac1-715a-4998-9375-07b904877795"
      ],
      "families": [
        "0377db02-3af6-43b8-9b08-c759df3d25c3"
      ],
      "genres": [
        "45623cae-6d68-4304-a49b-896d1d6f4580"
      ],
      "groups": [
        "8e209ae4-4381-438f-89dc-1b21752027d2"
      ],
      "langs": [
        "4dcf9614-7914-42aa-99f4-dbce2e059133"
      ],
      "singers": [
        "be2841ee-f113-40a3-afdf-e0c2b660b700"
      ],
      "songtypes": [
        "7be1b15c-cff8-4b37-a649-5c90f3d569a9"
      ],
      "songwriters": [
        "b59b3f7d-2b6f-46dd-8364-ad38e35efe4e"
      ],
      "versions": [
        "c0cc87b9-55b9-40f0-878a-fbb9e34c151e"
      ]
    },
    "titles": {
      "eng": "SHOW OFF",
      "jpn": "てらてら",
      "qro": "Teratera"
    },
    "titles_default_language": "qro",
    "title": "Teratera",
    "year": 2022
  }
}