{
  "header": {
    "version": 4,
    "description": "Karaoke Mugen Karaoke Data File"
  },
  "medias": [
    {
      "version": "Default",
      "filename": "JPN - Mirai Sentai Timeranger - OP - JIKU ~Mirai Sentai Timeranger~.mp4",
      "audiogain": 4.76,
      "loudnorm": "-23.65,-7.64,4.20,-33.80,-1.12",
      "filesize": 15686837,
      "duration": 85,
      "default": true,
      "lyrics": [
        {
          "filename": "JPN - Mirai Sentai Timeranger - OP - JIKU ~Mirai Sentai Timeranger~.ass",
          "default": true,
          "version": "Default"
        }
      ]
    }
  ],
  "data": {
    "created_at": "2018-11-18T15:32:36.000Z",
    "ignoreHooks": false,
    "kid": "6cf65d9b-abff-449d-bab2-32bc9c73e957",
    "modified_at": "2022-10-01T20:28:49.253Z",
    "repository": "kara.moe",
    "tags": {
      "authors": [
        "4607780c-f1ef-47cf-9c1c-b13e8f731699"
      ],
      "collections": [
        "c7db86a0-ff64-4044-9be4-66dd1ef1d1c1"
      ],
      "creators": [
        "e32b14df-502b-45fa-9ca5-37554a63a4d7"
      ],
      "families": [
        "5391f9fe-638c-415f-8dc9-958e3a2c5787"
      ],
      "groups": [
        "3c14c864-533c-49e6-a3cc-6969f1233775"
      ],
      "langs": [
        "4dcf9614-7914-42aa-99f4-dbce2e059133"
      ],
      "origins": [
        "938de218-5343-4865-94d3-fb33f2eaa152",
        "d3fac9ab-630d-402d-a392-3d2450c3e62e"
      ],
      "series": [
        "276c7710-0f54-4f1b-8fac-f7567f685f7e"
      ],
      "singers": [
        "a293e979-e1d0-4ac4-92ab-246bf63e5b1e"
      ],
      "songtypes": [
        "f02ad9b3-0bd9-4aad-85b3-9976739ba0e4"
      ],
      "songwriters": [
        "6a222786-1216-488e-a45c-e54d4fa413fa",
        "e77a5faa-218c-4957-a626-5630a8f6c7c2"
      ]
    },
    "titles": {
      "jpn": "JIKÛ ～未来戦隊タイムレンジャー～",
      "qro": "JIKÛ ~Mirai Sentai Timeranger~"
    },
    "titles_default_language": "qro",
    "titles_aliases": [
      "JIKUU",
      "JIKuu"
    ],
    "title": "JIKÛ ~Mirai Sentai Timeranger~",
    "year": 2000
  }
}