{
  "header": {
    "version": 4,
    "description": "Karaoke Mugen Karaoke Data File"
  },
  "medias": [
    {
      "version": "Default",
      "filename": "JPN - Touhou - MV - Wandering Darkness.mp4",
      "audiogain": -11.75,
      "loudnorm": "-6.39,1.21,5.40,-16.58,-0.47",
      "filesize": 43713415,
      "duration": 107,
      "default": true,
      "lyrics": [
        {
          "filename": "JPN - Touhou - MV - Wandering Darkness.ass",
          "default": true,
          "version": "Default",
          "subchecksum": "eb8855c0d2506d9085b5ad83bb61e3ee"
        }
      ]
    }
  ],
  "data": {
    "created_at": "2017-10-11T17:01:35.000Z",
    "kid": "1df95783-09f4-4d53-9dfb-9036bac4e28b",
    "modified_at": "2021-02-25T13:28:15.098Z",
    "repository": "kara.moe",
    "tags": {
      "authors": [
        "c2205bc1-b31a-4bbd-8953-7070204b5cbf"
      ],
      "collections": [
        "c7db86a0-ff64-4044-9be4-66dd1ef1d1c1"
      ],
      "creators": [
        "5c76fa71-070f-4c15-96d0-2ec9c6a4945d",
        "a56ed9e7-a3dc-4203-b91c-4128bcf7bfa9"
      ],
      "families": [
        "0377db02-3af6-43b8-9b08-c759df3d25c3"
      ],
      "groups": [
        "8c22c899-b3ed-42da-a548-ce00f950798b",
        "ae613721-1fbe-480d-ba6b-d6d0702b184d"
      ],
      "langs": [
        "4dcf9614-7914-42aa-99f4-dbce2e059133"
      ],
      "series": [
        "1bdaa5a1-dfa6-4365-b746-7a0b194dafd6"
      ],
      "singers": [
        "def99de7-da75-4cf7-833a-9ca630e049ed"
      ],
      "songtypes": [
        "7be1b15c-cff8-4b37-a649-5c90f3d569a9"
      ],
      "songwriters": [
        "26cb5252-8510-49e0-897c-a611a05fc056",
        "2e2964df-7dec-475e-bf11-62dc72e4fc6c",
        "6539217d-b35c-4316-87b0-f25b3a86d289"
      ],
      "franchises": [
        "1bdaa5a1-dfa6-4365-b746-7a0b194dafd6"
      ]
    },
    "title": "Wandering Darkness",
    "titles": {
      "eng": "Wandering Darkness",
      "qro": "Samayoi no mei",
      "jpn": "彷徨いの冥"
    },
    "year": 2015,
    "titles_default_language": "eng"
  }
}