{
  "header": {
    "version": 4,
    "description": "Karaoke Mugen Karaoke Data File"
  },
  "medias": [
    {
      "version": "Default",
      "filename": "JPN - Paradox Live - AUDIO - The Sound of Voltage.mp3",
      "audiogain": -0.08,
      "loudnorm": "-16.63,-6.36,1.60,-26.76,-0.45",
      "filesize": 6733038,
      "duration": 199,
      "default": true,
      "lyrics": [
        {
          "filename": "JPN - Paradox Live - AUDIO - The Sound of Voltage.ass",
          "default": true,
          "version": "Default"
        }
      ]
    }
  ],
  "data": {
    "created_at": "2022-09-15T19:42:16.930Z",
    "ignoreHooks": false,
    "kid": "aeb4ad66-2fb3-4a15-a09f-82add9c877b6",
    "modified_at": "2022-09-15T19:42:18.187Z",
    "repository": "kara.moe",
    "tags": {
      "authors": [
        "ee8628c8-9b7f-415b-bc0d-9b712d5daf8c"
      ],
      "collections": [
        "c7db86a0-ff64-4044-9be4-66dd1ef1d1c1",
        "dbcf2c22-524d-4708-99bb-601703633927"
      ],
      "creators": [
        "8fb6d342-5573-4d48-9085-a238b0c36968"
      ],
      "groups": [
        "8e209ae4-4381-438f-89dc-1b21752027d2"
      ],
      "langs": [
        "4dcf9614-7914-42aa-99f4-dbce2e059133"
      ],
      "misc": [
        "1d6ceadf-a885-47e5-b23b-c07bf668a424"
      ],
      "series": [
        "75f920f8-98bf-4ef1-8c1b-5a26f4bfc16e"
      ],
      "singers": [
        "32add1f0-4fb8-44d7-b436-9fdac22ed500",
        "450e6184-5fb6-4456-9bb6-50323f29890b"
      ],
      "singergroups": [
        "74881f6b-c3aa-4a1c-a17d-8149ad83c803"
      ],
      "songtypes": [
        "42a262ae-acba-4ab5-a446-c5789c96c821"
      ],
      "songwriters": [
        "8b807bdd-5873-4141-8e56-1dd9c71d35c9"
      ],
      "franchises": [
        "75f920f8-98bf-4ef1-8c1b-5a26f4bfc16e"
      ]
    },
    "titles": {
      "eng": "The Sound of Voltage"
    },
    "titles_default_language": "eng",
    "title": "The Sound of Voltage",
    "year": 2021
  }
}