{
  "header": {
    "version": 4,
    "description": "Karaoke Mugen Karaoke Data File"
  },
  "medias": [
    {
      "version": "Default",
      "filename": "JPN - Touhou - MV - Deadman's Lovely Life.mp4",
      "audiogain": -10.84,
      "loudnorm": "-6.97,1.23,5.00,-17.34,-0.25",
      "filesize": 14907773,
      "duration": 235,
      "default": true,
      "lyrics": [
        {
          "filename": "JPN - Touhou - MV - Deadman's Lovely Life.ass",
          "default": true,
          "version": "Default"
        }
      ]
    }
  ],
  "data": {
    "created_at": "2022-10-05T18:19:50.278Z",
    "ignoreHooks": false,
    "kid": "b89c587e-d9f1-4bfd-a484-40f78412a3a4",
    "modified_at": "2022-10-05T19:30:49.565Z",
    "repository": "kara.moe",
    "tags": {
      "authors": [
        "1fbfef73-6731-40df-ba51-65a54b9d1605"
      ],
      "collections": [
        "c7db86a0-ff64-4044-9be4-66dd1ef1d1c1"
      ],
      "creators": [
        "0fa12705-e060-490d-82c9-838989a929bc"
      ],
      "families": [
        "0377db02-3af6-43b8-9b08-c759df3d25c3"
      ],
      "groups": [
        "ae613721-1fbe-480d-ba6b-d6d0702b184d"
      ],
      "langs": [
        "4dcf9614-7914-42aa-99f4-dbce2e059133"
      ],
      "origins": [
        "ac5085db-52d8-44b4-8fbb-1697b24d2046"
      ],
      "series": [
        "1bdaa5a1-dfa6-4365-b746-7a0b194dafd6"
      ],
      "singers": [
        "91c5c312-83d5-447e-9f03-91b11cf2efa1"
      ],
      "songtypes": [
        "7be1b15c-cff8-4b37-a649-5c90f3d569a9"
      ],
      "songwriters": [
        "26cb5252-8510-49e0-897c-a611a05fc056",
        "cbb6b661-766c-45ef-ae72-26bc37a71ba9"
      ],
      "franchises": [
        "1bdaa5a1-dfa6-4365-b746-7a0b194dafd6"
      ]
    },
    "titles": {
      "eng": "Deadman's Lovely Life",
      "jpn": "デッドマンズ・ラブリィライフ"
    },
    "titles_default_language": "eng",
    "titles_aliases": [
      "dead man"
    ],
    "title": "Deadman's Lovely Life",
    "year": 2012
  }
}