{
  "header": {
    "version": 4,
    "description": "Karaoke Mugen Karaoke Data File"
  },
  "medias": [
    {
      "version": "Default",
      "filename": "JPN - Gintama - ED14 - Wo Ai Ni.mp4",
      "audiogain": 1.71,
      "loudnorm": "-19.60,-12.12,3.60,-29.72,-0.32",
      "filesize": 8511960,
      "duration": 90,
      "default": true,
      "lyrics": [
        {
          "filename": "JPN - Gintama - ED14 - Wo Ai Ni.ass",
          "default": true,
          "version": "Default",
          "subchecksum": "46f83963ed0e30d514e9995bd6aa22cd"
        }
      ]
    }
  ],
  "data": {
    "created_at": "2017-10-11T17:02:07.000Z",
    "kid": "7c40c270-11f9-4083-97d8-3da922802e90",
    "modified_at": "2021-02-25T11:28:35.186Z",
    "repository": "kara.moe",
    "songorder": 14,
    "tags": {
      "authors": [
        "8c22c899-b3ed-42da-a548-ce00f950798b"
      ],
      "collections": [
        "c7db86a0-ff64-4044-9be4-66dd1ef1d1c1"
      ],
      "creators": [
        "ef8f80e1-d244-4aea-b7f0-984d6dd4b82b"
      ],
      "families": [
        "0377db02-3af6-43b8-9b08-c759df3d25c3"
      ],
      "genres": [
        "a0aeef4a-6428-45ff-a6e1-468b595930c2"
      ],
      "groups": [
        "3c14c864-533c-49e6-a3cc-6969f1233775",
        "8c22c899-b3ed-42da-a548-ce00f950798b"
      ],
      "langs": [
        "4dcf9614-7914-42aa-99f4-dbce2e059133"
      ],
      "origins": [
        "938de218-5343-4865-94d3-fb33f2eaa152"
      ],
      "series": [
        "0433ab0b-74bb-4837-8f1b-fd17a9e0c526"
      ],
      "singers": [
        "c26e208e-cc96-4fb0-9f23-873e145ee7f5",
        "ede5afa3-2be5-457b-b205-b576f6cbcec2"
      ],
      "songtypes": [
        "38c77c56-2b95-4040-b676-0994a8cb0597"
      ],
      "songwriters": [
        "c26e208e-cc96-4fb0-9f23-873e145ee7f5",
        "ede5afa3-2be5-457b-b205-b576f6cbcec2"
      ],
      "franchises": [
        "0433ab0b-74bb-4837-8f1b-fd17a9e0c526"
      ]
    },
    "title": "Wo Ai Ni",
    "titles": {
      "qro": "Wo Ai Ni",
      "jpn": "ウォーアイニー"
    },
    "year": 2006,
    "titles_default_language": "qro"
  }
}