{
  "header": {
    "version": 4,
    "description": "Karaoke Mugen Karaoke Data File"
  },
  "medias": [
    {
      "version": "Default",
      "filename": "JPN - Berryz Koubou - MV - Momochi! Yurushite Nyan Taisou.mp4",
      "audiogain": -10.37,
      "loudnorm": "-9.44,1.08,9.40,-19.61,-0.98",
      "filesize": 18119032,
      "duration": 168,
      "default": true,
      "lyrics": [
        {
          "filename": "JPN - Berryz Koubou - MV - Momochi! Yurushite Nyan Taisou.ass",
          "default": true,
          "version": "Default"
        }
      ]
    }
  ],
  "data": {
    "created_at": "2018-07-12T21:01:35.000Z",
    "kid": "db2c70f2-c448-4772-87f4-703a3dc3851a",
    "modified_at": "2022-06-04T00:24:30.296Z",
    "repository": "kara.moe",
    "songorder": null,
    "tags": {
      "authors": [
        "611aa6ee-ebf8-4ef5-8eed-9f1eaec5117e"
      ],
      "creators": [
        "00e80711-463d-476e-8496-bcac9b8e6ab8"
      ],
      "families": [
        "5391f9fe-638c-415f-8dc9-958e3a2c5787"
      ],
      "genres": [
        "caa86df2-0d59-474b-885c-f240a9e891b0"
      ],
      "groups": [
        "ae613721-1fbe-480d-ba6b-d6d0702b184d"
      ],
      "langs": [
        "4dcf9614-7914-42aa-99f4-dbce2e059133"
      ],
      "singers": [
        "99380495-0093-4a8d-b4f1-c4214602a4c6"
      ],
      "songtypes": [
        "7be1b15c-cff8-4b37-a649-5c90f3d569a9"
      ],
      "songwriters": [
        "5938e181-5402-43ea-a5a0-a4ca2405705d"
      ],
      "collections": [
        "dbcf2c22-524d-4708-99bb-601703633927"
      ]
    },
    "titles": {
      "qro": "Momochi! Yurushite Nyan♡Taisou",
      "jpn": "ももち! 許してにゃん♡体操"
    },
    "titles_default_language": "qro",
    "title": "Momochi! Yurushite Nyan♡Taisou",
    "year": 2012
  }
}