{
  "header": {
    "version": 4,
    "description": "Karaoke Mugen Karaoke Data File"
  },
  "medias": [
    {
      "version": "Default",
      "filename": "JPN - Touhou - AMV - Captain Murasa no Ketsu Anchor.mp4",
      "audiogain": -0.27,
      "loudnorm": "-17.00,-8.17,2.10,-27.08,-0.73",
      "filesize": 23945280,
      "duration": 89,
      "default": true,
      "lyrics": [
        {
          "filename": "JPN - Touhou - AMV - Captain Murasa no Ketsu Anchor.ass",
          "default": true,
          "version": "Default"
        }
      ]
    }
  ],
  "data": {
    "created_at": "2022-07-16T21:11:01.446Z",
    "ignoreHooks": false,
    "kid": "b5d31ff4-dbfc-4009-97a2-14eb19f77ee0",
    "modified_at": "2022-07-16T21:15:28.697Z",
    "repository": "kara.moe",
    "tags": {
      "authors": [
        "a5dbab74-510b-48c5-9cea-5a537a81c974"
      ],
      "collections": [
        "c7db86a0-ff64-4044-9be4-66dd1ef1d1c1"
      ],
      "creators": [
        "25fc251a-0514-4bf5-a818-dd0547723f4a"
      ],
      "families": [
        "0377db02-3af6-43b8-9b08-c759df3d25c3"
      ],
      "groups": [
        "8c22c899-b3ed-42da-a548-ce00f950798b",
        "ae613721-1fbe-480d-ba6b-d6d0702b184d"
      ],
      "langs": [
        "4dcf9614-7914-42aa-99f4-dbce2e059133"
      ],
      "series": [
        "1bdaa5a1-dfa6-4365-b746-7a0b194dafd6"
      ],
      "singers": [
        "7275db74-d111-44f7-bfd0-d4fd0978c5cc"
      ],
      "songtypes": [
        "a6c79ce5-89ee-4d50-afe8-3abd7317f6c2"
      ],
      "songwriters": [
        "26cb5252-8510-49e0-897c-a611a05fc056",
        "b722bb12-a0f3-4f13-984f-10630694b18b",
        "feceb592-efac-4eda-9b03-c27cf509004c"
      ],
      "franchises": [
        "1bdaa5a1-dfa6-4365-b746-7a0b194dafd6"
      ]
    },
    "titles": {
      "jpn": "キャプテン・ムラサのケツアンカー",
      "qro": "Captain Murasa no Ketsu Anchor"
    },
    "titles_default_language": "qro",
    "title": "Captain Murasa no Ketsu Anchor",
    "year": 2010
  }
}