{
  "header": {
    "version": 4,
    "description": "Karaoke Mugen Karaoke Data File"
  },
  "medias": [
    {
      "version": "Default",
      "filename": "JPN - Tales of Xillia 2 - PS3 GAME OP - Song 4 U.mp4",
      "audiogain": -1.52,
      "loudnorm": "-15.64,-6.59,2.10,-25.91,-0.65",
      "filesize": 43192855,
      "duration": 133,
      "default": true,
      "lyrics": [
        {
          "filename": "JPN - Tales of Xillia 2 - PS3 GAME OP - Song 4 U.ass",
          "default": true,
          "version": "Default",
          "subchecksum": "ee1b3c201693c8c663f607f07491f419"
        }
      ]
    }
  ],
  "data": {
    "created_at": "2017-10-11T17:02:46.000Z",
    "kid": "94daa303-ca93-46a1-8505-da3ac30b412d",
    "modified_at": "2021-02-25T13:17:16.661Z",
    "repository": "kara.moe",
    "tags": {
      "authors": [
        "5bdaba57-27f8-4568-8806-76a807728766"
      ],
      "collections": [
        "c7db86a0-ff64-4044-9be4-66dd1ef1d1c1"
      ],
      "creators": [
        "c3e622d4-2686-4331-8691-d528c8647088"
      ],
      "families": [
        "dbedd6b3-d125-4cd8-aa32-c4175e4ca3a3"
      ],
      "groups": [
        "ae613721-1fbe-480d-ba6b-d6d0702b184d"
      ],
      "langs": [
        "4dcf9614-7914-42aa-99f4-dbce2e059133"
      ],
      "misc": [
        "fe819ff1-9db8-4a0f-85dc-0e322c9126c4"
      ],
      "platforms": [
        "7f63ff91-7961-4488-888d-4bf46eea3a2a"
      ],
      "series": [
        "4a97f52d-03cf-41d7-a253-964dc1b547e6"
      ],
      "singers": [
        "c10e51ef-eccd-4c18-b0e6-ada13851361a"
      ],
      "songtypes": [
        "f02ad9b3-0bd9-4aad-85b3-9976739ba0e4"
      ],
      "songwriters": [
        "1b927a81-9f2e-4b6b-a4d0-e4062c6b9c37",
        "c10e51ef-eccd-4c18-b0e6-ada13851361a",
        "f3c7208a-d031-4928-9152-fe3c3f2ae82e"
      ],
      "franchises": [
        "457ab7f6-9644-4493-b61b-8778400aaf54"
      ]
    },
    "title": "Song 4 U",
    "titles": {
      "eng": "Song 4 U"
    },
    "year": 2012,
    "titles_default_language": "eng"
  }
}