{
  "header": {
    "version": 4,
    "description": "Karaoke Mugen Karaoke Data File"
  },
  "medias": [
    {
      "version": "Default",
      "filename": "JPN - To Aru Hikuushi e no Koiuta - OP - Azurite.mp4",
      "audiogain": 5.15,
      "loudnorm": "-22.13,-10.05,3.00,-32.35,-0.84",
      "filesize": 40581018,
      "duration": 91,
      "default": true,
      "lyrics": [
        {
          "filename": "JPN - To Aru Hikuushi e no Koiuta - OP - Azurite.ass",
          "default": true,
          "version": "Default",
          "subchecksum": "4de7f50943e56de2f799265ed3f49cda"
        }
      ]
    }
  ],
  "data": {
    "created_at": "2017-10-11T17:01:40.000Z",
    "kid": "b3b94e4a-6c35-4335-a04b-60bebe8a9f0a",
    "modified_at": "2021-02-25T13:23:47.267Z",
    "repository": "kara.moe",
    "tags": {
      "authors": [
        "5bdaba57-27f8-4568-8806-76a807728766"
      ],
      "collections": [
        "c7db86a0-ff64-4044-9be4-66dd1ef1d1c1"
      ],
      "creators": [
        "53e900ec-a1ff-4c95-8b2d-a63995c2936f"
      ],
      "families": [
        "0377db02-3af6-43b8-9b08-c759df3d25c3"
      ],
      "groups": [
        "ae613721-1fbe-480d-ba6b-d6d0702b184d"
      ],
      "langs": [
        "4dcf9614-7914-42aa-99f4-dbce2e059133"
      ],
      "origins": [
        "938de218-5343-4865-94d3-fb33f2eaa152"
      ],
      "series": [
        "0536472c-d6f4-42cf-883e-f7b4288db631"
      ],
      "singers": [
        "a2f7f6e2-3343-446a-8572-215124e912d9"
      ],
      "songtypes": [
        "f02ad9b3-0bd9-4aad-85b3-9976739ba0e4"
      ],
      "songwriters": [
        "0641a745-f1d3-4003-9f76-4ccc472fddad",
        "81d493c9-3353-40d4-b94d-7fa42d3b4229"
      ]
    },
    "title": "Azurite",
    "titles": {
      "eng": "Azurite"
    },
    "year": 2014,
    "titles_default_language": "eng"
  }
}