{
  "header": {
    "version": 4,
    "description": "Karaoke Mugen Karaoke Data File"
  },
  "medias": [
    {
      "version": "Default",
      "filename": "JPN - Bleach - LIVE - Life is Like a Boat ~ Full Vers.mp4",
      "audiogain": -3.02,
      "loudnorm": "-16.01,-1.36,7.80,-26.44,-1.18",
      "filesize": 29086562,
      "duration": 299,
      "default": true,
      "lyrics": [
        {
          "filename": "JPN - Bleach - LIVE - Life is Like a Boat ~ Full Vers.ass",
          "default": true,
          "version": "Default"
        }
      ]
    }
  ],
  "data": {
    "created_at": "2020-08-16T19:17:32.553Z",
    "ignoreHooks": false,
    "kid": "f38777e3-3553-4527-87cf-86ad9e8f9bac",
    "modified_at": "2022-12-22T16:08:58.378Z",
    "parents": [
      "4474e283-4e3a-4c31-9bed-7e206de79a60"
    ],
    "repository": "kara.moe",
    "tags": {
      "authors": [
        "1db1738f-acdc-42fc-aec3-60f4bddf660d"
      ],
      "collections": [
        "dbcf2c22-524d-4708-99bb-601703633927"
      ],
      "creators": [
        "6fa9de67-21cf-420b-9ddb-57edb5abe523"
      ],
      "families": [
        "5391f9fe-638c-415f-8dc9-958e3a2c5787"
      ],
      "groups": [
        "3c14c864-533c-49e6-a3cc-6969f1233775"
      ],
      "langs": [
        "4dcf9614-7914-42aa-99f4-dbce2e059133"
      ],
      "series": [
        "d68e6557-fdc3-4c8b-805c-9778918abd03"
      ],
      "singers": [
        "1352cd6a-ddb6-4dd9-bd21-31c2055d0722"
      ],
      "songtypes": [
        "a0167949-580c-4de3-bf13-497e462e02f3"
      ],
      "songwriters": [
        "1352cd6a-ddb6-4dd9-bd21-31c2055d0722"
      ],
      "versions": [
        "c2143a7f-6970-450e-8a79-0302db9220a9"
      ],
      "franchises": [
        "d68e6557-fdc3-4c8b-805c-9778918abd03"
      ]
    },
    "titles": {
      "eng": "Life is Like a Boat"
    },
    "titles_default_language": "eng",
    "year": 2006
  }
}