{
  "header": {
    "version": 4,
    "description": "Karaoke Mugen Karaoke Data File"
  },
  "medias": [
    {
      "version": "Default",
      "filename": "JPN - Pocket Monsters - OP - Mezase Pokemon Master.mp4",
      "audiogain": -6.21,
      "loudnorm": "-11.24,1.83,2.50,-21.37,-0.48",
      "filesize": 30805474,
      "duration": 88,
      "default": true,
      "lyrics": [
        {
          "filename": "JPN - Pocket Monsters - OP - Mezase Pokemon Master.ass",
          "default": true,
          "version": "Default"
        }
      ]
    }
  ],
  "data": {
    "created_at": "2017-10-11T17:02:29.000Z",
    "kid": "242db3b8-9777-49b9-8897-c22fd35e0f32",
    "modified_at": "2021-12-29T23:00:01.173Z",
    "repository": "kara.moe",
    "tags": {
      "authors": [
        "5bdaba57-27f8-4568-8806-76a807728766"
      ],
      "collections": [
        "c7db86a0-ff64-4044-9be4-66dd1ef1d1c1"
      ],
      "creators": [
        "03fe574b-c7f5-4520-96dc-47320c39e2cc"
      ],
      "families": [
        "0377db02-3af6-43b8-9b08-c759df3d25c3"
      ],
      "genres": [
        "a0aeef4a-6428-45ff-a6e1-468b595930c2"
      ],
      "groups": [
        "24db50aa-a126-4d34-a48a-e45db79c4245"
      ],
      "langs": [
        "4dcf9614-7914-42aa-99f4-dbce2e059133"
      ],
      "origins": [
        "938de218-5343-4865-94d3-fb33f2eaa152"
      ],
      "series": [
        "cc1f8e40-71a2-4097-9bcf-7132b4b19ef7"
      ],
      "singers": [
        "bdf27b70-17e8-4a68-875c-0aed75a25cd4"
      ],
      "songtypes": [
        "f02ad9b3-0bd9-4aad-85b3-9976739ba0e4"
      ],
      "songwriters": [
        "959ddffc-27b2-401f-a8d2-c5f971c8b666",
        "d0f72bfd-3c82-4f24-b149-717ed6e45f43"
      ],
      "franchises": [
        "c6923c03-f8c0-4258-a478-8dfa08f3ccd0"
      ]
    },
    "titles": {
      "qro": "Mezase Pokémon Master",
      "jpn": "めざせポケモンマスター"
    },
    "title": "Mezase Pokémon Master",
    "year": 1997,
    "titles_default_language": "qro"
  }
}