{
  "header": {
    "version": 4,
    "description": "Karaoke Mugen Karaoke Data File"
  },
  "medias": [
    {
      "version": "Default",
      "filename": "JPN - Kenzen Robo Daimidaler - OP - Kenzen Robo Daimidaler.mp4",
      "audiogain": 1.17,
      "loudnorm": "-17.45,-7.60,2.80,-27.56,-0.28",
      "filesize": 37916081,
      "duration": 92,
      "default": true,
      "lyrics": [
        {
          "filename": "JPN - Kenzen Robo Daimidaler - OP - Kenzen Robo Daimidaler.ass",
          "default": true,
          "version": "Default",
          "subchecksum": "c6fd10e3b223a00d632e020ef9fc4450"
        }
      ]
    }
  ],
  "data": {
    "created_at": "2017-10-11T17:01:58.000Z",
    "kid": "aab35792-da19-4b56-807c-b2c65f1c27b6",
    "modified_at": "2021-02-25T11:58:08.773Z",
    "repository": "kara.moe",
    "tags": {
      "authors": [
        "5bdaba57-27f8-4568-8806-76a807728766"
      ],
      "collections": [
        "c7db86a0-ff64-4044-9be4-66dd1ef1d1c1"
      ],
      "creators": [
        "0a8b7d96-4af9-4b6b-80e8-44c3034caab5"
      ],
      "families": [
        "0377db02-3af6-43b8-9b08-c759df3d25c3"
      ],
      "genres": [
        "f60ba57d-5ef4-49e0-b93b-d0dcbcff6592"
      ],
      "groups": [
        "ae613721-1fbe-480d-ba6b-d6d0702b184d"
      ],
      "langs": [
        "4dcf9614-7914-42aa-99f4-dbce2e059133"
      ],
      "origins": [
        "938de218-5343-4865-94d3-fb33f2eaa152"
      ],
      "series": [
        "ea7e6e98-d8f7-48c8-81e6-657e5a356ca4"
      ],
      "singers": [
        "331793cb-f1c3-4be7-a765-ab7fc5801031"
      ],
      "songtypes": [
        "f02ad9b3-0bd9-4aad-85b3-9976739ba0e4"
      ],
      "songwriters": [
        "0e8ef53f-a7d8-41af-b261-daa70ee456ce",
        "cfe94ae6-073a-44a8-866e-3d98ec1e7af6"
      ]
    },
    "title": "Kenzen Robo Daimidaler",
    "titles": {
      "qro": "Kenzen Robo Daimidaler",
      "jpn": "健全ロボ ダイミダラー"
    },
    "year": 2014,
    "titles_default_language": "qro"
  }
}