{
  "header": {
    "version": 4,
    "description": "Karaoke Mugen Karaoke Data File"
  },
  "medias": [
    {
      "version": "Default",
      "filename": "JPN - Shining Wind - GAME PS2 OP - Heart-Shaped Chant.mp4",
      "audiogain": -9.09,
      "loudnorm": "-9.48,2.47,9.80,-20.00,-1.74",
      "filesize": 17607908,
      "duration": 120,
      "default": true,
      "lyrics": [
        {
          "filename": "JPN - Shining Wind - GAME PS2 OP - Heart-Shaped Chant.ass",
          "default": true,
          "version": "Default"
        }
      ]
    }
  ],
  "data": {
    "created_at": "2017-10-11T17:01:19.000Z",
    "ignoreHooks": false,
    "kid": "922f578c-6e8d-4598-8ede-348e3f6fc103",
    "modified_at": "2022-04-18T13:57:13.600Z",
    "repository": "kara.moe",
    "tags": {
      "authors": [
        "5bdaba57-27f8-4568-8806-76a807728766"
      ],
      "collections": [
        "c7db86a0-ff64-4044-9be4-66dd1ef1d1c1"
      ],
      "creators": [
        "dca900a6-7cf8-48ce-ae5d-641c737a196a",
        "f4514ed0-c666-408f-8f6e-86025718ab11"
      ],
      "families": [
        "dbedd6b3-d125-4cd8-aa32-c4175e4ca3a3"
      ],
      "groups": [
        "3c14c864-533c-49e6-a3cc-6969f1233775"
      ],
      "langs": [
        "4dcf9614-7914-42aa-99f4-dbce2e059133"
      ],
      "platforms": [
        "2173004e-21da-45c9-9dfb-26014423c566"
      ],
      "series": [
        "98c6d4dc-5bd8-465d-ad40-267be6d5cdc7"
      ],
      "singers": [
        "6d2045b2-80ab-45ff-a131-c4df02ef52d1"
      ],
      "songtypes": [
        "f02ad9b3-0bd9-4aad-85b3-9976739ba0e4"
      ],
      "songwriters": [
        "af3ffe51-8059-461c-bbb8-78ea388731f3"
      ]
    },
    "titles": {
      "eng": "Heart-Shaped Chant"
    },
    "titles_default_language": "eng",
    "title": "Heart-Shaped Chant",
    "year": 2007
  }
}