{
  "header": {
    "version": 4,
    "description": "Karaoke Mugen Karaoke Data File"
  },
  "medias": [
    {
      "version": "Default",
      "filename": "JPN - Flare Shiranui, HOLOLIVE FANTASY, Marine Houshou - MV - Interact Fantasia.mp4",
      "audiogain": -9.22,
      "loudnorm": "-7.54,1.10,2.10,-17.60,-0.15",
      "filesize": 131250380,
      "duration": 298,
      "default": true,
      "lyrics": [
        {
          "filename": "JPN - Flare Shiranui, HOLOLIVE FANTASY, Marine Houshou - MV - Interact Fantasia.ass",
          "default": true,
          "version": "Default"
        }
      ]
    }
  ],
  "data": {
    "created_at": "2021-11-22T21:48:58.780Z",
    "kid": "60377a71-5a5a-4a78-9db9-cd540508bcc3",
    "modified_at": "2021-12-28T13:11:14.119Z",
    "repository": "kara.moe",
    "tags": {
      "authors": [
        "4b50fcec-273e-4cc5-83f2-b156c2300f7f"
      ],
      "collections": [
        "c7db86a0-ff64-4044-9be4-66dd1ef1d1c1"
      ],
      "creators": [
        "0263d413-17bb-4cee-a311-6dd896eda1c9"
      ],
      "families": [
        "0377db02-3af6-43b8-9b08-c759df3d25c3"
      ],
      "groups": [
        "8e209ae4-4381-438f-89dc-1b21752027d2"
      ],
      "langs": [
        "4dcf9614-7914-42aa-99f4-dbce2e059133"
      ],
      "origins": [
        "5106d71b-a78e-4d19-a16d-f8fb6719538a"
      ],
      "singers": [
        "1631fe7d-daba-4c55-addf-eb500c847fe2",
        "1813f043-d361-4df9-9cdf-24e3d0d1044c",
        "1b0ecff9-05f5-46dd-b225-480bcf60b7bf",
        "77848990-54ab-4ef6-bba7-e1258fda78a5",
        "f82cdd3e-bd8c-4e71-a83d-bee62651aaf4",
        "f8b4b7ec-2056-4f2a-b242-a29e67393654"
      ],
      "songtypes": [
        "7be1b15c-cff8-4b37-a649-5c90f3d569a9"
      ],
      "songwriters": [
        "16bcbe7c-2a64-4186-a2b9-09af85f12d3e"
      ]
    },
    "titles": {
      "eng": "Interact Fantasia",
      "jpn": "いんたらくとふぁんたじあ"
    },
    "title": "Interact Fantasia",
    "year": 2021,
    "titles_default_language": "eng"
  }
}