{
  "header": {
    "version": 4,
    "description": "Karaoke Mugen Karaoke Data File"
  },
  "medias": [
    {
      "version": "Default",
      "filename": "JPN - Teekyuu 9 - ED - Kaiun! Shoufuku! Enten Uta.mp4",
      "audiogain": 4.09,
      "loudnorm": "-22.81,-15.71,1.70,-32.90,-0.21",
      "filesize": 13902216,
      "duration": 30,
      "default": true,
      "lyrics": [
        {
          "filename": "JPN - Teekyuu 9 - ED - Kaiun! Shoufuku! Enten Uta.ass",
          "default": true,
          "version": "Default",
          "subchecksum": "bcbac5f4c454122de56876be91149708"
        }
      ]
    }
  ],
  "data": {
    "created_at": "2019-05-05T00:54:04.000Z",
    "kid": "e25855fe-d8db-444e-8bff-3b40ef1aa12e",
    "modified_at": "2021-02-25T13:18:29.574Z",
    "repository": "kara.moe",
    "tags": {
      "authors": [
        "1df04771-a378-4f14-a5e1-1455187d681a"
      ],
      "collections": [
        "c7db86a0-ff64-4044-9be4-66dd1ef1d1c1"
      ],
      "creators": [
        "9a545e0e-1088-49b3-84f3-a63acdb8198d"
      ],
      "families": [
        "0377db02-3af6-43b8-9b08-c759df3d25c3"
      ],
      "groups": [
        "ae613721-1fbe-480d-ba6b-d6d0702b184d"
      ],
      "langs": [
        "4dcf9614-7914-42aa-99f4-dbce2e059133"
      ],
      "misc": [
        "fe819ff1-9db8-4a0f-85dc-0e322c9126c4"
      ],
      "origins": [
        "938de218-5343-4865-94d3-fb33f2eaa152"
      ],
      "series": [
        "db4f26a8-d324-4675-a349-ab9d10d35b08"
      ],
      "singers": [
        "a247692c-4eaa-4e36-adfe-60739613c258"
      ],
      "songtypes": [
        "38c77c56-2b95-4040-b676-0994a8cb0597"
      ],
      "songwriters": [
        "7145091d-e84a-43c2-a305-152647ac1fb0",
        "dc5f7439-43f5-4182-839c-0c18fba93f75"
      ],
      "franchises": [
        "4afac598-1ddd-46fa-86b1-e2df3526b430"
      ]
    },
    "title": "Kaiun! Shôfuku! Enten Uta",
    "titles": {
      "qro": "Kaiun! Shoufuku! Entenka",
      "jpn": "開運! 招福! 炎天歌"
    },
    "year": 2017,
    "titles_default_language": "qro"
  }
}