{
  "header": {
    "version": 4,
    "description": "Karaoke Mugen Karaoke Data File"
  },
  "medias": [
    {
      "version": "Default",
      "filename": "JPN - Super Robot Taisen Z 3 - PS3 PSV GAME OP - Rebellion.mp4",
      "audiogain": -10.33,
      "loudnorm": "-7.41,0.87,8.20,-17.55,-1.17",
      "filesize": 115549489,
      "duration": 276,
      "default": true,
      "lyrics": [
        {
          "filename": "JPN - Super Robot Taisen Z 3 - PS3 PSV GAME OP - Rebellion.ass",
          "default": true,
          "version": "Default",
          "subchecksum": "5d3b2ae99b46b2a9f80aef5270b01d00"
        }
      ]
    }
  ],
  "data": {
    "created_at": "2017-10-11T17:00:51.000Z",
    "kid": "4628980d-608f-46c9-9b68-b4fa6ba61a44",
    "modified_at": "2021-02-25T13:14:21.399Z",
    "repository": "kara.moe",
    "tags": {
      "authors": [
        "8c22c899-b3ed-42da-a548-ce00f950798b"
      ],
      "collections": [
        "c7db86a0-ff64-4044-9be4-66dd1ef1d1c1"
      ],
      "creators": [
        "c3e622d4-2686-4331-8691-d528c8647088"
      ],
      "families": [
        "dbedd6b3-d125-4cd8-aa32-c4175e4ca3a3"
      ],
      "groups": [
        "8c22c899-b3ed-42da-a548-ce00f950798b",
        "ae613721-1fbe-480d-ba6b-d6d0702b184d"
      ],
      "langs": [
        "4dcf9614-7914-42aa-99f4-dbce2e059133"
      ],
      "platforms": [
        "7f63ff91-7961-4488-888d-4bf46eea3a2a",
        "e791f168-068f-4c05-aa36-e8d63726aa06"
      ],
      "series": [
        "d3f23809-f0b3-47f0-8097-641a488a287b"
      ],
      "singers": [
        "a14aaac9-98b8-4298-a7d6-ea4945750704"
      ],
      "songtypes": [
        "f02ad9b3-0bd9-4aad-85b3-9976739ba0e4"
      ],
      "songwriters": [
        "162799fe-de2f-4f72-99a2-8c606aee4f2d"
      ],
      "franchises": [
        "4e88aee3-4cb9-4342-bac8-6c0819b3a014"
      ]
    },
    "title": "Rebellion",
    "titles": {
      "eng": "Rebellion"
    },
    "year": 2014,
    "titles_default_language": "eng"
  }
}