{
  "header": {
    "version": 4,
    "description": "Karaoke Mugen Karaoke Data File"
  },
  "medias": [
    {
      "version": "Default",
      "filename": "JPN - Shoujo Kageki Revue Starlight - IN - Koi no Makyuu.mp4",
      "audiogain": -9.29,
      "loudnorm": "-8.24,1.22,5.30,-18.56,-0.42",
      "filesize": 111231130,
      "duration": 312,
      "default": true,
      "lyrics": [
        {
          "filename": "JPN - Shoujo Kageki Revue Starlight - IN - Koi no Makyuu.ass",
          "default": true,
          "version": "Default"
        }
      ]
    }
  ],
  "data": {
    "created_at": "2019-06-20T20:08:45.000Z",
    "ignoreHooks": false,
    "kid": "a90d15cf-80d3-4619-b510-af19743d64b2",
    "modified_at": "2022-09-30T21:07:41.898Z",
    "repository": "kara.moe",
    "tags": {
      "authors": [
        "f7ce702e-09aa-4b22-8742-0c99cd7a5409"
      ],
      "collections": [
        "c7db86a0-ff64-4044-9be4-66dd1ef1d1c1"
      ],
      "creators": [
        "08df259d-c4ec-458e-a066-af38a9f7ccc5"
      ],
      "families": [
        "0377db02-3af6-43b8-9b08-c759df3d25c3"
      ],
      "groups": [
        "2b4e9972-5e17-481b-99f5-d0787c0ada56",
        "ae613721-1fbe-480d-ba6b-d6d0702b184d"
      ],
      "langs": [
        "4dcf9614-7914-42aa-99f4-dbce2e059133"
      ],
      "misc": [
        "86705d4b-24e4-4756-9687-2b9c98bcf366"
      ],
      "origins": [
        "938de218-5343-4865-94d3-fb33f2eaa152"
      ],
      "series": [
        "197ecb28-b423-4c66-bbdb-49b89b5ed153"
      ],
      "singers": [
        "0691da5a-1612-40fe-91a3-898cce043c3e",
        "e3ec5558-2fa7-44e9-a4a4-59910a7a3370"
      ],
      "songtypes": [
        "5e5250d9-351a-4a82-98eb-55db50ad8962"
      ],
      "songwriters": [
        "638043e4-fee4-42c2-9843-3bcf0974c490",
        "7f9405aa-4a87-4224-82fd-0dd0289fd6ac",
        "ead196cc-e1e3-43a4-8804-dd4199e89c4e"
      ],
      "franchises": [
        "197ecb28-b423-4c66-bbdb-49b89b5ed153"
      ]
    },
    "titles": {
      "jpn": "恋の魔球",
      "qro": "Koi no Makyû"
    },
    "titles_default_language": "qro",
    "title": "Koi no Makyû",
    "year": 2018,
    "titles_aliases": [
      "Makyuu"
    ]
  }
}