{
  "header": {
    "version": 4,
    "description": "Karaoke Mugen Karaoke Data File"
  },
  "medias": [
    {
      "version": "Default",
      "filename": "JPN - Touhou - PV - Hibike! CHIREI MY WAY!.mp4",
      "audiogain": -11,
      "loudnorm": "-6.71,2.14,4.10,-16.83,-0.46",
      "filesize": 83539430,
      "duration": 270,
      "default": true,
      "lyrics": [
        {
          "filename": "JPN - Touhou - PV - Hibike! CHIREI MY WAY!.ass",
          "default": true,
          "version": "Default"
        }
      ]
    }
  ],
  "data": {
    "created_at": "2023-01-29T18:16:30.943Z",
    "ignoreHooks": false,
    "kid": "9ab65f61-0cad-4585-9d9d-366d400a1c3a",
    "modified_at": "2023-01-29T18:16:31.096Z",
    "repository": "kara.moe",
    "tags": {
      "authors": [
        "61865310-cb97-496c-a722-364b0a9ba90d"
      ],
      "collections": [
        "c7db86a0-ff64-4044-9be4-66dd1ef1d1c1"
      ],
      "creators": [
        "0f5cc170-a057-42a9-974e-da4a4d74068b"
      ],
      "families": [
        "0377db02-3af6-43b8-9b08-c759df3d25c3"
      ],
      "langs": [
        "4dcf9614-7914-42aa-99f4-dbce2e059133"
      ],
      "misc": [
        "1d6ceadf-a885-47e5-b23b-c07bf668a424"
      ],
      "origins": [
        "ac5085db-52d8-44b4-8fbb-1697b24d2046"
      ],
      "series": [
        "1bdaa5a1-dfa6-4365-b746-7a0b194dafd6"
      ],
      "singers": [
        "df7eaeb6-af8a-4277-8527-ce1a41d4cd39",
        "5d2078a0-229a-45b3-8fc9-00ca24211a4d",
        "6943d748-9330-45dc-97dc-2a9c8d17705b",
        "d08d5ec3-0d71-4d8d-97de-0a2432b331bd"
      ],
      "songtypes": [
        "66e195b9-64ea-432d-a917-2e2c88d26052"
      ],
      "songwriters": [
        "9677e10e-aa5b-4d1d-9861-df3a624bb8d9",
        "3c027018-54fc-4402-b3eb-46c34d07a56b"
      ],
      "franchises": [
        "1bdaa5a1-dfa6-4365-b746-7a0b194dafd6"
      ],
      "groups": [
        "ae613721-1fbe-480d-ba6b-d6d0702b184d",
        "8c22c899-b3ed-42da-a548-ce00f950798b"
      ]
    },
    "titles": {
      "jpn": "響け！CHIREI MY WAY!",
      "qro": "Hibike! CHIREI MY WAY!"
    },
    "titles_default_language": "qro",
    "year": 2018
  }
}