{
  "header": {
    "version": 4,
    "description": "Karaoke Mugen Karaoke Data File"
  },
  "medias": [
    {
      "version": "Default",
      "filename": "JPN - Nanatsu no Taizai - OP2 - Seven Deadly Sins.mp4",
      "audiogain": -0.32,
      "loudnorm": "-16.14,-6.03,3.80,-26.45,-0.55",
      "filesize": 39267058,
      "duration": 90,
      "default": true,
      "lyrics": [
        {
          "filename": "JPN - Nanatsu no Taizai - OP2 - Seven Deadly Sins.ass",
          "default": true,
          "version": "Default"
        }
      ]
    }
  ],
  "data": {
    "created_at": "2017-10-11T17:02:08.000Z",
    "ignoreHooks": false,
    "kid": "96cf3cbb-f1fe-4896-895c-34506004c538",
    "modified_at": "2022-04-30T16:59:16.003Z",
    "repository": "kara.moe",
    "songorder": 2,
    "tags": {
      "authors": [
        "dd4f1279-de1b-4d06-b80d-29c4878bfd8e"
      ],
      "collections": [
        "c7db86a0-ff64-4044-9be4-66dd1ef1d1c1"
      ],
      "creators": [
        "b96e3686-bbe0-4b9e-815a-a278d5ff31be"
      ],
      "families": [
        "0377db02-3af6-43b8-9b08-c759df3d25c3"
      ],
      "genres": [
        "a0aeef4a-6428-45ff-a6e1-468b595930c2"
      ],
      "groups": [
        "ae613721-1fbe-480d-ba6b-d6d0702b184d",
        "8c22c899-b3ed-42da-a548-ce00f950798b"
      ],
      "langs": [
        "4dcf9614-7914-42aa-99f4-dbce2e059133"
      ],
      "misc": [
        "fe819ff1-9db8-4a0f-85dc-0e322c9126c4"
      ],
      "origins": [
        "938de218-5343-4865-94d3-fb33f2eaa152"
      ],
      "series": [
        "72476610-0ddd-4261-8ff7-a98ecaf66563"
      ],
      "singers": [
        "814943f5-30aa-4229-b2ed-120f25825b27"
      ],
      "songtypes": [
        "f02ad9b3-0bd9-4aad-85b3-9976739ba0e4"
      ],
      "songwriters": [
        "6cb0e364-b9d2-4fa9-8dfb-98b095c7ac47",
        "bd5ce1a0-423d-41cb-ad27-99b3c0e8e0d6"
      ],
      "franchises": [
        "72476610-0ddd-4261-8ff7-a98ecaf66563"
      ]
    },
    "titles": {
      "eng": "Seven Deadly Sins"
    },
    "titles_default_language": "eng",
    "title": "Seven Deadly Sins",
    "year": 2014
  }
}