{
  "header": {
    "version": 4,
    "description": "Karaoke Mugen Karaoke Data File"
  },
  "medias": [
    {
      "version": "Junna & Banana.",
      "filename": "JPN - Shoujo Kageki Revue Starlight - ED7 - Fly Me to the Star ~ Junna & Banana Vers. ~ Alternative Vers.mp4",
      "audiogain": 4.08,
      "loudnorm": "-21.37,-11.91,4.60,-31.52,-0.39",
      "filesize": 21913854,
      "duration": 92,
      "default": true,
      "lyrics": [
        {
          "filename": "JPN - Shoujo Kageki Revue Starlight - ED7 - Fly Me to the Star ~ Junna & Banana Vers. ~ Alternative Vers.ass",
          "default": true,
          "version": "Default"
        }
      ]
    }
  ],
  "data": {
    "created_at": "2019-06-20T18:17:30.000Z",
    "kid": "c1fe5232-f737-45d6-8ead-4f09f40af7b6",
    "modified_at": "2021-07-22T19:14:54.806Z",
    "parents": [
      "30621ac7-4d2f-40b0-a2d7-d9c130bbefb2"
    ],
    "repository": "kara.moe",
    "songorder": 7,
    "tags": {
      "authors": [
        "f7ce702e-09aa-4b22-8742-0c99cd7a5409"
      ],
      "collections": [
        "c7db86a0-ff64-4044-9be4-66dd1ef1d1c1"
      ],
      "creators": [
        "08df259d-c4ec-458e-a066-af38a9f7ccc5"
      ],
      "families": [
        "0377db02-3af6-43b8-9b08-c759df3d25c3"
      ],
      "groups": [
        "2b4e9972-5e17-481b-99f5-d0787c0ada56",
        "ae613721-1fbe-480d-ba6b-d6d0702b184d"
      ],
      "langs": [
        "4dcf9614-7914-42aa-99f4-dbce2e059133"
      ],
      "origins": [
        "938de218-5343-4865-94d3-fb33f2eaa152"
      ],
      "series": [
        "197ecb28-b423-4c66-bbdb-49b89b5ed153"
      ],
      "singers": [
        "bbf38c20-4ff8-46ca-8e23-55a71286f0ef",
        "cd997481-e2ff-4d88-ab77-152bedb5041a"
      ],
      "songtypes": [
        "38c77c56-2b95-4040-b676-0994a8cb0597"
      ],
      "songwriters": [
        "36b87cbb-4637-444e-b3cb-556a9274af4f",
        "ead196cc-e1e3-43a4-8804-dd4199e89c4e"
      ],
      "versions": [
        "9f63c359-d1bf-425a-bcf5-b245c2c9211d"
      ],
      "franchises": [
        "197ecb28-b423-4c66-bbdb-49b89b5ed153"
      ]
    },
    "title": "Fly Me to the Star ~ Junna & Banana Vers.",
    "titles": {
      "eng": "Fly Me to the Star ~ Junna & Banana Vers.",
      "jpn": "Fly Me to the Star ~ 純那 & なな Vers."
    },
    "year": 2018,
    "titles_default_language": "eng"
  }
}