{
  "header": {
    "version": 4,
    "description": "Karaoke Mugen Karaoke Data File"
  },
  "medias": [
    {
      "version": "Default",
      "filename": "JPN - Dai Sentai Goggle V - OP - Dai Sentai Goggle V.mp4",
      "audiogain": 6.22,
      "loudnorm": "-24.36,-12.07,3.80,-34.53,-0.08",
      "filesize": 11388380,
      "duration": 72,
      "default": true,
      "lyrics": [
        {
          "filename": "JPN - Dai Sentai Goggle V - OP - Dai Sentai Goggle V.ass",
          "default": true,
          "version": "Default",
          "subchecksum": "e14994ace3838d598893b3847aa31208"
        }
      ]
    }
  ],
  "data": {
    "created_at": "2017-10-11T17:01:07.000Z",
    "kid": "ff23ac51-ec32-4c6b-bc01-be5d5b5ef1c7",
    "modified_at": "2021-02-25T11:06:15.561Z",
    "repository": "kara.moe",
    "tags": {
      "authors": [
        "4607780c-f1ef-47cf-9c1c-b13e8f731699"
      ],
      "collections": [
        "c7db86a0-ff64-4044-9be4-66dd1ef1d1c1"
      ],
      "creators": [
        "e32b14df-502b-45fa-9ca5-37554a63a4d7"
      ],
      "groups": [
        "7792cc27-9ff9-4d47-9287-2338b7db1575"
      ],
      "langs": [
        "4dcf9614-7914-42aa-99f4-dbce2e059133"
      ],
      "origins": [
        "d3fac9ab-630d-402d-a392-3d2450c3e62e"
      ],
      "series": [
        "cf1b8c9f-0caf-48cb-93e3-4ff1718feba5"
      ],
      "singers": [
        "49ad0740-58e3-4252-a5c7-f62c9d90ed56",
        "e19c7217-c778-4fdb-868e-7ae532883d55",
        "e8bae03b-036c-46fa-ae40-9be02c11201f"
      ],
      "songtypes": [
        "f02ad9b3-0bd9-4aad-85b3-9976739ba0e4"
      ],
      "songwriters": [
        "7a145e98-4cde-48cb-85ed-d69ff0ae4b1a"
      ]
    },
    "title": "Dai Sentai Goggle V",
    "titles": {
      "qro": "Dai Sentai Goggle V",
      "jpn": "大戦隊ゴーグルファイブ"
    },
    "year": 1982,
    "titles_default_language": "qro"
  }
}