{
  "header": {
    "version": 4,
    "description": "Karaoke Mugen Karaoke Data File"
  },
  "medias": [
    {
      "version": "Default",
      "filename": "JPN - Ayumi-chan Labo - PC GAME OP - Ayumi-chan LOVE ALL!.mp4",
      "audiogain": -0.17,
      "loudnorm": "-17.40,-6.38,3.00,-27.46,-1.10",
      "filesize": 11461207,
      "duration": 111,
      "default": true,
      "lyrics": [
        {
          "filename": "JPN - Ayumi-chan Labo - PC GAME OP - Ayumi-chan LOVE ALL!.ass",
          "default": true,
          "version": "Default",
          "subchecksum": "7672e76b8ca8a22f08212f3b1c80b3f1"
        }
      ]
    }
  ],
  "data": {
    "created_at": "2020-12-30T12:53:32.798Z",
    "kid": "2414bf71-64c9-4cfc-811f-a0bd2fc96026",
    "modified_at": "2021-02-25T10:48:01.280Z",
    "repository": "kara.moe",
    "tags": {
      "authors": [
        "a5dbab74-510b-48c5-9cea-5a537a81c974"
      ],
      "collections": [
        "c7db86a0-ff64-4044-9be4-66dd1ef1d1c1"
      ],
      "creators": [
        "cd7e7676-285d-47bd-8333-285e06230c3e"
      ],
      "families": [
        "dbedd6b3-d125-4cd8-aa32-c4175e4ca3a3"
      ],
      "groups": [
        "3c14c864-533c-49e6-a3cc-6969f1233775",
        "8c22c899-b3ed-42da-a548-ce00f950798b"
      ],
      "langs": [
        "4dcf9614-7914-42aa-99f4-dbce2e059133"
      ],
      "origins": [
        "2f96e82c-c61b-4413-817e-e6b247509b95"
      ],
      "platforms": [
        "3c15f758-e1bc-4266-8bb9-3c14112f504a"
      ],
      "series": [
        "a4564bb2-780e-4e33-b205-ec318ad19d8f"
      ],
      "singers": [
        "5bac7f16-f537-43c3-b30f-12724a868432"
      ],
      "songtypes": [
        "f02ad9b3-0bd9-4aad-85b3-9976739ba0e4"
      ],
      "songwriters": [
        "f41e7218-6c19-4e19-9b5f-4612dcd58243",
        "ffc89800-ef7f-4230-8763-0f5cca97e960"
      ]
    },
    "title": "Ayumi-chan LOVE ALL!",
    "titles": {
      "eng": "Ayumi-chan LOVE ALL!"
    },
    "year": 2003,
    "titles_default_language": "eng"
  }
}