{
  "header": {
    "version": 4,
    "description": "Karaoke Mugen Karaoke Data File"
  },
  "medias": [
    {
      "version": "Default",
      "filename": "JPN - Code Geass Lelouch of the Re surrection - MOVIE MV OP - Kono Sekai de ~ Full Off Vocal Vers.mp4",
      "audiogain": -6.71,
      "loudnorm": "-10.91,1.69,11.00,-21.45,-1.39",
      "filesize": 77839989,
      "duration": 288,
      "default": true,
      "lyrics": [
        {
          "filename": "JPN - Code Geass Lelouch of the Re surrection - MOVIE MV OP - Kono Sekai de ~ Full Off Vocal Vers.ass",
          "default": true,
          "version": "Default"
        }
      ]
    }
  ],
  "data": {
    "created_at": "2022-08-24T02:10:46.230Z",
    "ignoreHooks": false,
    "kid": "393888d2-f52b-4a0e-b84a-d044fb72a9d9",
    "modified_at": "2022-12-07T03:55:46.009Z",
    "parents": [
      "751de695-703e-40bd-8a0a-0696413ae650"
    ],
    "repository": "kara.moe",
    "tags": {
      "authors": [
        "7848b5dc-a5df-4577-b640-147be5288cec"
      ],
      "collections": [
        "c7db86a0-ff64-4044-9be4-66dd1ef1d1c1",
        "dbcf2c22-524d-4708-99bb-601703633927"
      ],
      "families": [
        "5391f9fe-638c-415f-8dc9-958e3a2c5787"
      ],
      "genres": [
        "f60ba57d-5ef4-49e0-b93b-d0dcbcff6592"
      ],
      "groups": [
        "ae613721-1fbe-480d-ba6b-d6d0702b184d"
      ],
      "langs": [
        "4dcf9614-7914-42aa-99f4-dbce2e059133"
      ],
      "origins": [
        "c8ca9dea-d8b4-48fe-8427-d911653232e9"
      ],
      "series": [
        "badf0212-2bc3-48b6-a4ff-ad19524f0736"
      ],
      "singers": [
        "a6c91ff3-1dd2-4088-ac74-3cfb94ec1ecf"
      ],
      "songtypes": [
        "7be1b15c-cff8-4b37-a649-5c90f3d569a9",
        "f02ad9b3-0bd9-4aad-85b3-9976739ba0e4"
      ],
      "songwriters": [
        "07eefc45-bf3c-4e02-a639-f19be811a471"
      ],
      "versions": [
        "c0cc87b9-55b9-40f0-878a-fbb9e34c151e",
        "c2143a7f-6970-450e-8a79-0302db9220a9"
      ],
      "franchises": [
        "1cb3b851-435a-4078-8619-8711f963a92f"
      ]
    },
    "titles": {
      "jpn": "この世界で",
      "qro": "Kono Sekai de"
    },
    "titles_default_language": "qro",
    "year": 2019
  }
}