{
  "header": {
    "version": 4,
    "description": "Karaoke Mugen Karaoke Data File"
  },
  "medias": [
    {
      "version": "Default",
      "filename": "JPN - Little Busters! - GAME OP - Little Busters!.mp4",
      "audiogain": -8.65,
      "loudnorm": "-8.12,0.89,6.30,-18.67,-0.71",
      "filesize": 36227939,
      "duration": 196,
      "default": true,
      "lyrics": [
        {
          "filename": "JPN - Little Busters! - GAME OP - Little Busters!.ass",
          "default": true,
          "version": "Default",
          "subchecksum": "ddc0c5756f4463a2e52626852498ac09"
        }
      ]
    }
  ],
  "data": {
    "created_at": "2018-08-19T09:54:19.000Z",
    "kid": "ad72c371-5176-4ed2-b6e4-709df1a0512b",
    "modified_at": "2021-02-25T12:10:46.303Z",
    "repository": "kara.moe",
    "tags": {
      "authors": [
        "6bebcb04-2694-453c-9e0c-eb1a2e2718d9"
      ],
      "collections": [
        "c7db86a0-ff64-4044-9be4-66dd1ef1d1c1"
      ],
      "creators": [
        "4dd6987d-3036-4454-859b-ff18954541bf"
      ],
      "families": [
        "dbedd6b3-d125-4cd8-aa32-c4175e4ca3a3"
      ],
      "groups": [
        "3c14c864-533c-49e6-a3cc-6969f1233775"
      ],
      "langs": [
        "4dcf9614-7914-42aa-99f4-dbce2e059133"
      ],
      "origins": [
        "2f96e82c-c61b-4413-817e-e6b247509b95"
      ],
      "series": [
        "c33b20b0-fa9f-49cc-bc3c-e6c499dad264"
      ],
      "singers": [
        "5f15d417-cdd0-4dc2-ace1-446d7971cf07"
      ],
      "songtypes": [
        "f02ad9b3-0bd9-4aad-85b3-9976739ba0e4"
      ],
      "songwriters": [
        "6f9382dc-3b8f-4948-899c-23477cd9e23b"
      ],
      "franchises": [
        "c33b20b0-fa9f-49cc-bc3c-e6c499dad264"
      ]
    },
    "title": "Little Busters!",
    "titles": {
      "eng": "Little Busters!",
      "jpn": "リトルバスターズ!"
    },
    "year": 2007,
    "titles_default_language": "eng"
  }
}