{
  "header": {
    "version": 4,
    "description": "Karaoke Mugen Karaoke Data File"
  },
  "medias": [
    {
      "version": "Female.",
      "filename": "JPN - Rockman 2 Dr. Wairi no Nazo - AMV - Omoide wa Okkusenman! ~ Female Vers. ~ Alternative Cover Vers.mp4",
      "audiogain": -6.37,
      "loudnorm": "-10.65,-2.12,2.00,-20.71,-0.27",
      "filesize": 83974545,
      "duration": 165,
      "default": true,
      "lyrics": [
        {
          "filename": "JPN - Rockman 2 Dr. Wairi no Nazo - AMV - Omoide wa Okkusenman! ~ Female Vers. ~ Alternative Cover Vers.ass",
          "default": true,
          "version": "Default",
          "subchecksum": "bcf4eecd8527309b432f349f258933a3"
        }
      ]
    }
  ],
  "data": {
    "created_at": "2017-10-11T17:03:13.000Z",
    "kid": "a19edc8e-7c95-41c8-9aab-732e797a6dc9",
    "modified_at": "2021-05-15T16:29:08.683Z",
    "parents": [
      "ac34fb16-f477-44dd-b2a8-bad0987b0045"
    ],
    "repository": "kara.moe",
    "tags": {
      "authors": [
        "1df04771-a378-4f14-a5e1-1455187d681a"
      ],
      "collections": [
        "c7db86a0-ff64-4044-9be4-66dd1ef1d1c1"
      ],
      "creators": [
        "ce9fc364-39fe-46c1-8de3-83f2df74b6aa"
      ],
      "families": [
        "0377db02-3af6-43b8-9b08-c759df3d25c3"
      ],
      "groups": [
        "3c14c864-533c-49e6-a3cc-6969f1233775"
      ],
      "langs": [
        "4dcf9614-7914-42aa-99f4-dbce2e059133"
      ],
      "series": [
        "08972f72-20d9-4e10-bc6d-27e3bc8518ae"
      ],
      "songtypes": [
        "a6c79ce5-89ee-4d50-afe8-3abd7317f6c2"
      ],
      "songwriters": [
        "aac71bf7-a0a3-4bc2-ade9-3cc8b5c60bfe",
        "f7d305da-1329-4bcc-9fa3-cc766e255e10"
      ],
      "versions": [
        "03e1e1d2-8641-47b7-bbcb-39a3df9ff21c",
        "9f63c359-d1bf-425a-bcf5-b245c2c9211d"
      ],
      "franchises": [
        "74eff3a1-8127-44f1-aa19-fdddc357af23"
      ]
    },
    "title": "Omoide wa Okkusenman! ~ Female Vers.",
    "titles": {
      "qro": "Omoide wa Okkusenman! ~ Female Vers.",
      "jpn": "思い出はおっくせんまん! ~ 女性 Vers."
    },
    "year": 2007,
    "titles_default_language": "qro"
  }
}