{
  "header": {
    "version": 4,
    "description": "Karaoke Mugen Karaoke Data File"
  },
  "medias": [
    {
      "version": "Default",
      "filename": "JPN - Sabikui Bisco - ED - Houkou.mp4",
      "audiogain": 3.08,
      "loudnorm": "-20.35,-8.23,4.80,-30.48,0.01",
      "filesize": 164560796,
      "duration": 90,
      "default": true,
      "lyrics": [
        {
          "filename": "JPN - Sabikui Bisco - ED - Houkou.ass",
          "default": true,
          "version": "Default"
        }
      ]
    }
  ],
  "data": {
    "created_at": "2022-02-19T13:28:51.954Z",
    "ignoreHooks": false,
    "kid": "f60ef83e-0b82-4302-b69d-2ddfc4b27ca8",
    "modified_at": "2022-09-30T21:20:00.702Z",
    "repository": "kara.moe",
    "tags": {
      "authors": [
        "9cdf3b70-3550-457c-bdb9-038f3253c6ad"
      ],
      "collections": [
        "c7db86a0-ff64-4044-9be4-66dd1ef1d1c1"
      ],
      "creators": [
        "ca5ab453-229a-426e-a17a-097b2e19f1b2"
      ],
      "families": [
        "0377db02-3af6-43b8-9b08-c759df3d25c3"
      ],
      "groups": [
        "8e209ae4-4381-438f-89dc-1b21752027d2"
      ],
      "langs": [
        "4dcf9614-7914-42aa-99f4-dbce2e059133"
      ],
      "misc": [
        "1d6ceadf-a885-47e5-b23b-c07bf668a424"
      ],
      "origins": [
        "938de218-5343-4865-94d3-fb33f2eaa152"
      ],
      "series": [
        "9396065f-1a08-48bb-92e5-d2ddee69bb00"
      ],
      "singers": [
        "234427ad-0afe-4027-8d89-c2b45dd79c96",
        "f2917fb2-23ae-4fbd-bedc-bc9b77f11603"
      ],
      "songtypes": [
        "38c77c56-2b95-4040-b676-0994a8cb0597"
      ],
      "songwriters": [
        "3b51e1dd-a00c-4cf6-94b0-9eb6660f65e2"
      ]
    },
    "titles": {
      "jpn": "咆哮",
      "qro": "Hôkô"
    },
    "titles_default_language": "qro",
    "title": "Hôkô",
    "year": 2022,
    "titles_aliases": [
      "Houkou"
    ]
  }
}