{
  "header": {
    "version": 4,
    "description": "Karaoke Mugen Karaoke Data File"
  },
  "medias": [
    {
      "version": "Default",
      "filename": "JPN - Isekai Shokudou - OP - One In A Billion.mp4",
      "audiogain": -10.91,
      "loudnorm": "-6.65,1.31,3.40,-16.75,-0.81",
      "filesize": 50471301,
      "duration": 92,
      "default": true,
      "lyrics": [
        {
          "filename": "JPN - Isekai Shokudou - OP - One In A Billion.ass",
          "default": true,
          "version": "Default",
          "subchecksum": "c2ed812a7a8350a4cd8600db586aabc5"
        }
      ]
    }
  ],
  "data": {
    "created_at": "2018-07-26T17:25:44.000Z",
    "kid": "aaf8bbcc-b61f-4df3-9c13-02440f11a927",
    "modified_at": "2021-02-25T11:48:00.870Z",
    "repository": "kara.moe",
    "tags": {
      "authors": [
        "b5116310-e69b-4ed4-9e47-c5c53ee69023"
      ],
      "collections": [
        "c7db86a0-ff64-4044-9be4-66dd1ef1d1c1"
      ],
      "creators": [
        "bee26a9b-bc7b-4cdc-9317-6c9ee6707706"
      ],
      "families": [
        "0377db02-3af6-43b8-9b08-c759df3d25c3"
      ],
      "genres": [
        "4b80eca6-f44f-4262-a8d0-b6879d6b70cb"
      ],
      "groups": [
        "ae613721-1fbe-480d-ba6b-d6d0702b184d"
      ],
      "langs": [
        "4dcf9614-7914-42aa-99f4-dbce2e059133"
      ],
      "origins": [
        "938de218-5343-4865-94d3-fb33f2eaa152"
      ],
      "series": [
        "8cd800ed-d499-424a-b4fb-9abb9dca50ff"
      ],
      "singers": [
        "994d1d73-6652-4a27-ae41-bece9034dd13",
        "d538b18e-e59e-4cb1-85e8-d095c50cd3e1"
      ],
      "songtypes": [
        "f02ad9b3-0bd9-4aad-85b3-9976739ba0e4"
      ],
      "songwriters": [
        "ad9de3e0-673e-459b-ac88-178ae5e04341",
        "da3cae77-dbb4-48b8-83c3-77da763a9148"
      ],
      "franchises": [
        "8cd800ed-d499-424a-b4fb-9abb9dca50ff"
      ]
    },
    "title": "One In A Billion",
    "titles": {
      "eng": "One In A Billion"
    },
    "year": 2017,
    "titles_default_language": "eng"
  }
}