{
  "header": {
    "version": 4,
    "description": "Karaoke Mugen Karaoke Data File"
  },
  "medias": [
    {
      "version": "Default",
      "filename": "JPN - Project SEKAI COLORFUL STAGE! - GAME MV - Ready Steady ~ Cover Short Vers.mp4",
      "audiogain": -9.02,
      "loudnorm": "-7.00,2.67,7.00,-17.27,-2.13",
      "filesize": 102024692,
      "duration": 96,
      "default": true,
      "lyrics": [
        {
          "filename": "JPN - Project SEKAI COLORFUL STAGE! - GAME MV - Ready Steady ~ Cover Short Vers.ass",
          "default": true,
          "version": "Default"
        }
      ]
    }
  ],
  "data": {
    "created_at": "2022-08-07T09:01:50.767Z",
    "ignoreHooks": false,
    "kid": "fa2bfa68-f3cf-4a50-ae29-81a73be6d853",
    "modified_at": "2023-02-05T12:42:06.562Z",
    "repository": "kara.moe",
    "tags": {
      "authors": [
        "ee8628c8-9b7f-415b-bc0d-9b712d5daf8c"
      ],
      "collections": [
        "c7db86a0-ff64-4044-9be4-66dd1ef1d1c1"
      ],
      "creators": [
        "1e5648fb-22fc-474d-b865-254eb31fa000"
      ],
      "families": [
        "dbedd6b3-d125-4cd8-aa32-c4175e4ca3a3"
      ],
      "genres": [
        "45623cae-6d68-4304-a49b-896d1d6f4580"
      ],
      "groups": [
        "8e209ae4-4381-438f-89dc-1b21752027d2"
      ],
      "langs": [
        "4dcf9614-7914-42aa-99f4-dbce2e059133"
      ],
      "misc": [
        "1d6ceadf-a885-47e5-b23b-c07bf668a424"
      ],
      "platforms": [
        "213a1a15-e73a-4a08-b3f6-b6e2745a82e5"
      ],
      "series": [
        "192b33fb-638a-4680-bdb2-a5adb9889849"
      ],
      "singers": [
        "4407ba0e-5de7-4add-870f-7ac95a4804c9",
        "9a9da3af-c891-42ae-bd3e-f0696a361c04",
        "b1933ef2-f157-4a9e-92a6-bf5cee65c299",
        "c06de857-8928-41e9-b5db-d5af620d0f89",
        "e53db9de-5632-41d6-8911-afb2f27545b0"
      ],
      "singergroups": [
        "e1de7634-8683-4738-9dfb-a66121ec36c5"
      ],
      "songtypes": [
        "7be1b15c-cff8-4b37-a649-5c90f3d569a9"
      ],
      "songwriters": [
        "ff1aec1d-751a-40ff-bbff-a3f0fd5e9749"
      ],
      "versions": [
        "03e1e1d2-8641-47b7-bbcb-39a3df9ff21c",
        "d125c80a-86c1-4321-88e9-07b7800679b6"
      ]
    },
    "titles": {
      "eng": "Ready Steady"
    },
    "titles_default_language": "eng",
    "year": 2020
  }
}