{
  "header": {
    "version": 4,
    "description": "Karaoke Mugen Karaoke Data File"
  },
  "medias": [
    {
      "version": "Default",
      "filename": "JPN - Fairy Tail - MV - Towa no Kizuna ~ Full Vers.mp4",
      "audiogain": -4.99,
      "loudnorm": "-12.69,-3.32,4.90,-22.75,-0.51",
      "filesize": 8205234,
      "duration": 217,
      "default": true,
      "lyrics": [
        {
          "filename": "JPN - Fairy Tail - MV - Towa no Kizuna ~ Full Vers.ass",
          "default": true,
          "version": "Default"
        }
      ]
    }
  ],
  "data": {
    "created_at": "2020-01-18T22:46:38.262Z",
    "ignoreHooks": false,
    "kid": "fa1aea7d-bc59-4f48-af23-914b5ce5ffd3",
    "modified_at": "2022-03-31T17:43:32.004Z",
    "parents": [
      "66d4fd93-b29a-4521-af88-867514198a3f"
    ],
    "repository": "kara.moe",
    "tags": {
      "authors": [
        "1db1738f-acdc-42fc-aec3-60f4bddf660d"
      ],
      "collections": [
        "c7db86a0-ff64-4044-9be4-66dd1ef1d1c1"
      ],
      "creators": [
        "91033c57-23a2-4333-984a-a94ccef551a4",
        "97e62433-0f2f-4e1b-ba1e-109eec95dc11"
      ],
      "families": [
        "0377db02-3af6-43b8-9b08-c759df3d25c3"
      ],
      "langs": [
        "4dcf9614-7914-42aa-99f4-dbce2e059133"
      ],
      "series": [
        "6b849ba8-e1a6-4390-bcb5-1d795d536761"
      ],
      "singers": [
        "32c3db1f-b1c5-4a6e-895c-dd0a73ba04b5"
      ],
      "songtypes": [
        "7be1b15c-cff8-4b37-a649-5c90f3d569a9"
      ],
      "songwriters": [
        "3536dd71-7ee2-4e65-9400-8f3659f0c312",
        "6899a759-16e3-4858-9650-b8ad6f2da6ae"
      ],
      "versions": [
        "c2143a7f-6970-450e-8a79-0302db9220a9"
      ],
      "groups": [
        "ae613721-1fbe-480d-ba6b-d6d0702b184d"
      ],
      "franchises": [
        "6b849ba8-e1a6-4390-bcb5-1d795d536761"
      ]
    },
    "titles": {
      "qro": "Towa no Kizuna",
      "jpn": "永久 の キズナ"
    },
    "titles_default_language": "qro",
    "title": "Towa no Kizuna",
    "year": 2011
  }
}