{
  "header": {
    "version": 4,
    "description": "Karaoke Mugen Karaoke Data File"
  },
  "medias": [
    {
      "version": "Default",
      "filename": "JPN - Naruto Shippuuden - OP4 - CLOSER.mp4",
      "audiogain": -7.55,
      "loudnorm": "-8.94,1.54,3.40,-19.06,-0.61",
      "filesize": 43938284,
      "duration": 93,
      "default": true,
      "lyrics": [
        {
          "filename": "JPN - Naruto Shippuuden - OP4 - CLOSER.ass",
          "default": true,
          "version": "Default",
          "subchecksum": "6ee802b29ada3768cabb0c320a21303c"
        }
      ]
    }
  ],
  "data": {
    "created_at": "2017-10-11T17:02:11.000Z",
    "kid": "3cb242c2-87fe-4039-b99a-3c1e004f9ef1",
    "modified_at": "2021-02-25T12:34:23.053Z",
    "repository": "kara.moe",
    "songorder": 4,
    "tags": {
      "authors": [
        "5bdaba57-27f8-4568-8806-76a807728766"
      ],
      "collections": [
        "c7db86a0-ff64-4044-9be4-66dd1ef1d1c1"
      ],
      "creators": [
        "aaff4ba6-9a12-4bac-9bd0-c0cb783e4177"
      ],
      "families": [
        "0377db02-3af6-43b8-9b08-c759df3d25c3"
      ],
      "genres": [
        "a0aeef4a-6428-45ff-a6e1-468b595930c2"
      ],
      "groups": [
        "3c14c864-533c-49e6-a3cc-6969f1233775"
      ],
      "langs": [
        "4dcf9614-7914-42aa-99f4-dbce2e059133"
      ],
      "origins": [
        "938de218-5343-4865-94d3-fb33f2eaa152"
      ],
      "series": [
        "afd38f79-188d-47e4-95c6-f74c38895574"
      ],
      "singers": [
        "0ced1fd5-6ff1-404e-a408-5841771e6f5f"
      ],
      "songtypes": [
        "f02ad9b3-0bd9-4aad-85b3-9976739ba0e4"
      ],
      "songwriters": [
        "0ced1fd5-6ff1-404e-a408-5841771e6f5f"
      ],
      "franchises": [
        "3201e723-3e75-46f9-bb21-d991f4f7731e"
      ]
    },
    "title": "CLOSER",
    "titles": {
      "eng": "CLOSER"
    },
    "year": 2007,
    "titles_default_language": "eng"
  }
}