{
  "header": {
    "version": 4,
    "description": "Karaoke Mugen Karaoke Data File"
  },
  "medias": [
    {
      "version": "Default",
      "filename": "JPN - IDOLiSH7 - GAME MV - Bang!Bang!Bang!.mp4",
      "audiogain": -10.99,
      "loudnorm": "-6.50,2.57,6.50,-16.67,-1.06",
      "filesize": 62148249,
      "duration": 189,
      "default": true,
      "lyrics": [
        {
          "filename": "JPN - IDOLiSH7 - GAME MV - Bang!Bang!Bang!.ass",
          "default": true,
          "version": "Default",
          "subchecksum": "367c5458c15448a5a23b604334e264e0"
        }
      ]
    }
  ],
  "data": {
    "created_at": "2019-12-29T00:00:48.618Z",
    "kid": "79391de8-7f06-4c58-b969-54e460849b0e",
    "modified_at": "2021-02-25T11:45:49.510Z",
    "repository": "kara.moe",
    "tags": {
      "authors": [
        "2a9bbf75-0722-4b4a-9935-caa92f38fdd1"
      ],
      "collections": [
        "c7db86a0-ff64-4044-9be4-66dd1ef1d1c1"
      ],
      "creators": [
        "e1972c4c-a95d-4849-a5e2-8c6b3d26c6fa"
      ],
      "families": [
        "dbedd6b3-d125-4cd8-aa32-c4175e4ca3a3"
      ],
      "genres": [
        "caa86df2-0d59-474b-885c-f240a9e891b0"
      ],
      "groups": [
        "ae613721-1fbe-480d-ba6b-d6d0702b184d"
      ],
      "langs": [
        "4dcf9614-7914-42aa-99f4-dbce2e059133"
      ],
      "platforms": [
        "213a1a15-e73a-4a08-b3f6-b6e2745a82e5"
      ],
      "series": [
        "f10b60e8-7eb3-483e-be70-e31721a08c61"
      ],
      "singers": [
        "16182759-ad44-4170-abad-20a49a0865a9",
        "4090b204-b9c9-4779-afbc-4745abf04aef",
        "787d9b3d-2e20-4dca-b83c-6c9c1b9e2202",
        "9783f31c-816f-4e25-8449-2b9403448bb5",
        "a9187552-0164-447b-a991-c8c4c0d8f86c"
      ],
      "songtypes": [
        "7be1b15c-cff8-4b37-a649-5c90f3d569a9"
      ],
      "songwriters": [
        "431458b1-e928-435e-8008-7e210792414a",
        "72c4064a-540f-4cb0-805a-170ab2ebdfb8"
      ]
    },
    "title": "Bang!Bang!Bang!",
    "titles": {
      "eng": "Bang!Bang!Bang!"
    },
    "year": 2019,
    "titles_default_language": "eng"
  }
}