{
  "header": {
    "version": 4,
    "description": "Karaoke Mugen Karaoke Data File"
  },
  "medias": [
    {
      "version": "Default",
      "filename": "JPN - Rockman 2 Dr. Wairi no Nazo - GAME AMV - Omoide wa Okkusenman.mp4",
      "audiogain": -13.16,
      "loudnorm": "-3.90,2.81,1.30,-13.95,-0.96",
      "filesize": 14576850,
      "duration": 171,
      "default": true,
      "lyrics": [
        {
          "filename": "JPN - Rockman 2 Dr. Wairi no Nazo - GAME AMV - Omoide wa Okkusenman.ass",
          "default": true,
          "version": "Default"
        }
      ]
    }
  ],
  "data": {
    "created_at": "2017-10-11T17:01:01.000Z",
    "kid": "ac34fb16-f477-44dd-b2a8-bad0987b0045",
    "modified_at": "2021-07-25T19:09:34.311Z",
    "repository": "kara.moe",
    "tags": {
      "authors": [
        "5fdaaa56-79aa-465c-91f9-afb1938c3eb6"
      ],
      "collections": [
        "c7db86a0-ff64-4044-9be4-66dd1ef1d1c1"
      ],
      "creators": [
        "a56ed9e7-a3dc-4203-b91c-4128bcf7bfa9",
        "a9b563c0-8ead-481e-9071-277ad918982e"
      ],
      "families": [
        "dbedd6b3-d125-4cd8-aa32-c4175e4ca3a3"
      ],
      "groups": [
        "3c14c864-533c-49e6-a3cc-6969f1233775",
        "8c22c899-b3ed-42da-a548-ce00f950798b"
      ],
      "langs": [
        "4dcf9614-7914-42aa-99f4-dbce2e059133"
      ],
      "series": [
        "08972f72-20d9-4e10-bc6d-27e3bc8518ae"
      ],
      "singers": [
        "49d38b66-5461-4e30-8167-b1e17c81e2a4"
      ],
      "songtypes": [
        "a6c79ce5-89ee-4d50-afe8-3abd7317f6c2"
      ],
      "songwriters": [
        "aac71bf7-a0a3-4bc2-ade9-3cc8b5c60bfe",
        "f7d305da-1329-4bcc-9fa3-cc766e255e10"
      ],
      "franchises": [
        "74eff3a1-8127-44f1-aa19-fdddc357af23"
      ]
    },
    "title": "Omoide wa Okkusenman",
    "titles": {
      "qro": "Omoide wa Okkusenman",
      "jpn": "思い出はおっくせんまん!"
    },
    "year": 2007,
    "titles_default_language": "qro"
  }
}