{
  "header": {
    "version": 4,
    "description": "Karaoke Mugen Karaoke Data File"
  },
  "medias": [
    {
      "version": "Default",
      "filename": "JPN - Senki Zesshou Symphogear XV - MV - Lasting Song ~ Full Vers.mp4",
      "audiogain": -9.42,
      "loudnorm": "-7.02,2.33,2.80,-17.07,-0.30",
      "filesize": 64784962,
      "duration": 266,
      "default": true,
      "lyrics": [
        {
          "filename": "JPN - Senki Zesshou Symphogear XV - MV - Lasting Song ~ Full Vers.ass",
          "default": true,
          "version": "Default"
        }
      ]
    }
  ],
  "data": {
    "created_at": "2021-02-16T22:36:48.073Z",
    "kid": "bdff9ab4-57a7-4b98-8ef9-44b269ca541e",
    "modified_at": "2022-06-04T00:19:34.507Z",
    "parents": [
      "5961a1a5-9526-440b-98af-acb6dd62db86"
    ],
    "repository": "kara.moe",
    "songorder": null,
    "tags": {
      "authors": [
        "87096920-112f-485f-a310-04156cb4624d"
      ],
      "creators": [
        "6fa9de67-21cf-420b-9ddb-57edb5abe523"
      ],
      "families": [
        "5391f9fe-638c-415f-8dc9-958e3a2c5787"
      ],
      "groups": [
        "60defa7b-774e-4680-8321-51b742c2e009",
        "ae613721-1fbe-480d-ba6b-d6d0702b184d"
      ],
      "langs": [
        "4dcf9614-7914-42aa-99f4-dbce2e059133"
      ],
      "series": [
        "5a0d57d7-a6e9-45bf-9960-334128e43e0a"
      ],
      "singers": [
        "7f71f194-f4a1-4246-9d74-a754a3989c27"
      ],
      "songtypes": [
        "7be1b15c-cff8-4b37-a649-5c90f3d569a9"
      ],
      "songwriters": [
        "30e4f047-50d7-4ed7-8ed3-57cef0f20489",
        "7f71f194-f4a1-4246-9d74-a754a3989c27"
      ],
      "versions": [
        "c2143a7f-6970-450e-8a79-0302db9220a9"
      ],
      "collections": [
        "dbcf2c22-524d-4708-99bb-601703633927"
      ],
      "franchises": [
        "61b24082-a6a9-482b-b126-0ad7be595791"
      ]
    },
    "titles": {
      "eng": "Lasting Song"
    },
    "titles_default_language": "eng",
    "title": "Lasting Song",
    "year": 2019
  }
}