{
  "header": {
    "version": 4,
    "description": "Karaoke Mugen Karaoke Data File"
  },
  "medias": [
    {
      "version": "Default",
      "filename": "JPN - Project SEKAI COLORFUL STAGE! - GAME MV - Love ka question_mark ~ Cover Short Vers.mp4",
      "audiogain": -10.83,
      "loudnorm": "-6.83,2.08,6.60,-16.92,-1.36",
      "filesize": 72271725,
      "duration": 106,
      "default": true,
      "lyrics": [
        {
          "filename": "JPN - Project SEKAI COLORFUL STAGE! - GAME MV - Love ka question_mark ~ Cover Short Vers.ass",
          "default": true,
          "version": "Default"
        }
      ]
    }
  ],
  "data": {
    "comment": "pas sûre de faire la full version donc amusez-vous bien",
    "created_at": "2022-11-25T16:49:57.326Z",
    "ignoreHooks": false,
    "kid": "00bb3882-4b82-47ca-a4c6-c92397b34332",
    "modified_at": "2022-12-26T21:11:18.104Z",
    "repository": "kara.moe",
    "tags": {
      "authors": [
        "a3a99b23-6c42-4d38-8863-491153187437"
      ],
      "collections": [
        "c7db86a0-ff64-4044-9be4-66dd1ef1d1c1"
      ],
      "creators": [
        "1e5648fb-22fc-474d-b865-254eb31fa000"
      ],
      "families": [
        "dbedd6b3-d125-4cd8-aa32-c4175e4ca3a3"
      ],
      "genres": [
        "45623cae-6d68-4304-a49b-896d1d6f4580"
      ],
      "groups": [
        "8e209ae4-4381-438f-89dc-1b21752027d2"
      ],
      "langs": [
        "4dcf9614-7914-42aa-99f4-dbce2e059133"
      ],
      "misc": [
        "1d6ceadf-a885-47e5-b23b-c07bf668a424"
      ],
      "platforms": [
        "213a1a15-e73a-4a08-b3f6-b6e2745a82e5"
      ],
      "series": [
        "192b33fb-638a-4680-bdb2-a5adb9889849"
      ],
      "singers": [
        "1a2a3b83-6635-4b06-8574-4154df44feac",
        "42e22ca1-af49-4588-90e3-671ab88f2258",
        "48dc9597-7cd1-482f-8dc0-3e7c72f4b7c3",
        "c889c0b5-a571-408f-8b6a-b3c1d4c6296f",
        "fae72c0f-4ef4-4268-9bff-465a0dec95e4"
      ],
      "singergroups": [
        "3978f3e3-2631-47a9-bfc8-9d2804c1074d"
      ],
      "songtypes": [
        "7be1b15c-cff8-4b37-a649-5c90f3d569a9"
      ],
      "songwriters": [
        "784d7784-b0bc-47e5-ad95-6a4be7cb25a6"
      ],
      "versions": [
        "03e1e1d2-8641-47b7-bbcb-39a3df9ff21c",
        "d125c80a-86c1-4321-88e9-07b7800679b6"
      ]
    },
    "titles": {
      "jpn": "ラブカ？",
      "qro": "Love ka?"
    },
    "titles_default_language": "qro",
    "titles_aliases": [
      "Rabu",
      "Is it Love?"
    ],
    "year": 2022
  }
}