{
  "header": {
    "version": 4,
    "description": "Karaoke Mugen Karaoke Data File"
  },
  "medias": [
    {
      "version": "Default",
      "filename": "JPN - Yorushika - MV - Dakara Boku Wa Ongaku Wo Yameta.mp4",
      "audiogain": -8.89,
      "loudnorm": "-8.66,0.80,6.30,-18.70,-0.85",
      "filesize": 54767191,
      "duration": 246,
      "default": true,
      "lyrics": [
        {
          "filename": "JPN - Yorushika - MV - Dakara Boku Wa Ongaku Wo Yameta.ass",
          "default": true,
          "version": "Default"
        }
      ]
    }
  ],
  "data": {
    "created_at": "2020-02-03T22:39:59.051Z",
    "kid": "f17e30ac-5669-4eb1-8aa6-3de4b972b073",
    "modified_at": "2021-07-22T19:16:49.693Z",
    "repository": "kara.moe",
    "tags": {
      "authors": [
        "269d1464-84f9-44da-9064-1d074bafb602"
      ],
      "collections": [
        "c7db86a0-ff64-4044-9be4-66dd1ef1d1c1"
      ],
      "creators": [
        "6f1c6c38-8707-4606-9395-0b8ce20cfb31",
        "f1a308d0-4073-420c-8b59-82d0163b0075"
      ],
      "families": [
        "0377db02-3af6-43b8-9b08-c759df3d25c3"
      ],
      "groups": [
        "2b4e9972-5e17-481b-99f5-d0787c0ada56",
        "ae613721-1fbe-480d-ba6b-d6d0702b184d"
      ],
      "langs": [
        "4dcf9614-7914-42aa-99f4-dbce2e059133"
      ],
      "singers": [
        "29159405-9d6e-482e-beb8-8a390e1184d7"
      ],
      "songtypes": [
        "7be1b15c-cff8-4b37-a649-5c90f3d569a9"
      ],
      "songwriters": [
        "41d76f46-52fe-4f5e-8bc6-40a18f29f540"
      ]
    },
    "title": "Dakara Boku Wa Ongaku Wo Yameta",
    "titles": {
      "qro": "Dakara Boku Wa Ongaku Wo Yameta",
      "jpn": "だから僕は音楽を辞めた"
    },
    "year": 2019,
    "titles_default_language": "qro"
  }
}