{
  "header": {
    "version": 4,
    "description": "Karaoke Mugen Karaoke Data File"
  },
  "medias": [
    {
      "version": "Default",
      "filename": "JPN - Dragon Quest Dai no Daibouken (2020) - ED1 - Mother.mp4",
      "audiogain": 7.72,
      "loudnorm": "-26.06,-14.89,6.80,-36.10,-1.29",
      "filesize": 60234325,
      "duration": 91,
      "default": true,
      "lyrics": [
        {
          "filename": "JPN - Dragon Quest Dai no Daibouken (2020) - ED1 - Mother.ass",
          "default": true,
          "version": "Default",
          "subchecksum": "8063bce9704bf1c4c1b45a25d0cf0798"
        }
      ]
    }
  ],
  "data": {
    "created_at": "2020-10-10T21:29:35.536Z",
    "kid": "943fc9b1-0fb0-456a-806c-63dbb0f1e92a",
    "modified_at": "2021-04-13T17:55:20.456Z",
    "repository": "kara.moe",
    "songorder": 1,
    "tags": {
      "authors": [
        "06852e02-b77e-4106-b6f7-2d03942ad0ea"
      ],
      "collections": [
        "c7db86a0-ff64-4044-9be4-66dd1ef1d1c1"
      ],
      "creators": [
        "f694bf43-b427-4244-9744-9d3f84fd8a31"
      ],
      "families": [
        "0377db02-3af6-43b8-9b08-c759df3d25c3"
      ],
      "genres": [
        "a0aeef4a-6428-45ff-a6e1-468b595930c2"
      ],
      "groups": [
        "8e209ae4-4381-438f-89dc-1b21752027d2"
      ],
      "langs": [
        "4dcf9614-7914-42aa-99f4-dbce2e059133"
      ],
      "misc": [
        "fe819ff1-9db8-4a0f-85dc-0e322c9126c4"
      ],
      "origins": [
        "938de218-5343-4865-94d3-fb33f2eaa152"
      ],
      "series": [
        "c2a4968f-e8b0-471e-8ecc-bb8ba11524fc"
      ],
      "singers": [
        "21f262ea-40e8-49e4-9429-5cf12c53a800"
      ],
      "songtypes": [
        "38c77c56-2b95-4040-b676-0994a8cb0597"
      ],
      "songwriters": [
        "42b1edc5-5465-4c60-b52d-c511778cb719"
      ],
      "franchises": [
        "165eabeb-1b7e-4ffd-b47c-61db748ccb3c"
      ]
    },
    "title": "Mother",
    "titles": {
      "eng": "Mother"
    },
    "year": 2020,
    "titles_default_language": "eng"
  }
}