{
  "header": {
    "version": 4,
    "description": "Karaoke Mugen Karaoke Data File"
  },
  "medias": [
    {
      "version": "Default",
      "filename": "JPN - Rockman 8 Metal Heroes - GAME OP - Electrical Communication.mp4",
      "audiogain": -4.61,
      "loudnorm": "-13.25,-3.05,3.40,-23.41,-0.32",
      "filesize": 14242715,
      "duration": 88,
      "default": true,
      "lyrics": [
        {
          "filename": "JPN - Rockman 8 Metal Heroes - GAME OP - Electrical Communication.ass",
          "default": true,
          "version": "Default"
        }
      ]
    }
  ],
  "data": {
    "created_at": "2017-10-11T17:02:21.000Z",
    "ignoreHooks": false,
    "kid": "22cc1ee2-383e-4837-be2b-3eac8fdc4f6a",
    "modified_at": "2022-02-14T20:20:25.110Z",
    "repository": "kara.moe",
    "tags": {
      "authors": [
        "5bdaba57-27f8-4568-8806-76a807728766"
      ],
      "collections": [
        "c7db86a0-ff64-4044-9be4-66dd1ef1d1c1"
      ],
      "creators": [
        "a9b563c0-8ead-481e-9071-277ad918982e"
      ],
      "families": [
        "dbedd6b3-d125-4cd8-aa32-c4175e4ca3a3"
      ],
      "groups": [
        "24db50aa-a126-4d34-a48a-e45db79c4245"
      ],
      "langs": [
        "4dcf9614-7914-42aa-99f4-dbce2e059133"
      ],
      "series": [
        "26ad6e20-48e5-4734-9a6e-6989c036c044"
      ],
      "singers": [
        "5f1160f6-8ab3-4a04-970d-f1144e774292"
      ],
      "songtypes": [
        "f02ad9b3-0bd9-4aad-85b3-9976739ba0e4"
      ],
      "songwriters": [
        "5f1160f6-8ab3-4a04-970d-f1144e774292"
      ],
      "franchises": [
        "74eff3a1-8127-44f1-aa19-fdddc357af23"
      ]
    },
    "titles": {
      "eng": "Electrical Communication"
    },
    "title": "Electrical Communication",
    "year": 1996,
    "titles_default_language": "eng"
  }
}