{
  "header": {
    "version": 4,
    "description": "Karaoke Mugen Karaoke Data File"
  },
  "medias": [
    {
      "version": "Default",
      "filename": "JPN - Yagate Kimi ni Naru - ED - hectopascal.mp4",
      "audiogain": -8.45,
      "loudnorm": "-10.11,0.27,5.20,-20.37,-1.03",
      "filesize": 37412056,
      "duration": 90,
      "default": true,
      "lyrics": [
        {
          "filename": "JPN - Yagate Kimi ni Naru - ED - hectopascal.ass",
          "default": true,
          "version": "Default",
          "subchecksum": "9f5f34580ac312a4b991726b8ae9b47a"
        }
      ]
    }
  ],
  "data": {
    "created_at": "2018-11-21T12:18:51.000Z",
    "kid": "906bc1ef-2e45-48a0-a987-59bf0ecf6190",
    "modified_at": "2021-02-25T13:38:33.241Z",
    "repository": "kara.moe",
    "tags": {
      "authors": [
        "6bebcb04-2694-453c-9e0c-eb1a2e2718d9"
      ],
      "collections": [
        "c7db86a0-ff64-4044-9be4-66dd1ef1d1c1"
      ],
      "creators": [
        "0f5ce160-2792-43ba-ac7d-1613b8c9ac61"
      ],
      "families": [
        "0377db02-3af6-43b8-9b08-c759df3d25c3"
      ],
      "genres": [
        "c994fbce-5c5a-441c-88b4-9a6805f7ee85"
      ],
      "groups": [
        "9a8e0fbc-dcae-4989-be82-7cad3436f1f5",
        "ae613721-1fbe-480d-ba6b-d6d0702b184d"
      ],
      "langs": [
        "4dcf9614-7914-42aa-99f4-dbce2e059133"
      ],
      "misc": [
        "fe819ff1-9db8-4a0f-85dc-0e322c9126c4"
      ],
      "origins": [
        "938de218-5343-4865-94d3-fb33f2eaa152"
      ],
      "series": [
        "bc31cf2c-06b5-423a-bee2-21c849d4dd52"
      ],
      "singers": [
        "a193b82b-0c3c-44df-ade9-f21077bef97f",
        "c14c8d98-5d46-40db-a5dd-ab07a03957a6"
      ],
      "songtypes": [
        "38c77c56-2b95-4040-b676-0994a8cb0597"
      ],
      "songwriters": [
        "00cd2c1f-8012-4366-adcd-0340a340c29a",
        "ead196cc-e1e3-43a4-8804-dd4199e89c4e"
      ]
    },
    "title": "hectopascal",
    "titles": {
      "eng": "hectopascal"
    },
    "year": 2018,
    "titles_default_language": "eng"
  }
}