{
  "header": {
    "version": 4,
    "description": "Karaoke Mugen Karaoke Data File"
  },
  "medias": [
    {
      "version": "Default",
      "filename": "JPN - Primitive Link - PC GAME OP - Eternal Sky.mp4",
      "audiogain": -9.45,
      "loudnorm": "-8.33,1.61,5.80,-18.51,-0.65",
      "filesize": 41716748,
      "duration": 113,
      "default": true,
      "lyrics": [
        {
          "filename": "JPN - Primitive Link - PC GAME OP - Eternal Sky.ass",
          "default": true,
          "version": "Default",
          "subchecksum": "4f4ba8986a2dfa67a0060e8bcf5d5e23"
        }
      ]
    }
  ],
  "data": {
    "created_at": "2017-10-11T17:01:44.000Z",
    "kid": "19c10001-ca84-4115-b409-b1af9ede0e38",
    "modified_at": "2021-02-25T12:47:20.115Z",
    "repository": "kara.moe",
    "tags": {
      "authors": [
        "5bdaba57-27f8-4568-8806-76a807728766"
      ],
      "collections": [
        "c7db86a0-ff64-4044-9be4-66dd1ef1d1c1"
      ],
      "creators": [
        "d701acb7-cbdb-4835-ba8b-1379549ff200"
      ],
      "families": [
        "dbedd6b3-d125-4cd8-aa32-c4175e4ca3a3"
      ],
      "groups": [
        "3c14c864-533c-49e6-a3cc-6969f1233775"
      ],
      "langs": [
        "4dcf9614-7914-42aa-99f4-dbce2e059133"
      ],
      "origins": [
        "2f96e82c-c61b-4413-817e-e6b247509b95"
      ],
      "platforms": [
        "3c15f758-e1bc-4266-8bb9-3c14112f504a"
      ],
      "series": [
        "b764628b-5701-451e-b5ed-88d54ba53445"
      ],
      "singers": [
        "4490c07b-6c90-4a1a-b66d-135f65990307"
      ],
      "songtypes": [
        "f02ad9b3-0bd9-4aad-85b3-9976739ba0e4"
      ],
      "songwriters": [
        "0c2df8d7-f3af-46ec-9fbe-2f4814208e55",
        "c507c86f-5ea0-4335-87bc-c515853d9424"
      ]
    },
    "title": "Eternal Sky",
    "titles": {
      "eng": "Eternal Sky"
    },
    "year": 2007,
    "titles_default_language": "eng"
  }
}