{
  "header": {
    "version": 4,
    "description": "Karaoke Mugen Karaoke Data File"
  },
  "medias": [
    {
      "version": "Default",
      "filename": "JPN - Ookamikakushi - ED - Tsukishirube.avi",
      "audiogain": -0.13,
      "loudnorm": "-17.73,-4.10,4.40,-27.82,-0.54",
      "filesize": 30813524,
      "duration": 90,
      "default": true,
      "lyrics": [
        {
          "filename": "JPN - Ookamikakushi - ED - Tsukishirube.ass",
          "default": true,
          "version": "Default",
          "subchecksum": "922c9fd9f9022ba0676ca47525e6b437"
        }
      ]
    }
  ],
  "data": {
    "created_at": "2017-10-11T17:01:22.000Z",
    "kid": "bf262a68-230b-4b74-8a99-85374bc60183",
    "modified_at": "2021-02-25T12:42:08.650Z",
    "repository": "kara.moe",
    "tags": {
      "authors": [
        "5bdaba57-27f8-4568-8806-76a807728766"
      ],
      "collections": [
        "c7db86a0-ff64-4044-9be4-66dd1ef1d1c1"
      ],
      "creators": [
        "d4f12628-2031-48c0-b2c7-7c07aaf8af94"
      ],
      "families": [
        "0377db02-3af6-43b8-9b08-c759df3d25c3"
      ],
      "groups": [
        "ae613721-1fbe-480d-ba6b-d6d0702b184d"
      ],
      "langs": [
        "4dcf9614-7914-42aa-99f4-dbce2e059133"
      ],
      "origins": [
        "938de218-5343-4865-94d3-fb33f2eaa152"
      ],
      "series": [
        "4d5d0e95-389f-4343-abb3-03b7d666930e"
      ],
      "singers": [
        "11717b5d-db4e-4b3f-9de0-1a9c03dc0871"
      ],
      "songtypes": [
        "38c77c56-2b95-4040-b676-0994a8cb0597"
      ],
      "songwriters": [
        "86ae2edf-866e-405d-8f02-f8df5ae54316"
      ]
    },
    "title": "Tsukishirube",
    "titles": {
      "qro": "Tsukishirube",
      "jpn": "月導-Tsukishirube-"
    },
    "year": 2010,
    "titles_default_language": "qro"
  }
}