{
  "header": {
    "version": 4,
    "description": "Karaoke Mugen Karaoke Data File"
  },
  "medias": [
    {
      "version": "Default",
      "filename": "JPN - Re Zero kara Hajimeru Isekai Seikatsu 2nd Season - MV - Realize ~ Full Vers.mp4",
      "audiogain": -1.27,
      "loudnorm": "-16.36,-3.53,8.30,-26.55,-0.57",
      "filesize": 101681767,
      "duration": 246,
      "default": true,
      "lyrics": [
        {
          "filename": "JPN - Re Zero kara Hajimeru Isekai Seikatsu 2nd Season - MV - Realize ~ Full Vers.ass",
          "default": true,
          "version": "Default"
        }
      ]
    }
  ],
  "data": {
    "created_at": "2021-04-19T19:19:29.064Z",
    "kid": "b820b508-61ef-4cb0-a78d-6eeb43c7040b",
    "modified_at": "2022-06-04T00:16:41.774Z",
    "parents": [
      "877fb3f6-f6d4-4647-9b9a-a77abc8199a2"
    ],
    "repository": "kara.moe",
    "songorder": null,
    "tags": {
      "authors": [
        "523ead5e-981e-4993-af29-12524f7edcf1"
      ],
      "creators": [
        "cc52425c-a381-4a81-a4b9-ac0d5ccba5ab"
      ],
      "families": [
        "5391f9fe-638c-415f-8dc9-958e3a2c5787"
      ],
      "groups": [
        "2b4e9972-5e17-481b-99f5-d0787c0ada56",
        "8e209ae4-4381-438f-89dc-1b21752027d2"
      ],
      "langs": [
        "4dcf9614-7914-42aa-99f4-dbce2e059133"
      ],
      "series": [
        "df22ce24-409a-424a-9fe4-c3add973462b"
      ],
      "singers": [
        "c2fef8d8-1e8e-427a-9a5c-769d661c8fed"
      ],
      "songtypes": [
        "7be1b15c-cff8-4b37-a649-5c90f3d569a9"
      ],
      "songwriters": [
        "c786a8e4-a740-4031-849e-c7aed853b0ea",
        "f2d7b99d-52df-4590-8828-7d89c44d9930"
      ],
      "versions": [
        "c2143a7f-6970-450e-8a79-0302db9220a9"
      ],
      "collections": [
        "dbcf2c22-524d-4708-99bb-601703633927"
      ],
      "franchises": [
        "6339add6-b9a3-46c4-9488-2660caa30487"
      ]
    },
    "titles": {
      "eng": "Realize"
    },
    "titles_default_language": "eng",
    "title": "Realize",
    "year": 2020
  }
}