{
  "header": {
    "version": 4,
    "description": "Karaoke Mugen Karaoke Data File"
  },
  "medias": [
    {
      "version": "Default",
      "filename": "JPN - Karakai Jouzu no Takagi-san - ED1 - Kimagure Romantic.mp4",
      "audiogain": -9.22,
      "loudnorm": "-8.94,0.99,5.80,-19.04,-0.55",
      "filesize": 38324435,
      "duration": 89,
      "default": true,
      "lyrics": [
        {
          "filename": "JPN - Karakai Jouzu no Takagi-san - ED1 - Kimagure Romantic.ass",
          "default": true,
          "version": "Default",
          "subchecksum": "59a11ab39dacbc6281c55ff6640d5e45"
        }
      ]
    }
  ],
  "data": {
    "created_at": "2018-06-18T15:29:08.000Z",
    "kid": "41410d4b-daa9-451f-b8f7-d631d96a96fa",
    "modified_at": "2021-02-25T11:55:09.325Z",
    "repository": "kara.moe",
    "songorder": 1,
    "tags": {
      "authors": [
        "b5116310-e69b-4ed4-9e47-c5c53ee69023"
      ],
      "collections": [
        "c7db86a0-ff64-4044-9be4-66dd1ef1d1c1"
      ],
      "creators": [
        "83c61ae6-0690-4baa-a3a1-28f1f68f986f"
      ],
      "families": [
        "0377db02-3af6-43b8-9b08-c759df3d25c3"
      ],
      "groups": [
        "ae613721-1fbe-480d-ba6b-d6d0702b184d"
      ],
      "langs": [
        "4dcf9614-7914-42aa-99f4-dbce2e059133"
      ],
      "origins": [
        "938de218-5343-4865-94d3-fb33f2eaa152"
      ],
      "series": [
        "f5828376-9419-46f1-9d08-b95207c52c93"
      ],
      "singers": [
        "a0ac6bca-c73a-49d9-956f-3378f1d6fe8c"
      ],
      "songtypes": [
        "38c77c56-2b95-4040-b676-0994a8cb0597"
      ],
      "songwriters": [
        "52944693-acb2-44bf-86bb-5057d837def8"
      ],
      "franchises": [
        "f5828376-9419-46f1-9d08-b95207c52c93"
      ]
    },
    "title": "Kimagure Romantic",
    "titles": {
      "qro": "Kimagure Romantic",
      "jpn": "気まぐれロマンティック"
    },
    "year": 2018,
    "titles_default_language": "qro"
  }
}