{
  "header": {
    "version": 4,
    "description": "Karaoke Mugen Karaoke Data File"
  },
  "medias": [
    {
      "version": "Default",
      "filename": "JPN - Dragon Ball Z - AMV - Unmei no hi ~Tamashii VS Tamashii~ ~ Full Vers.mp4",
      "audiogain": -3.49,
      "loudnorm": "-14.41,0.11,5.40,-24.63,-0.53",
      "filesize": 120216331,
      "duration": 294,
      "default": true,
      "lyrics": [
        {
          "filename": "JPN - Dragon Ball Z - AMV - Unmei no hi ~Tamashii VS Tamashii~ ~ Full Vers.ass",
          "default": true,
          "version": "Default"
        }
      ]
    }
  ],
  "data": {
    "created_at": "2020-09-26T11:15:10.241Z",
    "kid": "8ee6ee52-2d03-42f9-b2ec-64d5db8a17b6",
    "modified_at": "2022-07-20T11:37:38.711Z",
    "repository": "kara.moe",
    "tags": {
      "authors": [
        "06852e02-b77e-4106-b6f7-2d03942ad0ea"
      ],
      "creators": [
        "6a7b5929-45da-4c16-bd82-7bb30a41f7b1",
        "f694bf43-b427-4244-9744-9d3f84fd8a31"
      ],
      "families": [
        "0377db02-3af6-43b8-9b08-c759df3d25c3"
      ],
      "genres": [
        "a0aeef4a-6428-45ff-a6e1-468b595930c2"
      ],
      "groups": [
        "24db50aa-a126-4d34-a48a-e45db79c4245"
      ],
      "langs": [
        "4dcf9614-7914-42aa-99f4-dbce2e059133"
      ],
      "origins": [
        "938de218-5343-4865-94d3-fb33f2eaa152"
      ],
      "series": [
        "3cfa486b-0ab4-4969-85b7-113ae4450c42"
      ],
      "singers": [
        "162799fe-de2f-4f72-99a2-8c606aee4f2d"
      ],
      "songtypes": [
        "a6c79ce5-89ee-4d50-afe8-3abd7317f6c2"
      ],
      "songwriters": [
        "041ef11a-b6e8-4b08-93f3-61f2d2f7d2dc",
        "5ef38e64-35cc-40fe-9469-4c8b8699d349",
        "aaea4d26-7009-43ff-a138-be2511b0c65d"
      ],
      "versions": [
        "c2143a7f-6970-450e-8a79-0302db9220a9"
      ],
      "collections": [
        "c7db86a0-ff64-4044-9be4-66dd1ef1d1c1"
      ],
      "warnings": [
        "24371984-5e4c-4485-a937-fb0c480ca23b"
      ],
      "franchises": [
        "c46f5c45-e15a-41b3-a3e6-a1ac023116e1"
      ]
    },
    "titles": {
      "qro": "Unmei no hi ~Tamashii VS Tamashii~",
      "jpn": "運命の日〜魂VS魂〜"
    },
    "titles_default_language": "qro",
    "title": "Unmei no hi ~Tamashii VS Tamashii~",
    "year": 1993
  }
}