{
  "header": {
    "version": 4,
    "description": "Karaoke Mugen Karaoke Data File"
  },
  "medias": [
    {
      "version": "Default",
      "filename": "JPN - Gintama - OP8 - Light Infection.mp4",
      "audiogain": 1.77,
      "loudnorm": "-18.32,-8.16,1.90,-28.44,0.06",
      "filesize": 21572397,
      "duration": 101,
      "default": true,
      "lyrics": [
        {
          "filename": "JPN - Gintama - OP8 - Light Infection.ass",
          "default": true,
          "version": "Default"
        }
      ]
    }
  ],
  "data": {
    "created_at": "2017-10-11T17:03:05.000Z",
    "kid": "d93a986d-c456-4ede-accf-20c20a350755",
    "modified_at": "2021-12-29T21:39:24.552Z",
    "repository": "kara.moe",
    "songorder": 8,
    "tags": {
      "authors": [
        "5bdaba57-27f8-4568-8806-76a807728766"
      ],
      "collections": [
        "c7db86a0-ff64-4044-9be4-66dd1ef1d1c1"
      ],
      "creators": [
        "ef8f80e1-d244-4aea-b7f0-984d6dd4b82b"
      ],
      "families": [
        "0377db02-3af6-43b8-9b08-c759df3d25c3"
      ],
      "genres": [
        "a0aeef4a-6428-45ff-a6e1-468b595930c2"
      ],
      "groups": [
        "3c14c864-533c-49e6-a3cc-6969f1233775"
      ],
      "langs": [
        "4dcf9614-7914-42aa-99f4-dbce2e059133"
      ],
      "origins": [
        "938de218-5343-4865-94d3-fb33f2eaa152"
      ],
      "series": [
        "0433ab0b-74bb-4837-8f1b-fd17a9e0c526"
      ],
      "singers": [
        "bb667125-4d46-4de8-a41d-56862c488206"
      ],
      "songtypes": [
        "f02ad9b3-0bd9-4aad-85b3-9976739ba0e4"
      ],
      "songwriters": [
        "90c0f0d2-0fe0-4b1d-bdcd-ddd1d1b7b63d",
        "bb667125-4d46-4de8-a41d-56862c488206"
      ],
      "franchises": [
        "0433ab0b-74bb-4837-8f1b-fd17a9e0c526"
      ]
    },
    "titles": {
      "eng": "Light Infection"
    },
    "title": "Light Infection",
    "year": 2006,
    "titles_default_language": "eng"
  }
}