{
  "header": {
    "version": 4,
    "description": "Karaoke Mugen Karaoke Data File"
  },
  "medias": [
    {
      "version": "Default",
      "filename": "JPN - Naruto Shippuuden - OP18 - LINE.mp4",
      "audiogain": -3.84,
      "loudnorm": "-12.33,-0.03,2.50,-22.61,-0.85",
      "filesize": 14881110,
      "duration": 92,
      "default": true,
      "lyrics": [
        {
          "filename": "JPN - Naruto Shippuuden - OP18 - LINE.ass",
          "default": true,
          "version": "Default",
          "subchecksum": "f999353f2fe1a8f23146318294df1897"
        }
      ]
    }
  ],
  "data": {
    "created_at": "2017-10-11T17:01:50.000Z",
    "kid": "00b75bf5-0623-408f-86ba-8e50cc4c6a03",
    "modified_at": "2021-02-25T12:34:18.201Z",
    "repository": "kara.moe",
    "songorder": 18,
    "tags": {
      "authors": [
        "5bdaba57-27f8-4568-8806-76a807728766"
      ],
      "collections": [
        "c7db86a0-ff64-4044-9be4-66dd1ef1d1c1"
      ],
      "creators": [
        "aaff4ba6-9a12-4bac-9bd0-c0cb783e4177"
      ],
      "families": [
        "0377db02-3af6-43b8-9b08-c759df3d25c3"
      ],
      "genres": [
        "a0aeef4a-6428-45ff-a6e1-468b595930c2"
      ],
      "groups": [
        "3c14c864-533c-49e6-a3cc-6969f1233775"
      ],
      "langs": [
        "4dcf9614-7914-42aa-99f4-dbce2e059133"
      ],
      "misc": [
        "fe819ff1-9db8-4a0f-85dc-0e322c9126c4"
      ],
      "origins": [
        "938de218-5343-4865-94d3-fb33f2eaa152"
      ],
      "series": [
        "afd38f79-188d-47e4-95c6-f74c38895574"
      ],
      "singers": [
        "e8e3edeb-437c-4234-bc24-aa40365875a6"
      ],
      "songtypes": [
        "f02ad9b3-0bd9-4aad-85b3-9976739ba0e4"
      ],
      "songwriters": [
        "725dd2e4-13c1-463d-9eeb-6a7d91040824",
        "c47b085b-a7f2-4962-a2bc-af59d4e59ee7"
      ],
      "franchises": [
        "3201e723-3e75-46f9-bb21-d991f4f7731e"
      ]
    },
    "title": "LINE",
    "titles": {
      "eng": "LINE"
    },
    "year": 2007,
    "titles_default_language": "eng"
  }
}