{
  "header": {
    "version": 4,
    "description": "Karaoke Mugen Karaoke Data File"
  },
  "medias": [
    {
      "version": "Default",
      "filename": "JPN - Tentai Senshi Sunred - OP - Mizonokuchi Taiyou Zoku.mp4",
      "audiogain": -1.34,
      "loudnorm": "-16.32,-4.69,4.40,-26.41,-0.90",
      "filesize": 15015923,
      "duration": 90,
      "default": true,
      "lyrics": [
        {
          "filename": "JPN - Tentai Senshi Sunred - OP - Mizonokuchi Taiyou Zoku.ass",
          "default": true,
          "version": "Default",
          "subchecksum": "211b4d4a4ae1e279451164da68bf9986"
        }
      ]
    }
  ],
  "data": {
    "created_at": "2017-10-11T17:03:00.000Z",
    "kid": "df81768f-9033-4f62-ae70-cd775fddb10a",
    "modified_at": "2021-02-25T13:20:19.043Z",
    "repository": "kara.moe",
    "tags": {
      "authors": [
        "5bdaba57-27f8-4568-8806-76a807728766"
      ],
      "collections": [
        "c7db86a0-ff64-4044-9be4-66dd1ef1d1c1"
      ],
      "creators": [
        "d4f12628-2031-48c0-b2c7-7c07aaf8af94"
      ],
      "families": [
        "0377db02-3af6-43b8-9b08-c759df3d25c3"
      ],
      "groups": [
        "3c14c864-533c-49e6-a3cc-6969f1233775"
      ],
      "langs": [
        "4dcf9614-7914-42aa-99f4-dbce2e059133"
      ],
      "origins": [
        "938de218-5343-4865-94d3-fb33f2eaa152"
      ],
      "series": [
        "4564e07e-6f5c-49a0-b308-4613b746573a"
      ],
      "singers": [
        "806fb145-1200-4a3d-88cb-cf0ca8aa6748"
      ],
      "songtypes": [
        "f02ad9b3-0bd9-4aad-85b3-9976739ba0e4"
      ],
      "songwriters": [
        "806fb145-1200-4a3d-88cb-cf0ca8aa6748"
      ]
    },
    "title": "Mizonokuchi Taiyou Zoku",
    "titles": {
      "qro": "Mizonokuchi Taiyou Zoku",
      "jpn": " 溝ノ口太陽族"
    },
    "year": 2008,
    "titles_default_language": "qro"
  }
}