{
  "header": {
    "version": 4,
    "description": "Karaoke Mugen Karaoke Data File"
  },
  "medias": [
    {
      "version": "Default",
      "filename": "JPN - Sakura Taisen V ~Saraba, Itoshiki Hito yo~ - GAME PS2 OP - Chijou no Senshi.mp4",
      "audiogain": -0.87,
      "loudnorm": "-18.23,-5.28,6.00,-28.32,-0.96",
      "filesize": 44936354,
      "duration": 103,
      "default": true,
      "lyrics": [
        {
          "filename": "JPN - Sakura Taisen V ~Saraba, Itoshiki Hito yo~ - GAME PS2 OP - Chijou no Senshi.ass",
          "default": true,
          "version": "Default"
        }
      ]
    }
  ],
  "data": {
    "created_at": "2020-03-27T19:56:04.424Z",
    "ignoreHooks": false,
    "kid": "107c1e27-c792-4724-813c-e6fa801c44cf",
    "modified_at": "2022-09-30T21:18:12.286Z",
    "repository": "kara.moe",
    "tags": {
      "authors": [
        "1df04771-a378-4f14-a5e1-1455187d681a"
      ],
      "collections": [
        "c7db86a0-ff64-4044-9be4-66dd1ef1d1c1"
      ],
      "creators": [
        "769af53e-df08-4cb5-9cad-7503576dee49",
        "a52f4346-91ee-49ea-9ba4-97dfd4a5057b",
        "b8a3778d-0864-4135-9053-1def02d3262e",
        "ea2c97ab-72a6-4867-a3a7-1e7f0dfbcfc6"
      ],
      "families": [
        "dbedd6b3-d125-4cd8-aa32-c4175e4ca3a3"
      ],
      "genres": [
        "f60ba57d-5ef4-49e0-b93b-d0dcbcff6592"
      ],
      "groups": [
        "3c14c864-533c-49e6-a3cc-6969f1233775"
      ],
      "langs": [
        "4dcf9614-7914-42aa-99f4-dbce2e059133"
      ],
      "platforms": [
        "2173004e-21da-45c9-9dfb-26014423c566",
        "78d46ef5-c98a-44dd-ad00-5d8c44b6271b"
      ],
      "series": [
        "0c813dbd-802b-4e77-a77a-f623ac10d610"
      ],
      "singers": [
        "080dd908-77c2-4f9e-b77c-1f79643bf255",
        "7f96e66b-6491-4e86-b594-50d0779c5aeb",
        "916814ee-17d5-4f28-a31f-e8a02503781d",
        "9e671847-c5e5-42c6-ae53-1308bfc4bafb",
        "a9cdab3f-14ef-4ddf-9163-1c2f5cac2f56"
      ],
      "songtypes": [
        "f02ad9b3-0bd9-4aad-85b3-9976739ba0e4"
      ],
      "songwriters": [
        "2461dcff-0d44-481a-9841-a8ae3e3d53db",
        "2d718c99-fcaf-494b-8216-06f2d66e66a5",
        "7cc5d197-4923-4d92-a0e8-deffcf49b1cf"
      ],
      "franchises": [
        "3843ae35-0d40-4fef-9bda-0c222c2e5682"
      ]
    },
    "titles": {
      "jpn": "地上の戦士",
      "qro": "Chijô no Senshi"
    },
    "titles_default_language": "qro",
    "title": "Chijô no Senshi",
    "year": 2005,
    "titles_aliases": [
      "Chijou"
    ]
  }
}