{
  "header": {
    "version": 4,
    "description": "Karaoke Mugen Karaoke Data File"
  },
  "medias": [
    {
      "version": "Default",
      "filename": "JPN - Dragon Crisis! - OP - Immoralist.mp4",
      "audiogain": 2.58,
      "loudnorm": "-20.05,-7.96,6.00,-30.28,-0.43",
      "filesize": 47572614,
      "duration": 92,
      "default": true,
      "lyrics": [
        {
          "filename": "JPN - Dragon Crisis! - OP - Immoralist.ass",
          "default": true,
          "version": "Default",
          "subchecksum": "4cb648473446da964204243c640a39a3"
        }
      ]
    }
  ],
  "data": {
    "created_at": "2017-10-11T17:01:24.000Z",
    "kid": "0df92b1f-09b4-4a8f-b352-ae1a7f84dfd0",
    "modified_at": "2021-02-25T11:13:15.300Z",
    "repository": "kara.moe",
    "tags": {
      "authors": [
        "5bdaba57-27f8-4568-8806-76a807728766"
      ],
      "collections": [
        "c7db86a0-ff64-4044-9be4-66dd1ef1d1c1"
      ],
      "creators": [
        "2bf7a71d-d3fc-42ba-8aa0-a94d7ca3888c"
      ],
      "families": [
        "0377db02-3af6-43b8-9b08-c759df3d25c3"
      ],
      "groups": [
        "ae613721-1fbe-480d-ba6b-d6d0702b184d"
      ],
      "langs": [
        "4dcf9614-7914-42aa-99f4-dbce2e059133"
      ],
      "origins": [
        "938de218-5343-4865-94d3-fb33f2eaa152"
      ],
      "series": [
        "8d81eb58-0467-44b9-bc82-867183d59e5d"
      ],
      "singers": [
        "a6042b25-be94-49bf-ab1b-1ba48a565df3"
      ],
      "songtypes": [
        "f02ad9b3-0bd9-4aad-85b3-9976739ba0e4"
      ],
      "songwriters": [
        "543c7417-367a-437b-9f5d-0274875e8132"
      ]
    },
    "title": "Immoralist",
    "titles": {
      "eng": "Immoralist",
      "jpn": "インモラリスト"
    },
    "year": 2010,
    "titles_default_language": "eng"
  }
}