{
  "header": {
    "version": 4,
    "description": "Karaoke Mugen Karaoke Data File"
  },
  "medias": [
    {
      "version": "Default",
      "filename": "JPN - Senran Kagura Estival Versus -Shoujotachi no Sentaku - PS4 PSV GAME OP - Sunshine Fes.mp4",
      "audiogain": 7.33,
      "loudnorm": "-23.97,-15.07,2.10,-34.13,-0.03",
      "filesize": 140977458,
      "duration": 114,
      "default": true,
      "lyrics": [
        {
          "filename": "JPN - Senran Kagura Estival Versus -Shoujotachi no Sentaku - PS4 PSV GAME OP - Sunshine Fes.ass",
          "default": true,
          "version": "Default",
          "subchecksum": "482aed0a67689dff999b5205000eb1e6"
        }
      ]
    }
  ],
  "data": {
    "created_at": "2019-03-31T21:06:40.000Z",
    "kid": "fae73fa6-8384-4bfc-a0e3-95c6c1971949",
    "modified_at": "2021-02-25T13:01:48.127Z",
    "repository": "kara.moe",
    "tags": {
      "authors": [
        "ed052207-5a5c-4ccc-af26-08b50ef2e5b3"
      ],
      "collections": [
        "c7db86a0-ff64-4044-9be4-66dd1ef1d1c1"
      ],
      "creators": [
        "17464ee5-cbb1-425f-855a-f1002962b421",
        "d9d773f2-2305-4037-9b46-bf3257e423ca"
      ],
      "families": [
        "5391f9fe-638c-415f-8dc9-958e3a2c5787",
        "dbedd6b3-d125-4cd8-aa32-c4175e4ca3a3"
      ],
      "groups": [
        "ae613721-1fbe-480d-ba6b-d6d0702b184d"
      ],
      "langs": [
        "4dcf9614-7914-42aa-99f4-dbce2e059133"
      ],
      "platforms": [
        "248d92ee-8c02-43bc-86e2-cc6029883564",
        "e791f168-068f-4c05-aa36-e8d63726aa06"
      ],
      "series": [
        "ae17b5d4-bff4-480e-ad96-1f43b8f5c7fd"
      ],
      "singers": [
        "08bfd717-9f49-4dbd-8037-5a750964fda8",
        "79976d07-c8b9-4cea-abef-3881b43ec97c"
      ],
      "songtypes": [
        "f02ad9b3-0bd9-4aad-85b3-9976739ba0e4"
      ],
      "songwriters": [
        "256fa4c2-2aa0-4d50-88cb-ba89e5728e5a",
        "79c60771-76ad-4ed5-afcd-c245d011b3c1"
      ],
      "franchises": [
        "ea72080d-f833-45bc-a278-cc1be9bf11eb"
      ]
    },
    "title": "Sunshine Fes",
    "titles": {
      "eng": "Sunshine Fes"
    },
    "year": 2015,
    "titles_default_language": "eng"
  }
}