{
  "header": {
    "version": 4,
    "description": "Karaoke Mugen Karaoke Data File"
  },
  "medias": [
    {
      "version": "Default",
      "filename": "JPN - Urusei Yatsura (2022) - ED1 - Tokyo.Shandy.Rendez-vous.mp4",
      "audiogain": -2.84,
      "loudnorm": "-14.52,-4.92,4.40,-24.58,-1.30",
      "filesize": 37476970,
      "duration": 90,
      "default": true,
      "lyrics": [
        {
          "filename": "JPN - Urusei Yatsura (2022) - ED1 - Tokyo.Shandy.Rendez-vous.ass",
          "default": true,
          "version": "Default"
        }
      ]
    }
  ],
  "data": {
    "created_at": "2022-10-21T19:45:31.936Z",
    "ignoreHooks": false,
    "kid": "8f256c2b-95cf-48a4-b247-45cd85469ea6",
    "modified_at": "2022-10-21T21:42:48.861Z",
    "repository": "kara.moe",
    "songorder": 1,
    "tags": {
      "authors": [
        "1df04771-a378-4f14-a5e1-1455187d681a"
      ],
      "collections": [
        "c7db86a0-ff64-4044-9be4-66dd1ef1d1c1"
      ],
      "creators": [
        "31087ed3-5edd-4d32-8379-ab70bf5db185"
      ],
      "families": [
        "0377db02-3af6-43b8-9b08-c759df3d25c3"
      ],
      "groups": [
        "8e209ae4-4381-438f-89dc-1b21752027d2"
      ],
      "langs": [
        "4dcf9614-7914-42aa-99f4-dbce2e059133"
      ],
      "misc": [
        "fe819ff1-9db8-4a0f-85dc-0e322c9126c4"
      ],
      "origins": [
        "938de218-5343-4865-94d3-fb33f2eaa152"
      ],
      "series": [
        "08379702-f5a0-40ae-8bf9-cc680d30b10b"
      ],
      "singers": [
        "34fd5f54-8fd9-4a0e-b8eb-5653e21b03ec",
        "d6dec49a-04e3-4fa6-86e8-d4bb8f911f52",
        "07c4cdd6-c620-42ac-ba7b-7c291be59aa5"
      ],
      "songtypes": [
        "38c77c56-2b95-4040-b676-0994a8cb0597"
      ],
      "songwriters": [
        "07c4cdd6-c620-42ac-ba7b-7c291be59aa5"
      ],
      "franchises": [
        "586300dc-7488-4530-8d86-e7db5e474dec"
      ]
    },
    "titles": {
      "jpn": "トウキョウ・シャンディ・ランデヴ",
      "qro": "Tokyo・Shandy・Rendez-vous"
    },
    "titles_default_language": "qro",
    "titles_aliases": [
      "Rendezvous"
    ],
    "title": "Tokyo・Shandy・Rendez-vous",
    "year": 2022
  }
}