{
  "header": {
    "version": 4,
    "description": "Karaoke Mugen Karaoke Data File"
  },
  "medias": [
    {
      "version": "Default",
      "filename": "JPN - BiS - MV - Paprika.mp4",
      "audiogain": -6.79,
      "loudnorm": "-9.06,0.89,2.30,-19.21,-0.98",
      "filesize": 42035146,
      "duration": 229,
      "default": true,
      "lyrics": [
        {
          "filename": "JPN - BiS - MV - Paprika.ass",
          "default": true,
          "version": "Default"
        }
      ]
    }
  ],
  "data": {
    "created_at": "2019-07-21T18:16:42.000Z",
    "kid": "8ffe3d70-0c4e-4094-a1c1-949fc15804fe",
    "modified_at": "2022-06-04T00:19:03.904Z",
    "repository": "kara.moe",
    "songorder": null,
    "tags": {
      "authors": [
        "6dbda234-2ff7-481d-8d83-c275a9fd7bee"
      ],
      "creators": [
        "9351f9b9-3f7c-4b2b-939e-f1f575f6517a"
      ],
      "families": [
        "5391f9fe-638c-415f-8dc9-958e3a2c5787"
      ],
      "groups": [
        "2b4e9972-5e17-481b-99f5-d0787c0ada56",
        "ae613721-1fbe-480d-ba6b-d6d0702b184d"
      ],
      "langs": [
        "4dcf9614-7914-42aa-99f4-dbce2e059133"
      ],
      "singers": [
        "597d6d9d-37af-47b7-b531-86911595ee1e"
      ],
      "songtypes": [
        "7be1b15c-cff8-4b37-a649-5c90f3d569a9"
      ],
      "collections": [
        "dbcf2c22-524d-4708-99bb-601703633927"
      ]
    },
    "titles": {
      "eng": "Paprika",
      "jpn": "パプリカ"
    },
    "titles_default_language": "eng",
    "title": "Paprika",
    "year": 2011
  }
}