{
  "header": {
    "version": 4,
    "description": "Karaoke Mugen Karaoke Data File"
  },
  "medias": [
    {
      "version": "Default",
      "filename": "JPN - Astel Leda, Ollie Kureiji - MV - Okochama Sensou ~ Cover Vers.mp4",
      "audiogain": -2.5,
      "loudnorm": "-14.05,-0.85,3.60,-24.10,-0.47",
      "filesize": 70318572,
      "duration": 220,
      "default": true,
      "lyrics": [
        {
          "filename": "JPN - Astel Leda, Ollie Kureiji - MV - Okochama Sensou ~ Cover Vers.ass",
          "default": true,
          "version": "Default"
        }
      ]
    }
  ],
  "data": {
    "created_at": "2022-01-18T23:20:28.217Z",
    "ignoreHooks": false,
    "kid": "24311348-8d18-4dc7-9c10-cc0b25620519",
    "modified_at": "2023-02-05T12:41:15.708Z",
    "parents": [
      "ba8faecc-d6e7-47fa-a608-1268ce7d43da"
    ],
    "repository": "kara.moe",
    "tags": {
      "authors": [
        "4b50fcec-273e-4cc5-83f2-b156c2300f7f"
      ],
      "collections": [
        "c7db86a0-ff64-4044-9be4-66dd1ef1d1c1"
      ],
      "creators": [
        "0263d413-17bb-4cee-a311-6dd896eda1c9"
      ],
      "families": [
        "0377db02-3af6-43b8-9b08-c759df3d25c3"
      ],
      "groups": [
        "8e209ae4-4381-438f-89dc-1b21752027d2"
      ],
      "langs": [
        "4dcf9614-7914-42aa-99f4-dbce2e059133"
      ],
      "misc": [
        "1d6ceadf-a885-47e5-b23b-c07bf668a424"
      ],
      "origins": [
        "5106d71b-a78e-4d19-a16d-f8fb6719538a"
      ],
      "singers": [
        "6cc434e0-1838-4fe1-9b2b-02252afe3c19",
        "bd5627fa-60ed-4960-a166-912747d3511e"
      ],
      "songtypes": [
        "7be1b15c-cff8-4b37-a649-5c90f3d569a9"
      ],
      "songwriters": [
        "466ad700-8ba6-4dea-80a7-c0b763548a72",
        "ff1aec1d-751a-40ff-bbff-a3f0fd5e9749"
      ],
      "versions": [
        "03e1e1d2-8641-47b7-bbcb-39a3df9ff21c"
      ]
    },
    "titles": {
      "eng": "Kiddie War",
      "jpn": "おこちゃま戦争",
      "qro": "Okochama Sensô"
    },
    "titles_default_language": "qro",
    "titles_aliases": [
      "Childish War",
      "Sensou"
    ],
    "year": 2021
  }
}