{
  "header": {
    "version": 4,
    "description": "Karaoke Mugen Karaoke Data File"
  },
  "medias": [
    {
      "version": "Default",
      "filename": "JPN - Tommy february6 - MV - Je t'aime je t'aime.mp4",
      "audiogain": 1.81,
      "loudnorm": "-18.95,-7.17,2.60,-29.01,-0.94",
      "filesize": 15678391,
      "duration": 302,
      "default": true,
      "lyrics": [
        {
          "filename": "JPN - Tommy february6 - MV - Je t'aime je t'aime.ass",
          "default": true,
          "version": "Default"
        }
      ]
    }
  ],
  "data": {
    "created_at": "2022-02-20T20:59:48.815Z",
    "kid": "65de995c-772c-4b6a-a21e-5bbfea215819",
    "modified_at": "2022-06-04T00:17:28.634Z",
    "repository": "kara.moe",
    "songorder": null,
    "tags": {
      "authors": [
        "1d7745a8-73ea-40bb-ad99-826af98f6e41"
      ],
      "creators": [
        "566082ee-060d-4470-ac6f-4a537a50a613"
      ],
      "families": [
        "5391f9fe-638c-415f-8dc9-958e3a2c5787"
      ],
      "groups": [
        "3c14c864-533c-49e6-a3cc-6969f1233775"
      ],
      "langs": [
        "4dcf9614-7914-42aa-99f4-dbce2e059133"
      ],
      "misc": [
        "86705d4b-24e4-4756-9687-2b9c98bcf366"
      ],
      "singers": [
        "bea215fe-12b4-4e98-8c20-4eab3660b480"
      ],
      "songtypes": [
        "7be1b15c-cff8-4b37-a649-5c90f3d569a9"
      ],
      "songwriters": [
        "88199ab7-04de-4e21-a725-342e283be5e5",
        "9338742e-d0c9-41e3-aa87-79c82b622d11"
      ],
      "collections": [
        "dbcf2c22-524d-4708-99bb-601703633927"
      ]
    },
    "titles": {
      "fre": "Je t'aime ★ je t'aime"
    },
    "titles_default_language": "fre",
    "title": "Je t'aime ★ je t'aime",
    "year": 2003
  }
}