{
  "header": {
    "version": 4,
    "description": "Karaoke Mugen Karaoke Data File"
  },
  "medias": [
    {
      "version": "Default",
      "filename": "JPN - Tenkuu no Escaflowne - LIVE - Yakusoku wa iranai ~ Full Vers.mp4",
      "audiogain": -10.27,
      "loudnorm": "-7.34,5.86,6.20,-17.77,-1.48",
      "filesize": 131681917,
      "duration": 234,
      "default": true,
      "lyrics": [
        {
          "filename": "JPN - Tenkuu no Escaflowne - LIVE - Yakusoku wa iranai ~ Full Vers.ass",
          "default": true,
          "version": "Default"
        }
      ]
    }
  ],
  "data": {
    "created_at": "2020-01-12T22:38:09.761Z",
    "ignoreHooks": false,
    "kid": "5c8d9c21-386e-4f0f-bc00-30b0ef527a2e",
    "modified_at": "2022-12-21T22:36:32.816Z",
    "parents": [
      "774e98dd-74c9-43e3-afbc-8673eb7e753c"
    ],
    "repository": "kara.moe",
    "tags": {
      "authors": [
        "1db1738f-acdc-42fc-aec3-60f4bddf660d"
      ],
      "collections": [
        "dbcf2c22-524d-4708-99bb-601703633927"
      ],
      "creators": [
        "e8da43a3-7058-4162-9d31-2f331dee993e"
      ],
      "families": [
        "5391f9fe-638c-415f-8dc9-958e3a2c5787"
      ],
      "groups": [
        "24db50aa-a126-4d34-a48a-e45db79c4245"
      ],
      "langs": [
        "4dcf9614-7914-42aa-99f4-dbce2e059133"
      ],
      "series": [
        "299459ba-c7d1-4d66-9545-0725f92102b3"
      ],
      "singers": [
        "1e93160f-11bb-4d02-b716-4660cb29206e"
      ],
      "songtypes": [
        "a0167949-580c-4de3-bf13-497e462e02f3"
      ],
      "songwriters": [
        "97fbc0b6-6408-4273-bdb4-0c900e0ac945",
        "af0be06d-ea2d-4f46-85d1-58cf9f42532a"
      ],
      "versions": [
        "c2143a7f-6970-450e-8a79-0302db9220a9"
      ],
      "franchises": [
        "299459ba-c7d1-4d66-9545-0725f92102b3"
      ]
    },
    "titles": {
      "jpn": "約束はいらない",
      "qro": "Yakusoku wa iranai"
    },
    "titles_default_language": "qro",
    "year": 1996
  }
}