{
  "header": {
    "version": 4,
    "description": "Karaoke Mugen Karaoke Data File"
  },
  "medias": [
    {
      "version": "Default",
      "filename": "JPN - BTOB - MV - Natsuiro MY GIRL.mp4",
      "audiogain": -10.16,
      "loudnorm": "-6.06,3.29,2.20,-16.25,-0.42",
      "filesize": 121849698,
      "duration": 255,
      "default": true,
      "lyrics": [
        {
          "filename": "JPN - BTOB - MV - Natsuiro MY GIRL.ass",
          "default": true,
          "version": "Default"
        }
      ]
    }
  ],
  "data": {
    "created_at": "2019-10-06T21:02:07.000Z",
    "kid": "74f8eb02-eb03-4cd7-bb1e-56abe4e7ee95",
    "modified_at": "2022-05-26T16:18:56.487Z",
    "repository": "kara.moe",
    "songorder": null,
    "tags": {
      "authors": [
        "622e2a6d-e4e8-4ff5-b218-890e8d7a3abf"
      ],
      "creators": [
        "0635fc01-24ee-40db-b419-7b9c81f23b0c"
      ],
      "families": [
        "5391f9fe-638c-415f-8dc9-958e3a2c5787"
      ],
      "groups": [
        "2b4e9972-5e17-481b-99f5-d0787c0ada56",
        "ae613721-1fbe-480d-ba6b-d6d0702b184d"
      ],
      "langs": [
        "4dcf9614-7914-42aa-99f4-dbce2e059133"
      ],
      "singers": [
        "e29ca23d-958f-47c3-892c-605e38dd0b41"
      ],
      "songtypes": [
        "7be1b15c-cff8-4b37-a649-5c90f3d569a9"
      ],
      "songwriters": [
        "350c41e1-b239-4aa7-bee8-a9ec23295a01",
        "3c0c5405-c669-4daa-8a2b-28db305d1a49",
        "53f485f4-aad4-4859-94f3-7b96fbf50746",
        "544038b8-f71e-40f1-ae90-b5502a0e1bad"
      ],
      "collections": [
        "dbcf2c22-524d-4708-99bb-601703633927"
      ]
    },
    "titles": {
      "qro": "Natsuiro MY GIRL",
      "jpn": "夏色 MY GIRL"
    },
    "titles_default_language": "qro",
    "title": "Natsuiro MY GIRL",
    "year": 2015
  }
}