{
  "header": {
    "version": 4,
    "description": "Karaoke Mugen Karaoke Data File"
  },
  "medias": [
    {
      "version": "Default",
      "filename": "JPN - Love Live! School Idol Festival ~after school ACTIVITY~ Wai Wai! Home Meeting!! - GAME PS4 MV - G Senjou no Cinderella ~ Short Vers.mp4",
      "audiogain": -1.13,
      "loudnorm": "-17.03,-7.25,6.80,-27.17,-1.04",
      "filesize": 151091674,
      "duration": 112,
      "default": true,
      "lyrics": [
        {
          "filename": "JPN - Love Live! School Idol Festival ~after school ACTIVITY~ Wai Wai! Home Meeting!! - GAME PS4 MV - G Senjou no Cinderella ~ Short Vers.ass",
          "default": true,
          "version": "Default"
        }
      ]
    }
  ],
  "data": {
    "created_at": "2022-11-15T15:39:34.385Z",
    "ignoreHooks": false,
    "kid": "8c4cd2c5-0778-41bb-a01a-017f53351042",
    "modified_at": "2022-11-15T15:39:34.753Z",
    "repository": "kara.moe",
    "tags": {
      "authors": [
        "278c6742-0b75-43dd-b317-2ea112952b4a"
      ],
      "collections": [
        "c7db86a0-ff64-4044-9be4-66dd1ef1d1c1"
      ],
      "creators": [
        "ac4a5180-97af-4679-adcd-70ab39919d48"
      ],
      "families": [
        "dbedd6b3-d125-4cd8-aa32-c4175e4ca3a3"
      ],
      "genres": [
        "caa86df2-0d59-474b-885c-f240a9e891b0"
      ],
      "groups": [
        "8e209ae4-4381-438f-89dc-1b21752027d2",
        "8c22c899-b3ed-42da-a548-ce00f950798b"
      ],
      "langs": [
        "4dcf9614-7914-42aa-99f4-dbce2e059133"
      ],
      "platforms": [
        "248d92ee-8c02-43bc-86e2-cc6029883564"
      ],
      "series": [
        "a26f6db0-a254-4c11-b9d4-4bb80b96e294"
      ],
      "singers": [
        "2dcdc517-a816-496e-8bc8-8ce976e608c4",
        "9cd8d2dd-4328-4186-9d11-d5b021ae9fc0",
        "e3ef4054-6292-4b5f-ad14-1008bae5e375"
      ],
      "singergroups": [
        "b34161c7-a60d-4f1a-8436-11abc0875436"
      ],
      "songtypes": [
        "7be1b15c-cff8-4b37-a649-5c90f3d569a9"
      ],
      "songwriters": [
        "f41e7218-6c19-4e19-9b5f-4612dcd58243",
        "518da0d5-ef02-4b63-b44e-0c0d6f747abd",
        "43fde0c2-f502-463b-90d5-91cb357378e5"
      ],
      "versions": [
        "d125c80a-86c1-4321-88e9-07b7800679b6"
      ],
      "franchises": [
        "fd5d066e-e85a-4eea-8688-2979a887450a"
      ]
    },
    "titles": {
      "jpn": "G線上のシンデレラ",
      "qro": "G Senjou no Cinderella"
    },
    "titles_default_language": "qro",
    "year": 2021
  }
}