{
  "header": {
    "version": 4,
    "description": "Karaoke Mugen Karaoke Data File"
  },
  "medias": [
    {
      "version": "2019.",
      "filename": "JPN - Touken Ranbu ONLINE - GAME PC OP - Mugen Ranbu Shou ~ 2019 Vers. ~ Alternative Vers.mp4",
      "audiogain": -2.57,
      "loudnorm": "-15.37,-6.62,12.40,-25.87,-1.23",
      "filesize": 14969504,
      "duration": 98,
      "default": true,
      "lyrics": [
        {
          "filename": "JPN - Touken Ranbu ONLINE - GAME PC OP - Mugen Ranbu Shou ~ 2019 Vers. ~ Alternative Vers.ass",
          "default": true,
          "version": "Default"
        }
      ]
    }
  ],
  "data": {
    "created_at": "2019-02-23T23:49:48.000Z",
    "ignoreHooks": false,
    "kid": "ce6f4c69-09fb-48de-b1e3-f729f46f7d03",
    "modified_at": "2022-09-30T20:31:36.701Z",
    "parents": [
      "58bbbb20-deb1-4351-93a5-60d5309823ab"
    ],
    "repository": "kara.moe",
    "tags": {
      "authors": [
        "2a9bbf75-0722-4b4a-9935-caa92f38fdd1"
      ],
      "collections": [
        "c7db86a0-ff64-4044-9be4-66dd1ef1d1c1"
      ],
      "creators": [
        "72ca15b9-a0e2-4bae-a5a6-f58f7766cbb8",
        "d8c36618-4baf-4969-a667-188a901a1f00"
      ],
      "families": [
        "dbedd6b3-d125-4cd8-aa32-c4175e4ca3a3"
      ],
      "groups": [
        "ae613721-1fbe-480d-ba6b-d6d0702b184d"
      ],
      "langs": [
        "4dcf9614-7914-42aa-99f4-dbce2e059133"
      ],
      "platforms": [
        "3c15f758-e1bc-4266-8bb9-3c14112f504a"
      ],
      "series": [
        "2a6cd521-5e0c-4396-b2b2-c2098ad45657"
      ],
      "singers": [
        "8651cd14-85ae-4abd-a6f0-a32cccb9a503"
      ],
      "songtypes": [
        "f02ad9b3-0bd9-4aad-85b3-9976739ba0e4"
      ],
      "songwriters": [
        "6a222786-1216-488e-a45c-e54d4fa413fa",
        "732c6ea7-d746-4ae5-abe8-387085eac132"
      ],
      "versions": [
        "9f63c359-d1bf-425a-bcf5-b245c2c9211d"
      ],
      "franchises": [
        "336ce106-4e79-4359-b272-a01ccaf06e6d"
      ]
    },
    "titles": {
      "jpn": "夢現乱舞抄 ~ 2019 Vers.",
      "qro": "Mugen Ranbu Shô ~ 2019 Vers."
    },
    "titles_default_language": "qro",
    "title": "Mugen Ranbu Shô ~ 2019 Vers.",
    "year": 2019,
    "titles_aliases": [
      "Shou"
    ]
  }
}