{
  "header": {
    "version": 4,
    "description": "Karaoke Mugen Karaoke Data File"
  },
  "medias": [
    {
      "version": "Default",
      "filename": "JPN - Lodoss-tou senki Eiyuu Kishi Den - AUDIO OP - Kiseki no Umi ~ Full Vers.mp3",
      "audiogain": -8.87,
      "loudnorm": "-7.61,0.72,5.90,-18.40,-0.58",
      "filesize": 5823278,
      "duration": 260,
      "default": true,
      "lyrics": [
        {
          "filename": "JPN - Lodoss-tou senki Eiyuu Kishi Den - AUDIO OP - Kiseki no Umi ~ Full Vers.ass",
          "default": true,
          "version": "Default"
        }
      ]
    }
  ],
  "data": {
    "created_at": "2018-08-24T09:17:16.000Z",
    "ignoreHooks": false,
    "kid": "446a9b2b-83ac-4c79-ae05-161391a26c32",
    "modified_at": "2022-12-22T16:08:52.104Z",
    "parents": [
      "6170c77f-b9ae-42eb-b664-9b0811be11b3"
    ],
    "repository": "kara.moe",
    "tags": {
      "authors": [
        "1db1738f-acdc-42fc-aec3-60f4bddf660d",
        "fa399f2f-ea1d-4902-8796-ea6d8218aff0"
      ],
      "collections": [
        "c7db86a0-ff64-4044-9be4-66dd1ef1d1c1"
      ],
      "creators": [
        "e8da43a3-7058-4162-9d31-2f331dee993e"
      ],
      "groups": [
        "24db50aa-a126-4d34-a48a-e45db79c4245"
      ],
      "langs": [
        "4dcf9614-7914-42aa-99f4-dbce2e059133"
      ],
      "series": [
        "f0c79d94-ba79-42f3-a0ee-e4973f120b43"
      ],
      "singers": [
        "1e93160f-11bb-4d02-b716-4660cb29206e"
      ],
      "songtypes": [
        "42a262ae-acba-4ab5-a446-c5789c96c821",
        "f02ad9b3-0bd9-4aad-85b3-9976739ba0e4"
      ],
      "songwriters": [
        "97fbc0b6-6408-4273-bdb4-0c900e0ac945",
        "af0be06d-ea2d-4f46-85d1-58cf9f42532a"
      ],
      "versions": [
        "c2143a7f-6970-450e-8a79-0302db9220a9"
      ],
      "franchises": [
        "ddd2e2c9-9be3-4c6b-91aa-4e942cbe13e6"
      ]
    },
    "titles": {
      "jpn": "奇跡の海",
      "qro": "Kiseki no Umi"
    },
    "titles_default_language": "qro",
    "year": 1998
  }
}