{
  "header": {
    "version": 4,
    "description": "Karaoke Mugen Karaoke Data File"
  },
  "medias": [
    {
      "version": "Full.",
      "filename": "JPN - Naruto - AUDIO ED5 - Ima made Nando mo ~ Full Vers.mp3",
      "audiogain": -9.03,
      "loudnorm": "-8.89,1.63,7.60,-19.11,-1.16",
      "filesize": 4552518,
      "duration": 280,
      "default": true,
      "lyrics": [
        {
          "filename": "JPN - Naruto - AUDIO ED5 - Ima made Nando mo ~ Full Vers.ass",
          "default": true,
          "version": "Default",
          "subchecksum": "2c9a9d37efd35242c4dbc817c123610e"
        }
      ]
    }
  ],
  "data": {
    "created_at": "2020-08-16T14:30:36.182Z",
    "kid": "5ebd1082-2748-445e-b529-bcbf541cc892",
    "modified_at": "2021-05-23T22:38:25.295Z",
    "parents": [
      "060bb7a3-5c70-40ad-9435-d736e2adf4b9"
    ],
    "repository": "kara.moe",
    "songorder": 5,
    "tags": {
      "authors": [
        "70e26885-c0b5-4a01-b95b-2f492b8a8f10"
      ],
      "collections": [
        "c7db86a0-ff64-4044-9be4-66dd1ef1d1c1"
      ],
      "creators": [
        "6fa9de67-21cf-420b-9ddb-57edb5abe523"
      ],
      "genres": [
        "a0aeef4a-6428-45ff-a6e1-468b595930c2"
      ],
      "groups": [
        "3c14c864-533c-49e6-a3cc-6969f1233775"
      ],
      "langs": [
        "4dcf9614-7914-42aa-99f4-dbce2e059133"
      ],
      "origins": [
        "938de218-5343-4865-94d3-fb33f2eaa152"
      ],
      "series": [
        "3201e723-3e75-46f9-bb21-d991f4f7731e"
      ],
      "singers": [
        "b24ff8be-bdf7-44f4-9cca-44ed6da15745"
      ],
      "songtypes": [
        "38c77c56-2b95-4040-b676-0994a8cb0597",
        "42a262ae-acba-4ab5-a446-c5789c96c821"
      ],
      "songwriters": [
        "c403c230-3bfe-447b-9afa-a925b6bb82ee"
      ],
      "versions": [
        "c2143a7f-6970-450e-8a79-0302db9220a9"
      ],
      "franchises": [
        "3201e723-3e75-46f9-bb21-d991f4f7731e"
      ]
    },
    "title": "Ima made Nando mo",
    "titles": {
      "qro": "Ima made Nando mo",
      "jpn": "今まで何度も"
    },
    "year": 2004,
    "titles_default_language": "qro"
  }
}