{
  "header": {
    "version": 4,
    "description": "Karaoke Mugen Karaoke Data File"
  },
  "medias": [
    {
      "version": "Merami.",
      "filename": "JPN - Higurashi no Naku Koro ni - REMIX AUDIO - Noble (Dear You -Thanks-) ~ Merami Vers. ~ Cover Vers.mp3",
      "audiogain": -4.82,
      "loudnorm": "-13.06,-4.36,10.10,-23.35,-0.37",
      "filesize": 13454370,
      "duration": 328,
      "default": true,
      "lyrics": [
        {
          "filename": "JPN - Higurashi no Naku Koro ni - REMIX AUDIO - Noble (Dear You -Thanks-) ~ Merami Vers. ~ Cover Vers.ass",
          "default": true,
          "version": "Default",
          "subchecksum": "b012328fabc4ec06a3e2ae4ec28e38ab"
        }
      ]
    }
  ],
  "data": {
    "created_at": "2020-07-12T20:40:58.794Z",
    "kid": "7d054f27-434c-47fc-a0f9-7d6b8411c094",
    "modified_at": "2021-05-15T16:29:07.493Z",
    "parents": [
      "f13527ae-5b6a-4f67-8581-b493c9712405"
    ],
    "repository": "kara.moe",
    "tags": {
      "authors": [
        "1c9f3b53-973d-419e-9e29-9067c9896139",
        "87096920-112f-485f-a310-04156cb4624d"
      ],
      "collections": [
        "c7db86a0-ff64-4044-9be4-66dd1ef1d1c1"
      ],
      "creators": [
        "118022d4-b72b-42d1-a814-c031d53bebd2"
      ],
      "groups": [
        "60defa7b-774e-4680-8321-51b742c2e009",
        "ae613721-1fbe-480d-ba6b-d6d0702b184d"
      ],
      "langs": [
        "4dcf9614-7914-42aa-99f4-dbce2e059133"
      ],
      "misc": [
        "86705d4b-24e4-4756-9687-2b9c98bcf366",
        "ec4360fa-3e3c-4f6f-b0e1-fb8b12b6dd18"
      ],
      "series": [
        "8a181299-0e1a-4678-9ca3-c7f01023a78f"
      ],
      "singers": [
        "3f9424ef-88f8-4829-91c7-827a28d9420c"
      ],
      "songtypes": [
        "42a262ae-acba-4ab5-a446-c5789c96c821"
      ],
      "songwriters": [
        "695b8c03-b9af-46c3-aac3-463bd341c4ba"
      ],
      "versions": [
        "03e1e1d2-8641-47b7-bbcb-39a3df9ff21c"
      ],
      "franchises": [
        "8050c613-375d-400c-983a-6578b5c6ca96"
      ]
    },
    "title": "Noble (Dear You -Thanks-) ~ Merami Vers.",
    "titles": {
      "eng": "Noble (Dear You -Thanks-) ~ Merami Vers."
    },
    "year": 2011,
    "titles_default_language": "eng"
  }
}