{
  "header": {
    "version": 4,
    "description": "Karaoke Mugen Karaoke Data File"
  },
  "medias": [
    {
      "version": "Default",
      "filename": "JPN - Touhou - MV - Bad Apple but it runs on an Atari 800 ~ 8-bit Off Vocal Vers.mp4",
      "audiogain": 0.89,
      "loudnorm": "-17.24,-5.11,2.50,-27.29,-0.60",
      "filesize": 10839185,
      "duration": 243,
      "default": true,
      "lyrics": [
        {
          "filename": "JPN - Touhou - MV - Bad Apple but it runs on an Atari 800 ~ 8-bit Off Vocal Vers.ass",
          "default": true,
          "version": "Default"
        }
      ]
    }
  ],
  "data": {
    "created_at": "2021-04-13T09:50:38.971Z",
    "ignoreHooks": false,
    "kid": "181b14de-a177-4a0a-a451-8b9d9f883ba9",
    "modified_at": "2023-01-30T16:18:43.956Z",
    "parents": [
      "c8e61289-31fd-430a-8a56-f0ed95f84d50"
    ],
    "repository": "kara.moe",
    "tags": {
      "authors": [
        "b2bacb3f-542c-44d2-af9b-cd78c1dd4b70"
      ],
      "collections": [
        "c7db86a0-ff64-4044-9be4-66dd1ef1d1c1"
      ],
      "creators": [
        "49781b50-ce01-4ad9-b3ca-d5466e2eb2cc",
        "d57e7ffa-d32f-41d8-b909-5b10126283f4"
      ],
      "families": [
        "0377db02-3af6-43b8-9b08-c759df3d25c3"
      ],
      "groups": [
        "8c22c899-b3ed-42da-a548-ce00f950798b",
        "ae613721-1fbe-480d-ba6b-d6d0702b184d"
      ],
      "langs": [
        "4dcf9614-7914-42aa-99f4-dbce2e059133"
      ],
      "origins": [
        "ac5085db-52d8-44b4-8fbb-1697b24d2046"
      ],
      "series": [
        "1bdaa5a1-dfa6-4365-b746-7a0b194dafd6"
      ],
      "songtypes": [
        "7be1b15c-cff8-4b37-a649-5c90f3d569a9"
      ],
      "songwriters": [
        "161b51ee-adbb-4e39-84c6-bde865a368bf",
        "26cb5252-8510-49e0-897c-a611a05fc056",
        "9607f3c8-c583-4471-9075-308f46745afd"
      ],
      "versions": [
        "43bcb0de-05a9-4293-8264-aaad42d4934d",
        "c0cc87b9-55b9-40f0-878a-fbb9e34c151e",
        "d125c80a-86c1-4321-88e9-07b7800679b6"
      ],
      "franchises": [
        "1bdaa5a1-dfa6-4365-b746-7a0b194dafd6"
      ]
    },
    "titles": {
      "eng": "Bad Apple but it runs on an Atari 800"
    },
    "titles_default_language": "eng",
    "year": 2017
  }
}