{
  "header": {
    "version": 4,
    "description": "Karaoke Mugen Karaoke Data File"
  },
  "medias": [
    {
      "version": "Default",
      "filename": "JPN - No Game No Life - OP - This game.mp4",
      "audiogain": -0.11,
      "loudnorm": "-16.46,-6.10,3.10,-26.80,-1.28",
      "filesize": 73788293,
      "duration": 91,
      "default": true,
      "lyrics": [
        {
          "filename": "JPN - No Game No Life - OP - This game.ass",
          "default": true,
          "version": "Default"
        }
      ]
    }
  ],
  "data": {
    "created_at": "2017-10-11T17:01:37.000Z",
    "ignoreHooks": false,
    "kid": "62ffc54c-08f9-466e-8e38-2e60bd97721c",
    "modified_at": "2022-12-13T00:04:30.611Z",
    "repository": "kara.moe",
    "tags": {
      "authors": [
        "5a629611-96b4-422c-b309-ba7a58e263a2",
        "a3a99b23-6c42-4d38-8863-491153187437"
      ],
      "collections": [
        "c7db86a0-ff64-4044-9be4-66dd1ef1d1c1"
      ],
      "creators": [
        "9c5cf6ba-0bc8-4cfe-a63c-e9be3a14e9fd"
      ],
      "families": [
        "0377db02-3af6-43b8-9b08-c759df3d25c3"
      ],
      "genres": [
        "4b80eca6-f44f-4262-a8d0-b6879d6b70cb"
      ],
      "groups": [
        "ae613721-1fbe-480d-ba6b-d6d0702b184d"
      ],
      "langs": [
        "4dcf9614-7914-42aa-99f4-dbce2e059133"
      ],
      "origins": [
        "938de218-5343-4865-94d3-fb33f2eaa152"
      ],
      "series": [
        "35e953bf-1920-49e4-a9c3-57d62eadb133"
      ],
      "singers": [
        "c2fef8d8-1e8e-427a-9a5c-769d661c8fed"
      ],
      "songtypes": [
        "f02ad9b3-0bd9-4aad-85b3-9976739ba0e4"
      ],
      "songwriters": [
        "141fdefe-8346-413a-82ad-a21b9871dbfd",
        "595dd7ad-6df3-4757-94b3-4014f25dee23"
      ],
      "franchises": [
        "35e953bf-1920-49e4-a9c3-57d62eadb133"
      ]
    },
    "titles": {
      "eng": "This game"
    },
    "titles_default_language": "eng",
    "year": 2014
  }
}