{
  "header": {
    "version": 4,
    "description": "Karaoke Mugen Karaoke Data File"
  },
  "medias": [
    {
      "version": "Default",
      "filename": "JPN - Touhou - REMIX MV - Sakkyun Light ~ Alternative Vers.mp4",
      "audiogain": -10.98,
      "loudnorm": "-7.38,0.53,2.60,-17.44,-0.06",
      "filesize": 21981975,
      "duration": 236,
      "default": true,
      "lyrics": [
        {
          "filename": "JPN - Touhou - REMIX MV - Sakkyun Light ~ Alternative Vers.ass",
          "default": true,
          "version": "Default"
        }
      ]
    }
  ],
  "data": {
    "created_at": "2022-09-18T17:10:03.266Z",
    "ignoreHooks": false,
    "kid": "f52b39cb-81ea-4c2d-a65f-577e9511b48f",
    "modified_at": "2022-10-01T23:23:38.062Z",
    "parents": [
      "72f5cfda-2469-48ac-b8db-d8c2661421c7"
    ],
    "repository": "kara.moe",
    "tags": {
      "authors": [
        "1fbfef73-6731-40df-ba51-65a54b9d1605"
      ],
      "collections": [
        "c7db86a0-ff64-4044-9be4-66dd1ef1d1c1"
      ],
      "creators": [
        "ad4c9a45-6385-48ff-9468-1a056c486239"
      ],
      "families": [
        "0377db02-3af6-43b8-9b08-c759df3d25c3"
      ],
      "groups": [
        "ae613721-1fbe-480d-ba6b-d6d0702b184d"
      ],
      "langs": [
        "4dcf9614-7914-42aa-99f4-dbce2e059133"
      ],
      "misc": [
        "ec4360fa-3e3c-4f6f-b0e1-fb8b12b6dd18"
      ],
      "origins": [
        "ac5085db-52d8-44b4-8fbb-1697b24d2046"
      ],
      "series": [
        "1bdaa5a1-dfa6-4365-b746-7a0b194dafd6"
      ],
      "singers": [
        "4cb575ae-a999-4234-9417-31580bcfab94"
      ],
      "songtypes": [
        "7be1b15c-cff8-4b37-a649-5c90f3d569a9"
      ],
      "songwriters": [
        "1beb86fb-499b-412b-833d-3b8d5db091b0",
        "26cb5252-8510-49e0-897c-a611a05fc056",
        "ad4c9a45-6385-48ff-9468-1a056c486239"
      ],
      "versions": [
        "9f63c359-d1bf-425a-bcf5-b245c2c9211d"
      ],
      "franchises": [
        "1bdaa5a1-dfa6-4365-b746-7a0b194dafd6"
      ]
    },
    "titles": {
      "jpn": "さっきゅんライト ",
      "qro": "Sakkyun Light"
    },
    "titles_default_language": "qro",
    "title": "Sakkyun Light",
    "year": 2010
  }
}