{
  "header": {
    "version": 4,
    "description": "Karaoke Mugen Karaoke Data File"
  },
  "medias": [
    {
      "version": "Default",
      "filename": "JPN - Naruto Shippuuden - OP5 - Hotaru no Hikari.mp4",
      "audiogain": -10.37,
      "loudnorm": "-8.10,1.99,4.40,-18.13,-0.81",
      "filesize": 46502772,
      "duration": 93,
      "default": true,
      "lyrics": [
        {
          "filename": "JPN - Naruto Shippuuden - OP5 - Hotaru no Hikari.ass",
          "default": true,
          "version": "Default",
          "subchecksum": "33d98244289887ca1e1815ed96a9c0e8"
        }
      ]
    }
  ],
  "data": {
    "created_at": "2017-10-11T17:01:31.000Z",
    "kid": "7ed287bf-ffea-4f2b-88db-a2636f179feb",
    "modified_at": "2021-02-25T12:34:24.678Z",
    "repository": "kara.moe",
    "songorder": 5,
    "tags": {
      "authors": [
        "faa8becc-83b6-45d9-a3d0-a4c2c8b336c8"
      ],
      "collections": [
        "c7db86a0-ff64-4044-9be4-66dd1ef1d1c1"
      ],
      "creators": [
        "aaff4ba6-9a12-4bac-9bd0-c0cb783e4177"
      ],
      "families": [
        "0377db02-3af6-43b8-9b08-c759df3d25c3"
      ],
      "genres": [
        "a0aeef4a-6428-45ff-a6e1-468b595930c2"
      ],
      "groups": [
        "3c14c864-533c-49e6-a3cc-6969f1233775"
      ],
      "langs": [
        "4dcf9614-7914-42aa-99f4-dbce2e059133"
      ],
      "misc": [
        "fe819ff1-9db8-4a0f-85dc-0e322c9126c4"
      ],
      "origins": [
        "938de218-5343-4865-94d3-fb33f2eaa152"
      ],
      "series": [
        "afd38f79-188d-47e4-95c6-f74c38895574"
      ],
      "singers": [
        "898d5ea4-56eb-47dc-a2ce-1549a3237709"
      ],
      "songtypes": [
        "f02ad9b3-0bd9-4aad-85b3-9976739ba0e4"
      ],
      "songwriters": [
        "52944693-acb2-44bf-86bb-5057d837def8"
      ],
      "franchises": [
        "3201e723-3e75-46f9-bb21-d991f4f7731e"
      ]
    },
    "title": "Hotaru no Hikari",
    "titles": {
      "qro": "Hotaru no Hikari",
      "jpn": "ホタルノヒカリ"
    },
    "year": 2007,
    "titles_default_language": "qro"
  }
}