{
  "header": {
    "version": 4,
    "description": "Karaoke Mugen Karaoke Data File"
  },
  "medias": [
    {
      "version": "Default",
      "filename": "JPN - Hadaka Shitsuji - GAME PC OP - Hadaka Shitsuji.mp4",
      "audiogain": -10.78,
      "loudnorm": "-6.79,1.47,2.80,-17.05,-2.55",
      "filesize": 11121738,
      "duration": 88,
      "default": true,
      "lyrics": [
        {
          "filename": "JPN - Hadaka Shitsuji - GAME PC OP - Hadaka Shitsuji.ass",
          "default": true,
          "version": "Default"
        }
      ]
    }
  ],
  "data": {
    "created_at": "2022-01-09T16:15:33.737Z",
    "kid": "36a55753-9725-427c-9d42-1c002765edc2",
    "modified_at": "2022-07-20T11:28:40.435Z",
    "repository": "kara.moe",
    "tags": {
      "authors": [
        "b8fdacc0-3529-4760-83c8-3eb8cfccfcce"
      ],
      "creators": [
        "74aba01d-d362-472f-bfa7-93590c3bf7fa"
      ],
      "families": [
        "dbedd6b3-d125-4cd8-aa32-c4175e4ca3a3"
      ],
      "genres": [
        "724d2d80-a531-4579-bdaf-4a0db9a313d9"
      ],
      "groups": [
        "ae613721-1fbe-480d-ba6b-d6d0702b184d"
      ],
      "langs": [
        "4dcf9614-7914-42aa-99f4-dbce2e059133"
      ],
      "origins": [
        "2f96e82c-c61b-4413-817e-e6b247509b95"
      ],
      "platforms": [
        "3c15f758-e1bc-4266-8bb9-3c14112f504a"
      ],
      "series": [
        "68238d35-0080-469f-8299-f3bf5896b034"
      ],
      "singers": [
        "2051231e-5c37-4b18-ac25-8fcb2be6e43e"
      ],
      "songtypes": [
        "f02ad9b3-0bd9-4aad-85b3-9976739ba0e4"
      ],
      "songwriters": [
        "f5e0b658-666f-4124-b697-b22c87dc2391"
      ],
      "collections": [
        "c7db86a0-ff64-4044-9be4-66dd1ef1d1c1"
      ],
      "warnings": [
        "e82ce681-6d7b-4fb6-abe4-daa8aaa9bbf9"
      ]
    },
    "titles": {
      "qro": "Hadaka Shitsuji",
      "jpn": "裸執事"
    },
    "titles_default_language": "qro",
    "title": "Hadaka Shitsuji",
    "year": 2011
  }
}