{
  "header": {
    "version": 4,
    "description": "Karaoke Mugen Karaoke Data File"
  },
  "medias": [
    {
      "version": "Default",
      "filename": "JPN - Ar tonelico Sekai no Owari de Utai Tsuzukeru Shoujo - PS2 GAME OP - Utau Oka Harmonics EOLIA.mp4",
      "audiogain": -5.75,
      "loudnorm": "-12.67,-0.09,10.80,-23.11,-0.70",
      "filesize": 29139045,
      "duration": 145,
      "default": true,
      "lyrics": [
        {
          "filename": "JPN - Ar tonelico Sekai no Owari de Utai Tsuzukeru Shoujo - PS2 GAME OP - Utau Oka Harmonics EOLIA.ass",
          "default": true,
          "version": "Default",
          "subchecksum": "86741f580abf8dbfa24dd6494eb96e63"
        }
      ]
    }
  ],
  "data": {
    "created_at": "2017-10-11T17:02:32.000Z",
    "kid": "bbf5f956-33aa-43cf-a9de-0ee6d83b64b4",
    "modified_at": "2021-02-25T10:45:27.843Z",
    "repository": "kara.moe",
    "tags": {
      "authors": [
        "0081300d-c0f9-4cff-a4f7-e726a293a76b"
      ],
      "collections": [
        "c7db86a0-ff64-4044-9be4-66dd1ef1d1c1"
      ],
      "creators": [
        "4914b4f7-053a-4e89-adac-e25b526e3b7a"
      ],
      "families": [
        "dbedd6b3-d125-4cd8-aa32-c4175e4ca3a3"
      ],
      "groups": [
        "3c14c864-533c-49e6-a3cc-6969f1233775"
      ],
      "langs": [
        "12bce133-e896-4ea8-9c43-e06a4288ddfc",
        "4dcf9614-7914-42aa-99f4-dbce2e059133"
      ],
      "platforms": [
        "2173004e-21da-45c9-9dfb-26014423c566"
      ],
      "series": [
        "364866c7-95a6-4d74-8c35-68452448e1d0"
      ],
      "singers": [
        "cc413549-14dd-4cc1-87d6-022fa80fbdd8"
      ],
      "songtypes": [
        "f02ad9b3-0bd9-4aad-85b3-9976739ba0e4"
      ],
      "songwriters": [
        "1342d996-5414-4253-b95b-c68bd97470fc"
      ],
      "franchises": [
        "c3da97d2-5ff0-4b28-8598-fc5ccf3e040d"
      ]
    },
    "title": "Utau Oka Harmonics EOLIA",
    "titles": {
      "qro": "Utau Oka ~Harmonics EOLIA~",
      "jpn": "謳う丘～Harmonics EOLIA～"
    },
    "year": 2006,
    "titles_default_language": "qro"
  }
}