{
  "header": {
    "version": 4,
    "description": "Karaoke Mugen Karaoke Data File"
  },
  "medias": [
    {
      "version": "Default",
      "filename": "JPN - Fate stay night - MV - Anata ga ita mori ~ Full Vers.mp4",
      "audiogain": -7.93,
      "loudnorm": "-9.72,1.35,12.40,-20.39,-1.67",
      "filesize": 23456249,
      "duration": 301,
      "default": true,
      "lyrics": [
        {
          "filename": "JPN - Fate stay night - MV - Anata ga ita mori ~ Full Vers.ass",
          "default": true,
          "version": "Default"
        }
      ]
    }
  ],
  "data": {
    "created_at": "2020-01-20T20:30:01.981Z",
    "kid": "eb31fa43-2dd0-4988-abab-78602de52dbd",
    "modified_at": "2022-06-04T00:23:40.261Z",
    "parents": [
      "b483afbb-2c9d-4b01-90ba-6a4624d826e4"
    ],
    "repository": "kara.moe",
    "songorder": null,
    "tags": {
      "authors": [
        "1db1738f-acdc-42fc-aec3-60f4bddf660d"
      ],
      "creators": [
        "86ee0878-dc8a-4101-a03e-e44d3e3f2bec"
      ],
      "families": [
        "5391f9fe-638c-415f-8dc9-958e3a2c5787"
      ],
      "groups": [
        "3c14c864-533c-49e6-a3cc-6969f1233775"
      ],
      "langs": [
        "4dcf9614-7914-42aa-99f4-dbce2e059133"
      ],
      "misc": [
        "86705d4b-24e4-4756-9687-2b9c98bcf366"
      ],
      "series": [
        "bed77af7-560d-4cae-9b23-6a0e61c5bdf5"
      ],
      "singers": [
        "51e0ca93-c323-437a-b2b7-a827d3219353"
      ],
      "songtypes": [
        "7be1b15c-cff8-4b37-a649-5c90f3d569a9"
      ],
      "songwriters": [
        "27eaa384-0590-4cca-9d9a-70882025c7e3",
        "c01fe3d2-92cb-4a8d-90c1-9de20842e57b"
      ],
      "versions": [
        "c2143a7f-6970-450e-8a79-0302db9220a9"
      ],
      "collections": [
        "dbcf2c22-524d-4708-99bb-601703633927"
      ],
      "franchises": [
        "564373dc-4cfa-454e-8af1-bcccb886c007"
      ]
    },
    "titles": {
      "qro": "Anata ga ita mori",
      "jpn": "あなたがいた森"
    },
    "titles_default_language": "qro",
    "title": "Anata ga ita mori",
    "year": 2006
  }
}