{
  "header": {
    "version": 4,
    "description": "Karaoke Mugen Karaoke Data File"
  },
  "medias": [
    {
      "version": "Default",
      "filename": "JPN - Kikou Souseiki Mospeada - OP - Ushinawareta Yume o Momete.mp4",
      "audiogain": 0.53,
      "loudnorm": "-19.38,-4.10,5.10,-29.46,-0.39",
      "filesize": 73208990,
      "duration": 82,
      "default": true,
      "lyrics": [
        {
          "filename": "JPN - Kikou Souseiki Mospeada - OP - Ushinawareta Yume o Momete.ass",
          "default": true,
          "version": "Default",
          "subchecksum": "5eea3d9413974d98a7f62c3a448f3e4c"
        }
      ]
    }
  ],
  "data": {
    "created_at": "2017-10-11T17:01:35.000Z",
    "kid": "656ac824-8644-4147-8108-d35b2b0d7f30",
    "modified_at": "2021-02-25T12:01:32.324Z",
    "repository": "kara.moe",
    "tags": {
      "authors": [
        "4607780c-f1ef-47cf-9c1c-b13e8f731699"
      ],
      "collections": [
        "c7db86a0-ff64-4044-9be4-66dd1ef1d1c1"
      ],
      "creators": [
        "cfdb2d1e-499d-47a1-b9f8-070153b5048e"
      ],
      "families": [
        "0377db02-3af6-43b8-9b08-c759df3d25c3"
      ],
      "genres": [
        "f60ba57d-5ef4-49e0-b93b-d0dcbcff6592"
      ],
      "groups": [
        "7792cc27-9ff9-4d47-9287-2338b7db1575"
      ],
      "langs": [
        "4dcf9614-7914-42aa-99f4-dbce2e059133"
      ],
      "origins": [
        "938de218-5343-4865-94d3-fb33f2eaa152"
      ],
      "series": [
        "4b51c40f-c102-4134-82b1-0da3b05df2b6"
      ],
      "singers": [
        "25dc1c72-27d7-4969-972f-9e221d7329b0"
      ],
      "songtypes": [
        "f02ad9b3-0bd9-4aad-85b3-9976739ba0e4"
      ],
      "songwriters": [
        "493e6267-27c3-4083-bffd-761893df9105",
        "6bd811f1-acc4-4333-bda5-fb1e4185af0e"
      ]
    },
    "title": "Ushinawareta Yume o Momete",
    "titles": {
      "qro": "Ushinawareta Yume wo Momete",
      "jpn": "失われた伝説を求めて"
    },
    "year": 1986,
    "titles_default_language": "qro"
  }
}