{
  "header": {
    "version": 4,
    "description": "Karaoke Mugen Karaoke Data File"
  },
  "medias": [
    {
      "version": "Default",
      "filename": "JPN - Choudenshi Bioman - OP - Choudenshi Bioman.mp4",
      "audiogain": 3.1,
      "loudnorm": "-20.31,-8.86,2.50,-30.46,0.25",
      "filesize": 14267822,
      "duration": 79,
      "default": true,
      "lyrics": [
        {
          "filename": "JPN - Choudenshi Bioman - OP - Choudenshi Bioman.ass",
          "default": true,
          "version": "Default"
        }
      ]
    }
  ],
  "data": {
    "created_at": "2017-10-11T17:02:53.000Z",
    "ignoreHooks": false,
    "kid": "25757127-62a7-4efe-a911-08b1d45a3ffd",
    "modified_at": "2022-10-01T11:21:17.384Z",
    "repository": "kara.moe",
    "tags": {
      "authors": [
        "4607780c-f1ef-47cf-9c1c-b13e8f731699"
      ],
      "collections": [
        "c7db86a0-ff64-4044-9be4-66dd1ef1d1c1"
      ],
      "creators": [
        "e32b14df-502b-45fa-9ca5-37554a63a4d7"
      ],
      "families": [
        "5391f9fe-638c-415f-8dc9-958e3a2c5787"
      ],
      "groups": [
        "7792cc27-9ff9-4d47-9287-2338b7db1575"
      ],
      "langs": [
        "4dcf9614-7914-42aa-99f4-dbce2e059133"
      ],
      "origins": [
        "938de218-5343-4865-94d3-fb33f2eaa152",
        "d3fac9ab-630d-402d-a392-3d2450c3e62e"
      ],
      "series": [
        "f35fbddf-dfb1-482b-91d2-8fe6cf08ffa3"
      ],
      "singers": [
        "da3a7a95-256b-4b15-9dfc-840c7b1c1cff"
      ],
      "songtypes": [
        "f02ad9b3-0bd9-4aad-85b3-9976739ba0e4"
      ],
      "songwriters": [
        "176b72bf-a0b1-4f36-8e27-f16607f1b2d1",
        "79bd65b0-a1f1-4f96-b6bb-5d5078c02414"
      ]
    },
    "titles": {
      "jpn": "超電子バイオマン",
      "qro": "Chôdenshi Bioman"
    },
    "titles_default_language": "qro",
    "title": "Chôdenshi Bioman",
    "year": 1984,
    "titles_aliases": [
      "Choudenshi"
    ]
  }
}