{
  "header": {
    "version": 4,
    "description": "Karaoke Mugen Karaoke Data File"
  },
  "medias": [
    {
      "version": "Default",
      "filename": "JPN - Kamen Rider X - OP - Setup! Kamen Rider X.mp4",
      "audiogain": 4.17,
      "loudnorm": "-23.15,-13.84,3.20,-33.18,-0.26",
      "filesize": 40954974,
      "duration": 79,
      "default": true,
      "lyrics": [
        {
          "filename": "JPN - Kamen Rider X - OP - Setup! Kamen Rider X.ass",
          "default": true,
          "version": "Default",
          "subchecksum": "4b73791e7de4c5d59babe6f47518a7ad"
        }
      ]
    }
  ],
  "data": {
    "created_at": "2017-10-11T15:01:54.000Z",
    "kid": "d4f97c32-4502-46b6-8f26-02a1c4d22aae",
    "modified_at": "2021-02-25T11:53:27.132Z",
    "repository": "kara.moe",
    "tags": {
      "authors": [
        "5bdaba57-27f8-4568-8806-76a807728766"
      ],
      "collections": [
        "c7db86a0-ff64-4044-9be4-66dd1ef1d1c1"
      ],
      "creators": [
        "e32b14df-502b-45fa-9ca5-37554a63a4d7"
      ],
      "families": [
        "5391f9fe-638c-415f-8dc9-958e3a2c5787"
      ],
      "groups": [
        "57e5e0c0-e02e-4871-a6cb-d48ea604ebab"
      ],
      "langs": [
        "4dcf9614-7914-42aa-99f4-dbce2e059133"
      ],
      "origins": [
        "938de218-5343-4865-94d3-fb33f2eaa152",
        "d3fac9ab-630d-402d-a392-3d2450c3e62e"
      ],
      "series": [
        "93d2ba7a-5ad9-44d0-b509-5d16b8fe3a62"
      ],
      "singers": [
        "59a38148-e0a8-43df-b149-a6118d9f2d4d"
      ],
      "songtypes": [
        "f02ad9b3-0bd9-4aad-85b3-9976739ba0e4"
      ],
      "songwriters": [
        "243e8e37-f06b-4260-bc77-07b341904562",
        "d7ba6db9-164d-451c-a74b-ceb9c5435fe3"
      ],
      "franchises": [
        "93386847-9ab0-468e-bad0-e1d655e0e0ec"
      ]
    },
    "title": "Setup! Kamen Rider X",
    "titles": {
      "qro": "Setup! Kamen Rider X",
      "jpn": "セタップ！仮面ライダーX"
    },
    "year": 1974,
    "titles_default_language": "qro"
  }
}