{
  "header": {
    "version": 4,
    "description": "Karaoke Mugen Karaoke Data File"
  },
  "medias": [
    {
      "version": "Default",
      "filename": "JPN - Tales of Destiny A Pachislot Called Fate - GAME OP - Yume de aru you ni.mp4",
      "audiogain": -8.6,
      "loudnorm": "-8.96,1.02,7.30,-19.13,-1.82",
      "filesize": 57925960,
      "duration": 143,
      "default": true,
      "lyrics": [
        {
          "filename": "JPN - Tales of Destiny A Pachislot Called Fate - GAME OP - Yume de aru you ni.ass",
          "default": true,
          "version": "Default"
        }
      ]
    }
  ],
  "data": {
    "created_at": "2019-02-24T00:03:54.000Z",
    "ignoreHooks": false,
    "kid": "67c5c28b-5256-4dab-80f1-cbff8fc83cb6",
    "modified_at": "2022-09-30T20:52:33.643Z",
    "repository": "kara.moe",
    "tags": {
      "authors": [
        "2a9bbf75-0722-4b4a-9935-caa92f38fdd1"
      ],
      "collections": [
        "c7db86a0-ff64-4044-9be4-66dd1ef1d1c1"
      ],
      "creators": [
        "20d023d6-5195-4e4f-bae3-8b28ad6334e2"
      ],
      "families": [
        "dbedd6b3-d125-4cd8-aa32-c4175e4ca3a3"
      ],
      "groups": [
        "ae613721-1fbe-480d-ba6b-d6d0702b184d"
      ],
      "langs": [
        "4dcf9614-7914-42aa-99f4-dbce2e059133"
      ],
      "series": [
        "77e37bef-05a1-4056-a30d-c19b3caa4eaa"
      ],
      "singers": [
        "0be96c36-c76f-4b07-b87e-5598927b45ec"
      ],
      "songtypes": [
        "f02ad9b3-0bd9-4aad-85b3-9976739ba0e4"
      ],
      "songwriters": [
        "0be96c36-c76f-4b07-b87e-5598927b45ec"
      ],
      "franchises": [
        "457ab7f6-9644-4493-b61b-8778400aaf54"
      ]
    },
    "titles": {
      "jpn": "夢であるように",
      "qro": "Yume de aru yô ni"
    },
    "titles_default_language": "qro",
    "title": "Yume de aru yô ni",
    "year": 2013,
    "titles_aliases": [
      "you"
    ]
  }
}