{
  "header": {
    "version": 4,
    "description": "Karaoke Mugen Karaoke Data File"
  },
  "medias": [
    {
      "version": "Default",
      "filename": "JPN - Super Robot Taisen MX - PS2 PSP GAME PV - VICTORY.mp4",
      "audiogain": -9.05,
      "loudnorm": "-7.78,1.70,3.60,-17.85,-0.99",
      "filesize": 137006418,
      "duration": 334,
      "default": true,
      "lyrics": [
        {
          "filename": "JPN - Super Robot Taisen MX - PS2 PSP GAME PV - VICTORY.ass",
          "default": true,
          "version": "Default",
          "subchecksum": "027e46bcea57aaeeffdf3ad8ef619581"
        }
      ]
    }
  ],
  "data": {
    "created_at": "2017-10-11T17:01:19.000Z",
    "kid": "0566d4e6-5e5b-4536-809b-aa40178a09e8",
    "modified_at": "2021-02-25T13:14:05.347Z",
    "repository": "kara.moe",
    "tags": {
      "authors": [
        "1df04771-a378-4f14-a5e1-1455187d681a"
      ],
      "collections": [
        "c7db86a0-ff64-4044-9be4-66dd1ef1d1c1"
      ],
      "creators": [
        "0c61dd80-693c-4e5e-8722-904354af5435",
        "cce4d4a6-abcc-4627-94fa-4bc7ccbacf81"
      ],
      "families": [
        "dbedd6b3-d125-4cd8-aa32-c4175e4ca3a3"
      ],
      "groups": [
        "3c14c864-533c-49e6-a3cc-6969f1233775"
      ],
      "langs": [
        "4dcf9614-7914-42aa-99f4-dbce2e059133"
      ],
      "misc": [
        "86705d4b-24e4-4756-9687-2b9c98bcf366"
      ],
      "platforms": [
        "2173004e-21da-45c9-9dfb-26014423c566",
        "6b101aff-4b7b-4b0d-b35e-0f1b67e38c9b"
      ],
      "series": [
        "4b7d56c2-75a0-4b57-a100-60ea57a59730"
      ],
      "singers": [
        "a14aaac9-98b8-4298-a7d6-ea4945750704"
      ],
      "songtypes": [
        "66e195b9-64ea-432d-a917-2e2c88d26052"
      ],
      "songwriters": [
        "162799fe-de2f-4f72-99a2-8c606aee4f2d",
        "44eaa855-0f8f-466b-a742-5b801f0f6565"
      ],
      "franchises": [
        "4e88aee3-4cb9-4342-bac8-6c0819b3a014"
      ]
    },
    "title": "VICTORY",
    "titles": {
      "eng": "VICTORY"
    },
    "year": 2004,
    "titles_default_language": "eng"
  }
}