{
  "header": {
    "version": 4,
    "description": "Karaoke Mugen Karaoke Data File"
  },
  "medias": [
    {
      "version": "Default",
      "filename": "JPN - Urusei Yatsura (2022) - ED2 - Ai Tarinai.mp4",
      "audiogain": -3.17,
      "loudnorm": "-14.19,-4.86,3.40,-24.33,-0.63",
      "filesize": 44365379,
      "duration": 90,
      "default": true,
      "lyrics": [
        {
          "filename": "JPN - Urusei Yatsura (2022) - ED2 - Ai Tarinai.ass",
          "default": true,
          "version": "Default"
        }
      ]
    }
  ],
  "data": {
    "created_at": "2023-02-01T19:37:22.145Z",
    "ignoreHooks": false,
    "kid": "258567f3-dbff-4dae-a952-8780d5664919",
    "modified_at": "2023-02-01T19:40:15.842Z",
    "repository": "kara.moe",
    "songorder": 2,
    "tags": {
      "authors": [
        "06852e02-b77e-4106-b6f7-2d03942ad0ea"
      ],
      "collections": [
        "c7db86a0-ff64-4044-9be4-66dd1ef1d1c1"
      ],
      "creators": [
        "31087ed3-5edd-4d32-8379-ab70bf5db185"
      ],
      "families": [
        "0377db02-3af6-43b8-9b08-c759df3d25c3"
      ],
      "genres": [
        "a0aeef4a-6428-45ff-a6e1-468b595930c2"
      ],
      "groups": [
        "8e209ae4-4381-438f-89dc-1b21752027d2"
      ],
      "langs": [
        "4dcf9614-7914-42aa-99f4-dbce2e059133"
      ],
      "misc": [
        "ec4fee75-71fb-45b4-9772-2ca374b4b600",
        "fe819ff1-9db8-4a0f-85dc-0e322c9126c4"
      ],
      "origins": [
        "938de218-5343-4865-94d3-fb33f2eaa152"
      ],
      "series": [
        "08379702-f5a0-40ae-8bf9-cc680d30b10b"
      ],
      "singers": [
        "3edd7c4a-81e4-4f7a-8851-dc1b0f236db2",
        "d6dec49a-04e3-4fa6-86e8-d4bb8f911f52",
        "715407a5-ec50-4386-b3b7-de28af57b832"
      ],
      "songtypes": [
        "38c77c56-2b95-4040-b676-0994a8cb0597"
      ],
      "songwriters": [
        "3edd7c4a-81e4-4f7a-8851-dc1b0f236db2"
      ],
      "franchises": [
        "586300dc-7488-4530-8d86-e7db5e474dec"
      ]
    },
    "titles": {
      "jpn": "アイタリナイ",
      "qro": "Ai Tarinai"
    },
    "titles_default_language": "qro",
    "year": 2023
  }
}