{
  "header": {
    "version": 4,
    "description": "Karaoke Mugen Karaoke Data File"
  },
  "medias": [
    {
      "version": "Default",
      "filename": "JPN - The Soul Taker - OP - SOULTAKER.mp4",
      "audiogain": 0.17,
      "loudnorm": "-18.28,-7.04,5.30,-28.35,-1.07",
      "filesize": 19343982,
      "duration": 91,
      "default": true,
      "lyrics": [
        {
          "filename": "JPN - The Soul Taker - OP - SOULTAKER.ass",
          "default": true,
          "version": "Default"
        }
      ]
    }
  ],
  "data": {
    "created_at": "2017-10-11T17:02:15.000Z",
    "kid": "447703e2-9070-4465-a002-b03cd7f11e60",
    "modified_at": "2021-12-29T23:30:47.232Z",
    "repository": "kara.moe",
    "tags": {
      "authors": [
        "5bdaba57-27f8-4568-8806-76a807728766"
      ],
      "collections": [
        "c7db86a0-ff64-4044-9be4-66dd1ef1d1c1"
      ],
      "creators": [
        "cfdb2d1e-499d-47a1-b9f8-070153b5048e"
      ],
      "families": [
        "0377db02-3af6-43b8-9b08-c759df3d25c3"
      ],
      "groups": [
        "3c14c864-533c-49e6-a3cc-6969f1233775"
      ],
      "langs": [
        "4dcf9614-7914-42aa-99f4-dbce2e059133"
      ],
      "origins": [
        "938de218-5343-4865-94d3-fb33f2eaa152"
      ],
      "series": [
        "c455d279-6ac5-49e8-abcf-aff8e05d94b3"
      ],
      "singers": [
        "a14aaac9-98b8-4298-a7d6-ea4945750704"
      ],
      "songtypes": [
        "f02ad9b3-0bd9-4aad-85b3-9976739ba0e4"
      ],
      "songwriters": [
        "162799fe-de2f-4f72-99a2-8c606aee4f2d"
      ]
    },
    "titles": {
      "eng": "SOULTAKER"
    },
    "title": "SOULTAKER",
    "year": 2001,
    "titles_default_language": "eng"
  }
}