{
  "header": {
    "version": 4,
    "description": "Karaoke Mugen Karaoke Data File"
  },
  "medias": [
    {
      "version": "Default",
      "filename": "JPN - Choujijigen Game Neptune Re Birth1 - PSV GAME ED - Mirai Button.mp4",
      "audiogain": -8.5,
      "loudnorm": "-8.96,0.75,4.20,-19.13,-0.77",
      "filesize": 18948710,
      "duration": 105,
      "default": true,
      "lyrics": [
        {
          "filename": "JPN - Choujijigen Game Neptune Re Birth1 - PSV GAME ED - Mirai Button.ass",
          "default": true,
          "version": "Default",
          "subchecksum": "0bc775fc79ea3e336daad629ce3d7f71"
        }
      ]
    }
  ],
  "data": {
    "created_at": "2017-10-11T17:03:07.000Z",
    "kid": "ac89f300-5a77-4780-b2bd-8ee5394c33b7",
    "modified_at": "2021-02-25T11:02:00.325Z",
    "repository": "kara.moe",
    "tags": {
      "authors": [
        "1b2f4ffc-ba49-4646-9eab-d19abe7e4081"
      ],
      "collections": [
        "c7db86a0-ff64-4044-9be4-66dd1ef1d1c1"
      ],
      "creators": [
        "2797c42a-c4af-49d2-8aa6-762ef0a41338",
        "769af53e-df08-4cb5-9cad-7503576dee49",
        "f69a65fc-2ec0-4552-82ff-b3e15dddebb9"
      ],
      "families": [
        "dbedd6b3-d125-4cd8-aa32-c4175e4ca3a3"
      ],
      "groups": [
        "8c22c899-b3ed-42da-a548-ce00f950798b",
        "ae613721-1fbe-480d-ba6b-d6d0702b184d"
      ],
      "langs": [
        "4dcf9614-7914-42aa-99f4-dbce2e059133"
      ],
      "platforms": [
        "e791f168-068f-4c05-aa36-e8d63726aa06"
      ],
      "series": [
        "4d97fb96-c57d-4edb-b0fc-54ca9d613659"
      ],
      "singers": [
        "4632cf0f-5d9f-49a1-be02-1686f83a91ac"
      ],
      "songtypes": [
        "38c77c56-2b95-4040-b676-0994a8cb0597"
      ],
      "songwriters": [
        "6ca70ddd-82dc-4ee6-b258-967e96418d00",
        "bf1b223d-9db4-4d2c-ac02-2e9b45fce518"
      ],
      "franchises": [
        "5a46a354-d3bd-417b-98f2-0abd1ac1c7c0"
      ]
    },
    "title": "Mirai Button",
    "titles": {
      "qro": "Mirai Button",
      "jpn": "ミライボタン"
    },
    "year": 2013,
    "titles_default_language": "qro"
  }
}