{
  "header": {
    "version": 4,
    "description": "Karaoke Mugen Karaoke Data File"
  },
  "medias": [
    {
      "version": "Default",
      "filename": "JPN - Gekijou Tanpen Macross frontier~Toki no Meikyuu~ - MOVIE IN - Toki no Meikyuu -movie edition- ~ Full Vers.mp4",
      "audiogain": 1.82,
      "loudnorm": "-19.80,-1.44,10.70,-30.45,-0.38",
      "filesize": 342007441,
      "duration": 465,
      "default": true,
      "lyrics": [
        {
          "filename": "JPN - Gekijou Tanpen Macross frontier~Toki no Meikyuu~ - MOVIE IN - Toki no Meikyuu -movie edition- ~ Full Vers.ass",
          "default": true,
          "version": "Default"
        }
      ]
    }
  ],
  "data": {
    "created_at": "2023-01-16T16:37:14.430Z",
    "ignoreHooks": false,
    "kid": "c6c2f3e9-1c53-48ee-8093-2084b084e3f0",
    "modified_at": "2023-01-16T16:37:24.545Z",
    "repository": "kara.moe",
    "tags": {
      "authors": [
        "fa399f2f-ea1d-4902-8796-ea6d8218aff0"
      ],
      "collections": [
        "c7db86a0-ff64-4044-9be4-66dd1ef1d1c1"
      ],
      "creators": [
        "0041fabf-4b82-4ecd-961b-e4c49b8c88be"
      ],
      "families": [
        "0377db02-3af6-43b8-9b08-c759df3d25c3"
      ],
      "langs": [
        "4dcf9614-7914-42aa-99f4-dbce2e059133"
      ],
      "misc": [
        "a98efc68-91c1-4291-b4af-e3990b939167",
        "1d6ceadf-a885-47e5-b23b-c07bf668a424",
        "86705d4b-24e4-4756-9687-2b9c98bcf366"
      ],
      "origins": [
        "c8ca9dea-d8b4-48fe-8427-d911653232e9"
      ],
      "series": [
        "47905b2f-322a-4d7a-968b-82728d3becea"
      ],
      "singers": [
        "73b841c7-d13c-44b4-9018-1727721742d1",
        "d538b18e-e59e-4cb1-85e8-d095c50cd3e1"
      ],
      "songtypes": [
        "5e5250d9-351a-4a82-98eb-55db50ad8962"
      ],
      "songwriters": [
        "af0be06d-ea2d-4f46-85d1-58cf9f42532a",
        "0a5e9a75-e84e-4e92-b23c-27126f001afd"
      ],
      "versions": [
        "c2143a7f-6970-450e-8a79-0302db9220a9"
      ],
      "franchises": [
        "01b9b958-2d2a-43d0-a5dd-efb5b14675ea"
      ],
      "groups": [
        "8e209ae4-4381-438f-89dc-1b21752027d2"
      ]
    },
    "titles": {
      "qro": "Toki no Meikyuu -movie edition-",
      "jpn": "時の迷宮-movie edition-",
      "eng": "Labyrinth of Time -movie edition-"
    },
    "titles_default_language": "qro",
    "year": 2021
  }
}