{
  "header": {
    "version": 4,
    "description": "Karaoke Mugen Karaoke Data File"
  },
  "medias": [
    {
      "version": "Default",
      "filename": "JPN - fault SILENCE THE PEDANT - PC GAME OP - BLACKBOX.mp4",
      "audiogain": -10.72,
      "loudnorm": "-7.33,2.41,11.70,-18.05,-2.20",
      "filesize": 22574001,
      "duration": 95,
      "default": true,
      "lyrics": [
        {
          "filename": "JPN - fault SILENCE THE PEDANT - PC GAME OP - BLACKBOX.ass",
          "default": true,
          "version": "Default",
          "subchecksum": "5564dee1bdd517fb3582ce0833ca2e88"
        }
      ]
    }
  ],
  "data": {
    "created_at": "2018-05-02T23:03:58.000Z",
    "kid": "f0a4ef54-15d3-4284-abbb-765964260d80",
    "modified_at": "2021-02-25T11:19:34.276Z",
    "repository": "kara.moe",
    "tags": {
      "authors": [
        "dde9f8ee-c046-42ca-8d1d-4a649bcf9a5d"
      ],
      "collections": [
        "c7db86a0-ff64-4044-9be4-66dd1ef1d1c1"
      ],
      "creators": [
        "1db1bd69-b6cc-4d37-b49d-1a345da690fd"
      ],
      "families": [
        "dbedd6b3-d125-4cd8-aa32-c4175e4ca3a3"
      ],
      "groups": [
        "ae613721-1fbe-480d-ba6b-d6d0702b184d"
      ],
      "langs": [
        "4dcf9614-7914-42aa-99f4-dbce2e059133"
      ],
      "origins": [
        "2f96e82c-c61b-4413-817e-e6b247509b95"
      ],
      "platforms": [
        "3c15f758-e1bc-4266-8bb9-3c14112f504a"
      ],
      "series": [
        "95a9e13d-5a45-496e-b0d2-ea1795157ffc"
      ],
      "singers": [
        "0e69d88b-cd5c-4de7-a714-8f0c540017fa"
      ],
      "songtypes": [
        "f02ad9b3-0bd9-4aad-85b3-9976739ba0e4"
      ],
      "songwriters": [
        "8e8d7d55-9938-40ef-b674-aa87b50493ab"
      ],
      "franchises": [
        "c018b891-2d32-43a0-a7b3-0f6fd467247d"
      ]
    },
    "title": "BLACKBOX",
    "titles": {
      "eng": "BLACKBOX"
    },
    "year": 2018,
    "titles_default_language": "eng"
  }
}