{
  "header": {
    "version": 4,
    "description": "Karaoke Mugen Karaoke Data File"
  },
  "medias": [
    {
      "version": "Default",
      "filename": "JPN - Tales of VS - PSP GAME OP - Be your wings.mp4",
      "audiogain": -8.03,
      "loudnorm": "-10.23,0.59,5.40,-20.25,-0.73",
      "filesize": 10701387,
      "duration": 99,
      "default": true,
      "lyrics": [
        {
          "filename": "JPN - Tales of VS - PSP GAME OP - Be your wings.ass",
          "default": true,
          "version": "Default",
          "subchecksum": "6a7172b3dd1fe6a420ec72d21be4c3f5"
        }
      ]
    }
  ],
  "data": {
    "created_at": "2017-10-11T15:03:13.000Z",
    "kid": "1bb37c12-50be-4d17-8dcb-077a191a8298",
    "modified_at": "2021-02-25T13:17:05.795Z",
    "repository": "kara.moe",
    "tags": {
      "authors": [
        "5bdaba57-27f8-4568-8806-76a807728766"
      ],
      "collections": [
        "c7db86a0-ff64-4044-9be4-66dd1ef1d1c1"
      ],
      "creators": [
        "7e37aea2-311a-4b93-8059-ba7a8fad65d9"
      ],
      "families": [
        "dbedd6b3-d125-4cd8-aa32-c4175e4ca3a3"
      ],
      "groups": [
        "3c14c864-533c-49e6-a3cc-6969f1233775"
      ],
      "langs": [
        "4dcf9614-7914-42aa-99f4-dbce2e059133"
      ],
      "platforms": [
        "6b101aff-4b7b-4b0d-b35e-0f1b67e38c9b"
      ],
      "series": [
        "2489ee88-d151-4a60-9698-abcf1db97672"
      ],
      "singers": [
        "43c6529f-f44f-491b-83e0-0b240e54199b"
      ],
      "songtypes": [
        "f02ad9b3-0bd9-4aad-85b3-9976739ba0e4"
      ],
      "songwriters": [
        "10098cc7-c80d-4656-bb68-c5de9ab7a0d7",
        "b29ac407-d2fd-44bc-a279-515a2f37d3ad",
        "b8e3a14b-7348-489d-a482-35a400889a4f"
      ],
      "franchises": [
        "457ab7f6-9644-4493-b61b-8778400aaf54"
      ]
    },
    "title": "Be your wings",
    "titles": {
      "eng": "Be your wings"
    },
    "year": 2009,
    "titles_default_language": "eng"
  }
}