{
  "header": {
    "version": 4,
    "description": "Karaoke Mugen Karaoke Data File"
  },
  "medias": [
    {
      "version": "Default",
      "filename": "JPN - Inazuma Eleven - OP3 - Tsunagari yo.mp4",
      "audiogain": -1.44,
      "loudnorm": "-16.00,-7.17,1.30,-26.00,-0.08",
      "filesize": 69069827,
      "duration": 89,
      "default": true,
      "lyrics": [
        {
          "filename": "JPN - Inazuma Eleven - OP3 - Tsunagari yo.ass",
          "default": true,
          "version": "Default",
          "subchecksum": "604dc95bd3d84f00485e02f9a074b826"
        }
      ]
    }
  ],
  "data": {
    "created_at": "2019-05-07T14:50:16.000Z",
    "kid": "852a9ee2-cf18-456d-9be6-697dd32ec1d7",
    "modified_at": "2021-02-25T11:46:50.979Z",
    "repository": "kara.moe",
    "songorder": 3,
    "tags": {
      "authors": [
        "2a9bbf75-0722-4b4a-9935-caa92f38fdd1"
      ],
      "collections": [
        "c7db86a0-ff64-4044-9be4-66dd1ef1d1c1"
      ],
      "creators": [
        "03fe574b-c7f5-4520-96dc-47320c39e2cc"
      ],
      "families": [
        "0377db02-3af6-43b8-9b08-c759df3d25c3"
      ],
      "genres": [
        "a0aeef4a-6428-45ff-a6e1-468b595930c2"
      ],
      "groups": [
        "3c14c864-533c-49e6-a3cc-6969f1233775"
      ],
      "langs": [
        "4dcf9614-7914-42aa-99f4-dbce2e059133"
      ],
      "origins": [
        "938de218-5343-4865-94d3-fb33f2eaa152"
      ],
      "series": [
        "8736c98c-8f96-4e0e-96a9-1d6eb10be540"
      ],
      "singers": [
        "649d36f3-728d-4230-9655-acd474036312",
        "a3e69301-4f5a-43fd-96d4-0a51b23f34ac"
      ],
      "songtypes": [
        "f02ad9b3-0bd9-4aad-85b3-9976739ba0e4"
      ],
      "songwriters": [
        "2b386fed-c89b-4bb0-992e-032b7c7620e6",
        "4d3ea630-29a0-46ac-9c24-fca7a0467a7c",
        "fb42506e-9b6d-4807-9d8c-28caec4baed8"
      ],
      "franchises": [
        "8736c98c-8f96-4e0e-96a9-1d6eb10be540"
      ]
    },
    "title": "Tsunagari yo",
    "titles": {
      "qro": "Tsunagari yo",
      "jpn": "つながリーヨ"
    },
    "year": 2009,
    "titles_default_language": "qro"
  }
}