{
  "header": {
    "version": 4,
    "description": "Karaoke Mugen Karaoke Data File"
  },
  "medias": [
    {
      "version": "Default",
      "filename": "JPN - Touhou - REMIX AUDIO - Ano hi no shinkirou ~ Cover Vers.mp3",
      "audiogain": -4.34,
      "loudnorm": "-13.05,-4.76,3.30,-23.09,-0.75",
      "filesize": 4360921,
      "duration": 230,
      "default": true,
      "lyrics": [
        {
          "filename": "JPN - Touhou - REMIX AUDIO - Ano hi no shinkirou ~ Cover Vers.ass",
          "default": true,
          "version": "Default"
        }
      ]
    }
  ],
  "data": {
    "created_at": "2020-08-05T21:41:21.327Z",
    "ignoreHooks": false,
    "kid": "f1040c7d-104c-4ebf-b401-d534fa75cda4",
    "modified_at": "2022-09-30T20:36:17.813Z",
    "repository": "kara.moe",
    "tags": {
      "authors": [
        "604b9132-005f-414a-82b8-e5858e586448"
      ],
      "collections": [
        "c7db86a0-ff64-4044-9be4-66dd1ef1d1c1"
      ],
      "creators": [
        "bb131f8b-511c-4e76-91d5-cd61f3316e37"
      ],
      "groups": [
        "60defa7b-774e-4680-8321-51b742c2e009",
        "ae613721-1fbe-480d-ba6b-d6d0702b184d"
      ],
      "langs": [
        "4dcf9614-7914-42aa-99f4-dbce2e059133"
      ],
      "misc": [
        "ec4360fa-3e3c-4f6f-b0e1-fb8b12b6dd18"
      ],
      "origins": [
        "ac5085db-52d8-44b4-8fbb-1697b24d2046"
      ],
      "series": [
        "1bdaa5a1-dfa6-4365-b746-7a0b194dafd6"
      ],
      "singers": [
        "b661a93b-8c2e-432e-816b-2619dda0e881"
      ],
      "songtypes": [
        "42a262ae-acba-4ab5-a446-c5789c96c821"
      ],
      "songwriters": [
        "26cb5252-8510-49e0-897c-a611a05fc056",
        "bb131f8b-511c-4e76-91d5-cd61f3316e37"
      ],
      "versions": [
        "03e1e1d2-8641-47b7-bbcb-39a3df9ff21c"
      ],
      "franchises": [
        "1bdaa5a1-dfa6-4365-b746-7a0b194dafd6"
      ]
    },
    "titles": {
      "jpn": "あの日の蜃気楼",
      "qro": "Ano hi no shinkirô"
    },
    "titles_default_language": "qro",
    "title": "Ano hi no shinkirô",
    "year": 2012,
    "titles_aliases": [
      "shinkirou"
    ]
  }
}