{
  "header": {
    "version": 4,
    "description": "Karaoke Mugen Karaoke Data File"
  },
  "medias": [
    {
      "version": "Default",
      "filename": "JPN - Hatsune Miku ~ Project DIVA Arcade Future Tone - GAME PS4 AMV - Shiroi Yuki no Princess wa.mp4",
      "audiogain": -9.65,
      "loudnorm": "-7.22,2.14,5.60,-17.29,-0.50",
      "filesize": 182496287,
      "duration": 261,
      "default": true,
      "lyrics": [
        {
          "filename": "JPN - Hatsune Miku ~ Project DIVA Arcade Future Tone - GAME PS4 AMV - Shiroi Yuki no Princess wa.ass",
          "default": true,
          "version": "Default"
        }
      ]
    }
  ],
  "data": {
    "comment": "Retime + correction parole",
    "created_at": "2023-01-18T14:21:07.014Z",
    "ignoreHooks": false,
    "kid": "b99987a2-bfed-4927-b42f-3f25a7e3435f",
    "modified_at": "2023-01-18T18:11:41.544Z",
    "repository": "kara.moe",
    "tags": {
      "authors": [
        "523ead5e-981e-4993-af29-12524f7edcf1",
        "a3a99b23-6c42-4d38-8863-491153187437"
      ],
      "collections": [
        "c7db86a0-ff64-4044-9be4-66dd1ef1d1c1"
      ],
      "creators": [
        "b8a3778d-0864-4135-9053-1def02d3262e"
      ],
      "families": [
        "dbedd6b3-d125-4cd8-aa32-c4175e4ca3a3"
      ],
      "genres": [
        "45623cae-6d68-4304-a49b-896d1d6f4580"
      ],
      "groups": [
        "2b4e9972-5e17-481b-99f5-d0787c0ada56",
        "ae613721-1fbe-480d-ba6b-d6d0702b184d"
      ],
      "langs": [
        "4dcf9614-7914-42aa-99f4-dbce2e059133"
      ],
      "platforms": [
        "248d92ee-8c02-43bc-86e2-cc6029883564"
      ],
      "series": [
        "10b144ba-23b0-412a-9d78-253af4ee10ae"
      ],
      "singers": [
        "4407ba0e-5de7-4add-870f-7ac95a4804c9"
      ],
      "songtypes": [
        "a6c79ce5-89ee-4d50-afe8-3abd7317f6c2"
      ],
      "songwriters": [
        "8a8bc468-382e-47d3-8f93-078d6b1e230c"
      ],
      "franchises": [
        "c52a4935-9040-4bce-8d4b-9f23ebaa602c",
        "d28af18d-d544-4d0f-b955-99e6914230f2"
      ]
    },
    "titles": {
      "eng": "The Snow White Princess is",
      "jpn": "白い雪のプリンセスは",
      "qro": "Shiroi Yuki no Princess wa"
    },
    "titles_default_language": "qro",
    "titles_aliases": [
      "shiroi yuki",
      "yuki princess",
      "shiroi princess",
      "yuki no princess"
    ],
    "year": 2010
  }
}