{
  "header": {
    "version": 4,
    "description": "Karaoke Mugen Karaoke Data File"
  },
  "medias": [
    {
      "version": "Default",
      "filename": "JPN - Higanbana no Saku Yoru ni - PC GAME OP - Aishi wo Wataru wa Tasogare zo.mp4",
      "audiogain": -1.48,
      "loudnorm": "-16.50,-0.21,13.30,-27.52,-1.42",
      "filesize": 67984794,
      "duration": 105,
      "default": true,
      "lyrics": [
        {
          "filename": "JPN - Higanbana no Saku Yoru ni - PC GAME OP - Aishi wo Wataru wa Tasogare zo.ass",
          "default": true,
          "version": "Default",
          "subchecksum": "86afc2c1364a8181fe1bc82d3f58aeef"
        }
      ]
    }
  ],
  "data": {
    "created_at": "2021-04-18T13:20:09.214Z",
    "kid": "54a88374-eb76-4b1f-9d9c-e412e0850ca4",
    "modified_at": "2021-04-18T13:29:30.660Z",
    "repository": "kara.moe",
    "tags": {
      "authors": [
        "56b54c89-86ae-4635-992f-ddc1234b8015"
      ],
      "collections": [
        "c7db86a0-ff64-4044-9be4-66dd1ef1d1c1"
      ],
      "creators": [
        "ee8900e9-5aee-4872-9093-0b5ce99c363c"
      ],
      "families": [
        "dbedd6b3-d125-4cd8-aa32-c4175e4ca3a3"
      ],
      "groups": [
        "8c22c899-b3ed-42da-a548-ce00f950798b",
        "ae613721-1fbe-480d-ba6b-d6d0702b184d"
      ],
      "langs": [
        "4dcf9614-7914-42aa-99f4-dbce2e059133"
      ],
      "origins": [
        "2f96e82c-c61b-4413-817e-e6b247509b95"
      ],
      "platforms": [
        "3c15f758-e1bc-4266-8bb9-3c14112f504a"
      ],
      "series": [
        "35376a0d-16d0-4171-ad6f-49a969caacce"
      ],
      "singers": [
        "1f893a45-3d80-466f-af2b-5b24826b3bf7"
      ],
      "songtypes": [
        "f02ad9b3-0bd9-4aad-85b3-9976739ba0e4"
      ]
    },
    "title": "Aishi wo Wataru wa Tasogare zo",
    "titles": {
      "qro": "Aishi wo Wataru wa Tasogare zo",
      "jpn": "愛しを渡るは黄昏ぞ"
    },
    "year": 2010,
    "titles_default_language": "qro"
  }
}