{
  "header": {
    "version": 4,
    "description": "Karaoke Mugen Karaoke Data File"
  },
  "medias": [
    {
      "version": "Default",
      "filename": "JPN - Noir - AUDIO IS - Himitsu.mp3",
      "audiogain": -7.75,
      "loudnorm": "-11.06,-0.07,14.40,-21.89,-1.88",
      "filesize": 12144450,
      "duration": 298,
      "default": true,
      "lyrics": [
        {
          "filename": "JPN - Noir - AUDIO IS - Himitsu.ass",
          "default": true,
          "version": "Default"
        }
      ]
    }
  ],
  "data": {
    "created_at": "2018-10-13T22:03:42.000Z",
    "ignoreHooks": false,
    "kid": "6ec8b779-0f5b-4be0-9bf1-54e18169ab6e",
    "modified_at": "2022-12-22T16:08:53.758Z",
    "repository": "kara.moe",
    "tags": {
      "authors": [
        "1db1738f-acdc-42fc-aec3-60f4bddf660d",
        "fa399f2f-ea1d-4902-8796-ea6d8218aff0"
      ],
      "collections": [
        "c7db86a0-ff64-4044-9be4-66dd1ef1d1c1"
      ],
      "families": [
        "0377db02-3af6-43b8-9b08-c759df3d25c3"
      ],
      "groups": [
        "3c14c864-533c-49e6-a3cc-6969f1233775"
      ],
      "langs": [
        "4dcf9614-7914-42aa-99f4-dbce2e059133"
      ],
      "origins": [
        "938de218-5343-4865-94d3-fb33f2eaa152"
      ],
      "series": [
        "4c0bd46f-54c0-4582-a967-f9ed18806382"
      ],
      "singers": [
        "b2372bbb-fc6c-4469-8acd-d55058297e35"
      ],
      "songtypes": [
        "10a1ad3e-a05c-4f5c-84b6-f491e3e3a92e",
        "42a262ae-acba-4ab5-a446-c5789c96c821"
      ],
      "songwriters": [
        "1f324dc7-f858-415b-bbc1-41fcce3d6ac7"
      ]
    },
    "titles": {
      "jpn": "秘密",
      "qro": "Himitsu"
    },
    "titles_default_language": "qro",
    "year": 2001
  }
}