{
  "header": {
    "version": 4,
    "description": "Karaoke Mugen Karaoke Data File"
  },
  "medias": [
    {
      "version": "Default",
      "filename": "JPN - Naruto Shippuuden - ED4 - Mezamero! Yasei.mp4",
      "audiogain": -1.94,
      "loudnorm": "-16.17,-5.69,3.60,-26.27,0.02",
      "filesize": 6693199,
      "duration": 89,
      "default": true,
      "lyrics": [
        {
          "filename": "JPN - Naruto Shippuuden - ED4 - Mezamero! Yasei.ass",
          "default": true,
          "version": "Default",
          "subchecksum": "92e708b56adb59fc7f9339a9a2d7e37d"
        }
      ]
    }
  ],
  "data": {
    "created_at": "2020-02-27T19:44:50.864Z",
    "kid": "cc697e4b-fcd7-4f3f-a7a8-b7312abb7719",
    "modified_at": "2021-02-25T12:33:59.051Z",
    "repository": "kara.moe",
    "songorder": 4,
    "tags": {
      "authors": [
        "60defa7b-774e-4680-8321-51b742c2e009"
      ],
      "collections": [
        "c7db86a0-ff64-4044-9be4-66dd1ef1d1c1"
      ],
      "creators": [
        "aaff4ba6-9a12-4bac-9bd0-c0cb783e4177"
      ],
      "families": [
        "0377db02-3af6-43b8-9b08-c759df3d25c3"
      ],
      "genres": [
        "a0aeef4a-6428-45ff-a6e1-468b595930c2"
      ],
      "groups": [
        "3c14c864-533c-49e6-a3cc-6969f1233775",
        "60defa7b-774e-4680-8321-51b742c2e009"
      ],
      "langs": [
        "4dcf9614-7914-42aa-99f4-dbce2e059133"
      ],
      "origins": [
        "938de218-5343-4865-94d3-fb33f2eaa152"
      ],
      "series": [
        "afd38f79-188d-47e4-95c6-f74c38895574"
      ],
      "singers": [
        "495cfb18-623a-443d-af10-ef341abd6e86"
      ],
      "songtypes": [
        "38c77c56-2b95-4040-b676-0994a8cb0597"
      ],
      "franchises": [
        "3201e723-3e75-46f9-bb21-d991f4f7731e"
      ]
    },
    "title": "Mezamero! Yasei",
    "titles": {
      "qro": "Mezamero! Yasei",
      "jpn": "目覚めろ! 野性"
    },
    "year": 2007,
    "titles_default_language": "qro"
  }
}