{
  "header": {
    "version": 4,
    "description": "Karaoke Mugen Karaoke Data File"
  },
  "medias": [
    {
      "version": "Whistle.",
      "filename": "JPN - Wild Arms 3rd Advanced - GAME PS2 OP5 - Advanced Wind ~ Whistle Vers. ~ Off Vocal Vers.mp4",
      "audiogain": -4.82,
      "loudnorm": "-12.42,-1.11,6.00,-22.59,-1.58",
      "filesize": 13394532,
      "duration": 102,
      "default": true,
      "lyrics": [
        {
          "filename": "JPN - Wild Arms 3rd Advanced - GAME PS2 OP5 - Advanced Wind ~ Whistle Vers. ~ Off Vocal Vers.ass",
          "default": true,
          "version": "Default"
        }
      ]
    }
  ],
  "data": {
    "created_at": "2017-10-11T17:02:34.000Z",
    "ignoreHooks": false,
    "kid": "55f02347-34b5-425c-8542-7cb93623ca4e",
    "modified_at": "2022-04-18T12:48:30.779Z",
    "parents": [
      "7192a383-93e3-4c79-9045-41ab0a525971"
    ],
    "repository": "kara.moe",
    "songorder": 5,
    "tags": {
      "authors": [
        "5bdaba57-27f8-4568-8806-76a807728766"
      ],
      "collections": [
        "c7db86a0-ff64-4044-9be4-66dd1ef1d1c1"
      ],
      "creators": [
        "f9a97b6b-1ea0-4c63-ac09-070f70c799e4"
      ],
      "families": [
        "dbedd6b3-d125-4cd8-aa32-c4175e4ca3a3"
      ],
      "groups": [
        "3c14c864-533c-49e6-a3cc-6969f1233775"
      ],
      "langs": [
        "4dcf9614-7914-42aa-99f4-dbce2e059133"
      ],
      "platforms": [
        "2173004e-21da-45c9-9dfb-26014423c566"
      ],
      "series": [
        "1ee6d400-99f8-4cde-a7a2-8d75987c2899"
      ],
      "songtypes": [
        "f02ad9b3-0bd9-4aad-85b3-9976739ba0e4"
      ],
      "songwriters": [
        "661d2432-17f7-4409-9b0b-5b1664803117"
      ],
      "versions": [
        "c0cc87b9-55b9-40f0-878a-fbb9e34c151e"
      ],
      "franchises": [
        "c3260823-5c50-41b3-8eb2-2602bd4ba12f"
      ]
    },
    "titles": {
      "eng": "Advanced Wind ~ Whistle Vers."
    },
    "titles_default_language": "eng",
    "title": "Advanced Wind ~ Whistle Vers.",
    "year": 2002
  }
}