{
  "header": {
    "version": 4,
    "description": "Karaoke Mugen Karaoke Data File"
  },
  "medias": [
    {
      "version": "Default",
      "filename": "JPN - One Piece - OP23 - DREAMIN' ON.mp4",
      "audiogain": 7.34,
      "loudnorm": "-24.10,-11.81,3.90,-34.12,-0.28",
      "filesize": 67519966,
      "duration": 120,
      "default": true,
      "lyrics": [
        {
          "filename": "JPN - One Piece - OP23 - DREAMIN' ON.ass",
          "default": true,
          "version": "Default"
        }
      ]
    }
  ],
  "data": {
    "created_at": "2022-04-18T17:33:49.278Z",
    "ignoreHooks": false,
    "kid": "40fc813f-4404-487b-815d-1db8825993a9",
    "modified_at": "2022-04-19T20:07:50.253Z",
    "repository": "kara.moe",
    "songorder": 23,
    "tags": {
      "authors": [
        "da677ad5-b5dd-4ab9-a1fe-5461e36338a2"
      ],
      "collections": [
        "c7db86a0-ff64-4044-9be4-66dd1ef1d1c1"
      ],
      "creators": [
        "f694bf43-b427-4244-9744-9d3f84fd8a31"
      ],
      "families": [
        "0377db02-3af6-43b8-9b08-c759df3d25c3"
      ],
      "genres": [
        "a0aeef4a-6428-45ff-a6e1-468b595930c2"
      ],
      "groups": [
        "8e209ae4-4381-438f-89dc-1b21752027d2"
      ],
      "langs": [
        "4dcf9614-7914-42aa-99f4-dbce2e059133"
      ],
      "origins": [
        "938de218-5343-4865-94d3-fb33f2eaa152"
      ],
      "series": [
        "955758fc-ef9b-441e-b9e3-33dd2caf2753"
      ],
      "singers": [
        "23db8344-2b81-4c6e-95fc-c6c78e17607f"
      ],
      "songtypes": [
        "f02ad9b3-0bd9-4aad-85b3-9976739ba0e4"
      ],
      "franchises": [
        "955758fc-ef9b-441e-b9e3-33dd2caf2753"
      ]
    },
    "titles": {
      "eng": "DREAMIN' ON"
    },
    "titles_default_language": "eng",
    "title": "DREAMIN' ON",
    "year": 2021
  }
}