{
  "header": {
    "version": 4,
    "description": "Karaoke Mugen Karaoke Data File"
  },
  "medias": [
    {
      "version": "Default",
      "filename": "JPN - Tales of Symphonia Chronicles - GAME PS3 OP - Starry Heavens.mp4",
      "audiogain": -2.55,
      "loudnorm": "-15.29,-2.51,4.80,-25.48,-0.78",
      "filesize": 68336257,
      "duration": 122,
      "default": true,
      "lyrics": [
        {
          "filename": "JPN - Tales of Symphonia Chronicles - GAME PS3 OP - Starry Heavens.ass",
          "default": true,
          "version": "Default"
        }
      ]
    }
  ],
  "data": {
    "created_at": "2017-10-11T17:02:20.000Z",
    "kid": "24585a94-bebc-426d-b30e-3196341d2ef6",
    "modified_at": "2021-10-28T18:21:28.211Z",
    "parents": [
      "2d3252f8-6c5c-493c-b009-5e4f94b68959"
    ],
    "repository": "kara.moe",
    "tags": {
      "authors": [
        "fa399f2f-ea1d-4902-8796-ea6d8218aff0"
      ],
      "collections": [
        "c7db86a0-ff64-4044-9be4-66dd1ef1d1c1"
      ],
      "creators": [
        "7e37aea2-311a-4b93-8059-ba7a8fad65d9"
      ],
      "families": [
        "dbedd6b3-d125-4cd8-aa32-c4175e4ca3a3"
      ],
      "groups": [
        "ae613721-1fbe-480d-ba6b-d6d0702b184d"
      ],
      "langs": [
        "4dcf9614-7914-42aa-99f4-dbce2e059133"
      ],
      "platforms": [
        "7f63ff91-7961-4488-888d-4bf46eea3a2a"
      ],
      "series": [
        "62fc2551-c3dd-4ef4-844b-21d901ac9ab0"
      ],
      "singers": [
        "d00189a8-a23e-4fd2-a2af-dbbf4d4fa070"
      ],
      "songtypes": [
        "f02ad9b3-0bd9-4aad-85b3-9976739ba0e4"
      ],
      "songwriters": [
        "606a54a4-f7b1-42de-ba07-735cbbab169b",
        "b8e3a14b-7348-489d-a482-35a400889a4f"
      ],
      "franchises": [
        "457ab7f6-9644-4493-b61b-8778400aaf54"
      ]
    },
    "titles": {
      "eng": "Starry Heavens"
    },
    "title": "Starry Heavens",
    "year": 2013,
    "titles_default_language": "eng"
  }
}