{
  "header": {
    "version": 4,
    "description": "Karaoke Mugen Karaoke Data File"
  },
  "medias": [
    {
      "version": "Default",
      "filename": "JPN - Tears to Tiara - GAME PC OP - Tears to Tiara.mp4",
      "audiogain": -9.67,
      "loudnorm": "-8.13,2.09,6.90,-18.40,-1.32",
      "filesize": 13654732,
      "duration": 108,
      "default": true,
      "lyrics": [
        {
          "filename": "JPN - Tears to Tiara - GAME PC OP - Tears to Tiara.ass",
          "default": true,
          "version": "Default"
        }
      ]
    }
  ],
  "data": {
    "created_at": "2017-10-11T17:01:36.000Z",
    "ignoreHooks": false,
    "kid": "d6115d20-c4c8-48f8-b386-38cb91ad8435",
    "modified_at": "2022-09-25T12:11:18.253Z",
    "repository": "kara.moe",
    "tags": {
      "authors": [
        "5bdaba57-27f8-4568-8806-76a807728766"
      ],
      "collections": [
        "c7db86a0-ff64-4044-9be4-66dd1ef1d1c1"
      ],
      "creators": [
        "e4be2d33-8a2e-4aa8-9cec-e756b5e91eb4"
      ],
      "families": [
        "dbedd6b3-d125-4cd8-aa32-c4175e4ca3a3"
      ],
      "groups": [
        "3c14c864-533c-49e6-a3cc-6969f1233775"
      ],
      "langs": [
        "4dcf9614-7914-42aa-99f4-dbce2e059133"
      ],
      "origins": [
        "2f96e82c-c61b-4413-817e-e6b247509b95"
      ],
      "platforms": [
        "3c15f758-e1bc-4266-8bb9-3c14112f504a",
        "6b101aff-4b7b-4b0d-b35e-0f1b67e38c9b",
        "7f63ff91-7961-4488-888d-4bf46eea3a2a"
      ],
      "series": [
        "d0173124-e964-4ea0-b21f-ae09311032d9"
      ],
      "singers": [
        "cff67d5c-76f1-4ecd-9e1d-5a75e42c9c44"
      ],
      "songtypes": [
        "f02ad9b3-0bd9-4aad-85b3-9976739ba0e4"
      ],
      "songwriters": [
        "b90a2484-421f-4570-baba-8411b420d560"
      ]
    },
    "titles": {
      "eng": "Tears to Tiara"
    },
    "titles_default_language": "eng",
    "title": "Tears to Tiara",
    "year": 2005
  }
}