{
  "header": {
    "version": 4,
    "description": "Karaoke Mugen Karaoke Data File"
  },
  "medias": [
    {
      "version": "Default",
      "filename": "JPN - Ao no Kanata no Four Rhythm - GAME SWITCH OP - Crossing Way.mp4",
      "audiogain": -0.03,
      "loudnorm": "-17.08,-7.35,4.20,-27.18,-1.04",
      "filesize": 53686695,
      "duration": 119,
      "default": true,
      "lyrics": [
        {
          "filename": "JPN - Ao no Kanata no Four Rhythm - GAME SWITCH OP - Crossing Way.ass",
          "default": true,
          "version": "Default"
        }
      ]
    }
  ],
  "data": {
    "created_at": "2022-02-17T21:59:05.355Z",
    "ignoreHooks": false,
    "kid": "8eaf3d3c-bc89-4aa1-92a0-5f5a1248d3fc",
    "modified_at": "2022-02-17T22:00:14.647Z",
    "repository": "kara.moe",
    "tags": {
      "authors": [
        "56b54c89-86ae-4635-992f-ddc1234b8015"
      ],
      "collections": [
        "c7db86a0-ff64-4044-9be4-66dd1ef1d1c1"
      ],
      "creators": [
        "28961b66-ec49-4a5c-943a-92f73c00f15b"
      ],
      "families": [
        "dbedd6b3-d125-4cd8-aa32-c4175e4ca3a3"
      ],
      "groups": [
        "8c22c899-b3ed-42da-a548-ce00f950798b",
        "ae613721-1fbe-480d-ba6b-d6d0702b184d"
      ],
      "langs": [
        "4dcf9614-7914-42aa-99f4-dbce2e059133"
      ],
      "origins": [
        "2f96e82c-c61b-4413-817e-e6b247509b95"
      ],
      "platforms": [
        "0a880bfc-d0e5-448b-98d2-4ba7b3106641"
      ],
      "series": [
        "056a9c8e-70b4-40d8-ae22-62676bdb9624"
      ],
      "singers": [
        "eadba8da-5c1b-45ca-b916-abd87d3784d9"
      ],
      "songtypes": [
        "f02ad9b3-0bd9-4aad-85b3-9976739ba0e4"
      ],
      "songwriters": [
        "eadba8da-5c1b-45ca-b916-abd87d3784d9",
        "edc9eca7-3069-4437-94bd-b34cfae4542a"
      ]
    },
    "titles": {
      "eng": "Crossing Way"
    },
    "title": "Crossing Way",
    "year": 2018,
    "titles_default_language": "eng"
  }
}