{
  "header": {
    "version": 4,
    "description": "Karaoke Mugen Karaoke Data File"
  },
  "medias": [
    {
      "version": "Default",
      "filename": "JPN - THE iDOLM@STER Million Live! Theater Days - GAME AUDIO CS - Chou Genki Show Idol ch@ng! ~ Full Vers.mp3",
      "audiogain": -10.07,
      "loudnorm": "-8.61,3.32,4.30,-18.82,-0.76",
      "filesize": 4696260,
      "duration": 194,
      "default": true,
      "lyrics": [
        {
          "filename": "JPN - THE iDOLM@STER Million Live! Theater Days - GAME AUDIO CS - Chou Genki Show Idol ch@ng! ~ Full Vers.ass",
          "default": true,
          "version": "Default"
        }
      ]
    }
  ],
  "data": {
    "created_at": "2022-11-13T22:28:55.499Z",
    "ignoreHooks": false,
    "kid": "733dd512-8c50-455d-b976-469df4f74527",
    "modified_at": "2022-11-20T16:46:01.894Z",
    "parents": [
      "5f990932-7281-4c6b-9681-330fd8eeedfb"
    ],
    "repository": "kara.moe",
    "tags": {
      "authors": [
        "2941868f-535f-4ea6-99f9-a0192e0e4dc7"
      ],
      "collections": [
        "c7db86a0-ff64-4044-9be4-66dd1ef1d1c1"
      ],
      "creators": [
        "c3e622d4-2686-4331-8691-d528c8647088"
      ],
      "families": [
        "dbedd6b3-d125-4cd8-aa32-c4175e4ca3a3"
      ],
      "genres": [
        "caa86df2-0d59-474b-885c-f240a9e891b0"
      ],
      "groups": [
        "ae613721-1fbe-480d-ba6b-d6d0702b184d"
      ],
      "langs": [
        "4dcf9614-7914-42aa-99f4-dbce2e059133"
      ],
      "series": [
        "07474742-fb4f-46d6-9140-1545b637f33c"
      ],
      "singers": [
        "f0ad8a12-d02a-4038-ab77-626270577968"
      ],
      "songtypes": [
        "42a262ae-acba-4ab5-a446-c5789c96c821",
        "a8a2616c-b5a1-4df3-ad6f-89291bc67dee"
      ],
      "songwriters": [
        "014d4eb9-a34c-4534-923d-122aa6033635",
        "2171ee13-d4af-4a9c-8d59-dc098b4d3669"
      ],
      "versions": [
        "c2143a7f-6970-450e-8a79-0302db9220a9"
      ],
      "franchises": [
        "d34ceea8-7d7c-4d85-9213-18d24d2b7666"
      ]
    },
    "titles": {
      "jpn": "チョー↑元気Show☆アイドルch@ng！",
      "qro": "Chô↑Genki Show☆Idol ch@ng!"
    },
    "titles_default_language": "qro",
    "titles_aliases": [
      "chang",
      "Super Energy",
      "Chou↑Genki"
    ],
    "year": 2013
  }
}