{
  "header": {
    "version": 4,
    "description": "Karaoke Mugen Karaoke Data File"
  },
  "medias": [
    {
      "version": "Default",
      "filename": "JPN - Boku no Te no Naka no Rakuen - PC GAME OP - Papiliones.mp4",
      "audiogain": -7.56,
      "loudnorm": "-10.34,0.50,7.90,-20.54,-1.66",
      "filesize": 39293208,
      "duration": 106,
      "default": true,
      "lyrics": [
        {
          "filename": "JPN - Boku no Te no Naka no Rakuen - PC GAME OP - Papiliones.ass",
          "default": true,
          "version": "Default",
          "subchecksum": "85e6b453441967c1a69c2d21ae3eb6b4"
        }
      ]
    }
  ],
  "data": {
    "created_at": "2020-08-23T14:59:41.904Z",
    "kid": "b4809f7b-41f1-47e4-b9cc-e39bd7aaf831",
    "modified_at": "2021-02-25T10:55:54.974Z",
    "repository": "kara.moe",
    "tags": {
      "authors": [
        "8605a8b9-3b45-44b9-9d98-1a25096bf702"
      ],
      "collections": [
        "c7db86a0-ff64-4044-9be4-66dd1ef1d1c1"
      ],
      "creators": [
        "1ae669e4-89dd-48e4-99fe-de9294cdb2e1"
      ],
      "families": [
        "dbedd6b3-d125-4cd8-aa32-c4175e4ca3a3"
      ],
      "groups": [
        "3c14c864-533c-49e6-a3cc-6969f1233775"
      ],
      "langs": [
        "4dcf9614-7914-42aa-99f4-dbce2e059133"
      ],
      "origins": [
        "2f96e82c-c61b-4413-817e-e6b247509b95"
      ],
      "platforms": [
        "3c15f758-e1bc-4266-8bb9-3c14112f504a"
      ],
      "series": [
        "837eeb91-71ec-4866-9a49-0e4ea6786e37"
      ],
      "singers": [
        "3b97f60d-23e3-4e23-bf7f-9835bba682a7"
      ],
      "songtypes": [
        "f02ad9b3-0bd9-4aad-85b3-9976739ba0e4"
      ],
      "songwriters": [
        "39ae2279-768e-4532-8696-3fd4ac55bb24"
      ]
    },
    "title": "Papiliones",
    "titles": {
      "lat": "Papiliones"
    },
    "year": 2009,
    "titles_default_language": "lat"
  }
}