{
  "header": {
    "version": 4,
    "description": "Karaoke Mugen Karaoke Data File"
  },
  "medias": [
    {
      "version": "Default",
      "filename": "JPN - Fate Grand Order - GAME OP - Shikisai.mp4",
      "audiogain": -3.02,
      "loudnorm": "-15.25,-1.03,10.20,-25.45,-2.48",
      "filesize": 89537970,
      "duration": 95,
      "default": true,
      "lyrics": [
        {
          "filename": "JPN - Fate Grand Order - GAME OP - Shikisai.ass",
          "default": true,
          "version": "Default",
          "subchecksum": "e0f6468826dda34b2ee35a70845a2095"
        }
      ]
    }
  ],
  "data": {
    "created_at": "2017-10-11T15:03:03.000Z",
    "kid": "c416f72c-7216-487c-9aa0-1e98b0b91f6d",
    "modified_at": "2021-02-25T11:18:09.728Z",
    "repository": "kara.moe",
    "tags": {
      "authors": [
        "ad713171-dcf0-4076-911c-6764037096a1"
      ],
      "collections": [
        "c7db86a0-ff64-4044-9be4-66dd1ef1d1c1"
      ],
      "creators": [
        "b5089155-c514-471a-9d77-1bf1bbdaf8c5"
      ],
      "families": [
        "0377db02-3af6-43b8-9b08-c759df3d25c3",
        "dbedd6b3-d125-4cd8-aa32-c4175e4ca3a3"
      ],
      "groups": [
        "8c22c899-b3ed-42da-a548-ce00f950798b",
        "ae613721-1fbe-480d-ba6b-d6d0702b184d"
      ],
      "langs": [
        "4dcf9614-7914-42aa-99f4-dbce2e059133"
      ],
      "platforms": [
        "213a1a15-e73a-4a08-b3f6-b6e2745a82e5"
      ],
      "series": [
        "10b904fe-ddf9-4966-bedd-943b72f68c0c"
      ],
      "singers": [
        "1e93160f-11bb-4d02-b716-4660cb29206e"
      ],
      "songtypes": [
        "f02ad9b3-0bd9-4aad-85b3-9976739ba0e4"
      ],
      "songwriters": [
        "1e93160f-11bb-4d02-b716-4660cb29206e",
        "4f4ce48d-6126-4f86-ba66-6fdb176748ec"
      ],
      "franchises": [
        "564373dc-4cfa-454e-8af1-bcccb886c007"
      ]
    },
    "title": "Shikisai",
    "titles": {
      "qro": "Shikisai",
      "jpn": "色彩"
    },
    "year": 2015,
    "titles_default_language": "qro"
  }
}