{
  "header": {
    "version": 4,
    "description": "Karaoke Mugen Karaoke Data File"
  },
  "medias": [
    {
      "version": "Default",
      "filename": "JPN - Sonic The Hedgehog - MV - Tsugi no se no! de - ON THE GREEN HILL ~ Full Vers.mp4",
      "audiogain": -7.59,
      "loudnorm": "-9.59,0.30,4.50,-19.66,-0.85",
      "filesize": 78326891,
      "duration": 257,
      "default": true,
      "lyrics": [
        {
          "filename": "JPN - Sonic The Hedgehog - MV - Tsugi no se no! de - ON THE GREEN HILL ~ Full Vers.ass",
          "default": true,
          "version": "Default"
        }
      ]
    }
  ],
  "data": {
    "created_at": "2022-06-30T21:59:39.724Z",
    "ignoreHooks": false,
    "kid": "0e66072b-f0d3-471a-81a4-d560ad674bed",
    "modified_at": "2022-12-22T16:08:49.981Z",
    "parents": [
      "82641d60-dad7-4a5e-ab0b-5f5a2dd12cd3"
    ],
    "repository": "kara.moe",
    "tags": {
      "authors": [
        "06852e02-b77e-4106-b6f7-2d03942ad0ea"
      ],
      "collections": [
        "c7db86a0-ff64-4044-9be4-66dd1ef1d1c1"
      ],
      "creators": [
        "f963181a-1214-47f8-b6f9-1705cbc33779"
      ],
      "families": [
        "5391f9fe-638c-415f-8dc9-958e3a2c5787"
      ],
      "groups": [
        "8e209ae4-4381-438f-89dc-1b21752027d2"
      ],
      "langs": [
        "4dcf9614-7914-42aa-99f4-dbce2e059133"
      ],
      "series": [
        "7ea913cb-a1d7-420c-acba-ea96c965c87f"
      ],
      "singers": [
        "3ea68cea-9b4a-4e2f-ba14-c9ab3734dacb"
      ],
      "songtypes": [
        "7be1b15c-cff8-4b37-a649-5c90f3d569a9"
      ],
      "songwriters": [
        "76517704-d450-4e5e-a091-3ae8aee27f6d",
        "b37dc4bc-46b9-43d1-8fb5-b2b2a6d298be"
      ],
      "versions": [
        "c2143a7f-6970-450e-8a79-0302db9220a9"
      ],
      "franchises": [
        "09c42215-106e-4379-b6cf-787fb812aaae"
      ]
    },
    "titles": {
      "eng": "Tsugi no se no! de - ON THE GREEN HILL",
      "jpn": "次のせ〜の！で - ON THE GREEN HILL"
    },
    "titles_default_language": "eng",
    "year": 2022
  }
}