{
  "header": {
    "version": 4,
    "description": "Karaoke Mugen Karaoke Data File"
  },
  "medias": [
    {
      "version": "Default",
      "filename": "JPN - God Eater 3 - GAME PS4 MV - stereo future.mp4",
      "audiogain": -9.77,
      "loudnorm": "-7.43,1.12,4.00,-17.52,-0.41",
      "filesize": 147285788,
      "duration": 271,
      "default": true,
      "lyrics": [
        {
          "filename": "JPN - God Eater 3 - GAME PS4 MV - stereo future.ass",
          "default": true,
          "version": "Default"
        }
      ]
    }
  ],
  "data": {
    "created_at": "2019-03-23T19:18:18.000Z",
    "kid": "5f95fe13-a85e-4fca-88e0-8cce16c35fe4",
    "modified_at": "2022-06-04T00:20:26.244Z",
    "repository": "kara.moe",
    "songorder": null,
    "tags": {
      "authors": [
        "8adb31b3-a25c-4897-8410-5526d47a0230"
      ],
      "creators": [
        "90caf15e-bc86-46e1-8793-9af7906c8310"
      ],
      "families": [
        "5391f9fe-638c-415f-8dc9-958e3a2c5787",
        "dbedd6b3-d125-4cd8-aa32-c4175e4ca3a3"
      ],
      "groups": [
        "8c22c899-b3ed-42da-a548-ce00f950798b",
        "ae613721-1fbe-480d-ba6b-d6d0702b184d"
      ],
      "langs": [
        "4dcf9614-7914-42aa-99f4-dbce2e059133"
      ],
      "platforms": [
        "248d92ee-8c02-43bc-86e2-cc6029883564",
        "3c15f758-e1bc-4266-8bb9-3c14112f504a"
      ],
      "series": [
        "550546e0-7e26-496c-be1a-7d6e57fef570"
      ],
      "singers": [
        "8b877341-a725-482b-a034-d87428619ee6"
      ],
      "songtypes": [
        "7be1b15c-cff8-4b37-a649-5c90f3d569a9"
      ],
      "songwriters": [
        "8b877341-a725-482b-a034-d87428619ee6"
      ],
      "collections": [
        "dbcf2c22-524d-4708-99bb-601703633927"
      ],
      "franchises": [
        "76856aed-cd68-46aa-b9a8-bc9d7bd0b587"
      ]
    },
    "titles": {
      "eng": "stereo future"
    },
    "titles_default_language": "eng",
    "title": "stereo future",
    "year": 2018
  }
}