{
  "header": {
    "version": 4,
    "description": "Karaoke Mugen Karaoke Data File"
  },
  "medias": [
    {
      "version": "Default",
      "filename": "JPN - Boruto Naruto Next Generations - ED7 - Polaris.mp4",
      "audiogain": -0.62,
      "loudnorm": "-16.01,-4.21,3.90,-26.23,-0.97",
      "filesize": 19346509,
      "duration": 90,
      "default": true,
      "lyrics": [
        {
          "filename": "JPN - Boruto Naruto Next Generations - ED7 - Polaris.ass",
          "default": true,
          "version": "Default",
          "subchecksum": "31616dd70c723e20ce9d22392ea1f7ce"
        }
      ]
    }
  ],
  "data": {
    "created_at": "2019-01-25T11:01:38.000Z",
    "kid": "35c9603d-545d-421e-b072-f8db7dc0478c",
    "modified_at": "2021-02-25T10:56:24.371Z",
    "repository": "kara.moe",
    "songorder": 7,
    "tags": {
      "authors": [
        "b5116310-e69b-4ed4-9e47-c5c53ee69023"
      ],
      "collections": [
        "c7db86a0-ff64-4044-9be4-66dd1ef1d1c1"
      ],
      "creators": [
        "aaff4ba6-9a12-4bac-9bd0-c0cb783e4177"
      ],
      "families": [
        "0377db02-3af6-43b8-9b08-c759df3d25c3"
      ],
      "genres": [
        "a0aeef4a-6428-45ff-a6e1-468b595930c2"
      ],
      "groups": [
        "ae613721-1fbe-480d-ba6b-d6d0702b184d"
      ],
      "langs": [
        "4dcf9614-7914-42aa-99f4-dbce2e059133"
      ],
      "origins": [
        "938de218-5343-4865-94d3-fb33f2eaa152"
      ],
      "series": [
        "956034b8-358d-4d28-8d4f-613529fc50b6"
      ],
      "singers": [
        "26f212a2-3dcc-40f0-8b0e-0e65b6bdb80e"
      ],
      "songtypes": [
        "38c77c56-2b95-4040-b676-0994a8cb0597"
      ],
      "songwriters": [
        "b08f2c69-8493-4187-a86d-495b91f1a6a5"
      ],
      "franchises": [
        "3201e723-3e75-46f9-bb21-d991f4f7731e"
      ]
    },
    "title": "Polaris",
    "titles": {
      "eng": "Polaris",
      "jpn": "ポラリス"
    },
    "year": 2017,
    "titles_default_language": "eng"
  }
}