{
  "header": {
    "version": 4,
    "description": "Karaoke Mugen Karaoke Data File"
  },
  "medias": [
    {
      "version": "Default",
      "filename": "JPN - takt op.Destiny - ED - SYMPHONIA.mp4",
      "audiogain": 1.39,
      "loudnorm": "-18.58,-7.14,10.90,-29.06,-0.56",
      "filesize": 91690337,
      "duration": 92,
      "default": true,
      "lyrics": [
        {
          "filename": "JPN - takt op.Destiny - ED - SYMPHONIA.ass",
          "default": true,
          "version": "Default"
        }
      ]
    }
  ],
  "data": {
    "created_at": "2022-10-28T10:22:08.542Z",
    "ignoreHooks": false,
    "kid": "6c6ac50f-f278-4a25-b824-7f019e3f48d2",
    "modified_at": "2022-10-28T10:22:08.645Z",
    "repository": "kara.moe",
    "tags": {
      "authors": [
        "9cdf3b70-3550-457c-bdb9-038f3253c6ad"
      ],
      "collections": [
        "c7db86a0-ff64-4044-9be4-66dd1ef1d1c1"
      ],
      "creators": [
        "9c5cf6ba-0bc8-4cfe-a63c-e9be3a14e9fd",
        "0a86e9ea-5e17-4371-8f2a-60c818324d58"
      ],
      "families": [
        "0377db02-3af6-43b8-9b08-c759df3d25c3"
      ],
      "langs": [
        "4dcf9614-7914-42aa-99f4-dbce2e059133"
      ],
      "misc": [
        "fe819ff1-9db8-4a0f-85dc-0e322c9126c4"
      ],
      "origins": [
        "938de218-5343-4865-94d3-fb33f2eaa152"
      ],
      "series": [
        "a6312933-5bc1-4984-804b-10e811048978"
      ],
      "singers": [
        "8311fc73-f6c6-40ec-b2bb-3910f4b1733a"
      ],
      "songtypes": [
        "38c77c56-2b95-4040-b676-0994a8cb0597"
      ],
      "songwriters": [
        "0cb3d239-b242-4321-af70-58047ec9c471"
      ],
      "groups": [
        "8e209ae4-4381-438f-89dc-1b21752027d2"
      ]
    },
    "titles": {
      "ita": "SYMPHONIA"
    },
    "titles_default_language": "ita",
    "title": "SYMPHONIA",
    "year": 2021
  }
}