{
  "header": {
    "version": 4,
    "description": "Karaoke Mugen Karaoke Data File"
  },
  "medias": [
    {
      "version": "Default",
      "filename": "JPN - En'en no shouboutai - MV - Inferno ~ Full Vers.mp4",
      "audiogain": 3.84,
      "loudnorm": "-20.81,-13.90,3.40,-30.82,-0.30",
      "filesize": 71517460,
      "duration": 212,
      "default": true,
      "lyrics": [
        {
          "filename": "JPN - En'en no shouboutai - MV - Inferno ~ Full Vers.ass",
          "default": true,
          "version": "Default"
        }
      ]
    }
  ],
  "data": {
    "created_at": "2020-03-01T16:08:15.192Z",
    "kid": "ba7d88f7-ccbc-4de3-801d-361994b6c5d0",
    "modified_at": "2022-06-04T00:22:53.299Z",
    "parents": [
      "5f12fa92-b7e5-4f18-bb31-2688204936db"
    ],
    "repository": "kara.moe",
    "songorder": null,
    "tags": {
      "authors": [
        "269d1464-84f9-44da-9064-1d074bafb602"
      ],
      "creators": [
        "76505349-8ced-40ad-936d-c5bd3e92b1f7"
      ],
      "families": [
        "5391f9fe-638c-415f-8dc9-958e3a2c5787"
      ],
      "groups": [
        "2b4e9972-5e17-481b-99f5-d0787c0ada56",
        "ae613721-1fbe-480d-ba6b-d6d0702b184d"
      ],
      "langs": [
        "4dcf9614-7914-42aa-99f4-dbce2e059133"
      ],
      "series": [
        "bab4a47c-7a0c-401b-a2ca-f87a01ae733e"
      ],
      "singers": [
        "c90e7377-96a3-4476-851c-c8fa743748d3"
      ],
      "songtypes": [
        "7be1b15c-cff8-4b37-a649-5c90f3d569a9"
      ],
      "songwriters": [
        "6e59f1d5-9dfe-436d-a44d-5698f87b9fb7"
      ],
      "versions": [
        "c2143a7f-6970-450e-8a79-0302db9220a9"
      ],
      "collections": [
        "dbcf2c22-524d-4708-99bb-601703633927"
      ],
      "franchises": [
        "bab4a47c-7a0c-401b-a2ca-f87a01ae733e"
      ]
    },
    "titles": {
      "eng": "Inferno",
      "jpn": "インフェルノ"
    },
    "titles_default_language": "eng",
    "title": "Inferno",
    "year": 2019
  }
}