{
  "header": {
    "version": 4,
    "description": "Karaoke Mugen Karaoke Data File"
  },
  "medias": [
    {
      "version": "Default",
      "filename": "JPN - L@ve Once Mermaid's Tears - PS3 GAME OP - Ichidokiri no Love Story.mp4",
      "audiogain": -10.17,
      "loudnorm": "-7.58,0.89,4.30,-17.81,-0.98",
      "filesize": 25170332,
      "duration": 90,
      "default": true,
      "lyrics": [
        {
          "filename": "JPN - L@ve Once Mermaid's Tears - PS3 GAME OP - Ichidokiri no Love Story.ass",
          "default": true,
          "version": "Default",
          "subchecksum": "3946242dd13475d73cbbee814e294c00"
        }
      ]
    }
  ],
  "data": {
    "created_at": "2017-10-11T17:02:02.000Z",
    "kid": "7d8b612d-1d39-4002-b5b4-03c0632f8476",
    "modified_at": "2021-02-25T12:09:19.199Z",
    "repository": "kara.moe",
    "tags": {
      "authors": [
        "1b2f4ffc-ba49-4646-9eab-d19abe7e4081"
      ],
      "collections": [
        "c7db86a0-ff64-4044-9be4-66dd1ef1d1c1"
      ],
      "creators": [
        "698f283e-73f7-4d93-9ba3-bab16c6efa8b"
      ],
      "families": [
        "dbedd6b3-d125-4cd8-aa32-c4175e4ca3a3"
      ],
      "groups": [
        "8c22c899-b3ed-42da-a548-ce00f950798b",
        "ae613721-1fbe-480d-ba6b-d6d0702b184d"
      ],
      "langs": [
        "4dcf9614-7914-42aa-99f4-dbce2e059133"
      ],
      "origins": [
        "2f96e82c-c61b-4413-817e-e6b247509b95"
      ],
      "platforms": [
        "7f63ff91-7961-4488-888d-4bf46eea3a2a"
      ],
      "series": [
        "344aa97d-a7e8-407f-9f45-5744d305cac9"
      ],
      "singers": [
        "484841d3-97ae-4312-9296-44088bf544f0"
      ],
      "songtypes": [
        "f02ad9b3-0bd9-4aad-85b3-9976739ba0e4"
      ],
      "songwriters": [
        "6159a525-0caa-4ff2-b54c-88111e456dbc",
        "ab96651b-0753-40e6-b683-11763ad391de"
      ]
    },
    "title": "Ichidokiri no Love Story",
    "titles": {
      "qro": "Ichidokiri no Love Story",
      "jpn": "一度きりのLove Story"
    },
    "year": 2011,
    "titles_default_language": "qro"
  }
}