{
  "header": {
    "version": 4,
    "description": "Karaoke Mugen Karaoke Data File"
  },
  "medias": [
    {
      "version": "Full.",
      "filename": "JPN - BanG Dream! - GAME AUDIO - Louder ~ Full Vers.mp3",
      "audiogain": -10.84,
      "loudnorm": "-6.12,0.74,3.30,-16.18,-0.27",
      "filesize": 15210898,
      "duration": 215,
      "default": true,
      "lyrics": [
        {
          "filename": "JPN - BanG Dream! - GAME AUDIO - Louder ~ Full Vers.ass",
          "default": true,
          "version": "Default",
          "subchecksum": "610e1a9543557acec4f97d308e238c55"
        }
      ]
    }
  ],
  "data": {
    "created_at": "2019-03-22T16:51:23.000Z",
    "kid": "73b75c17-c156-470f-bf22-e6dd81dddfa0",
    "modified_at": "2021-05-23T22:38:24.662Z",
    "parents": [
      "891c0b61-3f6b-46a4-ae65-f3da79804ae8"
    ],
    "repository": "kara.moe",
    "tags": {
      "authors": [
        "34fb11c3-d473-4bb4-b185-d9ab528da1ea"
      ],
      "collections": [
        "c7db86a0-ff64-4044-9be4-66dd1ef1d1c1"
      ],
      "creators": [
        "bd4564a8-44e5-454a-9c57-bd2a3c8a537e"
      ],
      "families": [
        "dbedd6b3-d125-4cd8-aa32-c4175e4ca3a3"
      ],
      "groups": [
        "ae613721-1fbe-480d-ba6b-d6d0702b184d"
      ],
      "langs": [
        "4dcf9614-7914-42aa-99f4-dbce2e059133"
      ],
      "platforms": [
        "213a1a15-e73a-4a08-b3f6-b6e2745a82e5"
      ],
      "series": [
        "a65e956d-39ab-4995-9ede-889c30a5cbf0"
      ],
      "singers": [
        "371f95d8-5385-4728-8dbb-0cd3e5892ce4",
        "b6ca1298-fced-405c-9c84-eab18ebc38ba"
      ],
      "songtypes": [
        "42a262ae-acba-4ab5-a446-c5789c96c821"
      ],
      "songwriters": [
        "178dcba7-6d20-40b9-baea-d7d3e38e2c25",
        "60c782e0-d553-46c4-a470-bf13b3c88689"
      ],
      "versions": [
        "c2143a7f-6970-450e-8a79-0302db9220a9"
      ],
      "franchises": [
        "a65e956d-39ab-4995-9ede-889c30a5cbf0"
      ]
    },
    "title": "Louder",
    "titles": {
      "eng": "LOUDER"
    },
    "year": 2017,
    "titles_default_language": "eng"
  }
}