{
  "header": {
    "version": 4,
    "description": "Karaoke Mugen Karaoke Data File"
  },
  "medias": [
    {
      "version": "Alternative Ver.",
      "filename": "JPN - Bungou Stray Dogs S3 - OP2 - Setsuna no Ai ~ Alternative Ver.mp4",
      "audiogain": -0.93,
      "loudnorm": "-16.16,-6.33,5.00,-26.22,-0.81",
      "filesize": 87878582,
      "duration": 92,
      "default": true,
      "lyrics": [
        {
          "filename": "JPN - Bungou Stray Dogs S3 - OP2 - Setsuna no Ai ~ Alternative Ver.ass",
          "default": true,
          "version": "Default",
          "subchecksum": "839735a7c6d2cbd36fbfd74a313eac33"
        }
      ]
    }
  ],
  "data": {
    "created_at": "2019-11-26T12:53:04.303Z",
    "kid": "a7c183d1-27a3-4c98-b5f6-b19daef1dfdb",
    "modified_at": "2021-02-25T10:58:28.978Z",
    "parents": [
      "0da98338-6da8-4911-80f9-f6ee407713f7"
    ],
    "repository": "kara.moe",
    "songorder": 2,
    "tags": {
      "authors": [
        "9097cd02-aa6c-4b63-8281-164e7540ecf2"
      ],
      "collections": [
        "c7db86a0-ff64-4044-9be4-66dd1ef1d1c1"
      ],
      "creators": [
        "57ffcdd9-7e4f-4971-85ce-0fb3aa8151ac"
      ],
      "families": [
        "0377db02-3af6-43b8-9b08-c759df3d25c3"
      ],
      "genres": [
        "a0aeef4a-6428-45ff-a6e1-468b595930c2"
      ],
      "groups": [
        "ae613721-1fbe-480d-ba6b-d6d0702b184d"
      ],
      "langs": [
        "4dcf9614-7914-42aa-99f4-dbce2e059133"
      ],
      "misc": [
        "fe819ff1-9db8-4a0f-85dc-0e322c9126c4"
      ],
      "origins": [
        "938de218-5343-4865-94d3-fb33f2eaa152"
      ],
      "series": [
        "36944e8e-675a-4728-97e8-fb960e90c2b1"
      ],
      "singers": [
        "213ca674-9084-40ad-a7a8-c84d8108fce9"
      ],
      "songtypes": [
        "f02ad9b3-0bd9-4aad-85b3-9976739ba0e4"
      ],
      "songwriters": [
        "8e1f109c-a1d4-40d6-9a55-32abdb12993c"
      ],
      "versions": [
        "9f63c359-d1bf-425a-bcf5-b245c2c9211d"
      ],
      "franchises": [
        "1427e787-1b4e-4460-ba4c-8e724b802d80"
      ]
    },
    "title": "Setsuna no Ai ~ Alternative Ver.",
    "titles": {
      "qro": "Setsuna no Ai ~ Alternative Ver.",
      "jpn": "セツナの愛 ~ Alternative Vers."
    },
    "year": 2019,
    "titles_default_language": "qro"
  }
}