{
  "header": {
    "version": 4,
    "description": "Karaoke Mugen Karaoke Data File"
  },
  "medias": [
    {
      "version": "Default",
      "filename": "JPN - Gintama - IN - Dondake! Gintaman.avi",
      "audiogain": -0.34,
      "loudnorm": "-17.46,-6.67,9.70,-27.61,-1.83",
      "filesize": 26844694,
      "duration": 66,
      "default": true,
      "lyrics": [
        {
          "filename": "JPN - Gintama - IN - Dondake! Gintaman.ass",
          "default": true,
          "version": "Default",
          "subchecksum": "8c5afb58481d62ef0f9982ec0acd3686"
        }
      ]
    }
  ],
  "data": {
    "created_at": "2017-10-11T17:01:40.000Z",
    "kid": "7b933f16-bbe2-4781-bf7e-e2fcecfccb92",
    "modified_at": "2021-02-25T11:28:43.609Z",
    "repository": "kara.moe",
    "tags": {
      "authors": [
        "5bdaba57-27f8-4568-8806-76a807728766"
      ],
      "collections": [
        "c7db86a0-ff64-4044-9be4-66dd1ef1d1c1"
      ],
      "creators": [
        "ef8f80e1-d244-4aea-b7f0-984d6dd4b82b"
      ],
      "families": [
        "0377db02-3af6-43b8-9b08-c759df3d25c3"
      ],
      "genres": [
        "a0aeef4a-6428-45ff-a6e1-468b595930c2"
      ],
      "groups": [
        "3c14c864-533c-49e6-a3cc-6969f1233775"
      ],
      "langs": [
        "4dcf9614-7914-42aa-99f4-dbce2e059133"
      ],
      "origins": [
        "938de218-5343-4865-94d3-fb33f2eaa152"
      ],
      "series": [
        "0433ab0b-74bb-4837-8f1b-fd17a9e0c526"
      ],
      "singers": [
        "016f15c2-4481-4d2f-97fc-72077b2f4a23"
      ],
      "songtypes": [
        "5e5250d9-351a-4a82-98eb-55db50ad8962"
      ],
      "songwriters": [
        "48f38154-2803-4357-b9f5-e9134bfa1cec"
      ],
      "franchises": [
        "0433ab0b-74bb-4837-8f1b-fd17a9e0c526"
      ]
    },
    "title": "Dondake! Gintaman",
    "titles": {
      "qro": "Dondake! Gintaman",
      "jpn": "どんだけー!ギンタマン"
    },
    "year": 2008,
    "titles_default_language": "qro"
  }
}