{
  "header": {
    "version": 4,
    "description": "Karaoke Mugen Karaoke Data File"
  },
  "medias": [
    {
      "version": "Default",
      "filename": "JPN - Touhou - AUDIO - Necro Fantasia.mp3",
      "audiogain": -9.24,
      "loudnorm": "-8.39,1.81,8.00,-18.48,-1.27",
      "filesize": 5830522,
      "duration": 341,
      "default": true,
      "lyrics": [
        {
          "filename": "JPN - Touhou - AUDIO - Necro Fantasia.ass",
          "default": true,
          "version": "Default"
        }
      ]
    }
  ],
  "data": {
    "created_at": "2023-01-07T15:19:25.980Z",
    "ignoreHooks": false,
    "kid": "7f755250-81ab-48a8-ab96-415206cf44ff",
    "modified_at": "2023-01-07T15:19:26.616Z",
    "repository": "kara.moe",
    "tags": {
      "authors": [
        "df5f446f-d161-4760-8e0c-822e70ea03ae"
      ],
      "collections": [
        "c7db86a0-ff64-4044-9be4-66dd1ef1d1c1"
      ],
      "creators": [
        "d57e7ffa-d32f-41d8-b909-5b10126283f4"
      ],
      "langs": [
        "4dcf9614-7914-42aa-99f4-dbce2e059133"
      ],
      "series": [
        "1bdaa5a1-dfa6-4365-b746-7a0b194dafd6"
      ],
      "singers": [
        "b366e7d4-9905-4e54-a97f-dcb26c354210"
      ],
      "songtypes": [
        "42a262ae-acba-4ab5-a446-c5789c96c821"
      ],
      "songwriters": [
        "161b51ee-adbb-4e39-84c6-bde865a368bf",
        "9607f3c8-c583-4471-9075-308f46745afd"
      ],
      "franchises": [
        "1bdaa5a1-dfa6-4365-b746-7a0b194dafd6"
      ],
      "groups": [
        "3c14c864-533c-49e6-a3cc-6969f1233775",
        "df5f446f-d161-4760-8e0c-822e70ea03ae"
      ],
      "misc": [
        "86705d4b-24e4-4756-9687-2b9c98bcf366"
      ]
    },
    "titles": {
      "eng": "Necro Fantasia"
    },
    "titles_default_language": "eng",
    "year": 2008
  }
}