{
  "header": {
    "version": 4,
    "description": "Karaoke Mugen Karaoke Data File"
  },
  "medias": [
    {
      "version": "Default",
      "filename": "JPN - Chou Jikuu Yousai Macross - OP - Macross.mp4",
      "audiogain": 3.91,
      "loudnorm": "-22.19,-7.85,4.30,-32.45,-0.60",
      "filesize": 30014950,
      "duration": 93,
      "default": true,
      "lyrics": [
        {
          "filename": "JPN - Chou Jikuu Yousai Macross - OP - Macross.ass",
          "default": true,
          "version": "Default"
        }
      ]
    }
  ],
  "data": {
    "created_at": "2017-10-11T17:02:37.000Z",
    "kid": "7b99f152-78fd-4874-bcf0-a0b2cd063984",
    "modified_at": "2021-12-29T21:03:46.237Z",
    "repository": "kara.moe",
    "tags": {
      "authors": [
        "4607780c-f1ef-47cf-9c1c-b13e8f731699"
      ],
      "collections": [
        "c7db86a0-ff64-4044-9be4-66dd1ef1d1c1"
      ],
      "creators": [
        "b07ed549-7bfb-4dbd-8271-671eb632ba15",
        "cfdb2d1e-499d-47a1-b9f8-070153b5048e"
      ],
      "families": [
        "0377db02-3af6-43b8-9b08-c759df3d25c3"
      ],
      "genres": [
        "f60ba57d-5ef4-49e0-b93b-d0dcbcff6592"
      ],
      "groups": [
        "7792cc27-9ff9-4d47-9287-2338b7db1575"
      ],
      "langs": [
        "4dcf9614-7914-42aa-99f4-dbce2e059133"
      ],
      "origins": [
        "938de218-5343-4865-94d3-fb33f2eaa152"
      ],
      "series": [
        "e5fc67a0-69e1-4d5e-9d63-191c44dd44e8"
      ],
      "singers": [
        "011c4b74-4839-4798-9af8-6ae827fbdc72"
      ],
      "songtypes": [
        "f02ad9b3-0bd9-4aad-85b3-9976739ba0e4"
      ],
      "songwriters": [
        "3fac0f8e-dac8-47d6-999d-db3526b90aa9",
        "acc74ee2-6c1c-4995-9b61-3f01fbc7e006"
      ],
      "franchises": [
        "01b9b958-2d2a-43d0-a5dd-efb5b14675ea"
      ]
    },
    "titles": {
      "qro": "Macross",
      "jpn": "マクロス"
    },
    "title": "Macross",
    "year": 1986,
    "titles_default_language": "qro"
  }
}