{
  "header": {
    "version": 4,
    "description": "Karaoke Mugen Karaoke Data File"
  },
  "medias": [
    {
      "version": "Default",
      "filename": "JPN - Wagakki Band - MV - Six Trillion Years and Overnight Story.mp4",
      "audiogain": -9.06,
      "loudnorm": "-7.91,0.42,5.40,-18.33,-0.87",
      "filesize": 19147779,
      "duration": 237,
      "default": true,
      "lyrics": [
        {
          "filename": "JPN - Wagakki Band - MV - Six Trillion Years and Overnight Story.ass",
          "default": true,
          "version": "Default"
        }
      ]
    }
  ],
  "data": {
    "created_at": "2018-06-18T19:40:28.000Z",
    "ignoreHooks": false,
    "kid": "d4f7d5b8-47ee-4541-8af0-515dbf60cbf1",
    "modified_at": "2023-01-29T23:11:05.664Z",
    "repository": "kara.moe",
    "tags": {
      "authors": [
        "8c22c899-b3ed-42da-a548-ce00f950798b"
      ],
      "collections": [
        "dbcf2c22-524d-4708-99bb-601703633927"
      ],
      "creators": [
        "90caf15e-bc86-46e1-8793-9af7906c8310"
      ],
      "families": [
        "5391f9fe-638c-415f-8dc9-958e3a2c5787"
      ],
      "groups": [
        "8c22c899-b3ed-42da-a548-ce00f950798b",
        "ae613721-1fbe-480d-ba6b-d6d0702b184d"
      ],
      "langs": [
        "4dcf9614-7914-42aa-99f4-dbce2e059133"
      ],
      "singers": [
        "c0f34b9f-919b-4db7-be8e-7d06b2b22421"
      ],
      "songtypes": [
        "7be1b15c-cff8-4b37-a649-5c90f3d569a9"
      ],
      "songwriters": [
        "3c1b2603-282d-423b-b828-9a7cf4fb09b6"
      ]
    },
    "titles": {
      "eng": "Six Trillion Years and Overnight Story",
      "jpn": "六兆年と一夜物語",
      "qro": "Roku-chou Nen to Ichiya Monogatari"
    },
    "titles_default_language": "eng",
    "year": 2013
  }
}