{
  "header": {
    "version": 4,
    "description": "Karaoke Mugen Karaoke Data File"
  },
  "medias": [
    {
      "version": "Default",
      "filename": "JPN - Tales of Symphonia Chronicles - PS3 GAME OP - Ninin Sankyaku.mp4",
      "audiogain": -10.2,
      "loudnorm": "-7.42,0.88,4.30,-17.53,-1.50",
      "filesize": 121202240,
      "duration": 149,
      "default": true,
      "lyrics": [
        {
          "filename": "JPN - Tales of Symphonia Chronicles - PS3 GAME OP - Ninin Sankyaku.ass",
          "default": true,
          "version": "Default",
          "subchecksum": "dcae65ee43607081e9860339cbd44eb7"
        }
      ]
    }
  ],
  "data": {
    "created_at": "2019-04-30T21:02:04.000Z",
    "kid": "0cc456b7-c543-480c-8c26-d2d7b211e7a6",
    "modified_at": "2021-02-25T13:16:50.846Z",
    "parents": [
      "69f3a84f-6223-489d-87cf-7f828d4ed18b"
    ],
    "repository": "kara.moe",
    "tags": {
      "authors": [
        "5bdaba57-27f8-4568-8806-76a807728766"
      ],
      "collections": [
        "c7db86a0-ff64-4044-9be4-66dd1ef1d1c1"
      ],
      "creators": [
        "7e37aea2-311a-4b93-8059-ba7a8fad65d9"
      ],
      "families": [
        "dbedd6b3-d125-4cd8-aa32-c4175e4ca3a3"
      ],
      "groups": [
        "3c14c864-533c-49e6-a3cc-6969f1233775",
        "ae613721-1fbe-480d-ba6b-d6d0702b184d"
      ],
      "langs": [
        "4dcf9614-7914-42aa-99f4-dbce2e059133"
      ],
      "platforms": [
        "7f63ff91-7961-4488-888d-4bf46eea3a2a"
      ],
      "series": [
        "62fc2551-c3dd-4ef4-844b-21d901ac9ab0"
      ],
      "singers": [
        "606a54a4-f7b1-42de-ba07-735cbbab169b"
      ],
      "songtypes": [
        "f02ad9b3-0bd9-4aad-85b3-9976739ba0e4"
      ],
      "songwriters": [
        "606a54a4-f7b1-42de-ba07-735cbbab169b",
        "c4674a35-e7ef-43c4-93ef-e913fd00bad9"
      ],
      "franchises": [
        "457ab7f6-9644-4493-b61b-8778400aaf54"
      ]
    },
    "title": "Ninin Sankyaku",
    "titles": {
      "qro": "Ninin Sankyaku",
      "jpn": "二人三脚"
    },
    "year": 2013,
    "titles_default_language": "qro"
  }
}