{
  "header": {
    "version": 4,
    "description": "Karaoke Mugen Karaoke Data File"
  },
  "medias": [
    {
      "version": "Default",
      "filename": "JPN - Komi-san wa, Komyushou Desu. - OP2 - Ao 100 Shoku.mp4",
      "audiogain": 6.25,
      "loudnorm": "-25.66,-13.44,6.60,-35.69,-1.57",
      "filesize": 29862811,
      "duration": 93,
      "default": true,
      "lyrics": [
        {
          "filename": "JPN - Komi-san wa, Komyushou Desu. - OP2 - Ao 100 Shoku.ass",
          "default": true,
          "version": "Default"
        }
      ]
    }
  ],
  "data": {
    "created_at": "2022-04-13T19:59:03.575Z",
    "ignoreHooks": false,
    "kid": "c6c8cef4-b777-44cc-9268-ce0f6c458a98",
    "modified_at": "2022-05-13T16:03:37.762Z",
    "repository": "kara.moe",
    "songorder": 2,
    "tags": {
      "authors": [
        "1df04771-a378-4f14-a5e1-1455187d681a"
      ],
      "collections": [
        "c7db86a0-ff64-4044-9be4-66dd1ef1d1c1"
      ],
      "creators": [
        "03fe574b-c7f5-4520-96dc-47320c39e2cc"
      ],
      "families": [
        "0377db02-3af6-43b8-9b08-c759df3d25c3"
      ],
      "groups": [
        "8e209ae4-4381-438f-89dc-1b21752027d2"
      ],
      "langs": [
        "4dcf9614-7914-42aa-99f4-dbce2e059133"
      ],
      "origins": [
        "938de218-5343-4865-94d3-fb33f2eaa152"
      ],
      "series": [
        "09466d03-fcb3-48d0-8093-42080ba34882"
      ],
      "singers": [
        "43822411-dbd3-4e3f-b498-1d3a9ba8ea30"
      ],
      "songtypes": [
        "f02ad9b3-0bd9-4aad-85b3-9976739ba0e4"
      ],
      "songwriters": [
        "0c32ec99-cb13-4d30-b92a-d16a890e49c4",
        "967aa435-c216-42de-a569-d6856cde4ccd",
        "b6bd6fef-6b24-4fce-817a-77d8d5fce3f6"
      ]
    },
    "titles": {
      "qro": "Ao 100 Iro",
      "jpn": "青100色"
    },
    "titles_default_language": "qro",
    "title": "Ao 100 Shoku",
    "year": 2022
  }
}