{
  "header": {
    "version": 4,
    "description": "Karaoke Mugen Karaoke Data File"
  },
  "medias": [
    {
      "version": "Squeeze and Pop! ♥",
      "filename": "JPN - Touhou - MV - Bloody Dancin Party Night ~ Squeeze and Pop!.mp4",
      "audiogain": -9.78,
      "loudnorm": "-7.07,1.56,2.50,-17.10,-0.46",
      "filesize": 132178743,
      "duration": 220,
      "default": true,
      "lyrics": [
        {
          "filename": "JPN - Touhou - MV - Bloody Dancin Party Night ~ Squeeze and Pop!.ass",
          "default": true,
          "version": "Default"
        }
      ]
    }
  ],
  "data": {
    "created_at": "2021-09-04T22:43:23.160Z",
    "ignoreHooks": false,
    "kid": "0f9eefda-8d75-43ea-b7da-6b54ed5e1a02",
    "modified_at": "2022-04-29T10:47:26.999Z",
    "repository": "kara.moe",
    "tags": {
      "authors": [
        "fb28c6d3-a81e-40c0-9a4c-e3268c60a64b"
      ],
      "collections": [
        "c7db86a0-ff64-4044-9be4-66dd1ef1d1c1"
      ],
      "creators": [
        "eb49131c-b890-422d-9947-0e82292801e1"
      ],
      "groups": [
        "ae613721-1fbe-480d-ba6b-d6d0702b184d",
        "8e209ae4-4381-438f-89dc-1b21752027d2"
      ],
      "langs": [
        "4dcf9614-7914-42aa-99f4-dbce2e059133"
      ],
      "misc": [
        "ec4fee75-71fb-45b4-9772-2ca374b4b600"
      ],
      "origins": [
        "ac5085db-52d8-44b4-8fbb-1697b24d2046"
      ],
      "series": [
        "1bdaa5a1-dfa6-4365-b746-7a0b194dafd6"
      ],
      "singers": [
        "a6e3509f-befc-4b8b-ac1c-3614e1c32447"
      ],
      "songtypes": [
        "7be1b15c-cff8-4b37-a649-5c90f3d569a9"
      ],
      "songwriters": [
        "26cb5252-8510-49e0-897c-a611a05fc056",
        "3059eca0-7b9f-41e0-a5a6-2e7e3be5d025",
        "a6e3509f-befc-4b8b-ac1c-3614e1c32447"
      ],
      "franchises": [
        "1bdaa5a1-dfa6-4365-b746-7a0b194dafd6"
      ]
    },
    "titles": {
      "qro": "Chimamire Dancing Party Night ～ kyutto shite DOKAAN♥",
      "jpn": "ちまみれダンシンパーリナイ ～きゅっとしてドカーン♥"
    },
    "titles_default_language": "qro",
    "titles_aliases": [
      "dokaan"
    ],
    "title": "Bloody Dancin’ Party Night ~ Squeeze and Pop! ♥",
    "year": 2022
  }
}