{
  "header": {
    "version": 4,
    "description": "Karaoke Mugen Karaoke Data File"
  },
  "medias": [
    {
      "version": "Default",
      "filename": "JPN - Senki Zesshou Symphogear - CS LIVE - FIRST LOVE SONG ~ Full Vers.mp4",
      "audiogain": -1.47,
      "loudnorm": "-17.23,-4.12,6.60,-27.38,0.12",
      "filesize": 97878431,
      "duration": 274,
      "default": true,
      "lyrics": [
        {
          "filename": "JPN - Senki Zesshou Symphogear - CS LIVE - FIRST LOVE SONG ~ Full Vers.ass",
          "default": true,
          "version": "Default"
        }
      ]
    }
  ],
  "data": {
    "created_at": "2022-06-08T21:19:55.155Z",
    "ignoreHooks": false,
    "kid": "834409b7-0e13-4b35-97c1-e1f29b4c98b0",
    "modified_at": "2022-06-08T21:19:55.640Z",
    "repository": "kara.moe",
    "tags": {
      "authors": [
        "a5dbab74-510b-48c5-9cea-5a537a81c974"
      ],
      "collections": [
        "dbcf2c22-524d-4708-99bb-601703633927"
      ],
      "creators": [
        "d2a29c19-019f-4a3d-86ad-2dae9e41a4b1"
      ],
      "families": [
        "5391f9fe-638c-415f-8dc9-958e3a2c5787"
      ],
      "langs": [
        "4dcf9614-7914-42aa-99f4-dbce2e059133"
      ],
      "series": [
        "61b24082-a6a9-482b-b126-0ad7be595791"
      ],
      "singers": [
        "0abac712-6493-4c55-856b-e88f2687e34b",
        "6d2045b2-80ab-45ff-a131-c4df02ef52d1"
      ],
      "songtypes": [
        "a0167949-580c-4de3-bf13-497e462e02f3",
        "a8a2616c-b5a1-4df3-ad6f-89291bc67dee"
      ],
      "songwriters": [
        "af3ffe51-8059-461c-bbb8-78ea388731f3",
        "18a5b3b4-9796-4d50-869f-1a1ebb96b1c4"
      ],
      "versions": [
        "c2143a7f-6970-450e-8a79-0302db9220a9"
      ],
      "groups": [
        "ae613721-1fbe-480d-ba6b-d6d0702b184d",
        "8c22c899-b3ed-42da-a548-ce00f950798b"
      ],
      "franchises": [
        "61b24082-a6a9-482b-b126-0ad7be595791"
      ]
    },
    "titles": {
      "eng": "FIRST LOVE SONG"
    },
    "titles_default_language": "eng",
    "title": "FIRST LOVE SONG",
    "year": 2016
  }
}