{
  "header": {
    "version": 4,
    "description": "Karaoke Mugen Karaoke Data File"
  },
  "medias": [
    {
      "version": "Default",
      "filename": "JPN - Touch - OP2 - Ai ga Hitoribocchi.mp4",
      "audiogain": -0.1,
      "loudnorm": "-17.22,-5.47,4.10,-27.48,-0.60",
      "filesize": 9878851,
      "duration": 94,
      "default": true,
      "lyrics": [
        {
          "filename": "JPN - Touch - OP2 - Ai ga Hitoribocchi.ass",
          "default": true,
          "version": "Default",
          "subchecksum": "aa899ba1f7137ab9833e3ebb8dc5cc97"
        }
      ]
    }
  ],
  "data": {
    "created_at": "2018-11-16T21:27:28.000Z",
    "kid": "526ee5b2-55fe-481d-b915-7aa6cee0263b",
    "modified_at": "2021-02-25T13:26:51.299Z",
    "repository": "kara.moe",
    "songorder": 2,
    "tags": {
      "authors": [
        "4607780c-f1ef-47cf-9c1c-b13e8f731699"
      ],
      "collections": [
        "c7db86a0-ff64-4044-9be4-66dd1ef1d1c1"
      ],
      "creators": [
        "06b98930-5c01-4bd6-9712-9d2cc1a57ea7"
      ],
      "families": [
        "0377db02-3af6-43b8-9b08-c759df3d25c3"
      ],
      "groups": [
        "7792cc27-9ff9-4d47-9287-2338b7db1575"
      ],
      "langs": [
        "4dcf9614-7914-42aa-99f4-dbce2e059133"
      ],
      "origins": [
        "938de218-5343-4865-94d3-fb33f2eaa152"
      ],
      "series": [
        "5003c1bf-1142-4141-adff-1451cedef86d"
      ],
      "singers": [
        "42263011-9889-47a8-9078-d45bb5c0eb72"
      ],
      "songtypes": [
        "f02ad9b3-0bd9-4aad-85b3-9976739ba0e4"
      ],
      "songwriters": [
        "176b72bf-a0b1-4f36-8e27-f16607f1b2d1",
        "982a0ebd-a9c9-4731-aaff-735bc6b5bb83"
      ]
    },
    "title": "Ai ga Hitoribocchi",
    "titles": {
      "qro": "Ai ga Hitoribocchi",
      "jpn": "愛がひとりぼっち"
    },
    "year": 1985,
    "titles_default_language": "qro"
  }
}