{
  "header": {
    "version": 4,
    "description": "Karaoke Mugen Karaoke Data File"
  },
  "medias": [
    {
      "version": "Default",
      "filename": "JPN - Delicious Gakuin - IN - Omuraisu No Uta.mp4",
      "audiogain": -8.13,
      "loudnorm": "-9.90,-0.45,5.30,-20.43,-0.19",
      "filesize": 6025828,
      "duration": 62,
      "default": true,
      "lyrics": [
        {
          "filename": "JPN - Delicious Gakuin - IN - Omuraisu No Uta.ass",
          "default": true,
          "version": "Default"
        }
      ]
    }
  ],
  "data": {
    "created_at": "2019-06-04T20:24:03.000Z",
    "kid": "4c1c6974-ba99-4e80-a632-09c543dd5a60",
    "modified_at": "2021-07-22T19:03:22.864Z",
    "repository": "kara.moe",
    "tags": {
      "authors": [
        "57e2d8c3-b3f3-4b82-88a4-2491946b24d9"
      ],
      "collections": [
        "c7db86a0-ff64-4044-9be4-66dd1ef1d1c1"
      ],
      "creators": [
        "0c855d1f-c9df-4418-92aa-9007e5fde8e4"
      ],
      "groups": [
        "2b4e9972-5e17-481b-99f5-d0787c0ada56",
        "3c14c864-533c-49e6-a3cc-6969f1233775"
      ],
      "langs": [
        "4dcf9614-7914-42aa-99f4-dbce2e059133"
      ],
      "origins": [
        "28650021-2b2a-4a55-aff4-85dd4896c687",
        "938de218-5343-4865-94d3-fb33f2eaa152"
      ],
      "series": [
        "95a32f85-9f61-40a2-b368-2c5da86f59ae"
      ],
      "songtypes": [
        "5e5250d9-351a-4a82-98eb-55db50ad8962"
      ]
    },
    "title": "Omuraisu No Uta",
    "titles": {
      "qro": "Omurice no Uta",
      "jpn": "オムライスの歌"
    },
    "year": 2007,
    "titles_default_language": "qro"
  }
}