{
  "header": {
    "version": 4,
    "description": "Karaoke Mugen Karaoke Data File"
  },
  "medias": [
    {
      "version": "Default",
      "filename": "JPN - Naruto Shippuuden - OP15 - Guren.mp4",
      "audiogain": -4.91,
      "loudnorm": "-12.90,-2.35,3.20,-23.07,-0.79",
      "filesize": 43401361,
      "duration": 91,
      "default": true,
      "lyrics": [
        {
          "filename": "JPN - Naruto Shippuuden - OP15 - Guren.ass",
          "default": true,
          "version": "Default",
          "subchecksum": "3200549bfcf05085067af6ffcbc45fd0"
        }
      ]
    }
  ],
  "data": {
    "created_at": "2017-10-11T17:01:16.000Z",
    "kid": "ed603713-faee-456c-8d0e-8d1c8b3c622b",
    "modified_at": "2021-02-25T12:34:14.650Z",
    "repository": "kara.moe",
    "songorder": 15,
    "tags": {
      "authors": [
        "5bdaba57-27f8-4568-8806-76a807728766"
      ],
      "collections": [
        "c7db86a0-ff64-4044-9be4-66dd1ef1d1c1"
      ],
      "creators": [
        "aaff4ba6-9a12-4bac-9bd0-c0cb783e4177"
      ],
      "families": [
        "0377db02-3af6-43b8-9b08-c759df3d25c3"
      ],
      "genres": [
        "a0aeef4a-6428-45ff-a6e1-468b595930c2"
      ],
      "groups": [
        "3c14c864-533c-49e6-a3cc-6969f1233775"
      ],
      "langs": [
        "4dcf9614-7914-42aa-99f4-dbce2e059133"
      ],
      "origins": [
        "938de218-5343-4865-94d3-fb33f2eaa152"
      ],
      "series": [
        "afd38f79-188d-47e4-95c6-f74c38895574"
      ],
      "singers": [
        "5becaf86-0668-478d-8491-57fc1daa0be6"
      ],
      "songtypes": [
        "f02ad9b3-0bd9-4aad-85b3-9976739ba0e4"
      ],
      "songwriters": [
        "089124d2-27ba-41e1-9589-943dce3f676c"
      ],
      "franchises": [
        "3201e723-3e75-46f9-bb21-d991f4f7731e"
      ]
    },
    "title": "Guren",
    "titles": {
      "qro": "Guren",
      "jpn": "紅蓮"
    },
    "year": 2007,
    "titles_default_language": "qro"
  }
}