{
  "header": {
    "version": 4,
    "description": "Karaoke Mugen Karaoke Data File"
  },
  "medias": [
    {
      "version": "Default",
      "filename": "JPN - .hack GIFT - OVA ED - Yasashii Yoake.mp4",
      "audiogain": -1.05,
      "loudnorm": "-15.89,-0.49,2.20,-26.03,-0.53",
      "filesize": 9127759,
      "duration": 91,
      "default": true,
      "lyrics": [
        {
          "filename": "JPN - .hack GIFT - OVA ED - Yasashii Yoake.ass",
          "default": true,
          "version": "Default"
        }
      ]
    }
  ],
  "data": {
    "created_at": "2017-10-11T17:01:07.000Z",
    "kid": "e458c0a2-353c-483e-aa68-34fb5f8c3383",
    "modified_at": "2021-11-27T16:47:52.225Z",
    "parents": [
      "02d57390-8a07-4dc1-bbd3-283f2959c951"
    ],
    "repository": "kara.moe",
    "tags": {
      "authors": [
        "5bdaba57-27f8-4568-8806-76a807728766"
      ],
      "collections": [
        "c7db86a0-ff64-4044-9be4-66dd1ef1d1c1"
      ],
      "creators": [
        "53c428f6-4ad6-464f-8529-40e7b9941c7f"
      ],
      "families": [
        "0377db02-3af6-43b8-9b08-c759df3d25c3"
      ],
      "genres": [
        "4b80eca6-f44f-4262-a8d0-b6879d6b70cb"
      ],
      "groups": [
        "3c14c864-533c-49e6-a3cc-6969f1233775"
      ],
      "langs": [
        "4dcf9614-7914-42aa-99f4-dbce2e059133"
      ],
      "origins": [
        "2a6ef087-a000-4f8e-aeb5-9a7968756a36"
      ],
      "series": [
        "70ab72b5-5ef0-43d4-b284-38ae6ba6528e"
      ],
      "singers": [
        "50b2bf9a-d450-4581-ac86-008363e7d459"
      ],
      "songtypes": [
        "38c77c56-2b95-4040-b676-0994a8cb0597"
      ],
      "songwriters": [
        "1f324dc7-f858-415b-bbc1-41fcce3d6ac7"
      ],
      "franchises": [
        "62bc5729-026d-408d-b6f5-534df49f73da"
      ]
    },
    "titles": {
      "qro": "Yasashii Yoake",
      "jpn": "優しい夜明け"
    },
    "title": "Yasashii Yoake",
    "year": 2003,
    "titles_default_language": "qro"
  }
}