{
  "header": {
    "version": 4,
    "description": "Karaoke Mugen Karaoke Data File"
  },
  "medias": [
    {
      "version": "Miki, Makoto & Chihaya.",
      "filename": "JPN - THE iDOLM@STER Stella Stage - GAME PS4 IN - relations ~ Miki, Makoto & Chihaya Vers. ~ Alternative Vers.mp4",
      "audiogain": 4.06,
      "loudnorm": "-23.66,-10.05,7.20,-33.70,-1.07",
      "filesize": 119565660,
      "duration": 139,
      "default": true,
      "lyrics": [
        {
          "filename": "JPN - THE iDOLM@STER Stella Stage - GAME PS4 IN - relations ~ Miki, Makoto & Chihaya Vers. ~ Alternative Vers.ass",
          "default": true,
          "version": "Default"
        }
      ]
    }
  ],
  "data": {
    "created_at": "2017-10-11T17:02:08.000Z",
    "ignoreHooks": false,
    "kid": "cf1f4eb6-1f11-4fd0-8347-025af6ff9f97",
    "modified_at": "2022-03-24T14:46:56.484Z",
    "repository": "kara.moe",
    "tags": {
      "authors": [
        "fa399f2f-ea1d-4902-8796-ea6d8218aff0"
      ],
      "collections": [
        "c7db86a0-ff64-4044-9be4-66dd1ef1d1c1"
      ],
      "creators": [
        "c3e622d4-2686-4331-8691-d528c8647088"
      ],
      "families": [
        "dbedd6b3-d125-4cd8-aa32-c4175e4ca3a3"
      ],
      "genres": [
        "caa86df2-0d59-474b-885c-f240a9e891b0"
      ],
      "groups": [
        "ae613721-1fbe-480d-ba6b-d6d0702b184d"
      ],
      "langs": [
        "4dcf9614-7914-42aa-99f4-dbce2e059133"
      ],
      "platforms": [
        "248d92ee-8c02-43bc-86e2-cc6029883564"
      ],
      "series": [
        "92f4eeb7-8d3a-49cd-b44f-fc579dd43bf1"
      ],
      "singers": [
        "01d27ab4-ba4d-4225-af49-d0ad6d861e61",
        "51abb542-01b4-4267-821e-56c07d9a2705",
        "cf4351d6-7a21-41cf-ac5e-0601fc673915"
      ],
      "songtypes": [
        "5e5250d9-351a-4a82-98eb-55db50ad8962"
      ],
      "songwriters": [
        "454b2c83-3cde-4342-bdf4-b57d29a2c287",
        "99163516-5c3a-485f-9a92-81c309d6e4ee"
      ],
      "versions": [
        "9f63c359-d1bf-425a-bcf5-b245c2c9211d"
      ],
      "franchises": [
        "d34ceea8-7d7c-4d85-9213-18d24d2b7666"
      ]
    },
    "titles": {
      "eng": "relations ~ Miki, Makoto & Chihaya Vers.",
      "jpn": "relations ~ 美希, 真 & 千早 Vers."
    },
    "titles_default_language": "eng",
    "title": "relations ~ Miki, Makoto & Chihaya Vers.",
    "year": 2017
  }
}