{
  "header": {
    "version": 4,
    "description": "Karaoke Mugen Karaoke Data File"
  },
  "medias": [
    {
      "version": "Default",
      "filename": "JPN - SPYxFAMILY - ED - Kigeki.mp4",
      "audiogain": 4.25,
      "loudnorm": "-21.38,-10.20,5.20,-31.60,-0.58",
      "filesize": 31225804,
      "duration": 89,
      "default": true,
      "lyrics": [
        {
          "filename": "JPN - SPYxFAMILY - ED - Kigeki.ass",
          "default": true,
          "version": "Default"
        }
      ]
    }
  ],
  "data": {
    "created_at": "2022-04-16T18:27:55.792Z",
    "ignoreHooks": false,
    "kid": "55fa865b-cc20-4567-a9b7-3cac6c936e5f",
    "modified_at": "2022-04-23T22:21:03.492Z",
    "repository": "kara.moe",
    "tags": {
      "authors": [
        "06852e02-b77e-4106-b6f7-2d03942ad0ea"
      ],
      "collections": [
        "c7db86a0-ff64-4044-9be4-66dd1ef1d1c1"
      ],
      "creators": [
        "43cebb4a-845f-449b-bbd0-d97d96d97cb4",
        "5e24aaad-83c9-4d8a-bbb9-37b766278ffe"
      ],
      "families": [
        "0377db02-3af6-43b8-9b08-c759df3d25c3"
      ],
      "groups": [
        "8e209ae4-4381-438f-89dc-1b21752027d2"
      ],
      "langs": [
        "4dcf9614-7914-42aa-99f4-dbce2e059133"
      ],
      "origins": [
        "938de218-5343-4865-94d3-fb33f2eaa152"
      ],
      "series": [
        "8218a8eb-cad8-473b-8ccb-64cacc2d833a"
      ],
      "singers": [
        "518509f0-bd2c-4244-9f05-4167cb8c09bc"
      ],
      "songtypes": [
        "38c77c56-2b95-4040-b676-0994a8cb0597"
      ],
      "songwriters": [
        "518509f0-bd2c-4244-9f05-4167cb8c09bc"
      ]
    },
    "titles": {
      "qro": "Kigeki",
      "jpn": "喜劇"
    },
    "titles_default_language": "qro",
    "title": "Kigeki",
    "year": 2022
  }
}