{
  "header": {
    "version": 4,
    "description": "Karaoke Mugen Karaoke Data File"
  },
  "medias": [
    {
      "version": "Default",
      "filename": "JPN - Kokoro Connect - ED3 - Salvage.mp4",
      "audiogain": 1.06,
      "loudnorm": "-17.85,-6.11,3.40,-28.00,-0.76",
      "filesize": 69599837,
      "duration": 92,
      "default": true,
      "lyrics": [
        {
          "filename": "JPN - Kokoro Connect - ED3 - Salvage.ass",
          "default": true,
          "version": "Default"
        }
      ]
    }
  ],
  "data": {
    "created_at": "2022-08-04T19:11:39.889Z",
    "ignoreHooks": false,
    "kid": "effa39b0-2fc2-448d-8a5f-cf2e668120c1",
    "modified_at": "2022-08-04T19:11:40.953Z",
    "repository": "kara.moe",
    "songorder": 3,
    "tags": {
      "authors": [
        "05c1e4ad-32ba-490e-8f3c-5cd491c96d85"
      ],
      "collections": [
        "dbcf2c22-524d-4708-99bb-601703633927"
      ],
      "creators": [
        "bee26a9b-bc7b-4cdc-9317-6c9ee6707706"
      ],
      "families": [
        "0377db02-3af6-43b8-9b08-c759df3d25c3"
      ],
      "groups": [
        "ae613721-1fbe-480d-ba6b-d6d0702b184d"
      ],
      "langs": [
        "4dcf9614-7914-42aa-99f4-dbce2e059133"
      ],
      "misc": [
        "fe819ff1-9db8-4a0f-85dc-0e322c9126c4"
      ],
      "origins": [
        "938de218-5343-4865-94d3-fb33f2eaa152"
      ],
      "series": [
        "e10cbe47-b801-4ebb-8d3d-2e0157d54b57"
      ],
      "singers": [
        "11846a94-2965-4798-9603-a9dec631ad3e",
        "40e2d2ae-d3c6-4336-815e-1b4cf19cc3ee"
      ],
      "songtypes": [
        "38c77c56-2b95-4040-b676-0994a8cb0597"
      ],
      "songwriters": [
        "353c94da-0e1e-4cf1-b6de-ee5b81a4e332"
      ]
    },
    "titles": {
      "eng": "Salvage"
    },
    "titles_default_language": "eng",
    "title": "Salvage",
    "year": 2012
  }
}