{
  "header": {
    "version": 4,
    "description": "Karaoke Mugen Karaoke Data File"
  },
  "medias": [
    {
      "version": "Default",
      "filename": "JPN - Project SEKAI COLORFUL STAGE! - GAME MV - Venom (Kyujitsu, Shumijin Doushi de. ver.) ~ Alternative Cover Vers.mp4",
      "audiogain": -9.93,
      "loudnorm": "-8.74,0.96,5.00,-18.78,-0.85",
      "filesize": 59766411,
      "duration": 126,
      "default": true,
      "lyrics": [
        {
          "filename": "JPN - Project SEKAI COLORFUL STAGE! - GAME MV - Venom (Kyujitsu, Shumijin Doushi de. ver.) ~ Alternative Cover Vers.ass",
          "default": true,
          "version": "Default"
        }
      ]
    }
  ],
  "data": {
    "created_at": "2022-08-14T15:20:48.584Z",
    "ignoreHooks": false,
    "kid": "87c501a9-3915-40af-92e9-d51d1636fc8b",
    "modified_at": "2022-12-26T22:12:42.448Z",
    "parents": [
      "f177ca04-baca-4f63-8fe4-25450883e78a"
    ],
    "repository": "kara.moe",
    "tags": {
      "authors": [
        "5a629611-96b4-422c-b309-ba7a58e263a2"
      ],
      "collections": [
        "c7db86a0-ff64-4044-9be4-66dd1ef1d1c1"
      ],
      "creators": [
        "1e5648fb-22fc-474d-b865-254eb31fa000",
        "391f132b-6223-4a67-ada0-02041b132360",
        "da54fb1e-3f3c-4ef2-afb9-a48e5d75e008"
      ],
      "families": [
        "dbedd6b3-d125-4cd8-aa32-c4175e4ca3a3",
        "0377db02-3af6-43b8-9b08-c759df3d25c3"
      ],
      "genres": [
        "45623cae-6d68-4304-a49b-896d1d6f4580"
      ],
      "groups": [
        "8e209ae4-4381-438f-89dc-1b21752027d2"
      ],
      "langs": [
        "4dcf9614-7914-42aa-99f4-dbce2e059133"
      ],
      "misc": [
        "1d6ceadf-a885-47e5-b23b-c07bf668a424",
        "ec4fee75-71fb-45b4-9772-2ca374b4b600"
      ],
      "platforms": [
        "213a1a15-e73a-4a08-b3f6-b6e2745a82e5"
      ],
      "series": [
        "192b33fb-638a-4680-bdb2-a5adb9889849"
      ],
      "singers": [
        "20d2fab3-1e7c-4a00-889e-272eacc68e10",
        "bbf38c20-4ff8-46ca-8e23-55a71286f0ef",
        "d7c26167-fe7e-4450-8191-65a53fc7db66",
        "fae72c0f-4ef4-4268-9bff-465a0dec95e4"
      ],
      "songtypes": [
        "7be1b15c-cff8-4b37-a649-5c90f3d569a9"
      ],
      "songwriters": [
        "ce4a49a7-38bb-4620-bc81-5074a6a49747"
      ],
      "versions": [
        "03e1e1d2-8641-47b7-bbcb-39a3df9ff21c",
        "9f63c359-d1bf-425a-bcf5-b245c2c9211d"
      ]
    },
    "titles": {
      "jpn": "ベノム (休日、趣味人同士で)",
      "qro": "Venom (Kyujitsu, Shumijin Doushi de. ver.)"
    },
    "titles_default_language": "qro",
    "year": 2022
  }
}