{
  "header": {
    "version": 4,
    "description": "Karaoke Mugen Karaoke Data File"
  },
  "medias": [
    {
      "version": "Default",
      "filename": "JPN - Josee to Tora to Sakana-tachi - MOVIE MV - Ao no Waltz.mp4",
      "audiogain": -9.53,
      "loudnorm": "-8.29,1.71,8.70,-18.54,-1.98",
      "filesize": 45551167,
      "duration": 288,
      "default": true,
      "lyrics": [
        {
          "filename": "JPN - Josee to Tora to Sakana-tachi - MOVIE MV - Ao no Waltz.ass",
          "default": true,
          "version": "Default"
        }
      ]
    }
  ],
  "data": {
    "created_at": "2020-12-29T21:27:23.667Z",
    "ignoreHooks": false,
    "kid": "5efdd3b9-6d32-452c-92be-b2d57109ef3c",
    "modified_at": "2022-03-04T18:15:48.571Z",
    "parents": [
      "cb82e4b2-b0ac-45db-a453-fb8849714ba1"
    ],
    "repository": "kara.moe",
    "tags": {
      "authors": [
        "87096920-112f-485f-a310-04156cb4624d"
      ],
      "collections": [
        "c7db86a0-ff64-4044-9be4-66dd1ef1d1c1"
      ],
      "creators": [
        "57ffcdd9-7e4f-4971-85ce-0fb3aa8151ac"
      ],
      "families": [
        "0377db02-3af6-43b8-9b08-c759df3d25c3"
      ],
      "groups": [
        "60defa7b-774e-4680-8321-51b742c2e009",
        "8e209ae4-4381-438f-89dc-1b21752027d2"
      ],
      "langs": [
        "4dcf9614-7914-42aa-99f4-dbce2e059133"
      ],
      "origins": [
        "c8ca9dea-d8b4-48fe-8427-d911653232e9"
      ],
      "series": [
        "e4231fe8-6c6d-416e-b348-f163ab2bc325"
      ],
      "singers": [
        "a84f6a9f-4785-48bb-9f07-fdede3de7cae"
      ],
      "songtypes": [
        "7be1b15c-cff8-4b37-a649-5c90f3d569a9"
      ],
      "songwriters": [
        "a84f6a9f-4785-48bb-9f07-fdede3de7cae"
      ]
    },
    "titles": {
      "fre": "La Valse bleue",
      "qro": "Ao no Waltz",
      "jpn": "蒼のワルツ"
    },
    "title": "Ao no Waltz",
    "year": 2020,
    "titles_default_language": "qro"
  }
}