{
  "header": {
    "version": 4,
    "description": "Karaoke Mugen Karaoke Data File"
  },
  "medias": [
    {
      "version": "Default",
      "filename": "JPN - Senki Zesshou Symphogear GX - LIVE - Glorious Break ~ Full Vers.mp4",
      "audiogain": -3.95,
      "loudnorm": "-13.38,-3.85,3.60,-23.44,-0.30",
      "filesize": 147210903,
      "duration": 254,
      "default": true,
      "lyrics": [
        {
          "filename": "JPN - Senki Zesshou Symphogear GX - LIVE - Glorious Break ~ Full Vers.ass",
          "default": true,
          "version": "Default"
        }
      ]
    }
  ],
  "data": {
    "created_at": "2021-02-27T23:46:52.632Z",
    "ignoreHooks": false,
    "kid": "5ab70b28-cf39-43d2-9949-461d199afb88",
    "modified_at": "2022-12-27T23:50:27.194Z",
    "parents": [
      "5e0046d2-bc39-4495-849a-8c2fcf448e69"
    ],
    "repository": "kara.moe",
    "tags": {
      "authors": [
        "5cb3d0c5-479e-4224-b6ec-b27209e933a0"
      ],
      "collections": [
        "dbcf2c22-524d-4708-99bb-601703633927"
      ],
      "creators": [
        "d2a29c19-019f-4a3d-86ad-2dae9e41a4b1"
      ],
      "families": [
        "5391f9fe-638c-415f-8dc9-958e3a2c5787"
      ],
      "groups": [
        "60defa7b-774e-4680-8321-51b742c2e009",
        "ae613721-1fbe-480d-ba6b-d6d0702b184d"
      ],
      "langs": [
        "4dcf9614-7914-42aa-99f4-dbce2e059133"
      ],
      "series": [
        "86627e91-4551-4e88-899b-2cb017e853e0"
      ],
      "singers": [
        "6d2045b2-80ab-45ff-a131-c4df02ef52d1"
      ],
      "songtypes": [
        "a0167949-580c-4de3-bf13-497e462e02f3"
      ],
      "songwriters": [
        "8ac88d22-022b-4d8e-a806-b27551a9b0d5",
        "af3ffe51-8059-461c-bbb8-78ea388731f3"
      ],
      "versions": [
        "c2143a7f-6970-450e-8a79-0302db9220a9"
      ],
      "franchises": [
        "61b24082-a6a9-482b-b126-0ad7be595791"
      ]
    },
    "titles": {
      "eng": "Glorious Break"
    },
    "titles_default_language": "eng",
    "year": 2016
  }
}