{
  "header": {
    "version": 4,
    "description": "Karaoke Mugen Karaoke Data File"
  },
  "medias": [
    {
      "version": "Default",
      "filename": "JPN - ZUTOMAYO - LIVE - Darken ~ Full Vers.mp4",
      "audiogain": 6.31,
      "loudnorm": "-23.65,-10.99,10.00,-33.97,-1.71",
      "filesize": 104415946,
      "duration": 276,
      "default": true,
      "lyrics": [
        {
          "filename": "JPN - ZUTOMAYO - LIVE - Darken ~ Full Vers.ass",
          "default": true,
          "version": "Default"
        }
      ]
    }
  ],
  "data": {
    "created_at": "2021-10-15T18:20:49.871Z",
    "ignoreHooks": false,
    "kid": "e0fa172a-b4b6-473d-9881-22a07ecfd55c",
    "modified_at": "2022-12-21T22:36:37.067Z",
    "parents": [
      "ec6900c7-5745-4c41-a67d-1d5f6dbf9d4d"
    ],
    "repository": "kara.moe",
    "tags": {
      "authors": [
        "5e93f02a-bcd1-40a9-ba7a-91ada6683aea",
        "90698f28-1d62-4673-82c4-33ae96b1ba97"
      ],
      "collections": [
        "dbcf2c22-524d-4708-99bb-601703633927"
      ],
      "creators": [
        "2d34976e-d3c0-4dc6-946d-374297f0a4ed"
      ],
      "families": [
        "5391f9fe-638c-415f-8dc9-958e3a2c5787"
      ],
      "groups": [
        "8e209ae4-4381-438f-89dc-1b21752027d2"
      ],
      "langs": [
        "4dcf9614-7914-42aa-99f4-dbce2e059133"
      ],
      "singers": [
        "d3f693d0-7d45-465e-82ed-a6723c600008"
      ],
      "singergroups": [
        "c7d361f6-c1cf-44b2-b40a-a18aa90f2d8f"
      ],
      "songtypes": [
        "a0167949-580c-4de3-bf13-497e462e02f3"
      ],
      "songwriters": [
        "c7d361f6-c1cf-44b2-b40a-a18aa90f2d8f"
      ],
      "versions": [
        "c2143a7f-6970-450e-8a79-0302db9220a9"
      ],
      "warnings": [
        "51288600-29e0-4e41-a42b-77f0498e5691"
      ]
    },
    "titles": {
      "eng": "Darken",
      "jpn": "暗く黒く"
    },
    "titles_default_language": "eng",
    "year": 2021
  }
}