{
  "header": {
    "version": 4,
    "description": "Karaoke Mugen Karaoke Data File"
  },
  "medias": [
    {
      "version": "Default",
      "filename": "JPN - Sakura Taisen Monogatari ~Mysterious Paris~ - GAME PS2 IN - Erica Ohayou Dance.mp4",
      "audiogain": -4.49,
      "loudnorm": "-15.16,-2.38,2.70,-26.15,0.00",
      "filesize": 16227267,
      "duration": 14,
      "default": true,
      "lyrics": [
        {
          "filename": "JPN - Sakura Taisen Monogatari ~Mysterious Paris~ - GAME PS2 IN - Erica Ohayou Dance.ass",
          "default": true,
          "version": "Default"
        }
      ]
    }
  ],
  "data": {
    "created_at": "2020-05-30T20:40:35.552Z",
    "ignoreHooks": false,
    "kid": "23167a43-f264-4635-a833-4b370d068fa7",
    "modified_at": "2022-09-30T19:53:52.358Z",
    "parents": [
      "caf272d7-dbf8-46c3-82df-e2fb641a8334"
    ],
    "repository": "kara.moe",
    "tags": {
      "authors": [
        "1df04771-a378-4f14-a5e1-1455187d681a"
      ],
      "collections": [
        "c7db86a0-ff64-4044-9be4-66dd1ef1d1c1"
      ],
      "creators": [
        "a52f4346-91ee-49ea-9ba4-97dfd4a5057b",
        "b8a3778d-0864-4135-9053-1def02d3262e"
      ],
      "families": [
        "dbedd6b3-d125-4cd8-aa32-c4175e4ca3a3"
      ],
      "genres": [
        "f60ba57d-5ef4-49e0-b93b-d0dcbcff6592"
      ],
      "groups": [
        "3c14c864-533c-49e6-a3cc-6969f1233775"
      ],
      "langs": [
        "4dcf9614-7914-42aa-99f4-dbce2e059133"
      ],
      "platforms": [
        "2173004e-21da-45c9-9dfb-26014423c566"
      ],
      "series": [
        "933e0784-3a78-4b44-837a-d7084fc4e073"
      ],
      "singers": [
        "9eba9b17-ad7f-4b5b-876c-3e5c0254c9d4"
      ],
      "songtypes": [
        "5e5250d9-351a-4a82-98eb-55db50ad8962"
      ],
      "songwriters": [
        "2461dcff-0d44-481a-9841-a8ae3e3d53db"
      ],
      "franchises": [
        "3843ae35-0d40-4fef-9bda-0c222c2e5682"
      ]
    },
    "titles": {
      "jpn": "エリカ おはようダンス",
      "qro": "Erica Ohayô Dance"
    },
    "titles_default_language": "qro",
    "title": "Erica Ohayô Dance",
    "year": 2004,
    "titles_aliases": [
      "Ohayou"
    ]
  }
}