{
  "header": {
    "version": 4,
    "description": "Karaoke Mugen Karaoke Data File"
  },
  "medias": [
    {
      "version": "Default",
      "filename": "JPN - Touhou, Touhou LostWord - GAME MV - LostWord Chronicle.mp4",
      "audiogain": -10.84,
      "loudnorm": "-6.04,1.79,3.60,-16.07,-0.38",
      "filesize": 95591091,
      "duration": 220,
      "default": true,
      "lyrics": [
        {
          "filename": "JPN - Touhou, Touhou LostWord - GAME MV - LostWord Chronicle.ass",
          "default": true,
          "version": "Default"
        }
      ]
    }
  ],
  "data": {
    "comment": "Thank you to all the members in the discord server for helping me uploading this karaoke. I hope somebody can add the video.",
    "created_at": "2022-05-04T19:23:48.613Z",
    "ignoreHooks": false,
    "kid": "3d65bad3-f696-4847-aa1f-a7b82eb467b1",
    "modified_at": "2022-12-22T16:08:51.809Z",
    "repository": "kara.moe",
    "tags": {
      "authors": [
        "ef0a3cf0-ac78-4a07-95da-f5a8dd4339f0"
      ],
      "collections": [
        "c7db86a0-ff64-4044-9be4-66dd1ef1d1c1"
      ],
      "creators": [
        "0fa12705-e060-490d-82c9-838989a929bc"
      ],
      "families": [
        "dbedd6b3-d125-4cd8-aa32-c4175e4ca3a3"
      ],
      "groups": [
        "8e209ae4-4381-438f-89dc-1b21752027d2"
      ],
      "langs": [
        "4dcf9614-7914-42aa-99f4-dbce2e059133"
      ],
      "platforms": [
        "213a1a15-e73a-4a08-b3f6-b6e2745a82e5"
      ],
      "series": [
        "1bdaa5a1-dfa6-4365-b746-7a0b194dafd6",
        "1be59114-2bb2-4932-8a79-490661c69774"
      ],
      "singers": [
        "3b97f60d-23e3-4e23-bf7f-9835bba682a7"
      ],
      "songtypes": [
        "7be1b15c-cff8-4b37-a649-5c90f3d569a9"
      ],
      "songwriters": [
        "0fa12705-e060-490d-82c9-838989a929bc",
        "26cb5252-8510-49e0-897c-a611a05fc056"
      ],
      "franchises": [
        "1bdaa5a1-dfa6-4365-b746-7a0b194dafd6"
      ]
    },
    "titles": {
      "eng": "LostWord Chronicle",
      "jpn": "ロストワードクロニカル"
    },
    "titles_default_language": "eng",
    "year": 2020
  }
}