{
  "header": {
    "version": 4,
    "description": "Karaoke Mugen Karaoke Data File"
  },
  "medias": [
    {
      "version": "Default",
      "filename": "JPN - Zombieland Saga - ED - Hikari e.mp4",
      "audiogain": -6.98,
      "loudnorm": "-10.82,0.04,3.50,-21.14,-0.80",
      "filesize": 23391129,
      "duration": 89,
      "default": true,
      "lyrics": [
        {
          "filename": "JPN - Zombieland Saga - ED - Hikari e.ass",
          "default": true,
          "version": "Default"
        }
      ]
    }
  ],
  "data": {
    "created_at": "2018-11-17T15:42:55.000Z",
    "ignoreHooks": false,
    "kid": "48297e95-c38d-4321-90b4-796a6a2ed3d1",
    "modified_at": "2022-10-08T19:06:29.813Z",
    "repository": "kara.moe",
    "tags": {
      "authors": [
        "6bebcb04-2694-453c-9e0c-eb1a2e2718d9"
      ],
      "collections": [
        "c7db86a0-ff64-4044-9be4-66dd1ef1d1c1"
      ],
      "creators": [
        "0a86e9ea-5e17-4371-8f2a-60c818324d58"
      ],
      "families": [
        "0377db02-3af6-43b8-9b08-c759df3d25c3"
      ],
      "genres": [
        "caa86df2-0d59-474b-885c-f240a9e891b0"
      ],
      "groups": [
        "ae613721-1fbe-480d-ba6b-d6d0702b184d"
      ],
      "langs": [
        "4dcf9614-7914-42aa-99f4-dbce2e059133"
      ],
      "origins": [
        "938de218-5343-4865-94d3-fb33f2eaa152"
      ],
      "series": [
        "8d73a7d5-dc57-4e08-9a54-1b79364c2e0b"
      ],
      "singers": [
        "1c0c11e8-e365-4c49-b7cb-ab9ca077560d",
        "296a7e5c-acf6-4459-938f-ba3cbfa957f9",
        "29774a6a-2bba-440d-b7e2-d033a3cca0cc",
        "6181ba3a-4b14-4fab-bbe9-0fa4147a6072",
        "f335316b-fad2-44bc-bc41-717f11ed454e",
        "f4dad5ba-e4b8-464d-98da-7002b9806862",
        "f574b547-1b37-4072-848c-93562d7a09d8"
      ],
      "songtypes": [
        "38c77c56-2b95-4040-b676-0994a8cb0597"
      ],
      "songwriters": [
        "2c387c24-2728-4d5a-9d07-0b1af6467cd0",
        "cbd3ccbc-14c5-4f13-b461-6cfad840f5cd"
      ],
      "franchises": [
        "8d73a7d5-dc57-4e08-9a54-1b79364c2e0b"
      ]
    },
    "titles": {
      "jpn": "光へ",
      "qro": "Hikari e"
    },
    "titles_default_language": "qro",
    "titles_aliases": [
      "Hikari he"
    ],
    "title": "Hikari e",
    "year": 2018
  }
}