{
  "header": {
    "version": 4,
    "description": "Karaoke Mugen Karaoke Data File"
  },
  "medias": [
    {
      "version": "Default",
      "filename": "JPN - Bokutachi no Remake - IN - God knows.mp4",
      "audiogain": -4.63,
      "loudnorm": "-14.80,-0.07,10.00,-25.52,1.43",
      "filesize": 46442159,
      "duration": 164,
      "default": true,
      "lyrics": [
        {
          "filename": "JPN - Bokutachi no Remake - IN - God knows.ass",
          "default": true,
          "version": "Default"
        }
      ]
    }
  ],
  "data": {
    "created_at": "2021-07-31T16:35:16.324Z",
    "ignoreHooks": false,
    "kid": "54950aa7-7285-4ea2-8378-7a131ac84b3f",
    "modified_at": "2022-12-21T23:11:32.954Z",
    "repository": "kara.moe",
    "tags": {
      "authors": [
        "fa399f2f-ea1d-4902-8796-ea6d8218aff0"
      ],
      "collections": [
        "c7db86a0-ff64-4044-9be4-66dd1ef1d1c1"
      ],
      "creators": [
        "5c15c11c-e09d-4a4f-ab3d-143d69439fc2"
      ],
      "families": [
        "0377db02-3af6-43b8-9b08-c759df3d25c3"
      ],
      "groups": [
        "8e209ae4-4381-438f-89dc-1b21752027d2"
      ],
      "langs": [
        "4dcf9614-7914-42aa-99f4-dbce2e059133"
      ],
      "misc": [
        "a98efc68-91c1-4291-b4af-e3990b939167"
      ],
      "origins": [
        "938de218-5343-4865-94d3-fb33f2eaa152"
      ],
      "series": [
        "0d4aff0f-452a-45a0-9842-ff08ad59b87a"
      ],
      "singers": [
        "360a527f-69b3-47e2-b028-d2b176bfaaa2"
      ],
      "songtypes": [
        "5e5250d9-351a-4a82-98eb-55db50ad8962"
      ],
      "songwriters": [
        "d7658a75-7945-4f08-8233-02f38dc385ba"
      ]
    },
    "titles": {
      "eng": "God knows..."
    },
    "titles_default_language": "eng",
    "year": 2021
  }
}