{
  "header": {
    "version": 4,
    "description": "Karaoke Mugen Karaoke Data File"
  },
  "medias": [
    {
      "version": "Default",
      "filename": "JPN - Shokugeki no Souma San no Sara - Tootsuki Ressha Hen - OP - Symbol.mp4",
      "audiogain": -1.1,
      "loudnorm": "-16.05,-8.41,4.00,-26.12,-0.68",
      "filesize": 72176639,
      "duration": 89,
      "default": true,
      "lyrics": [
        {
          "filename": "JPN - Shokugeki no Souma San no Sara - Tootsuki Ressha Hen - OP - Symbol.ass",
          "default": true,
          "version": "Default",
          "subchecksum": "9917ecc049c1b051da8786b02fe77918"
        }
      ]
    }
  ],
  "data": {
    "created_at": "2020-08-23T21:30:12.310Z",
    "kid": "6db9809d-6899-4569-b7b9-e3cc457c5dd6",
    "modified_at": "2021-02-25T13:06:05.001Z",
    "repository": "kara.moe",
    "tags": {
      "authors": [
        "4d71ce82-eed1-4c44-ac85-5f7255f3dad3"
      ],
      "collections": [
        "c7db86a0-ff64-4044-9be4-66dd1ef1d1c1"
      ],
      "creators": [
        "802a8ac8-b16f-40a4-944b-99956798c906"
      ],
      "families": [
        "0377db02-3af6-43b8-9b08-c759df3d25c3"
      ],
      "genres": [
        "a0aeef4a-6428-45ff-a6e1-468b595930c2"
      ],
      "groups": [
        "ae613721-1fbe-480d-ba6b-d6d0702b184d"
      ],
      "langs": [
        "4dcf9614-7914-42aa-99f4-dbce2e059133"
      ],
      "misc": [
        "fe819ff1-9db8-4a0f-85dc-0e322c9126c4"
      ],
      "origins": [
        "938de218-5343-4865-94d3-fb33f2eaa152"
      ],
      "series": [
        "9a1ec56e-048f-465b-afc2-8a3c1cfaefd0"
      ],
      "singers": [
        "4be95706-fea9-4d27-ac9f-d967ec1290a9"
      ],
      "songtypes": [
        "f02ad9b3-0bd9-4aad-85b3-9976739ba0e4"
      ],
      "songwriters": [
        "1d631037-5e19-45ca-a736-1ec75b96e106"
      ],
      "franchises": [
        "e1a94b71-a932-43e4-a0db-7e702c59b99c"
      ]
    },
    "title": "Symbol",
    "titles": {
      "eng": "Symbol",
      "jpn": "シンボル"
    },
    "year": 2018,
    "titles_default_language": "eng"
  }
}