{
  "header": {
    "version": 4,
    "description": "Karaoke Mugen Karaoke Data File"
  },
  "medias": [
    {
      "version": "Default",
      "filename": "JPN - Baldr Sky Dive2 Recordare - PC GAME OP - Jihad.mp4",
      "audiogain": -8.05,
      "loudnorm": "-9.98,0.86,7.60,-20.21,-1.51",
      "filesize": 12485028,
      "duration": 138,
      "default": true,
      "lyrics": [
        {
          "filename": "JPN - Baldr Sky Dive2 Recordare - PC GAME OP - Jihad.ass",
          "default": true,
          "version": "Default",
          "subchecksum": "67f9481586fee99a6b2c559b1b975621"
        }
      ]
    }
  ],
  "data": {
    "created_at": "2017-10-11T17:01:07.000Z",
    "kid": "9a06c197-a8ee-42ec-8d84-f67e3bb43a50",
    "modified_at": "2021-02-25T10:50:09.544Z",
    "repository": "kara.moe",
    "tags": {
      "authors": [
        "5bdaba57-27f8-4568-8806-76a807728766"
      ],
      "collections": [
        "c7db86a0-ff64-4044-9be4-66dd1ef1d1c1"
      ],
      "creators": [
        "77be7b44-b7d3-423b-81c3-1f1d62f289c9"
      ],
      "families": [
        "dbedd6b3-d125-4cd8-aa32-c4175e4ca3a3"
      ],
      "groups": [
        "3c14c864-533c-49e6-a3cc-6969f1233775"
      ],
      "langs": [
        "4dcf9614-7914-42aa-99f4-dbce2e059133"
      ],
      "origins": [
        "2f96e82c-c61b-4413-817e-e6b247509b95"
      ],
      "platforms": [
        "3c15f758-e1bc-4266-8bb9-3c14112f504a"
      ],
      "series": [
        "85e8b33f-1cb8-4355-86e0-dfb592318f79"
      ],
      "singers": [
        "06c618ba-0261-4ad5-9a40-e2d31ef6c330"
      ],
      "songtypes": [
        "f02ad9b3-0bd9-4aad-85b3-9976739ba0e4"
      ],
      "songwriters": [
        "06c618ba-0261-4ad5-9a40-e2d31ef6c330",
        "a05da456-3805-46c4-bea0-dff69c0fb708"
      ],
      "franchises": [
        "9f1d64fe-77fd-4740-a0e5-0240ed851d37"
      ]
    },
    "title": "Jihad",
    "titles": {
      "eng": "jihad"
    },
    "year": 2009,
    "titles_default_language": "eng"
  }
}