{
  "header": {
    "version": 4,
    "description": "Karaoke Mugen Karaoke Data File"
  },
  "medias": [
    {
      "version": "Default",
      "filename": "JPN - Touhou - MV - Yuusha Wanwan.mp4",
      "audiogain": -0.68,
      "loudnorm": "-17.05,-8.65,4.30,-27.22,-0.51",
      "filesize": 36192783,
      "duration": 104,
      "default": true,
      "lyrics": [
        {
          "filename": "JPN - Touhou - MV - Yuusha Wanwan.ass",
          "default": true,
          "version": "Default"
        }
      ]
    }
  ],
  "data": {
    "created_at": "2022-07-16T21:23:30.249Z",
    "ignoreHooks": false,
    "kid": "63aae75b-e185-4745-bfd4-0f03f75615d8",
    "modified_at": "2022-07-16T21:25:04.651Z",
    "repository": "kara.moe",
    "tags": {
      "authors": [
        "a5dbab74-510b-48c5-9cea-5a537a81c974"
      ],
      "collections": [
        "c7db86a0-ff64-4044-9be4-66dd1ef1d1c1"
      ],
      "creators": [
        "25fc251a-0514-4bf5-a818-dd0547723f4a"
      ],
      "families": [
        "0377db02-3af6-43b8-9b08-c759df3d25c3"
      ],
      "groups": [
        "8c22c899-b3ed-42da-a548-ce00f950798b",
        "ae613721-1fbe-480d-ba6b-d6d0702b184d"
      ],
      "langs": [
        "4dcf9614-7914-42aa-99f4-dbce2e059133"
      ],
      "series": [
        "1bdaa5a1-dfa6-4365-b746-7a0b194dafd6"
      ],
      "singers": [
        "feceb592-efac-4eda-9b03-c27cf509004c"
      ],
      "songtypes": [
        "7be1b15c-cff8-4b37-a649-5c90f3d569a9"
      ],
      "songwriters": [
        "26cb5252-8510-49e0-897c-a611a05fc056",
        "feceb592-efac-4eda-9b03-c27cf509004c"
      ],
      "franchises": [
        "1bdaa5a1-dfa6-4365-b746-7a0b194dafd6"
      ]
    },
    "titles": {
      "eng": "Hero Woof-Woof",
      "jpn": "勇者わんわん",
      "qro": "Yûsha Wanwan"
    },
    "titles_default_language": "qro",
    "titles_aliases": [
      "Yuusha"
    ],
    "title": "Yûsha Wanwan",
    "year": 2011
  }
}