{
  "header": {
    "version": 4,
    "description": "Karaoke Mugen Karaoke Data File"
  },
  "medias": [
    {
      "version": "Default",
      "filename": "JPN - Yorushika - MV - Tada Kimi ni Hare.mp4",
      "audiogain": -11.22,
      "loudnorm": "-7.64,1.49,5.40,-17.71,-0.56",
      "filesize": 50614207,
      "duration": 199,
      "default": true,
      "lyrics": [
        {
          "filename": "JPN - Yorushika - MV - Tada Kimi ni Hare.ass",
          "default": true,
          "version": "Default"
        }
      ]
    }
  ],
  "data": {
    "created_at": "2020-03-13T16:02:00.906Z",
    "kid": "9654c020-5675-45b2-9669-d5404904865c",
    "modified_at": "2022-06-04T00:22:21.138Z",
    "repository": "kara.moe",
    "songorder": null,
    "tags": {
      "authors": [
        "269d1464-84f9-44da-9064-1d074bafb602"
      ],
      "creators": [
        "f1a308d0-4073-420c-8b59-82d0163b0075"
      ],
      "families": [
        "5391f9fe-638c-415f-8dc9-958e3a2c5787"
      ],
      "groups": [
        "2b4e9972-5e17-481b-99f5-d0787c0ada56",
        "ae613721-1fbe-480d-ba6b-d6d0702b184d"
      ],
      "langs": [
        "4dcf9614-7914-42aa-99f4-dbce2e059133"
      ],
      "singers": [
        "29159405-9d6e-482e-beb8-8a390e1184d7"
      ],
      "songtypes": [
        "7be1b15c-cff8-4b37-a649-5c90f3d569a9"
      ],
      "songwriters": [
        "41d76f46-52fe-4f5e-8bc6-40a18f29f540"
      ],
      "collections": [
        "dbcf2c22-524d-4708-99bb-601703633927"
      ]
    },
    "titles": {
      "qro": "Tada Kimi ni Hare",
      "jpn": "ただ君に晴れ"
    },
    "titles_default_language": "qro",
    "title": "Tada Kimi ni Hare",
    "year": 2018
  }
}