{
  "header": {
    "version": 4,
    "description": "Karaoke Mugen Karaoke Data File"
  },
  "medias": [
    {
      "version": "Default",
      "filename": "JPN - Ougon Musou Kyoku CROSS - PC GAME OP - Golden Showtime!.mp4",
      "audiogain": -10.14,
      "loudnorm": "-6.60,1.99,3.10,-16.82,-0.30",
      "filesize": 30088836,
      "duration": 107,
      "default": true,
      "lyrics": [
        {
          "filename": "JPN - Ougon Musou Kyoku CROSS - PC GAME OP - Golden Showtime!.ass",
          "default": true,
          "version": "Default",
          "subchecksum": "3f9342e213576272721d4499e1f831ec"
        }
      ]
    }
  ],
  "data": {
    "created_at": "2019-04-08T23:45:31.000Z",
    "kid": "90e24854-32c4-4537-8b66-9875a2e8cd7f",
    "modified_at": "2021-02-25T12:43:07.978Z",
    "repository": "kara.moe",
    "tags": {
      "authors": [
        "affbc2db-10d5-4c51-b2f6-61686dfbc1b1"
      ],
      "collections": [
        "c7db86a0-ff64-4044-9be4-66dd1ef1d1c1"
      ],
      "creators": [
        "ee8900e9-5aee-4872-9093-0b5ce99c363c"
      ],
      "families": [
        "dbedd6b3-d125-4cd8-aa32-c4175e4ca3a3"
      ],
      "groups": [
        "ae613721-1fbe-480d-ba6b-d6d0702b184d"
      ],
      "langs": [
        "4dcf9614-7914-42aa-99f4-dbce2e059133"
      ],
      "platforms": [
        "3c15f758-e1bc-4266-8bb9-3c14112f504a"
      ],
      "series": [
        "bf6d4111-a258-4669-acf3-ef5f004a7bfa"
      ],
      "singers": [
        "e7676506-6ae7-4142-9ab1-b470d459552f"
      ],
      "songtypes": [
        "f02ad9b3-0bd9-4aad-85b3-9976739ba0e4"
      ],
      "songwriters": [
        "127e564b-a210-406d-b510-4fadd1a33790"
      ],
      "franchises": [
        "2a7cfa99-dde3-4e74-a516-7dfe699659d2"
      ]
    },
    "title": "Golden Showtime!",
    "titles": {
      "eng": "Golden Showtime!"
    },
    "year": 2010,
    "titles_default_language": "eng"
  }
}