{
  "header": {
    "version": 4,
    "description": "Karaoke Mugen Karaoke Data File"
  },
  "medias": [
    {
      "version": "Default",
      "filename": "JPN - Platinum End - OP - Sense.mp4",
      "audiogain": 4.93,
      "loudnorm": "-21.18,-9.67,3.80,-31.53,-0.91",
      "filesize": 31699026,
      "duration": 89,
      "default": true,
      "lyrics": [
        {
          "filename": "JPN - Platinum End - OP - Sense.ass",
          "default": true,
          "version": "Default"
        }
      ]
    }
  ],
  "data": {
    "created_at": "2021-12-17T16:19:38.539Z",
    "kid": "e934fba7-555c-4f78-a380-c7f14cb1ceb1",
    "modified_at": "2021-12-17T16:21:35.381Z",
    "repository": "kara.moe",
    "tags": {
      "authors": [
        "9cdf3b70-3550-457c-bdb9-038f3253c6ad"
      ],
      "collections": [
        "c7db86a0-ff64-4044-9be4-66dd1ef1d1c1"
      ],
      "creators": [
        "00de1fc0-0041-4091-8da5-31b3bba2ff98"
      ],
      "families": [
        "0377db02-3af6-43b8-9b08-c759df3d25c3"
      ],
      "groups": [
        "8e209ae4-4381-438f-89dc-1b21752027d2"
      ],
      "langs": [
        "4dcf9614-7914-42aa-99f4-dbce2e059133"
      ],
      "origins": [
        "938de218-5343-4865-94d3-fb33f2eaa152"
      ],
      "series": [
        "2b389dc8-8403-4353-a8f8-ff8e493f8906"
      ],
      "singers": [
        "39a513a6-ca71-4f8d-a7d1-0c375b69b807"
      ],
      "songtypes": [
        "f02ad9b3-0bd9-4aad-85b3-9976739ba0e4"
      ],
      "songwriters": [
        "3182691a-3f2d-42ef-bcf9-c15d494009bb",
        "39a513a6-ca71-4f8d-a7d1-0c375b69b807"
      ]
    },
    "titles": {
      "eng": "Sense"
    },
    "title": "Sense",
    "year": 2021,
    "titles_default_language": "eng"
  }
}