{
  "header": {
    "version": 4,
    "description": "Karaoke Mugen Karaoke Data File"
  },
  "medias": [
    {
      "version": "Default",
      "filename": "JPN - Sword Art Online Alicization War of Underworld 2nd season - OP - ANIMA.mp4",
      "audiogain": 5.68,
      "loudnorm": "-22.34,-11.37,3.20,-32.43,-0.44",
      "filesize": 81451739,
      "duration": 89,
      "default": true,
      "lyrics": [
        {
          "filename": "JPN - Sword Art Online Alicization War of Underworld 2nd season - OP - ANIMA.ass",
          "default": true,
          "version": "Default",
          "subchecksum": "d2a447a00ec4c10ea486b59c988d4c03"
        }
      ]
    }
  ],
  "data": {
    "created_at": "2020-07-26T15:26:30.335Z",
    "kid": "c9ffafa8-8dd4-4bac-b375-e7159b9ad11b",
    "modified_at": "2021-02-25T13:15:21.260Z",
    "repository": "kara.moe",
    "tags": {
      "authors": [
        "e568de19-c003-4d37-8978-98f29ea61cb3"
      ],
      "collections": [
        "c7db86a0-ff64-4044-9be4-66dd1ef1d1c1"
      ],
      "creators": [
        "b96e3686-bbe0-4b9e-815a-a278d5ff31be"
      ],
      "families": [
        "0377db02-3af6-43b8-9b08-c759df3d25c3"
      ],
      "groups": [
        "8e209ae4-4381-438f-89dc-1b21752027d2"
      ],
      "langs": [
        "4dcf9614-7914-42aa-99f4-dbce2e059133"
      ],
      "origins": [
        "938de218-5343-4865-94d3-fb33f2eaa152"
      ],
      "series": [
        "10e3fca1-4dc9-4d07-bfd1-853c434f7958"
      ],
      "singers": [
        "5240b34e-893e-4656-9a10-008d287f89a8"
      ],
      "songtypes": [
        "f02ad9b3-0bd9-4aad-85b3-9976739ba0e4"
      ],
      "songwriters": [
        "23529873-be25-4282-84fd-080a6477c428"
      ],
      "franchises": [
        "39976477-082d-4293-87d1-e1e3a9561125"
      ]
    },
    "title": "ANIMA",
    "titles": {
      "qro": "ANIMA"
    },
    "year": 2020,
    "titles_default_language": "qro"
  }
}