{
  "header": {
    "version": 4,
    "description": "Karaoke Mugen Karaoke Data File"
  },
  "medias": [
    {
      "version": "Default",
      "filename": "JPN - Ike! Greenman - OP - Green-Man.mp4",
      "audiogain": 9.1,
      "loudnorm": "-26.02,-14.84,2.50,-36.08,0.24",
      "filesize": 18007832,
      "duration": 60,
      "default": true,
      "lyrics": [
        {
          "filename": "JPN - Ike! Greenman - OP - Green-Man.ass",
          "default": true,
          "version": "Default",
          "subchecksum": "05aba1fd02ded0034a2f45c42edf99e7"
        }
      ]
    }
  ],
  "data": {
    "created_at": "2018-11-17T12:51:56.000Z",
    "kid": "3c522d1a-d4e8-4b05-ab7e-b90d17cb6de9",
    "modified_at": "2021-02-25T11:46:19.775Z",
    "repository": "kara.moe",
    "tags": {
      "authors": [
        "4607780c-f1ef-47cf-9c1c-b13e8f731699"
      ],
      "collections": [
        "c7db86a0-ff64-4044-9be4-66dd1ef1d1c1"
      ],
      "creators": [
        "e924236c-76ce-4437-bdd8-2639d543c61a"
      ],
      "families": [
        "5391f9fe-638c-415f-8dc9-958e3a2c5787"
      ],
      "groups": [
        "57e5e0c0-e02e-4871-a6cb-d48ea604ebab"
      ],
      "langs": [
        "4dcf9614-7914-42aa-99f4-dbce2e059133"
      ],
      "origins": [
        "938de218-5343-4865-94d3-fb33f2eaa152",
        "d3fac9ab-630d-402d-a392-3d2450c3e62e"
      ],
      "series": [
        "cd24d2ec-5fbb-413f-8802-9cda1e1ac3b8"
      ],
      "singers": [
        "988237be-7ada-4d61-b708-adf8f9fbb799"
      ],
      "songtypes": [
        "f02ad9b3-0bd9-4aad-85b3-9976739ba0e4"
      ],
      "songwriters": [
        "1a973b02-6716-4580-965c-3e58d36f7d35",
        "95d3c97d-10a5-4935-b606-be5f3766cf1c"
      ]
    },
    "title": "Green-Man",
    "titles": {
      "eng": "Green-Man",
      "jpn": "グリーンマン"
    },
    "year": 1973,
    "titles_default_language": "eng"
  }
}