{
  "header": {
    "version": 4,
    "description": "Karaoke Mugen Karaoke Data File"
  },
  "medias": [
    {
      "version": "Default",
      "filename": "JPN - Maou-jou de Oyasumi - ED - Gimmme!.mp4",
      "audiogain": 0.1,
      "loudnorm": "-17.16,-4.67,2.50,-27.39,-0.43",
      "filesize": 33000180,
      "duration": 90,
      "default": true,
      "lyrics": [
        {
          "filename": "JPN - Maou-jou de Oyasumi - ED - Gimmme!.ass",
          "default": true,
          "version": "Default",
          "subchecksum": "f1cb3e8733a8c95e098cef01705d6be3"
        }
      ]
    }
  ],
  "data": {
    "created_at": "2020-10-18T00:55:09.151Z",
    "kid": "a708e116-d1e2-4f99-9633-9ba869a51ff6",
    "modified_at": "2021-02-25T12:21:23.998Z",
    "repository": "kara.moe",
    "tags": {
      "authors": [
        "b2bacb3f-542c-44d2-af9b-cd78c1dd4b70"
      ],
      "collections": [
        "c7db86a0-ff64-4044-9be4-66dd1ef1d1c1"
      ],
      "creators": [
        "5b10d972-08a8-419d-9663-46930cc2c347"
      ],
      "families": [
        "0377db02-3af6-43b8-9b08-c759df3d25c3"
      ],
      "groups": [
        "8c22c899-b3ed-42da-a548-ce00f950798b",
        "8e209ae4-4381-438f-89dc-1b21752027d2"
      ],
      "langs": [
        "4dcf9614-7914-42aa-99f4-dbce2e059133"
      ],
      "origins": [
        "938de218-5343-4865-94d3-fb33f2eaa152"
      ],
      "series": [
        "5ad2ca74-9239-4a6d-a53c-e411be8a5646"
      ],
      "singers": [
        "607c7178-32ae-4378-a8d8-5fc3e6762177"
      ],
      "songtypes": [
        "38c77c56-2b95-4040-b676-0994a8cb0597"
      ],
      "songwriters": [
        "1d631037-5e19-45ca-a736-1ec75b96e106",
        "beca2faf-71f6-4c3c-92de-dce76ed20dac"
      ]
    },
    "title": "Gimmme!",
    "titles": {
      "eng": "Gimmme!"
    },
    "year": 2020,
    "titles_default_language": "eng"
  }
}