{
  "header": {
    "version": 4,
    "description": "Karaoke Mugen Karaoke Data File"
  },
  "medias": [
    {
      "version": "Default",
      "filename": "JPN - Tales of Legendia - PS2 GAME OP - TAO.mp4",
      "audiogain": -7.82,
      "loudnorm": "-11.37,0.42,14.40,-22.12,-1.88",
      "filesize": 33407650,
      "duration": 106,
      "default": true,
      "lyrics": [
        {
          "filename": "JPN - Tales of Legendia - PS2 GAME OP - TAO.ass",
          "default": true,
          "version": "Default",
          "subchecksum": "9375bfc2cf6e5d56cbff3b099158cdd4"
        }
      ]
    }
  ],
  "data": {
    "created_at": "2017-10-11T15:01:29.000Z",
    "kid": "676adb36-2b7f-4bf8-a042-ba80a38fc54d",
    "modified_at": "2021-02-25T13:16:33.190Z",
    "repository": "kara.moe",
    "tags": {
      "authors": [
        "5bdaba57-27f8-4568-8806-76a807728766"
      ],
      "collections": [
        "c7db86a0-ff64-4044-9be4-66dd1ef1d1c1"
      ],
      "creators": [
        "4098d0f9-bf4e-47ca-b451-d2597b487e95"
      ],
      "families": [
        "dbedd6b3-d125-4cd8-aa32-c4175e4ca3a3"
      ],
      "groups": [
        "3c14c864-533c-49e6-a3cc-6969f1233775"
      ],
      "langs": [
        "4dcf9614-7914-42aa-99f4-dbce2e059133"
      ],
      "platforms": [
        "2173004e-21da-45c9-9dfb-26014423c566"
      ],
      "series": [
        "c25ccd4b-1ed8-4468-a280-be321082a81e"
      ],
      "singers": [
        "6f1aaccd-0f96-4fa9-ae5f-4e9d47f103a6"
      ],
      "songtypes": [
        "f02ad9b3-0bd9-4aad-85b3-9976739ba0e4"
      ],
      "songwriters": [
        "6f1aaccd-0f96-4fa9-ae5f-4e9d47f103a6",
        "839611a4-d6ce-4ae1-8775-c32c522914f5"
      ],
      "franchises": [
        "457ab7f6-9644-4493-b61b-8778400aaf54"
      ]
    },
    "title": "TAO",
    "titles": {
      "qro": "TAO"
    },
    "year": 2005,
    "titles_default_language": "qro"
  }
}