{
  "header": {
    "version": 4,
    "description": "Karaoke Mugen Karaoke Data File"
  },
  "medias": [
    {
      "version": "Default",
      "filename": "JPN - LiSA, Uru - AUDIO - Saikai.mp3",
      "audiogain": -5.56,
      "loudnorm": "-12.57,-2.86,7.60,-22.72,-1.16",
      "filesize": 9868484,
      "duration": 242,
      "default": true,
      "lyrics": [
        {
          "filename": "JPN - LiSA, Uru - AUDIO - Saikai.ass",
          "default": true,
          "version": "Default",
          "subchecksum": "bfba4f81f22f40904f27a3b0ad25f3c3"
        }
      ]
    }
  ],
  "data": {
    "created_at": "2020-11-23T20:40:41.226Z",
    "kid": "759a239b-0f92-4964-936b-61815d3da6c1",
    "modified_at": "2021-02-25T12:10:36.793Z",
    "repository": "kara.moe",
    "tags": {
      "authors": [
        "87096920-112f-485f-a310-04156cb4624d"
      ],
      "collections": [
        "c7db86a0-ff64-4044-9be4-66dd1ef1d1c1"
      ],
      "creators": [
        "9f10c180-4ed1-4a4e-9e39-c37e09b91d5f"
      ],
      "groups": [
        "60defa7b-774e-4680-8321-51b742c2e009",
        "8e209ae4-4381-438f-89dc-1b21752027d2"
      ],
      "langs": [
        "4dcf9614-7914-42aa-99f4-dbce2e059133"
      ],
      "singers": [
        "0d66d0d1-476f-470d-bc03-34ff08e41435",
        "41f045f2-1576-496d-91b1-c0f28bab57a4"
      ],
      "songtypes": [
        "42a262ae-acba-4ab5-a446-c5789c96c821"
      ],
      "songwriters": [
        "ac03c264-7085-486b-a47f-3e7574e51a33"
      ]
    },
    "title": "Saikai",
    "titles": {
      "qro": "Saikai",
      "jpn": "再会"
    },
    "year": 2020,
    "titles_default_language": "qro"
  }
}