{
  "header": {
    "version": 4,
    "description": "Karaoke Mugen Karaoke Data File"
  },
  "medias": [
    {
      "version": "Default",
      "filename": "JPN - Tsukipro The Animation - OP4 - Mahou no Kizuna.mp4",
      "audiogain": 3.64,
      "loudnorm": "-20.74,-11.22,6.10,-30.77,-1.02",
      "filesize": 50371721,
      "duration": 89,
      "default": true,
      "lyrics": [
        {
          "filename": "JPN - Tsukipro The Animation - OP4 - Mahou no Kizuna.ass",
          "default": true,
          "version": "Default"
        }
      ]
    }
  ],
  "data": {
    "created_at": "2022-05-21T19:54:04.489Z",
    "ignoreHooks": false,
    "kid": "1894c32e-7a2b-4874-b403-7aacd9acd29c",
    "modified_at": "2022-11-03T12:58:12.141Z",
    "repository": "kara.moe",
    "songorder": 4,
    "tags": {
      "authors": [
        "ee8628c8-9b7f-415b-bc0d-9b712d5daf8c"
      ],
      "collections": [
        "c7db86a0-ff64-4044-9be4-66dd1ef1d1c1"
      ],
      "creators": [
        "422a4f90-c9f2-49c3-b1d1-ee7de65ba052"
      ],
      "families": [
        "0377db02-3af6-43b8-9b08-c759df3d25c3"
      ],
      "genres": [
        "caa86df2-0d59-474b-885c-f240a9e891b0"
      ],
      "groups": [
        "ae613721-1fbe-480d-ba6b-d6d0702b184d"
      ],
      "langs": [
        "4dcf9614-7914-42aa-99f4-dbce2e059133"
      ],
      "origins": [
        "938de218-5343-4865-94d3-fb33f2eaa152"
      ],
      "series": [
        "6dff7627-f2d1-44c9-8eae-9d243dab3237"
      ],
      "singers": [
        "48dc9597-7cd1-482f-8dc0-3e7c72f4b7c3",
        "65441047-58cf-4275-9a2e-c1a67ebadd1f",
        "681103a3-15ae-45d5-a0b8-3cc27be2be46",
        "d50c08cf-99dd-4674-9e3c-76964d502097"
      ],
      "singergroups": [
        "c354bde5-0346-47c3-96fa-e2c66239a5c8"
      ],
      "songtypes": [
        "f02ad9b3-0bd9-4aad-85b3-9976739ba0e4"
      ],
      "songwriters": [
        "a00c9f59-2318-4ec2-b8c1-235dd0635ccb"
      ],
      "franchises": [
        "ac8c6bdb-a96f-4893-b434-78d9fbdf673e"
      ]
    },
    "titles": {
      "jpn": "魔法のキズナ",
      "qro": "Mahô no Kizuna"
    },
    "titles_default_language": "qro",
    "titles_aliases": [
      "Mahou"
    ],
    "title": "Mahô no Kizuna",
    "year": 2017
  }
}