{
  "header": {
    "version": 4,
    "description": "Karaoke Mugen Karaoke Data File"
  },
  "medias": [
    {
      "version": "Default",
      "filename": "JPN - Flower - MV - lower one's eyes.mp4",
      "audiogain": -4.36,
      "loudnorm": "-14.12,-2.23,7.40,-24.19,-1.18",
      "filesize": 123126003,
      "duration": 230,
      "default": true,
      "lyrics": [
        {
          "filename": "JPN - Flower - MV - lower one's eyes.ass",
          "default": true,
          "version": "Default"
        }
      ]
    }
  ],
  "data": {
    "created_at": "2022-03-08T22:33:38.601Z",
    "ignoreHooks": false,
    "kid": "6c45accc-f343-45a8-8460-fdca06c34607",
    "modified_at": "2022-03-08T22:33:38.601Z",
    "repository": "kara.moe",
    "tags": {
      "authors": [
        "63d193aa-c3b3-4858-a7c9-d505d478dc3d"
      ],
      "collections": [
        "c7db86a0-ff64-4044-9be4-66dd1ef1d1c1"
      ],
      "families": [
        "0377db02-3af6-43b8-9b08-c759df3d25c3"
      ],
      "genres": [
        "45623cae-6d68-4304-a49b-896d1d6f4580"
      ],
      "groups": [
        "8e209ae4-4381-438f-89dc-1b21752027d2"
      ],
      "langs": [
        "4dcf9614-7914-42aa-99f4-dbce2e059133"
      ],
      "singers": [
        "a34b0b52-c1ed-4a44-8db2-3cbd013ec06b"
      ],
      "songtypes": [
        "7be1b15c-cff8-4b37-a649-5c90f3d569a9"
      ],
      "songwriters": [
        "85f43623-05fd-4be1-808f-1392ff70e1c8"
      ]
    },
    "titles": {
      "eng": "lower one's eyes",
      "jpn": "ロウワー"
    },
    "title": "lower one's eyes",
    "year": 2021,
    "titles_default_language": "eng"
  }
}