{
  "header": {
    "version": 4,
    "description": "Karaoke Mugen Karaoke Data File"
  },
  "medias": [
    {
      "version": "Default",
      "filename": "JPN - Sakurako-san no Ashimoto ni wa Shitai ga Umatteiru - OP - Dear answer.mp4",
      "audiogain": 0.38,
      "loudnorm": "-18.12,-9.68,5.10,-28.18,-1.23",
      "filesize": 29755020,
      "duration": 92,
      "default": true,
      "lyrics": [
        {
          "filename": "JPN - Sakurako-san no Ashimoto ni wa Shitai ga Umatteiru - OP - Dear answer.ass",
          "default": true,
          "version": "Default",
          "subchecksum": "5f92f932dbdc39f625b1aaf80bf11241"
        }
      ]
    }
  ],
  "data": {
    "created_at": "2017-10-11T17:02:44.000Z",
    "kid": "52ea576b-479e-480b-9ee8-87233caa3770",
    "modified_at": "2021-02-25T12:56:51.593Z",
    "repository": "kara.moe",
    "tags": {
      "authors": [
        "5bdaba57-27f8-4568-8806-76a807728766"
      ],
      "collections": [
        "c7db86a0-ff64-4044-9be4-66dd1ef1d1c1"
      ],
      "creators": [
        "0f5ce160-2792-43ba-ac7d-1613b8c9ac61"
      ],
      "families": [
        "0377db02-3af6-43b8-9b08-c759df3d25c3"
      ],
      "groups": [
        "ae613721-1fbe-480d-ba6b-d6d0702b184d"
      ],
      "langs": [
        "4dcf9614-7914-42aa-99f4-dbce2e059133"
      ],
      "origins": [
        "938de218-5343-4865-94d3-fb33f2eaa152"
      ],
      "series": [
        "3f15362d-6330-4073-b3c2-5778dcd0be3b"
      ],
      "singers": [
        "61c5e3d4-6a0e-46b6-b622-06f5bc6d3294"
      ],
      "songtypes": [
        "f02ad9b3-0bd9-4aad-85b3-9976739ba0e4"
      ],
      "songwriters": [
        "7e72484d-b638-4d9a-95f2-5947c59d721b",
        "ac0fb7e2-06df-4498-89bd-2015155576c6"
      ]
    },
    "title": "Dear answer",
    "titles": {
      "eng": "Dear answer"
    },
    "year": 2015,
    "titles_default_language": "eng"
  }
}