{
  "header": {
    "version": 4,
    "description": "Karaoke Mugen Karaoke Data File"
  },
  "medias": [
    {
      "version": "Default",
      "filename": "JPN - ZUTOMAYO - MV - Haze Haseru Haterumade.mp4",
      "audiogain": -10.23,
      "loudnorm": "-7.04,2.33,3.50,-17.12,-0.71",
      "filesize": 126837566,
      "duration": 245,
      "default": true,
      "lyrics": [
        {
          "filename": "JPN - ZUTOMAYO - MV - Haze Haseru Haterumade.ass",
          "default": true,
          "version": "Default"
        }
      ]
    }
  ],
  "data": {
    "created_at": "2021-03-13T12:38:15.306Z",
    "ignoreHooks": false,
    "kid": "6825df41-fdcf-4597-8897-de6f40108b30",
    "modified_at": "2022-10-19T15:08:04.216Z",
    "repository": "kara.moe",
    "tags": {
      "authors": [
        "ba4c7606-1e96-4c45-8e21-d5103477336b"
      ],
      "collections": [
        "dbcf2c22-524d-4708-99bb-601703633927"
      ],
      "creators": [
        "945ec011-2614-44ad-bdef-3ee71f0028ff"
      ],
      "families": [
        "0377db02-3af6-43b8-9b08-c759df3d25c3"
      ],
      "groups": [
        "2b4e9972-5e17-481b-99f5-d0787c0ada56",
        "ae613721-1fbe-480d-ba6b-d6d0702b184d"
      ],
      "langs": [
        "4dcf9614-7914-42aa-99f4-dbce2e059133"
      ],
      "singers": [
        "d3f693d0-7d45-465e-82ed-a6723c600008"
      ],
      "singergroups": [
        "c7d361f6-c1cf-44b2-b40a-a18aa90f2d8f"
      ],
      "songtypes": [
        "7be1b15c-cff8-4b37-a649-5c90f3d569a9"
      ],
      "songwriters": [
        "c7d361f6-c1cf-44b2-b40a-a18aa90f2d8f"
      ]
    },
    "titles": {
      "jpn": "ハゼ馳せる果てるまで",
      "qro": "Haze Haseru Haterumade"
    },
    "titles_default_language": "qro",
    "title": "Haze Haseru Haterumade",
    "year": 2019
  }
}