{
  "header": {
    "version": 4,
    "description": "Karaoke Mugen Karaoke Data File"
  },
  "medias": [
    {
      "version": "Default",
      "filename": "JPN - Touhou - MV - Kegare naki Euphoria.mp4",
      "audiogain": -9.67,
      "loudnorm": "-6.87,6.19,3.10,-17.12,-0.26",
      "filesize": 115180955,
      "duration": 254,
      "default": true,
      "lyrics": [
        {
          "filename": "JPN - Touhou - MV - Kegare naki Euphoria.ass",
          "default": true,
          "version": "Default"
        }
      ]
    }
  ],
  "data": {
    "created_at": "2023-02-04T14:02:50.075Z",
    "ignoreHooks": false,
    "kid": "855d35df-a5de-402a-88d6-a1911afe0250",
    "modified_at": "2023-02-04T14:02:50.305Z",
    "repository": "kara.moe",
    "tags": {
      "authors": [
        "61865310-cb97-496c-a722-364b0a9ba90d"
      ],
      "collections": [
        "c7db86a0-ff64-4044-9be4-66dd1ef1d1c1"
      ],
      "creators": [
        "5ba06772-0887-4b88-950b-bb7bdf97dd10"
      ],
      "families": [
        "0377db02-3af6-43b8-9b08-c759df3d25c3"
      ],
      "langs": [
        "4dcf9614-7914-42aa-99f4-dbce2e059133"
      ],
      "origins": [
        "ac5085db-52d8-44b4-8fbb-1697b24d2046"
      ],
      "series": [
        "1bdaa5a1-dfa6-4365-b746-7a0b194dafd6"
      ],
      "singers": [
        "7f848493-f1e9-49d7-bfdd-df6ff41dec94"
      ],
      "songtypes": [
        "7be1b15c-cff8-4b37-a649-5c90f3d569a9"
      ],
      "songwriters": [
        "8a7319f5-858f-413d-98d2-653b35e6eea0",
        "6c57bb27-313a-463c-8260-05a064851212",
        "8b961235-c3d6-4a01-a746-0b121688880e"
      ],
      "franchises": [
        "1bdaa5a1-dfa6-4365-b746-7a0b194dafd6"
      ],
      "groups": [
        "ae613721-1fbe-480d-ba6b-d6d0702b184d",
        "8c22c899-b3ed-42da-a548-ce00f950798b"
      ]
    },
    "titles": {
      "jpn": "穢れなきユーフォリア",
      "qro": "Kegare naki Euphoria"
    },
    "titles_default_language": "qro",
    "year": 2019
  }
}