{
  "header": {
    "version": 4,
    "description": "Karaoke Mugen Karaoke Data File"
  },
  "medias": [
    {
      "version": "Default",
      "filename": "JPN - Densha Otoko - ED - Sekai wa Sore o Ai to Yobundaze.mp4",
      "audiogain": 1.87,
      "loudnorm": "-18.67,-7.71,2.50,-28.69,-0.64",
      "filesize": 63806508,
      "duration": 92,
      "default": true,
      "lyrics": [
        {
          "filename": "JPN - Densha Otoko - ED - Sekai wa Sore o Ai to Yobundaze.ass",
          "default": true,
          "version": "Default",
          "subchecksum": "4a64419ddff5c2c9eac406612bc7cd96"
        }
      ]
    }
  ],
  "data": {
    "created_at": "2020-01-08T21:56:54.369Z",
    "kid": "a6bbf14d-2b21-4c44-b1f6-5998fedf5e70",
    "modified_at": "2021-02-25T11:08:49.929Z",
    "repository": "kara.moe",
    "tags": {
      "authors": [
        "1db1738f-acdc-42fc-aec3-60f4bddf660d"
      ],
      "collections": [
        "c7db86a0-ff64-4044-9be4-66dd1ef1d1c1"
      ],
      "creators": [
        "12d35c78-7372-4a33-8843-b4a18b1ee737",
        "75cd9c99-a991-449e-9b5c-954410edbe60"
      ],
      "families": [
        "5391f9fe-638c-415f-8dc9-958e3a2c5787"
      ],
      "groups": [
        "3c14c864-533c-49e6-a3cc-6969f1233775"
      ],
      "langs": [
        "4dcf9614-7914-42aa-99f4-dbce2e059133"
      ],
      "origins": [
        "28650021-2b2a-4a55-aff4-85dd4896c687",
        "938de218-5343-4865-94d3-fb33f2eaa152"
      ],
      "series": [
        "10f114a6-d80f-46bb-bba4-eed3b1d38240"
      ],
      "singers": [
        "3d57d8ca-e6fb-484b-8d9f-06ac77f63fff"
      ],
      "songtypes": [
        "38c77c56-2b95-4040-b676-0994a8cb0597"
      ],
      "songwriters": [
        "0283d57b-1211-4661-a1f1-364bec6eb869"
      ]
    },
    "title": "Sekai wa Sore o Ai to Yobundaze",
    "titles": {
      "qro": "Sekai wa Sore wo Ai to Yobundaze",
      "jpn": "世界はそれを愛と呼ぶんだぜ"
    },
    "year": 2005,
    "titles_default_language": "qro"
  }
}