{
  "header": {
    "version": 4,
    "description": "Karaoke Mugen Karaoke Data File"
  },
  "medias": [
    {
      "version": "Default",
      "filename": "JPN - Kamen Rider Kuuga - OP1 - Kamen Rider Kuuga!.mp4",
      "audiogain": 2.83,
      "loudnorm": "-20.46,-7.00,5.80,-30.68,-0.99",
      "filesize": 11183171,
      "duration": 78,
      "default": true,
      "lyrics": [
        {
          "filename": "JPN - Kamen Rider Kuuga - OP1 - Kamen Rider Kuuga!.ass",
          "default": true,
          "version": "Default"
        }
      ]
    }
  ],
  "data": {
    "created_at": "2017-10-11T17:02:43.000Z",
    "ignoreHooks": false,
    "kid": "4c273a94-6f24-4430-a3f4-54e02dc6f062",
    "modified_at": "2022-10-01T09:47:32.708Z",
    "repository": "kara.moe",
    "songorder": 1,
    "tags": {
      "authors": [
        "a022473c-fc8b-4a98-bff6-eb2656386b80"
      ],
      "collections": [
        "c7db86a0-ff64-4044-9be4-66dd1ef1d1c1"
      ],
      "creators": [
        "e32b14df-502b-45fa-9ca5-37554a63a4d7"
      ],
      "families": [
        "5391f9fe-638c-415f-8dc9-958e3a2c5787"
      ],
      "groups": [
        "3c14c864-533c-49e6-a3cc-6969f1233775"
      ],
      "langs": [
        "4dcf9614-7914-42aa-99f4-dbce2e059133"
      ],
      "origins": [
        "938de218-5343-4865-94d3-fb33f2eaa152",
        "d3fac9ab-630d-402d-a392-3d2450c3e62e"
      ],
      "series": [
        "c782c01a-e27d-4532-b515-862c7f5d1190"
      ],
      "singers": [
        "15678d9a-f95b-4cb6-9196-5d5d26c321c0"
      ],
      "songtypes": [
        "f02ad9b3-0bd9-4aad-85b3-9976739ba0e4"
      ],
      "songwriters": [
        "418f8cfd-d118-4e6b-ac7c-5b68d0583352",
        "ad9de3e0-673e-459b-ac88-178ae5e04341"
      ],
      "franchises": [
        "93386847-9ab0-468e-bad0-e1d655e0e0ec"
      ]
    },
    "titles": {
      "jpn": "仮面ライダークウガ",
      "qro": "Kamen Rider Kûga!"
    },
    "titles_default_language": "qro",
    "title": "Kamen Rider Kûga!",
    "year": 2000,
    "titles_aliases": [
      "Kuuga!"
    ]
  }
}