{
  "header": {
    "version": 4,
    "description": "Karaoke Mugen Karaoke Data File"
  },
  "medias": [
    {
      "version": "Default",
      "filename": "JPN - Shiritsu Justice Gakuen Legion of Heroes - PSX GAME ED - Ashita no Yukue.mp4",
      "audiogain": -6.34,
      "loudnorm": "-13.15,1.27,5.30,-23.26,-0.55",
      "filesize": 10734950,
      "duration": 94,
      "default": true,
      "lyrics": [
        {
          "filename": "JPN - Shiritsu Justice Gakuen Legion of Heroes - PSX GAME ED - Ashita no Yukue.ass",
          "default": true,
          "version": "Default",
          "subchecksum": "06f3cb72ca6ad5f9b4af7c9e7e952e01"
        }
      ]
    }
  ],
  "data": {
    "created_at": "2020-08-22T13:41:52.025Z",
    "kid": "e3c38b9b-1b24-41c1-9fcc-0b86cb6abff1",
    "modified_at": "2021-02-25T13:05:39.031Z",
    "repository": "kara.moe",
    "tags": {
      "authors": [
        "4d71ce82-eed1-4c44-ac85-5f7255f3dad3"
      ],
      "collections": [
        "c7db86a0-ff64-4044-9be4-66dd1ef1d1c1"
      ],
      "creators": [
        "a9b563c0-8ead-481e-9071-277ad918982e"
      ],
      "families": [
        "dbedd6b3-d125-4cd8-aa32-c4175e4ca3a3"
      ],
      "groups": [
        "24db50aa-a126-4d34-a48a-e45db79c4245"
      ],
      "langs": [
        "4dcf9614-7914-42aa-99f4-dbce2e059133"
      ],
      "platforms": [
        "f84b68ac-943a-495a-9c6e-d90ec959b19e"
      ],
      "series": [
        "8566a156-49cc-4811-9178-346c952dfdd4"
      ],
      "singers": [
        "b0312ae3-3843-4aed-8c17-30d37a425e7e"
      ],
      "songtypes": [
        "38c77c56-2b95-4040-b676-0994a8cb0597"
      ],
      "songwriters": [
        "7c473d44-c616-4614-b15b-659adb8b6367"
      ]
    },
    "title": "Ashita no Yukue",
    "titles": {
      "qro": "Ashita no Yukue",
      "jpn": "明日の記憶"
    },
    "year": 1997,
    "titles_default_language": "qro"
  }
}