{
  "header": {
    "version": 4,
    "description": "Karaoke Mugen Karaoke Data File"
  },
  "medias": [
    {
      "version": "Full vers.",
      "filename": "JPN - En'en no shouboutai Ni no Shou - AUDIO OP - SPARK-AGAIN ~ Full vers.mp3",
      "audiogain": -5.64,
      "loudnorm": "-10.29,-2.36,2.70,-20.32,-0.39",
      "filesize": 7242329,
      "duration": 238,
      "default": true,
      "lyrics": [
        {
          "filename": "JPN - En'en no shouboutai Ni no Shou - AUDIO OP - SPARK-AGAIN ~ Full vers.ass",
          "default": true,
          "version": "Default",
          "subchecksum": "bf345b2ef0d22eb4eadde1ca6445083b"
        }
      ]
    }
  ],
  "data": {
    "created_at": "2020-07-14T19:42:01.231Z",
    "kid": "55e73544-055a-4fd7-a0c4-77c9024b1693",
    "modified_at": "2021-02-25T11:15:29.109Z",
    "parents": [
      "37e41f70-be0f-4d81-9298-7aef37351e57"
    ],
    "repository": "kara.moe",
    "tags": {
      "authors": [
        "87096920-112f-485f-a310-04156cb4624d"
      ],
      "collections": [
        "c7db86a0-ff64-4044-9be4-66dd1ef1d1c1"
      ],
      "creators": [
        "6fa9de67-21cf-420b-9ddb-57edb5abe523"
      ],
      "families": [
        "0377db02-3af6-43b8-9b08-c759df3d25c3"
      ],
      "genres": [
        "a0aeef4a-6428-45ff-a6e1-468b595930c2"
      ],
      "groups": [
        "60defa7b-774e-4680-8321-51b742c2e009",
        "8e209ae4-4381-438f-89dc-1b21752027d2"
      ],
      "langs": [
        "4dcf9614-7914-42aa-99f4-dbce2e059133"
      ],
      "origins": [
        "938de218-5343-4865-94d3-fb33f2eaa152"
      ],
      "series": [
        "8a42e14b-6e99-4087-aac6-0013891b8c75"
      ],
      "singers": [
        "6cfc20ab-c855-4f24-8bed-0981e465630b"
      ],
      "songtypes": [
        "42a262ae-acba-4ab5-a446-c5789c96c821",
        "f02ad9b3-0bd9-4aad-85b3-9976739ba0e4"
      ],
      "songwriters": [
        "009f62cd-58e5-44f6-b300-4f25653f1973",
        "68890898-72a2-44a1-bdfc-f9c9d9c03899",
        "c4b955ea-a5a1-4554-a8f8-eb4ad5b9c5ac"
      ],
      "versions": [
        "c2143a7f-6970-450e-8a79-0302db9220a9"
      ],
      "franchises": [
        "bab4a47c-7a0c-401b-a2ca-f87a01ae733e"
      ]
    },
    "title": "SPARK-AGAIN ~ Full vers.",
    "titles": {
      "eng": "SPARK-AGAIN ~ Full vers."
    },
    "year": 2020,
    "titles_default_language": "eng"
  }
}