{
  "header": {
    "version": 4,
    "description": "Karaoke Mugen Karaoke Data File"
  },
  "medias": [
    {
      "version": "Default",
      "filename": "JPN - UCHIKUBIGOKUMON-DOUKOUKAI - MV - Nihon no Kome wa Sekai Ichi.mp4",
      "audiogain": -9.08,
      "loudnorm": "-7.62,2.64,1.50,-17.68,-0.37",
      "filesize": 78303617,
      "duration": 214,
      "default": true,
      "lyrics": [
        {
          "filename": "JPN - UCHIKUBIGOKUMON-DOUKOUKAI - MV - Nihon no Kome wa Sekai Ichi.ass",
          "default": true,
          "version": "Default"
        }
      ]
    }
  ],
  "data": {
    "created_at": "2020-07-22T22:15:17.347Z",
    "kid": "60f436f7-8d81-4923-8ea2-83b17753a2a7",
    "modified_at": "2022-06-04T00:22:29.889Z",
    "repository": "kara.moe",
    "songorder": null,
    "tags": {
      "authors": [
        "5cb3d0c5-479e-4224-b6ec-b27209e933a0"
      ],
      "creators": [
        "90caf15e-bc86-46e1-8793-9af7906c8310"
      ],
      "families": [
        "5391f9fe-638c-415f-8dc9-958e3a2c5787"
      ],
      "groups": [
        "60defa7b-774e-4680-8321-51b742c2e009",
        "ae613721-1fbe-480d-ba6b-d6d0702b184d"
      ],
      "langs": [
        "4dcf9614-7914-42aa-99f4-dbce2e059133"
      ],
      "singers": [
        "32603bc6-b633-497d-8ba4-1e96a53e8454"
      ],
      "songtypes": [
        "7be1b15c-cff8-4b37-a649-5c90f3d569a9"
      ],
      "collections": [
        "dbcf2c22-524d-4708-99bb-601703633927"
      ]
    },
    "titles": {
      "qro": "Nihon no Kome wa Sekai Ichi",
      "jpn": "日本の米は世界一"
    },
    "titles_default_language": "qro",
    "title": "Nihon no Kome wa Sekai Ichi",
    "year": 2015
  }
}