{
  "header": {
    "version": 4,
    "description": "Karaoke Mugen Karaoke Data File"
  },
  "medias": [
    {
      "version": "Default",
      "filename": "JPN - Eiga Daisuki Pompo-san - MOVIE ED MV - Mado wo Akete.mp4",
      "audiogain": -5.77,
      "loudnorm": "-11.90,-1.61,6.10,-21.93,0.02",
      "filesize": 67789508,
      "duration": 212,
      "default": true,
      "lyrics": [
        {
          "filename": "JPN - Eiga Daisuki Pompo-san - MOVIE ED MV - Mado wo Akete.ass",
          "default": true,
          "version": "Default"
        }
      ]
    }
  ],
  "data": {
    "created_at": "2023-02-12T15:39:00.736Z",
    "kid": "784311ec-2b05-4089-a204-8360f7ff2413",
    "modified_at": "2023-02-12T15:39:00.736Z",
    "tags": {
      "authors": [
        "d35706aa-045b-4ca2-90ac-5cf9c442f763"
      ],
      "collections": [
        "c7db86a0-ff64-4044-9be4-66dd1ef1d1c1"
      ],
      "creators": [
        "5c771311-d798-4599-b02e-41756b90b126"
      ],
      "families": [
        "0377db02-3af6-43b8-9b08-c759df3d25c3"
      ],
      "groups": [
        "8e209ae4-4381-438f-89dc-1b21752027d2"
      ],
      "langs": [
        "4dcf9614-7914-42aa-99f4-dbce2e059133"
      ],
      "origins": [
        "c8ca9dea-d8b4-48fe-8427-d911653232e9"
      ],
      "series": [
        "cdebc325-80f2-4c15-84d9-6184bcc1e81c"
      ],
      "singers": [
        "154e1391-b040-402a-9cc8-4a1339ba0bf4"
      ],
      "songtypes": [
        "38c77c56-2b95-4040-b676-0994a8cb0597",
        "7be1b15c-cff8-4b37-a649-5c90f3d569a9"
      ],
      "songwriters": [
        "babc6ded-0908-446f-b3a9-5066fea0e6dc"
      ]
    },
    "titles": {
      "jpn": "窓を開けて",
      "qro": "Mado wo Akete"
    },
    "titles_default_language": "qro",
    "titles_aliases": [],
    "year": "2021",
    "repository": "kara.moe"
  }
}