{
  "header": {
    "version": 4,
    "description": "Karaoke Mugen Karaoke Data File"
  },
  "medias": [
    {
      "version": "Full.",
      "filename": "JPN - Lucky Star - AUDIO CS - Ore no wasuremono ~ Full Vers.mp3",
      "audiogain": -8.33,
      "loudnorm": "-9.27,1.06,4.30,-19.42,-0.19",
      "filesize": 5470452,
      "duration": 307,
      "default": true,
      "lyrics": [
        {
          "filename": "JPN - Lucky Star - AUDIO CS - Ore no wasuremono ~ Full Vers.ass",
          "default": true,
          "version": "Default",
          "subchecksum": "33c0e4b88ec47bec73cc7888ce3d03c1"
        }
      ]
    }
  ],
  "data": {
    "created_at": "2020-04-24T10:42:59.431Z",
    "kid": "a38e9666-80a4-49d8-8865-cef27896486f",
    "modified_at": "2021-05-23T22:38:25.181Z",
    "repository": "kara.moe",
    "tags": {
      "authors": [
        "60defa7b-774e-4680-8321-51b742c2e009"
      ],
      "collections": [
        "c7db86a0-ff64-4044-9be4-66dd1ef1d1c1"
      ],
      "groups": [
        "3c14c864-533c-49e6-a3cc-6969f1233775",
        "60defa7b-774e-4680-8321-51b742c2e009"
      ],
      "langs": [
        "4dcf9614-7914-42aa-99f4-dbce2e059133"
      ],
      "misc": [
        "86705d4b-24e4-4756-9687-2b9c98bcf366"
      ],
      "series": [
        "010a52bf-ce74-42be-b259-d167d72d2ea8"
      ],
      "singers": [
        "e0cff347-f5d1-4b0b-835f-f238bed63716"
      ],
      "songtypes": [
        "42a262ae-acba-4ab5-a446-c5789c96c821",
        "a8a2616c-b5a1-4df3-ad6f-89291bc67dee"
      ],
      "songwriters": [
        "e0cff347-f5d1-4b0b-835f-f238bed63716"
      ],
      "versions": [
        "c2143a7f-6970-450e-8a79-0302db9220a9"
      ],
      "franchises": [
        "010a52bf-ce74-42be-b259-d167d72d2ea8"
      ]
    },
    "title": "Ore no wasuremono",
    "titles": {
      "qro": "Ore no Wasuremono",
      "jpn": "俺の忘れ物"
    },
    "year": 2007,
    "titles_default_language": "qro"
  }
}