{
  "header": {
    "version": 4,
    "description": "Karaoke Mugen Karaoke Data File"
  },
  "medias": [
    {
      "version": "Default",
      "filename": "JPN - Yuru Camp Have a nice day! - GAME SWITCH PS4 ED - Loch to Tabibito.mp4",
      "audiogain": -7.27,
      "loudnorm": "-11.87,0.45,9.90,-22.07,-1.87",
      "filesize": 67332092,
      "duration": 128,
      "default": true,
      "lyrics": [
        {
          "filename": "JPN - Yuru Camp Have a nice day! - GAME SWITCH PS4 ED - Loch to Tabibito.ass",
          "default": true,
          "version": "Default"
        }
      ]
    }
  ],
  "data": {
    "created_at": "2022-03-28T14:42:38.493Z",
    "ignoreHooks": false,
    "kid": "339917c9-378c-4875-9353-d6950cd8981f",
    "modified_at": "2022-03-30T22:14:40.772Z",
    "repository": "kara.moe",
    "tags": {
      "authors": [
        "db867b9b-f487-444d-9f24-142c4324a235"
      ],
      "collections": [
        "c7db86a0-ff64-4044-9be4-66dd1ef1d1c1"
      ],
      "creators": [
        "72dbd867-2321-4176-8a3e-d126127fae45"
      ],
      "families": [
        "dbedd6b3-d125-4cd8-aa32-c4175e4ca3a3"
      ],
      "groups": [
        "8e209ae4-4381-438f-89dc-1b21752027d2"
      ],
      "langs": [
        "4dcf9614-7914-42aa-99f4-dbce2e059133"
      ],
      "origins": [
        "2f96e82c-c61b-4413-817e-e6b247509b95"
      ],
      "platforms": [
        "0a880bfc-d0e5-448b-98d2-4ba7b3106641",
        "248d92ee-8c02-43bc-86e2-cc6029883564"
      ],
      "series": [
        "48e88407-6e7e-4758-9ed1-d29d6be9c363"
      ],
      "singers": [
        "3b865ceb-6e11-4c4f-be16-9fd446ce3e01"
      ],
      "songtypes": [
        "38c77c56-2b95-4040-b676-0994a8cb0597"
      ],
      "songwriters": [
        "26a94fd7-eb77-4038-af37-3349b807550c",
        "3b865ceb-6e11-4c4f-be16-9fd446ce3e01"
      ],
      "franchises": [
        "51c6394c-2561-4451-b218-843eebde170c"
      ]
    },
    "titles": {
      "qro": "Loch to Tabibito",
      "jpn": "ロッホと旅人"
    },
    "titles_default_language": "qro",
    "title": "Loch to Tabibito",
    "year": 2021
  }
}