{
  "header": {
    "version": 4,
    "description": "Karaoke Mugen Karaoke Data File"
  },
  "medias": [
    {
      "version": "Default",
      "filename": "JPN - Fukumenkei Noise - OP1 - High School ANIME SIDE Bootleg.mp4",
      "audiogain": 1.91,
      "loudnorm": "-18.74,-8.61,2.60,-28.87,-0.40",
      "filesize": 39363431,
      "duration": 89,
      "default": true,
      "lyrics": [
        {
          "filename": "JPN - Fukumenkei Noise - OP1 - High School ANIME SIDE Bootleg.ass",
          "default": true,
          "version": "Default",
          "subchecksum": "8d0e04b8b27af1ec5f35c9de0be68686"
        }
      ]
    }
  ],
  "data": {
    "created_at": "2017-10-11T17:01:51.000Z",
    "kid": "24c970d5-b60f-4478-8d6a-aa1d640c9d52",
    "modified_at": "2021-02-25T11:21:23.539Z",
    "repository": "kara.moe",
    "songorder": 1,
    "tags": {
      "authors": [
        "05c1e4ad-32ba-490e-8f3c-5cd491c96d85"
      ],
      "collections": [
        "c7db86a0-ff64-4044-9be4-66dd1ef1d1c1"
      ],
      "creators": [
        "a06f41a3-31b6-462a-a195-e48a11386da3"
      ],
      "families": [
        "0377db02-3af6-43b8-9b08-c759df3d25c3"
      ],
      "genres": [
        "8b6ace6f-a59e-4740-b3ff-e1618720383c"
      ],
      "groups": [
        "ae613721-1fbe-480d-ba6b-d6d0702b184d"
      ],
      "langs": [
        "4dcf9614-7914-42aa-99f4-dbce2e059133"
      ],
      "origins": [
        "938de218-5343-4865-94d3-fb33f2eaa152"
      ],
      "series": [
        "9e4c2300-0453-4ffd-9799-b443cec50aae"
      ],
      "singers": [
        "7f71f194-f4a1-4246-9d74-a754a3989c27"
      ],
      "songtypes": [
        "f02ad9b3-0bd9-4aad-85b3-9976739ba0e4"
      ],
      "songwriters": [
        "55cac378-12c2-4755-81d8-cf6c93f34bb9",
        "73891345-3936-40de-9be6-65be73cea737",
        "bd984759-eefc-46cf-9d04-bed84bec292d"
      ]
    },
    "title": "High School [ANIME SIDE] Bootleg",
    "titles": {
      "eng": "High School [ANIME SIDE] Bootleg",
      "jpn": "ハイスクール [ANIME SIDE] -Bootleg-"
    },
    "year": 2017,
    "titles_default_language": "eng"
  }
}