{
  "header": {
    "version": 4,
    "description": "Karaoke Mugen Karaoke Data File"
  },
  "medias": [
    {
      "version": "Default",
      "filename": "JPN - Kamen Rider - OP2 - Let's Go!! Rider Kick.mp4",
      "audiogain": 3.04,
      "loudnorm": "-23.28,-13.35,3.50,-33.33,-0.21",
      "filesize": 41666724,
      "duration": 80,
      "default": true,
      "lyrics": [
        {
          "filename": "JPN - Kamen Rider - OP2 - Let's Go!! Rider Kick.ass",
          "default": true,
          "version": "Default"
        }
      ]
    }
  ],
  "data": {
    "created_at": "2017-10-11T17:01:42.000Z",
    "kid": "ed89f4f6-627e-4cbc-abc8-95e8cb8642b2",
    "modified_at": "2021-10-08T18:32:10.906Z",
    "parents": [
      "4cccd721-df26-4c80-810a-34465588d04b"
    ],
    "repository": "kara.moe",
    "songorder": 2,
    "tags": {
      "authors": [
        "1df04771-a378-4f14-a5e1-1455187d681a"
      ],
      "collections": [
        "c7db86a0-ff64-4044-9be4-66dd1ef1d1c1"
      ],
      "creators": [
        "e32b14df-502b-45fa-9ca5-37554a63a4d7"
      ],
      "families": [
        "5391f9fe-638c-415f-8dc9-958e3a2c5787"
      ],
      "groups": [
        "57e5e0c0-e02e-4871-a6cb-d48ea604ebab"
      ],
      "langs": [
        "4dcf9614-7914-42aa-99f4-dbce2e059133"
      ],
      "origins": [
        "938de218-5343-4865-94d3-fb33f2eaa152",
        "d3fac9ab-630d-402d-a392-3d2450c3e62e"
      ],
      "series": [
        "93386847-9ab0-468e-bad0-e1d655e0e0ec"
      ],
      "singers": [
        "3ebf0f97-cb40-48f5-8377-78d232ed770b",
        "5c63f1ba-b838-41ac-91ad-fdeb0f725ad8"
      ],
      "songtypes": [
        "f02ad9b3-0bd9-4aad-85b3-9976739ba0e4"
      ],
      "songwriters": [
        "243e8e37-f06b-4260-bc77-07b341904562",
        "d7ba6db9-164d-451c-a74b-ceb9c5435fe3"
      ],
      "franchises": [
        "93386847-9ab0-468e-bad0-e1d655e0e0ec"
      ]
    },
    "title": "Let's Go!! Rider Kick",
    "titles": {
      "eng": "Let's Go!! Rider Kick",
      "jpn": "レッツゴー!!ライダーキック"
    },
    "year": 1971,
    "titles_default_language": "eng"
  }
}