{
  "header": {
    "version": 4,
    "description": "Karaoke Mugen Karaoke Data File"
  },
  "medias": [
    {
      "version": "Default",
      "filename": "JPN - Dancing Blade Katte ni Momotenshi II Tears of Eden Kanzenban - GAME PSX OP - Believe.mp4",
      "audiogain": -2.94,
      "loudnorm": "-15.86,-1.83,4.70,-26.13,-0.82",
      "filesize": 20735350,
      "duration": 92,
      "default": true,
      "lyrics": [
        {
          "filename": "JPN - Dancing Blade Katte ni Momotenshi II Tears of Eden Kanzenban - GAME PSX OP - Believe.ass",
          "default": true,
          "version": "Default"
        }
      ]
    }
  ],
  "data": {
    "created_at": "2017-10-11T17:02:29.000Z",
    "ignoreHooks": false,
    "kid": "5a4b47f7-30e1-48d7-9f76-ffe142a4fc41",
    "modified_at": "2022-08-23T17:35:46.158Z",
    "parents": [
      "0ef70caf-0a45-4187-8bf6-061b2d659da7"
    ],
    "repository": "kara.moe",
    "tags": {
      "authors": [
        "5bdaba57-27f8-4568-8806-76a807728766"
      ],
      "collections": [
        "c7db86a0-ff64-4044-9be4-66dd1ef1d1c1"
      ],
      "creators": [
        "e21c5926-204c-4f69-a8b7-98e840178695"
      ],
      "families": [
        "dbedd6b3-d125-4cd8-aa32-c4175e4ca3a3"
      ],
      "groups": [
        "24db50aa-a126-4d34-a48a-e45db79c4245"
      ],
      "langs": [
        "4dcf9614-7914-42aa-99f4-dbce2e059133"
      ],
      "platforms": [
        "f84b68ac-943a-495a-9c6e-d90ec959b19e"
      ],
      "series": [
        "9848f608-9765-48e3-8299-ff4f53634d60"
      ],
      "singers": [
        "3439fe54-2a98-4063-99c3-936fdb1e1c94"
      ],
      "songtypes": [
        "f02ad9b3-0bd9-4aad-85b3-9976739ba0e4"
      ],
      "songwriters": [
        "5f951749-7391-42ad-bf06-e5313875b50e",
        "c0abb9f6-dfee-45d9-b964-6035e58bcbcd"
      ],
      "franchises": [
        "79fc7e4e-f3e4-4c07-bb77-0fb8ad4692e9"
      ]
    },
    "titles": {
      "eng": "Believe"
    },
    "titles_default_language": "eng",
    "title": "Believe",
    "year": 1999
  }
}