{
  "header": {
    "version": 4,
    "description": "Karaoke Mugen Karaoke Data File"
  },
  "medias": [
    {
      "version": "Full.",
      "filename": "JPN - Minna no Rhythm Tengoku - WII GAME IN - Bokura no Seidai! ~ Full Vers.mp4",
      "audiogain": -9.31,
      "loudnorm": "-9.30,3.68,2.30,-19.42,-0.35",
      "filesize": 34522446,
      "duration": 242,
      "default": true,
      "lyrics": [
        {
          "filename": "JPN - Minna no Rhythm Tengoku - WII GAME IN - Bokura no Seidai! ~ Full Vers.ass",
          "default": true,
          "version": "Default",
          "subchecksum": "d1aa911a05d43e9aea275cd0782bbb7a"
        }
      ]
    }
  ],
  "data": {
    "created_at": "2017-10-11T17:01:35.000Z",
    "kid": "1be6506c-4eb7-4db9-94e5-89fcb3a0291a",
    "modified_at": "2021-05-23T22:38:25.266Z",
    "repository": "kara.moe",
    "tags": {
      "authors": [
        "8c22c899-b3ed-42da-a548-ce00f950798b"
      ],
      "collections": [
        "c7db86a0-ff64-4044-9be4-66dd1ef1d1c1"
      ],
      "creators": [
        "65202019-808e-49c3-8c7c-a12f16394bba"
      ],
      "families": [
        "dbedd6b3-d125-4cd8-aa32-c4175e4ca3a3"
      ],
      "groups": [
        "8c22c899-b3ed-42da-a548-ce00f950798b",
        "ae613721-1fbe-480d-ba6b-d6d0702b184d"
      ],
      "langs": [
        "4dcf9614-7914-42aa-99f4-dbce2e059133"
      ],
      "platforms": [
        "78d46ef5-c98a-44dd-ad00-5d8c44b6271b"
      ],
      "series": [
        "596cea36-ae38-445e-badf-cfcfcd1dd341"
      ],
      "singers": [
        "ce456e04-6967-45ec-aedc-a03cabc9c3f2"
      ],
      "songtypes": [
        "5e5250d9-351a-4a82-98eb-55db50ad8962"
      ],
      "songwriters": [
        "5938e181-5402-43ea-a5a0-a4ca2405705d",
        "86d416bc-caa1-45d6-9a68-f91d00f633c2"
      ],
      "versions": [
        "c2143a7f-6970-450e-8a79-0302db9220a9"
      ],
      "franchises": [
        "7542749a-37e8-4dd6-aa66-8eaf7f84d3f7"
      ]
    },
    "title": "Bokura no Seidai!",
    "titles": {
      "qro": "Bokura no Seidai!",
      "jpn": "僕らの世代！"
    },
    "year": 2011,
    "titles_default_language": "qro"
  }
}