{
  "header": {
    "version": 4,
    "description": "Karaoke Mugen Karaoke Data File"
  },
  "medias": [
    {
      "version": "Default",
      "filename": "JPN - Touhou - MV - Ougon Kouro.mp4",
      "audiogain": -9.96,
      "loudnorm": "-6.68,1.52,2.80,-16.70,-0.85",
      "filesize": 8259354,
      "duration": 212,
      "default": true,
      "lyrics": [
        {
          "filename": "JPN - Touhou - MV - Ougon Kouro.ass",
          "default": true,
          "version": "Default"
        }
      ]
    }
  ],
  "data": {
    "created_at": "2023-02-02T16:42:32.935Z",
    "ignoreHooks": false,
    "kid": "6377687c-d2b1-40e5-ad9f-1ff9d93d4a3e",
    "modified_at": "2023-02-02T16:42:33.312Z",
    "repository": "kara.moe",
    "tags": {
      "authors": [
        "61865310-cb97-496c-a722-364b0a9ba90d"
      ],
      "collections": [
        "c7db86a0-ff64-4044-9be4-66dd1ef1d1c1"
      ],
      "families": [
        "0377db02-3af6-43b8-9b08-c759df3d25c3"
      ],
      "langs": [
        "4dcf9614-7914-42aa-99f4-dbce2e059133"
      ],
      "series": [
        "1bdaa5a1-dfa6-4365-b746-7a0b194dafd6"
      ],
      "singers": [
        "742b078c-ea41-46b9-95f5-b91237e5fdfb"
      ],
      "songtypes": [
        "7be1b15c-cff8-4b37-a649-5c90f3d569a9"
      ],
      "songwriters": [
        "ab808016-b6c1-4b7b-b2fe-d7c5bd825d53"
      ],
      "franchises": [
        "1bdaa5a1-dfa6-4365-b746-7a0b194dafd6"
      ],
      "groups": [
        "8e209ae4-4381-438f-89dc-1b21752027d2",
        "8c22c899-b3ed-42da-a548-ce00f950798b"
      ]
    },
    "titles": {
      "jpn": "黄金航路",
      "qro": "Ôgon Kôro"
    },
    "titles_default_language": "qro",
    "titles_aliases": [
      "ougon",
      "Kouro"
    ],
    "year": 2022
  }
}