{
  "header": {
    "version": 4,
    "description": "Karaoke Mugen Karaoke Data File"
  },
  "medias": [
    {
      "version": "Default",
      "filename": "JPN - the pillows - AUDIO IN - Thank You My Twilight.mp3",
      "audiogain": -11.91,
      "loudnorm": "-6.75,2.84,7.60,-17.07,-0.65",
      "filesize": 4485023,
      "duration": 277,
      "default": true,
      "lyrics": [
        {
          "filename": "JPN - the pillows - AUDIO IN - Thank You My Twilight.ass",
          "default": true,
          "version": "Default"
        }
      ]
    }
  ],
  "data": {
    "created_at": "2019-10-10T21:15:38.000Z",
    "kid": "a9316bb6-1e0f-403e-a579-ca5d2a246163",
    "modified_at": "2021-07-22T19:15:45.595Z",
    "repository": "kara.moe",
    "tags": {
      "authors": [
        "4b834f78-16da-4e4d-926f-b93968affb69"
      ],
      "collections": [
        "c7db86a0-ff64-4044-9be4-66dd1ef1d1c1"
      ],
      "creators": [
        "d2a29c19-019f-4a3d-86ad-2dae9e41a4b1"
      ],
      "groups": [
        "2b4e9972-5e17-481b-99f5-d0787c0ada56",
        "3c14c864-533c-49e6-a3cc-6969f1233775"
      ],
      "langs": [
        "4dcf9614-7914-42aa-99f4-dbce2e059133"
      ],
      "singers": [
        "278eeffa-7d51-48a4-85a7-b10843f26cdf"
      ],
      "songtypes": [
        "42a262ae-acba-4ab5-a446-c5789c96c821",
        "5e5250d9-351a-4a82-98eb-55db50ad8962"
      ],
      "songwriters": [
        "278eeffa-7d51-48a4-85a7-b10843f26cdf"
      ]
    },
    "title": "Thank You My Twilight",
    "titles": {
      "eng": "Thank you,my twilight"
    },
    "year": 2002,
    "titles_default_language": "eng"
  }
}