{
  "header": {
    "version": 4,
    "description": "Karaoke Mugen Karaoke Data File"
  },
  "medias": [
    {
      "version": "Default",
      "filename": "JPN - Maou Gakuin no Futekigousha ~ Shijou Saikyou no Maou no Shiso, Tensei Shite Shison-tachi no Gakkou e Kayou ~ - OP - Seikai Fuseikai.mp4",
      "audiogain": 2.61,
      "loudnorm": "-19.90,-8.44,5.30,-29.92,-0.51",
      "filesize": 88237167,
      "duration": 89,
      "default": true,
      "lyrics": [
        {
          "filename": "JPN - Maou Gakuin no Futekigousha ~ Shijou Saikyou no Maou no Shiso, Tensei Shite Shison-tachi no Gakkou e Kayou ~ - OP - Seikai Fuseikai.ass",
          "default": true,
          "version": "Default",
          "subchecksum": "4d3f988fba0062c8fb01e1627f25e4c3"
        }
      ]
    }
  ],
  "data": {
    "created_at": "2020-08-24T13:03:55.601Z",
    "kid": "0624ea4e-68bd-479e-9a31-36fa48e89b13",
    "modified_at": "2021-02-25T12:21:25.677Z",
    "repository": "kara.moe",
    "tags": {
      "authors": [
        "6085f453-eeff-46d2-afe8-14978613c23a"
      ],
      "collections": [
        "c7db86a0-ff64-4044-9be4-66dd1ef1d1c1"
      ],
      "creators": [
        "bee26a9b-bc7b-4cdc-9317-6c9ee6707706"
      ],
      "families": [
        "0377db02-3af6-43b8-9b08-c759df3d25c3"
      ],
      "groups": [
        "8e209ae4-4381-438f-89dc-1b21752027d2"
      ],
      "langs": [
        "4dcf9614-7914-42aa-99f4-dbce2e059133"
      ],
      "origins": [
        "938de218-5343-4865-94d3-fb33f2eaa152"
      ],
      "series": [
        "2866b284-64e4-4c97-9abb-bdf918425b5a"
      ],
      "singers": [
        "2dad92ed-4299-4553-9df8-7397b2fd3da2"
      ],
      "songtypes": [
        "f02ad9b3-0bd9-4aad-85b3-9976739ba0e4"
      ],
      "songwriters": [
        "16a634f4-cd12-4375-a1ec-8d4d80eb9f8c",
        "2dad92ed-4299-4553-9df8-7397b2fd3da2",
        "6261b6fd-7e0a-4aa9-b3d8-0c3813747369",
        "d40dab2d-1229-45d1-b77f-961ce00efffb"
      ]
    },
    "title": "Seikai Fuseikai",
    "titles": {
      "qro": "Seikai Fuseikai",
      "jpn": "正解不正解"
    },
    "year": 2020,
    "titles_default_language": "qro"
  }
}