{
  "header": {
    "version": 4,
    "description": "Karaoke Mugen Karaoke Data File"
  },
  "medias": [
    {
      "version": "Default",
      "filename": "JPN - Magic Kaito 1412 - OP2 - Ai no Scenario.mp4",
      "audiogain": -9.45,
      "loudnorm": "-7.82,-0.74,3.50,-17.89,-0.60",
      "filesize": 95412640,
      "duration": 90,
      "default": true,
      "lyrics": [
        {
          "filename": "JPN - Magic Kaito 1412 - OP2 - Ai no Scenario.ass",
          "default": true,
          "version": "Default"
        }
      ]
    }
  ],
  "data": {
    "created_at": "2017-10-11T17:01:32.000Z",
    "kid": "6ad97fd3-319a-44b1-9fd7-adeed3a088aa",
    "modified_at": "2021-10-10T01:11:05.084Z",
    "repository": "kara.moe",
    "songorder": 2,
    "tags": {
      "authors": [
        "5bdaba57-27f8-4568-8806-76a807728766"
      ],
      "collections": [
        "c7db86a0-ff64-4044-9be4-66dd1ef1d1c1"
      ],
      "creators": [
        "b96e3686-bbe0-4b9e-815a-a278d5ff31be"
      ],
      "families": [
        "0377db02-3af6-43b8-9b08-c759df3d25c3"
      ],
      "genres": [
        "a0aeef4a-6428-45ff-a6e1-468b595930c2"
      ],
      "groups": [
        "ae613721-1fbe-480d-ba6b-d6d0702b184d"
      ],
      "langs": [
        "4dcf9614-7914-42aa-99f4-dbce2e059133"
      ],
      "misc": [
        "fe819ff1-9db8-4a0f-85dc-0e322c9126c4"
      ],
      "origins": [
        "938de218-5343-4865-94d3-fb33f2eaa152"
      ],
      "series": [
        "00ae64ba-24f7-4fb3-aa4a-dd0831c77505"
      ],
      "singers": [
        "60705f2e-e3d4-46a2-a9ce-c641ccddf822"
      ],
      "songtypes": [
        "f02ad9b3-0bd9-4aad-85b3-9976739ba0e4"
      ],
      "songwriters": [
        "af0dc126-897e-4390-a7a1-cbfed65c2925"
      ],
      "franchises": [
        "96a91190-9bee-413e-843c-0d2508b1e329"
      ]
    },
    "titles": {
      "qro": "Ai no Scenario",
      "jpn": "アイのシナリオ"
    },
    "title": "Ai no Scenario",
    "year": 2014,
    "titles_default_language": "qro"
  }
}