{
  "header": {
    "version": 4,
    "description": "Karaoke Mugen Karaoke Data File"
  },
  "medias": [
    {
      "version": "Default",
      "filename": "JPN - AKB0048 - ED3 - Niji no Ressha.mp4",
      "audiogain": 1.68,
      "loudnorm": "-18.88,-5.60,3.10,-29.05,-0.49",
      "filesize": 65050446,
      "duration": 92,
      "default": true,
      "lyrics": [
        {
          "filename": "JPN - AKB0048 - ED3 - Niji no Ressha.ass",
          "default": true,
          "version": "Default",
          "subchecksum": "767ec2716beba0f4a312cfe42f53cb67"
        }
      ]
    }
  ],
  "data": {
    "created_at": "2017-10-11T17:02:38.000Z",
    "kid": "00df5c6b-77d9-4b38-a8b3-aa9e5e7ac30d",
    "modified_at": "2021-02-25T10:40:41.758Z",
    "repository": "kara.moe",
    "songorder": 3,
    "tags": {
      "authors": [
        "5bdaba57-27f8-4568-8806-76a807728766"
      ],
      "collections": [
        "c7db86a0-ff64-4044-9be4-66dd1ef1d1c1"
      ],
      "creators": [
        "0041fabf-4b82-4ecd-961b-e4c49b8c88be"
      ],
      "families": [
        "0377db02-3af6-43b8-9b08-c759df3d25c3"
      ],
      "genres": [
        "caa86df2-0d59-474b-885c-f240a9e891b0"
      ],
      "groups": [
        "ae613721-1fbe-480d-ba6b-d6d0702b184d"
      ],
      "langs": [
        "4dcf9614-7914-42aa-99f4-dbce2e059133"
      ],
      "origins": [
        "938de218-5343-4865-94d3-fb33f2eaa152"
      ],
      "series": [
        "bd559e4c-b15d-43e3-b340-1de2c302b0d7"
      ],
      "singers": [
        "5bbc56f1-c25e-4ba8-b95c-e8af0fb69ffe"
      ],
      "songtypes": [
        "38c77c56-2b95-4040-b676-0994a8cb0597"
      ],
      "songwriters": [
        "19045a57-4bc4-4c83-ad1c-3fa9a3b701b1",
        "1ea27a0d-8ed0-4651-89b6-bd043f724a2a"
      ],
      "franchises": [
        "bd559e4c-b15d-43e3-b340-1de2c302b0d7"
      ]
    },
    "title": "Niji no Ressha",
    "titles": {
      "qro": "Niji no Ressha",
      "jpn": "虹の列車"
    },
    "year": 2012,
    "titles_default_language": "qro"
  }
}