{
  "header": {
    "version": 4,
    "description": "Karaoke Mugen Karaoke Data File"
  },
  "medias": [
    {
      "version": "Default",
      "filename": "JPN - Kamen Rider V3 - OP - Tatakae! Kamen Rider V3.mp4",
      "audiogain": 6.65,
      "loudnorm": "-26.10,-15.05,4.60,-36.11,0.07",
      "filesize": 40793201,
      "duration": 79,
      "default": true,
      "lyrics": [
        {
          "filename": "JPN - Kamen Rider V3 - OP - Tatakae! Kamen Rider V3.ass",
          "default": true,
          "version": "Default",
          "subchecksum": "73ee02f0a653e7174691be315b09e592"
        }
      ]
    }
  ],
  "data": {
    "created_at": "2017-10-11T15:03:00.000Z",
    "kid": "01e51dc2-fc35-4da2-9cfa-60e87ceed6f1",
    "modified_at": "2021-02-25T11:53:22.553Z",
    "repository": "kara.moe",
    "tags": {
      "authors": [
        "5bdaba57-27f8-4568-8806-76a807728766"
      ],
      "collections": [
        "c7db86a0-ff64-4044-9be4-66dd1ef1d1c1"
      ],
      "creators": [
        "e32b14df-502b-45fa-9ca5-37554a63a4d7"
      ],
      "families": [
        "5391f9fe-638c-415f-8dc9-958e3a2c5787"
      ],
      "groups": [
        "57e5e0c0-e02e-4871-a6cb-d48ea604ebab"
      ],
      "langs": [
        "4dcf9614-7914-42aa-99f4-dbce2e059133"
      ],
      "origins": [
        "938de218-5343-4865-94d3-fb33f2eaa152",
        "d3fac9ab-630d-402d-a392-3d2450c3e62e"
      ],
      "series": [
        "832798af-cd7d-4527-8000-49b20f7474f5"
      ],
      "singers": [
        "2cca54c0-41a0-49c6-a458-be24323961c2"
      ],
      "songtypes": [
        "f02ad9b3-0bd9-4aad-85b3-9976739ba0e4"
      ],
      "songwriters": [
        "243e8e37-f06b-4260-bc77-07b341904562",
        "d7ba6db9-164d-451c-a74b-ceb9c5435fe3"
      ],
      "franchises": [
        "93386847-9ab0-468e-bad0-e1d655e0e0ec"
      ]
    },
    "title": "Tatakae! Kamen Rider V3",
    "titles": {
      "qro": "Tatakae! Kamen Rider V3",
      "jpn": "戦え！仮面ライダーV3"
    },
    "year": 1973,
    "titles_default_language": "qro"
  }
}