{
  "header": {
    "version": 4,
    "description": "Karaoke Mugen Karaoke Data File"
  },
  "medias": [
    {
      "version": "Default",
      "filename": "JPN - Honkai Impact 3rd - GAME MV - Urushi Yoru Yuki.mp4",
      "audiogain": -0.95,
      "loudnorm": "-17.07,-5.39,10.10,-27.31,-1.45",
      "filesize": 25006596,
      "duration": 130,
      "default": true,
      "lyrics": [
        {
          "filename": "JPN - Honkai Impact 3rd - GAME MV - Urushi Yoru Yuki.ass",
          "default": true,
          "version": "Default",
          "subchecksum": "26ced0e961724ad10f48c34bbd3a9b31"
        }
      ]
    }
  ],
  "data": {
    "created_at": "2021-03-21T16:47:17.965Z",
    "kid": "1ec558f6-8916-47dd-8578-219e7ef84f9c",
    "modified_at": "2021-03-21T16:48:45.845Z",
    "repository": "kara.moe",
    "tags": {
      "authors": [
        "278c6742-0b75-43dd-b317-2ea112952b4a"
      ],
      "collections": [
        "c7db86a0-ff64-4044-9be4-66dd1ef1d1c1"
      ],
      "creators": [
        "b77315f9-142f-402f-b1b7-c415de808775"
      ],
      "families": [
        "dbedd6b3-d125-4cd8-aa32-c4175e4ca3a3"
      ],
      "groups": [
        "8c22c899-b3ed-42da-a548-ce00f950798b",
        "ae613721-1fbe-480d-ba6b-d6d0702b184d"
      ],
      "langs": [
        "4dcf9614-7914-42aa-99f4-dbce2e059133"
      ],
      "misc": [
        "1d6ceadf-a885-47e5-b23b-c07bf668a424"
      ],
      "platforms": [
        "213a1a15-e73a-4a08-b3f6-b6e2745a82e5"
      ],
      "series": [
        "26e4d782-c5be-4842-a544-1dd6ae9519e2"
      ],
      "songtypes": [
        "7be1b15c-cff8-4b37-a649-5c90f3d569a9"
      ],
      "songwriters": [
        "0904296b-d3df-4e59-b369-3d4a8ef19565"
      ]
    },
    "title": "Urushi Yoru Yuki",
    "titles": {
      "qro": "Urushi Yoru Yuki",
      "jpn": "漆夜雪"
    },
    "year": 2019,
    "titles_default_language": "qro"
  }
}