{
  "header": {
    "version": 4,
    "description": "Karaoke Mugen Karaoke Data File"
  },
  "medias": [
    {
      "version": "Default",
      "filename": "JPN - BanG Dream! - OP - Tokimeki Experience!.mp4",
      "audiogain": -9.52,
      "loudnorm": "-7.54,1.81,2.50,-17.56,0.11",
      "filesize": 84929241,
      "duration": 92,
      "default": true,
      "lyrics": [
        {
          "filename": "JPN - BanG Dream! - OP - Tokimeki Experience!.ass",
          "default": true,
          "version": "Default"
        }
      ]
    }
  ],
  "data": {
    "created_at": "2018-07-23T20:43:58.000Z",
    "kid": "e2285ac0-dd6d-4f74-a9ca-d6674810cb40",
    "modified_at": "2021-12-03T20:49:18.082Z",
    "repository": "kara.moe",
    "tags": {
      "authors": [
        "b5116310-e69b-4ed4-9e47-c5c53ee69023"
      ],
      "collections": [
        "c7db86a0-ff64-4044-9be4-66dd1ef1d1c1"
      ],
      "creators": [
        "0e26434a-c89a-4366-85b5-9e5c4b7d4195",
        "e1cefe44-c011-4eb9-8a45-341a57c3b1e9"
      ],
      "families": [
        "0377db02-3af6-43b8-9b08-c759df3d25c3"
      ],
      "groups": [
        "ae613721-1fbe-480d-ba6b-d6d0702b184d"
      ],
      "langs": [
        "4dcf9614-7914-42aa-99f4-dbce2e059133"
      ],
      "misc": [
        "fe819ff1-9db8-4a0f-85dc-0e322c9126c4"
      ],
      "origins": [
        "938de218-5343-4865-94d3-fb33f2eaa152"
      ],
      "series": [
        "a65e956d-39ab-4995-9ede-889c30a5cbf0"
      ],
      "singers": [
        "1477f7cf-7a03-4ecc-a3eb-81fe697202ed",
        "360a527f-69b3-47e2-b028-d2b176bfaaa2",
        "505910d1-e37a-4c15-8d91-3965a217ea6f",
        "721a998c-a803-416e-a40c-98294656ed8e",
        "8ab6e3f9-a691-4fd0-9c55-5426f2218c5d",
        "adb2af59-5df0-4e18-a0d1-b377416ef134"
      ],
      "songtypes": [
        "f02ad9b3-0bd9-4aad-85b3-9976739ba0e4"
      ],
      "songwriters": [
        "74b347e5-fb3c-43c3-afe0-a2863f36d366",
        "af3ffe51-8059-461c-bbb8-78ea388731f3"
      ],
      "franchises": [
        "a65e956d-39ab-4995-9ede-889c30a5cbf0"
      ]
    },
    "titles": {
      "qro": "Tokimeki Experience!",
      "jpn": "ときめきエクスペリエンス!"
    },
    "title": "Tokimeki Experience!",
    "year": 2017,
    "titles_default_language": "qro"
  }
}