{
  "header": {
    "version": 4,
    "description": "Karaoke Mugen Karaoke Data File"
  },
  "medias": [
    {
      "version": "Default",
      "filename": "JPN - Love Live! School Idol Project 2nd Season - LIVE - Zurui yo Magnetic today ~ Full Vers.mp4",
      "audiogain": -7.64,
      "loudnorm": "-8.42,0.11,1.60,-18.42,-0.39",
      "filesize": 130903461,
      "duration": 257,
      "default": true,
      "lyrics": [
        {
          "filename": "JPN - Love Live! School Idol Project 2nd Season - LIVE - Zurui yo Magnetic today ~ Full Vers.ass",
          "default": true,
          "version": "Default"
        }
      ]
    }
  ],
  "data": {
    "created_at": "2018-11-07T10:24:26.000Z",
    "ignoreHooks": false,
    "kid": "027cc0ea-f4a0-4885-8360-05e420647639",
    "modified_at": "2022-12-22T16:08:49.522Z",
    "repository": "kara.moe",
    "tags": {
      "authors": [
        "f1710fab-7461-468f-a8dd-11eebe4e1fc0"
      ],
      "collections": [
        "dbcf2c22-524d-4708-99bb-601703633927"
      ],
      "creators": [
        "b2805292-730e-473a-96f0-fd8e7ffd1fd7"
      ],
      "families": [
        "5391f9fe-638c-415f-8dc9-958e3a2c5787"
      ],
      "genres": [
        "caa86df2-0d59-474b-885c-f240a9e891b0"
      ],
      "groups": [
        "8c22c899-b3ed-42da-a548-ce00f950798b",
        "ae613721-1fbe-480d-ba6b-d6d0702b184d"
      ],
      "langs": [
        "4dcf9614-7914-42aa-99f4-dbce2e059133"
      ],
      "misc": [
        "1d6ceadf-a885-47e5-b23b-c07bf668a424"
      ],
      "series": [
        "d2727318-2c3f-4956-bb4f-ac8d4af7b18c"
      ],
      "singers": [
        "1d00d52c-e265-4be6-8902-55d7f425f86c",
        "a1b1a298-ff71-4cda-a407-f1cbdb4f415d"
      ],
      "songtypes": [
        "a0167949-580c-4de3-bf13-497e462e02f3"
      ],
      "songwriters": [
        "1fcf9255-5943-4935-9024-3fa3ad57062a",
        "f41e7218-6c19-4e19-9b5f-4612dcd58243"
      ],
      "versions": [
        "c2143a7f-6970-450e-8a79-0302db9220a9"
      ],
      "franchises": [
        "fd5d066e-e85a-4eea-8688-2979a887450a"
      ]
    },
    "titles": {
      "jpn": "ずるいよMagnetic today",
      "qro": "Zurui yo Magnetic today"
    },
    "titles_default_language": "qro",
    "year": 2015
  }
}