{
  "header": {
    "version": 4,
    "description": "Karaoke Mugen Karaoke Data File"
  },
  "medias": [
    {
      "version": "Default",
      "filename": "JPN - Kanojo mo Kanojo - ED - Pinky Hook.mp4",
      "audiogain": 0.78,
      "loudnorm": "-18.04,-7.52,3.70,-28.19,-0.82",
      "filesize": 27297501,
      "duration": 90,
      "default": true,
      "lyrics": [
        {
          "filename": "JPN - Kanojo mo Kanojo - ED - Pinky Hook.ass",
          "default": true,
          "version": "Default"
        }
      ]
    }
  ],
  "data": {
    "created_at": "2021-07-23T22:38:09.541Z",
    "kid": "4f54f80d-73e5-4b54-8d70-dd8fff8cdd09",
    "modified_at": "2021-08-03T17:42:59.419Z",
    "repository": "kara.moe",
    "tags": {
      "authors": [
        "ba4c7606-1e96-4c45-8e21-d5103477336b"
      ],
      "collections": [
        "c7db86a0-ff64-4044-9be4-66dd1ef1d1c1"
      ],
      "creators": [
        "2a4c0113-3a9e-465d-987c-711a0ba0c187"
      ],
      "families": [
        "0377db02-3af6-43b8-9b08-c759df3d25c3"
      ],
      "groups": [
        "2b4e9972-5e17-481b-99f5-d0787c0ada56",
        "8e209ae4-4381-438f-89dc-1b21752027d2"
      ],
      "langs": [
        "4dcf9614-7914-42aa-99f4-dbce2e059133"
      ],
      "origins": [
        "938de218-5343-4865-94d3-fb33f2eaa152"
      ],
      "series": [
        "b6fbc0da-06a1-4f60-ade9-d1cc364762dc"
      ],
      "singers": [
        "c3e0136f-ad29-4315-9014-cc6b115472f1"
      ],
      "songtypes": [
        "38c77c56-2b95-4040-b676-0994a8cb0597"
      ],
      "songwriters": [
        "b4279339-b1d8-4da7-8bf9-1f6d5b69be11"
      ]
    },
    "title": "Pinky Hook",
    "titles": {
      "eng": "Pinky Hook",
      "jpn": "ピンキーフック"
    },
    "year": 2021,
    "titles_default_language": "eng"
  }
}