{
  "header": {
    "version": 4,
    "description": "Karaoke Mugen Karaoke Data File"
  },
  "medias": [
    {
      "version": "Default",
      "filename": "JPN - Bishoujo Senshi Sailor Moon (drama) - OP - Kirari Sailor Dream.mp4",
      "audiogain": -4.39,
      "loudnorm": "-13.56,-1.19,2.70,-23.67,-0.31",
      "filesize": 22791101,
      "duration": 85,
      "default": true,
      "lyrics": [
        {
          "filename": "JPN - Bishoujo Senshi Sailor Moon (drama) - OP - Kirari Sailor Dream.ass",
          "default": true,
          "version": "Default",
          "subchecksum": "3e09a652212ec7ce4806b154c9f5c081"
        }
      ]
    }
  ],
  "data": {
    "created_at": "2021-03-08T18:40:34.557Z",
    "kid": "0c67ae7b-f2d9-4438-9569-73554552f1be",
    "modified_at": "2021-03-08T18:53:35.634Z",
    "repository": "kara.moe",
    "tags": {
      "authors": [
        "eccfb637-34ae-410a-b418-2697d8be3226"
      ],
      "collections": [
        "c7db86a0-ff64-4044-9be4-66dd1ef1d1c1"
      ],
      "creators": [
        "e32b14df-502b-45fa-9ca5-37554a63a4d7"
      ],
      "families": [
        "5391f9fe-638c-415f-8dc9-958e3a2c5787"
      ],
      "genres": [
        "b84e28f9-db1e-447f-b339-7954c3592523"
      ],
      "groups": [
        "3c14c864-533c-49e6-a3cc-6969f1233775"
      ],
      "langs": [
        "4dcf9614-7914-42aa-99f4-dbce2e059133"
      ],
      "origins": [
        "28650021-2b2a-4a55-aff4-85dd4896c687",
        "d3fac9ab-630d-402d-a392-3d2450c3e62e"
      ],
      "series": [
        "1a22dafe-2296-4d5c-807c-ff333bae87ff"
      ],
      "singers": [
        "4aade1f0-8020-4d01-9d34-37668bdc201b"
      ],
      "songtypes": [
        "f02ad9b3-0bd9-4aad-85b3-9976739ba0e4"
      ],
      "songwriters": [
        "62e1c858-ad05-4563-b8a3-b6c6f697562c",
        "fe70015b-1b24-4914-bab3-d6708acf705d"
      ],
      "franchises": [
        "c854f2ad-cc94-45b5-b7ba-993eeb9b2d31"
      ]
    },
    "title": "Kirari Sailor Dream",
    "titles": {
      "qro": "Kirari Sailor Dream",
      "jpn": "キラリ☆セーラードリーム！"
    },
    "year": 2003,
    "titles_default_language": "qro"
  }
}