{
  "header": {
    "version": 4,
    "description": "Karaoke Mugen Karaoke Data File"
  },
  "medias": [
    {
      "version": "Default",
      "filename": "JPN - Aimer - AUDIO - Ito.mp3",
      "audiogain": -5.69,
      "loudnorm": "-12.14,-1.17,16.10,-23.04,-2.39",
      "filesize": 9223847,
      "duration": 225,
      "default": true,
      "lyrics": [
        {
          "filename": "JPN - Aimer - AUDIO - Ito.ass",
          "default": true,
          "version": "Default",
          "subchecksum": "b4e426498ef3878a54cbe9745e7af5a2"
        }
      ]
    }
  ],
  "data": {
    "created_at": "2019-04-25T16:35:23.000Z",
    "kid": "399245a4-3b15-40dd-9fd8-3815c82b0212",
    "modified_at": "2021-02-25T10:38:58.220Z",
    "repository": "kara.moe",
    "tags": {
      "authors": [
        "87096920-112f-485f-a310-04156cb4624d"
      ],
      "collections": [
        "c7db86a0-ff64-4044-9be4-66dd1ef1d1c1"
      ],
      "groups": [
        "60defa7b-774e-4680-8321-51b742c2e009",
        "ae613721-1fbe-480d-ba6b-d6d0702b184d"
      ],
      "langs": [
        "4dcf9614-7914-42aa-99f4-dbce2e059133"
      ],
      "singers": [
        "6cfc20ab-c855-4f24-8bed-0981e465630b"
      ],
      "songtypes": [
        "42a262ae-acba-4ab5-a446-c5789c96c821"
      ],
      "songwriters": [
        "83313fc0-ddca-4d2c-9b47-7ce64b75f18a"
      ]
    },
    "title": "Ito",
    "titles": {
      "qro": "Ito",
      "jpn": "糸"
    },
    "year": 2017,
    "titles_default_language": "qro"
  }
}