{
  "header": {
    "version": 4,
    "description": "Karaoke Mugen Karaoke Data File"
  },
  "medias": [
    {
      "version": "Default",
      "filename": "JPN - Shirobako Specials The Third Girls Aerial Squad - OVA ED2 - Angel Fly.mp4",
      "audiogain": 1.37,
      "loudnorm": "-19.16,-7.75,4.60,-29.37,-0.42",
      "filesize": 14579457,
      "duration": 90,
      "default": true,
      "lyrics": [
        {
          "filename": "JPN - Shirobako Specials The Third Girls Aerial Squad - OVA ED2 - Angel Fly.ass",
          "default": true,
          "version": "Default",
          "subchecksum": "b1fc770e13d0b24af44358ac9e719e80"
        }
      ]
    }
  ],
  "data": {
    "created_at": "2017-11-12T18:58:26.000Z",
    "kid": "26bffe33-a9db-47c3-96a6-a13349984437",
    "modified_at": "2021-02-25T13:05:43.843Z",
    "repository": "kara.moe",
    "songorder": 2,
    "tags": {
      "authors": [
        "6b5c5d38-22b9-4aa1-867d-c9ec27326244"
      ],
      "collections": [
        "c7db86a0-ff64-4044-9be4-66dd1ef1d1c1"
      ],
      "creators": [
        "2d6661ee-86b9-412a-9e4c-7839f2364561",
        "54259fe3-ce0c-4eca-855e-383f2c5be3a9"
      ],
      "families": [
        "0377db02-3af6-43b8-9b08-c759df3d25c3"
      ],
      "groups": [
        "8c22c899-b3ed-42da-a548-ce00f950798b",
        "ae613721-1fbe-480d-ba6b-d6d0702b184d"
      ],
      "langs": [
        "4dcf9614-7914-42aa-99f4-dbce2e059133"
      ],
      "origins": [
        "2a6ef087-a000-4f8e-aeb5-9a7968756a36"
      ],
      "series": [
        "afb059d0-aa83-4fc7-9c7d-4b66a8bc91fc"
      ],
      "singers": [
        "5f15d417-cdd0-4dc2-ace1-446d7971cf07"
      ],
      "songtypes": [
        "38c77c56-2b95-4040-b676-0994a8cb0597"
      ],
      "songwriters": [
        "7145091d-e84a-43c2-a305-152647ac1fb0",
        "9de49496-d5bf-49d2-9648-53d970754dba",
        "d5906158-9609-4e75-9f72-f66be9d592e0"
      ],
      "franchises": [
        "342abf1f-4f61-4747-8bf5-96176a37cab1"
      ]
    },
    "title": "Angel Fly",
    "titles": {
      "eng": "Angel Fly"
    },
    "year": 2015,
    "titles_default_language": "eng"
  }
}