{
  "header": {
    "version": 4,
    "description": "Karaoke Mugen Karaoke Data File"
  },
  "medias": [
    {
      "version": "Default",
      "filename": "JPN - Idol Jihen - ED - Respect.mp4",
      "audiogain": -1.42,
      "loudnorm": "-16.04,-5.21,6.60,-26.11,-0.69",
      "filesize": 22140768,
      "duration": 89,
      "default": true,
      "lyrics": [
        {
          "filename": "JPN - Idol Jihen - ED - Respect.ass",
          "default": true,
          "version": "Default",
          "subchecksum": "7b383c3c5d3aebf5152df8ca3feaa8b1"
        }
      ]
    }
  ],
  "data": {
    "created_at": "2018-07-25T21:03:17.000Z",
    "kid": "23ef691c-5354-4be8-bad1-456f91e928b5",
    "modified_at": "2021-02-25T11:45:39.485Z",
    "repository": "kara.moe",
    "tags": {
      "authors": [
        "b5116310-e69b-4ed4-9e47-c5c53ee69023"
      ],
      "collections": [
        "c7db86a0-ff64-4044-9be4-66dd1ef1d1c1"
      ],
      "creators": [
        "0a86e9ea-5e17-4371-8f2a-60c818324d58",
        "d75c4cd2-ae9b-41e6-9e4a-c0a5d8ddc7b5"
      ],
      "families": [
        "0377db02-3af6-43b8-9b08-c759df3d25c3"
      ],
      "groups": [
        "ae613721-1fbe-480d-ba6b-d6d0702b184d"
      ],
      "langs": [
        "4dcf9614-7914-42aa-99f4-dbce2e059133"
      ],
      "origins": [
        "938de218-5343-4865-94d3-fb33f2eaa152"
      ],
      "series": [
        "db847cd2-6bf7-4e2e-886d-3b86e1bbbfbd"
      ],
      "singers": [
        "11781b1f-f4b3-4a03-bf97-fe757125e4dd",
        "392d5129-c000-4549-979a-ce8c859de5f6"
      ],
      "songtypes": [
        "38c77c56-2b95-4040-b676-0994a8cb0597"
      ],
      "songwriters": [
        "5938e181-5402-43ea-a5a0-a4ca2405705d"
      ]
    },
    "title": "Respect",
    "titles": {
      "eng": "Respect"
    },
    "year": 2017,
    "titles_default_language": "eng"
  }
}