{
  "header": {
    "version": 4,
    "description": "Karaoke Mugen Karaoke Data File"
  },
  "medias": [
    {
      "version": "Default",
      "filename": "JPN - Seishun Buta Yarou wa Bunny Girl Senpai no Yume wo Minai - OP - Kimi no Sei.mp4",
      "audiogain": 0.55,
      "loudnorm": "-17.89,-11.92,2.60,-27.93,-0.41",
      "filesize": 33529251,
      "duration": 91,
      "default": true,
      "lyrics": [
        {
          "filename": "JPN - Seishun Buta Yarou wa Bunny Girl Senpai no Yume wo Minai - OP - Kimi no Sei.ass",
          "default": true,
          "version": "Default",
          "subchecksum": "78a831a76a4835d9da31f3780f48929a"
        }
      ]
    }
  ],
  "data": {
    "created_at": "2018-11-01T18:35:49.000Z",
    "kid": "1cfda881-b280-412a-8085-23fb6e71c64f",
    "modified_at": "2021-02-25T12:59:12.417Z",
    "repository": "kara.moe",
    "tags": {
      "authors": [
        "928f8b91-59cb-4969-ba45-d52526c3e8fd"
      ],
      "collections": [
        "c7db86a0-ff64-4044-9be4-66dd1ef1d1c1"
      ],
      "creators": [
        "43cebb4a-845f-449b-bbd0-d97d96d97cb4"
      ],
      "families": [
        "0377db02-3af6-43b8-9b08-c759df3d25c3"
      ],
      "groups": [
        "9a8e0fbc-dcae-4989-be82-7cad3436f1f5",
        "ae613721-1fbe-480d-ba6b-d6d0702b184d"
      ],
      "langs": [
        "4dcf9614-7914-42aa-99f4-dbce2e059133"
      ],
      "misc": [
        "fe819ff1-9db8-4a0f-85dc-0e322c9126c4"
      ],
      "origins": [
        "938de218-5343-4865-94d3-fb33f2eaa152"
      ],
      "series": [
        "6328ab0d-f9ab-4cac-b3a2-758ad39d2c1e"
      ],
      "singers": [
        "7e15a7cd-3d62-4893-9c45-036e11f62421"
      ],
      "songtypes": [
        "f02ad9b3-0bd9-4aad-85b3-9976739ba0e4"
      ],
      "songwriters": [
        "44372de7-529a-437b-a0d0-7be003636f48"
      ]
    },
    "title": "Kimi no Sei",
    "titles": {
      "qro": "Kimi no Sei",
      "jpn": "君のせい"
    },
    "year": 2018,
    "titles_default_language": "qro"
  }
}