{
  "header": {
    "version": 4,
    "description": "Karaoke Mugen Karaoke Data File"
  },
  "medias": [
    {
      "version": "Default",
      "filename": "JPN - ASIAN KUNG-FU GENERATION - LIVE - Yoru no Mukou ~ Full Vers.mp4",
      "audiogain": -8.71,
      "loudnorm": "-7.58,1.06,2.20,-17.58,-0.10",
      "filesize": 32534703,
      "duration": 191,
      "default": true,
      "lyrics": [
        {
          "filename": "JPN - ASIAN KUNG-FU GENERATION - LIVE - Yoru no Mukou ~ Full Vers.ass",
          "default": true,
          "version": "Default"
        }
      ]
    }
  ],
  "data": {
    "created_at": "2020-05-13T23:46:44.609Z",
    "ignoreHooks": false,
    "kid": "5ee46189-ec2f-49b4-8d4c-b13a7d2a1bb1",
    "modified_at": "2022-12-22T16:08:53.297Z",
    "repository": "kara.moe",
    "tags": {
      "authors": [
        "1c9f3b53-973d-419e-9e29-9067c9896139"
      ],
      "collections": [
        "dbcf2c22-524d-4708-99bb-601703633927"
      ],
      "creators": [
        "6df34030-d5ec-4480-a1c2-20103a7c0b63"
      ],
      "families": [
        "5391f9fe-638c-415f-8dc9-958e3a2c5787"
      ],
      "groups": [
        "3c14c864-533c-49e6-a3cc-6969f1233775",
        "60defa7b-774e-4680-8321-51b742c2e009"
      ],
      "langs": [
        "4dcf9614-7914-42aa-99f4-dbce2e059133"
      ],
      "singers": [
        "6d7243f4-797e-40a2-980d-1fc467d456d8"
      ],
      "songtypes": [
        "a0167949-580c-4de3-bf13-497e462e02f3"
      ],
      "songwriters": [
        "8bede077-b96f-415c-8057-552e236fe01a"
      ],
      "versions": [
        "c2143a7f-6970-450e-8a79-0302db9220a9"
      ]
    },
    "titles": {
      "jpn": "夜の向こう",
      "qro": "Yoru no Mukô"
    },
    "titles_default_language": "qro",
    "titles_aliases": [
      "Mukou"
    ],
    "year": 2005
  }
}