{
  "header": {
    "version": 4,
    "description": "Karaoke Mugen Karaoke Data File"
  },
  "medias": [
    {
      "version": "Default",
      "filename": "JPN - Teppen!!!!!!!!!!!!!!! - OP - Teppen Tengoku ~TOP OF THE LAUGH!!!~.mp4",
      "audiogain": 5.01,
      "loudnorm": "-22.11,-12.08,2.60,-32.14,-0.59",
      "filesize": 63659575,
      "duration": 89,
      "default": true,
      "lyrics": [
        {
          "filename": "JPN - Teppen!!!!!!!!!!!!!!! - OP - Teppen Tengoku ~TOP OF THE LAUGH!!!~.ass",
          "default": true,
          "version": "Default"
        }
      ]
    }
  ],
  "data": {
    "created_at": "2022-07-13T00:14:31.027Z",
    "ignoreHooks": false,
    "kid": "708077c6-f93d-451b-8f1d-0d072faa6b81",
    "modified_at": "2022-07-13T00:14:31.464Z",
    "repository": "kara.moe",
    "tags": {
      "authors": [
        "1df04771-a378-4f14-a5e1-1455187d681a"
      ],
      "collections": [
        "c7db86a0-ff64-4044-9be4-66dd1ef1d1c1"
      ],
      "creators": [
        "f4e4afb2-befa-4d3c-850f-96bb44f25cf9"
      ],
      "families": [
        "0377db02-3af6-43b8-9b08-c759df3d25c3"
      ],
      "langs": [
        "4dcf9614-7914-42aa-99f4-dbce2e059133"
      ],
      "origins": [
        "938de218-5343-4865-94d3-fb33f2eaa152"
      ],
      "series": [
        "e82da18b-1da7-4cc4-9bee-c0b9f249fe11"
      ],
      "singers": [
        "a3c3f398-ee78-4cc4-8f60-19bc21a367c0"
      ],
      "songtypes": [
        "f02ad9b3-0bd9-4aad-85b3-9976739ba0e4"
      ],
      "songwriters": [
        "ab810184-53f6-43f5-9133-ffeeb4f5d7e5"
      ],
      "groups": [
        "8e209ae4-4381-438f-89dc-1b21752027d2"
      ]
    },
    "titles": {
      "jpn": "てっぺんっ天国 ~TOP OF THE LAUGH!!!~",
      "qro": "Teppen Tengoku ~TOP OF THE LAUGH!!!~"
    },
    "titles_default_language": "qro",
    "title": "Teppen Tengoku ~TOP OF THE LAUGH!!!~",
    "year": 2022
  }
}