{
  "header": {
    "version": 4,
    "description": "Karaoke Mugen Karaoke Data File"
  },
  "medias": [
    {
      "version": "Default",
      "filename": "JPN - Canvas 2 ~Akaneiro no Palette~ - GAME PC OP - Plastic Smile (^^.mp4",
      "audiogain": -10.26,
      "loudnorm": "-7.42,1.43,4.40,-17.47,-0.99",
      "filesize": 11072109,
      "duration": 97,
      "default": true,
      "lyrics": [
        {
          "filename": "JPN - Canvas 2 ~Akaneiro no Palette~ - GAME PC OP - Plastic Smile (^^.ass",
          "default": true,
          "version": "Default"
        }
      ]
    }
  ],
  "data": {
    "created_at": "2019-06-08T23:26:24.000Z",
    "kid": "a1e7dec3-19f3-4d1c-8b49-1ab061e2d9b1",
    "modified_at": "2022-01-06T18:54:22.131Z",
    "repository": "kara.moe",
    "tags": {
      "authors": [
        "2b4e9972-5e17-481b-99f5-d0787c0ada56"
      ],
      "collections": [
        "c7db86a0-ff64-4044-9be4-66dd1ef1d1c1"
      ],
      "creators": [
        "cff78eb8-1ec3-4aad-96f8-b31acc10754d"
      ],
      "families": [
        "dbedd6b3-d125-4cd8-aa32-c4175e4ca3a3"
      ],
      "groups": [
        "2b4e9972-5e17-481b-99f5-d0787c0ada56",
        "3c14c864-533c-49e6-a3cc-6969f1233775"
      ],
      "langs": [
        "4dcf9614-7914-42aa-99f4-dbce2e059133"
      ],
      "origins": [
        "2f96e82c-c61b-4413-817e-e6b247509b95"
      ],
      "platforms": [
        "3c15f758-e1bc-4266-8bb9-3c14112f504a"
      ],
      "series": [
        "a724bfe9-e728-4f13-9de8-f397897ca1d0"
      ],
      "singers": [
        "87fd793b-9a29-4cab-aaba-f3241eeb7441"
      ],
      "songtypes": [
        "f02ad9b3-0bd9-4aad-85b3-9976739ba0e4"
      ],
      "songwriters": [
        "62a122d3-94d5-4408-8753-a836459a226b"
      ]
    },
    "titles": {
      "eng": "Plastic Smile (^^",
      "jpn": "プラスチックスマイル(^^"
    },
    "title": "Plastic Smile (^^",
    "year": 2004,
    "titles_default_language": "eng"
  }
}