{
  "header": {
    "version": 4,
    "description": "Karaoke Mugen Karaoke Data File"
  },
  "medias": [
    {
      "version": "Default",
      "filename": "JPN - Touhou - MV - Reverse Death.mp4",
      "audiogain": -10.1,
      "loudnorm": "-7.40,0.83,2.60,-17.47,-1.38",
      "filesize": 27876989,
      "duration": 194,
      "default": true,
      "lyrics": [
        {
          "filename": "JPN - Touhou - MV - Reverse Death.ass",
          "default": true,
          "version": "Default"
        }
      ]
    }
  ],
  "data": {
    "created_at": "2022-09-30T19:21:18.749Z",
    "ignoreHooks": false,
    "kid": "d0358aae-49cf-482e-bba3-0950ba2bc5df",
    "modified_at": "2022-09-30T19:21:19.904Z",
    "repository": "kara.moe",
    "tags": {
      "authors": [
        "1fbfef73-6731-40df-ba51-65a54b9d1605"
      ],
      "collections": [
        "c7db86a0-ff64-4044-9be4-66dd1ef1d1c1"
      ],
      "creators": [
        "ad4c9a45-6385-48ff-9468-1a056c486239"
      ],
      "families": [
        "0377db02-3af6-43b8-9b08-c759df3d25c3"
      ],
      "langs": [
        "4dcf9614-7914-42aa-99f4-dbce2e059133"
      ],
      "origins": [
        "ac5085db-52d8-44b4-8fbb-1697b24d2046"
      ],
      "series": [
        "1bdaa5a1-dfa6-4365-b746-7a0b194dafd6"
      ],
      "singers": [
        "4cb575ae-a999-4234-9417-31580bcfab94"
      ],
      "songtypes": [
        "7be1b15c-cff8-4b37-a649-5c90f3d569a9"
      ],
      "songwriters": [
        "26cb5252-8510-49e0-897c-a611a05fc056",
        "ad4c9a45-6385-48ff-9468-1a056c486239"
      ],
      "franchises": [
        "1bdaa5a1-dfa6-4365-b746-7a0b194dafd6"
      ],
      "groups": [
        "ae613721-1fbe-480d-ba6b-d6d0702b184d"
      ]
    },
    "titles": {
      "eng": "Reverse Death",
      "qro": "Reverse Death",
      "jpn": "リバース・デス"
    },
    "titles_default_language": "qro",
    "title": "Reverse Death",
    "year": 2014
  }
}