{
  "header": {
    "version": 4,
    "description": "Karaoke Mugen Karaoke Data File"
  },
  "medias": [
    {
      "version": "Default",
      "filename": "JPN - Dirty Pair Project Eden - MOVIE OP - Safari Eyes.mp4",
      "audiogain": 1.41,
      "loudnorm": "-19.40,-8.69,6.80,-29.92,-1.01",
      "filesize": 85782631,
      "duration": 109,
      "default": true,
      "lyrics": [
        {
          "filename": "JPN - Dirty Pair Project Eden - MOVIE OP - Safari Eyes.ass",
          "default": true,
          "version": "Default"
        }
      ]
    }
  ],
  "data": {
    "created_at": "2021-09-21T20:34:59.800Z",
    "kid": "af0b8aa7-c359-4115-823f-b2456d1e4c6d",
    "modified_at": "2022-07-20T11:27:53.747Z",
    "repository": "kara.moe",
    "tags": {
      "authors": [
        "8ca50bd1-6c21-418e-b7da-401991393212"
      ],
      "creators": [
        "ef8f80e1-d244-4aea-b7f0-984d6dd4b82b"
      ],
      "families": [
        "0377db02-3af6-43b8-9b08-c759df3d25c3"
      ],
      "groups": [
        "7792cc27-9ff9-4d47-9287-2338b7db1575"
      ],
      "langs": [
        "4dcf9614-7914-42aa-99f4-dbce2e059133"
      ],
      "misc": [
        "fe819ff1-9db8-4a0f-85dc-0e322c9126c4"
      ],
      "origins": [
        "c8ca9dea-d8b4-48fe-8427-d911653232e9"
      ],
      "series": [
        "8fd55087-0eaf-4ffd-b6b9-fab9226e61b7"
      ],
      "singers": [
        "c58ef491-a5b7-4bb2-a865-77ab25f6e8c1"
      ],
      "songtypes": [
        "f02ad9b3-0bd9-4aad-85b3-9976739ba0e4"
      ],
      "songwriters": [
        "c078852c-ffe7-4f12-a6e3-0f7da3220084"
      ],
      "collections": [
        "c7db86a0-ff64-4044-9be4-66dd1ef1d1c1"
      ],
      "warnings": [
        "e82ce681-6d7b-4fb6-abe4-daa8aaa9bbf9"
      ],
      "franchises": [
        "1005aa3c-9012-432a-8c5a-1038129dabd2"
      ]
    },
    "titles": {
      "eng": "Safari Eyes",
      "jpn": "サファリアイズ"
    },
    "titles_default_language": "eng",
    "title": "Safari Eyes",
    "year": 1987
  }
}