{
  "header": {
    "version": 4,
    "description": "Karaoke Mugen Karaoke Data File"
  },
  "medias": [
    {
      "version": "Default",
      "filename": "JPN - Star Twinkle PreCure - OP - Sparkle Star Twinkle Pretty Cure.mp4",
      "audiogain": 6.88,
      "loudnorm": "-24.72,-14.36,3.60,-34.79,-0.25",
      "filesize": 60317646,
      "duration": 89,
      "default": true,
      "lyrics": [
        {
          "filename": "JPN - Star Twinkle PreCure - OP - Sparkle Star Twinkle Pretty Cure.ass",
          "default": true,
          "version": "Default",
          "subchecksum": "b202ba8d876bea766a455d4a018d0892"
        }
      ]
    }
  ],
  "data": {
    "created_at": "2019-04-22T17:51:02.000Z",
    "kid": "f87103e3-d239-4564-b7c6-548334bd4232",
    "modified_at": "2021-02-25T13:11:40.759Z",
    "repository": "kara.moe",
    "tags": {
      "authors": [
        "79e0aa7d-da9a-4e9a-aa2b-64056a83b49b"
      ],
      "collections": [
        "c7db86a0-ff64-4044-9be4-66dd1ef1d1c1"
      ],
      "creators": [
        "f694bf43-b427-4244-9744-9d3f84fd8a31"
      ],
      "families": [
        "0377db02-3af6-43b8-9b08-c759df3d25c3"
      ],
      "genres": [
        "b84e28f9-db1e-447f-b339-7954c3592523"
      ],
      "groups": [
        "ae613721-1fbe-480d-ba6b-d6d0702b184d"
      ],
      "langs": [
        "4dcf9614-7914-42aa-99f4-dbce2e059133"
      ],
      "origins": [
        "938de218-5343-4865-94d3-fb33f2eaa152"
      ],
      "series": [
        "bbd9d2aa-1dc4-4fa6-ad11-d9a0e822b97d"
      ],
      "singers": [
        "3fb97e01-24d2-4df9-ba1e-9a718e6c06e4"
      ],
      "songtypes": [
        "f02ad9b3-0bd9-4aad-85b3-9976739ba0e4"
      ],
      "songwriters": [
        "79009b02-66ba-442d-9225-4ffa85a2d923",
        "aaa2c9b8-50d0-40bc-bb9c-4f1849195d3d"
      ],
      "franchises": [
        "0067bd2a-ad9f-49eb-9e57-4a3ee0c9622a"
      ]
    },
    "title": "Sparkle☆彡Star☆Twinkle Pretty Cure",
    "titles": {
      "eng": "Sparkle☆彡Star☆Twinkle Pretty Cure",
      "jpn": "キラリ☆彡スター☆トゥインクルプリキュア"
    },
    "year": 2019,
    "titles_default_language": "eng"
  }
}