{
  "header": {
    "version": 4,
    "description": "Karaoke Mugen Karaoke Data File"
  },
  "medias": [
    {
      "version": "Default",
      "filename": "JPN - Ryuusei Ningen Zone - OP - Ryuusei Ningen Zone.mp4",
      "audiogain": 0.05,
      "loudnorm": "-17.93,-7.67,1.90,-28.02,-0.12",
      "filesize": 15803108,
      "duration": 75,
      "default": true,
      "lyrics": [
        {
          "filename": "JPN - Ryuusei Ningen Zone - OP - Ryuusei Ningen Zone.ass",
          "default": true,
          "version": "Default"
        }
      ]
    }
  ],
  "data": {
    "created_at": "2018-11-18T15:32:36.000Z",
    "ignoreHooks": false,
    "kid": "3f4bc7de-0421-41b5-85c2-d96796000fa1",
    "modified_at": "2022-09-30T20:46:07.307Z",
    "repository": "kara.moe",
    "tags": {
      "authors": [
        "4607780c-f1ef-47cf-9c1c-b13e8f731699"
      ],
      "collections": [
        "c7db86a0-ff64-4044-9be4-66dd1ef1d1c1"
      ],
      "creators": [
        "e924236c-76ce-4437-bdd8-2639d543c61a"
      ],
      "families": [
        "5391f9fe-638c-415f-8dc9-958e3a2c5787"
      ],
      "groups": [
        "57e5e0c0-e02e-4871-a6cb-d48ea604ebab"
      ],
      "langs": [
        "4dcf9614-7914-42aa-99f4-dbce2e059133"
      ],
      "origins": [
        "938de218-5343-4865-94d3-fb33f2eaa152",
        "d3fac9ab-630d-402d-a392-3d2450c3e62e"
      ],
      "series": [
        "c01dbb3b-9665-40b8-9885-76a3da0b1501"
      ],
      "singers": [
        "5c63f1ba-b838-41ac-91ad-fdeb0f725ad8",
        "69275c8a-1a2e-436d-a0ca-1c0ce056f0f9"
      ],
      "songtypes": [
        "f02ad9b3-0bd9-4aad-85b3-9976739ba0e4"
      ],
      "songwriters": [
        "9d554b2e-bdf4-49d4-915e-293769843d52",
        "aaaf8667-3ef6-4434-930f-f40fdea9e4b0"
      ]
    },
    "titles": {
      "jpn": "流星人間ゾーン",
      "qro": "Ryûsei Ningen Zone"
    },
    "titles_default_language": "qro",
    "title": "Ryûsei Ningen Zone",
    "year": 1973,
    "titles_aliases": [
      "Ryuusei"
    ]
  }
}