{
  "header": {
    "version": 4,
    "description": "Karaoke Mugen Karaoke Data File"
  },
  "medias": [
    {
      "version": "Default",
      "filename": "JPN - K-ON! - AMV - Syncopation.mp4",
      "audiogain": 0.01,
      "loudnorm": "-17.06,-8.52,2.20,-27.15,-0.21",
      "filesize": 89881758,
      "duration": 244,
      "default": true,
      "lyrics": [
        {
          "filename": "JPN - K-ON! - AMV - Syncopation.ass",
          "default": true,
          "version": "Default"
        }
      ]
    }
  ],
  "data": {
    "created_at": "2021-11-20T18:13:10.558Z",
    "ignoreHooks": false,
    "kid": "526d8798-5634-41e2-8860-e677442b377b",
    "modified_at": "2022-01-09T22:09:05.167Z",
    "repository": "kara.moe",
    "tags": {
      "authors": [
        "782c6220-03e3-443a-b607-064457b1ed7d"
      ],
      "collections": [
        "c7db86a0-ff64-4044-9be4-66dd1ef1d1c1"
      ],
      "creators": [
        "d93786af-5098-49b2-9928-37edfb3d0322"
      ],
      "families": [
        "0377db02-3af6-43b8-9b08-c759df3d25c3"
      ],
      "groups": [
        "8c22c899-b3ed-42da-a548-ce00f950798b",
        "ae613721-1fbe-480d-ba6b-d6d0702b184d"
      ],
      "langs": [
        "4dcf9614-7914-42aa-99f4-dbce2e059133"
      ],
      "origins": [
        "938de218-5343-4865-94d3-fb33f2eaa152"
      ],
      "series": [
        "77de22c4-04a2-4f45-9277-bc2c21922a22"
      ],
      "singers": [
        "e95f8edf-36e0-401f-8a73-dad70086a7eb"
      ],
      "songtypes": [
        "a6c79ce5-89ee-4d50-afe8-3abd7317f6c2"
      ],
      "songwriters": [
        "16f8122f-bb3c-4114-be7f-ef30d6c3135d",
        "72525245-b4ef-4e43-b7ad-8c9d925e77a7",
        "96a28a2c-cc97-41df-94d7-5ebea1522a90"
      ],
      "franchises": [
        "5bf6f59d-2272-44aa-b354-ebf3f31f0171"
      ]
    },
    "titles": {
      "eng": "Syncopation",
      "jpn": "シンコペーション"
    },
    "title": "Syncopation",
    "year": 2018,
    "titles_default_language": "eng"
  }
}