{
  "header": {
    "version": 4,
    "description": "Karaoke Mugen Karaoke Data File"
  },
  "medias": [
    {
      "version": "Default",
      "filename": "JPN - Shining Force NEO - PS2 GAME OP - Zetsubou To Kibou.mp4",
      "audiogain": -2.77,
      "loudnorm": "-15.26,-4.33,7.20,-25.39,-1.25",
      "filesize": 46446720,
      "duration": 107,
      "default": true,
      "lyrics": [
        {
          "filename": "JPN - Shining Force NEO - PS2 GAME OP - Zetsubou To Kibou.ass",
          "default": true,
          "version": "Default"
        }
      ]
    }
  ],
  "data": {
    "created_at": "2017-10-11T17:01:06.000Z",
    "kid": "ce684831-c7f2-4e38-887d-d9159ad4e65f",
    "modified_at": "2021-08-15T18:29:16.747Z",
    "repository": "kara.moe",
    "tags": {
      "authors": [
        "5bdaba57-27f8-4568-8806-76a807728766"
      ],
      "collections": [
        "c7db86a0-ff64-4044-9be4-66dd1ef1d1c1"
      ],
      "creators": [
        "765c35a9-94d9-4610-9a76-4acbf005a67d"
      ],
      "families": [
        "dbedd6b3-d125-4cd8-aa32-c4175e4ca3a3"
      ],
      "groups": [
        "3c14c864-533c-49e6-a3cc-6969f1233775"
      ],
      "langs": [
        "4dcf9614-7914-42aa-99f4-dbce2e059133"
      ],
      "platforms": [
        "2173004e-21da-45c9-9dfb-26014423c566"
      ],
      "series": [
        "7e3b68a8-42eb-4a44-bee8-3ec6a97c5e53"
      ],
      "singers": [
        "d2784508-1b0d-48c3-b584-b29d955e5c03"
      ],
      "songtypes": [
        "f02ad9b3-0bd9-4aad-85b3-9976739ba0e4"
      ],
      "songwriters": [
        "d2784508-1b0d-48c3-b584-b29d955e5c03"
      ],
      "franchises": [
        "dcf75dd7-acdf-4de3-a10b-334493f8f6de"
      ]
    },
    "title": "Zetsubou To Kibou",
    "titles": {
      "qro": "Zetsubou To Kibou",
      "jpn": "絶望と希望"
    },
    "year": 2005,
    "titles_default_language": "qro"
  }
}