{
  "header": {
    "version": 4,
    "description": "Karaoke Mugen Karaoke Data File"
  },
  "medias": [
    {
      "version": "Default",
      "filename": "JPN - Lostorage Conflated WIXOSS - OP - UNLOCK.mp4",
      "audiogain": -1.65,
      "loudnorm": "-16.17,-4.85,5.10,-26.29,-0.87",
      "filesize": 44707426,
      "duration": 90,
      "default": true,
      "lyrics": [
        {
          "filename": "JPN - Lostorage Conflated WIXOSS - OP - UNLOCK.ass",
          "default": true,
          "version": "Default",
          "subchecksum": "90eb4b3b5def1def6171c06c628eba72"
        }
      ]
    }
  ],
  "data": {
    "created_at": "2018-07-04T20:42:38.000Z",
    "kid": "ff5159ca-dc6c-4982-9e2e-efd0a50b3819",
    "modified_at": "2021-05-11T23:03:40.100Z",
    "repository": "kara.moe",
    "tags": {
      "authors": [
        "b5116310-e69b-4ed4-9e47-c5c53ee69023"
      ],
      "collections": [
        "c7db86a0-ff64-4044-9be4-66dd1ef1d1c1"
      ],
      "creators": [
        "802a8ac8-b16f-40a4-944b-99956798c906"
      ],
      "families": [
        "0377db02-3af6-43b8-9b08-c759df3d25c3"
      ],
      "groups": [
        "ae613721-1fbe-480d-ba6b-d6d0702b184d"
      ],
      "langs": [
        "4dcf9614-7914-42aa-99f4-dbce2e059133"
      ],
      "misc": [
        "fe819ff1-9db8-4a0f-85dc-0e322c9126c4"
      ],
      "origins": [
        "938de218-5343-4865-94d3-fb33f2eaa152"
      ],
      "series": [
        "9926f5e5-d715-4451-b187-4be6cd911b8e"
      ],
      "singers": [
        "d638c586-47e1-44e4-9976-ad1e47c75c5a"
      ],
      "songtypes": [
        "f02ad9b3-0bd9-4aad-85b3-9976739ba0e4"
      ],
      "songwriters": [
        "05f19984-0588-43e4-b0da-b8e145b95c91",
        "edc9eca7-3069-4437-94bd-b34cfae4542a"
      ],
      "franchises": [
        "c2813a88-51f8-4e42-8957-e33d8455809b"
      ]
    },
    "title": "UNLOCK",
    "titles": {
      "eng": "UNLOCK"
    },
    "year": 2018,
    "titles_default_language": "eng"
  }
}