{
  "header": {
    "version": 4,
    "description": "Karaoke Mugen Karaoke Data File"
  },
  "medias": [
    {
      "version": "HF.",
      "filename": "JPN - Fate stay night Realta Nua - GAME PS2 OP2 - Ougon no Kagayaki ~ HF Vers. ~ Alternative Vers.mp4",
      "audiogain": -7.58,
      "loudnorm": "-8.85,-0.03,3.80,-19.08,0.03",
      "filesize": 58222858,
      "duration": 95,
      "default": true,
      "lyrics": [
        {
          "filename": "JPN - Fate stay night Realta Nua - GAME PS2 OP2 - Ougon no Kagayaki ~ HF Vers. ~ Alternative Vers.ass",
          "default": true,
          "version": "Default"
        }
      ]
    }
  ],
  "data": {
    "created_at": "2017-10-11T15:01:21.000Z",
    "ignoreHooks": false,
    "kid": "30fc8369-a538-46e3-9dbd-e19ba8aa2ba4",
    "modified_at": "2022-07-09T19:00:57.718Z",
    "parents": [
      "c0f77fa1-86f0-41c2-bd7d-78c990f92587"
    ],
    "repository": "kara.moe",
    "songorder": 2,
    "tags": {
      "authors": [
        "5bdaba57-27f8-4568-8806-76a807728766"
      ],
      "collections": [
        "c7db86a0-ff64-4044-9be4-66dd1ef1d1c1"
      ],
      "creators": [
        "211ed332-b979-4c23-9fac-c48ad71f3b8f"
      ],
      "families": [
        "dbedd6b3-d125-4cd8-aa32-c4175e4ca3a3"
      ],
      "groups": [
        "3c14c864-533c-49e6-a3cc-6969f1233775"
      ],
      "langs": [
        "4dcf9614-7914-42aa-99f4-dbce2e059133"
      ],
      "origins": [
        "2f96e82c-c61b-4413-817e-e6b247509b95"
      ],
      "platforms": [
        "2173004e-21da-45c9-9dfb-26014423c566"
      ],
      "series": [
        "4aa4b152-bc02-48b6-b61a-d5baa09f5855"
      ],
      "singers": [
        "603881a7-b6b7-42ab-90dd-292a1521ea81"
      ],
      "songtypes": [
        "f02ad9b3-0bd9-4aad-85b3-9976739ba0e4"
      ],
      "songwriters": [
        "3de2d5c4-21ec-4c68-bf7c-0b3afc172f1f",
        "ae602bc2-ff2a-42b0-89fe-7ba6c86151ed"
      ],
      "versions": [
        "9f63c359-d1bf-425a-bcf5-b245c2c9211d"
      ],
      "franchises": [
        "564373dc-4cfa-454e-8af1-bcccb886c007"
      ]
    },
    "titles": {
      "qro": "Ôgon no Kagayaki ~ HF Vers.",
      "jpn": "黄金の輝き ~ HF Vers."
    },
    "titles_default_language": "qro",
    "titles_aliases": [
      "ougon"
    ],
    "title": "Ôgon no Kagayaki ~ HF Vers.",
    "year": 2007
  }
}