{
  "header": {
    "version": 4,
    "description": "Karaoke Mugen Karaoke Data File"
  },
  "medias": [
    {
      "version": "Default",
      "filename": "JPN - Love Live! Sunshine!! 2nd Season - AUDIO - DROPOUT! question_mark ~ Full Vers.mp3",
      "audiogain": -9.42,
      "loudnorm": "-7.34,1.27,2.20,-17.39,-0.67",
      "filesize": 4127172,
      "duration": 237,
      "default": true,
      "lyrics": [
        {
          "filename": "JPN - Love Live! Sunshine!! 2nd Season - AUDIO - DROPOUT! question_mark ~ Full Vers.ass",
          "default": true,
          "version": "Default"
        }
      ]
    }
  ],
  "data": {
    "created_at": "2022-01-11T23:46:44.152Z",
    "ignoreHooks": false,
    "kid": "702c2c82-6280-4498-b7b9-b0d99346697b",
    "modified_at": "2022-01-13T20:54:56.732Z",
    "repository": "kara.moe",
    "tags": {
      "authors": [
        "06852e02-b77e-4106-b6f7-2d03942ad0ea",
        "449844e4-3a1f-46e1-8a92-bf72e2d1b6f1"
      ],
      "collections": [
        "c7db86a0-ff64-4044-9be4-66dd1ef1d1c1"
      ],
      "creators": [
        "b2805292-730e-473a-96f0-fd8e7ffd1fd7"
      ],
      "genres": [
        "caa86df2-0d59-474b-885c-f240a9e891b0"
      ],
      "groups": [
        "ae613721-1fbe-480d-ba6b-d6d0702b184d"
      ],
      "langs": [
        "4dcf9614-7914-42aa-99f4-dbce2e059133"
      ],
      "misc": [
        "ec4fee75-71fb-45b4-9772-2ca374b4b600"
      ],
      "series": [
        "a460c371-2fa9-498a-b237-fc5658481a82"
      ],
      "singers": [
        "29774a6a-2bba-440d-b7e2-d033a3cca0cc",
        "a1ab013b-21fc-4fe1-a061-897bd0b490fb",
        "bbf38c20-4ff8-46ca-8e23-55a71286f0ef"
      ],
      "songtypes": [
        "42a262ae-acba-4ab5-a446-c5789c96c821"
      ],
      "songwriters": [
        "f41e7218-6c19-4e19-9b5f-4612dcd58243"
      ],
      "versions": [
        "c2143a7f-6970-450e-8a79-0302db9220a9"
      ],
      "franchises": [
        "fd5d066e-e85a-4eea-8688-2979a887450a"
      ]
    },
    "titles": {
      "eng": "DROPOUT!?"
    },
    "title": "DROPOUT!?",
    "year": 2017,
    "titles_default_language": "eng"
  }
}