{
  "header": {
    "version": 4,
    "description": "Karaoke Mugen Karaoke Data File"
  },
  "medias": [
    {
      "version": "Default",
      "filename": "JPN - Bleach - ED26 - Song for.mp4",
      "audiogain": -1.4,
      "loudnorm": "-16.01,-9.33,3.10,-26.18,-0.66",
      "filesize": 11847376,
      "duration": 92,
      "default": true,
      "lyrics": [
        {
          "filename": "JPN - Bleach - ED26 - Song for.ass",
          "default": true,
          "version": "Default",
          "subchecksum": "467e2e5e14273b782f235d0d88e61f59"
        }
      ]
    }
  ],
  "data": {
    "created_at": "2021-03-06T22:14:34.264Z",
    "kid": "4e3b36d3-eb56-415a-861e-fc440b2b3c47",
    "modified_at": "2021-03-06T22:20:40.434Z",
    "repository": "kara.moe",
    "songorder": 26,
    "tags": {
      "authors": [
        "1d7745a8-73ea-40bb-ad99-826af98f6e41"
      ],
      "collections": [
        "c7db86a0-ff64-4044-9be4-66dd1ef1d1c1"
      ],
      "creators": [
        "aaff4ba6-9a12-4bac-9bd0-c0cb783e4177"
      ],
      "families": [
        "0377db02-3af6-43b8-9b08-c759df3d25c3"
      ],
      "genres": [
        "a0aeef4a-6428-45ff-a6e1-468b595930c2"
      ],
      "groups": [
        "ae613721-1fbe-480d-ba6b-d6d0702b184d"
      ],
      "langs": [
        "4dcf9614-7914-42aa-99f4-dbce2e059133"
      ],
      "origins": [
        "938de218-5343-4865-94d3-fb33f2eaa152"
      ],
      "series": [
        "d68e6557-fdc3-4c8b-805c-9778918abd03"
      ],
      "singers": [
        "30122147-4a27-469f-a59d-86a9997f1359"
      ],
      "songtypes": [
        "38c77c56-2b95-4040-b676-0994a8cb0597"
      ],
      "songwriters": [
        "30122147-4a27-469f-a59d-86a9997f1359",
        "dffcef53-13ed-4b12-8e15-5c58c7ede869"
      ],
      "franchises": [
        "d68e6557-fdc3-4c8b-805c-9778918abd03"
      ]
    },
    "title": "Song for...",
    "titles": {
      "eng": "Song for..."
    },
    "year": 2011,
    "titles_default_language": "eng"
  }
}