{
  "header": {
    "version": 4,
    "description": "Karaoke Mugen Karaoke Data File"
  },
  "medias": [
    {
      "version": "Default",
      "filename": "JPN - Touhou - REMIX MV - Internet Survivor.mp4",
      "audiogain": -10.59,
      "loudnorm": "-6.61,2.95,3.10,-16.78,-0.38",
      "filesize": 306465453,
      "duration": 242,
      "default": true,
      "lyrics": [
        {
          "filename": "JPN - Touhou - REMIX MV - Internet Survivor.ass",
          "default": true,
          "version": "Default"
        }
      ]
    }
  ],
  "data": {
    "created_at": "2022-12-16T23:25:49.195Z",
    "ignoreHooks": false,
    "kid": "05c7f327-510b-4283-bdeb-c1df7a254d45",
    "modified_at": "2022-12-16T23:25:49.424Z",
    "repository": "kara.moe",
    "tags": {
      "authors": [
        "84157b43-8a7a-482c-95d3-516757353835"
      ],
      "collections": [
        "c7db86a0-ff64-4044-9be4-66dd1ef1d1c1"
      ],
      "creators": [
        "2b873ad5-a3ce-4abf-9f11-6f600e6e6ba0"
      ],
      "families": [
        "0377db02-3af6-43b8-9b08-c759df3d25c3"
      ],
      "langs": [
        "4dcf9614-7914-42aa-99f4-dbce2e059133"
      ],
      "misc": [
        "ec4360fa-3e3c-4f6f-b0e1-fb8b12b6dd18",
        "1d6ceadf-a885-47e5-b23b-c07bf668a424"
      ],
      "origins": [
        "ac5085db-52d8-44b4-8fbb-1697b24d2046"
      ],
      "series": [
        "1bdaa5a1-dfa6-4365-b746-7a0b194dafd6"
      ],
      "singers": [
        "df7eaeb6-af8a-4277-8527-ce1a41d4cd39",
        "5e9a5d91-ea80-4515-acdf-43f023a54467"
      ],
      "songtypes": [
        "7be1b15c-cff8-4b37-a649-5c90f3d569a9"
      ],
      "songwriters": [
        "a76aee83-33a5-493a-9a0c-4b57d70ec877",
        "26cb5252-8510-49e0-897c-a611a05fc056"
      ],
      "franchises": [
        "1bdaa5a1-dfa6-4365-b746-7a0b194dafd6"
      ],
      "groups": [
        "8e209ae4-4381-438f-89dc-1b21752027d2"
      ]
    },
    "titles": {
      "qro": "Internet Survivor",
      "jpn": "インターネットサバイバー"
    },
    "titles_default_language": "qro",
    "year": 2022
  }
}