{
  "header": {
    "version": 4,
    "description": "Karaoke Mugen Karaoke Data File"
  },
  "medias": [
    {
      "version": "Default",
      "filename": "JPN - Kidou Senshi Gundam SEED - MV - Akatsuki no Kuruma.avi",
      "audiogain": -4.73,
      "loudnorm": "-13.73,-0.21,10.80,-24.12,-2.18",
      "filesize": 81376126,
      "duration": 303,
      "default": true,
      "lyrics": [
        {
          "filename": "JPN - Kidou Senshi Gundam SEED - MV - Akatsuki no Kuruma.ass",
          "default": true,
          "version": "Default"
        }
      ]
    }
  ],
  "data": {
    "created_at": "2017-10-11T17:02:07.000Z",
    "kid": "a1dc7cad-7f6f-4e07-adb5-1005d0f8a7fb",
    "modified_at": "2022-06-04T00:16:49.600Z",
    "repository": "kara.moe",
    "songorder": null,
    "tags": {
      "authors": [
        "5bdaba57-27f8-4568-8806-76a807728766"
      ],
      "creators": [
        "e8da43a3-7058-4162-9d31-2f331dee993e"
      ],
      "families": [
        "5391f9fe-638c-415f-8dc9-958e3a2c5787"
      ],
      "groups": [
        "3c14c864-533c-49e6-a3cc-6969f1233775"
      ],
      "langs": [
        "4dcf9614-7914-42aa-99f4-dbce2e059133"
      ],
      "misc": [
        "86705d4b-24e4-4756-9687-2b9c98bcf366"
      ],
      "series": [
        "3a518b75-68e5-411a-8ac8-ed7d6168b599"
      ],
      "singers": [
        "f628390a-1a0f-4e4f-9207-28f6aef85616"
      ],
      "songtypes": [
        "7be1b15c-cff8-4b37-a649-5c90f3d569a9"
      ],
      "songwriters": [
        "1f324dc7-f858-415b-bbc1-41fcce3d6ac7"
      ],
      "collections": [
        "dbcf2c22-524d-4708-99bb-601703633927"
      ],
      "franchises": [
        "e6ade589-c2e4-49a1-acdb-ea9b03e57240"
      ]
    },
    "titles": {
      "qro": "Akatsuki no Kuruma",
      "jpn": "暁の車"
    },
    "titles_default_language": "qro",
    "title": "Akatsuki no Kuruma",
    "year": 2004
  }
}