{
  "header": {
    "version": 4,
    "description": "Karaoke Mugen Karaoke Data File"
  },
  "medias": [
    {
      "version": "Default",
      "filename": "JPN - Sucker for Love First Date - GAME PC OP - Koi suru Kyuuban.mp4",
      "audiogain": -10.31,
      "loudnorm": "-6.48,1.26,2.80,-16.67,-0.28",
      "filesize": 34922704,
      "duration": 100,
      "default": true,
      "lyrics": [
        {
          "filename": "JPN - Sucker for Love First Date - GAME PC OP - Koi suru Kyuuban.ass",
          "default": true,
          "version": "Default"
        }
      ]
    }
  ],
  "data": {
    "created_at": "2022-01-26T12:32:00.812Z",
    "ignoreHooks": false,
    "kid": "427cac52-0935-4227-a358-88dda57f2269",
    "modified_at": "2022-01-26T12:32:00.812Z",
    "repository": "kara.moe",
    "tags": {
      "authors": [
        "523ead5e-981e-4993-af29-12524f7edcf1"
      ],
      "collections": [
        "c7db86a0-ff64-4044-9be4-66dd1ef1d1c1"
      ],
      "creators": [
        "bf6eaaf7-17e4-4c61-bbec-dd79666cbd67"
      ],
      "families": [
        "dbedd6b3-d125-4cd8-aa32-c4175e4ca3a3"
      ],
      "groups": [
        "2b4e9972-5e17-481b-99f5-d0787c0ada56",
        "8e209ae4-4381-438f-89dc-1b21752027d2"
      ],
      "langs": [
        "4dcf9614-7914-42aa-99f4-dbce2e059133"
      ],
      "platforms": [
        "3c15f758-e1bc-4266-8bb9-3c14112f504a"
      ],
      "series": [
        "b0860fd4-2e0a-4a5e-8a46-45a95fdd972d"
      ],
      "songtypes": [
        "f02ad9b3-0bd9-4aad-85b3-9976739ba0e4"
      ]
    },
    "titles": {
      "qro": "Koi suru Kyûban",
      "jpn": "恋する吸盤"
    },
    "titles_aliases": [
      "kyuuban"
    ],
    "title": "Koi suru Kyûban",
    "year": 2022,
    "titles_default_language": "qro"
  }
}