{
  "header": {
    "version": 4,
    "description": "Karaoke Mugen Karaoke Data File"
  },
  "medias": [
    {
      "version": "Default",
      "filename": "JPN - Kageki Shoujo!! - ED2 - Shinayaka na Mirai.mp4",
      "audiogain": 2.25,
      "loudnorm": "-20.38,-7.25,4.70,-30.54,-0.42",
      "filesize": 41544914,
      "duration": 90,
      "default": true,
      "lyrics": [
        {
          "filename": "JPN - Kageki Shoujo!! - ED2 - Shinayaka na Mirai.ass",
          "default": true,
          "version": "Default"
        }
      ]
    }
  ],
  "data": {
    "created_at": "2022-07-18T13:06:09.644Z",
    "ignoreHooks": false,
    "kid": "dc517fd4-0ba8-4b02-aa2e-41318bd28baf",
    "modified_at": "2022-07-20T14:39:42.626Z",
    "repository": "kara.moe",
    "songorder": 2,
    "tags": {
      "authors": [
        "df9cb48f-334e-4ceb-b26e-e254ad323492"
      ],
      "collections": [
        "c7db86a0-ff64-4044-9be4-66dd1ef1d1c1"
      ],
      "creators": [
        "7658875f-1eb3-4c13-b590-08b3d5d67b06"
      ],
      "families": [
        "0377db02-3af6-43b8-9b08-c759df3d25c3"
      ],
      "genres": [
        "8b6ace6f-a59e-4740-b3ff-e1618720383c"
      ],
      "groups": [
        "8e209ae4-4381-438f-89dc-1b21752027d2"
      ],
      "langs": [
        "4dcf9614-7914-42aa-99f4-dbce2e059133"
      ],
      "misc": [
        "fe819ff1-9db8-4a0f-85dc-0e322c9126c4"
      ],
      "origins": [
        "938de218-5343-4865-94d3-fb33f2eaa152"
      ],
      "series": [
        "a3ab3c37-1c75-4f4c-972b-7d99d7d0cdf1"
      ],
      "singers": [
        "006feaa5-2550-4ae2-8448-9a11d1061ce1",
        "9332cf9e-20a6-4738-98a2-f6ef30529681"
      ],
      "songtypes": [
        "38c77c56-2b95-4040-b676-0994a8cb0597"
      ],
      "songwriters": [
        "9f66a6f9-0f73-400e-8006-ac182f0c6d38"
      ]
    },
    "titles": {
      "jpn": "シナヤカナミライ",
      "qro": "Shinayaka na Mirai"
    },
    "titles_default_language": "qro",
    "title": "Shinayaka na Mirai",
    "year": 2021
  }
}