{
  "header": {
    "version": 4,
    "description": "Karaoke Mugen Karaoke Data File"
  },
  "medias": [
    {
      "version": "Default",
      "filename": "JPN - Tokyo Ghoul Root A - ED - Kisetsu wa Tsugitsugi Shindeyuku.mp4",
      "audiogain": 0.16,
      "loudnorm": "-17.08,-7.15,4.10,-27.10,-0.18",
      "filesize": 33911225,
      "duration": 90,
      "default": true,
      "lyrics": [
        {
          "filename": "JPN - Tokyo Ghoul Root A - ED - Kisetsu wa Tsugitsugi Shindeyuku.ass",
          "default": true,
          "version": "Default"
        }
      ]
    }
  ],
  "data": {
    "created_at": "2017-10-11T17:02:21.000Z",
    "ignoreHooks": false,
    "kid": "14e4e018-ca11-4f71-a5e8-3610be58b9e1",
    "modified_at": "2022-09-15T21:22:11.755Z",
    "repository": "kara.moe",
    "tags": {
      "authors": [
        "8f250931-fdb2-4974-b12a-1519800b5324"
      ],
      "collections": [
        "c7db86a0-ff64-4044-9be4-66dd1ef1d1c1"
      ],
      "creators": [
        "aaff4ba6-9a12-4bac-9bd0-c0cb783e4177"
      ],
      "families": [
        "0377db02-3af6-43b8-9b08-c759df3d25c3"
      ],
      "groups": [
        "8c22c899-b3ed-42da-a548-ce00f950798b",
        "ae613721-1fbe-480d-ba6b-d6d0702b184d"
      ],
      "langs": [
        "4dcf9614-7914-42aa-99f4-dbce2e059133"
      ],
      "origins": [
        "938de218-5343-4865-94d3-fb33f2eaa152"
      ],
      "series": [
        "37840aa4-3dc1-4376-9e7a-5f9723463c32"
      ],
      "singers": [
        "1e10b608-d701-4b51-9725-ccf808c44ce0"
      ],
      "songtypes": [
        "38c77c56-2b95-4040-b676-0994a8cb0597"
      ],
      "songwriters": [
        "caff84bc-059e-4a6e-b273-c857050e75f7"
      ],
      "franchises": [
        "45bed48a-1387-4bca-85cf-de5e0b150fd5"
      ]
    },
    "titles": {
      "eng": "Seasons Die One After Another",
      "qro": "Kisetsu wa Tsugitsugi Shindeiku",
      "jpn": "季節は次々死んでいく"
    },
    "titles_default_language": "eng",
    "title": "Kisetsu wa Tsugitsugi Shindeyuku",
    "year": 2015
  }
}