{
  "header": {
    "version": 4,
    "description": "Karaoke Mugen Karaoke Data File"
  },
  "medias": [
    {
      "version": "Default",
      "filename": "JPN - Azumanga Daiou The Animation (2002), Popotan - AMV - Ichigo GO! GO!.mp4",
      "audiogain": -10.32,
      "loudnorm": "-7.37,2.06,2.90,-17.51,-0.39",
      "filesize": 27517111,
      "duration": 171,
      "default": true,
      "lyrics": [
        {
          "filename": "JPN - Azumanga Daiou The Animation (2002), Popotan - AMV - Ichigo GO! GO!.ass",
          "default": true,
          "version": "Default"
        }
      ]
    }
  ],
  "data": {
    "created_at": "2017-10-11T17:02:52.000Z",
    "kid": "c6cc8665-c254-4a27-b1ee-769ed6df3dd3",
    "modified_at": "2022-07-20T11:27:17.999Z",
    "repository": "kara.moe",
    "tags": {
      "authors": [
        "1df04771-a378-4f14-a5e1-1455187d681a"
      ],
      "creators": [
        "802a8ac8-b16f-40a4-944b-99956798c906",
        "c3bd80ef-d1fe-427f-913f-a2ba2fe66114"
      ],
      "families": [
        "0377db02-3af6-43b8-9b08-c759df3d25c3"
      ],
      "groups": [
        "3c14c864-533c-49e6-a3cc-6969f1233775"
      ],
      "langs": [
        "4dcf9614-7914-42aa-99f4-dbce2e059133"
      ],
      "origins": [
        "938de218-5343-4865-94d3-fb33f2eaa152"
      ],
      "series": [
        "646540b7-0a90-4524-a99d-3e933d95fd0a",
        "caa95c93-a6ea-4bfb-8c1a-d573bf16824d"
      ],
      "singers": [
        "73f68c8e-266c-41b1-b1ee-f51db7be7363"
      ],
      "songtypes": [
        "a6c79ce5-89ee-4d50-afe8-3abd7317f6c2"
      ],
      "songwriters": [
        "6561df56-9df7-49b3-a01a-58595cf9a697",
        "6b469883-82b3-4fa3-8b2b-c374aab91f81"
      ],
      "collections": [
        "c7db86a0-ff64-4044-9be4-66dd1ef1d1c1"
      ],
      "warnings": [
        "e82ce681-6d7b-4fb6-abe4-daa8aaa9bbf9"
      ]
    },
    "titles": {
      "qro": "Ichigo GO! GO!",
      "jpn": "いちごGO!GO!"
    },
    "titles_default_language": "qro",
    "title": "Ichigo GO! GO!",
    "year": 2005
  }
}