{
  "header": {
    "version": 4,
    "description": "Karaoke Mugen Karaoke Data File"
  },
  "medias": [
    {
      "version": "Default",
      "filename": "JPN - Project SEKAI COLORFUL STAGE! - GAME MV - Lower ~ Full Vers.mp4",
      "audiogain": -8.58,
      "loudnorm": "-9.55,1.33,8.10,-19.64,-1.06",
      "filesize": 39246343,
      "duration": 232,
      "default": true,
      "lyrics": [
        {
          "filename": "JPN - Project SEKAI COLORFUL STAGE! - GAME MV - Lower ~ Full Vers.ass",
          "default": true,
          "version": "Default"
        }
      ]
    }
  ],
  "data": {
    "created_at": "2022-03-08T22:37:38.012Z",
    "ignoreHooks": false,
    "kid": "e4812e5d-1b02-42e7-b265-dc9481428d95",
    "modified_at": "2022-12-26T21:12:35.020Z",
    "parents": [
      "6c45accc-f343-45a8-8460-fdca06c34607"
    ],
    "repository": "kara.moe",
    "tags": {
      "authors": [
        "63d193aa-c3b3-4858-a7c9-d505d478dc3d"
      ],
      "collections": [
        "c7db86a0-ff64-4044-9be4-66dd1ef1d1c1"
      ],
      "creators": [
        "1e5648fb-22fc-474d-b865-254eb31fa000",
        "5c4a73ca-b1ab-47ab-a658-b736f0138236",
        "7eebabcd-52be-47ae-b4c2-c741f20b277a"
      ],
      "families": [
        "dbedd6b3-d125-4cd8-aa32-c4175e4ca3a3",
        "0377db02-3af6-43b8-9b08-c759df3d25c3"
      ],
      "genres": [
        "45623cae-6d68-4304-a49b-896d1d6f4580"
      ],
      "groups": [
        "8e209ae4-4381-438f-89dc-1b21752027d2"
      ],
      "langs": [
        "4dcf9614-7914-42aa-99f4-dbce2e059133"
      ],
      "misc": [
        "1d6ceadf-a885-47e5-b23b-c07bf668a424"
      ],
      "platforms": [
        "213a1a15-e73a-4a08-b3f6-b6e2745a82e5"
      ],
      "series": [
        "192b33fb-638a-4680-bdb2-a5adb9889849"
      ],
      "singers": [
        "1fd01df9-13c6-4442-a8c9-4d7922152b32",
        "42e22ca1-af49-4588-90e3-671ab88f2258",
        "b0672b63-1519-4a34-99f6-039fdade750e",
        "bbf38c20-4ff8-46ca-8e23-55a71286f0ef",
        "ee6eeedc-a11b-4bc1-951f-67b6ea7a696a"
      ],
      "singergroups": [
        "210b7f5a-db03-4cb6-ab5d-68052851cbb2"
      ],
      "songtypes": [
        "7be1b15c-cff8-4b37-a649-5c90f3d569a9"
      ],
      "songwriters": [
        "85f43623-05fd-4be1-808f-1392ff70e1c8"
      ],
      "versions": [
        "c2143a7f-6970-450e-8a79-0302db9220a9"
      ]
    },
    "titles": {
      "eng": "lower one's eyes",
      "jpn": "ロウワー",
      "qro": "Lower"
    },
    "titles_default_language": "qro",
    "year": 2021
  }
}