{
  "header": {
    "version": 4,
    "description": "Karaoke Mugen Karaoke Data File"
  },
  "medias": [
    {
      "version": "Default",
      "filename": "JPN - Touhou - MV - Tsurupettan.mp4",
      "audiogain": -10.57,
      "loudnorm": "-6.33,1.33,1.60,-16.43,-0.52",
      "filesize": 40106472,
      "duration": 157,
      "default": true,
      "lyrics": [
        {
          "filename": "JPN - Touhou - MV - Tsurupettan.ass",
          "default": true,
          "version": "Default",
          "subchecksum": "608d124fb9a29d530a90b37e99991dfd"
        }
      ]
    }
  ],
  "data": {
    "created_at": "2017-10-11T17:02:31.000Z",
    "kid": "51ab68b4-8c0e-4ed6-abe2-2ee5af47b37e",
    "modified_at": "2021-02-25T13:28:11.609Z",
    "repository": "kara.moe",
    "tags": {
      "authors": [
        "1df04771-a378-4f14-a5e1-1455187d681a",
        "a5dbab74-510b-48c5-9cea-5a537a81c974"
      ],
      "collections": [
        "c7db86a0-ff64-4044-9be4-66dd1ef1d1c1"
      ],
      "creators": [
        "32b71a4d-af3b-4daf-86f4-85519eaea5c4",
        "a56ed9e7-a3dc-4203-b91c-4128bcf7bfa9"
      ],
      "families": [
        "0377db02-3af6-43b8-9b08-c759df3d25c3"
      ],
      "groups": [
        "3c14c864-533c-49e6-a3cc-6969f1233775",
        "8c22c899-b3ed-42da-a548-ce00f950798b"
      ],
      "langs": [
        "4dcf9614-7914-42aa-99f4-dbce2e059133"
      ],
      "series": [
        "1bdaa5a1-dfa6-4365-b746-7a0b194dafd6"
      ],
      "singers": [
        "a8176667-4b97-465c-96d2-88cce439c39d"
      ],
      "songtypes": [
        "7be1b15c-cff8-4b37-a649-5c90f3d569a9"
      ],
      "songwriters": [
        "26cb5252-8510-49e0-897c-a611a05fc056",
        "7be9727f-c4db-4013-98cc-f0a9739e7867",
        "9c1b63ff-6949-4909-b750-fae8e018cf23"
      ],
      "franchises": [
        "1bdaa5a1-dfa6-4365-b746-7a0b194dafd6"
      ]
    },
    "title": "Tsurupettan",
    "titles": {
      "qro": "Tsurupettan",
      "jpn": "つるぺったん"
    },
    "year": 2007,
    "titles_default_language": "qro"
  }
}