{
  "header": {
    "version": 4,
    "description": "Karaoke Mugen Karaoke Data File"
  },
  "medias": [
    {
      "version": "Default",
      "filename": "JPN - AAA - MV - Red Soul.mp4",
      "audiogain": -10.55,
      "loudnorm": "-7.53,1.18,4.50,-17.73,-1.11",
      "filesize": 30343554,
      "duration": 237,
      "default": true,
      "lyrics": [
        {
          "filename": "JPN - AAA - MV - Red Soul.ass",
          "default": true,
          "version": "Default"
        }
      ]
    }
  ],
  "data": {
    "created_at": "2019-10-26T19:54:28.000Z",
    "kid": "f64815d9-0ba4-4210-b29b-cbf1ed4cc4f9",
    "modified_at": "2022-06-04T00:13:10.807Z",
    "repository": "kara.moe",
    "songorder": null,
    "tags": {
      "authors": [
        "1db1738f-acdc-42fc-aec3-60f4bddf660d"
      ],
      "creators": [
        "90caf15e-bc86-46e1-8793-9af7906c8310"
      ],
      "families": [
        "5391f9fe-638c-415f-8dc9-958e3a2c5787"
      ],
      "groups": [
        "3c14c864-533c-49e6-a3cc-6969f1233775"
      ],
      "langs": [
        "4dcf9614-7914-42aa-99f4-dbce2e059133"
      ],
      "singers": [
        "5646881b-891d-424b-82db-fc2bde31d498"
      ],
      "songtypes": [
        "7be1b15c-cff8-4b37-a649-5c90f3d569a9"
      ],
      "songwriters": [
        "189151f1-99b6-4777-82ca-1b24cd8f4ef2",
        "da3cae77-dbb4-48b8-83c3-77da763a9148"
      ],
      "collections": [
        "dbcf2c22-524d-4708-99bb-601703633927"
      ]
    },
    "titles": {
      "eng": "Red Soul"
    },
    "titles_default_language": "eng",
    "title": "Red Soul",
    "year": 2007
  }
}