{
  "header": {
    "version": 4,
    "description": "Karaoke Mugen Karaoke Data File"
  },
  "medias": [
    {
      "version": "Default",
      "filename": "JPN - Gekijouban Pocket Monsters Mizu no Miyako no Mamorigami Latias to Latios - MOVIE AUDIO ED - Hitoribocchi Ja Nai.mp3",
      "audiogain": -9.3,
      "loudnorm": "-6.60,5.14,2.60,-16.65,-0.41",
      "filesize": 12892833,
      "duration": 270,
      "default": true,
      "lyrics": [
        {
          "filename": "JPN - Gekijouban Pocket Monsters Mizu no Miyako no Mamorigami Latias to Latios - MOVIE AUDIO ED - Hitoribocchi Ja Nai.ass",
          "default": true,
          "version": "Default",
          "subchecksum": "ebda7573c6f9b4417b0c4c64436e8ec1"
        }
      ]
    }
  ],
  "data": {
    "created_at": "2019-08-17T12:14:39.000Z",
    "kid": "0f6ff8bc-b750-4e4c-96ae-27c0feab4c0a",
    "modified_at": "2021-02-25T11:26:43.704Z",
    "repository": "kara.moe",
    "tags": {
      "authors": [
        "87096920-112f-485f-a310-04156cb4624d"
      ],
      "collections": [
        "c7db86a0-ff64-4044-9be4-66dd1ef1d1c1"
      ],
      "creators": [
        "03fe574b-c7f5-4520-96dc-47320c39e2cc"
      ],
      "families": [
        "0377db02-3af6-43b8-9b08-c759df3d25c3"
      ],
      "groups": [
        "3c14c864-533c-49e6-a3cc-6969f1233775",
        "60defa7b-774e-4680-8321-51b742c2e009"
      ],
      "langs": [
        "4dcf9614-7914-42aa-99f4-dbce2e059133"
      ],
      "origins": [
        "c8ca9dea-d8b4-48fe-8427-d911653232e9"
      ],
      "series": [
        "512384dc-7353-48fd-960b-4c24d7234018"
      ],
      "singers": [
        "00ee2fd3-85cc-4219-821f-17d5cc8e1f10",
        "951929ad-38a4-4448-90c4-35bafd522230"
      ],
      "songtypes": [
        "38c77c56-2b95-4040-b676-0994a8cb0597",
        "42a262ae-acba-4ab5-a446-c5789c96c821"
      ],
      "songwriters": [
        "00ee2fd3-85cc-4219-821f-17d5cc8e1f10",
        "951929ad-38a4-4448-90c4-35bafd522230"
      ],
      "franchises": [
        "c6923c03-f8c0-4258-a478-8dfa08f3ccd0"
      ]
    },
    "title": "Hitoribocchi Ja Nai",
    "titles": {
      "qro": "Hitoribocchi Ja Nai",
      "jpn": "ひとりぼっちじゃない"
    },
    "year": 2002,
    "titles_default_language": "qro"
  }
}