{
  "header": {
    "version": 4,
    "description": "Karaoke Mugen Karaoke Data File"
  },
  "medias": [
    {
      "version": "Default",
      "filename": "JPN - Kingdom Hearts 2 - GAME PS2 OP - Passion.mp4",
      "audiogain": -3.62,
      "loudnorm": "-13.73,-1.37,9.20,-24.08,-1.05",
      "filesize": 142260136,
      "duration": 286,
      "default": true,
      "lyrics": [
        {
          "filename": "JPN - Kingdom Hearts 2 - GAME PS2 OP - Passion.ass",
          "default": true,
          "version": "Default"
        }
      ]
    }
  ],
  "data": {
    "created_at": "2017-10-11T17:02:08.000Z",
    "kid": "d86c92ef-1f54-4051-b61d-075a86738157",
    "modified_at": "2021-11-26T21:38:24.562Z",
    "repository": "kara.moe",
    "tags": {
      "authors": [
        "05c1e4ad-32ba-490e-8f3c-5cd491c96d85"
      ],
      "collections": [
        "c7db86a0-ff64-4044-9be4-66dd1ef1d1c1"
      ],
      "creators": [
        "ac4a5180-97af-4679-adcd-70ab39919d48"
      ],
      "families": [
        "dbedd6b3-d125-4cd8-aa32-c4175e4ca3a3"
      ],
      "groups": [
        "3c14c864-533c-49e6-a3cc-6969f1233775"
      ],
      "langs": [
        "4dcf9614-7914-42aa-99f4-dbce2e059133"
      ],
      "platforms": [
        "2173004e-21da-45c9-9dfb-26014423c566"
      ],
      "series": [
        "9e85310f-8010-4e35-9720-e07ea961a7ee"
      ],
      "singers": [
        "41a9b640-40e6-4019-a55b-9bb0e858e0fc"
      ],
      "songtypes": [
        "f02ad9b3-0bd9-4aad-85b3-9976739ba0e4"
      ],
      "songwriters": [
        "41a9b640-40e6-4019-a55b-9bb0e858e0fc"
      ],
      "franchises": [
        "2fdcf090-923c-456c-b4bf-96449bcaecd0"
      ]
    },
    "titles": {
      "eng": "Passion"
    },
    "title": "Passion",
    "year": 2005,
    "titles_default_language": "eng"
  }
}