{
  "header": {
    "version": 4,
    "description": "Karaoke Mugen Karaoke Data File"
  },
  "medias": [
    {
      "version": "Default",
      "filename": "JPN - Natsuzora Kanata - GAME PC OP - Omoi no Kanata.mp4",
      "audiogain": -7.24,
      "loudnorm": "-9.99,0.87,10.00,-20.40,-1.45",
      "filesize": 27591063,
      "duration": 140,
      "default": true,
      "lyrics": [
        {
          "filename": "JPN - Natsuzora Kanata - GAME PC OP - Omoi no Kanata.ass",
          "default": true,
          "version": "Default"
        }
      ]
    }
  ],
  "data": {
    "created_at": "2022-07-31T18:38:15.113Z",
    "ignoreHooks": false,
    "kid": "6b83f273-9b84-4873-a221-bb3001b47a55",
    "modified_at": "2022-07-31T20:10:06.573Z",
    "repository": "kara.moe",
    "tags": {
      "authors": [
        "0e215115-ab1f-4416-b7db-cb86d3781e2c"
      ],
      "collections": [
        "c7db86a0-ff64-4044-9be4-66dd1ef1d1c1"
      ],
      "creators": [
        "7c0efcc0-47f4-4e99-af93-bac335bceac6"
      ],
      "families": [
        "dbedd6b3-d125-4cd8-aa32-c4175e4ca3a3"
      ],
      "groups": [
        "3c14c864-533c-49e6-a3cc-6969f1233775"
      ],
      "langs": [
        "4dcf9614-7914-42aa-99f4-dbce2e059133"
      ],
      "origins": [
        "2f96e82c-c61b-4413-817e-e6b247509b95"
      ],
      "platforms": [
        "3c15f758-e1bc-4266-8bb9-3c14112f504a"
      ],
      "series": [
        "c8f76ae2-4191-4061-8be5-c23977516f1b"
      ],
      "singers": [
        "062ef561-7717-4be5-9bee-60482f7bd3e5"
      ],
      "songtypes": [
        "f02ad9b3-0bd9-4aad-85b3-9976739ba0e4"
      ],
      "songwriters": [
        "062ef561-7717-4be5-9bee-60482f7bd3e5",
        "5c877fdf-4fb8-45b8-a331-f77b64ed435f",
        "8c5ab845-60f5-421d-b464-4e0c4286c3a3",
        "da12415d-ad92-42a8-ba7a-d104756bf2a9"
      ]
    },
    "titles": {
      "jpn": "想いのカナタ",
      "qro": "Omoi no Kanata"
    },
    "titles_default_language": "qro",
    "title": "Omoi no Kanata",
    "year": 2008
  }
}