{
  "header": {
    "version": 4,
    "description": "Karaoke Mugen Karaoke Data File"
  },
  "medias": [
    {
      "version": "Default",
      "filename": "JPN - Hatsune Miku ~ Project DIVA F 2nd - GAME IN - Hirari, Hirari.mp4",
      "audiogain": 0.73,
      "loudnorm": "-19.28,-6.77,9.10,-29.66,-1.44",
      "filesize": 86121066,
      "duration": 204,
      "default": true,
      "lyrics": [
        {
          "filename": "JPN - Hatsune Miku ~ Project DIVA F 2nd - GAME IN - Hirari, Hirari.ass",
          "default": true,
          "version": "Default"
        }
      ]
    }
  ],
  "data": {
    "created_at": "2017-10-11T17:01:53.000Z",
    "kid": "e7b6c1f0-ac97-4a91-962c-5063956b5c4e",
    "modified_at": "2021-12-28T20:38:01.548Z",
    "repository": "kara.moe",
    "tags": {
      "authors": [
        "5bdaba57-27f8-4568-8806-76a807728766"
      ],
      "collections": [
        "c7db86a0-ff64-4044-9be4-66dd1ef1d1c1"
      ],
      "creators": [
        "20b56382-518e-44f2-bcec-fe6ba945fba9",
        "b8a3778d-0864-4135-9053-1def02d3262e"
      ],
      "families": [
        "dbedd6b3-d125-4cd8-aa32-c4175e4ca3a3"
      ],
      "genres": [
        "45623cae-6d68-4304-a49b-896d1d6f4580"
      ],
      "groups": [
        "ae613721-1fbe-480d-ba6b-d6d0702b184d"
      ],
      "langs": [
        "4dcf9614-7914-42aa-99f4-dbce2e059133"
      ],
      "series": [
        "a22abd37-5fc3-49d9-8aef-9cda9851d992"
      ],
      "singers": [
        "4407ba0e-5de7-4add-870f-7ac95a4804c9"
      ],
      "songtypes": [
        "5e5250d9-351a-4a82-98eb-55db50ad8962"
      ],
      "songwriters": [
        "7f3a5e8c-1f1b-45c3-8ce1-4d22b682b2a7"
      ],
      "franchises": [
        "d28af18d-d544-4d0f-b955-99e6914230f2"
      ]
    },
    "titles": {
      "qro": "Hirari, Hirari",
      "jpn": "ひらり、ひらり"
    },
    "title": "Hirari, Hirari",
    "year": 2014,
    "titles_default_language": "qro"
  }
}