{
  "header": {
    "version": 4,
    "description": "Karaoke Mugen Karaoke Data File"
  },
  "medias": [
    {
      "version": "Default",
      "filename": "JPN - Bleach Heat The Soul 6 - PSP GAME OP - Koyoi, Tsuki ga Miezutomo.mp4",
      "audiogain": 0.77,
      "loudnorm": "-18.73,-8.48,2.20,-28.74,-0.34",
      "filesize": 27602635,
      "duration": 100,
      "default": true,
      "lyrics": [
        {
          "filename": "JPN - Bleach Heat The Soul 6 - PSP GAME OP - Koyoi, Tsuki ga Miezutomo.ass",
          "default": true,
          "version": "Default",
          "subchecksum": "ce90f00b5129db2bad3c58023186956f"
        }
      ]
    }
  ],
  "data": {
    "created_at": "2017-10-11T17:01:15.000Z",
    "kid": "40319431-bca4-4935-a55b-8a4cda550da0",
    "modified_at": "2021-02-25T10:54:58.109Z",
    "repository": "kara.moe",
    "tags": {
      "authors": [
        "5bdaba57-27f8-4568-8806-76a807728766"
      ],
      "collections": [
        "c7db86a0-ff64-4044-9be4-66dd1ef1d1c1"
      ],
      "creators": [
        "b1ae33fa-1a7e-43a9-ba5f-8d010963940c"
      ],
      "families": [
        "dbedd6b3-d125-4cd8-aa32-c4175e4ca3a3"
      ],
      "groups": [
        "3c14c864-533c-49e6-a3cc-6969f1233775"
      ],
      "langs": [
        "4dcf9614-7914-42aa-99f4-dbce2e059133"
      ],
      "platforms": [
        "6b101aff-4b7b-4b0d-b35e-0f1b67e38c9b"
      ],
      "series": [
        "6d2ad4da-d32d-41bd-a2ae-9c283ff3b4b0"
      ],
      "singers": [
        "a51def19-a639-4b1e-aea5-b4beee52c8a1"
      ],
      "songtypes": [
        "f02ad9b3-0bd9-4aad-85b3-9976739ba0e4"
      ],
      "songwriters": [
        "6a1aa24c-9bc9-4449-9f18-c7ab5f1ed59e",
        "a7353f69-3840-4d44-a07a-a1e12432f7bf"
      ],
      "franchises": [
        "d68e6557-fdc3-4c8b-805c-9778918abd03"
      ]
    },
    "title": "Koyoi, Tsuki ga Miezutomo",
    "titles": {
      "qro": "Koyoi, Tsuki ga Miezutomo",
      "jpn": "今宵、月が見えずとも"
    },
    "year": 2009,
    "titles_default_language": "qro"
  }
}