{
  "header": {
    "version": 4,
    "description": "Karaoke Mugen Karaoke Data File"
  },
  "medias": [
    {
      "version": "Default",
      "filename": "JPN - Ryuu to Sobakasu no Hime - MOVIE AUDIO ED - Hanare Banare no Kimi he (Reprise).mp3",
      "audiogain": -6.5,
      "loudnorm": "-11.93,-0.09,19.50,-23.53,-1.50",
      "filesize": 15807082,
      "duration": 387,
      "default": true,
      "lyrics": [
        {
          "filename": "JPN - Ryuu to Sobakasu no Hime - MOVIE AUDIO ED - Hanare Banare no Kimi he (Reprise).ass",
          "default": true,
          "version": "Default"
        }
      ]
    }
  ],
  "data": {
    "comment": "Parfait pour terminé un kara, faire ses adieux sur la partie instrumentale",
    "created_at": "2021-10-16T21:48:11.843Z",
    "ignoreHooks": false,
    "kid": "c763b6de-e1cf-4ef7-8213-380650d65427",
    "modified_at": "2022-07-10T13:12:43.460Z",
    "parents": [
      "a8b36361-d166-4ace-a0be-97f820045b5a"
    ],
    "repository": "kara.moe",
    "tags": {
      "authors": [
        "fa399f2f-ea1d-4902-8796-ea6d8218aff0"
      ],
      "collections": [
        "c7db86a0-ff64-4044-9be4-66dd1ef1d1c1"
      ],
      "creators": [
        "bf928417-f6e5-40f5-b766-2dc60713da9b"
      ],
      "families": [
        "0377db02-3af6-43b8-9b08-c759df3d25c3"
      ],
      "groups": [
        "8e209ae4-4381-438f-89dc-1b21752027d2"
      ],
      "langs": [
        "4dcf9614-7914-42aa-99f4-dbce2e059133"
      ],
      "misc": [
        "86705d4b-24e4-4756-9687-2b9c98bcf366"
      ],
      "origins": [
        "c8ca9dea-d8b4-48fe-8427-d911653232e9"
      ],
      "series": [
        "a030f9fb-d011-4170-a2a0-572462d11ffc"
      ],
      "singers": [
        "db8bd813-85d3-465f-8631-03fa755505f0"
      ],
      "songtypes": [
        "38c77c56-2b95-4040-b676-0994a8cb0597",
        "42a262ae-acba-4ab5-a446-c5789c96c821"
      ],
      "songwriters": [
        "33931761-d44b-48f2-8b1e-70a1a7f16b86",
        "c796f133-0b5b-42eb-b95a-0b196e23a8f0",
        "db8bd813-85d3-465f-8631-03fa755505f0"
      ]
    },
    "titles": {
      "eng": "A Million Miles Away (Reprise)",
      "jpn": "はなればなれの君へ（reprise）",
      "qro": "Hanare Banare no Kimi he (Reprise)",
      "fre": "À l'Infini"
    },
    "titles_default_language": "qro",
    "title": "Hanare Banare no Kimi he (Reprise)",
    "year": 2021
  }
}