{
  "header": {
    "version": 4,
    "description": "Karaoke Mugen Karaoke Data File"
  },
  "medias": [
    {
      "version": "Default",
      "filename": "JPN - Gintama - OP5 - Donten.mp4",
      "audiogain": 0,
      "loudnorm": "-16.97,-8.57,1.60,-27.12,-0.02",
      "filesize": 16548602,
      "duration": 91,
      "default": true,
      "lyrics": [
        {
          "filename": "JPN - Gintama - OP5 - Donten.ass",
          "default": true,
          "version": "Default"
        }
      ]
    }
  ],
  "data": {
    "created_at": "2017-10-11T17:01:44.000Z",
    "kid": "9b761d14-a323-4837-b373-6081f4347354",
    "modified_at": "2021-07-25T19:08:24.158Z",
    "repository": "kara.moe",
    "songorder": 5,
    "tags": {
      "authors": [
        "5bdaba57-27f8-4568-8806-76a807728766"
      ],
      "collections": [
        "c7db86a0-ff64-4044-9be4-66dd1ef1d1c1"
      ],
      "creators": [
        "ef8f80e1-d244-4aea-b7f0-984d6dd4b82b"
      ],
      "families": [
        "0377db02-3af6-43b8-9b08-c759df3d25c3"
      ],
      "genres": [
        "a0aeef4a-6428-45ff-a6e1-468b595930c2"
      ],
      "groups": [
        "3c14c864-533c-49e6-a3cc-6969f1233775",
        "9a8e0fbc-dcae-4989-be82-7cad3436f1f5"
      ],
      "langs": [
        "4dcf9614-7914-42aa-99f4-dbce2e059133"
      ],
      "origins": [
        "938de218-5343-4865-94d3-fb33f2eaa152"
      ],
      "series": [
        "0433ab0b-74bb-4837-8f1b-fd17a9e0c526"
      ],
      "singers": [
        "5becaf86-0668-478d-8491-57fc1daa0be6"
      ],
      "songtypes": [
        "f02ad9b3-0bd9-4aad-85b3-9976739ba0e4"
      ],
      "songwriters": [
        "089124d2-27ba-41e1-9589-943dce3f676c"
      ],
      "franchises": [
        "0433ab0b-74bb-4837-8f1b-fd17a9e0c526"
      ]
    },
    "title": "Donten",
    "titles": {
      "qro": "Donten",
      "jpn": "曇天"
    },
    "year": 2006,
    "titles_default_language": "qro"
  }
}