{
  "header": {
    "version": 4,
    "description": "Karaoke Mugen Karaoke Data File"
  },
  "medias": [
    {
      "version": "Default",
      "filename": "JPN - Imouto Paradise! Onii-chan to 5nin no Imouto no Ecchi Shimakuri na Mainichi - GAME OP - Imouto Paradise.mp4",
      "audiogain": -11.06,
      "loudnorm": "-7.47,1.43,4.60,-17.72,0.05",
      "filesize": 85462649,
      "duration": 114,
      "default": true,
      "lyrics": [
        {
          "filename": "JPN - Imouto Paradise! Onii-chan to 5nin no Imouto no Ecchi Shimakuri na Mainichi - GAME OP - Imouto Paradise.ass",
          "default": true,
          "version": "Default"
        }
      ]
    }
  ],
  "data": {
    "created_at": "2017-10-11T17:01:43.000Z",
    "ignoreHooks": false,
    "kid": "db5d6613-d894-412a-8687-72565a2cbf78",
    "modified_at": "2022-10-01T09:54:57.763Z",
    "repository": "kara.moe",
    "tags": {
      "authors": [
        "5bdaba57-27f8-4568-8806-76a807728766"
      ],
      "collections": [
        "c7db86a0-ff64-4044-9be4-66dd1ef1d1c1"
      ],
      "creators": [
        "708d2d78-4cd2-4138-82d3-c83856ea8f44"
      ],
      "families": [
        "dbedd6b3-d125-4cd8-aa32-c4175e4ca3a3"
      ],
      "groups": [
        "ae613721-1fbe-480d-ba6b-d6d0702b184d"
      ],
      "langs": [
        "4dcf9614-7914-42aa-99f4-dbce2e059133"
      ],
      "origins": [
        "2f96e82c-c61b-4413-817e-e6b247509b95"
      ],
      "series": [
        "a66910ca-a50a-41b5-9d4a-642e32ccc361"
      ],
      "singers": [
        "b782c135-8632-4766-b5b6-50359d77cfd8"
      ],
      "songtypes": [
        "f02ad9b3-0bd9-4aad-85b3-9976739ba0e4"
      ],
      "songwriters": [
        "b30ea78d-3c67-45e3-ba4d-090af1da49b3",
        "b782c135-8632-4766-b5b6-50359d77cfd8"
      ],
      "warnings": [
        "e82ce681-6d7b-4fb6-abe4-daa8aaa9bbf9"
      ]
    },
    "titles": {
      "jpn": "妹なんだもん!",
      "qro": "Imôto Paradise"
    },
    "titles_default_language": "qro",
    "titles_aliases": [
      "Imouto"
    ],
    "title": "Imôto Paradise",
    "year": 2010
  }
}