{
  "header": {
    "version": 4,
    "description": "Karaoke Mugen Karaoke Data File"
  },
  "medias": [
    {
      "version": "Default",
      "filename": "JPN - Battle Spirits Double Drive - ED - FRIEND WIND.mp4",
      "audiogain": 7.47,
      "loudnorm": "-24.90,-16.72,3.50,-34.95,-0.64",
      "filesize": 30634499,
      "duration": 90,
      "default": true,
      "lyrics": [
        {
          "filename": "JPN - Battle Spirits Double Drive - ED - FRIEND WIND.ass",
          "default": true,
          "version": "Default",
          "subchecksum": "a3f94bc5e4339d6288d052722336d29d"
        }
      ]
    }
  ],
  "data": {
    "created_at": "2018-10-15T19:29:08.000Z",
    "kid": "d3db6067-f914-4fd3-894c-a18a56a5c0f1",
    "modified_at": "2021-02-25T10:51:13.670Z",
    "repository": "kara.moe",
    "tags": {
      "authors": [
        "b5116310-e69b-4ed4-9e47-c5c53ee69023"
      ],
      "collections": [
        "c7db86a0-ff64-4044-9be4-66dd1ef1d1c1"
      ],
      "creators": [
        "4d17b0cf-92fd-4ab3-8035-8a260a772e51"
      ],
      "families": [
        "0377db02-3af6-43b8-9b08-c759df3d25c3"
      ],
      "groups": [
        "ae613721-1fbe-480d-ba6b-d6d0702b184d"
      ],
      "langs": [
        "4dcf9614-7914-42aa-99f4-dbce2e059133"
      ],
      "origins": [
        "938de218-5343-4865-94d3-fb33f2eaa152"
      ],
      "series": [
        "d9f64698-9f8b-408e-b2d7-1c4a07616610"
      ],
      "singers": [
        "b26322d9-d2d0-4b1b-8f03-741878378ccb"
      ],
      "songtypes": [
        "38c77c56-2b95-4040-b676-0994a8cb0597"
      ],
      "songwriters": [
        "2171ee13-d4af-4a9c-8d59-dc098b4d3669",
        "fa3664f7-1633-471a-bffb-9f814b3b58d1"
      ],
      "franchises": [
        "284091bf-c7bb-47e8-a662-3cb33c883357"
      ]
    },
    "title": "FRIEND WIND",
    "titles": {
      "eng": "FRIEND WIND",
      "qro": "FRIEND WIND"
    },
    "year": 2016,
    "titles_default_language": "eng"
  }
}