{
  "header": {
    "version": 4,
    "description": "Karaoke Mugen Karaoke Data File"
  },
  "medias": [
    {
      "version": "Default",
      "filename": "JPN - Urusei Yatsura (2022) - OP1 - aiue.mp4",
      "audiogain": -4.8,
      "loudnorm": "-13.15,-3.15,5.20,-23.36,-1.29",
      "filesize": 65047183,
      "duration": 90,
      "default": true,
      "lyrics": [
        {
          "filename": "JPN - Urusei Yatsura (2022) - OP1 - aiue.ass",
          "default": true,
          "version": "Default"
        }
      ]
    }
  ],
  "data": {
    "created_at": "2022-10-13T19:08:36.430Z",
    "ignoreHooks": false,
    "kid": "98911be2-d830-438b-a85e-aba0557c3798",
    "modified_at": "2022-10-13T21:05:50.185Z",
    "repository": "kara.moe",
    "songorder": 1,
    "tags": {
      "authors": [
        "06852e02-b77e-4106-b6f7-2d03942ad0ea"
      ],
      "collections": [
        "c7db86a0-ff64-4044-9be4-66dd1ef1d1c1"
      ],
      "creators": [
        "31087ed3-5edd-4d32-8379-ab70bf5db185"
      ],
      "families": [
        "0377db02-3af6-43b8-9b08-c759df3d25c3"
      ],
      "groups": [
        "8e209ae4-4381-438f-89dc-1b21752027d2"
      ],
      "langs": [
        "4dcf9614-7914-42aa-99f4-dbce2e059133"
      ],
      "misc": [
        "fe819ff1-9db8-4a0f-85dc-0e322c9126c4"
      ],
      "origins": [
        "938de218-5343-4865-94d3-fb33f2eaa152"
      ],
      "series": [
        "08379702-f5a0-40ae-8bf9-cc680d30b10b"
      ],
      "singers": [
        "d6dec49a-04e3-4fa6-86e8-d4bb8f911f52"
      ],
      "songtypes": [
        "f02ad9b3-0bd9-4aad-85b3-9976739ba0e4"
      ],
      "songwriters": [
        "3ef86e24-a0f2-40fb-a9fc-31fb18c6e653",
        "bbcb98c4-2b9d-4796-9ec7-e621d8ce56e7"
      ],
      "franchises": [
        "586300dc-7488-4530-8d86-e7db5e474dec"
      ]
    },
    "titles": {
      "jpn": "アイウエ",
      "qro": "aiue"
    },
    "titles_default_language": "qro",
    "title": "aiue",
    "year": 2022
  }
}