{
  "header": {
    "version": 4,
    "description": "Karaoke Mugen Karaoke Data File"
  },
  "medias": [
    {
      "version": "Default",
      "filename": "JPN - Taishou x Alice - GAME AUDIO CS - WONDERLAND ~ Short Vers.mp3",
      "audiogain": -7.05,
      "loudnorm": "-10.57,0.86,5.30,-20.81,-0.45",
      "filesize": 4881207,
      "duration": 110,
      "default": true,
      "lyrics": [
        {
          "filename": "JPN - Taishou x Alice - GAME AUDIO CS - WONDERLAND ~ Short Vers.ass",
          "default": true,
          "version": "Default"
        }
      ]
    }
  ],
  "data": {
    "created_at": "2023-01-02T14:17:32.121Z",
    "ignoreHooks": false,
    "kid": "5c55ed76-03a4-440b-96c0-4d287f9908d8",
    "modified_at": "2023-01-02T14:24:13.897Z",
    "repository": "kara.moe",
    "tags": {
      "authors": [
        "0c8a5287-3954-48ce-b8ad-3d54e54bf96e"
      ],
      "collections": [
        "c7db86a0-ff64-4044-9be4-66dd1ef1d1c1"
      ],
      "creators": [
        "5924d8a4-45d1-49a8-bc7e-f54c717d3523"
      ],
      "families": [
        "dbedd6b3-d125-4cd8-aa32-c4175e4ca3a3"
      ],
      "groups": [
        "ae613721-1fbe-480d-ba6b-d6d0702b184d"
      ],
      "langs": [
        "4dcf9614-7914-42aa-99f4-dbce2e059133"
      ],
      "origins": [
        "2f96e82c-c61b-4413-817e-e6b247509b95",
        "7025ae3c-7bd6-4787-8912-2c15063343bb"
      ],
      "series": [
        "1488db78-b71c-435d-a146-394d95bbae6d"
      ],
      "singers": [
        "9f92bc10-114d-4a64-bcc8-4fe23adcef8d"
      ],
      "songtypes": [
        "a8a2616c-b5a1-4df3-ad6f-89291bc67dee",
        "42a262ae-acba-4ab5-a446-c5789c96c821"
      ],
      "songwriters": [
        "5ca2bb94-8691-4e68-82e5-8125fe3fed08",
        "a973c9f2-1fd4-45b0-bda5-119f7c931727"
      ],
      "versions": [
        "d125c80a-86c1-4321-88e9-07b7800679b6"
      ],
      "franchises": [
        "84dac0a7-6eb4-4be8-a779-66e8d6c0ca75"
      ]
    },
    "titles": {
      "eng": "WONDERLAND"
    },
    "titles_default_language": "eng",
    "year": 2016
  }
}