{
  "header": {
    "version": 4,
    "description": "Karaoke Mugen Karaoke Data File"
  },
  "medias": [
    {
      "version": "Default",
      "filename": "JPN - Hoshi no Kirby - ED2 - Kirby Step!.mp4",
      "audiogain": 5.37,
      "loudnorm": "-23.27,-7.43,2.10,-33.28,-0.13",
      "filesize": 10127736,
      "duration": 86,
      "default": true,
      "lyrics": [
        {
          "filename": "JPN - Hoshi no Kirby - ED2 - Kirby Step!.ass",
          "default": true,
          "version": "Default",
          "subchecksum": "108927277a95f0830d9ff4d42b97b28d"
        }
      ]
    }
  ],
  "data": {
    "created_at": "2017-10-11T17:01:53.000Z",
    "kid": "f0541f98-2474-49f4-afc2-ac7770f4c6f7",
    "modified_at": "2021-02-25T11:43:27.156Z",
    "repository": "kara.moe",
    "songorder": 2,
    "tags": {
      "authors": [
        "a5dbab74-510b-48c5-9cea-5a537a81c974"
      ],
      "collections": [
        "c7db86a0-ff64-4044-9be4-66dd1ef1d1c1"
      ],
      "creators": [
        "3bf68723-1622-47e3-ac15-66ce49858915"
      ],
      "families": [
        "0377db02-3af6-43b8-9b08-c759df3d25c3"
      ],
      "groups": [
        "3c14c864-533c-49e6-a3cc-6969f1233775",
        "8c22c899-b3ed-42da-a548-ce00f950798b"
      ],
      "langs": [
        "4dcf9614-7914-42aa-99f4-dbce2e059133"
      ],
      "origins": [
        "938de218-5343-4865-94d3-fb33f2eaa152"
      ],
      "series": [
        "f5b1ef4e-b62d-45d2-b12f-35bfd509789b"
      ],
      "singers": [
        "2683796d-814e-47e7-8851-b67651cf025e"
      ],
      "songtypes": [
        "38c77c56-2b95-4040-b676-0994a8cb0597"
      ],
      "songwriters": [
        "09eac285-c398-451b-869d-a2a2242e41fc",
        "b95df6dd-de05-4d12-a6a1-31c1014d0ac6"
      ]
    },
    "title": "Kirby Step!",
    "titles": {
      "qro": "Kirby Step!",
      "jpn": "カービィ☆ステップ!"
    },
    "year": 2001,
    "titles_default_language": "qro"
  }
}