{
  "header": {
    "version": 4,
    "description": "Karaoke Mugen Karaoke Data File"
  },
  "medias": [
    {
      "version": "Default",
      "filename": "JPN - Yuuki Yuuna wa Yuusha de Aru - ED1 - Aurora Days.mp4",
      "audiogain": 6.57,
      "loudnorm": "-24.20,-13.19,4.40,-34.27,-1.38",
      "filesize": 16683750,
      "duration": 90,
      "default": true,
      "lyrics": [
        {
          "filename": "JPN - Yuuki Yuuna wa Yuusha de Aru - ED1 - Aurora Days.ass",
          "default": true,
          "version": "Default",
          "subchecksum": "f42944fb0e3dcd7efb49d4940a893e68"
        }
      ]
    }
  ],
  "data": {
    "created_at": "2018-06-18T19:40:28.000Z",
    "kid": "1ccb3f43-a353-41b6-bd90-dbce02058646",
    "modified_at": "2021-02-25T13:43:45.695Z",
    "repository": "kara.moe",
    "songorder": 1,
    "tags": {
      "authors": [
        "a8c01ef9-8d77-4736-ab5d-b3cf664f1dca"
      ],
      "collections": [
        "c7db86a0-ff64-4044-9be4-66dd1ef1d1c1"
      ],
      "creators": [
        "7226816c-fb45-4f3a-bd39-7f4f616553bf"
      ],
      "families": [
        "0377db02-3af6-43b8-9b08-c759df3d25c3"
      ],
      "groups": [
        "8c22c899-b3ed-42da-a548-ce00f950798b",
        "ae613721-1fbe-480d-ba6b-d6d0702b184d"
      ],
      "langs": [
        "4dcf9614-7914-42aa-99f4-dbce2e059133"
      ],
      "origins": [
        "938de218-5343-4865-94d3-fb33f2eaa152"
      ],
      "series": [
        "f57709e6-ded9-43e0-b72f-f5e5cca8382a"
      ],
      "singers": [
        "1f449de8-ba1a-4d99-9393-7589b72b68f0",
        "4fc68333-b1f6-44ce-b2be-ac4866b78932",
        "6d7de60e-01e1-4b9d-905e-a0a1e90237cb",
        "fbbfcd25-2f98-4f94-9b7b-cef201df2859"
      ],
      "songtypes": [
        "38c77c56-2b95-4040-b676-0994a8cb0597"
      ],
      "songwriters": [
        "445d6e5a-3503-4837-8830-d54f911e77c4",
        "ead196cc-e1e3-43a4-8804-dd4199e89c4e"
      ],
      "franchises": [
        "f57709e6-ded9-43e0-b72f-f5e5cca8382a"
      ]
    },
    "title": "Aurora Days",
    "titles": {
      "eng": "Aurora Days"
    },
    "year": 2014,
    "titles_default_language": "eng"
  }
}