{
  "header": {
    "version": 4,
    "description": "Karaoke Mugen Karaoke Data File"
  },
  "medias": [
    {
      "version": "Default",
      "filename": "JPN - Utsusemi no Meguri - PSV GAME OP - Shukumei no Kusabi.mp4",
      "audiogain": -9.33,
      "loudnorm": "-8.25,2.32,8.90,-18.50,-2.07",
      "filesize": 36878361,
      "duration": 165,
      "default": true,
      "lyrics": [
        {
          "filename": "JPN - Utsusemi no Meguri - PSV GAME OP - Shukumei no Kusabi.ass",
          "default": true,
          "version": "Default",
          "subchecksum": "d87dd2ff645b534621a0a680fd54abc4"
        }
      ]
    }
  ],
  "data": {
    "created_at": "2018-11-13T18:33:21.000Z",
    "kid": "2019cba9-adc0-4c7f-95b6-4905464a1219",
    "modified_at": "2021-02-25T13:34:51.354Z",
    "repository": "kara.moe",
    "tags": {
      "authors": [
        "2a9bbf75-0722-4b4a-9935-caa92f38fdd1"
      ],
      "collections": [
        "c7db86a0-ff64-4044-9be4-66dd1ef1d1c1"
      ],
      "creators": [
        "0ce59611-a0cc-45b5-8ca4-c70acdbc7661"
      ],
      "families": [
        "dbedd6b3-d125-4cd8-aa32-c4175e4ca3a3"
      ],
      "groups": [
        "ae613721-1fbe-480d-ba6b-d6d0702b184d"
      ],
      "langs": [
        "4dcf9614-7914-42aa-99f4-dbce2e059133"
      ],
      "origins": [
        "2f96e82c-c61b-4413-817e-e6b247509b95",
        "7025ae3c-7bd6-4787-8912-2c15063343bb"
      ],
      "platforms": [
        "e791f168-068f-4c05-aa36-e8d63726aa06"
      ],
      "series": [
        "4f147233-08b9-46b8-a6e1-45fa01453594"
      ],
      "singers": [
        "3b97f60d-23e3-4e23-bf7f-9835bba682a7"
      ],
      "songtypes": [
        "f02ad9b3-0bd9-4aad-85b3-9976739ba0e4"
      ],
      "songwriters": [
        "fb0de310-f93e-4c93-a501-506052a66d38"
      ]
    },
    "title": "Shukumei no Kusabi",
    "titles": {
      "qro": "Shukumei no Kusabi",
      "jpn": "宿命の楔"
    },
    "year": 2017,
    "titles_default_language": "qro"
  }
}