{
  "header": {
    "version": 4,
    "description": "Karaoke Mugen Karaoke Data File"
  },
  "medias": [
    {
      "version": "Default",
      "filename": "JPN - Nier Automata Ver1.1a - OP1 - escalate.mp4",
      "audiogain": -5.72,
      "loudnorm": "-10.93,-2.42,6.30,-21.00,-1.88",
      "filesize": 26211728,
      "duration": 90,
      "default": true,
      "lyrics": [
        {
          "filename": "JPN - Nier Automata Ver1.1a - OP1 - escalate.ass",
          "default": true,
          "version": "Default"
        }
      ]
    }
  ],
  "data": {
    "created_at": "2023-01-08T14:25:54.537Z",
    "ignoreHooks": false,
    "kid": "9d8ee448-99c5-462d-80c7-21b565f23fb7",
    "modified_at": "2023-01-08T14:39:06.988Z",
    "repository": "kara.moe",
    "songorder": 1,
    "tags": {
      "authors": [
        "10891649-d475-46eb-b515-8eb3c1e14622"
      ],
      "collections": [
        "c7db86a0-ff64-4044-9be4-66dd1ef1d1c1"
      ],
      "creators": [
        "b96e3686-bbe0-4b9e-815a-a278d5ff31be"
      ],
      "families": [
        "0377db02-3af6-43b8-9b08-c759df3d25c3"
      ],
      "groups": [
        "8e209ae4-4381-438f-89dc-1b21752027d2"
      ],
      "langs": [
        "4dcf9614-7914-42aa-99f4-dbce2e059133"
      ],
      "misc": [
        "fe819ff1-9db8-4a0f-85dc-0e322c9126c4"
      ],
      "origins": [
        "938de218-5343-4865-94d3-fb33f2eaa152"
      ],
      "series": [
        "87893f5f-8bcb-45d6-b9cf-a5482c529990"
      ],
      "singers": [
        "6cfc20ab-c855-4f24-8bed-0981e465630b"
      ],
      "songtypes": [
        "f02ad9b3-0bd9-4aad-85b3-9976739ba0e4"
      ],
      "songwriters": [
        "68890898-72a2-44a1-bdfc-f9c9d9c03899",
        "85bc43be-6735-4311-92cf-51d910321691"
      ],
      "franchises": [
        "c1316bef-8063-4d9b-ae4f-3fbd68424764"
      ]
    },
    "titles": {
      "eng": "escalate"
    },
    "titles_default_language": "eng",
    "year": 2023
  }
}