{
  "header": {
    "version": 4,
    "description": "Karaoke Mugen Karaoke Data File"
  },
  "medias": [
    {
      "version": "Makoto, Miki & Yukiho.",
      "filename": "JPN - THE iDOLM@STER Stella Stage - GAME PS4 IN - Agent Yoru wo Yuku ~ Makoto, Miki & Yukiho Vers. ~ Alternative Vers.mp4",
      "audiogain": 3.38,
      "loudnorm": "-22.65,-9.04,10.00,-33.41,-1.57",
      "filesize": 147585690,
      "duration": 136,
      "default": true,
      "lyrics": [
        {
          "filename": "JPN - THE iDOLM@STER Stella Stage - GAME PS4 IN - Agent Yoru wo Yuku ~ Makoto, Miki & Yukiho Vers. ~ Alternative Vers.ass",
          "default": true,
          "version": "Default"
        }
      ]
    }
  ],
  "data": {
    "created_at": "2017-10-11T17:03:15.000Z",
    "ignoreHooks": false,
    "kid": "302b05b5-1cd1-475a-8296-f0a4cdf6baee",
    "modified_at": "2022-03-24T14:47:42.919Z",
    "repository": "kara.moe",
    "tags": {
      "authors": [
        "fa399f2f-ea1d-4902-8796-ea6d8218aff0"
      ],
      "collections": [
        "c7db86a0-ff64-4044-9be4-66dd1ef1d1c1"
      ],
      "creators": [
        "c3e622d4-2686-4331-8691-d528c8647088"
      ],
      "families": [
        "dbedd6b3-d125-4cd8-aa32-c4175e4ca3a3"
      ],
      "genres": [
        "caa86df2-0d59-474b-885c-f240a9e891b0"
      ],
      "groups": [
        "ae613721-1fbe-480d-ba6b-d6d0702b184d"
      ],
      "langs": [
        "4dcf9614-7914-42aa-99f4-dbce2e059133"
      ],
      "platforms": [
        "248d92ee-8c02-43bc-86e2-cc6029883564"
      ],
      "series": [
        "92f4eeb7-8d3a-49cd-b44f-fc579dd43bf1"
      ],
      "singers": [
        "1479a024-81fb-47b3-8990-02964fbda606",
        "51abb542-01b4-4267-821e-56c07d9a2705",
        "cf4351d6-7a21-41cf-ac5e-0601fc673915"
      ],
      "songtypes": [
        "5e5250d9-351a-4a82-98eb-55db50ad8962"
      ],
      "songwriters": [
        "fb6660d1-83ad-4dca-974e-fd7ba5a5744c"
      ],
      "versions": [
        "9f63c359-d1bf-425a-bcf5-b245c2c9211d"
      ],
      "franchises": [
        "d34ceea8-7d7c-4d85-9213-18d24d2b7666"
      ]
    },
    "titles": {
      "qro": "Agent Yoru wo Yuku ~ Makoto, Miki & Yukiho Vers.",
      "jpn": "エージェント夜を往く~ 地真, 美希 & 雪歩 Vers."
    },
    "titles_default_language": "qro",
    "title": "Agent Yoru wo Yuku ~ Makoto, Miki & Yukiho Vers.",
    "year": 2017
  }
}