{
  "header": {
    "version": 4,
    "description": "Karaoke Mugen Karaoke Data File"
  },
  "medias": [
    {
      "version": "Default",
      "filename": "JPN - Soukyuu no Fafner Dead Aggressor - LIVE - Separation ~ Full Vers.mp4",
      "audiogain": -9.22,
      "loudnorm": "-8.30,1.57,6.70,-18.52,-0.89",
      "filesize": 26656060,
      "duration": 293,
      "default": true,
      "lyrics": [
        {
          "filename": "JPN - Soukyuu no Fafner Dead Aggressor - LIVE - Separation ~ Full Vers.ass",
          "default": true,
          "version": "Default"
        }
      ]
    }
  ],
  "data": {
    "created_at": "2019-07-21T15:20:32.000Z",
    "ignoreHooks": false,
    "kid": "90a61bf8-7bb9-4166-849b-9be53846a9e0",
    "modified_at": "2022-12-21T22:36:34.517Z",
    "parents": [
      "48114594-fab3-4c98-b902-054d7c27ad21"
    ],
    "repository": "kara.moe",
    "tags": {
      "authors": [
        "57e2d8c3-b3f3-4b82-88a4-2491946b24d9"
      ],
      "collections": [
        "dbcf2c22-524d-4708-99bb-601703633927"
      ],
      "creators": [
        "0e26434a-c89a-4366-85b5-9e5c4b7d4195"
      ],
      "families": [
        "5391f9fe-638c-415f-8dc9-958e3a2c5787"
      ],
      "groups": [
        "2b4e9972-5e17-481b-99f5-d0787c0ada56",
        "3c14c864-533c-49e6-a3cc-6969f1233775"
      ],
      "langs": [
        "4dcf9614-7914-42aa-99f4-dbce2e059133"
      ],
      "series": [
        "9f12b43c-04d5-4f45-a0b0-a35453f51b0c"
      ],
      "singers": [
        "78d91182-ac66-49fb-9561-1d330667d6c4"
      ],
      "songtypes": [
        "a0167949-580c-4de3-bf13-497e462e02f3"
      ],
      "songwriters": [
        "0b54e69d-4691-4415-be0e-0dd6fd5d4e1a",
        "84a20b00-fd06-43fd-b78e-9c1a2b7b7795"
      ],
      "versions": [
        "c2143a7f-6970-450e-8a79-0302db9220a9"
      ],
      "franchises": [
        "9f12b43c-04d5-4f45-a0b0-a35453f51b0c"
      ]
    },
    "titles": {
      "eng": "Separation"
    },
    "titles_default_language": "eng",
    "year": 2004
  }
}