{
  "header": {
    "version": 4,
    "description": "Karaoke Mugen Karaoke Data File"
  },
  "medias": [
    {
      "version": "Default",
      "filename": "JPN - Dengeki Stryker - PC GAME OP - Burst Dream.mp4",
      "audiogain": -9.33,
      "loudnorm": "-7.64,0.47,2.40,-17.85,0.09",
      "filesize": 15874037,
      "duration": 115,
      "default": true,
      "lyrics": [
        {
          "filename": "JPN - Dengeki Stryker - PC GAME OP - Burst Dream.ass",
          "default": true,
          "version": "Default",
          "subchecksum": "d2728356191157bca278b0fee144c79f"
        }
      ]
    }
  ],
  "data": {
    "created_at": "2017-10-11T17:02:38.000Z",
    "kid": "e4e02385-b8a9-4760-b26b-d37b7bc23f55",
    "modified_at": "2021-02-25T11:08:29.282Z",
    "repository": "kara.moe",
    "tags": {
      "authors": [
        "5bdaba57-27f8-4568-8806-76a807728766"
      ],
      "collections": [
        "c7db86a0-ff64-4044-9be4-66dd1ef1d1c1"
      ],
      "creators": [
        "bee6c892-7231-4234-a663-b495453e26eb"
      ],
      "families": [
        "dbedd6b3-d125-4cd8-aa32-c4175e4ca3a3"
      ],
      "groups": [
        "ae613721-1fbe-480d-ba6b-d6d0702b184d"
      ],
      "langs": [
        "4dcf9614-7914-42aa-99f4-dbce2e059133"
      ],
      "origins": [
        "2f96e82c-c61b-4413-817e-e6b247509b95"
      ],
      "platforms": [
        "3c15f758-e1bc-4266-8bb9-3c14112f504a"
      ],
      "series": [
        "da0dd558-4b4c-47ba-bc17-02b3ef634ec6"
      ],
      "singers": [
        "331793cb-f1c3-4be7-a765-ab7fc5801031"
      ],
      "songtypes": [
        "f02ad9b3-0bd9-4aad-85b3-9976739ba0e4"
      ],
      "songwriters": [
        "cfe94ae6-073a-44a8-866e-3d98ec1e7af6"
      ]
    },
    "title": "Burst Dream",
    "titles": {
      "eng": "Burst Dream"
    },
    "year": 2011,
    "titles_default_language": "eng"
  }
}