{
  "header": {
    "version": 4,
    "description": "Karaoke Mugen Karaoke Data File"
  },
  "medias": [
    {
      "version": "Default",
      "filename": "JPN - Hentai Kamen - MOVIE ED - Emotions.mp4",
      "audiogain": -4.39,
      "loudnorm": "-13.22,-0.57,7.20,-23.30,-1.08",
      "filesize": 36373601,
      "duration": 258,
      "default": true,
      "lyrics": [
        {
          "filename": "JPN - Hentai Kamen - MOVIE ED - Emotions.ass",
          "default": true,
          "version": "Default",
          "subchecksum": "a57a98aa58ba889efc1815ebf30670b2"
        }
      ]
    }
  ],
  "data": {
    "created_at": "2017-10-11T17:01:50.000Z",
    "kid": "572655de-1c90-429f-801a-849b54c03a95",
    "modified_at": "2021-02-25T11:39:51.736Z",
    "repository": "kara.moe",
    "tags": {
      "authors": [
        "c1d13047-c6ce-4772-a06d-1808fd3d0476"
      ],
      "collections": [
        "c7db86a0-ff64-4044-9be4-66dd1ef1d1c1"
      ],
      "creators": [
        "e32b14df-502b-45fa-9ca5-37554a63a4d7"
      ],
      "families": [
        "5391f9fe-638c-415f-8dc9-958e3a2c5787"
      ],
      "groups": [
        "ae613721-1fbe-480d-ba6b-d6d0702b184d"
      ],
      "langs": [
        "4dcf9614-7914-42aa-99f4-dbce2e059133"
      ],
      "origins": [
        "c8ca9dea-d8b4-48fe-8427-d911653232e9"
      ],
      "series": [
        "ab1840a3-7218-484e-98fb-312eb6903ae0"
      ],
      "singers": [
        "814943f5-30aa-4229-b2ed-120f25825b27"
      ],
      "songtypes": [
        "38c77c56-2b95-4040-b676-0994a8cb0597"
      ],
      "songwriters": [
        "3dde98ed-a3a6-473d-8fd2-3dd81eb92b26",
        "6cb0e364-b9d2-4fa9-8dfb-98b095c7ac47"
      ]
    },
    "title": "Emotions",
    "titles": {
      "eng": "Emotions"
    },
    "year": 2013,
    "titles_default_language": "eng"
  }
}