{
  "header": {
    "version": 4,
    "description": "Karaoke Mugen Karaoke Data File"
  },
  "medias": [
    {
      "version": "Default",
      "filename": "JPN - THE iDOLM@STER Million Live! Theater Days - GAME MV - Chou Genki Show Idol ch@ng! ~ Short Vers.mp4",
      "audiogain": -0.37,
      "loudnorm": "-18.27,-5.99,4.70,-28.41,-1.11",
      "filesize": 101562432,
      "duration": 126,
      "default": true,
      "lyrics": [
        {
          "filename": "JPN - THE iDOLM@STER Million Live! Theater Days - GAME MV - Chou Genki Show Idol ch@ng! ~ Short Vers.ass",
          "default": true,
          "version": "Default"
        }
      ]
    }
  ],
  "data": {
    "created_at": "2022-11-20T16:45:18.779Z",
    "ignoreHooks": false,
    "kid": "5f990932-7281-4c6b-9681-330fd8eeedfb",
    "modified_at": "2022-11-20T16:49:23.053Z",
    "repository": "kara.moe",
    "tags": {
      "authors": [
        "2941868f-535f-4ea6-99f9-a0192e0e4dc7"
      ],
      "collections": [
        "c7db86a0-ff64-4044-9be4-66dd1ef1d1c1"
      ],
      "creators": [
        "c3e622d4-2686-4331-8691-d528c8647088"
      ],
      "families": [
        "dbedd6b3-d125-4cd8-aa32-c4175e4ca3a3"
      ],
      "genres": [
        "caa86df2-0d59-474b-885c-f240a9e891b0"
      ],
      "groups": [
        "ae613721-1fbe-480d-ba6b-d6d0702b184d"
      ],
      "langs": [
        "4dcf9614-7914-42aa-99f4-dbce2e059133"
      ],
      "platforms": [
        "213a1a15-e73a-4a08-b3f6-b6e2745a82e5"
      ],
      "series": [
        "07474742-fb4f-46d6-9140-1545b637f33c"
      ],
      "singers": [
        "f0ad8a12-d02a-4038-ab77-626270577968"
      ],
      "songtypes": [
        "7be1b15c-cff8-4b37-a649-5c90f3d569a9"
      ],
      "songwriters": [
        "014d4eb9-a34c-4534-923d-122aa6033635",
        "2171ee13-d4af-4a9c-8d59-dc098b4d3669"
      ],
      "versions": [
        "d125c80a-86c1-4321-88e9-07b7800679b6"
      ],
      "franchises": [
        "d34ceea8-7d7c-4d85-9213-18d24d2b7666"
      ]
    },
    "titles": {
      "jpn": "チョー↑元気Show☆アイドルch@ng！",
      "qro": "Chô↑Genki Show☆Idol ch@ng!"
    },
    "titles_default_language": "qro",
    "titles_aliases": [
      "chang",
      "Super Energy",
      "Chou↑Genki"
    ],
    "year": 2013
  }
}