{
  "header": {
    "version": 4,
    "description": "Karaoke Mugen Karaoke Data File"
  },
  "medias": [
    {
      "version": "Default",
      "filename": "JPN - Milky Queen, Mori Calliope - MV - Usseewa ~ Cover Vers.mp4",
      "audiogain": -9.27,
      "loudnorm": "-8.51,1.81,2.40,-18.58,-0.25",
      "filesize": 100622822,
      "duration": 203,
      "default": true,
      "lyrics": [
        {
          "filename": "JPN - Milky Queen, Mori Calliope - MV - Usseewa ~ Cover Vers.ass",
          "default": true,
          "version": "Default"
        }
      ]
    }
  ],
  "data": {
    "created_at": "2021-12-28T22:06:55.718Z",
    "kid": "a8fa51ef-4f09-48f9-81ba-8415c5bae24a",
    "modified_at": "2021-12-28T22:08:28.742Z",
    "parents": [
      "22caaf65-868b-427a-89fd-79fd6f9fc6b2"
    ],
    "repository": "kara.moe",
    "tags": {
      "authors": [
        "84157b43-8a7a-482c-95d3-516757353835"
      ],
      "collections": [
        "c7db86a0-ff64-4044-9be4-66dd1ef1d1c1"
      ],
      "creators": [
        "0263d413-17bb-4cee-a311-6dd896eda1c9"
      ],
      "families": [
        "0377db02-3af6-43b8-9b08-c759df3d25c3"
      ],
      "groups": [
        "8e209ae4-4381-438f-89dc-1b21752027d2"
      ],
      "langs": [
        "4dcf9614-7914-42aa-99f4-dbce2e059133"
      ],
      "origins": [
        "5106d71b-a78e-4d19-a16d-f8fb6719538a"
      ],
      "singers": [
        "c4cd517c-9219-4757-9d66-0ffb56c754f9",
        "d94daf68-c421-4140-82da-b16b29968391"
      ],
      "songtypes": [
        "7be1b15c-cff8-4b37-a649-5c90f3d569a9"
      ],
      "songwriters": [
        "13c686dd-4df8-4056-a46a-39ba871cba8b"
      ],
      "versions": [
        "03e1e1d2-8641-47b7-bbcb-39a3df9ff21c"
      ]
    },
    "titles": {
      "qro": "Usseewa",
      "jpn": "うっせぇわ"
    },
    "title": "Usseewa",
    "year": 2021,
    "titles_default_language": "qro"
  }
}