{
  "header": {
    "version": 4,
    "description": "Karaoke Mugen Karaoke Data File"
  },
  "medias": [
    {
      "version": "Default",
      "filename": "JPN - .hack LIMINALITY - OVA OP4 - Kioku.mp4",
      "audiogain": -3.23,
      "loudnorm": "-15.97,-2.34,5.10,-25.97,-1.63",
      "filesize": 68127793,
      "duration": 88,
      "default": true,
      "lyrics": [
        {
          "filename": "JPN - .hack LIMINALITY - OVA OP4 - Kioku.ass",
          "default": true,
          "version": "Default",
          "subchecksum": "763d02d2cc3965796737f88fa858d5a3"
        }
      ]
    }
  ],
  "data": {
    "created_at": "2020-04-13T18:47:38.312Z",
    "kid": "6c8afaf4-38bf-4811-b66f-38efa5226aec",
    "modified_at": "2021-02-25T10:34:12.569Z",
    "repository": "kara.moe",
    "songorder": 4,
    "tags": {
      "authors": [
        "60defa7b-774e-4680-8321-51b742c2e009"
      ],
      "collections": [
        "c7db86a0-ff64-4044-9be4-66dd1ef1d1c1"
      ],
      "creators": [
        "53c428f6-4ad6-464f-8529-40e7b9941c7f"
      ],
      "families": [
        "0377db02-3af6-43b8-9b08-c759df3d25c3"
      ],
      "genres": [
        "4b80eca6-f44f-4262-a8d0-b6879d6b70cb"
      ],
      "groups": [
        "3c14c864-533c-49e6-a3cc-6969f1233775",
        "60defa7b-774e-4680-8321-51b742c2e009"
      ],
      "langs": [
        "4dcf9614-7914-42aa-99f4-dbce2e059133"
      ],
      "origins": [
        "2a6ef087-a000-4f8e-aeb5-9a7968756a36"
      ],
      "series": [
        "4a584ffd-1305-4f01-abf2-780dc6efbf64"
      ],
      "singers": [
        "50b2bf9a-d450-4581-ac86-008363e7d459"
      ],
      "songtypes": [
        "f02ad9b3-0bd9-4aad-85b3-9976739ba0e4"
      ],
      "songwriters": [
        "1f324dc7-f858-415b-bbc1-41fcce3d6ac7"
      ],
      "franchises": [
        "62bc5729-026d-408d-b6f5-534df49f73da"
      ]
    },
    "title": "Kioku",
    "titles": {
      "qro": "Kioku",
      "jpn": "記憶"
    },
    "year": 2003,
    "titles_default_language": "qro"
  }
}