{
  "header": {
    "version": 4,
    "description": "Karaoke Mugen Karaoke Data File"
  },
  "medias": [
    {
      "version": "Default",
      "filename": "JPN - Dies irae ~Interview with Kaziklu Bey~ - PC GAME OP - Der Vampir.mp4",
      "audiogain": -8.74,
      "loudnorm": "-7.52,0.91,1.90,-17.65,-0.23",
      "filesize": 21257594,
      "duration": 110,
      "default": true,
      "lyrics": [
        {
          "filename": "JPN - Dies irae ~Interview with Kaziklu Bey~ - PC GAME OP - Der Vampir.ass",
          "default": true,
          "version": "Default",
          "subchecksum": "d02fa669ee3162b437ff437e7de93052"
        }
      ]
    }
  ],
  "data": {
    "created_at": "2019-05-12T15:35:03.000Z",
    "kid": "024d9a05-e274-4c05-a36b-266a6d04b911",
    "modified_at": "2021-02-25T11:09:44.873Z",
    "repository": "kara.moe",
    "tags": {
      "authors": [
        "affbc2db-10d5-4c51-b2f6-61686dfbc1b1"
      ],
      "collections": [
        "c7db86a0-ff64-4044-9be4-66dd1ef1d1c1"
      ],
      "creators": [
        "90ec4be5-ad81-4de7-ab1e-9b3ca9f080b7"
      ],
      "families": [
        "dbedd6b3-d125-4cd8-aa32-c4175e4ca3a3"
      ],
      "groups": [
        "ae613721-1fbe-480d-ba6b-d6d0702b184d"
      ],
      "langs": [
        "4dcf9614-7914-42aa-99f4-dbce2e059133"
      ],
      "origins": [
        "2f96e82c-c61b-4413-817e-e6b247509b95"
      ],
      "platforms": [
        "3c15f758-e1bc-4266-8bb9-3c14112f504a"
      ],
      "series": [
        "421a6ce7-e1eb-41a8-92f9-dfe752aa036b"
      ],
      "singers": [
        "b26b49e2-d439-48b3-8c0f-c7c25648c48a"
      ],
      "songtypes": [
        "f02ad9b3-0bd9-4aad-85b3-9976739ba0e4"
      ],
      "songwriters": [
        "b26b49e2-d439-48b3-8c0f-c7c25648c48a",
        "bb97f4a8-5942-4ab1-97e0-62c46384aa4e"
      ],
      "franchises": [
        "9c56c3e7-34f6-4aa5-900c-655a84744264"
      ]
    },
    "title": "Der Vampir",
    "titles": {
      "ger": "Der Vampir"
    },
    "year": 2016,
    "titles_default_language": "ger"
  }
}