{
  "header": {
    "version": 4,
    "description": "Karaoke Mugen Karaoke Data File"
  },
  "medias": [
    {
      "version": "Default",
      "filename": "JPN - Yue - MV - Tsuki ga Michiru.mp4",
      "audiogain": -0.59,
      "loudnorm": "-17.07,-3.63,6.00,-27.18,0.36",
      "filesize": 23156207,
      "duration": 206,
      "default": true,
      "lyrics": [
        {
          "filename": "JPN - Yue - MV - Tsuki ga Michiru.ass",
          "default": true,
          "version": "Default"
        }
      ]
    }
  ],
  "data": {
    "created_at": "2022-10-04T16:06:08.566Z",
    "ignoreHooks": false,
    "kid": "3ed1ee4f-b828-4d81-9ee9-4b43c3d3b230",
    "modified_at": "2022-10-04T16:06:54.465Z",
    "repository": "kara.moe",
    "tags": {
      "authors": [
        "278c6742-0b75-43dd-b317-2ea112952b4a"
      ],
      "collections": [
        "dbcf2c22-524d-4708-99bb-601703633927"
      ],
      "creators": [
        "9afbaa2f-169d-4cf0-b8f5-07749156e736"
      ],
      "families": [
        "0377db02-3af6-43b8-9b08-c759df3d25c3"
      ],
      "groups": [
        "8c22c899-b3ed-42da-a548-ce00f950798b",
        "ae613721-1fbe-480d-ba6b-d6d0702b184d"
      ],
      "langs": [
        "4dcf9614-7914-42aa-99f4-dbce2e059133"
      ],
      "singers": [
        "9ce7061e-a722-499b-a3bd-154fc22cad77"
      ],
      "songtypes": [
        "7be1b15c-cff8-4b37-a649-5c90f3d569a9"
      ],
      "songwriters": [
        "2682f2a6-dc4b-4a48-b3df-87cf02bfbcfb",
        "b3ada1f2-ca72-49c8-8a31-06df2a512285",
        "eec1b815-ee7f-447d-a696-5121dc4a4a18"
      ]
    },
    "titles": {
      "eng": "Sing The Moon",
      "jpn": "月が満ちる",
      "qro": "Tsuki ga Michiru"
    },
    "titles_default_language": "qro",
    "title": "Tsuki ga Michiru",
    "year": 2017
  }
}