{
  "header": {
    "version": 4,
    "description": "Karaoke Mugen Karaoke Data File"
  },
  "medias": [
    {
      "version": "Default",
      "filename": "JPN - Naruto Shippuuden - OP9 - Lovers.mp4",
      "audiogain": -10.82,
      "loudnorm": "-6.95,1.78,4.10,-17.05,-0.53",
      "filesize": 32775215,
      "duration": 90,
      "default": true,
      "lyrics": [
        {
          "filename": "JPN - Naruto Shippuuden - OP9 - Lovers.ass",
          "default": true,
          "version": "Default",
          "subchecksum": "3de1454be4395294285575bbc4ab8441"
        }
      ]
    }
  ],
  "data": {
    "created_at": "2017-10-11T17:00:58.000Z",
    "kid": "ee30802d-aa8f-4110-9bf2-ccf4446e7500",
    "modified_at": "2021-02-25T12:34:27.931Z",
    "repository": "kara.moe",
    "songorder": 9,
    "tags": {
      "authors": [
        "faa8becc-83b6-45d9-a3d0-a4c2c8b336c8"
      ],
      "collections": [
        "c7db86a0-ff64-4044-9be4-66dd1ef1d1c1"
      ],
      "creators": [
        "aaff4ba6-9a12-4bac-9bd0-c0cb783e4177"
      ],
      "families": [
        "0377db02-3af6-43b8-9b08-c759df3d25c3"
      ],
      "genres": [
        "a0aeef4a-6428-45ff-a6e1-468b595930c2"
      ],
      "groups": [
        "3c14c864-533c-49e6-a3cc-6969f1233775",
        "8c22c899-b3ed-42da-a548-ce00f950798b"
      ],
      "langs": [
        "4dcf9614-7914-42aa-99f4-dbce2e059133"
      ],
      "misc": [
        "fe819ff1-9db8-4a0f-85dc-0e322c9126c4"
      ],
      "origins": [
        "938de218-5343-4865-94d3-fb33f2eaa152"
      ],
      "series": [
        "afd38f79-188d-47e4-95c6-f74c38895574"
      ],
      "singers": [
        "97f8ece1-00dc-4a82-8489-04726fa0ccb1"
      ],
      "songtypes": [
        "f02ad9b3-0bd9-4aad-85b3-9976739ba0e4"
      ],
      "songwriters": [
        "04c5de8b-e6f4-4bf1-85c9-630fbf9d6ecc",
        "4d4a1bd8-92ea-4eb9-88ea-5b6e69acc3d5"
      ],
      "franchises": [
        "3201e723-3e75-46f9-bb21-d991f4f7731e"
      ]
    },
    "title": "Lovers",
    "titles": {
      "eng": "Lovers",
      "jpn": "ラヴァーズ"
    },
    "year": 2007,
    "titles_default_language": "eng"
  }
}