{
  "header": {
    "version": 4,
    "description": "Karaoke Mugen Karaoke Data File"
  },
  "medias": [
    {
      "version": "Default",
      "filename": "JPN - PriPara - OP7 - Ready Smile!!.mp4",
      "audiogain": 4.36,
      "loudnorm": "-21.93,-5.96,2.60,-32.01,-0.11",
      "filesize": 92288079,
      "duration": 92,
      "default": true,
      "lyrics": [
        {
          "filename": "JPN - PriPara - OP7 - Ready Smile!!.ass",
          "default": true,
          "version": "Default"
        }
      ]
    }
  ],
  "data": {
    "created_at": "2021-10-11T09:41:21.990Z",
    "ignoreHooks": false,
    "kid": "a81487ba-b98c-435e-a0cb-4f9c39efac74",
    "modified_at": "2022-10-23T15:54:54.534Z",
    "repository": "kara.moe",
    "songorder": 7,
    "tags": {
      "authors": [
        "79e0aa7d-da9a-4e9a-aa2b-64056a83b49b"
      ],
      "collections": [
        "c7db86a0-ff64-4044-9be4-66dd1ef1d1c1"
      ],
      "creators": [
        "cfdb2d1e-499d-47a1-b9f8-070153b5048e"
      ],
      "families": [
        "0377db02-3af6-43b8-9b08-c759df3d25c3"
      ],
      "genres": [
        "caa86df2-0d59-474b-885c-f240a9e891b0"
      ],
      "groups": [
        "ae613721-1fbe-480d-ba6b-d6d0702b184d"
      ],
      "langs": [
        "4dcf9614-7914-42aa-99f4-dbce2e059133"
      ],
      "misc": [
        "fe819ff1-9db8-4a0f-85dc-0e322c9126c4"
      ],
      "origins": [
        "938de218-5343-4865-94d3-fb33f2eaa152"
      ],
      "series": [
        "4aa91989-cff1-48eb-9f5e-d4ae773d3122"
      ],
      "singers": [
        "50ace48d-4f9f-47e6-894d-5d66c9fd2014",
        "5d3e8ad0-0315-423b-a6cf-4ebed7ad5093",
        "7e4bddde-27db-412b-b37d-678d367864af",
        "8f4dc795-4e05-4e8f-a5fc-61e45e229402",
        "92adbbb5-d77d-4ab5-9ea6-81cb0f04800a",
        "ccf6ab16-cd54-4031-a2c3-b67242b54518"
      ],
      "singergroups": [
        "d1824d3d-fe54-4fea-b529-355f7b6517f7"
      ],
      "songtypes": [
        "f02ad9b3-0bd9-4aad-85b3-9976739ba0e4"
      ],
      "songwriters": [
        "25ff1805-c080-4568-82bd-09fb7676665a",
        "445d6e5a-3503-4837-8830-d54f911e77c4"
      ],
      "franchises": [
        "2a2f00e6-f77a-426b-8611-ecc4cfeecd14"
      ]
    },
    "titles": {
      "eng": "Ready Smile!!"
    },
    "titles_default_language": "eng",
    "title": "Ready Smile!!",
    "year": 2016
  }
}