{
  "header": {
    "version": 4,
    "description": "Karaoke Mugen Karaoke Data File"
  },
  "medias": [
    {
      "version": "Default",
      "filename": "JPN - Fake ~unreality~ - PC GAME OP1 - Watashi-wa Miko-san Cupid.mp4",
      "audiogain": 0,
      "loudnorm": "-17.22,-6.50,2.90,-27.37,-0.53",
      "filesize": 6214709,
      "duration": 109,
      "default": true,
      "lyrics": [
        {
          "filename": "JPN - Fake ~unreality~ - PC GAME OP1 - Watashi-wa Miko-san Cupid.ass",
          "default": true,
          "version": "Default",
          "subchecksum": "629399dc757f1e50e289a59887a8f83f"
        }
      ]
    }
  ],
  "data": {
    "created_at": "2020-12-30T12:15:40.609Z",
    "kid": "3cedc66f-0095-4048-9bf3-4c602df63e67",
    "modified_at": "2021-02-25T11:17:47.604Z",
    "repository": "kara.moe",
    "songorder": 1,
    "tags": {
      "authors": [
        "a5dbab74-510b-48c5-9cea-5a537a81c974"
      ],
      "collections": [
        "c7db86a0-ff64-4044-9be4-66dd1ef1d1c1"
      ],
      "creators": [
        "2ee43295-17b8-4843-8b72-189aa7faf491"
      ],
      "families": [
        "dbedd6b3-d125-4cd8-aa32-c4175e4ca3a3"
      ],
      "groups": [
        "3c14c864-533c-49e6-a3cc-6969f1233775",
        "8c22c899-b3ed-42da-a548-ce00f950798b"
      ],
      "langs": [
        "4dcf9614-7914-42aa-99f4-dbce2e059133"
      ],
      "origins": [
        "2f96e82c-c61b-4413-817e-e6b247509b95"
      ],
      "platforms": [
        "3c15f758-e1bc-4266-8bb9-3c14112f504a"
      ],
      "series": [
        "b22b9465-9fe9-43ba-8aee-81955492d50a"
      ],
      "singers": [
        "73f68c8e-266c-41b1-b1ee-f51db7be7363"
      ],
      "songtypes": [
        "f02ad9b3-0bd9-4aad-85b3-9976739ba0e4"
      ],
      "songwriters": [
        "6561df56-9df7-49b3-a01a-58595cf9a697",
        "6b469883-82b3-4fa3-8b2b-c374aab91f81",
        "de740ed8-2737-45e7-8dba-71b7d9d441d4"
      ]
    },
    "title": "Watashi-wa Miko-san Cupid",
    "titles": {
      "qro": "Watashi-wa Miko-san Cupid",
      "jpn": "私は巫女さんキューピット"
    },
    "year": 2003,
    "titles_default_language": "qro"
  }
}