{
  "header": {
    "version": 4,
    "description": "Karaoke Mugen Karaoke Data File"
  },
  "medias": [
    {
      "version": "Default",
      "filename": "JPN - Touhou - REMIX MV - Jive at the Graveyard.mp4",
      "audiogain": -10.56,
      "loudnorm": "-6.18,0.93,1.60,-16.26,-0.21",
      "filesize": 68662749,
      "duration": 181,
      "default": true,
      "lyrics": [
        {
          "filename": "JPN - Touhou - REMIX MV - Jive at the Graveyard.ass",
          "default": true,
          "version": "Default"
        }
      ]
    }
  ],
  "data": {
    "created_at": "2022-10-10T20:14:08.767Z",
    "ignoreHooks": false,
    "kid": "d92f5425-fd19-40c5-9fd1-28ff7d731a8d",
    "modified_at": "2022-10-10T21:02:04.218Z",
    "repository": "kara.moe",
    "tags": {
      "authors": [
        "1fbfef73-6731-40df-ba51-65a54b9d1605"
      ],
      "collections": [
        "c7db86a0-ff64-4044-9be4-66dd1ef1d1c1"
      ],
      "creators": [
        "ca654b25-30b5-4054-a2c0-35028fdcae22"
      ],
      "families": [
        "0377db02-3af6-43b8-9b08-c759df3d25c3"
      ],
      "groups": [
        "ae613721-1fbe-480d-ba6b-d6d0702b184d"
      ],
      "langs": [
        "4dcf9614-7914-42aa-99f4-dbce2e059133"
      ],
      "misc": [
        "ec4360fa-3e3c-4f6f-b0e1-fb8b12b6dd18"
      ],
      "origins": [
        "ac5085db-52d8-44b4-8fbb-1697b24d2046"
      ],
      "series": [
        "1bdaa5a1-dfa6-4365-b746-7a0b194dafd6"
      ],
      "singers": [
        "7339f837-69b2-4b50-b2e6-a77c5061c563"
      ],
      "songtypes": [
        "7be1b15c-cff8-4b37-a649-5c90f3d569a9"
      ],
      "songwriters": [
        "23351848-e3cc-4420-b564-db2bfe2b7f3d",
        "26cb5252-8510-49e0-897c-a611a05fc056",
        "7339f837-69b2-4b50-b2e6-a77c5061c563"
      ],
      "franchises": [
        "1bdaa5a1-dfa6-4365-b746-7a0b194dafd6"
      ]
    },
    "titles": {
      "eng": "Jive at the Graveyard"
    },
    "titles_default_language": "eng",
    "title": "Jive at the Graveyard",
    "year": 2013
  }
}