{
  "header": {
    "version": 4,
    "description": "Karaoke Mugen Karaoke Data File"
  },
  "medias": [
    {
      "version": "Default",
      "filename": "JPN - MILGRAM - MV - HARROW ~ Off Vocal Vers.mp4",
      "audiogain": -4.36,
      "loudnorm": "-11.95,0.06,3.50,-22.06,-0.48",
      "filesize": 96422402,
      "duration": 213,
      "default": true,
      "lyrics": [
        {
          "filename": "JPN - MILGRAM - MV - HARROW ~ Off Vocal Vers.ass",
          "default": true,
          "version": "Default"
        }
      ]
    }
  ],
  "data": {
    "created_at": "2021-11-29T20:13:18.032Z",
    "kid": "58bc5be8-5c76-43d0-9961-6454653363f2",
    "modified_at": "2022-04-01T19:46:50.029Z",
    "parents": [
      "f46f6d3b-f017-48c0-ac41-cebc4e95d385"
    ],
    "repository": "kara.moe",
    "tags": {
      "authors": [
        "fb28c6d3-a81e-40c0-9a4c-e3268c60a64b"
      ],
      "creators": [
        "f963181a-1214-47f8-b6f9-1705cbc33779"
      ],
      "families": [
        "0377db02-3af6-43b8-9b08-c759df3d25c3"
      ],
      "groups": [
        "8e209ae4-4381-438f-89dc-1b21752027d2"
      ],
      "langs": [
        "4dcf9614-7914-42aa-99f4-dbce2e059133"
      ],
      "series": [
        "c0e3120a-d593-4051-87dd-0bc28a803a5f"
      ],
      "singers": [
        "360a527f-69b3-47e2-b028-d2b176bfaaa2"
      ],
      "songtypes": [
        "7be1b15c-cff8-4b37-a649-5c90f3d569a9"
      ],
      "songwriters": [
        "48c8a778-756b-4ca8-80bc-397fb06ffc7d",
        "6d9eaa90-048f-41d5-a264-8d73df69cc22"
      ],
      "versions": [
        "c0cc87b9-55b9-40f0-878a-fbb9e34c151e"
      ],
      "collections": [
        "c7db86a0-ff64-4044-9be4-66dd1ef1d1c1"
      ]
    },
    "titles": {
      "eng": "HARROW"
    },
    "year": 2021,
    "titles_default_language": "eng"
  }
}