{
  "header": {
    "version": 4,
    "description": "Karaoke Mugen Karaoke Data File"
  },
  "medias": [
    {
      "version": "Default",
      "filename": "JPN - ZUTOMAYO - LIVE - MIRROR TUNE ~ Full Vers.mp4",
      "audiogain": -7.57,
      "loudnorm": "-9.92,-1.74,3.20,-20.01,-0.24",
      "filesize": 164084838,
      "duration": 254,
      "default": true,
      "lyrics": [
        {
          "filename": "JPN - ZUTOMAYO - LIVE - MIRROR TUNE ~ Full Vers.ass",
          "default": true,
          "version": "Default"
        }
      ]
    }
  ],
  "data": {
    "created_at": "2022-08-25T20:50:01.060Z",
    "ignoreHooks": false,
    "kid": "2a903cc3-fa6a-4fb6-adcc-8800e788ebfe",
    "modified_at": "2022-12-21T22:36:30.813Z",
    "parents": [
      "747036e6-8cff-48c4-b976-40195bcc8f5c"
    ],
    "repository": "kara.moe",
    "tags": {
      "authors": [
        "13ddf327-ecde-4c6c-9452-a43fb71db7ab",
        "90698f28-1d62-4673-82c4-33ae96b1ba97"
      ],
      "collections": [
        "dbcf2c22-524d-4708-99bb-601703633927"
      ],
      "creators": [
        "ac881130-138c-46ef-b65e-c078971cfcda"
      ],
      "families": [
        "5391f9fe-638c-415f-8dc9-958e3a2c5787"
      ],
      "groups": [
        "8e209ae4-4381-438f-89dc-1b21752027d2"
      ],
      "langs": [
        "4dcf9614-7914-42aa-99f4-dbce2e059133"
      ],
      "singers": [
        "d3f693d0-7d45-465e-82ed-a6723c600008"
      ],
      "singergroups": [
        "c7d361f6-c1cf-44b2-b40a-a18aa90f2d8f"
      ],
      "songtypes": [
        "a0167949-580c-4de3-bf13-497e462e02f3"
      ],
      "songwriters": [
        "c7d361f6-c1cf-44b2-b40a-a18aa90f2d8f",
        "c83db176-81d3-42fe-bd43-daaa2790da33"
      ],
      "versions": [
        "c2143a7f-6970-450e-8a79-0302db9220a9"
      ],
      "warnings": [
        "51288600-29e0-4e41-a42b-77f0498e5691"
      ]
    },
    "titles": {
      "eng": "MIRROR TUNE",
      "jpn": "ミラーチューン"
    },
    "titles_default_language": "eng",
    "year": 2022
  }
}