{
  "header": {
    "description": "Karaoke Mugen Karaoke Data File",
    "version": 4
  },
  "medias": [
    {
      "version": "Default",
      "filename": "JPN - Touhou - AUDIO - Shin Burning Tensoku Z.mp3",
      "audiogain": -10.98,
      "loudnorm": "-5.85,0.99,3.70,-15.91,-1.04",
      "filesize": 10261464,
      "duration": 277,
      "default": true,
      "lyrics": [
        {
          "filename": "JPN - Touhou - AUDIO - Shin Burning Tensoku Z.ass",
          "default": true,
          "version": "Default"
        }
      ]
    }
  ],
  "data": {
    "created_at": "2022-02-28T10:54:07.873Z",
    "kid": "7531c60c-6028-44a4-a923-491566eccc1f",
    "modified_at": "2022-02-28T10:54:07.873Z",
    "tags": {
      "authors": [
        "db867b9b-f487-444d-9f24-142c4324a235"
      ],
      "collections": [
        "c7db86a0-ff64-4044-9be4-66dd1ef1d1c1"
      ],
      "creators": [
        "ca654b25-30b5-4054-a2c0-35028fdcae22"
      ],
      "groups": [
        "ae613721-1fbe-480d-ba6b-d6d0702b184d"
      ],
      "langs": [
        "4dcf9614-7914-42aa-99f4-dbce2e059133"
      ],
      "misc": [
        "1d6ceadf-a885-47e5-b23b-c07bf668a424"
      ],
      "series": [
        "1bdaa5a1-dfa6-4365-b746-7a0b194dafd6"
      ],
      "singers": [
        "6668cc52-b622-41d7-b7b7-24d48a08045c",
        "7339f837-69b2-4b50-b2e6-a77c5061c563"
      ],
      "songtypes": [
        "42a262ae-acba-4ab5-a446-c5789c96c821"
      ],
      "songwriters": [
        "7339f837-69b2-4b50-b2e6-a77c5061c563",
        "23351848-e3cc-4420-b564-db2bfe2b7f3d",
        "26cb5252-8510-49e0-897c-a611a05fc056"
      ],
      "franchises": [
        "1bdaa5a1-dfa6-4365-b746-7a0b194dafd6"
      ]
    },
    "titles": {
      "qro": "Shin･Burning Tensoku Z",
      "jpn": "真･バーニングテンソクＺ"
    },
    "titles_aliases": [],
    "title": "Shin Burning Tensoku Z",
    "year": "2012",
    "repository": "kara.moe",
    "titles_default_language": "qro"
  }
}