{
  "header": {
    "version": 4,
    "description": "Karaoke Mugen Karaoke Data File"
  },
  "medias": [
    {
      "version": "Default",
      "filename": "JPN - Kill la Kill - OP1 - Sirius.mp4",
      "audiogain": 1.1,
      "loudnorm": "-18.65,-10.26,3.20,-28.79,-0.47",
      "filesize": 51339820,
      "duration": 92,
      "default": true,
      "lyrics": [
        {
          "filename": "JPN - Kill la Kill - OP1 - Sirius.ass",
          "default": true,
          "version": "Default",
          "subchecksum": "e4ede473123d2d00b3c17ca8593cc9e9"
        }
      ]
    }
  ],
  "data": {
    "created_at": "2017-10-11T17:02:47.000Z",
    "kid": "8c32a514-1576-460d-8c47-0848a4e00b59",
    "modified_at": "2021-04-28T14:30:43.050Z",
    "repository": "kara.moe",
    "songorder": 1,
    "tags": {
      "authors": [
        "5bdaba57-27f8-4568-8806-76a807728766"
      ],
      "collections": [
        "c7db86a0-ff64-4044-9be4-66dd1ef1d1c1"
      ],
      "creators": [
        "9a515ca0-48ae-4ded-ac8f-3cccc586794a"
      ],
      "families": [
        "0377db02-3af6-43b8-9b08-c759df3d25c3"
      ],
      "groups": [
        "ae613721-1fbe-480d-ba6b-d6d0702b184d"
      ],
      "langs": [
        "4dcf9614-7914-42aa-99f4-dbce2e059133"
      ],
      "origins": [
        "938de218-5343-4865-94d3-fb33f2eaa152"
      ],
      "series": [
        "e199c7dd-79e2-4483-9531-1f2ce7d009f4"
      ],
      "singers": [
        "7f76a2db-a80e-44af-9495-fdb584fa748c"
      ],
      "songtypes": [
        "f02ad9b3-0bd9-4aad-85b3-9976739ba0e4"
      ],
      "songwriters": [
        "81d493c9-3353-40d4-b94d-7fa42d3b4229",
        "cd8a4990-bf8b-4771-9e46-e2680a368211"
      ]
    },
    "title": "Sirius",
    "titles": {
      "eng": "Sirius",
      "jpn": "シリウサ"
    },
    "year": 2013,
    "titles_default_language": "eng"
  }
}