{
  "header": {
    "version": 4,
    "description": "Karaoke Mugen Karaoke Data File"
  },
  "medias": [
    {
      "version": "Default",
      "filename": "JPN - Touhou - AMV - Chiisana Koi no Uta.mp4",
      "audiogain": -8.06,
      "loudnorm": "-9.02,0.51,5.10,-19.07,-1.36",
      "filesize": 16748317,
      "duration": 222,
      "default": true,
      "lyrics": [
        {
          "filename": "JPN - Touhou - AMV - Chiisana Koi no Uta.ass",
          "default": true,
          "version": "Default"
        }
      ]
    }
  ],
  "data": {
    "created_at": "2019-09-07T21:17:03.000Z",
    "kid": "90395352-1379-4ea4-925f-fe03bd29b268",
    "modified_at": "2021-12-29T23:39:03.922Z",
    "parents": [
      "bcd28b0e-b7a9-4cc1-9690-c3f5fdff4196"
    ],
    "repository": "kara.moe",
    "tags": {
      "authors": [
        "269d1464-84f9-44da-9064-1d074bafb602"
      ],
      "collections": [
        "c7db86a0-ff64-4044-9be4-66dd1ef1d1c1"
      ],
      "families": [
        "0377db02-3af6-43b8-9b08-c759df3d25c3"
      ],
      "groups": [
        "2b4e9972-5e17-481b-99f5-d0787c0ada56",
        "3c14c864-533c-49e6-a3cc-6969f1233775"
      ],
      "langs": [
        "4dcf9614-7914-42aa-99f4-dbce2e059133"
      ],
      "origins": [
        "ac5085db-52d8-44b4-8fbb-1697b24d2046"
      ],
      "series": [
        "1bdaa5a1-dfa6-4365-b746-7a0b194dafd6"
      ],
      "singers": [
        "29f62e20-759c-459b-adb5-64d83979b380"
      ],
      "songtypes": [
        "a6c79ce5-89ee-4d50-afe8-3abd7317f6c2"
      ],
      "songwriters": [
        "29f62e20-759c-459b-adb5-64d83979b380",
        "c90ba668-3198-49df-ace2-32d42a90b3ec"
      ],
      "franchises": [
        "1bdaa5a1-dfa6-4365-b746-7a0b194dafd6"
      ]
    },
    "titles": {
      "qro": "Chiisana Koi no Uta",
      "jpn": "小さな恋のうた"
    },
    "title": "Chiisana Koi no Uta",
    "year": 2001,
    "titles_default_language": "qro"
  }
}