{
  "header": {
    "version": 4,
    "description": "Karaoke Mugen Karaoke Data File"
  },
  "medias": [
    {
      "version": "Default",
      "filename": "JPN - Gekijouban Kara no Kyoukai The Garden of Sinners - MV - Seventh Heaven.mp4",
      "audiogain": -2.64,
      "loudnorm": "-15.55,-1.07,17.10,-26.68,-1.72",
      "filesize": 22692375,
      "duration": 383,
      "default": true,
      "lyrics": [
        {
          "filename": "JPN - Gekijouban Kara no Kyoukai The Garden of Sinners - MV - Seventh Heaven.ass",
          "default": true,
          "version": "Default"
        }
      ]
    }
  ],
  "data": {
    "created_at": "2020-07-16T17:38:32.044Z",
    "kid": "738f8db0-962f-4710-870d-14a79b00ecb8",
    "modified_at": "2022-06-04T00:22:11.849Z",
    "repository": "kara.moe",
    "songorder": null,
    "tags": {
      "authors": [
        "60defa7b-774e-4680-8321-51b742c2e009"
      ],
      "creators": [
        "6fa9de67-21cf-420b-9ddb-57edb5abe523"
      ],
      "families": [
        "5391f9fe-638c-415f-8dc9-958e3a2c5787"
      ],
      "groups": [
        "3c14c864-533c-49e6-a3cc-6969f1233775",
        "60defa7b-774e-4680-8321-51b742c2e009"
      ],
      "langs": [
        "4dcf9614-7914-42aa-99f4-dbce2e059133"
      ],
      "misc": [
        "86705d4b-24e4-4756-9687-2b9c98bcf366"
      ],
      "series": [
        "b987cd64-49f4-4460-9498-cc590630dd08"
      ],
      "singers": [
        "ce7ec1ec-54f1-4ff2-9b90-66e28a28e238"
      ],
      "songtypes": [
        "7be1b15c-cff8-4b37-a649-5c90f3d569a9"
      ],
      "songwriters": [
        "1f324dc7-f858-415b-bbc1-41fcce3d6ac7"
      ],
      "collections": [
        "dbcf2c22-524d-4708-99bb-601703633927"
      ],
      "franchises": [
        "b987cd64-49f4-4460-9498-cc590630dd08"
      ]
    },
    "titles": {
      "eng": "seventh heaven"
    },
    "titles_default_language": "eng",
    "title": "Seventh Heaven",
    "year": 2009
  }
}