{
  "header": {
    "version": 4,
    "description": "Karaoke Mugen Karaoke Data File"
  },
  "medias": [
    {
      "version": "yurisa.",
      "filename": "JPN - Uchiage Hanabi Shita kara Miru ka question_mark Yoko kara Miru ka question_mark - MOVIE MV - Uchiage Hanabi ~ yurisa Vers. ~ Alternative Cover Vers.mp4",
      "audiogain": -9.79,
      "loudnorm": "-8.00,2.90,10.10,-18.36,-1.54",
      "filesize": 83102061,
      "duration": 285,
      "default": true,
      "lyrics": [
        {
          "filename": "JPN - Uchiage Hanabi Shita kara Miru ka question_mark Yoko kara Miru ka question_mark - MOVIE MV - Uchiage Hanabi ~ yurisa Vers. ~ Alternative Cover Vers.ass",
          "default": true,
          "version": "Default"
        }
      ]
    }
  ],
  "data": {
    "created_at": "2020-10-15T17:22:45.039Z",
    "kid": "9c74b6af-e270-4b06-826b-2a26ee1c913c",
    "modified_at": "2022-06-04T00:15:46.080Z",
    "parents": [
      "7dd037cb-7bd8-4152-a1ff-37ab6c58eaf5"
    ],
    "repository": "kara.moe",
    "songorder": null,
    "tags": {
      "authors": [
        "fa399f2f-ea1d-4902-8796-ea6d8218aff0"
      ],
      "families": [
        "5391f9fe-638c-415f-8dc9-958e3a2c5787"
      ],
      "groups": [
        "ae613721-1fbe-480d-ba6b-d6d0702b184d"
      ],
      "langs": [
        "4dcf9614-7914-42aa-99f4-dbce2e059133"
      ],
      "misc": [
        "1d6ceadf-a885-47e5-b23b-c07bf668a424"
      ],
      "origins": [
        "c8ca9dea-d8b4-48fe-8427-d911653232e9"
      ],
      "series": [
        "ea78c72c-2cf7-44f3-bc77-0fa7a2f75da8"
      ],
      "singers": [
        "18502921-a42e-4d6e-bba7-a0deab6b1161",
        "8f689a53-4717-4fa5-acfc-e5ec66b37de3"
      ],
      "songtypes": [
        "7be1b15c-cff8-4b37-a649-5c90f3d569a9"
      ],
      "songwriters": [
        "2a71d548-fb9e-4bbf-b10c-eee31eb68c1d"
      ],
      "versions": [
        "03e1e1d2-8641-47b7-bbcb-39a3df9ff21c",
        "9f63c359-d1bf-425a-bcf5-b245c2c9211d"
      ],
      "collections": [
        "dbcf2c22-524d-4708-99bb-601703633927"
      ]
    },
    "titles": {
      "qro": "Uchiage Hanabi ~ yurisa Vers.",
      "jpn": "打上花火 ~ yurisa Vers."
    },
    "titles_default_language": "qro",
    "title": "Uchiage Hanabi ~ yurisa Vers.",
    "year": 2019
  }
}