{
  "header": {
    "version": 4,
    "description": "Karaoke Mugen Karaoke Data File"
  },
  "medias": [
    {
      "version": "Default",
      "filename": "JPN - Dekinai Watashi ga Kurikaesu - PC GAME OP - Re Call.mp4",
      "audiogain": -9.69,
      "loudnorm": "-9.35,0.39,9.40,-19.80,-1.69",
      "filesize": 46045297,
      "duration": 155,
      "default": true,
      "lyrics": [
        {
          "filename": "JPN - Dekinai Watashi ga Kurikaesu - PC GAME OP - Re Call.ass",
          "default": true,
          "version": "Default",
          "subchecksum": "427788ebb83cd0fa58f9db0568b9e4bf"
        }
      ]
    }
  ],
  "data": {
    "created_at": "2017-10-11T17:02:18.000Z",
    "kid": "38203b20-4677-4687-8ce1-5cdeaa42a1f6",
    "modified_at": "2021-02-25T11:08:20.153Z",
    "repository": "kara.moe",
    "tags": {
      "authors": [
        "5bdaba57-27f8-4568-8806-76a807728766"
      ],
      "collections": [
        "c7db86a0-ff64-4044-9be4-66dd1ef1d1c1"
      ],
      "creators": [
        "2c7746e7-7d9d-4e11-a31a-1334016edd4e"
      ],
      "families": [
        "dbedd6b3-d125-4cd8-aa32-c4175e4ca3a3"
      ],
      "groups": [
        "ae613721-1fbe-480d-ba6b-d6d0702b184d"
      ],
      "langs": [
        "4dcf9614-7914-42aa-99f4-dbce2e059133"
      ],
      "origins": [
        "2f96e82c-c61b-4413-817e-e6b247509b95"
      ],
      "platforms": [
        "3c15f758-e1bc-4266-8bb9-3c14112f504a"
      ],
      "series": [
        "d0e20efe-b852-4312-8c1b-745431aeda94"
      ],
      "singers": [
        "062ef561-7717-4be5-9bee-60482f7bd3e5"
      ],
      "songtypes": [
        "f02ad9b3-0bd9-4aad-85b3-9976739ba0e4"
      ],
      "songwriters": [
        "7ea6860f-d2fc-4a58-b42d-1194ca181f34",
        "a2532846-ad5e-46e5-aaad-2c5dd2cd097e"
      ]
    },
    "title": "Re:Call",
    "titles": {
      "eng": "Re:Call"
    },
    "year": 2014,
    "titles_default_language": "eng"
  }
}