{
  "header": {
    "version": 4,
    "description": "Karaoke Mugen Karaoke Data File"
  },
  "medias": [
    {
      "version": "Default",
      "filename": "JPN - Code Geass Hangyaku no Lelouch - MV - Hitomi no Tsubasa ~ Full Vers.mp4",
      "audiogain": -10.44,
      "loudnorm": "-6.46,2.27,2.30,-16.58,-0.35",
      "filesize": 26537191,
      "duration": 211,
      "default": true,
      "lyrics": [
        {
          "filename": "JPN - Code Geass Hangyaku no Lelouch - MV - Hitomi no Tsubasa ~ Full Vers.ass",
          "default": true,
          "version": "Default"
        }
      ]
    }
  ],
  "data": {
    "created_at": "2019-11-24T21:45:41.657Z",
    "kid": "06e3c464-bd20-486c-abc5-25774d6bc609",
    "modified_at": "2022-06-04T00:13:33.334Z",
    "parents": [
      "057dee79-432a-4d44-878e-5afafeb01f28"
    ],
    "repository": "kara.moe",
    "songorder": null,
    "tags": {
      "authors": [
        "1db1738f-acdc-42fc-aec3-60f4bddf660d"
      ],
      "creators": [
        "6fa9de67-21cf-420b-9ddb-57edb5abe523"
      ],
      "families": [
        "5391f9fe-638c-415f-8dc9-958e3a2c5787"
      ],
      "groups": [
        "3c14c864-533c-49e6-a3cc-6969f1233775"
      ],
      "langs": [
        "4dcf9614-7914-42aa-99f4-dbce2e059133"
      ],
      "series": [
        "1cb3b851-435a-4078-8619-8711f963a92f"
      ],
      "singers": [
        "d9474c97-14b1-4bd4-9f7b-d696059644f5"
      ],
      "songtypes": [
        "7be1b15c-cff8-4b37-a649-5c90f3d569a9"
      ],
      "songwriters": [
        "51bbb12b-3034-4785-a7c8-0a55db6f0de9",
        "b79f0c92-c2b8-4170-8498-9a5defa67abb"
      ],
      "versions": [
        "c2143a7f-6970-450e-8a79-0302db9220a9"
      ],
      "collections": [
        "dbcf2c22-524d-4708-99bb-601703633927"
      ],
      "franchises": [
        "1cb3b851-435a-4078-8619-8711f963a92f"
      ]
    },
    "titles": {
      "qro": "Hitomi no Tsubasa",
      "jpn": "瞳ノ翼"
    },
    "titles_default_language": "qro",
    "title": "Hitomi no Tsubasa",
    "year": 2006
  }
}