{
  "header": {
    "version": 4,
    "description": "Karaoke Mugen Karaoke Data File"
  },
  "medias": [
    {
      "version": "Default",
      "filename": "JPN - Aikatsu Stars! - IN - Message of a Rainbow.mp4",
      "audiogain": 3.01,
      "loudnorm": "-20.69,-7.30,4.50,-30.71,-0.65",
      "filesize": 84432575,
      "duration": 124,
      "default": true,
      "lyrics": [
        {
          "filename": "JPN - Aikatsu Stars! - IN - Message of a Rainbow.ass",
          "default": true,
          "version": "Default",
          "subchecksum": "4695b6b9435f0a9e3e505331e8920da6"
        }
      ]
    }
  ],
  "data": {
    "created_at": "2018-11-06T13:53:47.000Z",
    "kid": "a7ff4d77-5e49-4ffa-9249-ced29b704790",
    "modified_at": "2021-02-25T10:37:27.617Z",
    "repository": "kara.moe",
    "tags": {
      "authors": [
        "739f00e0-2bf5-44c1-8c7f-cecf649cd813"
      ],
      "collections": [
        "c7db86a0-ff64-4044-9be4-66dd1ef1d1c1"
      ],
      "creators": [
        "4d17b0cf-92fd-4ab3-8035-8a260a772e51"
      ],
      "families": [
        "0377db02-3af6-43b8-9b08-c759df3d25c3"
      ],
      "genres": [
        "caa86df2-0d59-474b-885c-f240a9e891b0"
      ],
      "groups": [
        "8c22c899-b3ed-42da-a548-ce00f950798b",
        "ae613721-1fbe-480d-ba6b-d6d0702b184d"
      ],
      "langs": [
        "4dcf9614-7914-42aa-99f4-dbce2e059133"
      ],
      "origins": [
        "938de218-5343-4865-94d3-fb33f2eaa152"
      ],
      "series": [
        "8662068a-0e26-432e-9341-f695888d7214"
      ],
      "singers": [
        "1c3e715d-75b2-4619-ae88-4aea7c451bb2",
        "e78a3016-c8fc-46e6-ac17-54d118bf53f3"
      ],
      "songtypes": [
        "5e5250d9-351a-4a82-98eb-55db50ad8962"
      ],
      "songwriters": [
        "07735318-fb59-4136-a183-88910a0c6651",
        "3b592965-4b7d-4c24-bb37-8d94f3e11148"
      ],
      "franchises": [
        "2ed8f878-186e-4108-a152-c607efbcfcb2"
      ]
    },
    "title": "Message of a Rainbow",
    "titles": {
      "eng": "Message of a Rainbow"
    },
    "year": 2017,
    "titles_default_language": "eng"
  }
}