{
  "header": {
    "version": 4,
    "description": "Karaoke Mugen Karaoke Data File"
  },
  "medias": [
    {
      "version": "Default",
      "filename": "JPN - ARB - AUDIO - ROCK OVER JAPAN.mp3",
      "audiogain": -5.18,
      "loudnorm": "-12.54,0.58,3.00,-22.98,-1.30",
      "filesize": 6003462,
      "duration": 339,
      "default": true,
      "lyrics": [
        {
          "filename": "JPN - ARB - AUDIO - ROCK OVER JAPAN.ass",
          "default": true,
          "version": "Default"
        }
      ]
    }
  ],
  "data": {
    "created_at": "2018-08-02T19:39:18.000Z",
    "ignoreHooks": false,
    "kid": "ecbf0adc-a748-46da-ac75-dfb1934e1560",
    "modified_at": "2022-07-06T21:21:41.635Z",
    "repository": "kara.moe",
    "tags": {
      "authors": [
        "611aa6ee-ebf8-4ef5-8eed-9f1eaec5117e"
      ],
      "collections": [
        "dbcf2c22-524d-4708-99bb-601703633927"
      ],
      "creators": [
        "f8608dd2-5e47-4f28-abf9-7733b0b7c05d"
      ],
      "groups": [
        "7792cc27-9ff9-4d47-9287-2338b7db1575"
      ],
      "langs": [
        "4dcf9614-7914-42aa-99f4-dbce2e059133"
      ],
      "misc": [
        "86705d4b-24e4-4756-9687-2b9c98bcf366"
      ],
      "singers": [
        "f8608dd2-5e47-4f28-abf9-7733b0b7c05d"
      ],
      "songtypes": [
        "42a262ae-acba-4ab5-a446-c5789c96c821"
      ],
      "songwriters": [
        "f8608dd2-5e47-4f28-abf9-7733b0b7c05d"
      ]
    },
    "titles": {
      "eng": "ROCK OVER JAPAN"
    },
    "titles_default_language": "eng",
    "title": "ROCK OVER JAPAN",
    "year": 1987
  }
}