{
  "header": {
    "version": 4,
    "description": "Karaoke Mugen Karaoke Data File"
  },
  "medias": [
    {
      "version": "Default",
      "filename": "JPN - Thousand Arms - PSX GAME OP - Depend on You.mp4",
      "audiogain": -1.28,
      "loudnorm": "-16.08,-0.08,3.20,-26.35,-0.23",
      "filesize": 8147917,
      "duration": 106,
      "default": true,
      "lyrics": [
        {
          "filename": "JPN - Thousand Arms - PSX GAME OP - Depend on You.ass",
          "default": true,
          "version": "Default",
          "subchecksum": "edaec15ddc37b53c7919b756a25fbd87"
        }
      ]
    }
  ],
  "data": {
    "created_at": "2017-10-11T17:02:19.000Z",
    "kid": "49e6bcbc-9cc1-43cc-8bcc-836609a653f7",
    "modified_at": "2021-02-25T13:23:34.099Z",
    "repository": "kara.moe",
    "tags": {
      "authors": [
        "8c22c899-b3ed-42da-a548-ce00f950798b"
      ],
      "collections": [
        "c7db86a0-ff64-4044-9be4-66dd1ef1d1c1"
      ],
      "creators": [
        "0c61dd80-693c-4e5e-8722-904354af5435",
        "500e2283-ec1c-46cf-a559-8e11e3e86d99"
      ],
      "families": [
        "dbedd6b3-d125-4cd8-aa32-c4175e4ca3a3"
      ],
      "groups": [
        "24db50aa-a126-4d34-a48a-e45db79c4245",
        "8c22c899-b3ed-42da-a548-ce00f950798b"
      ],
      "langs": [
        "4dcf9614-7914-42aa-99f4-dbce2e059133"
      ],
      "platforms": [
        "f84b68ac-943a-495a-9c6e-d90ec959b19e"
      ],
      "series": [
        "450f9ffc-6811-4587-8b26-b8dbaf4ca8cf"
      ],
      "singers": [
        "c10e51ef-eccd-4c18-b0e6-ada13851361a"
      ],
      "songtypes": [
        "f02ad9b3-0bd9-4aad-85b3-9976739ba0e4"
      ],
      "songwriters": [
        "37c9b852-b244-440e-a9e6-06bc95ef297e",
        "c10e51ef-eccd-4c18-b0e6-ada13851361a"
      ]
    },
    "title": "Depend on You",
    "titles": {
      "eng": "Depend on You"
    },
    "year": 1998,
    "titles_default_language": "eng"
  }
}