{
  "header": {
    "version": 4,
    "description": "Karaoke Mugen Karaoke Data File"
  },
  "medias": [
    {
      "version": "Default",
      "filename": "JPN - Heroes Phantasia - PSP GAME OP - The Lights of Heroes.mp4",
      "audiogain": 2.7,
      "loudnorm": "-20.54,-9.19,5.10,-30.57,-0.15",
      "filesize": 43905724,
      "duration": 101,
      "default": true,
      "lyrics": [
        {
          "filename": "JPN - Heroes Phantasia - PSP GAME OP - The Lights of Heroes.ass",
          "default": true,
          "version": "Default",
          "subchecksum": "65e4228c8fe950a64268b5a090c2e97f"
        }
      ]
    }
  ],
  "data": {
    "created_at": "2017-10-11T17:01:15.000Z",
    "kid": "14489281-e981-46bc-b442-969d327ea961",
    "modified_at": "2021-02-25T11:39:57.662Z",
    "repository": "kara.moe",
    "tags": {
      "authors": [
        "5bdaba57-27f8-4568-8806-76a807728766"
      ],
      "collections": [
        "c7db86a0-ff64-4044-9be4-66dd1ef1d1c1"
      ],
      "creators": [
        "da886af6-b46d-4b9f-9d1f-d377da52361e"
      ],
      "families": [
        "dbedd6b3-d125-4cd8-aa32-c4175e4ca3a3"
      ],
      "groups": [
        "ae613721-1fbe-480d-ba6b-d6d0702b184d"
      ],
      "langs": [
        "4dcf9614-7914-42aa-99f4-dbce2e059133"
      ],
      "platforms": [
        "6b101aff-4b7b-4b0d-b35e-0f1b67e38c9b"
      ],
      "series": [
        "f4352e23-7677-4b22-a8b9-069f5ea0238d"
      ],
      "singers": [
        "78d91182-ac66-49fb-9561-1d330667d6c4"
      ],
      "songtypes": [
        "f02ad9b3-0bd9-4aad-85b3-9976739ba0e4"
      ],
      "songwriters": [
        "0b54e69d-4691-4415-be0e-0dd6fd5d4e1a",
        "84a20b00-fd06-43fd-b78e-9c1a2b7b7795"
      ]
    },
    "title": "The Lights of Heroes",
    "titles": {
      "eng": "THE LIGHTS OF HEROES"
    },
    "year": 2012,
    "titles_default_language": "eng"
  }
}