{
  "header": {
    "version": 4,
    "description": "Karaoke Mugen Karaoke Data File"
  },
  "medias": [
    {
      "version": "Default",
      "filename": "JPN - Cardcaptor Sakura Clear Card-hen - OP1 - CLEAR.mp4",
      "audiogain": 3.19,
      "loudnorm": "-20.87,-11.45,6.00,-31.12,-1.31",
      "filesize": 61774265,
      "duration": 91,
      "default": true,
      "lyrics": [
        {
          "filename": "JPN - Cardcaptor Sakura Clear Card-hen - OP1 - CLEAR.ass",
          "default": true,
          "version": "Default"
        }
      ]
    }
  ],
  "data": {
    "created_at": "2018-06-17T10:07:31.000Z",
    "kid": "5b407cf3-d89a-4237-832a-9f3c349b4c02",
    "modified_at": "2021-11-27T12:10:24.273Z",
    "repository": "kara.moe",
    "songorder": 1,
    "tags": {
      "authors": [
        "77e4d038-f781-44ed-affa-54689c3d72de"
      ],
      "collections": [
        "c7db86a0-ff64-4044-9be4-66dd1ef1d1c1"
      ],
      "creators": [
        "9c5cf6ba-0bc8-4cfe-a63c-e9be3a14e9fd"
      ],
      "families": [
        "0377db02-3af6-43b8-9b08-c759df3d25c3"
      ],
      "genres": [
        "b84e28f9-db1e-447f-b339-7954c3592523"
      ],
      "groups": [
        "ae613721-1fbe-480d-ba6b-d6d0702b184d"
      ],
      "langs": [
        "4dcf9614-7914-42aa-99f4-dbce2e059133"
      ],
      "misc": [
        "fe819ff1-9db8-4a0f-85dc-0e322c9126c4"
      ],
      "origins": [
        "938de218-5343-4865-94d3-fb33f2eaa152"
      ],
      "series": [
        "9e440c83-ef55-4680-bc68-536f0b69ce90"
      ],
      "singers": [
        "1e93160f-11bb-4d02-b716-4660cb29206e"
      ],
      "songtypes": [
        "f02ad9b3-0bd9-4aad-85b3-9976739ba0e4"
      ],
      "songwriters": [
        "1e93160f-11bb-4d02-b716-4660cb29206e",
        "52944693-acb2-44bf-86bb-5057d837def8"
      ],
      "franchises": [
        "e18e6f53-efcc-4f1c-8919-eef475ae4af6"
      ]
    },
    "titles": {
      "eng": "CLEAR"
    },
    "title": "CLEAR",
    "year": 2018,
    "titles_default_language": "eng"
  }
}