{
  "header": {
    "version": 4,
    "description": "Karaoke Mugen Karaoke Data File"
  },
  "medias": [
    {
      "version": "Default",
      "filename": "JPN - Iofifteen Airani, Moona Hoshinova - MV - BRING IT ON ~ Cover Vers.mp4",
      "audiogain": -5.27,
      "loudnorm": "-12.12,-0.22,4.70,-22.26,-0.27",
      "filesize": 111419224,
      "duration": 235,
      "default": true,
      "lyrics": [
        {
          "filename": "JPN - Iofifteen Airani, Moona Hoshinova - MV - BRING IT ON ~ Cover Vers.ass",
          "default": true,
          "version": "Default"
        }
      ]
    }
  ],
  "data": {
    "created_at": "2022-01-17T21:18:44.258Z",
    "ignoreHooks": false,
    "kid": "c787e8d0-89d4-4dd4-bfd4-45e098d47d01",
    "modified_at": "2023-02-05T12:41:42.658Z",
    "parents": [
      "002e5113-7623-4aed-a293-4557a8365c04"
    ],
    "repository": "kara.moe",
    "tags": {
      "authors": [
        "4b50fcec-273e-4cc5-83f2-b156c2300f7f"
      ],
      "collections": [
        "c7db86a0-ff64-4044-9be4-66dd1ef1d1c1"
      ],
      "creators": [
        "0263d413-17bb-4cee-a311-6dd896eda1c9"
      ],
      "families": [
        "0377db02-3af6-43b8-9b08-c759df3d25c3"
      ],
      "groups": [
        "8e209ae4-4381-438f-89dc-1b21752027d2"
      ],
      "langs": [
        "4dcf9614-7914-42aa-99f4-dbce2e059133"
      ],
      "misc": [
        "1d6ceadf-a885-47e5-b23b-c07bf668a424"
      ],
      "origins": [
        "5106d71b-a78e-4d19-a16d-f8fb6719538a"
      ],
      "singers": [
        "b1513a5f-319c-4cb6-968b-6406b4a20acd",
        "f708c8c5-9078-48f2-9197-28926d5c2aef"
      ],
      "songtypes": [
        "7be1b15c-cff8-4b37-a649-5c90f3d569a9"
      ],
      "songwriters": [
        "466ad700-8ba6-4dea-80a7-c0b763548a72",
        "ff1aec1d-751a-40ff-bbff-a3f0fd5e9749"
      ],
      "versions": [
        "03e1e1d2-8641-47b7-bbcb-39a3df9ff21c"
      ]
    },
    "titles": {
      "eng": "BRING IT ON",
      "jpn": "劣等上等",
      "qro": "Rettô Joutô"
    },
    "titles_default_language": "eng",
    "titles_aliases": [
      "Rettou",
      "Joutou"
    ],
    "year": 2021
  }
}