{
  "header": {
    "version": 4,
    "description": "Karaoke Mugen Karaoke Data File"
  },
  "medias": [
    {
      "version": "Default",
      "filename": "JPN - Giant Gorg - OP - Bright Eyes.mp4",
      "audiogain": -3.52,
      "loudnorm": "-15.30,0.18,5.30,-25.41,-0.79",
      "filesize": 11122183,
      "duration": 90,
      "default": true,
      "lyrics": [
        {
          "filename": "JPN - Giant Gorg - OP - Bright Eyes.ass",
          "default": true,
          "version": "Default",
          "subchecksum": "96e0084dffe868395b3c23d056c31c88"
        }
      ]
    }
  ],
  "data": {
    "created_at": "2017-10-11T17:02:36.000Z",
    "kid": "03622155-fc9a-46a1-b0fa-f0351605c735",
    "modified_at": "2021-02-25T11:27:47.011Z",
    "repository": "kara.moe",
    "tags": {
      "authors": [
        "6bebcb04-2694-453c-9e0c-eb1a2e2718d9"
      ],
      "collections": [
        "c7db86a0-ff64-4044-9be4-66dd1ef1d1c1"
      ],
      "creators": [
        "ef8f80e1-d244-4aea-b7f0-984d6dd4b82b"
      ],
      "families": [
        "0377db02-3af6-43b8-9b08-c759df3d25c3"
      ],
      "genres": [
        "f60ba57d-5ef4-49e0-b93b-d0dcbcff6592"
      ],
      "groups": [
        "7792cc27-9ff9-4d47-9287-2338b7db1575"
      ],
      "langs": [
        "4dcf9614-7914-42aa-99f4-dbce2e059133"
      ],
      "origins": [
        "938de218-5343-4865-94d3-fb33f2eaa152"
      ],
      "series": [
        "640a4956-8520-46a9-a761-92c4e657def0"
      ],
      "singers": [
        "e34578ca-7992-4a0e-a3a8-e2125fb4d0d4"
      ],
      "songtypes": [
        "f02ad9b3-0bd9-4aad-85b3-9976739ba0e4"
      ],
      "songwriters": [
        "176b72bf-a0b1-4f36-8e27-f16607f1b2d1",
        "d701acc8-0468-4917-829c-1932f2af8361"
      ]
    },
    "title": "Bright Eyes",
    "titles": {
      "qro": "Kagayaku Hitomi <BRIGHT EYES>",
      "jpn": "輝く瞳<BRIGHT EYES>"
    },
    "year": 1984,
    "titles_default_language": "qro"
  }
}