{
  "header": {
    "version": 4,
    "description": "Karaoke Mugen Karaoke Data File"
  },
  "medias": [
    {
      "version": "Default",
      "filename": "JPN - Hatsune Miku ~ Project DIVA Arcade Future Tone - GAME MV - ONLINE GAME ADDICTS SPRECHCHOR ~ Short Vers.mp4",
      "audiogain": -2.57,
      "loudnorm": "-14.80,-2.29,4.00,-24.97,-0.32",
      "filesize": 255273372,
      "duration": 202,
      "default": true,
      "lyrics": [
        {
          "filename": "JPN - Hatsune Miku ~ Project DIVA Arcade Future Tone - GAME MV - ONLINE GAME ADDICTS SPRECHCHOR ~ Short Vers.ass",
          "default": true,
          "version": "Default"
        }
      ]
    }
  ],
  "data": {
    "created_at": "2021-12-29T15:51:14.035Z",
    "ignoreHooks": false,
    "kid": "add4bd9f-154a-4a37-a769-9fbf33480f74",
    "modified_at": "2022-01-18T23:31:47.571Z",
    "parents": [
      "bd058ffe-8c78-4abc-95ff-e4a6f91b71d5"
    ],
    "repository": "kara.moe",
    "tags": {
      "authors": [
        "1db1738f-acdc-42fc-aec3-60f4bddf660d",
        "fb28c6d3-a81e-40c0-9a4c-e3268c60a64b"
      ],
      "collections": [
        "c7db86a0-ff64-4044-9be4-66dd1ef1d1c1"
      ],
      "creators": [
        "b8a3778d-0864-4135-9053-1def02d3262e"
      ],
      "families": [
        "dbedd6b3-d125-4cd8-aa32-c4175e4ca3a3"
      ],
      "genres": [
        "45623cae-6d68-4304-a49b-896d1d6f4580"
      ],
      "groups": [
        "ae613721-1fbe-480d-ba6b-d6d0702b184d"
      ],
      "langs": [
        "4dcf9614-7914-42aa-99f4-dbce2e059133"
      ],
      "series": [
        "10b144ba-23b0-412a-9d78-253af4ee10ae"
      ],
      "singers": [
        "4407ba0e-5de7-4add-870f-7ac95a4804c9"
      ],
      "songtypes": [
        "7be1b15c-cff8-4b37-a649-5c90f3d569a9"
      ],
      "songwriters": [
        "964f080e-6170-463e-ad34-9cdbf0330dff"
      ],
      "versions": [
        "d125c80a-86c1-4321-88e9-07b7800679b6"
      ],
      "franchises": [
        "d28af18d-d544-4d0f-b955-99e6914230f2"
      ]
    },
    "titles": {
      "eng": "ONLINE GAME ADDICTS SPRECHCHOR",
      "qro": "Netoge Haijin Sprechchor",
      "jpn": "ネトゲ廃人シュプレヒコール"
    },
    "titles_aliases": [
      "The MMORPG Addict's Anthem"
    ],
    "title": "ONLINE GAME ADDICTS SPRECHCHOR",
    "year": 2012,
    "titles_default_language": "eng"
  }
}