{
  "header": {
    "version": 4,
    "description": "Karaoke Mugen Karaoke Data File"
  },
  "medias": [
    {
      "version": "Ritsuko, Makoto & Takane",
      "filename": "JPN - THE iDOLM@STER Stella Stage - GAME PS4 IN - Ai LIKE Hamburger ~ Ritsuko, Makoto & Takane.mp4",
      "audiogain": 0.3,
      "loudnorm": "-20.14,-5.88,6.70,-30.54,-1.16",
      "filesize": 138611630,
      "duration": 136,
      "default": true,
      "lyrics": [
        {
          "filename": "JPN - THE iDOLM@STER Stella Stage - GAME PS4 IN - Ai LIKE Hamburger ~ Ritsuko, Makoto & Takane.ass",
          "default": true,
          "version": "Default"
        }
      ]
    }
  ],
  "data": {
    "created_at": "2017-10-11T17:01:46.000Z",
    "ignoreHooks": false,
    "kid": "344f2eb1-317e-47ad-a80d-07045377d25c",
    "modified_at": "2022-03-24T14:47:30.907Z",
    "repository": "kara.moe",
    "tags": {
      "authors": [
        "fa399f2f-ea1d-4902-8796-ea6d8218aff0"
      ],
      "collections": [
        "c7db86a0-ff64-4044-9be4-66dd1ef1d1c1"
      ],
      "creators": [
        "c3e622d4-2686-4331-8691-d528c8647088"
      ],
      "families": [
        "dbedd6b3-d125-4cd8-aa32-c4175e4ca3a3"
      ],
      "genres": [
        "caa86df2-0d59-474b-885c-f240a9e891b0"
      ],
      "groups": [
        "ae613721-1fbe-480d-ba6b-d6d0702b184d"
      ],
      "langs": [
        "4dcf9614-7914-42aa-99f4-dbce2e059133"
      ],
      "platforms": [
        "248d92ee-8c02-43bc-86e2-cc6029883564"
      ],
      "series": [
        "92f4eeb7-8d3a-49cd-b44f-fc579dd43bf1"
      ],
      "singers": [
        "08bfd717-9f49-4dbd-8037-5a750964fda8",
        "51abb542-01b4-4267-821e-56c07d9a2705",
        "62f83f56-b7bc-4092-9c07-b79758bdfac3"
      ],
      "songtypes": [
        "5e5250d9-351a-4a82-98eb-55db50ad8962"
      ],
      "songwriters": [
        "77e56ef6-4ee7-4133-82b0-e592397ba440",
        "ca4854da-7bb4-44e7-800e-561eca51d557"
      ],
      "franchises": [
        "d34ceea8-7d7c-4d85-9213-18d24d2b7666"
      ]
    },
    "titles": {
      "qro": "Ai LIKE Hamburger ~ Ritsuko, Makoto & Takane",
      "jpn": "愛 LIKE ハンバーガー ~ 律子, 地真 & 貴音"
    },
    "titles_default_language": "qro",
    "title": "Ai LIKE Hamburger ~ Ritsuko, Makoto & Takane",
    "year": 2017
  }
}