{
  "header": {
    "version": 4,
    "description": "Karaoke Mugen Karaoke Data File"
  },
  "medias": [
    {
      "version": "Default",
      "filename": "JPN - Granblue Fantasy - GAME PV1 - Sora no Michishirube.mp4",
      "audiogain": -11.64,
      "loudnorm": "-5.85,1.56,4.70,-15.97,-0.87",
      "filesize": 63796193,
      "duration": 165,
      "default": true,
      "lyrics": [
        {
          "filename": "JPN - Granblue Fantasy - GAME PV1 - Sora no Michishirube.ass",
          "default": true,
          "version": "Default",
          "subchecksum": "589508405e7090989b46b2de508dbf38"
        }
      ]
    }
  ],
  "data": {
    "created_at": "2019-03-26T18:56:57.000Z",
    "kid": "d15cc876-8ade-4b48-b6e1-371d805a59e2",
    "modified_at": "2021-02-25T11:31:50.058Z",
    "repository": "kara.moe",
    "songorder": 1,
    "tags": {
      "authors": [
        "63d193aa-c3b3-4858-a7c9-d505d478dc3d"
      ],
      "collections": [
        "c7db86a0-ff64-4044-9be4-66dd1ef1d1c1"
      ],
      "creators": [
        "344cb973-3dac-4bac-b6b0-71243417856b"
      ],
      "families": [
        "dbedd6b3-d125-4cd8-aa32-c4175e4ca3a3"
      ],
      "groups": [
        "ae613721-1fbe-480d-ba6b-d6d0702b184d"
      ],
      "langs": [
        "4dcf9614-7914-42aa-99f4-dbce2e059133"
      ],
      "platforms": [
        "213a1a15-e73a-4a08-b3f6-b6e2745a82e5"
      ],
      "series": [
        "4849c8a3-1885-4e79-9c68-89fcbaebdac2"
      ],
      "singers": [
        "53865b6f-009c-4140-8c30-fd1360469e09"
      ],
      "songtypes": [
        "66e195b9-64ea-432d-a917-2e2c88d26052"
      ],
      "songwriters": [
        "22973edc-2b1d-4c54-9219-f5470f862bee",
        "5aa49c49-23f3-4ce8-b56a-2b1ac7ec69aa",
        "9a1ca2a9-8d6c-4eed-97f3-d2e14efb04e3",
        "fffb9dd7-c02a-4f36-8f9a-d678c7da68ad"
      ],
      "franchises": [
        "4849c8a3-1885-4e79-9c68-89fcbaebdac2"
      ]
    },
    "title": "Sora no Michishirube",
    "titles": {
      "qro": "Sora no Michishirube",
      "jpn": "ソラのミチシルベ"
    },
    "year": 2015,
    "titles_default_language": "qro"
  }
}