{
  "header": {
    "version": 4,
    "description": "Karaoke Mugen Karaoke Data File"
  },
  "medias": [
    {
      "version": "Default",
      "filename": "JPN - Saishuu Shiken Kujira - GAME OP - Dianoia.mp4",
      "audiogain": -2.14,
      "loudnorm": "-15.24,-1.05,5.90,-25.49,-1.57",
      "filesize": 13612831,
      "duration": 136,
      "default": true,
      "lyrics": [
        {
          "filename": "JPN - Saishuu Shiken Kujira - GAME OP - Dianoia.ass",
          "default": true,
          "version": "Default"
        }
      ]
    }
  ],
  "data": {
    "created_at": "2017-10-11T17:01:04.000Z",
    "ignoreHooks": false,
    "kid": "0ead1f84-29ab-4494-b7d9-30829d383ea1",
    "modified_at": "2022-02-14T20:16:29.675Z",
    "repository": "kara.moe",
    "tags": {
      "authors": [
        "5bdaba57-27f8-4568-8806-76a807728766"
      ],
      "collections": [
        "c7db86a0-ff64-4044-9be4-66dd1ef1d1c1"
      ],
      "creators": [
        "5563d53b-4386-4c3c-a6e8-dd39869b6246"
      ],
      "families": [
        "dbedd6b3-d125-4cd8-aa32-c4175e4ca3a3"
      ],
      "groups": [
        "3c14c864-533c-49e6-a3cc-6969f1233775"
      ],
      "langs": [
        "4dcf9614-7914-42aa-99f4-dbce2e059133"
      ],
      "origins": [
        "2f96e82c-c61b-4413-817e-e6b247509b95"
      ],
      "series": [
        "1b5881e9-9b32-4027-a53e-de1fdac01957"
      ],
      "singers": [
        "b42731d8-fee7-401f-a78e-136a8a6dcd3d"
      ],
      "songtypes": [
        "f02ad9b3-0bd9-4aad-85b3-9976739ba0e4"
      ],
      "songwriters": [
        "481d02d3-0cab-4ebb-9b6d-2a65e2cb1cb3",
        "e3aca029-c16e-4507-b0b8-04db599cc83c"
      ],
      "franchises": [
        "1b5881e9-9b32-4027-a53e-de1fdac01957"
      ]
    },
    "titles": {
      "qro": "Dianoia",
      "jpn": "ディアノイア"
    },
    "title": "Dianoia",
    "year": 2004,
    "titles_default_language": "qro"
  }
}