{
  "header": {
    "version": 4,
    "description": "Karaoke Mugen Karaoke Data File"
  },
  "medias": [
    {
      "version": "Default",
      "filename": "JPN - Touhou - AUDIO - Who Killed U.N.Owen.mp3",
      "audiogain": -12.29,
      "loudnorm": "-5.26,1.14,6.20,-15.48,-0.90",
      "filesize": 13951683,
      "duration": 291,
      "default": true,
      "lyrics": [
        {
          "filename": "JPN - Touhou - AUDIO - Who Killed U.N.Owen.ass",
          "default": true,
          "version": "Default"
        }
      ]
    }
  ],
  "data": {
    "created_at": "2022-09-09T20:24:01.032Z",
    "ignoreHooks": false,
    "kid": "42f9032c-1c46-465c-b7aa-a44890e69052",
    "modified_at": "2023-01-07T13:52:38.674Z",
    "repository": "kara.moe",
    "tags": {
      "authors": [
        "db867b9b-f487-444d-9f24-142c4324a235"
      ],
      "collections": [
        "c7db86a0-ff64-4044-9be4-66dd1ef1d1c1"
      ],
      "creators": [
        "63e7d83f-c2f3-43c5-9993-87202fd90347",
        "eb49131c-b890-422d-9947-0e82292801e1"
      ],
      "groups": [
        "ae613721-1fbe-480d-ba6b-d6d0702b184d"
      ],
      "langs": [
        "4dcf9614-7914-42aa-99f4-dbce2e059133"
      ],
      "series": [
        "1bdaa5a1-dfa6-4365-b746-7a0b194dafd6"
      ],
      "singers": [
        "a6e3509f-befc-4b8b-ac1c-3614e1c32447"
      ],
      "songtypes": [
        "42a262ae-acba-4ab5-a446-c5789c96c821"
      ],
      "songwriters": [
        "26cb5252-8510-49e0-897c-a611a05fc056",
        "3c027018-54fc-4402-b3eb-46c34d07a56b",
        "79f7c9c1-3969-406e-ade0-53504b4d6e3b",
        "9677e10e-aa5b-4d1d-9861-df3a624bb8d9"
      ],
      "franchises": [
        "1bdaa5a1-dfa6-4365-b746-7a0b194dafd6"
      ]
    },
    "titles": {
      "eng": "Who Killed U.N.Owen"
    },
    "titles_default_language": "eng",
    "titles_aliases": [
      "UN Owen"
    ],
    "year": 2016
  }
}