{
  "header": {
    "version": 4,
    "description": "Karaoke Mugen Karaoke Data File"
  },
  "medias": [
    {
      "version": "Default",
      "filename": "JPN - Steins Gate 0 - GAME OP - Amadeus.mp4",
      "audiogain": -5.74,
      "loudnorm": "-11.41,-0.98,14.40,-22.30,-1.09",
      "filesize": 56711308,
      "duration": 120,
      "default": true,
      "lyrics": [
        {
          "filename": "JPN - Steins Gate 0 - GAME OP - Amadeus.ass",
          "default": true,
          "version": "Default",
          "subchecksum": "7edc4996b2198321144349c36e793e04"
        }
      ]
    }
  ],
  "data": {
    "created_at": "2017-10-11T17:02:18.000Z",
    "kid": "519ba0ff-7dbc-4d4f-b409-211ed2c0a6d0",
    "modified_at": "2021-02-25T13:12:15.460Z",
    "repository": "kara.moe",
    "tags": {
      "authors": [
        "4ac9beaf-6d3c-4c22-b202-03b4d88198aa"
      ],
      "collections": [
        "c7db86a0-ff64-4044-9be4-66dd1ef1d1c1"
      ],
      "creators": [
        "7a8ad2ad-018d-4341-9be4-77bfc39a6edd"
      ],
      "families": [
        "dbedd6b3-d125-4cd8-aa32-c4175e4ca3a3"
      ],
      "groups": [
        "8c22c899-b3ed-42da-a548-ce00f950798b",
        "ae613721-1fbe-480d-ba6b-d6d0702b184d"
      ],
      "langs": [
        "4dcf9614-7914-42aa-99f4-dbce2e059133"
      ],
      "origins": [
        "2f96e82c-c61b-4413-817e-e6b247509b95"
      ],
      "series": [
        "36793c07-e976-4aa8-b614-34eb6211c8c4"
      ],
      "singers": [
        "3b97f60d-23e3-4e23-bf7f-9835bba682a7"
      ],
      "songtypes": [
        "f02ad9b3-0bd9-4aad-85b3-9976739ba0e4"
      ],
      "songwriters": [
        "66339ced-7df9-40c8-aefd-59b2990df294"
      ],
      "franchises": [
        "afc0f5fc-26e3-4292-b818-1e96c196988a"
      ]
    },
    "title": "Amadeus",
    "titles": {
      "eng": "Amadeus"
    },
    "year": 2015,
    "titles_default_language": "eng"
  }
}