{
  "header": {
    "version": 4,
    "description": "Karaoke Mugen Karaoke Data File"
  },
  "medias": [
    {
      "version": "Default",
      "filename": "JPN - Ichiban Ushiro no Daimaou - OP - REALOVE REALIFE.mp4",
      "audiogain": 2.77,
      "loudnorm": "-19.53,-8.27,4.40,-29.70,-1.03",
      "filesize": 23045331,
      "duration": 91,
      "default": true,
      "lyrics": [
        {
          "filename": "JPN - Ichiban Ushiro no Daimaou - OP - REALOVE REALIFE.ass",
          "default": true,
          "version": "Default",
          "subchecksum": "d9ef1f709da0543017e7a6afff7f4fb8"
        }
      ]
    }
  ],
  "data": {
    "created_at": "2017-10-11T17:02:36.000Z",
    "kid": "7c5f3584-52fd-4b20-aefe-4f74c3b442c4",
    "modified_at": "2021-02-25T11:45:24.470Z",
    "repository": "kara.moe",
    "tags": {
      "authors": [
        "56b54c89-86ae-4635-992f-ddc1234b8015"
      ],
      "collections": [
        "c7db86a0-ff64-4044-9be4-66dd1ef1d1c1"
      ],
      "creators": [
        "b07ed549-7bfb-4dbd-8271-671eb632ba15"
      ],
      "families": [
        "0377db02-3af6-43b8-9b08-c759df3d25c3"
      ],
      "groups": [
        "8c22c899-b3ed-42da-a548-ce00f950798b",
        "ae613721-1fbe-480d-ba6b-d6d0702b184d"
      ],
      "langs": [
        "4dcf9614-7914-42aa-99f4-dbce2e059133"
      ],
      "misc": [
        "fe819ff1-9db8-4a0f-85dc-0e322c9126c4"
      ],
      "origins": [
        "938de218-5343-4865-94d3-fb33f2eaa152"
      ],
      "series": [
        "9e949053-4224-404b-8596-3b8e7f83fc76"
      ],
      "singers": [
        "256792ea-599e-41d8-98cd-9023a4e6c422"
      ],
      "songtypes": [
        "f02ad9b3-0bd9-4aad-85b3-9976739ba0e4"
      ],
      "songwriters": [
        "28b975a1-0b59-49b7-aa1d-987c9b4fe7ae",
        "f41e7218-6c19-4e19-9b5f-4612dcd58243"
      ]
    },
    "title": "REALOVE:REALIFE",
    "titles": {
      "eng": "REALOVE:REALIFE"
    },
    "year": 2010,
    "titles_default_language": "eng"
  }
}