{
  "header": {
    "version": 4,
    "description": "Karaoke Mugen Karaoke Data File"
  },
  "medias": [
    {
      "version": "Default",
      "filename": "JPN - Cupid Parasite - GAME SWITCH OP - Koi wa Aserazu.mp4",
      "audiogain": -10.18,
      "loudnorm": "-6.94,1.38,3.00,-17.00,-0.36",
      "filesize": 35470090,
      "duration": 100,
      "default": true,
      "lyrics": [
        {
          "filename": "JPN - Cupid Parasite - GAME SWITCH OP - Koi wa Aserazu.ass",
          "default": true,
          "version": "Default"
        }
      ]
    }
  ],
  "data": {
    "created_at": "2022-10-22T23:37:32.478Z",
    "ignoreHooks": false,
    "kid": "8c170be2-074e-4e2d-a1ea-d2a44bc255e7",
    "modified_at": "2022-10-22T23:37:59.671Z",
    "repository": "kara.moe",
    "tags": {
      "authors": [
        "0c8a5287-3954-48ce-b8ad-3d54e54bf96e"
      ],
      "collections": [
        "c7db86a0-ff64-4044-9be4-66dd1ef1d1c1"
      ],
      "creators": [
        "769af53e-df08-4cb5-9cad-7503576dee49",
        "98ab71c6-8066-4d59-84a2-9833a27ec461"
      ],
      "families": [
        "dbedd6b3-d125-4cd8-aa32-c4175e4ca3a3"
      ],
      "groups": [
        "8e209ae4-4381-438f-89dc-1b21752027d2"
      ],
      "langs": [
        "4dcf9614-7914-42aa-99f4-dbce2e059133"
      ],
      "origins": [
        "2f96e82c-c61b-4413-817e-e6b247509b95",
        "7025ae3c-7bd6-4787-8912-2c15063343bb"
      ],
      "platforms": [
        "0a880bfc-d0e5-448b-98d2-4ba7b3106641"
      ],
      "series": [
        "8cd9b410-0811-4a3c-a634-5f55b5cfedc1"
      ],
      "singers": [
        "d6dd51d5-0a0b-42a9-beba-08897ba9d3b4"
      ],
      "songtypes": [
        "f02ad9b3-0bd9-4aad-85b3-9976739ba0e4"
      ],
      "songwriters": [
        "3c07355d-07d1-4d4d-a1a8-bdaaef81921c",
        "4856f08e-73aa-4e2d-a63c-1964a1ff4c37",
        "9824f633-9345-4be6-a341-7e1bb829aff8"
      ]
    },
    "titles": {
      "jpn": "恋は焦らず",
      "qro": "Koi wa Aserazu"
    },
    "titles_default_language": "qro",
    "titles_aliases": [
      "Love in not Impatient",
      "Love isn't in a hurry"
    ],
    "title": "Koi wa Aserazu",
    "year": 2020
  }
}