{
  "header": {
    "version": 4,
    "description": "Karaoke Mugen Karaoke Data File"
  },
  "medias": [
    {
      "version": "Default",
      "filename": "JPN - Taiyou Sentai Sun Vulcan - OP - Taiyou Sentai Sun Vulcan.mp4",
      "audiogain": -6.5,
      "loudnorm": "-11.21,-0.52,2.20,-21.30,-0.37",
      "filesize": 20418684,
      "duration": 79,
      "default": true,
      "lyrics": [
        {
          "filename": "JPN - Taiyou Sentai Sun Vulcan - OP - Taiyou Sentai Sun Vulcan.ass",
          "default": true,
          "version": "Default"
        }
      ]
    }
  ],
  "data": {
    "created_at": "2017-10-11T17:01:41.000Z",
    "ignoreHooks": false,
    "kid": "84778414-b0cd-43d4-9c13-387aa305fa5f",
    "modified_at": "2022-09-30T19:49:37.687Z",
    "repository": "kara.moe",
    "tags": {
      "authors": [
        "4607780c-f1ef-47cf-9c1c-b13e8f731699"
      ],
      "collections": [
        "c7db86a0-ff64-4044-9be4-66dd1ef1d1c1"
      ],
      "creators": [
        "e32b14df-502b-45fa-9ca5-37554a63a4d7"
      ],
      "families": [
        "5391f9fe-638c-415f-8dc9-958e3a2c5787"
      ],
      "groups": [
        "7792cc27-9ff9-4d47-9287-2338b7db1575"
      ],
      "langs": [
        "4dcf9614-7914-42aa-99f4-dbce2e059133"
      ],
      "origins": [
        "938de218-5343-4865-94d3-fb33f2eaa152",
        "d3fac9ab-630d-402d-a392-3d2450c3e62e"
      ],
      "series": [
        "b6657226-78f7-4884-8d4f-e89818d2952d"
      ],
      "singers": [
        "0c13f6f7-7189-46c8-b7ff-311fc504a4d0",
        "e19c7217-c778-4fdb-868e-7ae532883d55"
      ],
      "songtypes": [
        "f02ad9b3-0bd9-4aad-85b3-9976739ba0e4"
      ],
      "songwriters": [
        "87318906-ace0-4dab-82a8-d2106f79b62d",
        "fe8d4d2d-1479-46c7-9730-191d2d3de07c"
      ]
    },
    "titles": {
      "jpn": "太陽戦隊サンバルカン",
      "qro": "Taiyô Sentai Sun Vulcan"
    },
    "titles_default_language": "qro",
    "title": "Taiyô Sentai Sun Vulcan",
    "year": 1981,
    "titles_aliases": [
      "Taiyou"
    ]
  }
}