{
  "header": {
    "version": 4,
    "description": "Karaoke Mugen Karaoke Data File"
  },
  "medias": [
    {
      "version": "Default",
      "filename": "JPN - Overman King Gainer - OP - King Gainer Over!.mp4",
      "audiogain": 0.59,
      "loudnorm": "-20.50,-4.96,7.80,-30.59,-0.83",
      "filesize": 56189926,
      "duration": 91,
      "default": true,
      "lyrics": [
        {
          "filename": "JPN - Overman King Gainer - OP - King Gainer Over!.ass",
          "default": true,
          "version": "Default",
          "subchecksum": "70b3ea415ac999dd5302445d32b202b5"
        }
      ]
    }
  ],
  "data": {
    "created_at": "2017-10-11T17:01:50.000Z",
    "kid": "65114be0-cb14-428a-91ce-1d426d06b85a",
    "modified_at": "2021-02-28T12:22:16.157Z",
    "repository": "kara.moe",
    "tags": {
      "authors": [
        "5bdaba57-27f8-4568-8806-76a807728766"
      ],
      "collections": [
        "c7db86a0-ff64-4044-9be4-66dd1ef1d1c1"
      ],
      "creators": [
        "ef8f80e1-d244-4aea-b7f0-984d6dd4b82b"
      ],
      "families": [
        "0377db02-3af6-43b8-9b08-c759df3d25c3"
      ],
      "genres": [
        "f60ba57d-5ef4-49e0-b93b-d0dcbcff6592"
      ],
      "groups": [
        "3c14c864-533c-49e6-a3cc-6969f1233775"
      ],
      "langs": [
        "4dcf9614-7914-42aa-99f4-dbce2e059133"
      ],
      "misc": [
        "fe819ff1-9db8-4a0f-85dc-0e322c9126c4"
      ],
      "origins": [
        "938de218-5343-4865-94d3-fb33f2eaa152"
      ],
      "series": [
        "7c170a6f-717e-4bfa-aadd-7a57f4c5d265"
      ],
      "singers": [
        "7927b9e9-feea-4c4d-8142-57ad8ddc0dbd"
      ],
      "songtypes": [
        "f02ad9b3-0bd9-4aad-85b3-9976739ba0e4"
      ],
      "songwriters": [
        "2461dcff-0d44-481a-9841-a8ae3e3d53db",
        "38e17194-fe7b-48e3-8f52-0ac018250a1b"
      ]
    },
    "title": "King Gainer Over!",
    "titles": {
      "eng": "King Gainer Over!",
      "jpn": "キングゲイナー オーバー!"
    },
    "year": 2002,
    "titles_default_language": "eng"
  }
}