{
  "header": {
    "version": 4,
    "description": "Karaoke Mugen Karaoke Data File"
  },
  "medias": [
    {
      "version": "Default",
      "filename": "JPN - School Days - ED6 - Namida no Riyuu.mp4",
      "audiogain": 5.47,
      "loudnorm": "-24.99,-10.65,13.30,-35.79,-2.70",
      "filesize": 16224742,
      "duration": 92,
      "default": true,
      "lyrics": [
        {
          "filename": "JPN - School Days - ED6 - Namida no Riyuu.ass",
          "default": true,
          "version": "Default"
        }
      ]
    }
  ],
  "data": {
    "created_at": "2017-10-11T17:02:59.000Z",
    "ignoreHooks": false,
    "kid": "d3519f3a-d36f-48dc-8c55-ee6b25d14c49",
    "modified_at": "2022-10-02T20:31:50.368Z",
    "repository": "kara.moe",
    "songorder": 6,
    "tags": {
      "authors": [
        "5bdaba57-27f8-4568-8806-76a807728766"
      ],
      "collections": [
        "c7db86a0-ff64-4044-9be4-66dd1ef1d1c1"
      ],
      "creators": [
        "0a8b7d96-4af9-4b6b-80e8-44c3034caab5"
      ],
      "families": [
        "0377db02-3af6-43b8-9b08-c759df3d25c3"
      ],
      "groups": [
        "3c14c864-533c-49e6-a3cc-6969f1233775"
      ],
      "langs": [
        "4dcf9614-7914-42aa-99f4-dbce2e059133"
      ],
      "origins": [
        "938de218-5343-4865-94d3-fb33f2eaa152"
      ],
      "series": [
        "5e24d673-e788-45a0-8699-333fe43453ee"
      ],
      "singers": [
        "da2034ae-6d61-4f43-9700-4030f097ef13"
      ],
      "songtypes": [
        "38c77c56-2b95-4040-b676-0994a8cb0597"
      ],
      "songwriters": [
        "8e1f109c-a1d4-40d6-9a55-32abdb12993c",
        "eae43792-43ca-44cd-871b-5d46e5531c45"
      ],
      "franchises": [
        "5e24d673-e788-45a0-8699-333fe43453ee"
      ]
    },
    "titles": {
      "jpn": "涙の理由",
      "qro": "Namida no Riyû"
    },
    "titles_default_language": "qro",
    "titles_aliases": [
      "Riyuu"
    ],
    "title": "Namida no Riyû",
    "year": 2007
  }
}