{
  "header": {
    "version": 4,
    "description": "Karaoke Mugen Karaoke Data File"
  },
  "medias": [
    {
      "version": "Default",
      "filename": "JPN - Gekkou Kamen - OP2 - Gekkou Kamen wa Dare Deshou.mp4",
      "audiogain": 11.03,
      "loudnorm": "-29.89,-13.71,4.30,-40.04,-0.67",
      "filesize": 24273552,
      "duration": 99,
      "default": true,
      "lyrics": [
        {
          "filename": "JPN - Gekkou Kamen - OP2 - Gekkou Kamen wa Dare Deshou.ass",
          "default": true,
          "version": "Default"
        }
      ]
    }
  ],
  "data": {
    "created_at": "2017-10-11T15:01:07.000Z",
    "ignoreHooks": false,
    "kid": "30cd1b39-470a-4ff5-b735-da2a72681471",
    "modified_at": "2022-09-30T19:37:31.229Z",
    "repository": "kara.moe",
    "songorder": 2,
    "tags": {
      "authors": [
        "5bdaba57-27f8-4568-8806-76a807728766"
      ],
      "collections": [
        "c7db86a0-ff64-4044-9be4-66dd1ef1d1c1"
      ],
      "creators": [
        "c0ba3cff-f543-4b0b-9555-ff8f2f0b2cdc"
      ],
      "families": [
        "5391f9fe-638c-415f-8dc9-958e3a2c5787"
      ],
      "groups": [
        "de0c8e96-9934-4251-9142-b7a5ee70dd6f"
      ],
      "langs": [
        "4dcf9614-7914-42aa-99f4-dbce2e059133"
      ],
      "origins": [
        "938de218-5343-4865-94d3-fb33f2eaa152",
        "d3fac9ab-630d-402d-a392-3d2450c3e62e"
      ],
      "series": [
        "a257e22f-3566-482a-a734-0d2727b6b6ae"
      ],
      "singers": [
        "68fa4f15-3943-4300-a34c-9d8f46416fbd",
        "a2c304fe-455c-4db2-8f7a-c5d69c361435"
      ],
      "songtypes": [
        "f02ad9b3-0bd9-4aad-85b3-9976739ba0e4"
      ],
      "songwriters": [
        "087fbfb9-3322-4603-b551-b548daa0f66c",
        "9cf53fa6-61c8-434b-bbe5-c4e0cf66951d"
      ],
      "franchises": [
        "a257e22f-3566-482a-a734-0d2727b6b6ae"
      ]
    },
    "titles": {
      "jpn": "月光仮面は誰でしょう",
      "qro": "Gekkô Kamen wa Dare Deshô"
    },
    "titles_default_language": "qro",
    "title": "Gekkô Kamen wa Dare Deshô",
    "year": 1958,
    "titles_aliases": [
      "Gekkou",
      "Deshou"
    ]
  }
}