{
  "header": {
    "version": 4,
    "description": "Karaoke Mugen Karaoke Data File"
  },
  "medias": [
    {
      "version": "Default",
      "filename": "JPN - Umineko no Naku Koro ni Saku ~Nekobako to Musou no Koukyoukyoku~ - PS4 SWITCH GAME OP2 - Hakkin No Empireo.mp4",
      "audiogain": -9.72,
      "loudnorm": "-7.70,0.99,4.90,-18.14,-0.50",
      "filesize": 38953633,
      "duration": 93,
      "default": true,
      "lyrics": [
        {
          "filename": "JPN - Umineko no Naku Koro ni Saku ~Nekobako to Musou no Koukyoukyoku~ - PS4 SWITCH GAME OP2 - Hakkin No Empireo.ass",
          "default": true,
          "version": "Default"
        }
      ]
    }
  ],
  "data": {
    "created_at": "2021-08-15T13:05:38.705Z",
    "kid": "5f65caca-4dea-4984-9d5a-48b2ef70ff2a",
    "modified_at": "2021-08-15T15:39:26.839Z",
    "repository": "kara.moe",
    "songorder": 2,
    "tags": {
      "authors": [
        "b2bacb3f-542c-44d2-af9b-cd78c1dd4b70"
      ],
      "collections": [
        "c7db86a0-ff64-4044-9be4-66dd1ef1d1c1"
      ],
      "creators": [
        "b2194b36-200d-42c9-a849-6a583d5d6c66",
        "ee8900e9-5aee-4872-9093-0b5ce99c363c"
      ],
      "families": [
        "dbedd6b3-d125-4cd8-aa32-c4175e4ca3a3"
      ],
      "groups": [
        "8e209ae4-4381-438f-89dc-1b21752027d2"
      ],
      "langs": [
        "4dcf9614-7914-42aa-99f4-dbce2e059133"
      ],
      "platforms": [
        "0a880bfc-d0e5-448b-98d2-4ba7b3106641",
        "248d92ee-8c02-43bc-86e2-cc6029883564"
      ],
      "series": [
        "9ba6593a-80e6-44c2-977d-c242835f10da"
      ],
      "singers": [
        "82b453d7-f342-4ec2-9e72-f42773730e78"
      ],
      "songtypes": [
        "f02ad9b3-0bd9-4aad-85b3-9976739ba0e4"
      ],
      "songwriters": [
        "4c9e0a95-1bb0-4569-8842-052666c0b057",
        "99d41ac2-7a67-4ef2-95a3-b170343ab909",
        "cb9e3a99-c048-4442-9596-6946485d99c4",
        "e7676506-6ae7-4142-9ab1-b470d459552f"
      ],
      "franchises": [
        "90f7ba8a-e8cc-4e13-b06d-ae2a2068efb9"
      ]
    },
    "title": "Hakkin No Empireo",
    "titles": {
      "eng": "Silver Empireo",
      "qro": "Hakkin no Empireo",
      "jpn": "白金のエンピレオ"
    },
    "year": 2021,
    "titles_default_language": "eng"
  }
}