{
  "header": {
    "version": 4,
    "description": "Karaoke Mugen Karaoke Data File"
  },
  "medias": [
    {
      "version": "Default",
      "filename": "JPN - Aimer - MV - Everlasting Snow ~ Short Vers.mp4",
      "audiogain": -6.58,
      "loudnorm": "-11.85,-0.25,8.90,-22.01,-1.80",
      "filesize": 49555533,
      "duration": 135,
      "default": true,
      "lyrics": [
        {
          "filename": "JPN - Aimer - MV - Everlasting Snow ~ Short Vers.ass",
          "default": true,
          "version": "Default"
        }
      ]
    }
  ],
  "data": {
    "created_at": "2019-06-16T16:28:48.000Z",
    "kid": "3a41abec-a0c7-44dd-bf32-17d0eed6d67d",
    "modified_at": "2021-07-22T18:59:46.592Z",
    "repository": "kara.moe",
    "tags": {
      "authors": [
        "54e1331b-ad2b-4d39-b203-de7bdd6e8f0d"
      ],
      "collections": [
        "c7db86a0-ff64-4044-9be4-66dd1ef1d1c1"
      ],
      "creators": [
        "947376ec-0273-441c-9c80-719486db382c"
      ],
      "families": [
        "0377db02-3af6-43b8-9b08-c759df3d25c3"
      ],
      "groups": [
        "2b4e9972-5e17-481b-99f5-d0787c0ada56",
        "ae613721-1fbe-480d-ba6b-d6d0702b184d"
      ],
      "langs": [
        "4dcf9614-7914-42aa-99f4-dbce2e059133"
      ],
      "singers": [
        "6cfc20ab-c855-4f24-8bed-0981e465630b"
      ],
      "songtypes": [
        "7be1b15c-cff8-4b37-a649-5c90f3d569a9"
      ],
      "songwriters": [
        "6cfc20ab-c855-4f24-8bed-0981e465630b"
      ],
      "versions": [
        "d125c80a-86c1-4321-88e9-07b7800679b6"
      ]
    },
    "title": "Everlasting Snow",
    "titles": {
      "eng": "Everlasting Snow"
    },
    "year": 2016,
    "titles_default_language": "eng"
  }
}