{
  "header": {
    "version": 4,
    "description": "Karaoke Mugen Karaoke Data File"
  },
  "medias": [
    {
      "version": "Default",
      "filename": "JPN - Love Live! Nijigasaki Gakuen School Idol Doukoukai - LIVE - Twinkle Town ~ Full Vers.mp4",
      "audiogain": 0.56,
      "loudnorm": "-17.26,-8.56,4.90,-27.30,-0.87",
      "filesize": 207107510,
      "duration": 252,
      "default": true,
      "lyrics": [
        {
          "filename": "JPN - Love Live! Nijigasaki Gakuen School Idol Doukoukai - LIVE - Twinkle Town ~ Full Vers.ass",
          "default": true,
          "version": "Default"
        }
      ]
    }
  ],
  "data": {
    "created_at": "2021-12-30T23:31:02.362Z",
    "ignoreHooks": false,
    "kid": "5b5f79c8-0aa2-4aa5-9dc2-16b15e5c4114",
    "modified_at": "2022-12-21T22:36:32.620Z",
    "repository": "kara.moe",
    "tags": {
      "authors": [
        "278c6742-0b75-43dd-b317-2ea112952b4a"
      ],
      "collections": [
        "dbcf2c22-524d-4708-99bb-601703633927"
      ],
      "families": [
        "5391f9fe-638c-415f-8dc9-958e3a2c5787"
      ],
      "groups": [
        "8c22c899-b3ed-42da-a548-ce00f950798b",
        "8e209ae4-4381-438f-89dc-1b21752027d2"
      ],
      "langs": [
        "4dcf9614-7914-42aa-99f4-dbce2e059133"
      ],
      "series": [
        "9609e3a6-60db-412a-9d81-e9d9d2e0fb79"
      ],
      "singers": [
        "0df41f72-5e97-4788-99b7-93fe4b628367",
        "178c3a64-efbc-48d4-a7d3-1847414eebc1",
        "a76efdf9-3d65-488d-bc3b-9ab329d3fb7f",
        "e73e8731-3f33-4d6a-b8f1-d2a6137480be"
      ],
      "songtypes": [
        "a0167949-580c-4de3-bf13-497e462e02f3"
      ],
      "songwriters": [
        "4d089aa8-3721-4d7b-b62e-7586db23a0a4",
        "eb05d553-46d2-46dd-9d77-f74681796e13"
      ],
      "versions": [
        "c2143a7f-6970-450e-8a79-0302db9220a9"
      ],
      "franchises": [
        "fd5d066e-e85a-4eea-8688-2979a887450a"
      ]
    },
    "titles": {
      "eng": "Twinkle Town"
    },
    "titles_default_language": "eng",
    "year": 2020
  }
}