{
  "header": {
    "version": 4,
    "description": "Karaoke Mugen Karaoke Data File"
  },
  "medias": [
    {
      "version": "Default",
      "filename": "JPN - ZUTOMAYO - MV - Humanoid ~ Off Vocal Vers.mp4",
      "audiogain": -8.67,
      "loudnorm": "-8.33,1.36,8.30,-18.61,-0.63",
      "filesize": 76223077,
      "duration": 259,
      "default": true,
      "lyrics": [
        {
          "filename": "JPN - ZUTOMAYO - MV - Humanoid ~ Off Vocal Vers.ass",
          "default": true,
          "version": "Default"
        }
      ]
    }
  ],
  "data": {
    "created_at": "2021-08-29T19:08:03.860Z",
    "ignoreHooks": false,
    "kid": "7fbd8dc4-16d2-4022-a873-99f9ea0f95dc",
    "modified_at": "2022-10-19T15:08:04.324Z",
    "parents": [
      "88bbd6f1-caff-4b11-8437-e9a19ec0b1f3"
    ],
    "repository": "kara.moe",
    "tags": {
      "authors": [
        "5e93f02a-bcd1-40a9-ba7a-91ada6683aea",
        "90698f28-1d62-4673-82c4-33ae96b1ba97"
      ],
      "collections": [
        "dbcf2c22-524d-4708-99bb-601703633927"
      ],
      "creators": [
        "fe0ff53e-0216-480a-b916-465674ccd1a7"
      ],
      "families": [
        "0377db02-3af6-43b8-9b08-c759df3d25c3"
      ],
      "groups": [
        "ae613721-1fbe-480d-ba6b-d6d0702b184d"
      ],
      "langs": [
        "4dcf9614-7914-42aa-99f4-dbce2e059133"
      ],
      "misc": [
        "ec4fee75-71fb-45b4-9772-2ca374b4b600"
      ],
      "singers": [
        "d3f693d0-7d45-465e-82ed-a6723c600008"
      ],
      "singergroups": [
        "c7d361f6-c1cf-44b2-b40a-a18aa90f2d8f"
      ],
      "songtypes": [
        "7be1b15c-cff8-4b37-a649-5c90f3d569a9"
      ],
      "songwriters": [
        "c7d361f6-c1cf-44b2-b40a-a18aa90f2d8f"
      ],
      "versions": [
        "c0cc87b9-55b9-40f0-878a-fbb9e34c151e"
      ],
      "warnings": [
        "51288600-29e0-4e41-a42b-77f0498e5691"
      ]
    },
    "titles": {
      "eng": "Humanoid",
      "jpn": "ヒューマノイド"
    },
    "titles_default_language": "eng",
    "title": "Humanoid",
    "year": 2018
  }
}