{
  "header": {
    "version": 4,
    "description": "Karaoke Mugen Karaoke Data File"
  },
  "medias": [
    {
      "version": "Default",
      "filename": "JPN - BanG Dream! - GAME IN - FIRE BIRD.mp4",
      "audiogain": -0.3,
      "loudnorm": "-17.12,-7.62,10.30,-27.39,-2.12",
      "filesize": 87876914,
      "duration": 131,
      "default": true,
      "lyrics": [
        {
          "filename": "JPN - BanG Dream! - GAME IN - FIRE BIRD.ass",
          "default": true,
          "version": "Default",
          "subchecksum": "fd88390acb304760efc35d7da370ca0f"
        }
      ]
    }
  ],
  "data": {
    "created_at": "2021-02-12T17:57:51.862Z",
    "kid": "08e89e39-7950-40d7-9ee4-33bd7f3ceeac",
    "modified_at": "2021-02-25T10:50:32.641Z",
    "repository": "kara.moe",
    "tags": {
      "authors": [
        "79e0aa7d-da9a-4e9a-aa2b-64056a83b49b"
      ],
      "collections": [
        "c7db86a0-ff64-4044-9be4-66dd1ef1d1c1"
      ],
      "creators": [
        "bd4564a8-44e5-454a-9c57-bd2a3c8a537e"
      ],
      "families": [
        "0377db02-3af6-43b8-9b08-c759df3d25c3",
        "dbedd6b3-d125-4cd8-aa32-c4175e4ca3a3"
      ],
      "groups": [
        "ae613721-1fbe-480d-ba6b-d6d0702b184d"
      ],
      "langs": [
        "4dcf9614-7914-42aa-99f4-dbce2e059133"
      ],
      "origins": [
        "938de218-5343-4865-94d3-fb33f2eaa152"
      ],
      "platforms": [
        "213a1a15-e73a-4a08-b3f6-b6e2745a82e5"
      ],
      "series": [
        "a65e956d-39ab-4995-9ede-889c30a5cbf0"
      ],
      "singers": [
        "371f95d8-5385-4728-8dbb-0cd3e5892ce4",
        "4497072a-f5b1-471b-9427-e4dfd4f7158d",
        "7c3886c0-356d-4840-83ad-afa700d96061",
        "b6ca1298-fced-405c-9c84-eab18ebc38ba",
        "c300a86a-ce96-4eeb-9852-9a02750a60cf",
        "d66f3d52-e062-4e01-9964-30f70a8cfe0d"
      ],
      "songtypes": [
        "5e5250d9-351a-4a82-98eb-55db50ad8962"
      ],
      "songwriters": [
        "178dcba7-6d20-40b9-baea-d7d3e38e2c25",
        "af3ffe51-8059-461c-bbb8-78ea388731f3"
      ],
      "franchises": [
        "a65e956d-39ab-4995-9ede-889c30a5cbf0"
      ]
    },
    "title": "FIRE BIRD",
    "titles": {
      "eng": "FIRE BIRD"
    },
    "year": 2019,
    "titles_default_language": "eng"
  }
}