{
  "header": {
    "version": 4,
    "description": "Karaoke Mugen Karaoke Data File"
  },
  "medias": [
    {
      "version": "Default",
      "filename": "JPN - Hunter x Hunter (1999) - OP2 - Taiyou Wa Yoru Mo Kagayaku.mp4",
      "audiogain": 3.91,
      "loudnorm": "-21.15,-7.67,4.30,-31.45,-0.86",
      "filesize": 11125930,
      "duration": 65,
      "default": true,
      "lyrics": [
        {
          "filename": "JPN - Hunter x Hunter (1999) - OP2 - Taiyou Wa Yoru Mo Kagayaku.ass",
          "default": true,
          "version": "Default"
        }
      ]
    }
  ],
  "data": {
    "created_at": "2017-10-11T17:01:52.000Z",
    "ignoreHooks": false,
    "kid": "3ea387a5-2e42-4d4b-bcf0-fcea590bd595",
    "modified_at": "2022-08-23T20:50:27.497Z",
    "repository": "kara.moe",
    "songorder": 2,
    "tags": {
      "authors": [
        "5bdaba57-27f8-4568-8806-76a807728766"
      ],
      "collections": [
        "c7db86a0-ff64-4044-9be4-66dd1ef1d1c1"
      ],
      "creators": [
        "2bf7a71d-d3fc-42ba-8aa0-a94d7ca3888c",
        "5a4e74b0-c9ca-4f09-84fc-e2cb9854ebd6"
      ],
      "families": [
        "0377db02-3af6-43b8-9b08-c759df3d25c3"
      ],
      "genres": [
        "a0aeef4a-6428-45ff-a6e1-468b595930c2"
      ],
      "groups": [
        "24db50aa-a126-4d34-a48a-e45db79c4245"
      ],
      "langs": [
        "4dcf9614-7914-42aa-99f4-dbce2e059133"
      ],
      "origins": [
        "938de218-5343-4865-94d3-fb33f2eaa152"
      ],
      "series": [
        "8b10418d-ba53-4496-9480-e684819e3c52"
      ],
      "singers": [
        "53514c6d-9913-4c3b-8be9-5fe7917746a5"
      ],
      "songtypes": [
        "f02ad9b3-0bd9-4aad-85b3-9976739ba0e4"
      ],
      "songwriters": [
        "76b480b6-54d0-46c3-b3bc-c9deefc7ab3a",
        "e1169d8b-fb93-46a0-ae72-4b04e26f78cb"
      ],
      "franchises": [
        "8a811862-b8d8-4f58-a6b0-316fc3e6cf3a"
      ]
    },
    "titles": {
      "qro": "Taiyou Wa Yoru Mo Kagayaku",
      "jpn": "太陽は夜も輝く"
    },
    "titles_default_language": "qro",
    "title": "Taiyou Wa Yoru Mo Kagayaku",
    "year": 1999
  }
}