{
  "header": {
    "version": 4,
    "description": "Karaoke Mugen Karaoke Data File"
  },
  "medias": [
    {
      "version": "Default",
      "filename": "JPN - Macross Frontier - IN - Iteza Gogo Kuji Don't Be Late.mp4",
      "audiogain": 2.74,
      "loudnorm": "-20.31,-6.76,4.40,-30.54,-0.02",
      "filesize": 66025391,
      "duration": 115,
      "default": true,
      "lyrics": [
        {
          "filename": "JPN - Macross Frontier - IN - Iteza Gogo Kuji Don't Be Late.ass",
          "default": true,
          "version": "Default",
          "subchecksum": "a9e7de61044ffe6699b1d1554827cdae"
        }
      ]
    }
  ],
  "data": {
    "created_at": "2017-10-11T17:01:16.000Z",
    "kid": "ba38821f-c19f-4f6a-b7c8-256d2eaaf558",
    "modified_at": "2021-02-25T12:17:10.449Z",
    "repository": "kara.moe",
    "tags": {
      "authors": [
        "8c22c899-b3ed-42da-a548-ce00f950798b"
      ],
      "collections": [
        "c7db86a0-ff64-4044-9be4-66dd1ef1d1c1"
      ],
      "creators": [
        "0041fabf-4b82-4ecd-961b-e4c49b8c88be"
      ],
      "families": [
        "0377db02-3af6-43b8-9b08-c759df3d25c3"
      ],
      "genres": [
        "caa86df2-0d59-474b-885c-f240a9e891b0",
        "f60ba57d-5ef4-49e0-b93b-d0dcbcff6592"
      ],
      "groups": [
        "3c14c864-533c-49e6-a3cc-6969f1233775",
        "8c22c899-b3ed-42da-a548-ce00f950798b"
      ],
      "langs": [
        "4dcf9614-7914-42aa-99f4-dbce2e059133"
      ],
      "origins": [
        "938de218-5343-4865-94d3-fb33f2eaa152"
      ],
      "series": [
        "2d597a9c-87d8-4da3-a258-7c510480530a"
      ],
      "singers": [
        "d538b18e-e59e-4cb1-85e8-d095c50cd3e1"
      ],
      "songtypes": [
        "5e5250d9-351a-4a82-98eb-55db50ad8962"
      ],
      "songwriters": [
        "1c7f0b50-d145-4bc1-8c3c-0e07af80b13c",
        "47fdee8d-c184-4cf0-b4a6-783c5f94b3d1",
        "54000730-0779-445e-b865-bf6cf2175579",
        "63f55863-6de7-4259-9808-f372497703b5",
        "af0be06d-ea2d-4f46-85d1-58cf9f42532a"
      ],
      "franchises": [
        "01b9b958-2d2a-43d0-a5dd-efb5b14675ea"
      ]
    },
    "title": "Iteza Gogo Kuji Don't Be Late",
    "titles": {
      "qro": "Iteza Gogo Kuji Don't be late",
      "jpn": "射手座☆午後九時Don't be late"
    },
    "year": 2008,
    "titles_default_language": "qro"
  }
}