{
  "header": {
    "version": 4,
    "description": "Karaoke Mugen Karaoke Data File"
  },
  "medias": [
    {
      "version": "Default",
      "filename": "JPN - Hello good-bye - GAME OP - Good-bye crisis.mp4",
      "audiogain": -8.52,
      "loudnorm": "-8.72,0.68,2.90,-18.79,-0.28",
      "filesize": 41808181,
      "duration": 124,
      "default": true,
      "lyrics": [
        {
          "filename": "JPN - Hello good-bye - GAME OP - Good-bye crisis.ass",
          "default": true,
          "version": "Default",
          "subchecksum": "de8f44d785bbc701cd79bfca1741c0a0"
        }
      ]
    }
  ],
  "data": {
    "created_at": "2017-10-11T17:01:00.000Z",
    "kid": "4c9ae351-c1e5-4e89-9368-d0f2143d433a",
    "modified_at": "2021-02-25T11:39:36.621Z",
    "repository": "kara.moe",
    "tags": {
      "authors": [
        "8c22c899-b3ed-42da-a548-ce00f950798b"
      ],
      "collections": [
        "c7db86a0-ff64-4044-9be4-66dd1ef1d1c1"
      ],
      "creators": [
        "4b1ae8d9-804b-47a6-b4ad-2b7e75698154"
      ],
      "families": [
        "dbedd6b3-d125-4cd8-aa32-c4175e4ca3a3"
      ],
      "groups": [
        "8c22c899-b3ed-42da-a548-ce00f950798b",
        "ae613721-1fbe-480d-ba6b-d6d0702b184d"
      ],
      "langs": [
        "4dcf9614-7914-42aa-99f4-dbce2e059133"
      ],
      "origins": [
        "2f96e82c-c61b-4413-817e-e6b247509b95"
      ],
      "series": [
        "303b6f0b-cecd-4991-9848-5b998d139e35"
      ],
      "singers": [
        "6a753fb0-b967-466a-93d5-9cb565276787"
      ],
      "songtypes": [
        "f02ad9b3-0bd9-4aad-85b3-9976739ba0e4"
      ],
      "songwriters": [
        "a6b16a50-f9df-4050-988f-d541f835f189"
      ]
    },
    "title": "Good-bye crisis",
    "titles": {
      "eng": "Good-bye crisis"
    },
    "year": 2010,
    "titles_default_language": "eng"
  }
}