{
  "header": {
    "version": 4,
    "description": "Karaoke Mugen Karaoke Data File"
  },
  "medias": [
    {
      "version": "Default",
      "filename": "JPN - Mentholatum Lip Baby - CM - Kuro Neko Kanna.mp4",
      "audiogain": -3.93,
      "loudnorm": "-13.40,-2.93,2.80,-23.44,-0.26",
      "filesize": 14476902,
      "duration": 47,
      "default": true,
      "lyrics": [
        {
          "filename": "JPN - Mentholatum Lip Baby - CM - Kuro Neko Kanna.ass",
          "default": true,
          "version": "Default",
          "subchecksum": "e1b513ac73bef217ec774ea71bf062bb"
        }
      ]
    }
  ],
  "data": {
    "created_at": "2018-06-17T17:47:48.000Z",
    "kid": "f84af389-7ab2-4f52-b014-17e313ddf2ee",
    "modified_at": "2021-02-25T12:24:36.135Z",
    "repository": "kara.moe",
    "tags": {
      "authors": [
        "0081300d-c0f9-4cff-a4f7-e726a293a76b"
      ],
      "collections": [
        "c7db86a0-ff64-4044-9be4-66dd1ef1d1c1"
      ],
      "creators": [
        "a835722d-748c-44bc-b3f0-b6dbdbf155ff"
      ],
      "families": [
        "5391f9fe-638c-415f-8dc9-958e3a2c5787"
      ],
      "groups": [
        "ae613721-1fbe-480d-ba6b-d6d0702b184d"
      ],
      "langs": [
        "4dcf9614-7914-42aa-99f4-dbce2e059133"
      ],
      "series": [
        "a835722d-748c-44bc-b3f0-b6dbdbf155ff"
      ],
      "singers": [
        "435044cc-4ea8-4cf1-9542-d1427c8f7ae9"
      ],
      "songtypes": [
        "2ddb5358-e674-46fa-a6e1-7f5c5d56f8fa"
      ],
      "songwriters": [
        "435044cc-4ea8-4cf1-9542-d1427c8f7ae9"
      ]
    },
    "title": "Kuro Neko Kanna",
    "titles": {
      "qro": "Kuro Neko Kanna",
      "jpn": "黒猫カンナ"
    },
    "year": 2016,
    "titles_default_language": "qro"
  }
}