{
  "header": {
    "version": 4,
    "description": "Karaoke Mugen Karaoke Data File"
  },
  "medias": [
    {
      "version": "Default",
      "filename": "JPN - A3! - GAME OP1 - MANKAI Kaika Sengen.mp4",
      "audiogain": -5.32,
      "loudnorm": "-11.55,0.33,2.50,-21.68,-0.41",
      "filesize": 36977156,
      "duration": 89,
      "default": true,
      "lyrics": [
        {
          "filename": "JPN - A3! - GAME OP1 - MANKAI Kaika Sengen.ass",
          "default": true,
          "version": "Default",
          "subchecksum": "3ea4bdcd9071ba974ec15c3e86bf478b"
        }
      ]
    }
  ],
  "data": {
    "created_at": "2019-10-23T17:48:51.000Z",
    "kid": "332a3907-0de8-48f0-97e9-f30fe3a62d7a",
    "modified_at": "2021-02-25T10:35:21.953Z",
    "repository": "kara.moe",
    "songorder": 1,
    "tags": {
      "authors": [
        "2a9bbf75-0722-4b4a-9935-caa92f38fdd1"
      ],
      "collections": [
        "c7db86a0-ff64-4044-9be4-66dd1ef1d1c1"
      ],
      "creators": [
        "abb52f1c-dbab-4741-b9f0-06b94d4ce186"
      ],
      "families": [
        "dbedd6b3-d125-4cd8-aa32-c4175e4ca3a3"
      ],
      "groups": [
        "ae613721-1fbe-480d-ba6b-d6d0702b184d"
      ],
      "langs": [
        "4dcf9614-7914-42aa-99f4-dbce2e059133"
      ],
      "origins": [
        "7025ae3c-7bd6-4787-8912-2c15063343bb"
      ],
      "platforms": [
        "213a1a15-e73a-4a08-b3f6-b6e2745a82e5"
      ],
      "series": [
        "9867d3f4-fe37-4dc7-bd6a-ca4cbd5c029d"
      ],
      "singers": [
        "04ce2372-4c57-4c48-ac66-86f86e26d0e3",
        "7b2309a3-647f-4e4e-9c18-354e4f479a54",
        "930cbfdb-5069-4ce6-8f32-166063166e5e",
        "cf0e8acf-f0b0-4c02-a74e-ad96671fa39a"
      ],
      "songtypes": [
        "f02ad9b3-0bd9-4aad-85b3-9976739ba0e4"
      ],
      "songwriters": [
        "b531ddea-8318-4347-a511-cda312bf5182"
      ],
      "franchises": [
        "9867d3f4-fe37-4dc7-bd6a-ca4cbd5c029d"
      ]
    },
    "title": "MANKAI☆Kaika Sengen",
    "titles": {
      "qro": "MANKAI☆Kaika Sengen",
      "jpn": "MANKAI☆開花宣言"
    },
    "year": 2017,
    "titles_default_language": "qro"
  }
}