{
  "header": {
    "version": 4,
    "description": "Karaoke Mugen Karaoke Data File"
  },
  "medias": [
    {
      "version": "Default",
      "filename": "JPN - Bleach Sennen Kessen Hen - ED2 - SAIHATE.mp4",
      "audiogain": 6.74,
      "loudnorm": "-23.50,-10.10,5.20,-33.55,-1.22",
      "filesize": 48071833,
      "duration": 91,
      "default": true,
      "lyrics": [
        {
          "filename": "JPN - Bleach Sennen Kessen Hen - ED2 - SAIHATE.ass",
          "default": true,
          "version": "Default"
        }
      ]
    }
  ],
  "data": {
    "created_at": "2022-12-22T22:54:38.382Z",
    "ignoreHooks": false,
    "kid": "1a1fc7b1-0d87-4099-b448-7e58b8a8712a",
    "modified_at": "2022-12-22T23:06:07.238Z",
    "repository": "kara.moe",
    "songorder": 2,
    "tags": {
      "authors": [
        "db867b9b-f487-444d-9f24-142c4324a235"
      ],
      "collections": [
        "c7db86a0-ff64-4044-9be4-66dd1ef1d1c1"
      ],
      "creators": [
        "aaff4ba6-9a12-4bac-9bd0-c0cb783e4177"
      ],
      "families": [
        "0377db02-3af6-43b8-9b08-c759df3d25c3"
      ],
      "groups": [
        "8e209ae4-4381-438f-89dc-1b21752027d2"
      ],
      "langs": [
        "4dcf9614-7914-42aa-99f4-dbce2e059133"
      ],
      "origins": [
        "938de218-5343-4865-94d3-fb33f2eaa152"
      ],
      "series": [
        "7207e0c9-f179-45a0-9504-ffc9940bc439"
      ],
      "singers": [
        "5a0b658f-4741-40e2-b482-e165d2790129"
      ],
      "songtypes": [
        "38c77c56-2b95-4040-b676-0994a8cb0597"
      ],
      "songwriters": [
        "59621685-8dc1-4ce1-93b3-cf6c11dda3aa"
      ],
      "franchises": [
        "d68e6557-fdc3-4c8b-805c-9778918abd03"
      ]
    },
    "titles": {
      "jpn": "最果て",
      "qro": "SAIHATE"
    },
    "titles_default_language": "qro",
    "year": 2022
  }
}