{
  "header": {
    "version": 4,
    "description": "Karaoke Mugen Karaoke Data File"
  },
  "medias": [
    {
      "version": "Default",
      "filename": "JPN - Muv-Luv Alternative - XBOX360 GAME OP - Metamorphose.mp4",
      "audiogain": -3.8,
      "loudnorm": "-13.64,-2.31,2.90,-23.78,-0.66",
      "filesize": 32190105,
      "duration": 93,
      "default": true,
      "lyrics": [
        {
          "filename": "JPN - Muv-Luv Alternative - XBOX360 GAME OP - Metamorphose.ass",
          "default": true,
          "version": "Default",
          "subchecksum": "7acd548185930d9bf979e1af39cbd423"
        }
      ]
    }
  ],
  "data": {
    "created_at": "2017-10-11T17:01:03.000Z",
    "kid": "50638c6b-32cf-4587-90db-4dc1d9c5a69f",
    "modified_at": "2021-02-25T12:31:21.488Z",
    "repository": "kara.moe",
    "tags": {
      "authors": [
        "5bdaba57-27f8-4568-8806-76a807728766"
      ],
      "collections": [
        "c7db86a0-ff64-4044-9be4-66dd1ef1d1c1"
      ],
      "creators": [
        "5e87ca69-52dd-4df4-957a-5a24d5a19c94"
      ],
      "families": [
        "dbedd6b3-d125-4cd8-aa32-c4175e4ca3a3"
      ],
      "groups": [
        "ae613721-1fbe-480d-ba6b-d6d0702b184d"
      ],
      "langs": [
        "4dcf9614-7914-42aa-99f4-dbce2e059133"
      ],
      "misc": [
        "fe819ff1-9db8-4a0f-85dc-0e322c9126c4"
      ],
      "platforms": [
        "d56f8d9d-9ccd-4ac8-a164-da0e62d1c060"
      ],
      "series": [
        "7c966609-3c82-45a4-b115-fd61bb5f25fe"
      ],
      "singers": [
        "a14aaac9-98b8-4298-a7d6-ea4945750704"
      ],
      "songtypes": [
        "f02ad9b3-0bd9-4aad-85b3-9976739ba0e4"
      ],
      "songwriters": [
        "44be46e3-16bf-4de0-b43f-5518c24ec897",
        "6a753fb0-b967-466a-93d5-9cb565276787"
      ],
      "franchises": [
        "71cd681c-bb96-412d-b6af-6c134af20758"
      ]
    },
    "title": "Metamorphose",
    "titles": {
      "eng": "Metamorphose"
    },
    "year": 2011,
    "titles_default_language": "eng"
  }
}