{
  "header": {
    "version": 4,
    "description": "Karaoke Mugen Karaoke Data File"
  },
  "medias": [
    {
      "version": "Default",
      "filename": "JPN - Brothers Conflict Brilliant Blue - PSP GAME OP - JEALOUSNESS.mp4",
      "audiogain": -10.41,
      "loudnorm": "-7.30,2.08,6.60,-17.49,-1.27",
      "filesize": 18765049,
      "duration": 102,
      "default": true,
      "lyrics": [
        {
          "filename": "JPN - Brothers Conflict Brilliant Blue - PSP GAME OP - JEALOUSNESS.ass",
          "default": true,
          "version": "Default",
          "subchecksum": "c6954643192e8554c6787633e23ab821"
        }
      ]
    }
  ],
  "data": {
    "created_at": "2019-03-18T21:00:58.000Z",
    "kid": "abecde85-39fe-4eda-a1f4-c83dbc6c29d1",
    "modified_at": "2021-02-25T10:57:05.702Z",
    "repository": "kara.moe",
    "tags": {
      "authors": [
        "2a9bbf75-0722-4b4a-9935-caa92f38fdd1"
      ],
      "collections": [
        "c7db86a0-ff64-4044-9be4-66dd1ef1d1c1"
      ],
      "creators": [
        "98ab71c6-8066-4d59-84a2-9833a27ec461"
      ],
      "families": [
        "dbedd6b3-d125-4cd8-aa32-c4175e4ca3a3"
      ],
      "groups": [
        "ae613721-1fbe-480d-ba6b-d6d0702b184d"
      ],
      "langs": [
        "4dcf9614-7914-42aa-99f4-dbce2e059133"
      ],
      "origins": [
        "2f96e82c-c61b-4413-817e-e6b247509b95",
        "7025ae3c-7bd6-4787-8912-2c15063343bb"
      ],
      "platforms": [
        "6b101aff-4b7b-4b0d-b35e-0f1b67e38c9b"
      ],
      "series": [
        "00f35bbf-0f7a-4ea6-a646-5036907f19d7"
      ],
      "singers": [
        "1b061bf9-73e5-4365-b3f3-c31872fd8dab",
        "25b5b099-190e-4322-b0a8-04f4048d4ac8",
        "4b4122e3-bf19-4376-88fb-3b8cd31be1f0"
      ],
      "songtypes": [
        "f02ad9b3-0bd9-4aad-85b3-9976739ba0e4"
      ],
      "songwriters": [
        "72691741-9993-4a2c-a30b-4346a674ddd9",
        "8092d09e-8e76-4556-9245-93c5cb8e592a"
      ],
      "franchises": [
        "75f9df2e-2765-4f44-b4d4-7c3501d3f441"
      ]
    },
    "title": "JEALOUSNESS",
    "titles": {
      "eng": "JEALOUSNESS"
    },
    "year": 2013,
    "titles_default_language": "eng"
  }
}