{
  "header": {
    "version": 4,
    "description": "Karaoke Mugen Karaoke Data File"
  },
  "medias": [
    {
      "version": "Default",
      "filename": "JPN - Kamen Rider Skyrider - OP2 - Otoko no Na wa Kamen Rider.mp4",
      "audiogain": 2.24,
      "loudnorm": "-20.12,-10.02,3.10,-30.35,0.08",
      "filesize": 14212532,
      "duration": 79,
      "default": true,
      "lyrics": [
        {
          "filename": "JPN - Kamen Rider Skyrider - OP2 - Otoko no Na wa Kamen Rider.ass",
          "default": true,
          "version": "Default",
          "subchecksum": "52db60ab1402b77807a17f66a5476389"
        }
      ]
    }
  ],
  "data": {
    "created_at": "2017-10-11T17:01:54.000Z",
    "kid": "47958614-d331-43cb-a609-398e9f83e94a",
    "modified_at": "2021-02-25T11:53:19.673Z",
    "repository": "kara.moe",
    "songorder": 2,
    "tags": {
      "authors": [
        "e746046a-82f1-41af-aa58-e59c92f5c273"
      ],
      "collections": [
        "c7db86a0-ff64-4044-9be4-66dd1ef1d1c1"
      ],
      "creators": [
        "e32b14df-502b-45fa-9ca5-37554a63a4d7"
      ],
      "families": [
        "5391f9fe-638c-415f-8dc9-958e3a2c5787"
      ],
      "groups": [
        "7792cc27-9ff9-4d47-9287-2338b7db1575"
      ],
      "langs": [
        "4dcf9614-7914-42aa-99f4-dbce2e059133"
      ],
      "origins": [
        "938de218-5343-4865-94d3-fb33f2eaa152",
        "d3fac9ab-630d-402d-a392-3d2450c3e62e"
      ],
      "series": [
        "207d788f-5620-4fe3-bad4-7670a9c688a0"
      ],
      "singers": [
        "59a38148-e0a8-43df-b149-a6118d9f2d4d"
      ],
      "songtypes": [
        "f02ad9b3-0bd9-4aad-85b3-9976739ba0e4"
      ],
      "songwriters": [
        "243e8e37-f06b-4260-bc77-07b341904562",
        "d7ba6db9-164d-451c-a74b-ceb9c5435fe3"
      ],
      "franchises": [
        "93386847-9ab0-468e-bad0-e1d655e0e0ec"
      ]
    },
    "title": "Otoko no Na wa Kamen Rider",
    "titles": {
      "qro": "Otoko no Na wa Kamen Rider",
      "jpn": "男の名は仮面ライダー"
    },
    "year": 1980,
    "titles_default_language": "qro"
  }
}