{
  "header": {
    "version": 4,
    "description": "Karaoke Mugen Karaoke Data File"
  },
  "medias": [
    {
      "version": "Default",
      "filename": "JPN - Senki Zesshou Symphogear XD Unlimited - GAME OP1 - UNLIMITED BEAT.mp4",
      "audiogain": -9.23,
      "loudnorm": "-7.77,0.81,4.70,-18.02,-1.11",
      "filesize": 38803233,
      "duration": 108,
      "default": true,
      "lyrics": [
        {
          "filename": "JPN - Senki Zesshou Symphogear XD Unlimited - GAME OP1 - UNLIMITED BEAT.ass",
          "default": true,
          "version": "Default",
          "subchecksum": "e2a9edb19379bb21a31c0992c2f43d20"
        }
      ]
    }
  ],
  "data": {
    "created_at": "2019-04-03T19:35:01.000Z",
    "kid": "6160541d-75f4-49c2-a88b-048ffd879a34",
    "modified_at": "2021-02-25T13:01:05.266Z",
    "repository": "kara.moe",
    "songorder": 1,
    "tags": {
      "authors": [
        "5a629611-96b4-422c-b309-ba7a58e263a2"
      ],
      "collections": [
        "c7db86a0-ff64-4044-9be4-66dd1ef1d1c1"
      ],
      "creators": [
        "0041fabf-4b82-4ecd-961b-e4c49b8c88be",
        "6cba3734-d521-4ec3-be2d-3c93b36a5fb1",
        "bd4564a8-44e5-454a-9c57-bd2a3c8a537e"
      ],
      "families": [
        "dbedd6b3-d125-4cd8-aa32-c4175e4ca3a3"
      ],
      "genres": [
        "b84e28f9-db1e-447f-b339-7954c3592523"
      ],
      "groups": [
        "ae613721-1fbe-480d-ba6b-d6d0702b184d"
      ],
      "langs": [
        "4dcf9614-7914-42aa-99f4-dbce2e059133"
      ],
      "platforms": [
        "213a1a15-e73a-4a08-b3f6-b6e2745a82e5"
      ],
      "series": [
        "99a6a137-2984-4db4-a59c-66014ffae310"
      ],
      "singers": [
        "6d2045b2-80ab-45ff-a131-c4df02ef52d1"
      ],
      "songtypes": [
        "f02ad9b3-0bd9-4aad-85b3-9976739ba0e4"
      ],
      "songwriters": [
        "178dcba7-6d20-40b9-baea-d7d3e38e2c25",
        "af3ffe51-8059-461c-bbb8-78ea388731f3"
      ],
      "franchises": [
        "61b24082-a6a9-482b-b126-0ad7be595791"
      ]
    },
    "title": "UNLIMITED BEAT",
    "titles": {
      "eng": "UNLIMITED BEAT"
    },
    "year": 2016,
    "titles_default_language": "eng"
  }
}