{
  "header": {
    "description": "Karaoke Mugen Karaoke Data File",
    "version": 4
  },
  "medias": [
    {
      "version": "Default",
      "filename": "JPN - Ken ga Kimi - GAME PC CS - Yume no Hashi ~ Short Vers.mp4",
      "audiogain": -6.2,
      "loudnorm": "-11.74,0.55,6.60,-21.82,-1.31",
      "filesize": 28825321,
      "duration": 113,
      "default": true,
      "lyrics": [
        {
          "filename": "JPN - Ken ga Kimi - GAME PC CS - Yume no Hashi ~ Short Vers.ass",
          "default": true,
          "version": "Default"
        }
      ]
    }
  ],
  "data": {
    "created_at": "2022-11-06T17:23:04.269Z",
    "kid": "5f9a9680-0397-4c91-9f9c-19315c49a173",
    "modified_at": "2022-11-06T17:23:04.269Z",
    "tags": {
      "authors": [
        "0c8a5287-3954-48ce-b8ad-3d54e54bf96e"
      ],
      "collections": [
        "c7db86a0-ff64-4044-9be4-66dd1ef1d1c1"
      ],
      "creators": [
        "0a0e4a48-34fa-4892-8ff0-0307e778f9ec"
      ],
      "families": [
        "dbedd6b3-d125-4cd8-aa32-c4175e4ca3a3"
      ],
      "groups": [
        "ae613721-1fbe-480d-ba6b-d6d0702b184d"
      ],
      "langs": [
        "4dcf9614-7914-42aa-99f4-dbce2e059133"
      ],
      "origins": [
        "7025ae3c-7bd6-4787-8912-2c15063343bb",
        "2f96e82c-c61b-4413-817e-e6b247509b95"
      ],
      "platforms": [
        "3c15f758-e1bc-4266-8bb9-3c14112f504a",
        "e791f168-068f-4c05-aa36-e8d63726aa06",
        "0a880bfc-d0e5-448b-98d2-4ba7b3106641"
      ],
      "series": [
        "8ba8e0a6-0637-4261-887e-7fd6172e0de7"
      ],
      "singers": [
        "4b4122e3-bf19-4376-88fb-3b8cd31be1f0",
        "ddd17e71-911e-4df4-b414-5dce382a6af0"
      ],
      "songtypes": [
        "a8a2616c-b5a1-4df3-ad6f-89291bc67dee"
      ],
      "songwriters": [
        "46cc8524-518b-4090-a322-4082a047dd21",
        "c41cb891-206a-45e5-bf1c-5b98f2958b89"
      ],
      "versions": [
        "d125c80a-86c1-4321-88e9-07b7800679b6"
      ],
      "franchises": [
        "77fe4d4a-2893-4f5f-9ab0-912a7474f4f7"
      ]
    },
    "titles": {
      "qro": "Yume no Hashi",
      "jpn": "夢の橋"
    },
    "titles_default_language": "qro",
    "titles_aliases": [],
    "title": "Yume no Hashi",
    "year": "2015",
    "repository": "kara.moe"
  }
}