{
  "header": {
    "version": 4,
    "description": "Karaoke Mugen Karaoke Data File"
  },
  "medias": [
    {
      "version": "Default",
      "filename": "JPN - Slayers Return - MOVIE ED - Just Be Conscious.avi",
      "audiogain": -5.58,
      "loudnorm": "-13.30,-0.77,5.00,-23.40,-0.73",
      "filesize": 18997716,
      "duration": 190,
      "default": true,
      "lyrics": [
        {
          "filename": "JPN - Slayers Return - MOVIE ED - Just Be Conscious.ass",
          "default": true,
          "version": "Default",
          "subchecksum": "bdd0b11c8509cb380680d63f45fecc36"
        }
      ]
    }
  ],
  "data": {
    "created_at": "2017-10-11T17:02:09.000Z",
    "kid": "7a05cd26-dd7f-4aad-9eae-2d82162308b4",
    "modified_at": "2021-02-25T13:08:45.658Z",
    "repository": "kara.moe",
    "tags": {
      "authors": [
        "5bdaba57-27f8-4568-8806-76a807728766"
      ],
      "collections": [
        "c7db86a0-ff64-4044-9be4-66dd1ef1d1c1"
      ],
      "creators": [
        "802a8ac8-b16f-40a4-944b-99956798c906"
      ],
      "families": [
        "0377db02-3af6-43b8-9b08-c759df3d25c3"
      ],
      "groups": [
        "24db50aa-a126-4d34-a48a-e45db79c4245"
      ],
      "langs": [
        "4dcf9614-7914-42aa-99f4-dbce2e059133"
      ],
      "origins": [
        "c8ca9dea-d8b4-48fe-8427-d911653232e9"
      ],
      "series": [
        "3a6fc03e-950a-49c1-b311-c69eaf0c6b53"
      ],
      "singers": [
        "326621ef-f074-4b13-9921-9728c65a6dff"
      ],
      "songtypes": [
        "38c77c56-2b95-4040-b676-0994a8cb0597"
      ],
      "songwriters": [
        "326621ef-f074-4b13-9921-9728c65a6dff",
        "b424ad69-c619-4537-bf0b-326737dda311"
      ],
      "franchises": [
        "6adad8cc-6f70-4fc9-bc1b-92d805bb3103"
      ]
    },
    "title": "Just Be Conscious",
    "titles": {
      "eng": "Just be conscious"
    },
    "year": 1996,
    "titles_default_language": "eng"
  }
}