{
  "header": {
    "version": 4,
    "description": "Karaoke Mugen Karaoke Data File"
  },
  "medias": [
    {
      "version": "Default",
      "filename": "JPN - Twisted Wonderland - GAME OP - Piece of my world.mp4",
      "audiogain": -2,
      "loudnorm": "-14.94,-4.68,3.60,-25.30,-0.73",
      "filesize": 22546088,
      "duration": 105,
      "default": true,
      "lyrics": [
        {
          "filename": "JPN - Twisted Wonderland - GAME OP - Piece of my world.ass",
          "default": true,
          "version": "Default"
        }
      ]
    }
  ],
  "data": {
    "comment": "Vous avez de la chance que ma soeur joue à ce jeu (je rigole)",
    "created_at": "2023-01-05T15:56:08.128Z",
    "ignoreHooks": false,
    "kid": "1d8ee3fb-6901-48b4-97cd-744bec5b478d",
    "modified_at": "2023-01-05T15:56:08.712Z",
    "repository": "kara.moe",
    "tags": {
      "authors": [
        "a3a99b23-6c42-4d38-8863-491153187437"
      ],
      "collections": [
        "c7db86a0-ff64-4044-9be4-66dd1ef1d1c1"
      ],
      "creators": [
        "dc045ff3-dbd9-4080-821b-2e6ee13d0e4d"
      ],
      "families": [
        "dbedd6b3-d125-4cd8-aa32-c4175e4ca3a3"
      ],
      "groups": [
        "8e209ae4-4381-438f-89dc-1b21752027d2"
      ],
      "langs": [
        "4dcf9614-7914-42aa-99f4-dbce2e059133"
      ],
      "platforms": [
        "213a1a15-e73a-4a08-b3f6-b6e2745a82e5"
      ],
      "series": [
        "50c7e352-b6c4-4aee-93ba-d5b7115ba9be"
      ],
      "singers": [
        "34ddabb5-7c03-45e4-8877-63768a050b79",
        "99994b9c-f994-4ae7-a455-8fca6c92f845",
        "49588943-12b7-442f-8160-46000e7e440d",
        "4a6d1fe0-3652-4749-a6c2-28662c5ed752"
      ],
      "singergroups": [
        "8e420c63-f1a4-4ed2-aa90-e081f59de651"
      ],
      "songtypes": [
        "f02ad9b3-0bd9-4aad-85b3-9976739ba0e4"
      ],
      "songwriters": [
        "86ae2edf-866e-405d-8f02-f8df5ae54316"
      ]
    },
    "titles": {
      "eng": "Piece of my world"
    },
    "titles_default_language": "eng",
    "year": 2020
  }
}