{
  "header": {
    "version": 4,
    "description": "Karaoke Mugen Karaoke Data File"
  },
  "medias": [
    {
      "version": "Default",
      "filename": "JPN - Tokusou Exceedraft - ED - Goal Wa Mirai.mp4",
      "audiogain": 7.81,
      "loudnorm": "-25.63,-14.23,2.30,-35.63,-0.02",
      "filesize": 18344053,
      "duration": 82,
      "default": true,
      "lyrics": [
        {
          "filename": "JPN - Tokusou Exceedraft - ED - Goal Wa Mirai.ass",
          "default": true,
          "version": "Default",
          "subchecksum": "14acb8e7240e590261d2840bbb3f4bfc"
        }
      ]
    }
  ],
  "data": {
    "created_at": "2018-11-29T20:59:28.000Z",
    "kid": "caf375e5-0d3d-4bde-80d7-0544dfa816cf",
    "modified_at": "2021-02-25T13:25:02.431Z",
    "repository": "kara.moe",
    "tags": {
      "authors": [
        "4607780c-f1ef-47cf-9c1c-b13e8f731699"
      ],
      "collections": [
        "c7db86a0-ff64-4044-9be4-66dd1ef1d1c1"
      ],
      "creators": [
        "e32b14df-502b-45fa-9ca5-37554a63a4d7"
      ],
      "families": [
        "5391f9fe-638c-415f-8dc9-958e3a2c5787"
      ],
      "groups": [
        "24db50aa-a126-4d34-a48a-e45db79c4245"
      ],
      "langs": [
        "4dcf9614-7914-42aa-99f4-dbce2e059133"
      ],
      "origins": [
        "938de218-5343-4865-94d3-fb33f2eaa152",
        "d3fac9ab-630d-402d-a392-3d2450c3e62e"
      ],
      "series": [
        "8d06bb69-1a26-4b32-9bb2-5f5ad5b5730e"
      ],
      "singers": [
        "da3a7a95-256b-4b15-9dfc-840c7b1c1cff"
      ],
      "songtypes": [
        "38c77c56-2b95-4040-b676-0994a8cb0597"
      ],
      "songwriters": [
        "87318906-ace0-4dab-82a8-d2106f79b62d",
        "d701acc8-0468-4917-829c-1932f2af8361"
      ],
      "franchises": [
        "dc364e7e-7b58-4721-b6cf-a19a1687dfbc"
      ]
    },
    "title": "Goal Wa Mirai",
    "titles": {
      "qro": "Goal Wa Mirai",
      "jpn": "ゴールは未来"
    },
    "year": 1992,
    "titles_default_language": "qro"
  }
}