{
  "header": {
    "version": 4,
    "description": "Karaoke Mugen Karaoke Data File"
  },
  "medias": [
    {
      "version": "Default",
      "filename": "JPN - Touhou - MV - Wakasagi-hime no Inochi wo Kaketa Sushi Neta Hyappon Shoubu.mp4",
      "audiogain": -0.29,
      "loudnorm": "-17.13,-8.56,2.70,-27.22,-1.09",
      "filesize": 61164273,
      "duration": 178,
      "default": true,
      "lyrics": [
        {
          "filename": "JPN - Touhou - MV - Wakasagi-hime no Inochi wo Kaketa Sushi Neta Hyappon Shoubu.ass",
          "default": true,
          "version": "Default"
        }
      ]
    }
  ],
  "data": {
    "created_at": "2022-10-23T11:14:52.942Z",
    "ignoreHooks": false,
    "kid": "424bbdcc-5e28-4c6f-8fa8-d17fd285c7fc",
    "modified_at": "2022-10-23T12:01:01.995Z",
    "repository": "kara.moe",
    "tags": {
      "authors": [
        "1631228b-9125-497a-aafc-66f920a44a02"
      ],
      "collections": [
        "c7db86a0-ff64-4044-9be4-66dd1ef1d1c1"
      ],
      "creators": [
        "25fc251a-0514-4bf5-a818-dd0547723f4a",
        "358558ee-7a4f-48df-9b0a-5987c4be3191"
      ],
      "families": [
        "0377db02-3af6-43b8-9b08-c759df3d25c3"
      ],
      "groups": [
        "8c22c899-b3ed-42da-a548-ce00f950798b",
        "ae613721-1fbe-480d-ba6b-d6d0702b184d"
      ],
      "langs": [
        "4dcf9614-7914-42aa-99f4-dbce2e059133"
      ],
      "series": [
        "1bdaa5a1-dfa6-4365-b746-7a0b194dafd6"
      ],
      "singers": [
        "8742acdc-528b-43ba-ae39-41bb65d01578"
      ],
      "songtypes": [
        "7be1b15c-cff8-4b37-a649-5c90f3d569a9"
      ],
      "songwriters": [
        "26cb5252-8510-49e0-897c-a611a05fc056",
        "c4896271-4c7f-4ca4-b4ec-967f4c1fffb5"
      ],
      "franchises": [
        "1bdaa5a1-dfa6-4365-b746-7a0b194dafd6"
      ]
    },
    "titles": {
      "eng": "Wakasagihime stakes her life on a 100 sushi-topping game",
      "jpn": "わかさぎ姫の寿司ネタ100本勝負",
      "qro": "Wakasagi-hime no Inochi wo Kaketa Sushi Neta Hyappon Shoubu"
    },
    "titles_default_language": "qro",
    "titles_aliases": [
      "Wakasagihime's 100 Sushi Topping Game"
    ],
    "title": "Wakasagi-hime no Inochi wo Kaketa Sushi Neta Hyappon Shoubu",
    "year": 2015
  }
}