{
  "header": {
    "version": 4,
    "description": "Karaoke Mugen Karaoke Data File"
  },
  "medias": [
    {
      "version": "Default",
      "filename": "JPN - Katte ni Kaizou - OVA AUDIO OP - Katte ni Kaizou Shitemo Iize ~ Full Vers.mp3",
      "audiogain": -4.56,
      "loudnorm": "-12.46,-3.92,1.90,-22.49,-0.29",
      "filesize": 4628373,
      "duration": 281,
      "default": true,
      "lyrics": [
        {
          "filename": "JPN - Katte ni Kaizou - OVA AUDIO OP - Katte ni Kaizou Shitemo Iize ~ Full Vers.ass",
          "default": true,
          "version": "Default"
        }
      ]
    }
  ],
  "data": {
    "created_at": "2020-07-16T18:23:56.106Z",
    "ignoreHooks": false,
    "kid": "8a1424cd-b83c-4c40-a0c5-6d05dbe69474",
    "modified_at": "2022-10-01T09:32:25.449Z",
    "parents": [
      "12361157-7940-4377-a9d6-6726e39fba03"
    ],
    "repository": "kara.moe",
    "tags": {
      "authors": [
        "60defa7b-774e-4680-8321-51b742c2e009"
      ],
      "collections": [
        "c7db86a0-ff64-4044-9be4-66dd1ef1d1c1"
      ],
      "families": [
        "0377db02-3af6-43b8-9b08-c759df3d25c3"
      ],
      "groups": [
        "60defa7b-774e-4680-8321-51b742c2e009",
        "ae613721-1fbe-480d-ba6b-d6d0702b184d"
      ],
      "langs": [
        "4dcf9614-7914-42aa-99f4-dbce2e059133"
      ],
      "origins": [
        "2a6ef087-a000-4f8e-aeb5-9a7968756a36"
      ],
      "series": [
        "c6fb9976-be3e-4370-8a40-faa8348e6da2"
      ],
      "singers": [
        "59a38148-e0a8-43df-b149-a6118d9f2d4d",
        "eee24839-be31-4ddb-9618-9d09b22b399c"
      ],
      "songtypes": [
        "42a262ae-acba-4ab5-a446-c5789c96c821",
        "f02ad9b3-0bd9-4aad-85b3-9976739ba0e4"
      ],
      "songwriters": [
        "3dbbd34c-41e4-41e7-ac89-fdd98e2917bf",
        "73891345-3936-40de-9be6-65be73cea737"
      ],
      "versions": [
        "c2143a7f-6970-450e-8a79-0302db9220a9"
      ]
    },
    "titles": {
      "jpn": "かってに改造してもいいぜ",
      "qro": "Katte ni Kaizô Shitemo Iize"
    },
    "titles_default_language": "qro",
    "title": "Katte ni Kaizô Shitemo Iize",
    "year": 2011,
    "titles_aliases": [
      "Kaizou"
    ]
  }
}