{
  "header": {
    "version": 4,
    "description": "Karaoke Mugen Karaoke Data File"
  },
  "medias": [
    {
      "version": "Default",
      "filename": "JPN - Ranma (1993) - OVA OP - Koi Da! Panic.mp4",
      "audiogain": -1.93,
      "loudnorm": "-16.02,-2.14,3.50,-26.30,-0.45",
      "filesize": 25941895,
      "duration": 90,
      "default": true,
      "lyrics": [
        {
          "filename": "JPN - Ranma (1993) - OVA OP - Koi Da! Panic.ass",
          "default": true,
          "version": "Default",
          "subchecksum": "55ea0f3d91c7e0fe98b8df7098764057"
        }
      ]
    }
  ],
  "data": {
    "created_at": "2021-03-08T21:26:05.614Z",
    "kid": "cac3adbe-3ab8-4e23-918d-5961f3bb015f",
    "modified_at": "2021-03-08T21:31:51.036Z",
    "repository": "kara.moe",
    "tags": {
      "authors": [
        "1d7745a8-73ea-40bb-ad99-826af98f6e41"
      ],
      "collections": [
        "c7db86a0-ff64-4044-9be4-66dd1ef1d1c1"
      ],
      "creators": [
        "a590547a-0ccc-4ec7-953d-59c9ee48df87"
      ],
      "families": [
        "0377db02-3af6-43b8-9b08-c759df3d25c3"
      ],
      "groups": [
        "24db50aa-a126-4d34-a48a-e45db79c4245"
      ],
      "langs": [
        "4dcf9614-7914-42aa-99f4-dbce2e059133"
      ],
      "origins": [
        "2a6ef087-a000-4f8e-aeb5-9a7968756a36"
      ],
      "series": [
        "89b1c01d-d36a-46df-a63d-92e28a19a904"
      ],
      "singers": [
        "55fe7bdd-c8f3-4bf3-adf5-9c2840c60a82"
      ],
      "songtypes": [
        "f02ad9b3-0bd9-4aad-85b3-9976739ba0e4"
      ],
      "songwriters": [
        "55fe7bdd-c8f3-4bf3-adf5-9c2840c60a82"
      ],
      "franchises": [
        "612d672d-2134-4505-a430-6aa3dd8896db"
      ]
    },
    "title": "Koi Da! Panic",
    "titles": {
      "qro": "Koi Da! Panic",
      "jpn": "恋だ!パニック"
    },
    "year": 1993,
    "titles_default_language": "qro"
  }
}