{
  "header": {
    "version": 4,
    "description": "Karaoke Mugen Karaoke Data File"
  },
  "medias": [
    {
      "version": "Default",
      "filename": "JPN - AAA - MV - Mirage.mp4",
      "audiogain": -6.99,
      "loudnorm": "-10.02,1.58,3.30,-20.07,-0.61",
      "filesize": 29104891,
      "duration": 195,
      "default": true,
      "lyrics": [
        {
          "filename": "JPN - AAA - MV - Mirage.ass",
          "default": true,
          "version": "Default"
        }
      ]
    }
  ],
  "data": {
    "created_at": "2019-10-26T19:40:04.000Z",
    "kid": "ec91d152-258f-4239-8ef7-04066082cd35",
    "modified_at": "2022-06-04T00:15:44.783Z",
    "repository": "kara.moe",
    "songorder": null,
    "tags": {
      "authors": [
        "1db1738f-acdc-42fc-aec3-60f4bddf660d"
      ],
      "creators": [
        "90caf15e-bc86-46e1-8793-9af7906c8310"
      ],
      "families": [
        "5391f9fe-638c-415f-8dc9-958e3a2c5787"
      ],
      "groups": [
        "3c14c864-533c-49e6-a3cc-6969f1233775"
      ],
      "langs": [
        "4dcf9614-7914-42aa-99f4-dbce2e059133"
      ],
      "singers": [
        "5646881b-891d-424b-82db-fc2bde31d498"
      ],
      "songtypes": [
        "7be1b15c-cff8-4b37-a649-5c90f3d569a9"
      ],
      "songwriters": [
        "4b780223-ded2-4288-9f19-a3113b73fb60",
        "99ca17d8-2dca-4d73-b2de-8d37c695d4d6"
      ],
      "collections": [
        "dbcf2c22-524d-4708-99bb-601703633927"
      ]
    },
    "titles": {
      "eng": "Mirage"
    },
    "titles_default_language": "eng",
    "title": "Mirage",
    "year": 2008
  }
}