{
  "header": {
    "version": 4,
    "description": "Karaoke Mugen Karaoke Data File"
  },
  "medias": [
    {
      "version": "Default",
      "filename": "JPN - Ultraman Orb THE ORIGIN SAGA - OP1 - ULTRAMAN ORB.mp4",
      "audiogain": -6.68,
      "loudnorm": "-10.13,0.70,2.30,-20.19,-0.01",
      "filesize": 38313152,
      "duration": 59,
      "default": true,
      "lyrics": [
        {
          "filename": "JPN - Ultraman Orb THE ORIGIN SAGA - OP1 - ULTRAMAN ORB.ass",
          "default": true,
          "version": "Default",
          "subchecksum": "d8408ed7c4cee71817db1220a5fa6159"
        }
      ]
    }
  ],
  "data": {
    "created_at": "2019-05-01T19:52:40.000Z",
    "kid": "34d05fad-f883-4c8f-bff3-3c30432089d4",
    "modified_at": "2021-02-25T13:31:50.669Z",
    "repository": "kara.moe",
    "songorder": 1,
    "tags": {
      "authors": [
        "ef611801-6a99-482e-9b99-13ad3d3a0648"
      ],
      "collections": [
        "c7db86a0-ff64-4044-9be4-66dd1ef1d1c1"
      ],
      "creators": [
        "308ee11d-80d2-4870-9ff4-e042b72070ee"
      ],
      "families": [
        "5391f9fe-638c-415f-8dc9-958e3a2c5787"
      ],
      "groups": [
        "ae613721-1fbe-480d-ba6b-d6d0702b184d"
      ],
      "langs": [
        "4dcf9614-7914-42aa-99f4-dbce2e059133"
      ],
      "origins": [
        "28650021-2b2a-4a55-aff4-85dd4896c687",
        "938de218-5343-4865-94d3-fb33f2eaa152",
        "d3fac9ab-630d-402d-a392-3d2450c3e62e"
      ],
      "series": [
        "5a2580f5-de6f-4473-81ac-89a9a96d0ef2"
      ],
      "singers": [
        "401b98ed-2f34-416f-80a1-47b00eca7f52",
        "51bbb12b-3034-4785-a7c8-0a55db6f0de9"
      ],
      "songtypes": [
        "f02ad9b3-0bd9-4aad-85b3-9976739ba0e4"
      ],
      "songwriters": [
        "51bbb12b-3034-4785-a7c8-0a55db6f0de9",
        "693e16af-2076-4185-9127-5a989cd9dc86"
      ],
      "franchises": [
        "e0d0d8b0-bf67-40a0-b0c1-082cd4ccc58b"
      ]
    },
    "title": "ULTRAMAN ORB",
    "titles": {
      "eng": "ULTRAMAN ORB",
      "jpn": "ウルトラマンオーブ"
    },
    "year": 2016,
    "titles_default_language": "eng"
  }
}