{
  "header": {
    "version": 4,
    "description": "Karaoke Mugen Karaoke Data File"
  },
  "medias": [
    {
      "version": "Default",
      "filename": "JPN - High Score Girl - ED - Houkago Di(e)stra(u)ction.mp4",
      "audiogain": 0.37,
      "loudnorm": "-17.31,-9.06,3.70,-27.41,-0.63",
      "filesize": 35006777,
      "duration": 92,
      "default": true,
      "lyrics": [
        {
          "filename": "JPN - High Score Girl - ED - Houkago Di(e)stra(u)ction.ass",
          "default": true,
          "version": "Default"
        }
      ]
    }
  ],
  "data": {
    "created_at": "2018-08-05T18:26:13.000Z",
    "ignoreHooks": false,
    "kid": "d65e2019-ee45-4d30-8c0d-00cbf981c6ea",
    "modified_at": "2022-10-01T10:01:37.911Z",
    "repository": "kara.moe",
    "tags": {
      "authors": [
        "6bebcb04-2694-453c-9e0c-eb1a2e2718d9"
      ],
      "collections": [
        "c7db86a0-ff64-4044-9be4-66dd1ef1d1c1"
      ],
      "creators": [
        "802a8ac8-b16f-40a4-944b-99956798c906"
      ],
      "families": [
        "0377db02-3af6-43b8-9b08-c759df3d25c3"
      ],
      "groups": [
        "ae613721-1fbe-480d-ba6b-d6d0702b184d"
      ],
      "langs": [
        "4dcf9614-7914-42aa-99f4-dbce2e059133"
      ],
      "misc": [
        "fe819ff1-9db8-4a0f-85dc-0e322c9126c4"
      ],
      "origins": [
        "938de218-5343-4865-94d3-fb33f2eaa152"
      ],
      "series": [
        "26876be0-144b-4112-8dff-43aed75742fb"
      ],
      "singers": [
        "49f072be-b82b-470e-a3bf-a1600efc1b83"
      ],
      "songtypes": [
        "38c77c56-2b95-4040-b676-0994a8cb0597"
      ],
      "songwriters": [
        "6a4ddfcf-aaf4-48e5-af2b-6f6f9451881e"
      ],
      "franchises": [
        "26876be0-144b-4112-8dff-43aed75742fb"
      ]
    },
    "titles": {
      "jpn": "放課後ディストラクション",
      "qro": "Hôkago Di(e)stra(u)ction"
    },
    "titles_default_language": "qro",
    "titles_aliases": [
      "Distraction",
      "Houkago"
    ],
    "title": "Hôkago Di(e)stra(u)ction",
    "year": 2018
  }
}