{
  "header": {
    "version": 4,
    "description": "Karaoke Mugen Karaoke Data File"
  },
  "medias": [
    {
      "version": "Default",
      "filename": "JPN - Josee to Tora to Sakana-tachi - MOVIE ED - Ao no Waltz.mp4",
      "audiogain": 4.96,
      "loudnorm": "-23.55,-8.20,11.10,-33.91,-2.09",
      "filesize": 46089002,
      "duration": 286,
      "default": true,
      "lyrics": [
        {
          "filename": "JPN - Josee to Tora to Sakana-tachi - MOVIE ED - Ao no Waltz.ass",
          "default": true,
          "version": "Default"
        }
      ]
    }
  ],
  "data": {
    "created_at": "2021-10-23T14:41:51.438Z",
    "kid": "cb82e4b2-b0ac-45db-a453-fb8849714ba1",
    "modified_at": "2022-07-20T11:38:34.910Z",
    "repository": "kara.moe",
    "tags": {
      "authors": [
        "fa399f2f-ea1d-4902-8796-ea6d8218aff0"
      ],
      "creators": [
        "57ffcdd9-7e4f-4971-85ce-0fb3aa8151ac"
      ],
      "families": [
        "0377db02-3af6-43b8-9b08-c759df3d25c3"
      ],
      "groups": [
        "8e209ae4-4381-438f-89dc-1b21752027d2"
      ],
      "langs": [
        "4dcf9614-7914-42aa-99f4-dbce2e059133"
      ],
      "misc": [
        "fe819ff1-9db8-4a0f-85dc-0e322c9126c4"
      ],
      "origins": [
        "c8ca9dea-d8b4-48fe-8427-d911653232e9"
      ],
      "series": [
        "e4231fe8-6c6d-416e-b348-f163ab2bc325"
      ],
      "singers": [
        "a84f6a9f-4785-48bb-9f07-fdede3de7cae"
      ],
      "songtypes": [
        "38c77c56-2b95-4040-b676-0994a8cb0597"
      ],
      "songwriters": [
        "a84f6a9f-4785-48bb-9f07-fdede3de7cae"
      ],
      "collections": [
        "c7db86a0-ff64-4044-9be4-66dd1ef1d1c1"
      ],
      "warnings": [
        "24371984-5e4c-4485-a937-fb0c480ca23b"
      ]
    },
    "titles": {
      "fre": "La Valse bleue",
      "qro": "Ao no Waltz",
      "jpn": "蒼のワルツ"
    },
    "titles_default_language": "qro",
    "title": "Ao no Waltz",
    "year": 2020
  }
}