{
  "header": {
    "version": 4,
    "description": "Karaoke Mugen Karaoke Data File"
  },
  "medias": [
    {
      "version": "Default",
      "filename": "JPN - Touhou Memories of Phantasm - OVA AMV - Demon Strundum.mp4",
      "audiogain": -0.68,
      "loudnorm": "-17.13,-0.36,5.80,-27.19,0.03",
      "filesize": 146311349,
      "duration": 415,
      "default": true,
      "lyrics": [
        {
          "filename": "JPN - Touhou Memories of Phantasm - OVA AMV - Demon Strundum.ass",
          "default": true,
          "version": "Default"
        }
      ]
    }
  ],
  "data": {
    "created_at": "2022-05-15T18:29:12.609Z",
    "ignoreHooks": false,
    "kid": "bcff83b3-5f47-4fba-adcd-c2c8d283786c",
    "modified_at": "2022-05-15T18:29:13.126Z",
    "repository": "kara.moe",
    "tags": {
      "authors": [
        "1631228b-9125-497a-aafc-66f920a44a02"
      ],
      "collections": [
        "c7db86a0-ff64-4044-9be4-66dd1ef1d1c1"
      ],
      "creators": [
        "1631228b-9125-497a-aafc-66f920a44a02"
      ],
      "families": [
        "0377db02-3af6-43b8-9b08-c759df3d25c3"
      ],
      "langs": [
        "4dcf9614-7914-42aa-99f4-dbce2e059133"
      ],
      "origins": [
        "2a6ef087-a000-4f8e-aeb5-9a7968756a36"
      ],
      "series": [
        "1bf5248b-57fe-4e4f-ba6c-d508cc427b16"
      ],
      "singers": [
        "e77889db-2716-4e14-a42f-5d28fbe3ecdf"
      ],
      "songtypes": [
        "a6c79ce5-89ee-4d50-afe8-3abd7317f6c2"
      ],
      "songwriters": [
        "e25b1955-f5a7-44af-9fa4-544c7dadf3ac"
      ],
      "groups": [
        "8e209ae4-4381-438f-89dc-1b21752027d2",
        "8c22c899-b3ed-42da-a548-ce00f950798b"
      ],
      "misc": [
        "86705d4b-24e4-4756-9687-2b9c98bcf366"
      ],
      "franchises": [
        "1bdaa5a1-dfa6-4365-b746-7a0b194dafd6"
      ]
    },
    "titles": {
      "eng": "Demon Strundum"
    },
    "titles_default_language": "eng",
    "title": "Demon Strundum",
    "year": 2022
  }
}