{
  "header": {
    "version": 4,
    "description": "Karaoke Mugen Karaoke Data File"
  },
  "medias": [
    {
      "version": "Default",
      "filename": "JPN - Piofiore no Banshou - PSV GAME OP - Nocturnal.mp4",
      "audiogain": -7.99,
      "loudnorm": "-9.29,0.92,3.80,-19.65,-0.45",
      "filesize": 21195603,
      "duration": 85,
      "default": true,
      "lyrics": [
        {
          "filename": "JPN - Piofiore no Banshou - PSV GAME OP - Nocturnal.ass",
          "default": true,
          "version": "Default",
          "subchecksum": "7607ada0576e40fdfaf6e26785db21ec"
        }
      ]
    }
  ],
  "data": {
    "created_at": "2018-11-13T18:33:21.000Z",
    "kid": "02e5003c-7e76-46dd-b03c-a8d401515da3",
    "modified_at": "2021-02-25T12:45:46.350Z",
    "repository": "kara.moe",
    "tags": {
      "authors": [
        "2a9bbf75-0722-4b4a-9935-caa92f38fdd1"
      ],
      "collections": [
        "c7db86a0-ff64-4044-9be4-66dd1ef1d1c1"
      ],
      "creators": [
        "98ab71c6-8066-4d59-84a2-9833a27ec461"
      ],
      "families": [
        "dbedd6b3-d125-4cd8-aa32-c4175e4ca3a3"
      ],
      "groups": [
        "ae613721-1fbe-480d-ba6b-d6d0702b184d"
      ],
      "langs": [
        "4dcf9614-7914-42aa-99f4-dbce2e059133"
      ],
      "origins": [
        "2f96e82c-c61b-4413-817e-e6b247509b95",
        "7025ae3c-7bd6-4787-8912-2c15063343bb"
      ],
      "platforms": [
        "e791f168-068f-4c05-aa36-e8d63726aa06"
      ],
      "series": [
        "1bfad0d7-cc63-4251-9b5c-c2d099993d5c"
      ],
      "singers": [
        "1bad8332-c90e-4338-89b1-b8bfd8b67b41",
        "ceaeb7e6-e0e5-4e91-b658-568a78bbc7a3"
      ],
      "songtypes": [
        "f02ad9b3-0bd9-4aad-85b3-9976739ba0e4"
      ],
      "songwriters": [
        "2e00e240-6c06-49c3-869e-fbd5bb970a44",
        "6a222786-1216-488e-a45c-e54d4fa413fa"
      ]
    },
    "title": "Nocturnal",
    "titles": {
      "eng": "Nocturnal"
    },
    "year": 2018,
    "titles_default_language": "eng"
  }
}