{
  "header": {
    "version": 4,
    "description": "Karaoke Mugen Karaoke Data File"
  },
  "medias": [
    {
      "version": "Default",
      "filename": "JPN - Len Kagamine, Miku Hatsune - MV - RAD DOGS ~ Off Vocal Vers.mp4",
      "audiogain": -10.71,
      "loudnorm": "-4.82,4.56,4.70,-15.05,-0.45",
      "filesize": 72290879,
      "duration": 222,
      "default": true,
      "lyrics": [
        {
          "filename": "JPN - Len Kagamine, Miku Hatsune - MV - RAD DOGS ~ Off Vocal Vers.ass",
          "default": true,
          "version": "Default"
        }
      ]
    }
  ],
  "data": {
    "created_at": "2022-08-15T20:53:48.749Z",
    "ignoreHooks": false,
    "kid": "8ec0ecd6-0b51-4424-bf67-45cd59e66677",
    "modified_at": "2022-08-15T20:53:49.234Z",
    "parents": [
      "3de8b70c-32de-44f5-8599-5ec01602819b"
    ],
    "repository": "kara.moe",
    "tags": {
      "authors": [
        "10891649-d475-46eb-b515-8eb3c1e14622"
      ],
      "collections": [
        "c7db86a0-ff64-4044-9be4-66dd1ef1d1c1"
      ],
      "creators": [
        "2b554e56-3d5c-48ba-9242-2d7a74cea2f1",
        "2b643e69-1165-4009-814c-b31933a361c4",
        "aeb75b0a-796b-4266-b5b5-f4c741e772f4"
      ],
      "families": [
        "0377db02-3af6-43b8-9b08-c759df3d25c3"
      ],
      "genres": [
        "45623cae-6d68-4304-a49b-896d1d6f4580"
      ],
      "groups": [
        "8e209ae4-4381-438f-89dc-1b21752027d2"
      ],
      "langs": [
        "4dcf9614-7914-42aa-99f4-dbce2e059133"
      ],
      "misc": [
        "1d6ceadf-a885-47e5-b23b-c07bf668a424"
      ],
      "singers": [
        "4407ba0e-5de7-4add-870f-7ac95a4804c9",
        "7ce72adb-b4f2-42d9-b628-360b759a03df",
        "dbb8d613-a120-46c7-bb42-bc6c1efb61f7"
      ],
      "songtypes": [
        "7be1b15c-cff8-4b37-a649-5c90f3d569a9"
      ],
      "songwriters": [
        "298c0a40-668d-4380-93d9-31e4946cc7de",
        "b61974e3-ec0d-4514-9f55-688c3fc87039"
      ],
      "versions": [
        "c0cc87b9-55b9-40f0-878a-fbb9e34c151e"
      ],
      "warnings": [
        "51288600-29e0-4e41-a42b-77f0498e5691"
      ]
    },
    "titles": {
      "eng": "RAD DOGS"
    },
    "titles_default_language": "eng",
    "title": "RAD DOGS",
    "year": 2022
  }
}