{
  "header": {
    "version": 4,
    "description": "Karaoke Mugen Karaoke Data File"
  },
  "medias": [
    {
      "version": "Default",
      "filename": "JPN - Nodame Cantabile (Drama) - IN - Onara Taisou.mp4",
      "audiogain": -6.78,
      "loudnorm": "-11.86,-0.27,7.30,-22.20,-0.95",
      "filesize": 19144664,
      "duration": 116,
      "default": true,
      "lyrics": [
        {
          "filename": "JPN - Nodame Cantabile (Drama) - IN - Onara Taisou.ass",
          "default": true,
          "version": "Default"
        }
      ]
    }
  ],
  "data": {
    "created_at": "2019-06-07T17:37:50.000Z",
    "ignoreHooks": false,
    "kid": "50b6018f-e6fe-42a2-875b-909d1ec90cf0",
    "modified_at": "2022-09-30T20:28:33.583Z",
    "repository": "kara.moe",
    "tags": {
      "authors": [
        "57e2d8c3-b3f3-4b82-88a4-2491946b24d9"
      ],
      "collections": [
        "c7db86a0-ff64-4044-9be4-66dd1ef1d1c1"
      ],
      "creators": [
        "75cd9c99-a991-449e-9b5c-954410edbe60"
      ],
      "groups": [
        "2b4e9972-5e17-481b-99f5-d0787c0ada56",
        "3c14c864-533c-49e6-a3cc-6969f1233775"
      ],
      "langs": [
        "4dcf9614-7914-42aa-99f4-dbce2e059133"
      ],
      "origins": [
        "28650021-2b2a-4a55-aff4-85dd4896c687",
        "938de218-5343-4865-94d3-fb33f2eaa152"
      ],
      "series": [
        "1b1658bd-a757-4731-858b-49fc710668a9"
      ],
      "singers": [
        "fdd4a453-3eba-4b3d-9034-dab607b73f19"
      ],
      "songtypes": [
        "5e5250d9-351a-4a82-98eb-55db50ad8962"
      ],
      "songwriters": [
        "007c23f3-24bd-4dfd-a417-a4e94a0847bd",
        "17c7a502-d5bd-4ddf-a447-dfc4d3a7f3af"
      ],
      "franchises": [
        "0ba1106d-bbc5-483c-a0cc-ceba4ea7b170"
      ]
    },
    "titles": {
      "jpn": "おなら体操",
      "qro": "Onara Taisô"
    },
    "titles_default_language": "qro",
    "title": "Onara Taisô",
    "year": 2006,
    "titles_aliases": [
      "Taisou"
    ]
  }
}