{
  "header": {
    "version": 4,
    "description": "Karaoke Mugen Karaoke Data File"
  },
  "medias": [
    {
      "version": "Default",
      "filename": "JPN - Touhou - AUDIO - Dreamy Noise.mp3",
      "audiogain": -10.29,
      "loudnorm": "-6.95,0.83,3.60,-17.11,-0.82",
      "filesize": 11203708,
      "duration": 333,
      "default": true,
      "lyrics": [
        {
          "filename": "JPN - Touhou - AUDIO - Dreamy Noise.ass",
          "default": true,
          "version": "Default"
        }
      ]
    }
  ],
  "data": {
    "created_at": "2023-02-11T15:45:09.939Z",
    "ignoreHooks": false,
    "kid": "76d1226c-c6d8-4b9c-ad12-b204e1893339",
    "modified_at": "2023-02-11T15:45:10.287Z",
    "repository": "kara.moe",
    "tags": {
      "authors": [
        "56355915-6bc6-4282-acbb-dd1fdaf13d50"
      ],
      "collections": [
        "c7db86a0-ff64-4044-9be4-66dd1ef1d1c1"
      ],
      "creators": [
        "3b338a2c-0d7e-459c-ab61-a172042c883a"
      ],
      "groups": [
        "df5f446f-d161-4760-8e0c-822e70ea03ae",
        "ae613721-1fbe-480d-ba6b-d6d0702b184d"
      ],
      "langs": [
        "4dcf9614-7914-42aa-99f4-dbce2e059133"
      ],
      "series": [
        "1bdaa5a1-dfa6-4365-b746-7a0b194dafd6"
      ],
      "singers": [
        "56bbe02b-97f5-427d-bc0a-bfa5700b052f"
      ],
      "songtypes": [
        "42a262ae-acba-4ab5-a446-c5789c96c821"
      ],
      "songwriters": [
        "e3300726-4e6a-46f6-a20e-fc823ae8401f",
        "4eadbe82-995d-4522-baa8-46538c74af49"
      ],
      "franchises": [
        "1bdaa5a1-dfa6-4365-b746-7a0b194dafd6"
      ],
      "misc": [
        "86705d4b-24e4-4756-9687-2b9c98bcf366"
      ]
    },
    "titles": {
      "eng": "Dreamy Noise"
    },
    "titles_default_language": "eng",
    "year": 2016
  }
}