{
  "header": {
    "version": 4,
    "description": "Karaoke Mugen Karaoke Data File"
  },
  "medias": [
    {
      "version": "Default",
      "filename": "JPN - Touhou Kinema Kan ~ 2nd curtain - OP1 - Fragments.mp4",
      "audiogain": -9.6,
      "loudnorm": "-7.68,1.56,2.60,-17.71,-1.99",
      "filesize": 41839847,
      "duration": 156,
      "default": true,
      "lyrics": [
        {
          "filename": "JPN - Touhou Kinema Kan ~ 2nd curtain - OP1 - Fragments.ass",
          "default": true,
          "version": "Default",
          "subchecksum": "1199ffa6b6f637e76cac53b278a5c57c"
        }
      ]
    }
  ],
  "data": {
    "created_at": "2017-10-11T17:03:15.000Z",
    "kid": "0a057fec-d097-444b-aead-c8cbb2aa3a5e",
    "modified_at": "2021-02-25T13:28:43.553Z",
    "repository": "kara.moe",
    "songorder": 1,
    "tags": {
      "authors": [
        "5bdaba57-27f8-4568-8806-76a807728766"
      ],
      "collections": [
        "c7db86a0-ff64-4044-9be4-66dd1ef1d1c1"
      ],
      "creators": [
        "2238d8c1-ea51-4925-9336-33670fa68699"
      ],
      "families": [
        "0377db02-3af6-43b8-9b08-c759df3d25c3"
      ],
      "groups": [
        "ae613721-1fbe-480d-ba6b-d6d0702b184d"
      ],
      "langs": [
        "4dcf9614-7914-42aa-99f4-dbce2e059133"
      ],
      "series": [
        "5fec83de-5d39-497c-9f6d-5f965ccbea0c"
      ],
      "singers": [
        "577ee10b-b3a1-48f1-903a-e9fc3cbfb263",
        "b102151c-8b33-4549-b282-75c8c85db772"
      ],
      "songtypes": [
        "f02ad9b3-0bd9-4aad-85b3-9976739ba0e4"
      ],
      "songwriters": [
        "26cb5252-8510-49e0-897c-a611a05fc056",
        "9bb6d2bd-30b1-446a-b0d4-29da1fd5f927",
        "b102151c-8b33-4549-b282-75c8c85db772"
      ],
      "franchises": [
        "1bdaa5a1-dfa6-4365-b746-7a0b194dafd6"
      ]
    },
    "title": "Fragments",
    "titles": {
      "eng": "Fragments"
    },
    "year": 2010,
    "titles_default_language": "eng"
  }
}