{
  "header": {
    "version": 4,
    "description": "Karaoke Mugen Karaoke Data File"
  },
  "medias": [
    {
      "version": "Full.",
      "filename": "JPN - Lupin Sansei Babylon no Ougon Densetsu - MOVIE AUDIO OP - MANHATTAN JOKE ~ Full Vers.mp3",
      "audiogain": -7.52,
      "loudnorm": "-11.18,-0.45,4.60,-21.24,-0.95",
      "filesize": 5358838,
      "duration": 220,
      "default": true,
      "lyrics": [
        {
          "filename": "JPN - Lupin Sansei Babylon no Ougon Densetsu - MOVIE AUDIO OP - MANHATTAN JOKE ~ Full Vers.ass",
          "default": true,
          "version": "Default",
          "subchecksum": "c79b78d9fb0a093bd28df9da6a08c769"
        }
      ]
    }
  ],
  "data": {
    "created_at": "2020-07-17T18:42:47.364Z",
    "kid": "eae83c1f-f503-4762-ae27-fd3e8daff3d4",
    "modified_at": "2021-05-23T22:38:25.186Z",
    "repository": "kara.moe",
    "tags": {
      "authors": [
        "5cb3d0c5-479e-4224-b6ec-b27209e933a0"
      ],
      "collections": [
        "c7db86a0-ff64-4044-9be4-66dd1ef1d1c1"
      ],
      "creators": [
        "53e900ec-a1ff-4c95-8b2d-a63995c2936f"
      ],
      "families": [
        "0377db02-3af6-43b8-9b08-c759df3d25c3"
      ],
      "groups": [
        "60defa7b-774e-4680-8321-51b742c2e009",
        "7792cc27-9ff9-4d47-9287-2338b7db1575"
      ],
      "langs": [
        "4dcf9614-7914-42aa-99f4-dbce2e059133"
      ],
      "origins": [
        "c8ca9dea-d8b4-48fe-8427-d911653232e9"
      ],
      "series": [
        "a4a0ba24-69c4-489a-abd2-6fcc6f26f298"
      ],
      "singers": [
        "ac39a995-3734-4318-ab91-679804789e8b"
      ],
      "songtypes": [
        "42a262ae-acba-4ab5-a446-c5789c96c821",
        "f02ad9b3-0bd9-4aad-85b3-9976739ba0e4"
      ],
      "songwriters": [
        "19045a57-4bc4-4c83-ad1c-3fa9a3b701b1",
        "bd94fe6d-88db-4aa5-8234-2a56e517c7b6"
      ],
      "versions": [
        "c2143a7f-6970-450e-8a79-0302db9220a9"
      ],
      "franchises": [
        "561e6fe6-d886-4eec-881d-fdc9d1504942"
      ]
    },
    "title": "MANHATTAN JOKE",
    "titles": {
      "eng": "MANHATTAN JOKE"
    },
    "year": 1985,
    "titles_default_language": "eng"
  }
}