{
  "header": {
    "version": 4,
    "description": "Karaoke Mugen Karaoke Data File"
  },
  "medias": [
    {
      "version": "Default",
      "filename": "JPN - Majo no Takkyuubin - MOVIE OP - Rouge no Dengon.mp4",
      "audiogain": 3.37,
      "loudnorm": "-20.91,-7.48,4.30,-30.93,-1.11",
      "filesize": 14182950,
      "duration": 89,
      "default": true,
      "lyrics": [
        {
          "filename": "JPN - Majo no Takkyuubin - MOVIE OP - Rouge no Dengon.ass",
          "default": true,
          "version": "Default",
          "subchecksum": "e10d9054baff645af16f1deb07882002"
        }
      ]
    }
  ],
  "data": {
    "created_at": "2019-02-23T23:12:26.000Z",
    "kid": "551732df-020a-4a4e-8d29-37ecc040561b",
    "modified_at": "2021-02-28T12:22:13.511Z",
    "repository": "kara.moe",
    "tags": {
      "authors": [
        "5e93f02a-bcd1-40a9-ba7a-91ada6683aea"
      ],
      "collections": [
        "c7db86a0-ff64-4044-9be4-66dd1ef1d1c1"
      ],
      "creators": [
        "46cc6a97-4290-48b1-b4ff-5f60359674ef"
      ],
      "families": [
        "0377db02-3af6-43b8-9b08-c759df3d25c3"
      ],
      "genres": [
        "b84e28f9-db1e-447f-b339-7954c3592523"
      ],
      "groups": [
        "7792cc27-9ff9-4d47-9287-2338b7db1575"
      ],
      "langs": [
        "4dcf9614-7914-42aa-99f4-dbce2e059133"
      ],
      "origins": [
        "c8ca9dea-d8b4-48fe-8427-d911653232e9"
      ],
      "series": [
        "8bdda5b1-a24f-44a6-ac1c-d044c4edfc49"
      ],
      "singers": [
        "07ce1ce3-fa11-45e5-aff9-56cf5b4459ba"
      ],
      "songtypes": [
        "f02ad9b3-0bd9-4aad-85b3-9976739ba0e4"
      ],
      "songwriters": [
        "07ce1ce3-fa11-45e5-aff9-56cf5b4459ba"
      ]
    },
    "title": "Rouge no Dengon",
    "titles": {
      "qro": "Rouge no Dengon",
      "jpn": "ルージュの伝言"
    },
    "year": 1989,
    "titles_default_language": "qro"
  }
}