{
  "header": {
    "version": 4,
    "description": "Karaoke Mugen Karaoke Data File"
  },
  "medias": [
    {
      "version": "Default",
      "filename": "JPN - Love Live! Superstar!! - AUDIO - Tu Tu Tu!.mp3",
      "audiogain": -4.35,
      "loudnorm": "-14.39,-0.30,6.10,-24.50,-0.73",
      "filesize": 4685319,
      "duration": 252,
      "default": true,
      "lyrics": [
        {
          "filename": "JPN - Love Live! Superstar!! - AUDIO - Tu Tu Tu!.ass",
          "default": true,
          "version": "Default"
        }
      ]
    }
  ],
  "data": {
    "created_at": "2022-04-06T22:08:21.686Z",
    "kid": "1570fd2b-2f99-4d34-ac69-7849f42999e7",
    "modified_at": "2022-08-23T20:39:15.748Z",
    "repository": "kara.moe",
    "tags": {
      "series": [
        "ed46191b-997b-4c2d-8088-bb30a5e6d4ca"
      ],
      "singers": [
        "4a1c9511-daa2-4172-9367-5afb3312234e",
        "4e66c19f-a55a-4be7-a948-4eb45796b71f",
        "8a484e8b-1945-416f-b778-97a887ff24eb",
        "8b1d7f16-0b3e-4c63-82c1-bd60518b86a8",
        "c1fd3a67-0c3b-4d95-9cd8-f6aa2c8cc5a8"
      ],
      "songtypes": [
        "42a262ae-acba-4ab5-a446-c5789c96c821"
      ],
      "creators": [
        "b2805292-730e-473a-96f0-fd8e7ffd1fd7"
      ],
      "langs": [
        "4dcf9614-7914-42aa-99f4-dbce2e059133"
      ],
      "authors": [
        "449844e4-3a1f-46e1-8a92-bf72e2d1b6f1"
      ],
      "songwriters": [
        "1d0db12d-0774-4ae0-9fe2-a40252f59f0d",
        "f77f4be8-1af3-4bab-9411-759dbd5bb583"
      ],
      "groups": [
        "8e209ae4-4381-438f-89dc-1b21752027d2"
      ],
      "genres": [
        "caa86df2-0d59-474b-885c-f240a9e891b0"
      ],
      "collections": [
        "c7db86a0-ff64-4044-9be4-66dd1ef1d1c1"
      ],
      "singergroups": [
        "f3e5b1d3-30b1-4548-95c8-6cf77216bdbd"
      ],
      "franchises": [
        "fd5d066e-e85a-4eea-8688-2979a887450a"
      ]
    },
    "titles": {
      "qro": "Tu Tu Tu!"
    },
    "titles_default_language": "qro",
    "title": "Tu Tu Tu!",
    "year": 2022
  }
}