{
  "header": {
    "version": 4,
    "description": "Karaoke Mugen Karaoke Data File"
  },
  "medias": [
    {
      "version": "Default",
      "filename": "JPN - Chou Gekijouban Keroro Gunsou 4 Gekishin Dragon Warriors de Arimasu! - MOVIE ED2 - Space Roller Coaster GO GO.mp4",
      "audiogain": 2.74,
      "loudnorm": "-21.17,-8.19,7.00,-31.19,-1.84",
      "filesize": 55222150,
      "duration": 90,
      "default": true,
      "lyrics": [
        {
          "filename": "JPN - Chou Gekijouban Keroro Gunsou 4 Gekishin Dragon Warriors de Arimasu! - MOVIE ED2 - Space Roller Coaster GO GO.ass",
          "default": true,
          "version": "Default"
        }
      ]
    }
  ],
  "data": {
    "created_at": "2017-10-11T17:01:52.000Z",
    "ignoreHooks": false,
    "kid": "6050ffef-104c-4ecb-98b2-36c55a8e91da",
    "modified_at": "2022-04-20T16:46:59.547Z",
    "repository": "kara.moe",
    "songorder": 2,
    "tags": {
      "authors": [
        "8c22c899-b3ed-42da-a548-ce00f950798b"
      ],
      "collections": [
        "c7db86a0-ff64-4044-9be4-66dd1ef1d1c1"
      ],
      "creators": [
        "2b63c455-b186-46b8-8b60-f86c11144ac4",
        "ef8f80e1-d244-4aea-b7f0-984d6dd4b82b"
      ],
      "groups": [
        "3c14c864-533c-49e6-a3cc-6969f1233775",
        "8c22c899-b3ed-42da-a548-ce00f950798b"
      ],
      "langs": [
        "4dcf9614-7914-42aa-99f4-dbce2e059133"
      ],
      "origins": [
        "c8ca9dea-d8b4-48fe-8427-d911653232e9"
      ],
      "series": [
        "97448fc0-bb6d-4d8b-9491-a5d1e912d897"
      ],
      "singers": [
        "6878f586-638f-416d-a34f-95a5a1ca96fa",
        "a14aaac9-98b8-4298-a7d6-ea4945750704"
      ],
      "songtypes": [
        "38c77c56-2b95-4040-b676-0994a8cb0597"
      ],
      "songwriters": [
        "162799fe-de2f-4f72-99a2-8c606aee4f2d"
      ],
      "franchises": [
        "25b54711-c993-45f8-92b9-bef274341939"
      ]
    },
    "titles": {
      "eng": "Space Roller Coaster GO GO"
    },
    "titles_default_language": "eng",
    "title": "Space Roller Coaster GO GO",
    "year": 2009
  }
}