{
  "header": {
    "version": 4,
    "description": "Karaoke Mugen Karaoke Data File"
  },
  "medias": [
    {
      "version": "Default",
      "filename": "JPN - D.Gray-man - OP3 - Doubt and trust.mp4",
      "audiogain": 1.34,
      "loudnorm": "-19.23,-9.35,1.80,-29.38,-0.12",
      "filesize": 33850599,
      "duration": 92,
      "default": true,
      "lyrics": [
        {
          "filename": "JPN - D.Gray-man - OP3 - Doubt and trust.ass",
          "default": true,
          "version": "Default",
          "subchecksum": "4b389add44ab26bcda907ebeb8a99a3c"
        }
      ]
    }
  ],
  "data": {
    "created_at": "2017-10-11T17:02:05.000Z",
    "kid": "b2278516-8841-403f-a2aa-1c39da2a84f0",
    "modified_at": "2021-02-25T11:05:56.288Z",
    "repository": "kara.moe",
    "songorder": 3,
    "tags": {
      "authors": [
        "5bdaba57-27f8-4568-8806-76a807728766"
      ],
      "collections": [
        "c7db86a0-ff64-4044-9be4-66dd1ef1d1c1"
      ],
      "creators": [
        "53e900ec-a1ff-4c95-8b2d-a63995c2936f"
      ],
      "families": [
        "0377db02-3af6-43b8-9b08-c759df3d25c3"
      ],
      "genres": [
        "a0aeef4a-6428-45ff-a6e1-468b595930c2"
      ],
      "groups": [
        "3c14c864-533c-49e6-a3cc-6969f1233775"
      ],
      "langs": [
        "4dcf9614-7914-42aa-99f4-dbce2e059133"
      ],
      "origins": [
        "938de218-5343-4865-94d3-fb33f2eaa152"
      ],
      "series": [
        "8024310d-f718-4b8a-bae9-da27e3ddb950"
      ],
      "singers": [
        "d9474c97-14b1-4bd4-9f7b-d696059644f5"
      ],
      "songtypes": [
        "f02ad9b3-0bd9-4aad-85b3-9976739ba0e4"
      ],
      "songwriters": [
        "51bbb12b-3034-4785-a7c8-0a55db6f0de9",
        "b79f0c92-c2b8-4170-8498-9a5defa67abb"
      ],
      "franchises": [
        "8024310d-f718-4b8a-bae9-da27e3ddb950"
      ]
    },
    "title": "Doubt and trust",
    "titles": {
      "eng": "Doubt&Trust",
      "jpn": "Doubt&Trust~ダウト&トラスト~"
    },
    "year": 2006,
    "titles_default_language": "eng"
  }
}