{
  "header": {
    "version": 4,
    "description": "Karaoke Mugen Karaoke Data File"
  },
  "medias": [
    {
      "version": "Default",
      "filename": "JPN - Koutetsujou no Kabaneri - MV - ninelie ~ Full Vers.mp4",
      "audiogain": -8.34,
      "loudnorm": "-9.16,0.92,10.50,-19.41,-2.08",
      "filesize": 46422955,
      "duration": 274,
      "default": true,
      "lyrics": [
        {
          "filename": "JPN - Koutetsujou no Kabaneri - MV - ninelie ~ Full Vers.ass",
          "default": true,
          "version": "Default"
        }
      ]
    }
  ],
  "data": {
    "created_at": "2019-06-16T17:02:34.000Z",
    "ignoreHooks": false,
    "kid": "715f296a-2326-4e9d-aba6-d49aee2fa249",
    "modified_at": "2022-10-01T09:21:36.708Z",
    "parents": [
      "5b2a77f7-c579-403e-a419-fff268ccc4a6"
    ],
    "repository": "kara.moe",
    "tags": {
      "authors": [
        "1502f6a0-6ae2-4c74-926f-4aa0b8f1e110"
      ],
      "collections": [
        "dbcf2c22-524d-4708-99bb-601703633927"
      ],
      "creators": [
        "9f10c180-4ed1-4a4e-9e39-c37e09b91d5f"
      ],
      "families": [
        "5391f9fe-638c-415f-8dc9-958e3a2c5787"
      ],
      "groups": [
        "2b4e9972-5e17-481b-99f5-d0787c0ada56",
        "ae613721-1fbe-480d-ba6b-d6d0702b184d"
      ],
      "langs": [
        "4dcf9614-7914-42aa-99f4-dbce2e059133"
      ],
      "series": [
        "04a4e1f1-e20b-4ce2-aefa-5afcd94caf2d"
      ],
      "singers": [
        "6cfc20ab-c855-4f24-8bed-0981e465630b"
      ],
      "songtypes": [
        "7be1b15c-cff8-4b37-a649-5c90f3d569a9"
      ],
      "songwriters": [
        "6cfc20ab-c855-4f24-8bed-0981e465630b"
      ],
      "versions": [
        "c2143a7f-6970-450e-8a79-0302db9220a9"
      ],
      "franchises": [
        "04a4e1f1-e20b-4ce2-aefa-5afcd94caf2d"
      ]
    },
    "titles": {
      "eng": "ninelie",
      "jpn": "ナインリィ"
    },
    "titles_default_language": "eng",
    "title": "ninelie",
    "year": 2016
  }
}