{
  "header": {
    "version": 4,
    "description": "Karaoke Mugen Karaoke Data File"
  },
  "medias": [
    {
      "version": "Default",
      "filename": "JPN - Pan de Peace! - OP - Seishun wa Tabemono desu.mp4",
      "audiogain": 1.81,
      "loudnorm": "-18.59,-10.20,8.50,-28.92,-0.51",
      "filesize": 6336397,
      "duration": 32,
      "default": true,
      "lyrics": [
        {
          "filename": "JPN - Pan de Peace! - OP - Seishun wa Tabemono desu.ass",
          "default": true,
          "version": "Default",
          "subchecksum": "ff18d75163c37c5f5ba1f54c7b82a263"
        }
      ]
    }
  ],
  "data": {
    "created_at": "2017-10-11T17:03:11.000Z",
    "kid": "88dd5389-a8f3-43e3-ae55-a1b3a9f806e8",
    "modified_at": "2021-02-25T12:43:51.131Z",
    "repository": "kara.moe",
    "tags": {
      "authors": [
        "faa4da6e-45c2-491e-80f1-bf44f457b228"
      ],
      "collections": [
        "c7db86a0-ff64-4044-9be4-66dd1ef1d1c1"
      ],
      "creators": [
        "b48f634d-00cf-46f1-8a64-a9696a3d3b32"
      ],
      "families": [
        "0377db02-3af6-43b8-9b08-c759df3d25c3"
      ],
      "groups": [
        "ae613721-1fbe-480d-ba6b-d6d0702b184d"
      ],
      "langs": [
        "4dcf9614-7914-42aa-99f4-dbce2e059133"
      ],
      "misc": [
        "fe819ff1-9db8-4a0f-85dc-0e322c9126c4"
      ],
      "origins": [
        "938de218-5343-4865-94d3-fb33f2eaa152"
      ],
      "series": [
        "8b5dcf57-7196-4b02-9fb3-a706f7fd394c"
      ],
      "singers": [
        "a2f7f6e2-3343-446a-8572-215124e912d9"
      ],
      "songtypes": [
        "f02ad9b3-0bd9-4aad-85b3-9976739ba0e4"
      ],
      "songwriters": [
        "41981a6f-bac5-41dd-9928-19c4cea23562",
        "ead196cc-e1e3-43a4-8804-dd4199e89c4e"
      ]
    },
    "title": "Seishun wa Tabemono desu",
    "titles": {
      "qro": "Seishun wa Tabemono desu",
      "jpn": "青春は食べ物です"
    },
    "year": 2016,
    "titles_default_language": "qro"
  }
}