{
  "header": {
    "version": 4,
    "description": "Karaoke Mugen Karaoke Data File"
  },
  "medias": [
    {
      "version": "Default",
      "filename": "JPN - Paripi Koumei - MV - Chiki Chiki Bam Bam ~ Full Vers.mp4",
      "audiogain": -10.93,
      "loudnorm": "-5.29,1.69,1.20,-15.53,-0.58",
      "filesize": 85128891,
      "duration": 202,
      "default": true,
      "lyrics": [
        {
          "filename": "JPN - Paripi Koumei - MV - Chiki Chiki Bam Bam ~ Full Vers.ass",
          "default": true,
          "version": "Default"
        }
      ]
    }
  ],
  "data": {
    "comment": "Ferme l'issue #5434",
    "created_at": "2022-06-26T19:00:39.921Z",
    "ignoreHooks": false,
    "kid": "e7dcf070-dbdf-4294-8f4e-c95bcdceb904",
    "modified_at": "2022-12-22T16:08:57.938Z",
    "parents": [
      "504053ca-6b95-4a5e-9c9b-6c7309b7f843"
    ],
    "repository": "kara.moe",
    "tags": {
      "authors": [
        "6bebcb04-2694-453c-9e0c-eb1a2e2718d9"
      ],
      "collections": [
        "c7db86a0-ff64-4044-9be4-66dd1ef1d1c1"
      ],
      "creators": [
        "54259fe3-ce0c-4eca-855e-383f2c5be3a9"
      ],
      "families": [
        "0377db02-3af6-43b8-9b08-c759df3d25c3"
      ],
      "groups": [
        "8e209ae4-4381-438f-89dc-1b21752027d2"
      ],
      "langs": [
        "4dcf9614-7914-42aa-99f4-dbce2e059133"
      ],
      "misc": [
        "ec4fee75-71fb-45b4-9772-2ca374b4b600"
      ],
      "origins": [
        "938de218-5343-4865-94d3-fb33f2eaa152"
      ],
      "series": [
        "cee09d3c-75e6-4501-9fda-cb4a6b4755c7"
      ],
      "singers": [
        "ca71f821-7101-4cdb-9fb8-d3f38ea64be8"
      ],
      "songtypes": [
        "7be1b15c-cff8-4b37-a649-5c90f3d569a9"
      ],
      "songwriters": [
        "4cc2a8d4-2898-419a-8959-9b4fe89c89e0",
        "6c6b0796-ed2d-4a3d-9c33-bebfbb9a37c2"
      ],
      "versions": [
        "c2143a7f-6970-450e-8a79-0302db9220a9"
      ]
    },
    "titles": {
      "eng": "Chiki Chiki Bam Bam",
      "jpn": "チキチキバンバン"
    },
    "titles_default_language": "eng",
    "titles_aliases": [
      "Ciki Ciki Bam Bam",
      "Chitty Chitty Bang Bang",
      "Chiki Chiki Ban Ban"
    ],
    "year": 2022
  }
}