{
  "header": {
    "version": 4,
    "description": "Karaoke Mugen Karaoke Data File"
  },
  "medias": [
    {
      "version": "Default",
      "filename": "JPN - Kakegurui (drama) - OP - Ichi ka Bachi ka.mp4",
      "audiogain": 4.22,
      "loudnorm": "-22.05,-10.35,4.00,-32.37,-0.40",
      "filesize": 44397304,
      "duration": 57,
      "default": true,
      "lyrics": [
        {
          "filename": "JPN - Kakegurui (drama) - OP - Ichi ka Bachi ka.ass",
          "default": true,
          "version": "Default",
          "subchecksum": "9590df2fe89ab6b35f1981f19b6b988e"
        }
      ]
    }
  ],
  "data": {
    "created_at": "2019-03-25T21:12:47.000Z",
    "kid": "7ae562d4-fd3f-466c-9b95-e5d45a9f185c",
    "modified_at": "2021-02-25T11:51:57.111Z",
    "repository": "kara.moe",
    "tags": {
      "authors": [
        "ef611801-6a99-482e-9b99-13ad3d3a0648"
      ],
      "collections": [
        "c7db86a0-ff64-4044-9be4-66dd1ef1d1c1"
      ],
      "creators": [
        "1203f126-5f06-46d8-bce2-cf29ad606065",
        "53e900ec-a1ff-4c95-8b2d-a63995c2936f"
      ],
      "families": [
        "5391f9fe-638c-415f-8dc9-958e3a2c5787"
      ],
      "groups": [
        "ae613721-1fbe-480d-ba6b-d6d0702b184d"
      ],
      "langs": [
        "4dcf9614-7914-42aa-99f4-dbce2e059133"
      ],
      "origins": [
        "28650021-2b2a-4a55-aff4-85dd4896c687",
        "938de218-5343-4865-94d3-fb33f2eaa152"
      ],
      "series": [
        "40128800-b7a1-4811-9c70-11ea2c47e0fe"
      ],
      "singers": [
        "497fba29-7b8c-44cd-bfbe-83a20922ad4d",
        "9cd53893-a62a-4c86-b54f-042b64ab4bf3"
      ],
      "songtypes": [
        "f02ad9b3-0bd9-4aad-85b3-9976739ba0e4"
      ],
      "songwriters": [
        "b1926157-f58c-40d9-9a92-8b20de2de862",
        "f0b7a063-7e2c-4ced-b511-49c42853ef9e"
      ],
      "franchises": [
        "5ae9840b-fd0b-44ab-aa7a-f2e3428d16f7"
      ]
    },
    "title": "Ichi ka Bachi ka",
    "titles": {
      "qro": "Ichi ka Bachi ka",
      "jpn": "一か八か"
    },
    "year": 2018,
    "titles_default_language": "qro"
  }
}