{
  "header": {
    "version": 4,
    "description": "Karaoke Mugen Karaoke Data File"
  },
  "medias": [
    {
      "version": "Default",
      "filename": "JPN - Shin Goketsuji Ichizoku Bonnou Kaihou - GAME PS2 MV - Let's Go, Necromancer.mp4",
      "audiogain": -10.19,
      "loudnorm": "-6.58,1.51,1.70,-16.63,-0.57",
      "filesize": 162696088,
      "duration": 325,
      "default": true,
      "lyrics": [
        {
          "filename": "JPN - Shin Goketsuji Ichizoku Bonnou Kaihou - GAME PS2 MV - Let's Go, Necromancer.ass",
          "default": true,
          "version": "Default"
        }
      ]
    }
  ],
  "data": {
    "created_at": "2021-10-04T00:08:12.356Z",
    "kid": "b0b44086-17d8-4da0-9323-fed1bde7c1f6",
    "modified_at": "2021-10-04T00:18:11.067Z",
    "repository": "kara.moe",
    "tags": {
      "authors": [
        "5e93f02a-bcd1-40a9-ba7a-91ada6683aea"
      ],
      "collections": [
        "c7db86a0-ff64-4044-9be4-66dd1ef1d1c1"
      ],
      "creators": [
        "d3c429b7-fdd8-4445-a5ed-e79530153210"
      ],
      "families": [
        "dbedd6b3-d125-4cd8-aa32-c4175e4ca3a3"
      ],
      "groups": [
        "3c14c864-533c-49e6-a3cc-6969f1233775"
      ],
      "langs": [
        "4dcf9614-7914-42aa-99f4-dbce2e059133"
      ],
      "misc": [
        "1d6ceadf-a885-47e5-b23b-c07bf668a424",
        "86705d4b-24e4-4756-9687-2b9c98bcf366"
      ],
      "platforms": [
        "2173004e-21da-45c9-9dfb-26014423c566"
      ],
      "series": [
        "1189ed1b-8f16-475f-87fb-14b821579ae8"
      ],
      "singers": [
        "3a8ce1f5-6b88-4bca-a337-1149718ba26f",
        "bc102f0f-0af3-4b2a-9e75-6fbc8a35cee7"
      ],
      "songtypes": [
        "7be1b15c-cff8-4b37-a649-5c90f3d569a9"
      ],
      "songwriters": [
        "3a8ce1f5-6b88-4bca-a337-1149718ba26f"
      ]
    },
    "titles": {
      "eng": "Let's Go, Necromancer",
      "qro": "Let's Go! Onmyoji",
      "jpn": "レッツゴー！陰陽師"
    },
    "title": "Let's Go, Necromancer",
    "year": 2006,
    "titles_default_language": "eng"
  }
}