{
  "header": {
    "version": 4,
    "description": "Karaoke Mugen Karaoke Data File"
  },
  "medias": [
    {
      "version": "Default",
      "filename": "JPN - Shining Force Cross - GAME OP - Juujika no Spread.mp4",
      "audiogain": -2.69,
      "loudnorm": "-15.57,-1.15,6.00,-25.70,-1.09",
      "filesize": 29023009,
      "duration": 93,
      "default": true,
      "lyrics": [
        {
          "filename": "JPN - Shining Force Cross - GAME OP - Juujika no Spread.ass",
          "default": true,
          "version": "Default",
          "subchecksum": "a7d6e48f0ed1de840b9ef90a6fc633b3"
        }
      ]
    }
  ],
  "data": {
    "created_at": "2017-10-11T17:02:20.000Z",
    "kid": "33ffb9b1-71c0-46b8-ad49-59c153b284df",
    "modified_at": "2021-02-25T13:04:44.837Z",
    "repository": "kara.moe",
    "tags": {
      "authors": [
        "5bdaba57-27f8-4568-8806-76a807728766"
      ],
      "collections": [
        "c7db86a0-ff64-4044-9be4-66dd1ef1d1c1"
      ],
      "creators": [
        "b8a3778d-0864-4135-9053-1def02d3262e"
      ],
      "families": [
        "dbedd6b3-d125-4cd8-aa32-c4175e4ca3a3"
      ],
      "groups": [
        "3c14c864-533c-49e6-a3cc-6969f1233775"
      ],
      "langs": [
        "4dcf9614-7914-42aa-99f4-dbce2e059133"
      ],
      "series": [
        "eff6fa5e-53d6-46bb-840a-0991aab91353"
      ],
      "singers": [
        "6d2045b2-80ab-45ff-a131-c4df02ef52d1"
      ],
      "songtypes": [
        "f02ad9b3-0bd9-4aad-85b3-9976739ba0e4"
      ],
      "songwriters": [
        "66339ced-7df9-40c8-aefd-59b2990df294"
      ],
      "franchises": [
        "dcf75dd7-acdf-4de3-a10b-334493f8f6de"
      ]
    },
    "title": "Juujika no Spread",
    "titles": {
      "qro": "Juujika no Spread",
      "jpn": "十字架のスプレッド"
    },
    "year": 2009,
    "titles_default_language": "qro"
  }
}