{
  "header": {
    "version": 4,
    "description": "Karaoke Mugen Karaoke Data File"
  },
  "medias": [
    {
      "version": "Default",
      "filename": "JPN - Detroit Metal City - MV - Amai Koibito.mp4",
      "audiogain": -7.91,
      "loudnorm": "-9.19,0.78,2.00,-19.33,-0.01",
      "filesize": 22081054,
      "duration": 200,
      "default": true,
      "lyrics": [
        {
          "filename": "JPN - Detroit Metal City - MV - Amai Koibito.ass",
          "default": true,
          "version": "Default"
        }
      ]
    }
  ],
  "data": {
    "created_at": "2020-01-04T23:03:00.550Z",
    "kid": "d0a2fa4f-bc1c-4bbc-a67a-757672dfecc0",
    "modified_at": "2022-06-04T00:15:17.600Z",
    "repository": "kara.moe",
    "songorder": null,
    "tags": {
      "authors": [
        "1db1738f-acdc-42fc-aec3-60f4bddf660d"
      ],
      "creators": [
        "4483e307-33fc-4a75-a478-f9818e77e703"
      ],
      "families": [
        "5391f9fe-638c-415f-8dc9-958e3a2c5787"
      ],
      "groups": [
        "3c14c864-533c-49e6-a3cc-6969f1233775"
      ],
      "langs": [
        "4dcf9614-7914-42aa-99f4-dbce2e059133"
      ],
      "series": [
        "10cd92f1-9b19-4b67-8079-8293e2f9ac65"
      ],
      "singers": [
        "cedda818-6f1f-4263-912c-940d4e4fc497"
      ],
      "songtypes": [
        "7be1b15c-cff8-4b37-a649-5c90f3d569a9"
      ],
      "songwriters": [
        "05b548a2-6efa-43b8-8170-79be87986d96",
        "cedda818-6f1f-4263-912c-940d4e4fc497"
      ],
      "collections": [
        "dbcf2c22-524d-4708-99bb-601703633927"
      ]
    },
    "titles": {
      "qro": "Amai Koibito",
      "jpn": "甘い恋人"
    },
    "titles_default_language": "qro",
    "title": "Amai Koibito",
    "year": 2008
  }
}