{
  "header": {
    "version": 4,
    "description": "Karaoke Mugen Karaoke Data File"
  },
  "medias": [
    {
      "version": "Default",
      "filename": "JPN - MadLax - AMV - Nowhere.avi",
      "audiogain": -10.75,
      "loudnorm": "-6.71,2.54,4.10,-16.91,-1.08",
      "filesize": 16113664,
      "duration": 219,
      "default": true,
      "lyrics": [
        {
          "filename": "JPN - MadLax - AMV - Nowhere.ass",
          "default": true,
          "version": "Default",
          "subchecksum": "12b3aa095584123be5ad16637e88207c"
        }
      ]
    }
  ],
  "data": {
    "created_at": "2017-10-11T17:02:38.000Z",
    "kid": "e0fd16b2-eb3b-43d2-9efe-be3012ec93f1",
    "modified_at": "2021-02-25T12:17:33.691Z",
    "repository": "kara.moe",
    "tags": {
      "authors": [
        "5bdaba57-27f8-4568-8806-76a807728766"
      ],
      "collections": [
        "c7db86a0-ff64-4044-9be4-66dd1ef1d1c1"
      ],
      "creators": [
        "53c428f6-4ad6-464f-8529-40e7b9941c7f"
      ],
      "families": [
        "0377db02-3af6-43b8-9b08-c759df3d25c3"
      ],
      "groups": [
        "3c14c864-533c-49e6-a3cc-6969f1233775"
      ],
      "langs": [
        "4dcf9614-7914-42aa-99f4-dbce2e059133"
      ],
      "origins": [
        "938de218-5343-4865-94d3-fb33f2eaa152"
      ],
      "series": [
        "0804fcd3-9f24-4a26-9a82-751f811b19a7"
      ],
      "singers": [
        "622e9074-75e5-497b-a714-d98d85f5a79a",
        "f628390a-1a0f-4e4f-9207-28f6aef85616"
      ],
      "songtypes": [
        "a6c79ce5-89ee-4d50-afe8-3abd7317f6c2"
      ],
      "songwriters": [
        "1f324dc7-f858-415b-bbc1-41fcce3d6ac7"
      ]
    },
    "title": "Nowhere",
    "titles": {
      "eng": "Nowhere"
    },
    "year": 2004,
    "titles_default_language": "eng"
  }
}