{
  "header": {
    "version": 4,
    "description": "Karaoke Mugen Karaoke Data File"
  },
  "medias": [
    {
      "version": "Default",
      "filename": "JPN - Ourai no Gahkthun - PC GAME OP - Tonitrus.mp4",
      "audiogain": -9.57,
      "loudnorm": "-7.37,1.48,6.40,-17.77,-0.31",
      "filesize": 36332039,
      "duration": 165,
      "default": true,
      "lyrics": [
        {
          "filename": "JPN - Ourai no Gahkthun - PC GAME OP - Tonitrus.ass",
          "default": true,
          "version": "Default",
          "subchecksum": "8364d34b9e46dae3bfe901f07b3e8771"
        }
      ]
    }
  ],
  "data": {
    "created_at": "2017-10-11T17:01:29.000Z",
    "kid": "6d7bc30c-7659-4805-a25d-053078af23ca",
    "modified_at": "2021-02-25T12:43:16.477Z",
    "repository": "kara.moe",
    "tags": {
      "authors": [
        "5bdaba57-27f8-4568-8806-76a807728766"
      ],
      "collections": [
        "c7db86a0-ff64-4044-9be4-66dd1ef1d1c1"
      ],
      "creators": [
        "1125a91e-5184-484f-8d6e-80ab419fe20e"
      ],
      "families": [
        "dbedd6b3-d125-4cd8-aa32-c4175e4ca3a3"
      ],
      "groups": [
        "ae613721-1fbe-480d-ba6b-d6d0702b184d"
      ],
      "langs": [
        "4dcf9614-7914-42aa-99f4-dbce2e059133"
      ],
      "origins": [
        "2f96e82c-c61b-4413-817e-e6b247509b95"
      ],
      "platforms": [
        "3c15f758-e1bc-4266-8bb9-3c14112f504a"
      ],
      "series": [
        "4f2568cb-3974-4bae-ae1a-03e696a44a86"
      ],
      "singers": [
        "5f15d417-cdd0-4dc2-ace1-446d7971cf07"
      ],
      "songtypes": [
        "f02ad9b3-0bd9-4aad-85b3-9976739ba0e4"
      ],
      "songwriters": [
        "ed8ccb33-0009-46c1-b718-d6ff37ea5603"
      ]
    },
    "title": "Tonitrus",
    "titles": {
      "lat": "Tonitrus"
    },
    "year": 2012,
    "titles_default_language": "lat"
  }
}