{
  "header": {
    "version": 4,
    "description": "Karaoke Mugen Karaoke Data File"
  },
  "medias": [
    {
      "version": "Default",
      "filename": "JPN - 3-gatsu no Lion - ED1 - Fighter.mp4",
      "audiogain": 0.09,
      "loudnorm": "-17.04,-5.67,6.20,-27.26,-1.48",
      "filesize": 26883893,
      "duration": 92,
      "default": true,
      "lyrics": [
        {
          "filename": "JPN - 3-gatsu no Lion - ED1 - Fighter.ass",
          "default": true,
          "version": "Default",
          "subchecksum": "0459e61e155950b77ed4c52159f12bf1"
        }
      ]
    }
  ],
  "data": {
    "created_at": "2017-10-11T17:03:14.000Z",
    "kid": "8578639f-7c4b-4246-97d2-15b0ba3908b0",
    "modified_at": "2021-02-25T10:34:41.993Z",
    "repository": "kara.moe",
    "songorder": 1,
    "tags": {
      "authors": [
        "cfdaf046-d5cd-419c-9e71-16d69a8eabca"
      ],
      "collections": [
        "c7db86a0-ff64-4044-9be4-66dd1ef1d1c1"
      ],
      "creators": [
        "c3bd80ef-d1fe-427f-913f-a2ba2fe66114"
      ],
      "families": [
        "0377db02-3af6-43b8-9b08-c759df3d25c3"
      ],
      "groups": [
        "8c22c899-b3ed-42da-a548-ce00f950798b",
        "9a8e0fbc-dcae-4989-be82-7cad3436f1f5",
        "ae613721-1fbe-480d-ba6b-d6d0702b184d",
        "f53332f8-daed-4ac5-97c9-64239b520db0"
      ],
      "langs": [
        "4dcf9614-7914-42aa-99f4-dbce2e059133"
      ],
      "misc": [
        "fe819ff1-9db8-4a0f-85dc-0e322c9126c4"
      ],
      "origins": [
        "938de218-5343-4865-94d3-fb33f2eaa152"
      ],
      "series": [
        "bfd9a244-40d0-4ec8-81ba-041ae07a6797"
      ],
      "singers": [
        "a027724c-6136-4dc1-b585-7ae8f780c8d2"
      ],
      "songtypes": [
        "38c77c56-2b95-4040-b676-0994a8cb0597"
      ],
      "songwriters": [
        "20a392bf-0517-4d22-a08c-46345d1077fe"
      ],
      "franchises": [
        "bfd9a244-40d0-4ec8-81ba-041ae07a6797"
      ]
    },
    "title": "Fighter",
    "titles": {
      "eng": "Fighter",
      "jpn": "ファイター"
    },
    "year": 2016,
    "titles_default_language": "eng"
  }
}