{
  "header": {
    "version": 4,
    "description": "Karaoke Mugen Karaoke Data File"
  },
  "medias": [
    {
      "version": "Default",
      "filename": "JPN - Kanata no Astra - ED - Glow at the Velocity of Light.mp4",
      "audiogain": 0.86,
      "loudnorm": "-18.50,-7.61,4.40,-28.61,-1.27",
      "filesize": 136550980,
      "duration": 92,
      "default": true,
      "lyrics": [
        {
          "filename": "JPN - Kanata no Astra - ED - Glow at the Velocity of Light.ass",
          "default": true,
          "version": "Default"
        }
      ]
    }
  ],
  "data": {
    "created_at": "2022-07-14T19:47:44.355Z",
    "ignoreHooks": false,
    "kid": "c07eaa1d-579d-4dc5-9dda-1ecde919ce3f",
    "modified_at": "2022-07-16T07:40:52.353Z",
    "repository": "kara.moe",
    "tags": {
      "authors": [
        "df9cb48f-334e-4ceb-b26e-e254ad323492"
      ],
      "collections": [
        "c7db86a0-ff64-4044-9be4-66dd1ef1d1c1"
      ],
      "families": [
        "0377db02-3af6-43b8-9b08-c759df3d25c3"
      ],
      "genres": [
        "a0aeef4a-6428-45ff-a6e1-468b595930c2"
      ],
      "groups": [
        "ae613721-1fbe-480d-ba6b-d6d0702b184d"
      ],
      "langs": [
        "4dcf9614-7914-42aa-99f4-dbce2e059133"
      ],
      "misc": [
        "fe819ff1-9db8-4a0f-85dc-0e322c9126c4"
      ],
      "series": [
        "2d6d96a0-5565-4564-b6d2-80f76c593572"
      ],
      "singers": [
        "621088ae-c60b-4c27-9549-0565219ad734"
      ],
      "songtypes": [
        "38c77c56-2b95-4040-b676-0994a8cb0597"
      ],
      "songwriters": [
        "ea8e8ff8-f968-456d-97ba-5c622d0a8514"
      ]
    },
    "titles": {
      "qro": "Glow at the Velocity of Light"
    },
    "titles_default_language": "qro",
    "title": "Glow at the Velocity of Light",
    "year": 2019
  }
}