{
  "header": {
    "version": 4,
    "description": "Karaoke Mugen Karaoke Data File"
  },
  "medias": [
    {
      "version": "Default",
      "filename": "JPN - Bakemonogatari - OP4 - Ren'ai Circulation ~ Alternative Vers.mp4",
      "audiogain": 3.54,
      "loudnorm": "-20.62,-9.24,2.20,-30.68,-0.20",
      "filesize": 82525831,
      "duration": 91,
      "default": true,
      "lyrics": [
        {
          "filename": "JPN - Bakemonogatari - OP4 - Ren'ai Circulation ~ Alternative Vers.ass",
          "default": true,
          "version": "Default"
        }
      ]
    }
  ],
  "data": {
    "created_at": "2017-10-11T17:01:26.000Z",
    "ignoreHooks": false,
    "kid": "ae5f1044-d360-4774-95fa-21ce3578e2c7",
    "modified_at": "2022-03-24T07:47:15.153Z",
    "parents": [
      "3fac6cbc-18aa-404f-9d01-41bddc8136ec"
    ],
    "repository": "kara.moe",
    "songorder": 4,
    "tags": {
      "authors": [
        "6bebcb04-2694-453c-9e0c-eb1a2e2718d9",
        "fa399f2f-ea1d-4902-8796-ea6d8218aff0"
      ],
      "collections": [
        "c7db86a0-ff64-4044-9be4-66dd1ef1d1c1"
      ],
      "creators": [
        "c3bd80ef-d1fe-427f-913f-a2ba2fe66114"
      ],
      "families": [
        "0377db02-3af6-43b8-9b08-c759df3d25c3"
      ],
      "groups": [
        "3c14c864-533c-49e6-a3cc-6969f1233775"
      ],
      "langs": [
        "4dcf9614-7914-42aa-99f4-dbce2e059133"
      ],
      "misc": [
        "fe819ff1-9db8-4a0f-85dc-0e322c9126c4"
      ],
      "origins": [
        "938de218-5343-4865-94d3-fb33f2eaa152"
      ],
      "series": [
        "115d19ee-c8c9-4b8a-a401-edc09bcd612a"
      ],
      "singers": [
        "458739df-9990-45ea-a8e7-ae6348c7534d"
      ],
      "songtypes": [
        "f02ad9b3-0bd9-4aad-85b3-9976739ba0e4"
      ],
      "songwriters": [
        "81d493c9-3353-40d4-b94d-7fa42d3b4229",
        "d7658a75-7945-4f08-8233-02f38dc385ba"
      ],
      "versions": [
        "9f63c359-d1bf-425a-bcf5-b245c2c9211d"
      ],
      "franchises": [
        "94c05ef3-bfff-4a4d-a1a4-b07c32389971"
      ]
    },
    "titles": {
      "qro": "Ren'ai Circulation",
      "jpn": "恋愛サーキュレーション"
    },
    "titles_default_language": "qro",
    "titles_aliases": [
      "Renai Circulation"
    ],
    "title": "Ren'ai Circulation",
    "year": 2009
  }
}