{
  "header": {
    "version": 4,
    "description": "Karaoke Mugen Karaoke Data File"
  },
  "medias": [
    {
      "version": "Default",
      "filename": "JPN - Trinity Blood - ED1 - Broken Wings.mp4",
      "audiogain": -0.46,
      "loudnorm": "-16.35,-6.53,6.60,-26.52,-0.61",
      "filesize": 41508251,
      "duration": 112,
      "default": true,
      "lyrics": [
        {
          "filename": "JPN - Trinity Blood - ED1 - Broken Wings.ass",
          "default": true,
          "version": "Default",
          "subchecksum": "01084ffb8a389895280a5911a4f8ee46"
        }
      ]
    }
  ],
  "data": {
    "created_at": "2017-10-11T17:02:05.000Z",
    "kid": "4428f004-9e2e-4d79-ade3-55c886afafa1",
    "modified_at": "2021-02-25T13:29:24.681Z",
    "repository": "kara.moe",
    "songorder": 1,
    "tags": {
      "authors": [
        "5bdaba57-27f8-4568-8806-76a807728766"
      ],
      "collections": [
        "c7db86a0-ff64-4044-9be4-66dd1ef1d1c1"
      ],
      "creators": [
        "12d35c78-7372-4a33-8843-b4a18b1ee737"
      ],
      "families": [
        "0377db02-3af6-43b8-9b08-c759df3d25c3"
      ],
      "groups": [
        "3c14c864-533c-49e6-a3cc-6969f1233775"
      ],
      "langs": [
        "4dcf9614-7914-42aa-99f4-dbce2e059133"
      ],
      "origins": [
        "938de218-5343-4865-94d3-fb33f2eaa152"
      ],
      "series": [
        "224715c4-5262-4059-8fa9-76963716ac88"
      ],
      "singers": [
        "0a0ec07f-54ec-40e2-8113-90f1dd1a07a4"
      ],
      "songtypes": [
        "38c77c56-2b95-4040-b676-0994a8cb0597"
      ],
      "songwriters": [
        "0a0ec07f-54ec-40e2-8113-90f1dd1a07a4",
        "9f8ef5a8-c540-4226-8a46-5b93cd63a836"
      ]
    },
    "title": "Broken Wings",
    "titles": {
      "eng": "Broken Wings"
    },
    "year": 2005,
    "titles_default_language": "eng"
  }
}