{
  "header": {
    "version": 4,
    "description": "Karaoke Mugen Karaoke Data File"
  },
  "medias": [
    {
      "version": "Default",
      "filename": "JPN - Gackpo Camui, KAITO - MV - Venomania-kou no Kyouki.mp4",
      "audiogain": -10.72,
      "loudnorm": "-6.44,1.71,5.20,-16.54,-1.58",
      "filesize": 42168820,
      "duration": 278,
      "default": true,
      "lyrics": [
        {
          "filename": "JPN - Gackpo Camui, KAITO - MV - Venomania-kou no Kyouki.ass",
          "default": true,
          "version": "Default"
        }
      ]
    }
  ],
  "data": {
    "created_at": "2022-12-17T23:50:50.555Z",
    "ignoreHooks": false,
    "kid": "946a9a0c-e3f6-4322-89fa-3c7068528f07",
    "modified_at": "2023-01-02T22:58:12.866Z",
    "repository": "kara.moe",
    "tags": {
      "authors": [
        "2c1f4c76-4de9-4548-9aa5-bc64ab296076"
      ],
      "collections": [
        "c7db86a0-ff64-4044-9be4-66dd1ef1d1c1"
      ],
      "creators": [
        "be31538b-0a5e-49d7-a919-4dea0dac62cf",
        "cffef61f-6d8a-46c9-98ef-98a60a76a2d5"
      ],
      "families": [
        "0377db02-3af6-43b8-9b08-c759df3d25c3"
      ],
      "genres": [
        "45623cae-6d68-4304-a49b-896d1d6f4580"
      ],
      "groups": [
        "8e209ae4-4381-438f-89dc-1b21752027d2"
      ],
      "langs": [
        "4dcf9614-7914-42aa-99f4-dbce2e059133"
      ],
      "misc": [
        "1d6ceadf-a885-47e5-b23b-c07bf668a424"
      ],
      "singers": [
        "088ee286-73a1-4919-8503-68dbc81df761",
        "38ec16e6-9ede-415c-8586-ab11bb5c8355",
        "42e22ca1-af49-4588-90e3-671ab88f2258",
        "4407ba0e-5de7-4add-870f-7ac95a4804c9",
        "79f710d5-270e-4b17-957e-037ff0eae3fe",
        "dafdeefa-0a96-44df-9653-aeb88c400e33"
      ],
      "songtypes": [
        "7be1b15c-cff8-4b37-a649-5c90f3d569a9"
      ],
      "songwriters": [
        "37c8a285-0ba5-4b66-8e07-fd17e0b0f235"
      ],
      "warnings": [
        "e82ce681-6d7b-4fb6-abe4-daa8aaa9bbf9"
      ],
      "franchises": [
        "e2348e5c-0175-4c47-8c8c-12d34028664b"
      ]
    },
    "titles": {
      "eng": "Madness of Duke Venomania",
      "jpn": "ヴェノマニア公の狂気",
      "qro": "Venomania-kou no Kyouki"
    },
    "titles_default_language": "qro",
    "titles_aliases": [
      "The Lunacy of Duke Venomania",
      "Dance with Asmodeus"
    ],
    "year": 2020
  }
}