{
  "header": {
    "version": 4,
    "description": "Karaoke Mugen Karaoke Data File"
  },
  "medias": [
    {
      "version": "Default",
      "filename": "JPN - TWICE - MV - Doughnut.mp4",
      "audiogain": -0.93,
      "loudnorm": "-17.05,-5.89,6.60,-27.41,-1.21",
      "filesize": 114536702,
      "duration": 275,
      "default": true,
      "lyrics": [
        {
          "filename": "JPN - TWICE - MV - Doughnut.ass",
          "default": true,
          "version": "Default"
        }
      ]
    }
  ],
  "data": {
    "created_at": "2022-11-20T16:01:59.667Z",
    "ignoreHooks": false,
    "kid": "cc527ebb-4728-421c-8e8a-57cce36aad50",
    "modified_at": "2022-11-20T16:07:22.439Z",
    "repository": "kara.moe",
    "tags": {
      "authors": [
        "dd4f1279-de1b-4d06-b80d-29c4878bfd8e"
      ],
      "collections": [
        "dbcf2c22-524d-4708-99bb-601703633927"
      ],
      "creators": [
        "424f77b6-39e2-48a2-8135-295a801bacab"
      ],
      "families": [
        "5391f9fe-638c-415f-8dc9-958e3a2c5787"
      ],
      "groups": [
        "8c22c899-b3ed-42da-a548-ce00f950798b",
        "8e209ae4-4381-438f-89dc-1b21752027d2"
      ],
      "langs": [
        "4dcf9614-7914-42aa-99f4-dbce2e059133"
      ],
      "singers": [
        "fe421082-61b7-4758-bcf2-71b03dd52a1d"
      ],
      "songtypes": [
        "7be1b15c-cff8-4b37-a649-5c90f3d569a9"
      ],
      "songwriters": [
        "04d38ef9-f104-434e-8299-46109c7fd7b8",
        "66588605-54bd-4017-9994-d4a4f69f7e79",
        "9b932853-d42d-429d-892d-399445a2e5d5",
        "bff74281-41f5-4eee-8373-d816854055cc",
        "d565147d-af63-44f7-88a1-430374a89615"
      ]
    },
    "titles": {
      "eng": "Doughnut"
    },
    "titles_default_language": "eng",
    "year": 2021
  }
}