{
  "header": {
    "version": 4,
    "description": "Karaoke Mugen Karaoke Data File"
  },
  "medias": [
    {
      "version": "Default",
      "filename": "JPN - Bakuryuu Sentai Abaranger - OP - Bakuryuu Sentai Abaranger.mp4",
      "audiogain": 2.88,
      "loudnorm": "-20.15,-6.01,2.50,-30.24,-0.10",
      "filesize": 21222110,
      "duration": 85,
      "default": true,
      "lyrics": [
        {
          "filename": "JPN - Bakuryuu Sentai Abaranger - OP - Bakuryuu Sentai Abaranger.ass",
          "default": true,
          "version": "Default"
        }
      ]
    }
  ],
  "data": {
    "created_at": "2017-10-11T17:02:40.000Z",
    "ignoreHooks": false,
    "kid": "c49aa465-2ed4-4e3e-9715-3333961febeb",
    "modified_at": "2022-10-01T11:38:15.982Z",
    "repository": "kara.moe",
    "tags": {
      "authors": [
        "e746046a-82f1-41af-aa58-e59c92f5c273"
      ],
      "collections": [
        "c7db86a0-ff64-4044-9be4-66dd1ef1d1c1"
      ],
      "creators": [
        "e32b14df-502b-45fa-9ca5-37554a63a4d7"
      ],
      "families": [
        "5391f9fe-638c-415f-8dc9-958e3a2c5787"
      ],
      "groups": [
        "3c14c864-533c-49e6-a3cc-6969f1233775"
      ],
      "langs": [
        "4dcf9614-7914-42aa-99f4-dbce2e059133"
      ],
      "origins": [
        "d3fac9ab-630d-402d-a392-3d2450c3e62e"
      ],
      "series": [
        "fbf633f0-904d-4b1a-a34e-d13407935281"
      ],
      "singers": [
        "331793cb-f1c3-4be7-a765-ab7fc5801031"
      ],
      "songtypes": [
        "f02ad9b3-0bd9-4aad-85b3-9976739ba0e4"
      ],
      "songwriters": [
        "3fd02899-3906-47b1-8e01-c5f9bb9e538d",
        "9a5bd095-2b3b-4599-9057-3a9c23b64c6c"
      ]
    },
    "titles": {
      "jpn": "爆竜戦隊アバレンジャー",
      "qro": "Bakuryû Sentai Abaranger"
    },
    "titles_default_language": "qro",
    "title": "Bakuryû Sentai Abaranger",
    "year": 2003,
    "titles_aliases": [
      "Bakuryuu"
    ]
  }
}