{
  "header": {
    "version": 4,
    "description": "Karaoke Mugen Karaoke Data File"
  },
  "medias": [
    {
      "version": "Default",
      "filename": "JPN - Jingai Makyou - GAME PC OP - Kokou no Konpaku.mp4",
      "audiogain": -9.13,
      "loudnorm": "-7.92,1.50,6.30,-18.44,-0.69",
      "filesize": 30846785,
      "duration": 87,
      "default": true,
      "lyrics": [
        {
          "filename": "JPN - Jingai Makyou - GAME PC OP - Kokou no Konpaku.ass",
          "default": true,
          "version": "Default"
        }
      ]
    }
  ],
  "data": {
    "created_at": "2020-08-22T20:58:25.471Z",
    "ignoreHooks": false,
    "kid": "689cc0e7-271f-44d1-a68a-0f096e1fe5dc",
    "modified_at": "2022-10-01T09:51:00.123Z",
    "repository": "kara.moe",
    "tags": {
      "authors": [
        "8605a8b9-3b45-44b9-9d98-1a25096bf702"
      ],
      "collections": [
        "c7db86a0-ff64-4044-9be4-66dd1ef1d1c1"
      ],
      "creators": [
        "d8c36618-4baf-4969-a667-188a901a1f00"
      ],
      "families": [
        "dbedd6b3-d125-4cd8-aa32-c4175e4ca3a3"
      ],
      "groups": [
        "3c14c864-533c-49e6-a3cc-6969f1233775"
      ],
      "langs": [
        "4dcf9614-7914-42aa-99f4-dbce2e059133"
      ],
      "origins": [
        "2f96e82c-c61b-4413-817e-e6b247509b95"
      ],
      "platforms": [
        "3c15f758-e1bc-4266-8bb9-3c14112f504a"
      ],
      "series": [
        "d9c639a2-754b-4c56-bc66-734ea546f925"
      ],
      "singers": [
        "3b97f60d-23e3-4e23-bf7f-9835bba682a7"
      ],
      "songtypes": [
        "f02ad9b3-0bd9-4aad-85b3-9976739ba0e4"
      ],
      "songwriters": [
        "39ae2279-768e-4532-8696-3fd4ac55bb24"
      ]
    },
    "titles": {
      "jpn": "孤高之魂魄",
      "qro": "Kokô no Konpaku"
    },
    "titles_default_language": "qro",
    "title": "Kokô no Konpaku",
    "year": 2005,
    "titles_aliases": [
      "Kokou"
    ]
  }
}