{
  "header": {
    "version": 4,
    "description": "Karaoke Mugen Karaoke Data File"
  },
  "medias": [
    {
      "version": "Default",
      "filename": "JPN - Project SEKAI COLORFUL STAGE! - GAME MV - Awake Now ~ Full Vers.mp4",
      "audiogain": -9.55,
      "loudnorm": "-7.19,2.25,3.00,-17.22,-1.12",
      "filesize": 42882932,
      "duration": 205,
      "default": true,
      "lyrics": [
        {
          "filename": "JPN - Project SEKAI COLORFUL STAGE! - GAME MV - Awake Now ~ Full Vers.ass",
          "default": true,
          "version": "Default"
        }
      ]
    }
  ],
  "data": {
    "created_at": "2022-10-14T18:17:59.022Z",
    "ignoreHooks": false,
    "kid": "35ea51ec-75b1-4ecd-a534-7590893735dc",
    "modified_at": "2022-12-26T19:23:16.107Z",
    "repository": "kara.moe",
    "tags": {
      "authors": [
        "3d0daa38-cfdf-4c60-8f2d-f08e1f915b39"
      ],
      "collections": [
        "c7db86a0-ff64-4044-9be4-66dd1ef1d1c1"
      ],
      "creators": [
        "1e5648fb-22fc-474d-b865-254eb31fa000",
        "106facc5-3a7f-4a12-a619-49a5d819c966",
        "7eebabcd-52be-47ae-b4c2-c741f20b277a"
      ],
      "families": [
        "dbedd6b3-d125-4cd8-aa32-c4175e4ca3a3",
        "0377db02-3af6-43b8-9b08-c759df3d25c3"
      ],
      "genres": [
        "45623cae-6d68-4304-a49b-896d1d6f4580"
      ],
      "groups": [
        "8e209ae4-4381-438f-89dc-1b21752027d2"
      ],
      "langs": [
        "4dcf9614-7914-42aa-99f4-dbce2e059133"
      ],
      "misc": [
        "1d6ceadf-a885-47e5-b23b-c07bf668a424"
      ],
      "platforms": [
        "213a1a15-e73a-4a08-b3f6-b6e2745a82e5"
      ],
      "series": [
        "192b33fb-638a-4680-bdb2-a5adb9889849"
      ],
      "singers": [
        "4407ba0e-5de7-4add-870f-7ac95a4804c9",
        "9a9da3af-c891-42ae-bd3e-f0696a361c04",
        "b1933ef2-f157-4a9e-92a6-bf5cee65c299",
        "c06de857-8928-41e9-b5db-d5af620d0f89",
        "e53db9de-5632-41d6-8911-afb2f27545b0"
      ],
      "singergroups": [
        "e1de7634-8683-4738-9dfb-a66121ec36c5"
      ],
      "songtypes": [
        "7be1b15c-cff8-4b37-a649-5c90f3d569a9"
      ],
      "songwriters": [
        "82b2f33f-3dbf-4079-835f-02b48cd68a16",
        "b95644d4-0de7-41cf-ac3d-1ed0ea75486e"
      ],
      "versions": [
        "c2143a7f-6970-450e-8a79-0302db9220a9"
      ]
    },
    "titles": {
      "eng": "Awake Now"
    },
    "titles_default_language": "eng",
    "year": 2022
  }
}