{
  "header": {
    "version": 4,
    "description": "Karaoke Mugen Karaoke Data File"
  },
  "medias": [
    {
      "version": "Default",
      "filename": "JPN - Aldnoah.Zero - OP1 - heavenly blue.mp4",
      "audiogain": -5.31,
      "loudnorm": "-12.03,-0.24,3.20,-22.19,-1.22",
      "filesize": 44695207,
      "duration": 92,
      "default": true,
      "lyrics": [
        {
          "filename": "JPN - Aldnoah.Zero - OP1 - heavenly blue.ass",
          "default": true,
          "version": "Default",
          "subchecksum": "045726f219e254c5a45bf8b538c6863b"
        }
      ]
    }
  ],
  "data": {
    "created_at": "2017-10-11T17:01:15.000Z",
    "kid": "b4feff3c-fc97-46ef-ae4e-0fd0ae6486fd",
    "modified_at": "2021-02-25T10:41:41.236Z",
    "repository": "kara.moe",
    "songorder": 1,
    "tags": {
      "authors": [
        "5bdaba57-27f8-4568-8806-76a807728766"
      ],
      "collections": [
        "c7db86a0-ff64-4044-9be4-66dd1ef1d1c1"
      ],
      "creators": [
        "0f5ce160-2792-43ba-ac7d-1613b8c9ac61",
        "b96e3686-bbe0-4b9e-815a-a278d5ff31be"
      ],
      "families": [
        "0377db02-3af6-43b8-9b08-c759df3d25c3"
      ],
      "genres": [
        "f60ba57d-5ef4-49e0-b93b-d0dcbcff6592"
      ],
      "groups": [
        "ae613721-1fbe-480d-ba6b-d6d0702b184d"
      ],
      "langs": [
        "4dcf9614-7914-42aa-99f4-dbce2e059133"
      ],
      "origins": [
        "938de218-5343-4865-94d3-fb33f2eaa152"
      ],
      "series": [
        "a30691d4-41a8-4b3c-a4e3-29d89ebd0948"
      ],
      "singers": [
        "ce7ec1ec-54f1-4ff2-9b90-66e28a28e238"
      ],
      "songtypes": [
        "f02ad9b3-0bd9-4aad-85b3-9976739ba0e4"
      ],
      "songwriters": [
        "1f324dc7-f858-415b-bbc1-41fcce3d6ac7"
      ]
    },
    "title": "heavenly blue",
    "titles": {
      "eng": "heavenly blue"
    },
    "year": 2014,
    "titles_default_language": "eng"
  }
}