{
  "header": {
    "version": 4,
    "description": "Karaoke Mugen Karaoke Data File"
  },
  "medias": [
    {
      "version": "Default",
      "filename": "JPN - Dororo (2019) - OP - Kaen.mp4",
      "audiogain": -9.34,
      "loudnorm": "-7.44,1.41,11.80,-18.06,-1.94",
      "filesize": 35650148,
      "duration": 90,
      "default": true,
      "lyrics": [
        {
          "filename": "JPN - Dororo (2019) - OP - Kaen.ass",
          "default": true,
          "version": "Default"
        }
      ]
    }
  ],
  "data": {
    "created_at": "2019-03-05T23:38:51.000Z",
    "ignoreHooks": false,
    "kid": "b71c7195-a407-4f78-8a36-9ed01c753c02",
    "modified_at": "2023-02-05T14:15:44.743Z",
    "repository": "kara.moe",
    "tags": {
      "authors": [
        "06852e02-b77e-4106-b6f7-2d03942ad0ea"
      ],
      "collections": [
        "c7db86a0-ff64-4044-9be4-66dd1ef1d1c1"
      ],
      "creators": [
        "0a86e9ea-5e17-4371-8f2a-60c818324d58",
        "2a4c0113-3a9e-465d-987c-711a0ba0c187"
      ],
      "families": [
        "0377db02-3af6-43b8-9b08-c759df3d25c3"
      ],
      "groups": [
        "ae613721-1fbe-480d-ba6b-d6d0702b184d"
      ],
      "langs": [
        "4dcf9614-7914-42aa-99f4-dbce2e059133"
      ],
      "misc": [
        "fe819ff1-9db8-4a0f-85dc-0e322c9126c4"
      ],
      "origins": [
        "938de218-5343-4865-94d3-fb33f2eaa152"
      ],
      "series": [
        "915958e7-8c49-4008-be21-e2c58f0fbec7"
      ],
      "singers": [
        "0c6fa9ae-f63d-49d9-ba45-dadd96f97925"
      ],
      "songtypes": [
        "f02ad9b3-0bd9-4aad-85b3-9976739ba0e4"
      ],
      "songwriters": [
        "0c6fa9ae-f63d-49d9-ba45-dadd96f97925"
      ],
      "franchises": [
        "915958e7-8c49-4008-be21-e2c58f0fbec7"
      ]
    },
    "titles": {
      "jpn": "火炎",
      "qro": "Kaen"
    },
    "titles_default_language": "qro",
    "year": 2019
  }
}