{
  "header": {
    "version": 4,
    "description": "Karaoke Mugen Karaoke Data File"
  },
  "medias": [
    {
      "version": "Default",
      "filename": "JPN - Sagrada Reset - ED1 - Tonariau.mp4",
      "audiogain": 1.82,
      "loudnorm": "-18.45,-9.88,6.30,-28.58,-1.17",
      "filesize": 10859711,
      "duration": 90,
      "default": true,
      "lyrics": [
        {
          "filename": "JPN - Sagrada Reset - ED1 - Tonariau.ass",
          "default": true,
          "version": "Default",
          "subchecksum": "dbc3218768bf7cb4bc6ac917bcdde5e0"
        }
      ]
    }
  ],
  "data": {
    "created_at": "2018-06-18T19:40:28.000Z",
    "kid": "2ec92541-ce83-471f-960a-2b1c2292e9bf",
    "modified_at": "2021-04-28T14:43:45.948Z",
    "repository": "kara.moe",
    "songorder": 1,
    "tags": {
      "authors": [
        "cfdaf046-d5cd-419c-9e71-16d69a8eabca"
      ],
      "collections": [
        "c7db86a0-ff64-4044-9be4-66dd1ef1d1c1"
      ],
      "creators": [
        "31087ed3-5edd-4d32-8379-ab70bf5db185"
      ],
      "families": [
        "0377db02-3af6-43b8-9b08-c759df3d25c3"
      ],
      "groups": [
        "8c22c899-b3ed-42da-a548-ce00f950798b",
        "ae613721-1fbe-480d-ba6b-d6d0702b184d"
      ],
      "langs": [
        "4dcf9614-7914-42aa-99f4-dbce2e059133"
      ],
      "origins": [
        "938de218-5343-4865-94d3-fb33f2eaa152"
      ],
      "series": [
        "966572b2-8748-4780-abad-f7d01f805bce"
      ],
      "singers": [
        "71550350-4175-4289-b866-e04baa99acea"
      ],
      "songtypes": [
        "38c77c56-2b95-4040-b676-0994a8cb0597"
      ],
      "songwriters": [
        "a7af28a6-c340-4459-b7e2-bf18e6bed51a"
      ]
    },
    "title": "Tonariau",
    "titles": {
      "qro": "Tonariau",
      "jpn": "トナリアウ"
    },
    "year": 2017,
    "titles_default_language": "qro"
  }
}