{
  "header": {
    "version": 4,
    "description": "Karaoke Mugen Karaoke Data File"
  },
  "medias": [
    {
      "version": "Default",
      "filename": "JPN - Meiji Tokyo Renka - PSP GAME OP2 - Aka no Yoru no Uta.mp4",
      "audiogain": -8.25,
      "loudnorm": "-8.61,0.81,4.00,-18.66,-0.24",
      "filesize": 23071493,
      "duration": 103,
      "default": true,
      "lyrics": [
        {
          "filename": "JPN - Meiji Tokyo Renka - PSP GAME OP2 - Aka no Yoru no Uta.ass",
          "default": true,
          "version": "Default",
          "subchecksum": "6302142fc9c6e57dd9e71fbb4d38b3bc"
        }
      ]
    }
  ],
  "data": {
    "created_at": "2017-10-11T17:03:08.000Z",
    "kid": "562e8486-f5c9-42a0-aadd-d1f142e852e7",
    "modified_at": "2021-02-25T12:23:02.529Z",
    "repository": "kara.moe",
    "songorder": 2,
    "tags": {
      "authors": [
        "5bdaba57-27f8-4568-8806-76a807728766"
      ],
      "collections": [
        "c7db86a0-ff64-4044-9be4-66dd1ef1d1c1"
      ],
      "creators": [
        "9521d142-a4e7-4cce-b101-7e7ed7e560bd"
      ],
      "families": [
        "dbedd6b3-d125-4cd8-aa32-c4175e4ca3a3"
      ],
      "groups": [
        "ae613721-1fbe-480d-ba6b-d6d0702b184d"
      ],
      "langs": [
        "4dcf9614-7914-42aa-99f4-dbce2e059133"
      ],
      "origins": [
        "2f96e82c-c61b-4413-817e-e6b247509b95"
      ],
      "platforms": [
        "6b101aff-4b7b-4b0d-b35e-0f1b67e38c9b"
      ],
      "series": [
        "a79939a8-aa69-42d3-a6ba-368577e41003"
      ],
      "singers": [
        "de21a500-3812-45af-aec7-356a7d76d2c5"
      ],
      "songtypes": [
        "f02ad9b3-0bd9-4aad-85b3-9976739ba0e4"
      ],
      "songwriters": [
        "dc4c9e3c-e1ff-4397-9312-6f04e79ef712"
      ]
    },
    "title": "Aka no Yoru no Uta",
    "titles": {
      "qro": "Aka no Yoru no Uta",
      "jpn": "紅ノ夜ノ唄"
    },
    "year": 2013,
    "titles_default_language": "qro"
  }
}