{
  "header": {
    "version": 4,
    "description": "Karaoke Mugen Karaoke Data File"
  },
  "medias": [
    {
      "version": "Default",
      "filename": "JPN - Waccha PriMagi! - OP - Dreaming Sound.mp4",
      "audiogain": 6.64,
      "loudnorm": "-23.97,-11.10,2.30,-34.01,-0.11",
      "filesize": 49997121,
      "duration": 104,
      "default": true,
      "lyrics": [
        {
          "filename": "JPN - Waccha PriMagi! - OP - Dreaming Sound.ass",
          "default": true,
          "version": "Default"
        }
      ]
    }
  ],
  "data": {
    "created_at": "2021-12-09T10:46:38.590Z",
    "kid": "d5badf78-3d1a-43ea-8b9f-b6a06a774117",
    "modified_at": "2022-08-24T18:22:35.494Z",
    "repository": "kara.moe",
    "tags": {
      "series": [
        "17d6a2c1-aff7-4674-8ab2-84579f621ff2"
      ],
      "singers": [
        "12db86c4-7463-4267-9808-4e99fa0b5339"
      ],
      "songtypes": [
        "f02ad9b3-0bd9-4aad-85b3-9976739ba0e4"
      ],
      "creators": [
        "cfdb2d1e-499d-47a1-b9f8-070153b5048e"
      ],
      "langs": [
        "4dcf9614-7914-42aa-99f4-dbce2e059133"
      ],
      "authors": [
        "79e0aa7d-da9a-4e9a-aa2b-64056a83b49b"
      ],
      "songwriters": [
        "dbed6c2b-51b3-42df-b107-cd169d87b7c8"
      ],
      "groups": [
        "8e209ae4-4381-438f-89dc-1b21752027d2"
      ],
      "families": [
        "0377db02-3af6-43b8-9b08-c759df3d25c3"
      ],
      "origins": [
        "938de218-5343-4865-94d3-fb33f2eaa152"
      ],
      "genres": [
        "caa86df2-0d59-474b-885c-f240a9e891b0"
      ],
      "collections": [
        "c7db86a0-ff64-4044-9be4-66dd1ef1d1c1"
      ],
      "franchises": [
        "2a2f00e6-f77a-426b-8611-ecc4cfeecd14"
      ]
    },
    "titles": {
      "eng": "Dreaming Sound"
    },
    "titles_default_language": "eng",
    "title": "Dreaming Sound",
    "year": 2021
  }
}