{
  "header": {
    "version": 4,
    "description": "Karaoke Mugen Karaoke Data File"
  },
  "medias": [
    {
      "version": "Default",
      "filename": "JPN - Meitantei Conan - ED14 - Yumemita Ato de.mp4",
      "audiogain": -9.33,
      "loudnorm": "-9.36,0.86,8.50,-19.47,-2.15",
      "filesize": 15281974,
      "duration": 86,
      "default": true,
      "lyrics": [
        {
          "filename": "JPN - Meitantei Conan - ED14 - Yumemita Ato de.ass",
          "default": true,
          "version": "Default",
          "subchecksum": "3006f92d3cd5fbe0ef29cba6c88b265f"
        }
      ]
    }
  ],
  "data": {
    "created_at": "2020-08-20T13:44:37.007Z",
    "kid": "20323217-08da-4ae7-a7cb-2c6b95ebbc90",
    "modified_at": "2021-02-25T12:23:21.595Z",
    "repository": "kara.moe",
    "songorder": 14,
    "tags": {
      "authors": [
        "4d71ce82-eed1-4c44-ac85-5f7255f3dad3"
      ],
      "collections": [
        "c7db86a0-ff64-4044-9be4-66dd1ef1d1c1"
      ],
      "creators": [
        "53e900ec-a1ff-4c95-8b2d-a63995c2936f"
      ],
      "families": [
        "0377db02-3af6-43b8-9b08-c759df3d25c3"
      ],
      "genres": [
        "a0aeef4a-6428-45ff-a6e1-468b595930c2"
      ],
      "groups": [
        "3c14c864-533c-49e6-a3cc-6969f1233775"
      ],
      "langs": [
        "4dcf9614-7914-42aa-99f4-dbce2e059133"
      ],
      "misc": [
        "fe819ff1-9db8-4a0f-85dc-0e322c9126c4"
      ],
      "origins": [
        "938de218-5343-4865-94d3-fb33f2eaa152"
      ],
      "series": [
        "cfea16f2-e07f-4a2c-93e2-5de6cf659d69"
      ],
      "singers": [
        "a6c5ffa4-e70a-4808-b7ad-53a7d2b9b558"
      ],
      "songtypes": [
        "38c77c56-2b95-4040-b676-0994a8cb0597"
      ],
      "songwriters": [
        "9338c83c-5901-40a7-af2e-369cb221b9d4",
        "9b87bc55-8b31-466e-b29f-512a03645641"
      ],
      "franchises": [
        "cfea16f2-e07f-4a2c-93e2-5de6cf659d69"
      ]
    },
    "title": "Yumemita Ato de",
    "titles": {
      "qro": "Yumemita Ato de",
      "jpn": "夢みたあとで"
    },
    "year": 2002,
    "titles_default_language": "qro"
  }
}