{
  "header": {
    "version": 4,
    "description": "Karaoke Mugen Karaoke Data File"
  },
  "medias": [
    {
      "version": "Default",
      "filename": "JPN - Shounen Maid - ED - Zutto Only You.mp4",
      "audiogain": 4.22,
      "loudnorm": "-21.89,-11.78,7.90,-32.10,-1.73",
      "filesize": 49272234,
      "duration": 88,
      "default": true,
      "lyrics": [
        {
          "filename": "JPN - Shounen Maid - ED - Zutto Only You.ass",
          "default": true,
          "version": "Default",
          "subchecksum": "bb6ed45e82355387b080cbb18a66115a"
        }
      ]
    }
  ],
  "data": {
    "created_at": "2018-06-24T17:40:06.000Z",
    "kid": "b2f35419-410a-4c57-afe5-2185c89a4713",
    "modified_at": "2021-02-25T13:06:59.612Z",
    "repository": "kara.moe",
    "tags": {
      "authors": [
        "2a9bbf75-0722-4b4a-9935-caa92f38fdd1"
      ],
      "collections": [
        "c7db86a0-ff64-4044-9be4-66dd1ef1d1c1"
      ],
      "creators": [
        "126e5cf8-763f-43e2-9b09-8a30b586f256"
      ],
      "families": [
        "0377db02-3af6-43b8-9b08-c759df3d25c3"
      ],
      "groups": [
        "ae613721-1fbe-480d-ba6b-d6d0702b184d"
      ],
      "langs": [
        "4dcf9614-7914-42aa-99f4-dbce2e059133"
      ],
      "origins": [
        "938de218-5343-4865-94d3-fb33f2eaa152"
      ],
      "series": [
        "acc657a4-99a2-4fb3-97d3-d6520b0cd078"
      ],
      "singers": [
        "0eb56601-d89d-472e-9f93-69486c1552a7",
        "353d6e2a-1c87-4ef1-9062-c69f9eba2d33",
        "65bda2f1-2d55-4b4b-bd6c-e55c0679a631",
        "f2917fb2-23ae-4fbd-bedc-bc9b77f11603"
      ],
      "songtypes": [
        "38c77c56-2b95-4040-b676-0994a8cb0597"
      ],
      "songwriters": [
        "2ffcf97e-a8b9-4621-a8d9-39c3148ce416",
        "67d36199-b1c8-4b7c-bb31-d0c9dc122d50"
      ],
      "franchises": [
        "acc657a4-99a2-4fb3-97d3-d6520b0cd078"
      ]
    },
    "title": "Zutto Only You",
    "titles": {
      "qro": "Zutto Only You",
      "jpn": "ずっとOnly You"
    },
    "year": 2016,
    "titles_default_language": "qro"
  }
}