{
  "header": {
    "version": 4,
    "description": "Karaoke Mugen Karaoke Data File"
  },
  "medias": [
    {
      "version": "Default",
      "filename": "JPN - Zero no Tsukaima - OP - First Kiss.mp4",
      "audiogain": -10.3,
      "loudnorm": "-7.80,1.03,5.60,-17.99,-0.57",
      "filesize": 37825630,
      "duration": 91,
      "default": true,
      "lyrics": [
        {
          "filename": "JPN - Zero no Tsukaima - OP - First Kiss.ass",
          "default": true,
          "version": "Default",
          "subchecksum": "e51ecdee30dabaabba9db9b2da7886bb"
        }
      ]
    }
  ],
  "data": {
    "created_at": "2017-10-11T17:01:47.000Z",
    "kid": "2c9a93d8-efef-46fb-8190-2476c7e719d0",
    "modified_at": "2021-02-25T13:44:33.069Z",
    "repository": "kara.moe",
    "tags": {
      "authors": [
        "5bdaba57-27f8-4568-8806-76a807728766"
      ],
      "collections": [
        "c7db86a0-ff64-4044-9be4-66dd1ef1d1c1"
      ],
      "creators": [
        "802a8ac8-b16f-40a4-944b-99956798c906"
      ],
      "families": [
        "0377db02-3af6-43b8-9b08-c759df3d25c3"
      ],
      "genres": [
        "4b80eca6-f44f-4262-a8d0-b6879d6b70cb"
      ],
      "groups": [
        "3c14c864-533c-49e6-a3cc-6969f1233775"
      ],
      "langs": [
        "4dcf9614-7914-42aa-99f4-dbce2e059133"
      ],
      "origins": [
        "938de218-5343-4865-94d3-fb33f2eaa152"
      ],
      "series": [
        "3a629b10-0be0-47b2-8aba-4a8eea2719ed"
      ],
      "singers": [
        "8e848b41-55e2-4f75-a153-37aece3c2169"
      ],
      "songtypes": [
        "f02ad9b3-0bd9-4aad-85b3-9976739ba0e4"
      ],
      "songwriters": [
        "00893235-7d8a-43dc-a4d8-6fb9d40e20be",
        "8e848b41-55e2-4f75-a153-37aece3c2169"
      ],
      "franchises": [
        "3a629b10-0be0-47b2-8aba-4a8eea2719ed"
      ]
    },
    "title": "First Kiss",
    "titles": {
      "eng": "First kiss"
    },
    "year": 2006,
    "titles_default_language": "eng"
  }
}