{
  "header": {
    "version": 4,
    "description": "Karaoke Mugen Karaoke Data File"
  },
  "medias": [
    {
      "version": "Default",
      "filename": "JPN - Muv-Luv Alternative Total Eclipse - PS3 XBOX360 GAME OP - INSANITY.mp4",
      "audiogain": -9.73,
      "loudnorm": "-8.62,1.50,4.40,-18.91,-0.30",
      "filesize": 59263338,
      "duration": 106,
      "default": true,
      "lyrics": [
        {
          "filename": "JPN - Muv-Luv Alternative Total Eclipse - PS3 XBOX360 GAME OP - INSANITY.ass",
          "default": true,
          "version": "Default",
          "subchecksum": "1478ab2aac2394198e1c88aa9afa02e5"
        }
      ]
    }
  ],
  "data": {
    "created_at": "2017-10-11T17:01:39.000Z",
    "kid": "72eca138-6c78-4a45-ab88-96b7746ddd76",
    "modified_at": "2021-02-25T12:31:30.662Z",
    "repository": "kara.moe",
    "tags": {
      "authors": [
        "5bdaba57-27f8-4568-8806-76a807728766"
      ],
      "collections": [
        "c7db86a0-ff64-4044-9be4-66dd1ef1d1c1"
      ],
      "creators": [
        "5e87ca69-52dd-4df4-957a-5a24d5a19c94",
        "7a8ad2ad-018d-4341-9be4-77bfc39a6edd"
      ],
      "families": [
        "dbedd6b3-d125-4cd8-aa32-c4175e4ca3a3"
      ],
      "groups": [
        "ae613721-1fbe-480d-ba6b-d6d0702b184d"
      ],
      "langs": [
        "4dcf9614-7914-42aa-99f4-dbce2e059133"
      ],
      "origins": [
        "2f96e82c-c61b-4413-817e-e6b247509b95"
      ],
      "platforms": [
        "7f63ff91-7961-4488-888d-4bf46eea3a2a",
        "d56f8d9d-9ccd-4ac8-a164-da0e62d1c060"
      ],
      "series": [
        "cc8a4ab5-7b8a-4566-b514-85f55da2f469"
      ],
      "singers": [
        "6a753fb0-b967-466a-93d5-9cb565276787"
      ],
      "songtypes": [
        "f02ad9b3-0bd9-4aad-85b3-9976739ba0e4"
      ],
      "songwriters": [
        "6a753fb0-b967-466a-93d5-9cb565276787",
        "8f4fc6c1-290b-4de7-bc9a-be95107bc976"
      ],
      "franchises": [
        "71cd681c-bb96-412d-b6af-6c134af20758"
      ]
    },
    "title": "INSANITY",
    "titles": {
      "eng": "INSANITY"
    },
    "year": 2013,
    "titles_default_language": "eng"
  }
}