{
  "header": {
    "version": 4,
    "description": "Karaoke Mugen Karaoke Data File"
  },
  "medias": [
    {
      "version": "Default",
      "filename": "JPN - Hai to Gensou no Grimgar - OP - Knew day.mp4",
      "audiogain": 3.14,
      "loudnorm": "-20.23,-7.41,4.40,-30.44,-0.95",
      "filesize": 52267185,
      "duration": 92,
      "default": true,
      "lyrics": [
        {
          "filename": "JPN - Hai to Gensou no Grimgar - OP - Knew day.ass",
          "default": true,
          "version": "Default",
          "subchecksum": "44a905fb40c4d9e191561a40c1f58335"
        }
      ]
    }
  ],
  "data": {
    "created_at": "2017-10-11T17:02:01.000Z",
    "kid": "5991b731-51b7-4add-9cf9-434567695a6c",
    "modified_at": "2021-02-25T11:35:28.368Z",
    "repository": "kara.moe",
    "tags": {
      "authors": [
        "5bdaba57-27f8-4568-8806-76a807728766"
      ],
      "collections": [
        "c7db86a0-ff64-4044-9be4-66dd1ef1d1c1"
      ],
      "creators": [
        "b96e3686-bbe0-4b9e-815a-a278d5ff31be"
      ],
      "families": [
        "0377db02-3af6-43b8-9b08-c759df3d25c3"
      ],
      "genres": [
        "4b80eca6-f44f-4262-a8d0-b6879d6b70cb"
      ],
      "groups": [
        "9a8e0fbc-dcae-4989-be82-7cad3436f1f5",
        "ae613721-1fbe-480d-ba6b-d6d0702b184d"
      ],
      "langs": [
        "4dcf9614-7914-42aa-99f4-dbce2e059133"
      ],
      "origins": [
        "938de218-5343-4865-94d3-fb33f2eaa152"
      ],
      "series": [
        "c56376c7-a48c-4cd1-88ce-43e40eeaa1a3"
      ],
      "singers": [
        "02268bf0-9541-48a7-9fa2-66edf5a96091",
        "c9ad6404-f935-45a8-9cb5-0312decc0e6f"
      ],
      "songtypes": [
        "f02ad9b3-0bd9-4aad-85b3-9976739ba0e4"
      ],
      "songwriters": [
        "a4ffd123-4194-4462-8e52-8c277a673e77",
        "c5a951cb-53d8-4472-ac1d-9f31a38fdb2f"
      ]
    },
    "title": "Knew day",
    "titles": {
      "eng": "Knew day"
    },
    "year": 2016,
    "titles_default_language": "eng"
  }
}