{
  "header": {
    "version": 4,
    "description": "Karaoke Mugen Karaoke Data File"
  },
  "medias": [
    {
      "version": "Default",
      "filename": "JPN - Fate Grand Order Zettai Majuu Sensen Babylonia - MV - Phantom Joke ~ Full Vers.mp4",
      "audiogain": -10.09,
      "loudnorm": "-6.98,1.48,2.90,-17.00,-1.06",
      "filesize": 87468215,
      "duration": 250,
      "default": true,
      "lyrics": [
        {
          "filename": "JPN - Fate Grand Order Zettai Majuu Sensen Babylonia - MV - Phantom Joke ~ Full Vers.ass",
          "default": true,
          "version": "Default"
        }
      ]
    }
  ],
  "data": {
    "created_at": "2020-12-12T16:50:11.582Z",
    "ignoreHooks": false,
    "kid": "407047b8-dee0-4176-8ebf-c2471872ad5e",
    "modified_at": "2022-11-16T15:33:30.090Z",
    "parents": [
      "9df44e44-c298-426a-8a21-297fb671e3bf"
    ],
    "repository": "kara.moe",
    "tags": {
      "authors": [
        "9cdf3b70-3550-457c-bdb9-038f3253c6ad"
      ],
      "collections": [
        "c7db86a0-ff64-4044-9be4-66dd1ef1d1c1",
        "dbcf2c22-524d-4708-99bb-601703633927"
      ],
      "creators": [
        "6697d31b-7f60-4d11-b237-8eb72740fd8a"
      ],
      "families": [
        "5391f9fe-638c-415f-8dc9-958e3a2c5787"
      ],
      "groups": [
        "8e209ae4-4381-438f-89dc-1b21752027d2",
        "ae613721-1fbe-480d-ba6b-d6d0702b184d"
      ],
      "langs": [
        "4dcf9614-7914-42aa-99f4-dbce2e059133"
      ],
      "origins": [
        "938de218-5343-4865-94d3-fb33f2eaa152"
      ],
      "series": [
        "8f27d378-e899-447d-93df-296f5ed6b3ac"
      ],
      "singers": [
        "cbf7e612-a3f7-4d6c-a119-6eba470065cc"
      ],
      "songtypes": [
        "7be1b15c-cff8-4b37-a649-5c90f3d569a9"
      ],
      "songwriters": [
        "15c7e3a2-8522-4854-9df6-39ca595a54fd",
        "cbf7e612-a3f7-4d6c-a119-6eba470065cc"
      ],
      "versions": [
        "c2143a7f-6970-450e-8a79-0302db9220a9"
      ],
      "franchises": [
        "564373dc-4cfa-454e-8af1-bcccb886c007"
      ]
    },
    "titles": {
      "eng": "Phantom Joke"
    },
    "titles_default_language": "eng",
    "year": 2020
  }
}