{
  "header": {
    "version": 4,
    "description": "Karaoke Mugen Karaoke Data File"
  },
  "medias": [
    {
      "version": "Default",
      "filename": "JPN - Yakitate!! Japan - LIVE - To All Tha Dreamers ~ Full Vers.mp4",
      "audiogain": -9.23,
      "loudnorm": "-7.92,1.60,2.30,-18.03,-0.35",
      "filesize": 41739178,
      "duration": 316,
      "default": true,
      "lyrics": [
        {
          "filename": "JPN - Yakitate!! Japan - LIVE - To All Tha Dreamers ~ Full Vers.ass",
          "default": true,
          "version": "Default"
        }
      ]
    }
  ],
  "data": {
    "created_at": "2020-04-30T21:23:17.111Z",
    "ignoreHooks": false,
    "kid": "d637609a-ae07-460d-b5aa-2261d6179fcc",
    "modified_at": "2022-12-21T22:36:36.805Z",
    "parents": [
      "2168f1e1-32a8-4a2e-9414-067fc8bac26d"
    ],
    "repository": "kara.moe",
    "tags": {
      "authors": [
        "60defa7b-774e-4680-8321-51b742c2e009"
      ],
      "collections": [
        "dbcf2c22-524d-4708-99bb-601703633927"
      ],
      "creators": [
        "9f10c180-4ed1-4a4e-9e39-c37e09b91d5f"
      ],
      "families": [
        "5391f9fe-638c-415f-8dc9-958e3a2c5787"
      ],
      "groups": [
        "3c14c864-533c-49e6-a3cc-6969f1233775",
        "60defa7b-774e-4680-8321-51b742c2e009"
      ],
      "langs": [
        "4dcf9614-7914-42aa-99f4-dbce2e059133"
      ],
      "misc": [
        "86705d4b-24e4-4756-9687-2b9c98bcf366"
      ],
      "series": [
        "8ccb2d2d-9b28-4a3c-aa37-b8b9e4e4f080"
      ],
      "singers": [
        "f519735c-26af-422b-824b-7c4f5df23ee4"
      ],
      "songtypes": [
        "a0167949-580c-4de3-bf13-497e462e02f3"
      ],
      "songwriters": [
        "0179fe70-a021-4188-b08a-62de55ce39c6",
        "d486b0ce-6199-4b7c-8b5a-14c1170b21b7",
        "f058d1fd-87fa-4680-a7e8-0166c4879fd4"
      ],
      "versions": [
        "c2143a7f-6970-450e-8a79-0302db9220a9"
      ]
    },
    "titles": {
      "eng": "To All Tha Dreamers"
    },
    "titles_default_language": "eng",
    "year": 2004
  }
}