{
  "header": {
    "version": 4,
    "description": "Karaoke Mugen Karaoke Data File"
  },
  "medias": [
    {
      "version": "Default",
      "filename": "JPN - Daitoshokan no Hitsujikai - PC GAME OP2 - Yumekai Biyori.mp4",
      "audiogain": -7.43,
      "loudnorm": "-8.79,1.38,5.20,-18.94,-1.23",
      "filesize": 41638386,
      "duration": 103,
      "default": true,
      "lyrics": [
        {
          "filename": "JPN - Daitoshokan no Hitsujikai - PC GAME OP2 - Yumekai Biyori.ass",
          "default": true,
          "version": "Default",
          "subchecksum": "50cf0a650d4a48a48429da88c678feeb"
        }
      ]
    }
  ],
  "data": {
    "created_at": "2017-10-11T17:01:01.000Z",
    "kid": "164c13ae-6bcb-4403-95eb-2e83ea9a9375",
    "modified_at": "2021-02-25T11:06:28.259Z",
    "repository": "kara.moe",
    "songorder": 2,
    "tags": {
      "authors": [
        "5bdaba57-27f8-4568-8806-76a807728766"
      ],
      "collections": [
        "c7db86a0-ff64-4044-9be4-66dd1ef1d1c1"
      ],
      "creators": [
        "c561cfc4-2d33-4271-97ef-954456fc2fb1"
      ],
      "families": [
        "dbedd6b3-d125-4cd8-aa32-c4175e4ca3a3"
      ],
      "groups": [
        "ae613721-1fbe-480d-ba6b-d6d0702b184d"
      ],
      "langs": [
        "4dcf9614-7914-42aa-99f4-dbce2e059133"
      ],
      "origins": [
        "2f96e82c-c61b-4413-817e-e6b247509b95"
      ],
      "platforms": [
        "3c15f758-e1bc-4266-8bb9-3c14112f504a"
      ],
      "series": [
        "1e2f5600-7587-4e47-8188-2f1dde232128"
      ],
      "singers": [
        "37364de2-d01f-4a27-9bab-2ec1e937715f"
      ],
      "songtypes": [
        "f02ad9b3-0bd9-4aad-85b3-9976739ba0e4"
      ],
      "songwriters": [
        "8534f929-7103-4256-83d2-6e7685d2f484",
        "f8f2cfc6-0d0f-448e-936f-2f6228d4233b"
      ]
    },
    "title": "Yumekai Biyori",
    "titles": {
      "qro": "Yumekai Biyori",
      "jpn": "夢飼い日和"
    },
    "year": 2013,
    "titles_default_language": "qro"
  }
}