{
  "header": {
    "version": 4,
    "description": "Karaoke Mugen Karaoke Data File"
  },
  "medias": [
    {
      "version": "Default",
      "filename": "JPN - Date a Live II - OP - Trust in You.mp4",
      "audiogain": 0.94,
      "loudnorm": "-18.13,-9.69,8.50,-28.32,-1.44",
      "filesize": 44223288,
      "duration": 107,
      "default": true,
      "lyrics": [
        {
          "filename": "JPN - Date a Live II - OP - Trust in You.ass",
          "default": true,
          "version": "Default",
          "subchecksum": "91125fc973b421bb6d09b01d3153df94"
        }
      ]
    }
  ],
  "data": {
    "created_at": "2017-10-11T17:02:54.000Z",
    "kid": "c0b5abe1-6697-4b0b-8fa2-ac4b7e391f38",
    "modified_at": "2021-08-09T22:50:12.994Z",
    "repository": "kara.moe",
    "tags": {
      "authors": [
        "5bdaba57-27f8-4568-8806-76a807728766"
      ],
      "collections": [
        "c7db86a0-ff64-4044-9be4-66dd1ef1d1c1"
      ],
      "creators": [
        "fc687079-2e13-485f-a3ab-4474872175a8"
      ],
      "families": [
        "0377db02-3af6-43b8-9b08-c759df3d25c3"
      ],
      "groups": [
        "ae613721-1fbe-480d-ba6b-d6d0702b184d"
      ],
      "langs": [
        "4dcf9614-7914-42aa-99f4-dbce2e059133"
      ],
      "origins": [
        "938de218-5343-4865-94d3-fb33f2eaa152"
      ],
      "series": [
        "679fca63-dc48-417c-b75f-04116f6ba88f"
      ],
      "singers": [
        "d1b95792-c817-41d6-b91f-9aa70736a2e5"
      ],
      "songtypes": [
        "f02ad9b3-0bd9-4aad-85b3-9976739ba0e4"
      ],
      "songwriters": [
        "731c9f26-b072-4f14-b3b8-ae8b04835f03",
        "cc390c0c-07fd-474a-91c7-c980cc6ca3b1"
      ],
      "franchises": [
        "3ca53c9d-07fe-433f-a2e9-af4b68fa14f9"
      ]
    },
    "title": "Trust in You",
    "titles": {
      "eng": "Trust in You"
    },
    "year": 2014,
    "titles_default_language": "eng"
  }
}