{
  "header": {
    "version": 4,
    "description": "Karaoke Mugen Karaoke Data File"
  },
  "medias": [
    {
      "version": "Milla.",
      "filename": "JPN - Tales of Xillia - GAME PS3 OP - progress ~ Milla Vers. ~ Alternative Vers.mp4",
      "audiogain": -2.27,
      "loudnorm": "-15.69,-6.07,7.20,-26.23,-1.50",
      "filesize": 50972336,
      "duration": 112,
      "default": true,
      "lyrics": [
        {
          "filename": "JPN - Tales of Xillia - GAME PS3 OP - progress ~ Milla Vers. ~ Alternative Vers.ass",
          "default": true,
          "version": "Default"
        }
      ]
    }
  ],
  "data": {
    "created_at": "2017-10-11T17:01:12.000Z",
    "ignoreHooks": false,
    "kid": "e377d916-8adf-4bfc-aa1d-3d93cac7d6ed",
    "modified_at": "2022-07-08T21:18:20.481Z",
    "parents": [
      "3e8b817a-6a42-4eff-b5a2-cdc3ae71eca1"
    ],
    "repository": "kara.moe",
    "tags": {
      "authors": [
        "5bdaba57-27f8-4568-8806-76a807728766"
      ],
      "collections": [
        "c7db86a0-ff64-4044-9be4-66dd1ef1d1c1"
      ],
      "creators": [
        "7e37aea2-311a-4b93-8059-ba7a8fad65d9"
      ],
      "families": [
        "dbedd6b3-d125-4cd8-aa32-c4175e4ca3a3"
      ],
      "groups": [
        "ae613721-1fbe-480d-ba6b-d6d0702b184d"
      ],
      "langs": [
        "4dcf9614-7914-42aa-99f4-dbce2e059133"
      ],
      "misc": [
        "fe819ff1-9db8-4a0f-85dc-0e322c9126c4"
      ],
      "platforms": [
        "7f63ff91-7961-4488-888d-4bf46eea3a2a"
      ],
      "series": [
        "89f822c7-4680-4c5e-9969-5ebda11c077a"
      ],
      "singers": [
        "c10e51ef-eccd-4c18-b0e6-ada13851361a"
      ],
      "songtypes": [
        "f02ad9b3-0bd9-4aad-85b3-9976739ba0e4"
      ],
      "songwriters": [
        "c10e51ef-eccd-4c18-b0e6-ada13851361a",
        "f3c7208a-d031-4928-9152-fe3c3f2ae82e"
      ],
      "versions": [
        "9f63c359-d1bf-425a-bcf5-b245c2c9211d"
      ],
      "franchises": [
        "457ab7f6-9644-4493-b61b-8778400aaf54"
      ]
    },
    "titles": {
      "eng": "progress ~ Milla Vers."
    },
    "titles_default_language": "eng",
    "title": "progress ~ Milla Vers.",
    "year": 2011
  }
}