{
  "header": {
    "version": 4,
    "description": "Karaoke Mugen Karaoke Data File"
  },
  "medias": [
    {
      "version": "Default",
      "filename": "JPN - Zombieland Saga - IN - Yomigaere.mp4",
      "audiogain": -1.55,
      "loudnorm": "-15.10,-4.80,1.80,-25.10,0.01",
      "filesize": 59186143,
      "duration": 111,
      "default": true,
      "lyrics": [
        {
          "filename": "JPN - Zombieland Saga - IN - Yomigaere.ass",
          "default": true,
          "version": "Default"
        }
      ]
    }
  ],
  "data": {
    "created_at": "2021-08-28T12:31:23.989Z",
    "ignoreHooks": false,
    "kid": "58ccb334-af8a-47de-92ce-61890e94b7d1",
    "modified_at": "2022-09-30T19:39:27.904Z",
    "repository": "kara.moe",
    "tags": {
      "authors": [
        "9cdf3b70-3550-457c-bdb9-038f3253c6ad"
      ],
      "collections": [
        "c7db86a0-ff64-4044-9be4-66dd1ef1d1c1"
      ],
      "creators": [
        "0a86e9ea-5e17-4371-8f2a-60c818324d58"
      ],
      "families": [
        "0377db02-3af6-43b8-9b08-c759df3d25c3"
      ],
      "genres": [
        "caa86df2-0d59-474b-885c-f240a9e891b0"
      ],
      "groups": [
        "ae613721-1fbe-480d-ba6b-d6d0702b184d"
      ],
      "langs": [
        "4dcf9614-7914-42aa-99f4-dbce2e059133"
      ],
      "origins": [
        "938de218-5343-4865-94d3-fb33f2eaa152"
      ],
      "series": [
        "8d73a7d5-dc57-4e08-9a54-1b79364c2e0b"
      ],
      "singers": [
        "296a7e5c-acf6-4459-938f-ba3cbfa957f9"
      ],
      "songtypes": [
        "5e5250d9-351a-4a82-98eb-55db50ad8962"
      ],
      "songwriters": [
        "6b5b09c9-e087-416b-891d-3296de552d9d",
        "cbd3ccbc-14c5-4f13-b461-6cfad840f5cd"
      ],
      "franchises": [
        "8d73a7d5-dc57-4e08-9a54-1b79364c2e0b"
      ]
    },
    "titles": {
      "jpn": "ヨミガエレ",
      "qro": "Yomigaere"
    },
    "titles_default_language": "qro",
    "titles_aliases": [
      "Rise Again"
    ],
    "title": "Yomigaere",
    "year": 2019
  }
}