{
  "header": {
    "version": 4,
    "description": "Karaoke Mugen Karaoke Data File"
  },
  "medias": [
    {
      "version": "Default",
      "filename": "JPN - Mashin Eiyuuden Wataru - OP - STEP.mp4",
      "audiogain": -0.7,
      "loudnorm": "-18.08,-3.72,3.40,-28.23,-0.49",
      "filesize": 16935656,
      "duration": 90,
      "default": true,
      "lyrics": [
        {
          "filename": "JPN - Mashin Eiyuuden Wataru - OP - STEP.ass",
          "default": true,
          "version": "Default",
          "subchecksum": "7d74e521d2d006c6d9278c7e2659c2c6"
        }
      ]
    }
  ],
  "data": {
    "created_at": "2017-10-11T17:02:02.000Z",
    "kid": "ede21048-6f4a-4191-867f-42f3b7634bbc",
    "modified_at": "2021-02-25T12:21:56.973Z",
    "repository": "kara.moe",
    "tags": {
      "authors": [
        "4607780c-f1ef-47cf-9c1c-b13e8f731699"
      ],
      "collections": [
        "c7db86a0-ff64-4044-9be4-66dd1ef1d1c1"
      ],
      "creators": [
        "ef8f80e1-d244-4aea-b7f0-984d6dd4b82b"
      ],
      "families": [
        "0377db02-3af6-43b8-9b08-c759df3d25c3"
      ],
      "genres": [
        "f60ba57d-5ef4-49e0-b93b-d0dcbcff6592"
      ],
      "groups": [
        "7792cc27-9ff9-4d47-9287-2338b7db1575"
      ],
      "langs": [
        "4dcf9614-7914-42aa-99f4-dbce2e059133"
      ],
      "origins": [
        "938de218-5343-4865-94d3-fb33f2eaa152"
      ],
      "series": [
        "f5cd49e3-cad5-46d0-b3cf-d8744c0b3a30"
      ],
      "singers": [
        "220d982f-58c0-42a5-9338-ac3dc38c3f83"
      ],
      "songtypes": [
        "f02ad9b3-0bd9-4aad-85b3-9976739ba0e4"
      ],
      "songwriters": [
        "24679208-fc62-4f16-ad66-bcd5a0362172"
      ],
      "franchises": [
        "f5cd49e3-cad5-46d0-b3cf-d8744c0b3a30"
      ]
    },
    "title": "STEP",
    "titles": {
      "eng": "STEP"
    },
    "year": 1988,
    "titles_default_language": "eng"
  }
}