{
  "header": {
    "version": 4,
    "description": "Karaoke Mugen Karaoke Data File"
  },
  "medias": [
    {
      "version": "Default",
      "filename": "JPN - Summer Time Rendering - OP2 - Natsuyume Noisy.mp4",
      "audiogain": 2.67,
      "loudnorm": "-20.68,-8.59,7.00,-30.77,-1.46",
      "filesize": 142913454,
      "duration": 90,
      "default": true,
      "lyrics": [
        {
          "filename": "JPN - Summer Time Rendering - OP2 - Natsuyume Noisy.ass",
          "default": true,
          "version": "Default"
        }
      ]
    }
  ],
  "data": {
    "created_at": "2022-07-14T19:52:08.124Z",
    "ignoreHooks": false,
    "kid": "f5fa0fe6-6983-48ab-bde3-1c087613477b",
    "modified_at": "2022-07-16T07:57:43.285Z",
    "repository": "kara.moe",
    "songorder": 2,
    "tags": {
      "authors": [
        "df9cb48f-334e-4ceb-b26e-e254ad323492"
      ],
      "collections": [
        "c7db86a0-ff64-4044-9be4-66dd1ef1d1c1"
      ],
      "creators": [
        "03fe574b-c7f5-4520-96dc-47320c39e2cc"
      ],
      "families": [
        "0377db02-3af6-43b8-9b08-c759df3d25c3"
      ],
      "langs": [
        "4dcf9614-7914-42aa-99f4-dbce2e059133"
      ],
      "origins": [
        "938de218-5343-4865-94d3-fb33f2eaa152"
      ],
      "series": [
        "f088821b-48e4-48bd-96fa-683fe3b54a04"
      ],
      "singers": [
        "f97ee9f8-c652-4eaa-b8df-5e5a7ff30318"
      ],
      "songtypes": [
        "f02ad9b3-0bd9-4aad-85b3-9976739ba0e4"
      ],
      "songwriters": [
        "66339ced-7df9-40c8-aefd-59b2990df294"
      ],
      "groups": [
        "8e209ae4-4381-438f-89dc-1b21752027d2"
      ]
    },
    "titles": {
      "qro": "Natsuyume Noisy",
      "jpn": "夏夢ノイジー"
    },
    "titles_default_language": "qro",
    "title": "Natsuyume Noisy",
    "year": 2022
  }
}