{
  "header": {
    "description": "Karaoke Mugen Karaoke Data File",
    "version": 4
  },
  "medias": [
    {
      "version": "Default",
      "filename": "JPN - Hatsune Miku ~ Project DIVA Arcade Future Tone - GAME MV - Catch the Wave.mp4",
      "audiogain": 5.31,
      "loudnorm": "-21.02,-9.52,1.40,-31.07,-0.10",
      "filesize": 208304487,
      "duration": 205,
      "default": true,
      "lyrics": [
        {
          "filename": "JPN - Hatsune Miku ~ Project DIVA Arcade Future Tone - GAME MV - Catch the Wave.ass",
          "default": true,
          "version": "Default"
        }
      ]
    }
  ],
  "data": {
    "created_at": "2022-05-09T21:29:37.360Z",
    "kid": "c435ebbc-65ab-490f-8fda-62432b66928c",
    "modified_at": "2022-05-09T21:29:37.360Z",
    "tags": {
      "authors": [
        "2c1f4c76-4de9-4548-9aa5-bc64ab296076"
      ],
      "creators": [
        "b8a3778d-0864-4135-9053-1def02d3262e"
      ],
      "families": [
        "dbedd6b3-d125-4cd8-aa32-c4175e4ca3a3"
      ],
      "genres": [
        "45623cae-6d68-4304-a49b-896d1d6f4580"
      ],
      "langs": [
        "4dcf9614-7914-42aa-99f4-dbce2e059133"
      ],
      "series": [
        "10b144ba-23b0-412a-9d78-253af4ee10ae"
      ],
      "singers": [
        "4407ba0e-5de7-4add-870f-7ac95a4804c9"
      ],
      "songtypes": [
        "7be1b15c-cff8-4b37-a649-5c90f3d569a9"
      ],
      "songwriters": [
        "0098edaf-b60b-4b75-bc82-ccf824f506ce"
      ],
      "collections": [
        "c7db86a0-ff64-4044-9be4-66dd1ef1d1c1"
      ],
      "franchises": [
        "d28af18d-d544-4d0f-b955-99e6914230f2"
      ]
    },
    "titles": {
      "eng": "Catch the Wave"
    },
    "titles_default_language": "eng",
    "titles_aliases": [],
    "title": "Catch the Wave",
    "year": "2020",
    "repository": "kara.moe"
  }
}