{
  "header": {
    "version": 4,
    "description": "Karaoke Mugen Karaoke Data File"
  },
  "medias": [
    {
      "version": "Default",
      "filename": "JPN - Whiteberry - MV - Natsumatsuri.mp4",
      "audiogain": -6.28,
      "loudnorm": "-11.27,-0.95,3.90,-21.45,-0.54",
      "filesize": 36746872,
      "duration": 223,
      "default": true,
      "lyrics": [
        {
          "filename": "JPN - Whiteberry - MV - Natsumatsuri.ass",
          "default": true,
          "version": "Default"
        }
      ]
    }
  ],
  "data": {
    "created_at": "2019-09-11T20:49:14.000Z",
    "kid": "67644f96-ee95-4efd-a856-aba4200691f8",
    "modified_at": "2022-06-04T00:15:35.476Z",
    "repository": "kara.moe",
    "songorder": null,
    "tags": {
      "authors": [
        "076236f4-5755-495e-a827-e86edce43e20"
      ],
      "creators": [
        "9f10c180-4ed1-4a4e-9e39-c37e09b91d5f"
      ],
      "families": [
        "5391f9fe-638c-415f-8dc9-958e3a2c5787"
      ],
      "groups": [
        "2b4e9972-5e17-481b-99f5-d0787c0ada56",
        "3c14c864-533c-49e6-a3cc-6969f1233775"
      ],
      "langs": [
        "4dcf9614-7914-42aa-99f4-dbce2e059133"
      ],
      "singers": [
        "dad06372-89ad-45df-8e05-19908de16d0b"
      ],
      "songtypes": [
        "7be1b15c-cff8-4b37-a649-5c90f3d569a9"
      ],
      "collections": [
        "dbcf2c22-524d-4708-99bb-601703633927"
      ]
    },
    "titles": {
      "qro": "Natsumatsuri",
      "jpn": "夏祭り"
    },
    "titles_default_language": "qro",
    "title": "Natsumatsuri",
    "year": 2000
  }
}