{
  "header": {
    "version": 4,
    "description": "Karaoke Mugen Karaoke Data File"
  },
  "medias": [
    {
      "version": "Default",
      "filename": "JPN - Maid-san She See - GAME PC OP - She See Love.mp4",
      "audiogain": -8.51,
      "loudnorm": "-8.48,1.19,2.40,-18.50,-0.14",
      "filesize": 23413281,
      "duration": 127,
      "default": true,
      "lyrics": [
        {
          "filename": "JPN - Maid-san She See - GAME PC OP - She See Love.ass",
          "default": true,
          "version": "Default"
        }
      ]
    }
  ],
  "data": {
    "created_at": "2020-02-05T19:09:35.019Z",
    "kid": "094c4c23-ab3e-48a4-a7ac-a4b0dc4aae8c",
    "modified_at": "2022-07-20T11:29:07.946Z",
    "repository": "kara.moe",
    "tags": {
      "authors": [
        "a5dbab74-510b-48c5-9cea-5a537a81c974"
      ],
      "creators": [
        "b6fb74cf-1997-431f-a016-8615894e78bc"
      ],
      "families": [
        "dbedd6b3-d125-4cd8-aa32-c4175e4ca3a3"
      ],
      "groups": [
        "3c14c864-533c-49e6-a3cc-6969f1233775",
        "8c22c899-b3ed-42da-a548-ce00f950798b"
      ],
      "langs": [
        "4dcf9614-7914-42aa-99f4-dbce2e059133"
      ],
      "origins": [
        "2f96e82c-c61b-4413-817e-e6b247509b95"
      ],
      "platforms": [
        "3c15f758-e1bc-4266-8bb9-3c14112f504a"
      ],
      "series": [
        "7c50096f-97bc-4532-bae3-b9f8a3a1b41f"
      ],
      "singers": [
        "87fd793b-9a29-4cab-aaba-f3241eeb7441",
        "955b4699-681f-45bc-b56f-2e741df1cb01"
      ],
      "songtypes": [
        "f02ad9b3-0bd9-4aad-85b3-9976739ba0e4"
      ],
      "songwriters": [
        "10d1a6d9-54e8-4764-873d-0a98d48002bb",
        "bbac5d5b-276c-4615-91fc-6cabb0953408"
      ],
      "collections": [
        "c7db86a0-ff64-4044-9be4-66dd1ef1d1c1"
      ],
      "warnings": [
        "e82ce681-6d7b-4fb6-abe4-daa8aaa9bbf9"
      ]
    },
    "titles": {
      "eng": "She See Love"
    },
    "titles_default_language": "eng",
    "title": "She See Love",
    "year": 2004
  }
}