{
  "header": {
    "version": 4,
    "description": "Karaoke Mugen Karaoke Data File"
  },
  "medias": [
    {
      "version": "Default",
      "filename": "JPN - Tenshi no Nichou Kenjuu Angelos Armas - GAME OP1 - Samenai Netsu.mp4",
      "audiogain": -9.97,
      "loudnorm": "-7.36,0.85,4.50,-17.51,-0.52",
      "filesize": 18589074,
      "duration": 103,
      "default": true,
      "lyrics": [
        {
          "filename": "JPN - Tenshi no Nichou Kenjuu Angelos Armas - GAME OP1 - Samenai Netsu.ass",
          "default": true,
          "version": "Default"
        }
      ]
    }
  ],
  "data": {
    "created_at": "2017-10-11T17:01:41.000Z",
    "ignoreHooks": false,
    "kid": "77626f17-5295-457c-a41a-14937af3c71a",
    "modified_at": "2022-07-24T21:36:59.599Z",
    "repository": "kara.moe",
    "songorder": 1,
    "tags": {
      "authors": [
        "5bdaba57-27f8-4568-8806-76a807728766"
      ],
      "collections": [
        "c7db86a0-ff64-4044-9be4-66dd1ef1d1c1"
      ],
      "creators": [
        "d8c36618-4baf-4969-a667-188a901a1f00"
      ],
      "families": [
        "dbedd6b3-d125-4cd8-aa32-c4175e4ca3a3"
      ],
      "groups": [
        "3c14c864-533c-49e6-a3cc-6969f1233775"
      ],
      "langs": [
        "4dcf9614-7914-42aa-99f4-dbce2e059133"
      ],
      "series": [
        "c87a7f7b-20cf-4d7d-98fb-722910f4eec6"
      ],
      "singers": [
        "cde0e979-7f7a-4450-a2cc-faf3251b09fe"
      ],
      "songtypes": [
        "f02ad9b3-0bd9-4aad-85b3-9976739ba0e4"
      ],
      "songwriters": [
        "bd491e13-75f4-4965-88ad-4632fc9ec3ca",
        "cde0e979-7f7a-4450-a2cc-faf3251b09fe"
      ]
    },
    "titles": {
      "qro": "Samenai Netsu",
      "jpn": "さめない熱"
    },
    "titles_default_language": "qro",
    "title": "Samenai Netsu",
    "year": 2004
  }
}