{
  "header": {
    "version": 4,
    "description": "Karaoke Mugen Karaoke Data File"
  },
  "medias": [
    {
      "version": "Default",
      "filename": "JPN - GUMI, MikitoP - MV - PLATONIC GIRL ~ Off Vocal Vers.mp4",
      "audiogain": -10.12,
      "loudnorm": "-5.83,3.33,0.70,-15.97,-0.14",
      "filesize": 70626656,
      "duration": 242,
      "default": true,
      "lyrics": [
        {
          "filename": "JPN - GUMI, MikitoP - MV - PLATONIC GIRL ~ Off Vocal Vers.ass",
          "default": true,
          "version": "Default"
        }
      ]
    }
  ],
  "data": {
    "created_at": "2021-08-26T20:05:57.664Z",
    "kid": "a049d4a3-d553-4ec5-a9c5-55db0814281f",
    "modified_at": "2021-08-26T21:01:29.589Z",
    "repository": "kara.moe",
    "tags": {
      "authors": [
        "78d42fee-8d3e-4bd5-9c44-98ce55f7d21f",
        "90698f28-1d62-4673-82c4-33ae96b1ba97"
      ],
      "collections": [
        "c7db86a0-ff64-4044-9be4-66dd1ef1d1c1"
      ],
      "families": [
        "0377db02-3af6-43b8-9b08-c759df3d25c3"
      ],
      "genres": [
        "45623cae-6d68-4304-a49b-896d1d6f4580"
      ],
      "groups": [
        "ae613721-1fbe-480d-ba6b-d6d0702b184d"
      ],
      "langs": [
        "4dcf9614-7914-42aa-99f4-dbce2e059133"
      ],
      "misc": [
        "1d6ceadf-a885-47e5-b23b-c07bf668a424"
      ],
      "singers": [
        "7b3b2c24-f297-4c2a-82a5-bc9c9102567c",
        "dafdeefa-0a96-44df-9653-aeb88c400e33"
      ],
      "songtypes": [
        "7be1b15c-cff8-4b37-a649-5c90f3d569a9"
      ],
      "songwriters": [
        "7b3b2c24-f297-4c2a-82a5-bc9c9102567c"
      ],
      "versions": [
        "c0cc87b9-55b9-40f0-878a-fbb9e34c151e"
      ]
    },
    "titles": {
      "eng": "PLATONIC GIRL"
    },
    "title": "PLATONIC GIRL",
    "year": 2018,
    "titles_default_language": "eng"
  }
}