{
  "header": {
    "version": 4,
    "description": "Karaoke Mugen Karaoke Data File"
  },
  "medias": [
    {
      "version": "Default",
      "filename": "JPN - Futari wa PreCure Splash Star - ED2 - Ganbalance de Dance.mp4",
      "audiogain": 0.71,
      "loudnorm": "-20.34,-8.71,6.00,-30.42,-0.69",
      "filesize": 22895066,
      "duration": 92,
      "default": true,
      "lyrics": [
        {
          "filename": "JPN - Futari wa PreCure Splash Star - ED2 - Ganbalance de Dance.ass",
          "default": true,
          "version": "Default",
          "subchecksum": "208da339e00986a6ed5e9d549bd368db"
        }
      ]
    }
  ],
  "data": {
    "created_at": "2017-11-29T00:29:52.000Z",
    "kid": "916c6ac6-ee48-448d-b304-0394aba8a5c7",
    "modified_at": "2021-02-25T11:22:34.373Z",
    "repository": "kara.moe",
    "songorder": 2,
    "tags": {
      "authors": [
        "79e0aa7d-da9a-4e9a-aa2b-64056a83b49b"
      ],
      "collections": [
        "c7db86a0-ff64-4044-9be4-66dd1ef1d1c1"
      ],
      "creators": [
        "f694bf43-b427-4244-9744-9d3f84fd8a31"
      ],
      "families": [
        "0377db02-3af6-43b8-9b08-c759df3d25c3"
      ],
      "genres": [
        "b84e28f9-db1e-447f-b339-7954c3592523"
      ],
      "groups": [
        "3c14c864-533c-49e6-a3cc-6969f1233775"
      ],
      "langs": [
        "4dcf9614-7914-42aa-99f4-dbce2e059133"
      ],
      "origins": [
        "938de218-5343-4865-94d3-fb33f2eaa152"
      ],
      "series": [
        "cdc5306c-7e6d-4bb4-b108-555d96ee1b39"
      ],
      "singers": [
        "aee3363f-16df-40c6-9403-8e655f3d0b28"
      ],
      "songtypes": [
        "38c77c56-2b95-4040-b676-0994a8cb0597"
      ],
      "songwriters": [
        "285df0bd-134b-4b8a-95b1-7dbc278df8fa",
        "b929fec7-a44a-473e-bc10-439574dea27e"
      ],
      "franchises": [
        "0067bd2a-ad9f-49eb-9e57-4a3ee0c9622a"
      ]
    },
    "title": "Ganbalance de Dance",
    "titles": {
      "qro": "Ganbalance de Dance",
      "jpn": "ガンバランスdeダンス"
    },
    "year": 2006,
    "titles_default_language": "qro"
  }
}