{
  "header": {
    "version": 4,
    "description": "Karaoke Mugen Karaoke Data File"
  },
  "medias": [
    {
      "version": "Default",
      "filename": "JPN - Wand of Fortune ~Mirai e no Prologue~ - PS2 PSP GAME OP - Re Kokoro.mp4",
      "audiogain": -8.43,
      "loudnorm": "-8.22,1.74,5.60,-18.43,-1.23",
      "filesize": 7952563,
      "duration": 106,
      "default": true,
      "lyrics": [
        {
          "filename": "JPN - Wand of Fortune ~Mirai e no Prologue~ - PS2 PSP GAME OP - Re Kokoro.ass",
          "default": true,
          "version": "Default",
          "subchecksum": "e13ac39723574c7acd4d84931caf25b0"
        }
      ]
    }
  ],
  "data": {
    "created_at": "2019-04-26T18:33:50.000Z",
    "kid": "58b4932a-62d4-4413-a91b-eab8e1601694",
    "modified_at": "2021-02-25T13:36:30.437Z",
    "repository": "kara.moe",
    "tags": {
      "authors": [
        "2a9bbf75-0722-4b4a-9935-caa92f38fdd1"
      ],
      "collections": [
        "c7db86a0-ff64-4044-9be4-66dd1ef1d1c1"
      ],
      "creators": [
        "98ab71c6-8066-4d59-84a2-9833a27ec461",
        "ad1aac04-47e7-42e6-bd2b-c4a0e38c1afe"
      ],
      "families": [
        "dbedd6b3-d125-4cd8-aa32-c4175e4ca3a3"
      ],
      "groups": [
        "ae613721-1fbe-480d-ba6b-d6d0702b184d"
      ],
      "langs": [
        "4dcf9614-7914-42aa-99f4-dbce2e059133"
      ],
      "origins": [
        "2f96e82c-c61b-4413-817e-e6b247509b95",
        "7025ae3c-7bd6-4787-8912-2c15063343bb"
      ],
      "platforms": [
        "2173004e-21da-45c9-9dfb-26014423c566",
        "6b101aff-4b7b-4b0d-b35e-0f1b67e38c9b"
      ],
      "series": [
        "f89e0bdb-d882-44c1-b31b-e02bfd08f265"
      ],
      "singers": [
        "f0c823ca-625b-460e-8e67-031420ffbdcd"
      ],
      "songtypes": [
        "f02ad9b3-0bd9-4aad-85b3-9976739ba0e4"
      ],
      "songwriters": [
        "5e583026-c255-4617-92b7-db4d8aab3ad7",
        "f0c823ca-625b-460e-8e67-031420ffbdcd"
      ],
      "franchises": [
        "237fc048-16f8-4c0c-aafb-699a2e8dc542"
      ]
    },
    "title": "Re: Kokoro",
    "titles": {
      "qro": "Re: Kokoro",
      "jpn": "Re:ココロ"
    },
    "year": 2010,
    "titles_default_language": "qro"
  }
}