{
  "header": {
    "version": 4,
    "description": "Karaoke Mugen Karaoke Data File"
  },
  "medias": [
    {
      "version": "Default",
      "filename": "JPN - PriPara - OP4 - Dream Parade.mp4",
      "audiogain": -1.83,
      "loudnorm": "-15.82,-0.86,2.00,-25.87,-0.27",
      "filesize": 42249989,
      "duration": 89,
      "default": true,
      "lyrics": [
        {
          "filename": "JPN - PriPara - OP4 - Dream Parade.ass",
          "default": true,
          "version": "Default"
        }
      ]
    }
  ],
  "data": {
    "created_at": "2017-10-11T17:02:22.000Z",
    "ignoreHooks": false,
    "kid": "ce03fffd-4766-4378-8400-a33ed6fdc736",
    "modified_at": "2022-10-23T15:54:53.944Z",
    "repository": "kara.moe",
    "songorder": 4,
    "tags": {
      "authors": [
        "5bdaba57-27f8-4568-8806-76a807728766"
      ],
      "collections": [
        "c7db86a0-ff64-4044-9be4-66dd1ef1d1c1"
      ],
      "creators": [
        "cfdb2d1e-499d-47a1-b9f8-070153b5048e"
      ],
      "families": [
        "0377db02-3af6-43b8-9b08-c759df3d25c3"
      ],
      "genres": [
        "caa86df2-0d59-474b-885c-f240a9e891b0"
      ],
      "groups": [
        "ae613721-1fbe-480d-ba6b-d6d0702b184d"
      ],
      "langs": [
        "4dcf9614-7914-42aa-99f4-dbce2e059133"
      ],
      "origins": [
        "938de218-5343-4865-94d3-fb33f2eaa152"
      ],
      "series": [
        "4aa91989-cff1-48eb-9f5e-d4ae773d3122"
      ],
      "singers": [
        "50ace48d-4f9f-47e6-894d-5d66c9fd2014",
        "5d3e8ad0-0315-423b-a6cf-4ebed7ad5093",
        "7e4bddde-27db-412b-b37d-678d367864af",
        "8f4dc795-4e05-4e8f-a5fc-61e45e229402",
        "92adbbb5-d77d-4ab5-9ea6-81cb0f04800a",
        "ccf6ab16-cd54-4031-a2c3-b67242b54518"
      ],
      "singergroups": [
        "d1824d3d-fe54-4fea-b529-355f7b6517f7"
      ],
      "songtypes": [
        "f02ad9b3-0bd9-4aad-85b3-9976739ba0e4"
      ],
      "songwriters": [
        "4998caf7-15dd-4f12-9024-4946b7a08d16",
        "859413a9-8164-4299-8047-80cbba2a650a"
      ],
      "franchises": [
        "2a2f00e6-f77a-426b-8611-ecc4cfeecd14"
      ]
    },
    "titles": {
      "eng": "Dream Parade",
      "jpn": "ドリームパレード"
    },
    "titles_default_language": "eng",
    "title": "Dream Parade",
    "year": 2014
  }
}