{
  "header": {
    "version": 4,
    "description": "Karaoke Mugen Karaoke Data File"
  },
  "medias": [
    {
      "version": "Default",
      "filename": "JPN - Dragon Ball Z Movie 6 Gekitotsu!! Hyaku-Oku Power no Senshi-tachi - MOVIE ED - HERO (Kimi ga hero).mp4",
      "audiogain": 2.97,
      "loudnorm": "-21.57,-11.54,4.10,-31.68,-0.37",
      "filesize": 96487803,
      "duration": 95,
      "default": true,
      "lyrics": [
        {
          "filename": "JPN - Dragon Ball Z Movie 6 Gekitotsu!! Hyaku-Oku Power no Senshi-tachi - MOVIE ED - HERO (Kimi ga hero).ass",
          "default": true,
          "version": "Default",
          "subchecksum": "998846d1185d8d3e2e2905692beb34b6"
        }
      ]
    }
  ],
  "data": {
    "created_at": "2019-08-30T20:25:44.000Z",
    "kid": "2fa0cdd7-4abc-4573-b4de-c95956843b42",
    "modified_at": "2021-02-25T11:13:10.259Z",
    "repository": "kara.moe",
    "tags": {
      "authors": [
        "06852e02-b77e-4106-b6f7-2d03942ad0ea"
      ],
      "collections": [
        "c7db86a0-ff64-4044-9be4-66dd1ef1d1c1"
      ],
      "creators": [
        "f694bf43-b427-4244-9744-9d3f84fd8a31"
      ],
      "families": [
        "0377db02-3af6-43b8-9b08-c759df3d25c3"
      ],
      "genres": [
        "a0aeef4a-6428-45ff-a6e1-468b595930c2"
      ],
      "groups": [
        "24db50aa-a126-4d34-a48a-e45db79c4245"
      ],
      "langs": [
        "4dcf9614-7914-42aa-99f4-dbce2e059133"
      ],
      "origins": [
        "c8ca9dea-d8b4-48fe-8427-d911653232e9"
      ],
      "series": [
        "3a6c994a-95a4-4650-8b50-625d9e43baa2"
      ],
      "singers": [
        "162799fe-de2f-4f72-99a2-8c606aee4f2d",
        "b789386a-a958-41f3-bb5f-258c7e157e7e"
      ],
      "songtypes": [
        "38c77c56-2b95-4040-b676-0994a8cb0597"
      ],
      "songwriters": [
        "47fdee8d-c184-4cf0-b4a6-783c5f94b3d1",
        "5ef38e64-35cc-40fe-9469-4c8b8699d349",
        "aaea4d26-7009-43ff-a138-be2511b0c65d"
      ],
      "franchises": [
        "c46f5c45-e15a-41b3-a3e6-a1ac023116e1"
      ]
    },
    "title": "HERO (Kimi ga hero)",
    "titles": {
      "qro": "HERO (Kimi ga hero)",
      "jpn": "HERO(キミがヒーロー)"
    },
    "year": 1992,
    "titles_default_language": "qro"
  }
}