{
  "header": {
    "version": 4,
    "description": "Karaoke Mugen Karaoke Data File"
  },
  "medias": [
    {
      "version": "Default",
      "filename": "JPN - Kaku-San-Sei Million Arthur - GAME OP - Million of Bravery.mp4",
      "audiogain": -3.28,
      "loudnorm": "-14.40,-4.38,3.50,-24.50,-0.84",
      "filesize": 22054946,
      "duration": 94,
      "default": true,
      "lyrics": [
        {
          "filename": "JPN - Kaku-San-Sei Million Arthur - GAME OP - Million of Bravery.ass",
          "default": true,
          "version": "Default"
        }
      ]
    }
  ],
  "data": {
    "created_at": "2017-10-11T17:01:10.000Z",
    "kid": "18e81df7-e415-4788-994c-b7d138afcdfe",
    "modified_at": "2022-09-19T19:17:56.909Z",
    "repository": "kara.moe",
    "tags": {
      "series": [
        "3c6fd221-1525-4c10-b9ed-635cb65f308b"
      ],
      "singers": [
        "b140bce2-2cc0-4a87-bddf-5af47293e458"
      ],
      "songtypes": [
        "f02ad9b3-0bd9-4aad-85b3-9976739ba0e4"
      ],
      "creators": [
        "ac4a5180-97af-4679-adcd-70ab39919d48"
      ],
      "langs": [
        "4dcf9614-7914-42aa-99f4-dbce2e059133"
      ],
      "authors": [
        "5bdaba57-27f8-4568-8806-76a807728766"
      ],
      "songwriters": [
        "5d4acd69-3c02-4b32-9fd9-eac6dd11885b"
      ],
      "groups": [
        "ae613721-1fbe-480d-ba6b-d6d0702b184d"
      ],
      "families": [
        "dbedd6b3-d125-4cd8-aa32-c4175e4ca3a3"
      ],
      "platforms": [
        "213a1a15-e73a-4a08-b3f6-b6e2745a82e5"
      ],
      "collections": [
        "c7db86a0-ff64-4044-9be4-66dd1ef1d1c1"
      ]
    },
    "titles": {
      "eng": "Million of Bravery"
    },
    "titles_default_language": "eng",
    "title": "Million of Bravery",
    "year": 2012
  }
}