{
  "header": {
    "version": 4,
    "description": "Karaoke Mugen Karaoke Data File"
  },
  "medias": [
    {
      "version": "Default",
      "filename": "JPN - Shoujo Kageki Revue Starlight - IN - Star Divine Finale.mp4",
      "audiogain": -10.2,
      "loudnorm": "-6.90,0.83,2.90,-17.00,-0.21",
      "filesize": 102207717,
      "duration": 246,
      "default": true,
      "lyrics": [
        {
          "filename": "JPN - Shoujo Kageki Revue Starlight - IN - Star Divine Finale.ass",
          "default": true,
          "version": "Default"
        }
      ]
    }
  ],
  "data": {
    "created_at": "2019-08-28T20:48:11.000Z",
    "ignoreHooks": false,
    "kid": "4c3dd7db-908e-4518-ab38-6d7abd71952f",
    "modified_at": "2022-01-15T18:19:15.800Z",
    "repository": "kara.moe",
    "tags": {
      "authors": [
        "f7ce702e-09aa-4b22-8742-0c99cd7a5409"
      ],
      "collections": [
        "c7db86a0-ff64-4044-9be4-66dd1ef1d1c1"
      ],
      "creators": [
        "08df259d-c4ec-458e-a066-af38a9f7ccc5"
      ],
      "families": [
        "0377db02-3af6-43b8-9b08-c759df3d25c3"
      ],
      "groups": [
        "2b4e9972-5e17-481b-99f5-d0787c0ada56",
        "ae613721-1fbe-480d-ba6b-d6d0702b184d"
      ],
      "langs": [
        "4dcf9614-7914-42aa-99f4-dbce2e059133"
      ],
      "origins": [
        "938de218-5343-4865-94d3-fb33f2eaa152"
      ],
      "series": [
        "197ecb28-b423-4c66-bbdb-49b89b5ed153"
      ],
      "singers": [
        "0691da5a-1612-40fe-91a3-898cce043c3e",
        "371f95d8-5385-4728-8dbb-0cd3e5892ce4",
        "4fc68333-b1f6-44ce-b2be-ac4866b78932",
        "67f4e548-9fc9-48f1-bc2c-8c24fd88f5f2"
      ],
      "songtypes": [
        "5e5250d9-351a-4a82-98eb-55db50ad8962"
      ],
      "songwriters": [
        "00cd2c1f-8012-4366-adcd-0340a340c29a",
        "ead196cc-e1e3-43a4-8804-dd4199e89c4e"
      ],
      "franchises": [
        "197ecb28-b423-4c66-bbdb-49b89b5ed153"
      ]
    },
    "titles": {
      "eng": "Star Divine: Finale",
      "jpn": "-Star Divine- フィナーレ"
    },
    "title": "Star Divine: Finale",
    "year": 2018,
    "titles_default_language": "eng"
  }
}