{
  "header": {
    "version": 4,
    "description": "Karaoke Mugen Karaoke Data File"
  },
  "medias": [
    {
      "version": "Vol.2.",
      "filename": "JPN - Katakoi Contrast -Way of Parting- - PC GAME OP - Pure Contrast ~ Vol.2 Vers.mp4",
      "audiogain": -7.5,
      "loudnorm": "-10.04,0.79,2.10,-20.27,-0.34",
      "filesize": 37990242,
      "duration": 113,
      "default": true,
      "lyrics": [
        {
          "filename": "JPN - Katakoi Contrast -Way of Parting- - PC GAME OP - Pure Contrast ~ Vol.2 Vers.ass",
          "default": true,
          "version": "Default",
          "subchecksum": "f002895acd12e8e0dfbeac2425e2f4d7"
        }
      ]
    }
  ],
  "data": {
    "created_at": "2018-12-27T20:38:15.000Z",
    "kid": "116a870c-f16d-43b8-8ff9-0557bc9789c4",
    "modified_at": "2021-02-25T11:55:36.773Z",
    "parents": [
      "7eae00ce-868f-4f92-abbf-c34e1d54460d"
    ],
    "repository": "kara.moe",
    "tags": {
      "authors": [
        "2a9bbf75-0722-4b4a-9935-caa92f38fdd1"
      ],
      "collections": [
        "c7db86a0-ff64-4044-9be4-66dd1ef1d1c1"
      ],
      "creators": [
        "98ab71c6-8066-4d59-84a2-9833a27ec461"
      ],
      "families": [
        "dbedd6b3-d125-4cd8-aa32-c4175e4ca3a3"
      ],
      "groups": [
        "ae613721-1fbe-480d-ba6b-d6d0702b184d"
      ],
      "langs": [
        "4dcf9614-7914-42aa-99f4-dbce2e059133"
      ],
      "origins": [
        "2f96e82c-c61b-4413-817e-e6b247509b95",
        "7025ae3c-7bd6-4787-8912-2c15063343bb"
      ],
      "platforms": [
        "3c15f758-e1bc-4266-8bb9-3c14112f504a"
      ],
      "series": [
        "89bef3af-66d7-4db0-8509-5545ca844f56"
      ],
      "singers": [
        "55081f09-afc5-467b-93d7-f015ba243784"
      ],
      "songtypes": [
        "f02ad9b3-0bd9-4aad-85b3-9976739ba0e4"
      ],
      "songwriters": [
        "69d54479-fc28-4ead-a81e-cbebc37a0ab4"
      ],
      "versions": [
        "9f63c359-d1bf-425a-bcf5-b245c2c9211d"
      ]
    },
    "title": "Pure Contrast ~ Vol.2 Vers.",
    "titles": {
      "eng": "Pure Contrast ~ Vol.2 Vers."
    },
    "year": 2018,
    "titles_default_language": "eng"
  }
}