{
  "header": {
    "version": 4,
    "description": "Karaoke Mugen Karaoke Data File"
  },
  "medias": [
    {
      "version": "Default",
      "filename": "JPN - Sora Amamiya - MV - Kawaiku Naritai.mp4",
      "audiogain": -10.06,
      "loudnorm": "-6.92,2.14,3.70,-16.99,-0.72",
      "filesize": 57931986,
      "duration": 252,
      "default": true,
      "lyrics": [
        {
          "filename": "JPN - Sora Amamiya - MV - Kawaiku Naritai.ass",
          "default": true,
          "version": "Default"
        }
      ]
    }
  ],
  "data": {
    "created_at": "2021-12-12T15:55:56.056Z",
    "ignoreHooks": false,
    "kid": "8ac06204-2e58-4c03-9614-1b230b31f226",
    "modified_at": "2022-03-29T20:44:25.804Z",
    "parents": [
      "547547f6-7eb4-484c-a112-5d110bca8e2b"
    ],
    "repository": "kara.moe",
    "tags": {
      "authors": [
        "4b50fcec-273e-4cc5-83f2-b156c2300f7f"
      ],
      "collections": [
        "c7db86a0-ff64-4044-9be4-66dd1ef1d1c1"
      ],
      "creators": [
        "6fa9de67-21cf-420b-9ddb-57edb5abe523"
      ],
      "families": [
        "0377db02-3af6-43b8-9b08-c759df3d25c3"
      ],
      "groups": [
        "ae613721-1fbe-480d-ba6b-d6d0702b184d"
      ],
      "langs": [
        "4dcf9614-7914-42aa-99f4-dbce2e059133"
      ],
      "singers": [
        "6c2557cb-9bde-4bad-b5a6-8af24a080047"
      ],
      "songtypes": [
        "7be1b15c-cff8-4b37-a649-5c90f3d569a9"
      ],
      "songwriters": [
        "af0dc126-897e-4390-a7a1-cbfed65c2925"
      ]
    },
    "titles": {
      "qro": "Kawaiku Naritai",
      "jpn": "可愛くなりたい"
    },
    "titles_default_language": "qro",
    "title": "Kawaiku Naritai",
    "year": 2017
  }
}