{
  "header": {
    "version": 4,
    "description": "Karaoke Mugen Karaoke Data File"
  },
  "medias": [
    {
      "version": "Default",
      "filename": "JPN - Love Live! Sunshine!! - MV - Akogare Ranraran.mp4",
      "audiogain": -0.59,
      "loudnorm": "-17.00,-6.20,2.40,-27.07,-0.25",
      "filesize": 41520510,
      "duration": 244,
      "default": true,
      "lyrics": [
        {
          "filename": "JPN - Love Live! Sunshine!! - MV - Akogare Ranraran.ass",
          "default": true,
          "version": "Default",
          "subchecksum": "c88e93dbc708d5993821fb93cbe45f13"
        }
      ]
    }
  ],
  "data": {
    "created_at": "2021-03-07T11:56:12.719Z",
    "kid": "f9f49065-b842-4d50-9fea-1fbba9458ca1",
    "modified_at": "2021-03-07T12:09:16.562Z",
    "repository": "kara.moe",
    "tags": {
      "authors": [
        "278c6742-0b75-43dd-b317-2ea112952b4a"
      ],
      "collections": [
        "c7db86a0-ff64-4044-9be4-66dd1ef1d1c1"
      ],
      "creators": [
        "8360c0f3-2568-48d0-9900-037a2e20887b",
        "b2805292-730e-473a-96f0-fd8e7ffd1fd7"
      ],
      "families": [
        "0377db02-3af6-43b8-9b08-c759df3d25c3"
      ],
      "groups": [
        "8c22c899-b3ed-42da-a548-ce00f950798b",
        "8e209ae4-4381-438f-89dc-1b21752027d2"
      ],
      "langs": [
        "4dcf9614-7914-42aa-99f4-dbce2e059133"
      ],
      "series": [
        "63466536-1102-4f91-b167-4380d274e2a3"
      ],
      "singers": [
        "0bbc3f71-4849-4e38-9980-2331d0293168"
      ],
      "songtypes": [
        "7be1b15c-cff8-4b37-a649-5c90f3d569a9"
      ],
      "songwriters": [
        "6baa3f63-eef4-4fff-854a-33835b38d8e5",
        "f41e7218-6c19-4e19-9b5f-4612dcd58243"
      ],
      "franchises": [
        "fd5d066e-e85a-4eea-8688-2979a887450a"
      ]
    },
    "title": "Akogare Ranraran",
    "titles": {
      "qro": "Akogare Ranraran",
      "jpn": "あこがれランララン"
    },
    "year": 2021,
    "titles_default_language": "qro"
  }
}