{
  "header": {
    "version": 4,
    "description": "Karaoke Mugen Karaoke Data File"
  },
  "medias": [
    {
      "version": "Default",
      "filename": "JPN - Starry Sky After Summer - PSP PC GAME OP - Stardust Flashback.mp4",
      "audiogain": -8.67,
      "loudnorm": "-9.02,0.75,3.90,-19.27,-0.94",
      "filesize": 13004522,
      "duration": 131,
      "default": true,
      "lyrics": [
        {
          "filename": "JPN - Starry Sky After Summer - PSP PC GAME OP - Stardust Flashback.ass",
          "default": true,
          "version": "Default",
          "subchecksum": "9edc65a4f8e69ba9fafffe2e5686ca76"
        }
      ]
    }
  ],
  "data": {
    "created_at": "2019-05-17T19:14:46.000Z",
    "kid": "de04a2ba-2849-40b1-bf02-3db9af690f94",
    "modified_at": "2021-02-25T13:11:49.724Z",
    "repository": "kara.moe",
    "tags": {
      "authors": [
        "2a9bbf75-0722-4b4a-9935-caa92f38fdd1"
      ],
      "collections": [
        "c7db86a0-ff64-4044-9be4-66dd1ef1d1c1"
      ],
      "creators": [
        "548d24b0-c129-4d48-8c57-e896eb101f1a"
      ],
      "families": [
        "dbedd6b3-d125-4cd8-aa32-c4175e4ca3a3"
      ],
      "groups": [
        "ae613721-1fbe-480d-ba6b-d6d0702b184d"
      ],
      "langs": [
        "4dcf9614-7914-42aa-99f4-dbce2e059133"
      ],
      "origins": [
        "2f96e82c-c61b-4413-817e-e6b247509b95",
        "7025ae3c-7bd6-4787-8912-2c15063343bb"
      ],
      "platforms": [
        "3c15f758-e1bc-4266-8bb9-3c14112f504a",
        "6b101aff-4b7b-4b0d-b35e-0f1b67e38c9b"
      ],
      "series": [
        "bd4b3b3d-83fe-4d3c-a6e9-8eea8a6b6135"
      ],
      "singers": [
        "6629ed88-fdf2-438f-a180-69c86b7e7b49"
      ],
      "songtypes": [
        "f02ad9b3-0bd9-4aad-85b3-9976739ba0e4"
      ],
      "songwriters": [
        "402828c1-3abb-4a2d-94e2-3365b59c408e"
      ],
      "franchises": [
        "7f516709-a344-4a5c-9dc9-daabaf54a3df"
      ]
    },
    "title": "Stardust Flashback",
    "titles": {
      "eng": "Stardust Flashback"
    },
    "year": 2011,
    "titles_default_language": "eng"
  }
}