{
  "header": {
    "version": 4,
    "description": "Karaoke Mugen Karaoke Data File"
  },
  "medias": [
    {
      "version": "Default",
      "filename": "JPN - Biohazard VIIIage - PS4 GAME MV - Ora Konna Mura Iyada Lv.100.mp4",
      "audiogain": -4.7,
      "loudnorm": "-13.66,0.27,5.10,-23.75,-0.37",
      "filesize": 91079283,
      "duration": 141,
      "default": true,
      "lyrics": [
        {
          "filename": "JPN - Biohazard VIIIage - PS4 GAME MV - Ora Konna Mura Iyada Lv.100.ass",
          "default": true,
          "version": "Default",
          "subchecksum": "623287b7a5b64d37e24cd0e1b89e406d"
        }
      ]
    }
  ],
  "data": {
    "created_at": "2021-04-28T12:14:30.201Z",
    "kid": "7e642562-ff87-4aa9-b521-f70b54cc8c14",
    "modified_at": "2021-04-28T12:17:33.963Z",
    "repository": "kara.moe",
    "tags": {
      "authors": [
        "06852e02-b77e-4106-b6f7-2d03942ad0ea"
      ],
      "collections": [
        "c7db86a0-ff64-4044-9be4-66dd1ef1d1c1"
      ],
      "creators": [
        "a9b563c0-8ead-481e-9071-277ad918982e"
      ],
      "families": [
        "dbedd6b3-d125-4cd8-aa32-c4175e4ca3a3"
      ],
      "groups": [
        "8e209ae4-4381-438f-89dc-1b21752027d2"
      ],
      "langs": [
        "4dcf9614-7914-42aa-99f4-dbce2e059133"
      ],
      "platforms": [
        "248d92ee-8c02-43bc-86e2-cc6029883564"
      ],
      "series": [
        "a9605019-62d4-4cf4-93cd-39c74ccb2abb"
      ],
      "singers": [
        "fc08a59d-1fb5-494a-b07c-6cc037d1bea6"
      ],
      "songtypes": [
        "7be1b15c-cff8-4b37-a649-5c90f3d569a9"
      ],
      "songwriters": [
        "fc08a59d-1fb5-494a-b07c-6cc037d1bea6"
      ]
    },
    "title": "Ora Konna Mura Iyada Lv.100",
    "titles": {
      "qro": "Ora Konna Mura Iyada Lv.100",
      "jpn": "俺らこんな村いやだLv.100"
    },
    "year": 2021,
    "titles_default_language": "qro"
  }
}