{
  "header": {
    "version": 4,
    "description": "Karaoke Mugen Karaoke Data File"
  },
  "medias": [
    {
      "version": "Default",
      "filename": "JPN - Love Live! Sunshine!! - LIVE - Omoi yo Hitotsu ni Nare ~ Full Vers.mp4",
      "audiogain": -9.35,
      "loudnorm": "-7.33,0.91,5.10,-17.52,-0.05",
      "filesize": 184106651,
      "duration": 310,
      "default": true,
      "lyrics": [
        {
          "filename": "JPN - Love Live! Sunshine!! - LIVE - Omoi yo Hitotsu ni Nare ~ Full Vers.ass",
          "default": true,
          "version": "Default"
        }
      ]
    }
  ],
  "data": {
    "created_at": "2018-11-07T10:24:26.000Z",
    "ignoreHooks": false,
    "kid": "d73df23e-0573-4a7b-85d1-0a3651551040",
    "modified_at": "2022-12-21T22:36:38.035Z",
    "repository": "kara.moe",
    "tags": {
      "authors": [
        "b62bd925-89e4-4ee4-ba4c-80de93e831b8"
      ],
      "collections": [
        "dbcf2c22-524d-4708-99bb-601703633927"
      ],
      "creators": [
        "b2805292-730e-473a-96f0-fd8e7ffd1fd7"
      ],
      "families": [
        "5391f9fe-638c-415f-8dc9-958e3a2c5787"
      ],
      "genres": [
        "caa86df2-0d59-474b-885c-f240a9e891b0"
      ],
      "groups": [
        "8c22c899-b3ed-42da-a548-ce00f950798b",
        "ae613721-1fbe-480d-ba6b-d6d0702b184d"
      ],
      "langs": [
        "4dcf9614-7914-42aa-99f4-dbce2e059133"
      ],
      "misc": [
        "86705d4b-24e4-4756-9687-2b9c98bcf366"
      ],
      "series": [
        "63466536-1102-4f91-b167-4380d274e2a3"
      ],
      "singergroups": [
        "b34161c7-a60d-4f1a-8436-11abc0875436"
      ],
      "songtypes": [
        "a0167949-580c-4de3-bf13-497e462e02f3"
      ],
      "songwriters": [
        "a566b6fa-e4ee-40c0-9954-1c4327723d5d",
        "f41e7218-6c19-4e19-9b5f-4612dcd58243"
      ],
      "versions": [
        "c2143a7f-6970-450e-8a79-0302db9220a9"
      ],
      "franchises": [
        "fd5d066e-e85a-4eea-8688-2979a887450a"
      ]
    },
    "titles": {
      "jpn": "想いよひとつになれ",
      "qro": "Omoi yo Hitotsu ni Nare"
    },
    "titles_default_language": "qro",
    "year": 2017
  }
}