{
  "header": {
    "version": 4,
    "description": "Karaoke Mugen Karaoke Data File"
  },
  "medias": [
    {
      "version": "Default",
      "filename": "JPN - C The Money and Soul of Possibility Control - OP - Matryoshka.mp4",
      "audiogain": 0.16,
      "loudnorm": "-16.59,-9.05,2.40,-26.63,-0.40",
      "filesize": 48876467,
      "duration": 91,
      "default": true,
      "lyrics": [
        {
          "filename": "JPN - C The Money and Soul of Possibility Control - OP - Matryoshka.ass",
          "default": true,
          "version": "Default",
          "subchecksum": "db2a74e0b4a5e49af025fa77e9d6b7d4"
        }
      ]
    }
  ],
  "data": {
    "created_at": "2017-10-11T17:01:54.000Z",
    "kid": "f42082c2-c89b-481c-86c2-3750602a837b",
    "modified_at": "2021-02-25T10:58:40.564Z",
    "repository": "kara.moe",
    "tags": {
      "authors": [
        "5bdaba57-27f8-4568-8806-76a807728766"
      ],
      "collections": [
        "c7db86a0-ff64-4044-9be4-66dd1ef1d1c1"
      ],
      "creators": [
        "cfdb2d1e-499d-47a1-b9f8-070153b5048e"
      ],
      "families": [
        "0377db02-3af6-43b8-9b08-c759df3d25c3"
      ],
      "groups": [
        "33881a14-788e-4e2a-a97d-1e5f51542a26",
        "ae613721-1fbe-480d-ba6b-d6d0702b184d"
      ],
      "langs": [
        "4dcf9614-7914-42aa-99f4-dbce2e059133"
      ],
      "origins": [
        "938de218-5343-4865-94d3-fb33f2eaa152"
      ],
      "series": [
        "d2a966a2-e595-4dbb-80d1-eb7e6e9bb226"
      ],
      "singers": [
        "a276e267-16f4-4e42-b7db-4c6a5fe5ce16"
      ],
      "songtypes": [
        "f02ad9b3-0bd9-4aad-85b3-9976739ba0e4"
      ],
      "songwriters": [
        "98c0e582-b586-4334-81e5-1e22dad0bdf0",
        "eb5fa73a-c4ce-4ed3-87f6-ba7e0f522c39"
      ]
    },
    "title": "Matryoshka",
    "titles": {
      "eng": "Matryoshka",
      "jpn": "マトリョーシカ"
    },
    "year": 2011,
    "titles_default_language": "eng"
  }
}