{
  "header": {
    "version": 4,
    "description": "Karaoke Mugen Karaoke Data File"
  },
  "medias": [
    {
      "version": "Default",
      "filename": "JPN - Euphoria - GAME OP - Rakuen no Tobira.mp4",
      "audiogain": -7.2,
      "loudnorm": "-12.17,-0.31,10.70,-22.62,-2.16",
      "filesize": 13087066,
      "duration": 133,
      "default": true,
      "lyrics": [
        {
          "filename": "JPN - Euphoria - GAME OP - Rakuen no Tobira.ass",
          "default": true,
          "version": "Default"
        }
      ]
    }
  ],
  "data": {
    "created_at": "2017-10-11T17:01:51.000Z",
    "kid": "bab52d65-849a-42fb-95cd-1755fc3963ba",
    "modified_at": "2022-07-20T11:28:05.911Z",
    "repository": "kara.moe",
    "tags": {
      "authors": [
        "5bdaba57-27f8-4568-8806-76a807728766"
      ],
      "creators": [
        "99293a18-0674-4c58-9757-cad8f5e7800d"
      ],
      "families": [
        "dbedd6b3-d125-4cd8-aa32-c4175e4ca3a3"
      ],
      "groups": [
        "ae613721-1fbe-480d-ba6b-d6d0702b184d"
      ],
      "langs": [
        "4dcf9614-7914-42aa-99f4-dbce2e059133"
      ],
      "origins": [
        "2f96e82c-c61b-4413-817e-e6b247509b95"
      ],
      "series": [
        "a5314b21-be5a-4e34-a3a4-f68da6455d8f"
      ],
      "singers": [
        "67e36b9f-6c14-442d-958c-1b62f1cb5bfa"
      ],
      "songtypes": [
        "f02ad9b3-0bd9-4aad-85b3-9976739ba0e4"
      ],
      "songwriters": [
        "7f62763f-2aa5-4a26-b3c2-27621b1582d3",
        "999f3556-a989-4962-87d2-e9d0ad6345fa"
      ],
      "collections": [
        "c7db86a0-ff64-4044-9be4-66dd1ef1d1c1"
      ],
      "warnings": [
        "e82ce681-6d7b-4fb6-abe4-daa8aaa9bbf9"
      ]
    },
    "titles": {
      "qro": "Rakuen no Tobira",
      "jpn": "楽園の扉"
    },
    "titles_default_language": "qro",
    "title": "Rakuen no Tobira",
    "year": 2011
  }
}