{
  "header": {
    "version": 4,
    "description": "Karaoke Mugen Karaoke Data File"
  },
  "medias": [
    {
      "version": "Default",
      "filename": "JPN - Super Robot Taisen Z 2 - PSP GAME OP - Hagane no Resistance.mp4",
      "audiogain": -10.53,
      "loudnorm": "-6.36,2.17,4.20,-16.39,-0.96",
      "filesize": 48742871,
      "duration": 278,
      "default": true,
      "lyrics": [
        {
          "filename": "JPN - Super Robot Taisen Z 2 - PSP GAME OP - Hagane no Resistance.ass",
          "default": true,
          "version": "Default",
          "subchecksum": "f0cb8c435610b2c05c04e6d4cb7a13fa"
        }
      ]
    }
  ],
  "data": {
    "created_at": "2017-10-11T17:02:23.000Z",
    "kid": "a17989af-c0e8-40ab-893b-233b0f5084d5",
    "modified_at": "2021-02-25T13:14:19.532Z",
    "repository": "kara.moe",
    "tags": {
      "authors": [
        "8c22c899-b3ed-42da-a548-ce00f950798b"
      ],
      "collections": [
        "c7db86a0-ff64-4044-9be4-66dd1ef1d1c1"
      ],
      "creators": [
        "c3e622d4-2686-4331-8691-d528c8647088"
      ],
      "families": [
        "dbedd6b3-d125-4cd8-aa32-c4175e4ca3a3"
      ],
      "groups": [
        "8c22c899-b3ed-42da-a548-ce00f950798b",
        "ae613721-1fbe-480d-ba6b-d6d0702b184d"
      ],
      "langs": [
        "4dcf9614-7914-42aa-99f4-dbce2e059133"
      ],
      "platforms": [
        "6b101aff-4b7b-4b0d-b35e-0f1b67e38c9b"
      ],
      "series": [
        "09aca160-404e-4d02-9b30-7a3eaee04905"
      ],
      "singers": [
        "a14aaac9-98b8-4298-a7d6-ea4945750704"
      ],
      "songtypes": [
        "f02ad9b3-0bd9-4aad-85b3-9976739ba0e4"
      ],
      "songwriters": [
        "162799fe-de2f-4f72-99a2-8c606aee4f2d"
      ],
      "franchises": [
        "4e88aee3-4cb9-4342-bac8-6c0819b3a014"
      ]
    },
    "title": "Hagane no Resistance",
    "titles": {
      "qro": "Hagane no Resistance",
      "jpn": "鋼のレジスタンス"
    },
    "year": 2011,
    "titles_default_language": "qro"
  }
}