{
  "header": {
    "version": 4,
    "description": "Karaoke Mugen Karaoke Data File"
  },
  "medias": [
    {
      "version": "Default",
      "filename": "JPN - Shiritsu Justice Gakuen Legion of Heroes - PSX GAME OP - Atsuki Kodou.mp4",
      "audiogain": -7.63,
      "loudnorm": "-10.30,0.27,5.70,-20.39,-1.12",
      "filesize": 12364688,
      "duration": 92,
      "default": true,
      "lyrics": [
        {
          "filename": "JPN - Shiritsu Justice Gakuen Legion of Heroes - PSX GAME OP - Atsuki Kodou.ass",
          "default": true,
          "version": "Default",
          "subchecksum": "e799b6511bc9fca21bf30da5dfeecefa"
        }
      ]
    }
  ],
  "data": {
    "created_at": "2017-10-11T17:02:28.000Z",
    "kid": "943bc86c-ceb4-491e-b78e-bc270030ffaa",
    "modified_at": "2021-02-25T13:05:40.182Z",
    "repository": "kara.moe",
    "tags": {
      "authors": [
        "5bdaba57-27f8-4568-8806-76a807728766"
      ],
      "collections": [
        "c7db86a0-ff64-4044-9be4-66dd1ef1d1c1"
      ],
      "creators": [
        "a9b563c0-8ead-481e-9071-277ad918982e"
      ],
      "families": [
        "dbedd6b3-d125-4cd8-aa32-c4175e4ca3a3"
      ],
      "groups": [
        "24db50aa-a126-4d34-a48a-e45db79c4245"
      ],
      "langs": [
        "4dcf9614-7914-42aa-99f4-dbce2e059133"
      ],
      "platforms": [
        "f84b68ac-943a-495a-9c6e-d90ec959b19e"
      ],
      "series": [
        "8566a156-49cc-4811-9178-346c952dfdd4"
      ],
      "singers": [
        "b0312ae3-3843-4aed-8c17-30d37a425e7e"
      ],
      "songtypes": [
        "f02ad9b3-0bd9-4aad-85b3-9976739ba0e4"
      ],
      "songwriters": [
        "7c473d44-c616-4614-b15b-659adb8b6367"
      ]
    },
    "title": "Atsuki Kodou",
    "titles": {
      "qro": "Atsuki Kodou",
      "jpn": "熱い鼓動"
    },
    "year": 1997,
    "titles_default_language": "qro"
  }
}