{
  "header": {
    "version": 4,
    "description": "Karaoke Mugen Karaoke Data File"
  },
  "medias": [
    {
      "version": "Vtuber.",
      "filename": "JPN - To Aru Kagaku no Railgun - MV - only my railgun ~ Vtuber Vers. ~ Cover Vers.mp4",
      "audiogain": -10.57,
      "loudnorm": "-7.58,0.76,5.50,-17.82,-0.89",
      "filesize": 91205113,
      "duration": 91,
      "default": true,
      "lyrics": [
        {
          "filename": "JPN - To Aru Kagaku no Railgun - MV - only my railgun ~ Vtuber Vers. ~ Cover Vers.ass",
          "default": true,
          "version": "Default",
          "subchecksum": "d67f936d6c14a1681dd00caae7c7b605"
        }
      ]
    }
  ],
  "data": {
    "created_at": "2021-01-28T23:39:26.302Z",
    "kid": "c512d2a7-33d3-4723-81aa-1aebe188cbbe",
    "modified_at": "2021-05-15T16:29:09.186Z",
    "parents": [
      "6fda00fe-9f4c-44c1-9d50-89c303ccebd5"
    ],
    "repository": "kara.moe",
    "tags": {
      "authors": [
        "9cdf3b70-3550-457c-bdb9-038f3253c6ad"
      ],
      "collections": [
        "c7db86a0-ff64-4044-9be4-66dd1ef1d1c1"
      ],
      "creators": [
        "7ca262a9-f3b7-4951-8774-84d7d8ca9267"
      ],
      "families": [
        "0377db02-3af6-43b8-9b08-c759df3d25c3"
      ],
      "groups": [
        "8e209ae4-4381-438f-89dc-1b21752027d2"
      ],
      "langs": [
        "4dcf9614-7914-42aa-99f4-dbce2e059133"
      ],
      "origins": [
        "5106d71b-a78e-4d19-a16d-f8fb6719538a"
      ],
      "series": [
        "b13d75fa-e81f-41c3-8aa4-f575eb599714"
      ],
      "singers": [
        "00c08b6a-f5da-433d-a03c-66d37ef5150b",
        "0901ee8d-a068-4379-be67-44c988641c12",
        "0eb4f4c6-6efa-4056-9c2c-c954f168cbc1",
        "159fd050-23ee-4f6d-a6a7-6844b7700caf",
        "1631fe7d-daba-4c55-addf-eb500c847fe2",
        "16a08de1-7c3b-434a-a053-e10b82fcac2b",
        "1813f043-d361-4df9-9cdf-24e3d0d1044c",
        "21193eab-218e-473b-b0e1-5fae9928cd29",
        "29a95d87-f0b7-4637-b892-0fb8c183127e",
        "2ab1fc97-3d87-4422-b0fe-801b0e415b63",
        "2b8cc5f9-2dba-468e-b71f-234358677946",
        "2cbecb9a-801d-4c83-bbc6-b009bf08ecb2",
        "3325cf00-a75e-431a-8b2e-e888e47c8ed8",
        "34e2b590-6d24-4c4e-9cc9-1e147e0f57a2",
        "3be7cafe-d389-4282-8756-7672af94760d",
        "3fca40bc-3b30-40f1-8c4a-79343a16a319",
        "40103c76-526e-43fb-a976-a55ca0060e3b",
        "53b39b45-1ee9-4625-83d6-642c02ca8fba",
        "55c689da-2168-4b9b-808d-eed4431cd692",
        "568e2f66-71b9-4a53-822d-00fc3ca675dd",
        "57041713-a2a9-4b02-8fb9-6028cc437468",
        "5755dfc0-cc41-469e-aea0-a69333aabb6d",
        "588d512c-9af8-4824-87f0-385ae1055ffd",
        "5ccf4c5b-2a3a-4ada-a24d-6bfa58728689",
        "616e42d2-ae92-4f3d-a961-03caf7ab7092",
        "64b32978-7486-4d8b-895f-f0a7d61d00f3",
        "651b311d-d55f-4b1d-9093-5f743a18f1d2",
        "805c7b38-807e-4050-ad0b-a9f6eb6e3a59",
        "8aef6bae-3ac1-4bba-b0b3-9c94ec16356b",
        "8e89d60a-e9da-4981-a21e-276471cdf960",
        "90278e74-cbbe-4141-98ec-b592798b7fa5",
        "96416292-5f19-4930-b88a-700d642a70d7",
        "9ef47cf8-d5aa-43ff-87e1-3e83b5135eb9",
        "a5af7ae4-c155-4bcb-913b-b37523cb7299",
        "a5efb2ca-9ff5-4476-84f1-ad03f09ac487",
        "a8c4a94c-17db-44e4-a472-8c9bdb47cd97",
        "aadbb281-47ef-4be9-bd1d-52af89e6ae00",
        "c0db3408-3067-4476-adb2-a93f305f213f",
        "c46d1d73-0bb0-4074-afdc-f51ea48cf121",
        "cf295380-0594-4c0e-ab6f-08c156dc9dce",
        "d046b961-48f5-4ffd-8f75-ea05e91575d2",
        "d4c4036d-6c9d-4200-9d15-9ffdc85f0d23",
        "da9f3aa7-deeb-48cc-9c96-49e728ae7b72",
        "e0439657-32db-420d-8b78-09294bf165c3",
        "e524eba9-b49f-40b7-9d78-45c6a42ec5fb",
        "e6a908f1-e7af-4c81-a933-474a51f75c8a",
        "e771eeb6-049c-401d-a028-dc4ef12058ca",
        "ebb8857e-a62b-4fec-8ec6-ab4351283266",
        "ec7a2ad9-4ed7-421d-af07-21d1a0e969fc",
        "ecf11817-90e1-4220-8792-2ad8b9c73829",
        "ef1ba209-3033-4383-969f-96acd258a9d8",
        "f32901db-7cf3-478e-b259-83f198848862"
      ],
      "songtypes": [
        "7be1b15c-cff8-4b37-a649-5c90f3d569a9"
      ],
      "songwriters": [
        "0f3716ff-18b6-4bc7-b8fa-b6b87d0e03ca",
        "71621442-5ffe-4f44-afd0-c2dbdc192d85"
      ],
      "versions": [
        "03e1e1d2-8641-47b7-bbcb-39a3df9ff21c"
      ],
      "franchises": [
        "d7461dbd-d3ec-468e-887f-dfc87d7ab2f7"
      ]
    },
    "title": "only my railgun ~ Vtuber Vers.",
    "titles": {
      "eng": "only my railgun ~ Vtuber Vers."
    },
    "year": 2020,
    "titles_default_language": "eng"
  }
}