{
  "header": {
    "version": 4,
    "description": "Karaoke Mugen Karaoke Data File"
  },
  "medias": [
    {
      "version": "Alternative.",
      "filename": "JPN - Black Clover (2017) - OP10 - Black Catcher ~ Alternative Vers.mp4",
      "audiogain": -8.09,
      "loudnorm": "-8.78,0.49,3.50,-19.22,-0.99",
      "filesize": 57337133,
      "duration": 89,
      "default": true,
      "lyrics": [
        {
          "filename": "JPN - Black Clover (2017) - OP10 - Black Catcher ~ Alternative Vers.ass",
          "default": true,
          "version": "Default",
          "subchecksum": "ccf38dfc3cf5eaa7692c80042883b76f"
        }
      ]
    }
  ],
  "data": {
    "created_at": "2020-06-28T01:02:41.435Z",
    "kid": "687de7cb-636b-4ca1-b718-a9600aa57931",
    "modified_at": "2021-05-23T22:38:24.681Z",
    "parents": [
      "7945ad98-701f-45f0-8094-12dd25a5cd39"
    ],
    "repository": "kara.moe",
    "songorder": 10,
    "tags": {
      "authors": [
        "34fb11c3-d473-4bb4-b185-d9ab528da1ea"
      ],
      "collections": [
        "c7db86a0-ff64-4044-9be4-66dd1ef1d1c1"
      ],
      "creators": [
        "aaff4ba6-9a12-4bac-9bd0-c0cb783e4177"
      ],
      "families": [
        "0377db02-3af6-43b8-9b08-c759df3d25c3"
      ],
      "genres": [
        "a0aeef4a-6428-45ff-a6e1-468b595930c2"
      ],
      "groups": [
        "8e209ae4-4381-438f-89dc-1b21752027d2"
      ],
      "langs": [
        "4dcf9614-7914-42aa-99f4-dbce2e059133",
        "de5eda1c-5fb3-46a6-9606-d4554fc5a1d6"
      ],
      "origins": [
        "938de218-5343-4865-94d3-fb33f2eaa152"
      ],
      "series": [
        "db775746-e1f4-49e0-9cca-e507222b80a8"
      ],
      "singers": [
        "32625dde-12c6-41c8-b31c-00ee9f458820"
      ],
      "songtypes": [
        "f02ad9b3-0bd9-4aad-85b3-9976739ba0e4"
      ],
      "songwriters": [
        "32625dde-12c6-41c8-b31c-00ee9f458820"
      ],
      "versions": [
        "9f63c359-d1bf-425a-bcf5-b245c2c9211d"
      ]
    },
    "title": "Black Catcher",
    "titles": {
      "eng": "Black Catcher"
    },
    "year": 2020,
    "titles_default_language": "eng"
  }
}