{
  "header": {
    "version": 4,
    "description": "Karaoke Mugen Karaoke Data File"
  },
  "medias": [
    {
      "version": "Default",
      "filename": "JPN - ef ~ the latter tale. - GAME OP - emotional flutter.mp4",
      "audiogain": -0.8,
      "loudnorm": "-16.40,-1.06,16.30,-27.46,-2.11",
      "filesize": 91396640,
      "duration": 125,
      "default": true,
      "lyrics": [
        {
          "filename": "JPN - ef ~ the latter tale. - GAME OP - emotional flutter.ass",
          "default": true,
          "version": "Default"
        }
      ]
    }
  ],
  "data": {
    "created_at": "2017-10-11T17:01:11.000Z",
    "kid": "51d4abcb-30e5-4a3b-80ab-469038e98dd1",
    "modified_at": "2021-11-26T19:33:20.179Z",
    "repository": "kara.moe",
    "tags": {
      "authors": [
        "5bdaba57-27f8-4568-8806-76a807728766"
      ],
      "collections": [
        "c7db86a0-ff64-4044-9be4-66dd1ef1d1c1"
      ],
      "creators": [
        "33211602-5611-47b9-a0d9-29c4cb8f0970"
      ],
      "families": [
        "dbedd6b3-d125-4cd8-aa32-c4175e4ca3a3"
      ],
      "groups": [
        "3c14c864-533c-49e6-a3cc-6969f1233775"
      ],
      "langs": [
        "4dcf9614-7914-42aa-99f4-dbce2e059133"
      ],
      "misc": [
        "fe819ff1-9db8-4a0f-85dc-0e322c9126c4"
      ],
      "origins": [
        "2f96e82c-c61b-4413-817e-e6b247509b95"
      ],
      "series": [
        "083f1539-42a3-4ba8-9a2a-e418130f2872"
      ],
      "singers": [
        "79976d07-c8b9-4cea-abef-3881b43ec97c"
      ],
      "songtypes": [
        "f02ad9b3-0bd9-4aad-85b3-9976739ba0e4"
      ],
      "songwriters": [
        "5458cbe3-b017-44ae-b045-ed0eb1c4334f",
        "b22e6136-4228-4e7d-8973-5ecebf921fa8"
      ],
      "franchises": [
        "96977ff6-71eb-433d-ae2f-69b0c927d085"
      ]
    },
    "titles": {
      "eng": "emotional flutter"
    },
    "title": "emotional flutter",
    "year": 2008,
    "titles_default_language": "eng"
  }
}