{
  "header": {
    "version": 4,
    "description": "Karaoke Mugen Karaoke Data File"
  },
  "medias": [
    {
      "version": "Sumire.",
      "filename": "JPN - Sakura Taisen 2 ~Kimi Shinitamou koto Nakare~ - PC SATURN GAME OP - Geki! Teikoku Kagekidan (Kai) ~ Sumire Vers.mp4",
      "audiogain": -2.69,
      "loudnorm": "-15.40,-0.16,2.90,-25.47,-0.32",
      "filesize": 54384195,
      "duration": 96,
      "default": true,
      "lyrics": [
        {
          "filename": "JPN - Sakura Taisen 2 ~Kimi Shinitamou koto Nakare~ - PC SATURN GAME OP - Geki! Teikoku Kagekidan (Kai) ~ Sumire Vers.ass",
          "default": true,
          "version": "Default",
          "subchecksum": "7e5fba369c622b65ba31f3d5b2287b24"
        }
      ]
    }
  ],
  "data": {
    "created_at": "2020-05-31T16:11:28.933Z",
    "kid": "08c91393-8def-4ee2-be7c-6d488c617c79",
    "modified_at": "2021-02-25T12:55:55.079Z",
    "parents": [
      "a5d4a23e-7ba6-41b1-a701-491e84feab6a"
    ],
    "repository": "kara.moe",
    "tags": {
      "authors": [
        "1df04771-a378-4f14-a5e1-1455187d681a"
      ],
      "collections": [
        "c7db86a0-ff64-4044-9be4-66dd1ef1d1c1"
      ],
      "creators": [
        "a52f4346-91ee-49ea-9ba4-97dfd4a5057b",
        "b8a3778d-0864-4135-9053-1def02d3262e",
        "ea2c97ab-72a6-4867-a3a7-1e7f0dfbcfc6"
      ],
      "families": [
        "dbedd6b3-d125-4cd8-aa32-c4175e4ca3a3"
      ],
      "genres": [
        "f60ba57d-5ef4-49e0-b93b-d0dcbcff6592"
      ],
      "groups": [
        "24db50aa-a126-4d34-a48a-e45db79c4245"
      ],
      "langs": [
        "4dcf9614-7914-42aa-99f4-dbce2e059133"
      ],
      "platforms": [
        "3c15f758-e1bc-4266-8bb9-3c14112f504a",
        "cf4a3dd9-affa-49b4-ad4c-67cbadf09c8d",
        "e6778c89-1d6b-455e-bd53-37a3b12b7140"
      ],
      "series": [
        "28840888-f7b1-4f67-9eef-74d8abac4f37"
      ],
      "singers": [
        "068fdb92-16a6-46ed-a0f6-ffb819d3db62",
        "10ce8b6a-4a81-4aef-afc5-e4e4a742d225",
        "63f2dd31-2736-4f1c-ac7f-67a084a73974",
        "72237cd4-914e-4b13-b61f-74ea06f41f01",
        "a7df006f-215a-4cad-a9b9-92b631c84ad8",
        "a9d47736-e7e7-4895-9f04-0d599c65287c",
        "e704f28c-bf77-4dbe-9c68-1b2f9d8755a6",
        "f6ed977b-9c0f-47ac-94e0-40859034624a"
      ],
      "songtypes": [
        "f02ad9b3-0bd9-4aad-85b3-9976739ba0e4"
      ],
      "songwriters": [
        "2461dcff-0d44-481a-9841-a8ae3e3d53db",
        "2d718c99-fcaf-494b-8216-06f2d66e66a5",
        "7cc5d197-4923-4d92-a0e8-deffcf49b1cf",
        "cca6b208-8bfa-406a-a3cd-0da1132df38b"
      ],
      "versions": [
        "9f63c359-d1bf-425a-bcf5-b245c2c9211d"
      ],
      "franchises": [
        "3843ae35-0d40-4fef-9bda-0c222c2e5682"
      ]
    },
    "title": "Geki! Teikoku Kagekidan (Kai) ~ Sumire Vers.",
    "titles": {
      "qro": "Geki! Teikoku Kagekidan (Kai) ~ Sumire Vers.",
      "jpn": "檄!帝国華撃団 (改) ~ すみれ Vers."
    },
    "year": 1998,
    "titles_default_language": "qro"
  }
}