{
  "header": {
    "version": 4,
    "description": "Karaoke Mugen Karaoke Data File"
  },
  "medias": [
    {
      "version": "Default",
      "filename": "JPN - Wagakki Band - MV - Tengaku ~ Cover Vers.mp4",
      "audiogain": -10.7,
      "loudnorm": "-5.70,1.54,8.20,-16.13,-1.29",
      "filesize": 84047587,
      "duration": 309,
      "default": true,
      "lyrics": [
        {
          "filename": "JPN - Wagakki Band - MV - Tengaku ~ Cover Vers.ass",
          "default": true,
          "version": "Default"
        }
      ]
    }
  ],
  "data": {
    "created_at": "2019-07-30T09:59:03.000Z",
    "ignoreHooks": false,
    "kid": "6f6c2e5c-6dfb-411c-a1c0-7177ae828cc0",
    "modified_at": "2022-06-04T14:14:32.617Z",
    "parents": [
      "e34a7fae-79ae-44be-bcf0-7b09850d1176"
    ],
    "repository": "kara.moe",
    "tags": {
      "authors": [
        "faa8becc-83b6-45d9-a3d0-a4c2c8b336c8"
      ],
      "collections": [
        "c7db86a0-ff64-4044-9be4-66dd1ef1d1c1"
      ],
      "families": [
        "5391f9fe-638c-415f-8dc9-958e3a2c5787"
      ],
      "genres": [
        "45623cae-6d68-4304-a49b-896d1d6f4580"
      ],
      "groups": [
        "8c22c899-b3ed-42da-a548-ce00f950798b",
        "ae613721-1fbe-480d-ba6b-d6d0702b184d"
      ],
      "langs": [
        "4dcf9614-7914-42aa-99f4-dbce2e059133"
      ],
      "misc": [
        "86705d4b-24e4-4756-9687-2b9c98bcf366"
      ],
      "singers": [
        "c0f34b9f-919b-4db7-be8e-7d06b2b22421"
      ],
      "songtypes": [
        "7be1b15c-cff8-4b37-a649-5c90f3d569a9"
      ],
      "songwriters": [
        "d53852f2-9dd8-4858-be7c-644e67f39ef5"
      ],
      "versions": [
        "03e1e1d2-8641-47b7-bbcb-39a3df9ff21c"
      ]
    },
    "titles": {
      "qro": "Tengaku",
      "jpn": "天樂"
    },
    "titles_default_language": "qro",
    "title": "Tengaku",
    "year": 2013
  }
}