{
  "header": {
    "version": 4,
    "description": "Karaoke Mugen Karaoke Data File"
  },
  "medias": [
    {
      "version": "Default",
      "filename": "JPN - Ciconia no Naku Koro ni - GAME PC IN - Sunya no Sora ~Emptiness's Sky~.mp4",
      "audiogain": -1.38,
      "loudnorm": "-17.06,-2.69,7.80,-27.41,-0.28",
      "filesize": 32001777,
      "duration": 295,
      "default": true,
      "lyrics": [
        {
          "filename": "JPN - Ciconia no Naku Koro ni - GAME PC IN - Sunya no Sora ~Emptiness's Sky~.ass",
          "default": true,
          "version": "Default"
        }
      ]
    }
  ],
  "data": {
    "created_at": "2022-01-30T15:33:09.822Z",
    "ignoreHooks": false,
    "kid": "44f55f95-8d40-474e-8b23-f80c1e20e0e8",
    "modified_at": "2022-10-01T11:19:38.714Z",
    "repository": "kara.moe",
    "tags": {
      "authors": [
        "b2bacb3f-542c-44d2-af9b-cd78c1dd4b70"
      ],
      "collections": [
        "c7db86a0-ff64-4044-9be4-66dd1ef1d1c1"
      ],
      "creators": [
        "ee8900e9-5aee-4872-9093-0b5ce99c363c"
      ],
      "families": [
        "dbedd6b3-d125-4cd8-aa32-c4175e4ca3a3"
      ],
      "groups": [
        "8c22c899-b3ed-42da-a548-ce00f950798b",
        "ae613721-1fbe-480d-ba6b-d6d0702b184d"
      ],
      "langs": [
        "4dcf9614-7914-42aa-99f4-dbce2e059133"
      ],
      "origins": [
        "2f96e82c-c61b-4413-817e-e6b247509b95"
      ],
      "platforms": [
        "3c15f758-e1bc-4266-8bb9-3c14112f504a"
      ],
      "series": [
        "c6c13505-ef19-4b7d-ac2a-ce429b665399"
      ],
      "singers": [
        "1f893a45-3d80-466f-af2b-5b24826b3bf7",
        "82b453d7-f342-4ec2-9e72-f42773730e78",
        "9e41e670-82c9-49b3-af75-59808a41f0f1"
      ],
      "songtypes": [
        "5e5250d9-351a-4a82-98eb-55db50ad8962"
      ],
      "songwriters": [
        "99d41ac2-7a67-4ef2-95a3-b170343ab909"
      ],
      "warnings": [
        "24371984-5e4c-4485-a937-fb0c480ca23b"
      ]
    },
    "titles": {
      "jpn": "シューニャの空",
      "qro": "Śūnya no Sora ~Emptiness's Sky~"
    },
    "titles_default_language": "qro",
    "title": "Śūnya no Sora ~Emptiness's Sky~",
    "year": 2019
  }
}