{
  "header": {
    "version": 4,
    "description": "Karaoke Mugen Karaoke Data File"
  },
  "medias": [
    {
      "version": "Default",
      "filename": "JPN - Touhou - AMV - Fall in the Dark.mp4",
      "audiogain": 0.65,
      "loudnorm": "-17.25,-3.37,3.20,-27.26,-0.85",
      "filesize": 42883429,
      "duration": 567,
      "default": true,
      "lyrics": [
        {
          "filename": "JPN - Touhou - AMV - Fall in the Dark.ass",
          "default": true,
          "version": "Default",
          "subchecksum": "0ffc55f32ad946cea2fee5912d5658b2"
        }
      ]
    }
  ],
  "data": {
    "created_at": "2021-02-28T14:42:01.068Z",
    "kid": "9f0169a4-b6de-48a8-be42-c21803b46246",
    "modified_at": "2021-05-15T16:29:09.248Z",
    "repository": "kara.moe",
    "tags": {
      "authors": [
        "56b54c89-86ae-4635-992f-ddc1234b8015"
      ],
      "collections": [
        "c7db86a0-ff64-4044-9be4-66dd1ef1d1c1"
      ],
      "creators": [
        "56b54c89-86ae-4635-992f-ddc1234b8015"
      ],
      "families": [
        "0377db02-3af6-43b8-9b08-c759df3d25c3"
      ],
      "groups": [
        "8c22c899-b3ed-42da-a548-ce00f950798b",
        "ae613721-1fbe-480d-ba6b-d6d0702b184d"
      ],
      "langs": [
        "4dcf9614-7914-42aa-99f4-dbce2e059133"
      ],
      "misc": [
        "86705d4b-24e4-4756-9687-2b9c98bcf366"
      ],
      "origins": [
        "ac5085db-52d8-44b4-8fbb-1697b24d2046"
      ],
      "series": [
        "1bdaa5a1-dfa6-4365-b746-7a0b194dafd6"
      ],
      "singers": [
        "5a42b648-7b72-4e2f-8170-62eb4d88be73"
      ],
      "songtypes": [
        "a6c79ce5-89ee-4d50-afe8-3abd7317f6c2"
      ],
      "songwriters": [
        "3b6f9d12-8e35-4c78-9316-8d27fb35d19b",
        "b7e7890d-0aad-4432-b374-00aed612d4ba"
      ],
      "franchises": [
        "1bdaa5a1-dfa6-4365-b746-7a0b194dafd6"
      ]
    },
    "title": "Fall in the Dark",
    "titles": {
      "eng": "Fall in the Dark"
    },
    "year": 2010,
    "titles_default_language": "eng"
  }
}