{
  "header": {
    "version": 4,
    "description": "Karaoke Mugen Karaoke Data File"
  },
  "medias": [
    {
      "version": "Default",
      "filename": "JPN - Hellow World - MOVIE MV - Yesterday ~ Full Vers.mp4",
      "audiogain": -9.75,
      "loudnorm": "-7.01,1.57,6.00,-17.07,-0.89",
      "filesize": 167722959,
      "duration": 300,
      "default": true,
      "lyrics": [
        {
          "filename": "JPN - Hellow World - MOVIE MV - Yesterday ~ Full Vers.ass",
          "default": true,
          "version": "Default"
        }
      ]
    }
  ],
  "data": {
    "created_at": "2021-06-14T20:00:23.306Z",
    "kid": "63f87759-8808-44e7-afc0-7a771bc2a3af",
    "modified_at": "2022-06-04T00:15:15.691Z",
    "repository": "kara.moe",
    "songorder": null,
    "tags": {
      "authors": [
        "ba4c7606-1e96-4c45-8e21-d5103477336b"
      ],
      "families": [
        "5391f9fe-638c-415f-8dc9-958e3a2c5787"
      ],
      "groups": [
        "2b4e9972-5e17-481b-99f5-d0787c0ada56",
        "ae613721-1fbe-480d-ba6b-d6d0702b184d"
      ],
      "langs": [
        "4dcf9614-7914-42aa-99f4-dbce2e059133"
      ],
      "misc": [
        "86705d4b-24e4-4756-9687-2b9c98bcf366"
      ],
      "origins": [
        "c8ca9dea-d8b4-48fe-8427-d911653232e9"
      ],
      "series": [
        "f8f6ab29-a7cb-4539-a81d-594e3444a560"
      ],
      "singers": [
        "a6faab1b-859e-4068-971a-c6ff47788c8a"
      ],
      "songtypes": [
        "7be1b15c-cff8-4b37-a649-5c90f3d569a9"
      ],
      "songwriters": [
        "66398329-540a-4fbd-bd95-4d1ee5d10ccf",
        "a6faab1b-859e-4068-971a-c6ff47788c8a",
        "ed300e84-8415-4842-8003-8244d2b2fb2c"
      ],
      "versions": [
        "c2143a7f-6970-450e-8a79-0302db9220a9"
      ],
      "collections": [
        "dbcf2c22-524d-4708-99bb-601703633927"
      ]
    },
    "titles": {
      "eng": "Yesterday",
      "jpn": "イエスタデイ"
    },
    "titles_default_language": "eng",
    "title": "Yesterday",
    "year": 2019
  }
}