{
  "header": {
    "version": 4,
    "description": "Karaoke Mugen Karaoke Data File"
  },
  "medias": [
    {
      "version": "Default",
      "filename": "JPN - PARA-SOL - PC GAME OP - Octave Rain.mp4",
      "audiogain": -7.96,
      "loudnorm": "-8.22,1.42,9.10,-18.53,-1.06",
      "filesize": 34484889,
      "duration": 141,
      "default": true,
      "lyrics": [
        {
          "filename": "JPN - PARA-SOL - PC GAME OP - Octave Rain.ass",
          "default": true,
          "version": "Default",
          "subchecksum": "955d87f442591227f9ef423919548728"
        }
      ]
    }
  ],
  "data": {
    "created_at": "2017-10-11T17:01:01.000Z",
    "kid": "b94a6f3a-c6ea-41bf-97c9-07882ecc58a4",
    "modified_at": "2021-02-25T12:44:13.414Z",
    "repository": "kara.moe",
    "tags": {
      "authors": [
        "5bdaba57-27f8-4568-8806-76a807728766"
      ],
      "collections": [
        "c7db86a0-ff64-4044-9be4-66dd1ef1d1c1"
      ],
      "creators": [
        "795e5fd0-7976-4849-b61e-b36eaa182c44"
      ],
      "families": [
        "dbedd6b3-d125-4cd8-aa32-c4175e4ca3a3"
      ],
      "groups": [
        "ae613721-1fbe-480d-ba6b-d6d0702b184d"
      ],
      "langs": [
        "4dcf9614-7914-42aa-99f4-dbce2e059133"
      ],
      "origins": [
        "2f96e82c-c61b-4413-817e-e6b247509b95"
      ],
      "platforms": [
        "3c15f758-e1bc-4266-8bb9-3c14112f504a"
      ],
      "series": [
        "0a9e57aa-dfd7-449e-ab3f-bb605729eed5"
      ],
      "singers": [
        "d14248e1-af62-4387-8349-3f8d45f6c9b2"
      ],
      "songtypes": [
        "f02ad9b3-0bd9-4aad-85b3-9976739ba0e4"
      ],
      "songwriters": [
        "55071c65-79ec-4892-869e-00c25df2ceaf"
      ]
    },
    "title": "Octave Rain",
    "titles": {
      "eng": "Octave Rain"
    },
    "year": 2010,
    "titles_default_language": "eng"
  }
}