{
  "header": {
    "version": 4,
    "description": "Karaoke Mugen Karaoke Data File"
  },
  "medias": [
    {
      "version": "Default",
      "filename": "JPN - Bleach - MV - Sakura Biyori ~ Full Vers.mp4",
      "audiogain": -5.33,
      "loudnorm": "-13.08,-1.15,11.00,-23.73,-1.77",
      "filesize": 15377559,
      "duration": 186,
      "default": true,
      "lyrics": [
        {
          "filename": "JPN - Bleach - MV - Sakura Biyori ~ Full Vers.ass",
          "default": true,
          "version": "Default"
        }
      ]
    }
  ],
  "data": {
    "created_at": "2019-11-24T13:32:29.947Z",
    "ignoreHooks": false,
    "kid": "91aa0805-e7d8-4952-ad88-9fc2f08a371b",
    "modified_at": "2022-07-10T11:18:09.289Z",
    "repository": "kara.moe",
    "tags": {
      "authors": [
        "1db1738f-acdc-42fc-aec3-60f4bddf660d"
      ],
      "collections": [
        "dbcf2c22-524d-4708-99bb-601703633927"
      ],
      "creators": [
        "6fa9de67-21cf-420b-9ddb-57edb5abe523"
      ],
      "families": [
        "5391f9fe-638c-415f-8dc9-958e3a2c5787"
      ],
      "groups": [
        "3c14c864-533c-49e6-a3cc-6969f1233775"
      ],
      "langs": [
        "4dcf9614-7914-42aa-99f4-dbce2e059133"
      ],
      "series": [
        "d68e6557-fdc3-4c8b-805c-9778918abd03"
      ],
      "singers": [
        "81925910-d9ed-42f8-b6dc-679dc8afa736"
      ],
      "songtypes": [
        "7be1b15c-cff8-4b37-a649-5c90f3d569a9"
      ],
      "songwriters": [
        "81925910-d9ed-42f8-b6dc-679dc8afa736"
      ],
      "versions": [
        "c2143a7f-6970-450e-8a79-0302db9220a9"
      ],
      "franchises": [
        "d68e6557-fdc3-4c8b-805c-9778918abd03"
      ]
    },
    "titles": {
      "qro": "Sakura Biyori ~ Clip Vers.",
      "jpn": "桜日和 ~ Clip Vers."
    },
    "titles_default_language": "qro",
    "title": "Sakura Biyori",
    "year": 2007
  }
}