{
  "header": {
    "version": 4,
    "description": "Karaoke Mugen Karaoke Data File"
  },
  "medias": [
    {
      "version": "Default",
      "filename": "JPN - Naruto - ED6 - Ryuusei.mp4",
      "audiogain": -5.86,
      "loudnorm": "-12.33,1.31,5.90,-22.42,-1.42",
      "filesize": 18913401,
      "duration": 90,
      "default": true,
      "lyrics": [
        {
          "filename": "JPN - Naruto - ED6 - Ryuusei.ass",
          "default": true,
          "version": "Default"
        }
      ]
    }
  ],
  "data": {
    "created_at": "2017-10-11T17:00:51.000Z",
    "ignoreHooks": false,
    "kid": "559328c6-5632-486a-be55-9af3ab2976b9",
    "modified_at": "2022-09-30T20:45:56.015Z",
    "repository": "kara.moe",
    "songorder": 6,
    "tags": {
      "authors": [
        "5bdaba57-27f8-4568-8806-76a807728766"
      ],
      "collections": [
        "c7db86a0-ff64-4044-9be4-66dd1ef1d1c1"
      ],
      "creators": [
        "aaff4ba6-9a12-4bac-9bd0-c0cb783e4177"
      ],
      "families": [
        "0377db02-3af6-43b8-9b08-c759df3d25c3"
      ],
      "genres": [
        "a0aeef4a-6428-45ff-a6e1-468b595930c2"
      ],
      "groups": [
        "3c14c864-533c-49e6-a3cc-6969f1233775"
      ],
      "langs": [
        "4dcf9614-7914-42aa-99f4-dbce2e059133"
      ],
      "origins": [
        "938de218-5343-4865-94d3-fb33f2eaa152"
      ],
      "series": [
        "3201e723-3e75-46f9-bb21-d991f4f7731e"
      ],
      "singers": [
        "50efc23d-5dba-49dd-a7c0-effd05c88a57"
      ],
      "songtypes": [
        "38c77c56-2b95-4040-b676-0994a8cb0597"
      ],
      "songwriters": [
        "93c6bf8f-aa0f-4fc0-a88e-6a1e186d1870",
        "9d7f1e85-9dfb-4431-a9b7-42eddf68d8e2",
        "f3599ec5-94ac-424a-ad35-bee211544849"
      ],
      "franchises": [
        "3201e723-3e75-46f9-bb21-d991f4f7731e"
      ]
    },
    "titles": {
      "jpn": "流星",
      "qro": "Ryûsei"
    },
    "titles_default_language": "qro",
    "title": "Ryûsei",
    "year": 2002,
    "titles_aliases": [
      "Ryuusei"
    ]
  }
}