{
  "header": {
    "version": 4,
    "description": "Karaoke Mugen Karaoke Data File"
  },
  "medias": [
    {
      "version": "Ami.",
      "filename": "JPN - THE iDOLM@STER G4U! VOL.2 - GAME PS3 IN - Song of Loading ~ Ami Vers. ~ Alternative Vers.mp4",
      "audiogain": 0.03,
      "loudnorm": "-18.72,-6.37,5.50,-30.10,-0.07",
      "filesize": 6523194,
      "duration": 58,
      "default": true,
      "lyrics": [
        {
          "filename": "JPN - THE iDOLM@STER G4U! VOL.2 - GAME PS3 IN - Song of Loading ~ Ami Vers. ~ Alternative Vers.ass",
          "default": true,
          "version": "Default"
        }
      ]
    }
  ],
  "data": {
    "created_at": "2018-06-18T19:40:28.000Z",
    "ignoreHooks": false,
    "kid": "07bde98b-c124-475a-a12d-659f5e3cb2f2",
    "modified_at": "2022-04-22T23:53:20.628Z",
    "repository": "kara.moe",
    "tags": {
      "authors": [
        "8c22c899-b3ed-42da-a548-ce00f950798b"
      ],
      "collections": [
        "c7db86a0-ff64-4044-9be4-66dd1ef1d1c1"
      ],
      "creators": [
        "c3e622d4-2686-4331-8691-d528c8647088"
      ],
      "families": [
        "dbedd6b3-d125-4cd8-aa32-c4175e4ca3a3"
      ],
      "genres": [
        "caa86df2-0d59-474b-885c-f240a9e891b0"
      ],
      "groups": [
        "8c22c899-b3ed-42da-a548-ce00f950798b",
        "ae613721-1fbe-480d-ba6b-d6d0702b184d"
      ],
      "langs": [
        "4dcf9614-7914-42aa-99f4-dbce2e059133"
      ],
      "platforms": [
        "7f63ff91-7961-4488-888d-4bf46eea3a2a"
      ],
      "series": [
        "986fd52c-661f-4cfe-8ea4-c4bcfc097f2f"
      ],
      "singers": [
        "de5be408-bbf9-48a5-913b-0e1e82872585"
      ],
      "songtypes": [
        "5e5250d9-351a-4a82-98eb-55db50ad8962"
      ],
      "songwriters": [
        "de5be408-bbf9-48a5-913b-0e1e82872585"
      ],
      "versions": [
        "9f63c359-d1bf-425a-bcf5-b245c2c9211d"
      ],
      "franchises": [
        "d34ceea8-7d7c-4d85-9213-18d24d2b7666"
      ]
    },
    "titles": {
      "eng": "Song of Loading ~ Ami Vers.",
      "jpn": "Song of Loading ~ 麻美 Vers."
    },
    "titles_default_language": "eng",
    "title": "Song of Loading ~ Ami Vers.",
    "year": 2011
  }
}