{
  "header": {
    "version": 4,
    "description": "Karaoke Mugen Karaoke Data File"
  },
  "medias": [
    {
      "version": "Default",
      "filename": "JPN - Touhou - AUDIO - Kuro ni kaeru ~ Off Vocal Vers.mp3",
      "audiogain": -6.87,
      "loudnorm": "-12.05,0.66,15.30,-23.04,-1.48",
      "filesize": 6023856,
      "duration": 342,
      "default": true,
      "lyrics": [
        {
          "filename": "JPN - Touhou - AUDIO - Kuro ni kaeru ~ Off Vocal Vers.ass",
          "default": true,
          "version": "Default"
        }
      ]
    }
  ],
  "data": {
    "created_at": "2022-09-02T23:26:42.863Z",
    "ignoreHooks": false,
    "kid": "e552740a-2934-49b0-aa95-8db1803a18af",
    "modified_at": "2022-09-02T23:59:13.829Z",
    "parents": [
      "1126e061-718b-43bb-9fca-edc2a723d283"
    ],
    "repository": "kara.moe",
    "tags": {
      "authors": [
        "660fc748-dabf-44a8-95ef-764f7833a540"
      ],
      "collections": [
        "c7db86a0-ff64-4044-9be4-66dd1ef1d1c1"
      ],
      "creators": [
        "be87985d-c332-46bf-b207-4830e44ff1ce"
      ],
      "groups": [
        "ae613721-1fbe-480d-ba6b-d6d0702b184d"
      ],
      "langs": [
        "4dcf9614-7914-42aa-99f4-dbce2e059133"
      ],
      "misc": [
        "86705d4b-24e4-4756-9687-2b9c98bcf366"
      ],
      "origins": [
        "ac5085db-52d8-44b4-8fbb-1697b24d2046"
      ],
      "series": [
        "1bdaa5a1-dfa6-4365-b746-7a0b194dafd6"
      ],
      "singers": [
        "cf6d7c36-312d-4167-bdf3-e6e8e6d75be1"
      ],
      "songtypes": [
        "42a262ae-acba-4ab5-a446-c5789c96c821"
      ],
      "songwriters": [
        "26cb5252-8510-49e0-897c-a611a05fc056",
        "cf6d7c36-312d-4167-bdf3-e6e8e6d75be1"
      ],
      "versions": [
        "c0cc87b9-55b9-40f0-878a-fbb9e34c151e"
      ],
      "franchises": [
        "1bdaa5a1-dfa6-4365-b746-7a0b194dafd6"
      ]
    },
    "titles": {
      "eng": "Returning to Black",
      "jpn": "黒に還る",
      "qro": "Kuro ni kaeru"
    },
    "titles_default_language": "qro",
    "title": "Kuro ni kaeru",
    "year": 2017
  }
}