{
  "header": {
    "version": 4,
    "description": "Karaoke Mugen Karaoke Data File"
  },
  "medias": [
    {
      "version": "Default",
      "filename": "JPN - Mawaru Penguindrum - ED6 - Private girl.mp4",
      "audiogain": 1.53,
      "loudnorm": "-19.57,-6.51,4.60,-29.64,-1.19",
      "filesize": 30449175,
      "duration": 95,
      "default": true,
      "lyrics": [
        {
          "filename": "JPN - Mawaru Penguindrum - ED6 - Private girl.ass",
          "default": true,
          "version": "Default"
        }
      ]
    }
  ],
  "data": {
    "created_at": "2019-02-02T12:00:07.000Z",
    "ignoreHooks": false,
    "kid": "22d5f9d5-e839-4dd9-8912-28fe2d7ee938",
    "modified_at": "2022-12-23T15:50:19.360Z",
    "repository": "kara.moe",
    "songorder": 6,
    "tags": {
      "authors": [
        "0081300d-c0f9-4cff-a4f7-e726a293a76b"
      ],
      "collections": [
        "c7db86a0-ff64-4044-9be4-66dd1ef1d1c1"
      ],
      "creators": [
        "a06f41a3-31b6-462a-a195-e48a11386da3"
      ],
      "families": [
        "0377db02-3af6-43b8-9b08-c759df3d25c3"
      ],
      "groups": [
        "ae613721-1fbe-480d-ba6b-d6d0702b184d"
      ],
      "langs": [
        "4dcf9614-7914-42aa-99f4-dbce2e059133"
      ],
      "origins": [
        "938de218-5343-4865-94d3-fb33f2eaa152"
      ],
      "series": [
        "1b9ed73e-d0a9-4251-be35-76eec2210c83"
      ],
      "singers": [
        "48778367-9535-40c9-ba5f-1fb95953c289",
        "7bd78e68-dd41-4e1b-984b-a247d6e6addf",
        "c2ad3556-d4ad-4e54-a826-aa771dd4ec35"
      ],
      "singergroups": [
        "2ff670b4-88e3-4e09-af1b-e74293757fb3"
      ],
      "songtypes": [
        "38c77c56-2b95-4040-b676-0994a8cb0597"
      ],
      "songwriters": [
        "199ee728-7c54-4fa9-b44c-2fe44efee38d",
        "eaf5b034-ddf3-46d4-83af-285fd6cb91df"
      ],
      "franchises": [
        "1b9ed73e-d0a9-4251-be35-76eec2210c83"
      ]
    },
    "titles": {
      "eng": "Private girl"
    },
    "titles_default_language": "eng",
    "year": 2011
  }
}