{
  "header": {
    "version": 4,
    "description": "Karaoke Mugen Karaoke Data File"
  },
  "medias": [
    {
      "version": "Default",
      "filename": "JPN - NORN9 Norn Plus Nornet - PSP GAME AMV - melee ~ Full Vers.mp4",
      "audiogain": -8.27,
      "loudnorm": "-9.82,0.95,11.60,-20.30,-1.75",
      "filesize": 86682133,
      "duration": 271,
      "default": true,
      "lyrics": [
        {
          "filename": "JPN - NORN9 Norn Plus Nornet - PSP GAME AMV - melee ~ Full Vers.ass",
          "default": true,
          "version": "Default"
        }
      ]
    }
  ],
  "data": {
    "created_at": "2019-06-14T21:42:39.000Z",
    "kid": "b6cb1ca0-39b6-4884-995e-0fee041715e8",
    "modified_at": "2021-07-22T19:11:22.770Z",
    "parents": [
      "8eb4c87b-2762-4cd1-8345-88592f585817"
    ],
    "repository": "kara.moe",
    "tags": {
      "authors": [
        "6dff9198-29f1-470b-bac6-8a60032ca8b8"
      ],
      "collections": [
        "c7db86a0-ff64-4044-9be4-66dd1ef1d1c1"
      ],
      "creators": [
        "98ab71c6-8066-4d59-84a2-9833a27ec461"
      ],
      "families": [
        "dbedd6b3-d125-4cd8-aa32-c4175e4ca3a3"
      ],
      "groups": [
        "2b4e9972-5e17-481b-99f5-d0787c0ada56",
        "ae613721-1fbe-480d-ba6b-d6d0702b184d"
      ],
      "langs": [
        "4dcf9614-7914-42aa-99f4-dbce2e059133"
      ],
      "origins": [
        "2f96e82c-c61b-4413-817e-e6b247509b95"
      ],
      "platforms": [
        "6b101aff-4b7b-4b0d-b35e-0f1b67e38c9b"
      ],
      "series": [
        "6b5c728a-3c87-419a-a3d0-6ae2eedcb086"
      ],
      "singers": [
        "1d4bf64f-1fc5-4e97-a6cf-a15ab7517229"
      ],
      "songtypes": [
        "a6c79ce5-89ee-4d50-afe8-3abd7317f6c2"
      ],
      "songwriters": [
        "1d4bf64f-1fc5-4e97-a6cf-a15ab7517229",
        "732c6ea7-d746-4ae5-abe8-387085eac132"
      ],
      "versions": [
        "c2143a7f-6970-450e-8a79-0302db9220a9"
      ]
    },
    "title": "melee",
    "titles": {
      "eng": "melee"
    },
    "year": 2013,
    "titles_default_language": "eng"
  }
}