{
  "header": {
    "version": 4,
    "description": "Karaoke Mugen Karaoke Data File"
  },
  "medias": [
    {
      "version": "Default",
      "filename": "JPN - Digimon Adventure 02 - OP - Target ~Akai Shougeki~.mp4",
      "audiogain": -0.48,
      "loudnorm": "-17.49,-1.38,4.00,-27.60,-0.35",
      "filesize": 20433240,
      "duration": 91,
      "default": true,
      "lyrics": [
        {
          "filename": "JPN - Digimon Adventure 02 - OP - Target ~Akai Shougeki~.ass",
          "default": true,
          "version": "Default",
          "subchecksum": "326cee172bd7f747b56ddb7937d45e1a"
        }
      ]
    }
  ],
  "data": {
    "created_at": "2019-03-06T17:43:50.000Z",
    "kid": "8b878186-551d-433e-99c8-bf2d77ab70e2",
    "modified_at": "2021-02-25T11:09:54.352Z",
    "repository": "kara.moe",
    "tags": {
      "authors": [
        "06852e02-b77e-4106-b6f7-2d03942ad0ea"
      ],
      "collections": [
        "c7db86a0-ff64-4044-9be4-66dd1ef1d1c1"
      ],
      "creators": [
        "f694bf43-b427-4244-9744-9d3f84fd8a31"
      ],
      "families": [
        "0377db02-3af6-43b8-9b08-c759df3d25c3"
      ],
      "groups": [
        "3c14c864-533c-49e6-a3cc-6969f1233775"
      ],
      "langs": [
        "4dcf9614-7914-42aa-99f4-dbce2e059133"
      ],
      "origins": [
        "938de218-5343-4865-94d3-fb33f2eaa152"
      ],
      "series": [
        "a3ec716b-1ae7-42f1-bf75-deccb3074c09"
      ],
      "singers": [
        "8cabf7de-7f83-4a4f-83fa-6c1324c0fe51"
      ],
      "songtypes": [
        "f02ad9b3-0bd9-4aad-85b3-9976739ba0e4"
      ],
      "songwriters": [
        "6189926b-4527-4789-b73b-2bbff2bbbda5",
        "79d565b1-a2b4-4693-bb3b-37426814021c"
      ],
      "franchises": [
        "315185f5-7fec-40da-ad58-8b0badb1c717"
      ]
    },
    "title": "Target ~Akai Shougeki~",
    "titles": {
      "qro": "Target: Akai Shougeki",
      "jpn": "ターゲット~赤い衝撃~"
    },
    "year": 2000,
    "titles_default_language": "qro"
  }
}