{
  "header": {
    "version": 4,
    "description": "Karaoke Mugen Karaoke Data File"
  },
  "medias": [
    {
      "version": "Default",
      "filename": "JPN - Air, Kanon - GAME AMV - Eternal Dream S2.mp4",
      "audiogain": -5.5,
      "loudnorm": "-13.49,-2.50,9.60,-23.63,-1.21",
      "filesize": 107785189,
      "duration": 274,
      "default": true,
      "lyrics": [
        {
          "filename": "JPN - Air, Kanon - GAME AMV - Eternal Dream S2.ass",
          "default": true,
          "version": "Default"
        }
      ]
    }
  ],
  "data": {
    "created_at": "2017-10-11T15:02:05.000Z",
    "kid": "dd4db049-27fe-4ad8-825b-44f483029a46",
    "modified_at": "2021-11-24T16:38:38.610Z",
    "repository": "kara.moe",
    "tags": {
      "authors": [
        "5bdaba57-27f8-4568-8806-76a807728766"
      ],
      "collections": [
        "c7db86a0-ff64-4044-9be4-66dd1ef1d1c1"
      ],
      "creators": [
        "5521dd2d-d06b-43ce-985b-429860454a15"
      ],
      "families": [
        "dbedd6b3-d125-4cd8-aa32-c4175e4ca3a3"
      ],
      "groups": [
        "3c14c864-533c-49e6-a3cc-6969f1233775"
      ],
      "langs": [
        "4dcf9614-7914-42aa-99f4-dbce2e059133"
      ],
      "series": [
        "e9a43ad9-eb15-446f-89eb-9f4faf745c45",
        "eaaff7c4-3d53-4efa-9f32-d8f24cf62d29"
      ],
      "singers": [
        "272ec887-6430-4ecb-8a3e-ffbf468869db"
      ],
      "songtypes": [
        "a6c79ce5-89ee-4d50-afe8-3abd7317f6c2"
      ],
      "songwriters": [
        "a5d6baf8-ed49-4a4c-8eb5-83d87db9e9b2",
        "ba8423b0-f85c-46a7-a57a-e7c6c389f240"
      ],
      "franchises": [
        "e9a43ad9-eb15-446f-89eb-9f4faf745c45",
        "eaaff7c4-3d53-4efa-9f32-d8f24cf62d29"
      ]
    },
    "titles": {
      "eng": "Eternal Dream S2"
    },
    "title": "Eternal Dream S2",
    "year": 2008,
    "titles_default_language": "eng"
  }
}