{
  "header": {
    "version": 4,
    "description": "Karaoke Mugen Karaoke Data File"
  },
  "medias": [
    {
      "version": "Default",
      "filename": "JPN - Senki Zesshou Symphogear - AUDIO IN - Zettou Ame no Habakiri ~ Off Vocal Vers.mp3",
      "audiogain": -5.31,
      "loudnorm": "-11.88,-2.78,5.20,-21.92,-0.52",
      "filesize": 12118215,
      "duration": 299,
      "default": true,
      "lyrics": [
        {
          "filename": "JPN - Senki Zesshou Symphogear - AUDIO IN - Zettou Ame no Habakiri ~ Off Vocal Vers.ass",
          "default": true,
          "version": "Default"
        }
      ]
    }
  ],
  "data": {
    "comment": "Batch import kfnzip Senki Zesshou Symphogear - Character Song 3 - Kazanari Tsubasa - Zettou Ame no Habakiri.zip",
    "created_at": "2022-08-30T00:05:10.000Z",
    "ignoreHooks": false,
    "kid": "189e80ed-9af6-46a5-a141-538e7789edd4",
    "modified_at": "2022-10-23T22:10:27.287Z",
    "parents": [
      "d02d78b9-3cfd-450a-a094-30fca3c6dfd3"
    ],
    "repository": "kara.moe",
    "tags": {
      "authors": [
        "87096920-112f-485f-a310-04156cb4624d"
      ],
      "collections": [
        "c7db86a0-ff64-4044-9be4-66dd1ef1d1c1"
      ],
      "genres": [
        "b84e28f9-db1e-447f-b339-7954c3592523",
        "caa86df2-0d59-474b-885c-f240a9e891b0"
      ],
      "groups": [
        "60defa7b-774e-4680-8321-51b742c2e009",
        "ae613721-1fbe-480d-ba6b-d6d0702b184d"
      ],
      "langs": [
        "4dcf9614-7914-42aa-99f4-dbce2e059133"
      ],
      "origins": [
        "938de218-5343-4865-94d3-fb33f2eaa152"
      ],
      "series": [
        "61b24082-a6a9-482b-b126-0ad7be595791"
      ],
      "singers": [
        "6d2045b2-80ab-45ff-a131-c4df02ef52d1"
      ],
      "songtypes": [
        "42a262ae-acba-4ab5-a446-c5789c96c821",
        "5e5250d9-351a-4a82-98eb-55db50ad8962"
      ],
      "songwriters": [
        "18a5b3b4-9796-4d50-869f-1a1ebb96b1c4"
      ],
      "versions": [
        "c0cc87b9-55b9-40f0-878a-fbb9e34c151e"
      ],
      "franchises": [
        "61b24082-a6a9-482b-b126-0ad7be595791"
      ]
    },
    "titles": {
      "qro": "Zettou Ame no Habakiri"
    },
    "titles_default_language": "qro",
    "title": "Zettou Ame no Habakiri",
    "year": 2012
  }
}