{
  "header": {
    "version": 4,
    "description": "Karaoke Mugen Karaoke Data File"
  },
  "medias": [
    {
      "version": "Default",
      "filename": "JPN - Blue Period - OP - EVERBLUE.mp4",
      "audiogain": 7.68,
      "loudnorm": "-24.76,-15.90,3.50,-34.87,-0.90",
      "filesize": 73055507,
      "duration": 90,
      "default": true,
      "lyrics": [
        {
          "filename": "JPN - Blue Period - OP - EVERBLUE.ass",
          "default": true,
          "version": "Default"
        }
      ]
    }
  ],
  "data": {
    "created_at": "2021-10-20T13:22:50.990Z",
    "kid": "5eadbf98-a7ef-40f1-bc61-ab8208f67bf4",
    "modified_at": "2021-10-20T16:32:31.422Z",
    "repository": "kara.moe",
    "tags": {
      "authors": [
        "8ca50bd1-6c21-418e-b7da-401991393212"
      ],
      "collections": [
        "c7db86a0-ff64-4044-9be4-66dd1ef1d1c1"
      ],
      "creators": [
        "2c2ecf1e-16c1-4768-aedc-3d79f54321da"
      ],
      "families": [
        "0377db02-3af6-43b8-9b08-c759df3d25c3"
      ],
      "groups": [
        "8e209ae4-4381-438f-89dc-1b21752027d2"
      ],
      "langs": [
        "4dcf9614-7914-42aa-99f4-dbce2e059133"
      ],
      "origins": [
        "938de218-5343-4865-94d3-fb33f2eaa152"
      ],
      "series": [
        "f546ce6c-40be-4d1d-99d9-092cfb6dab28"
      ],
      "singers": [
        "67425504-37c4-429d-826f-ed28ade14525"
      ],
      "songtypes": [
        "f02ad9b3-0bd9-4aad-85b3-9976739ba0e4"
      ],
      "songwriters": [
        "66398329-540a-4fbd-bd95-4d1ee5d10ccf",
        "b5ce2a22-0018-4c87-9d72-cb476e2980bc"
      ]
    },
    "titles": {
      "eng": "EVERBLUE"
    },
    "title": "EVERBLUE",
    "year": 2021,
    "titles_default_language": "eng"
  }
}