{
  "header": {
    "version": 4,
    "description": "Karaoke Mugen Karaoke Data File"
  },
  "medias": [
    {
      "version": "Default",
      "filename": "JPN - Koumajou Densetsu II Stranger's Requiem - GAME PC OP - Afraid.mp4",
      "audiogain": -9.53,
      "loudnorm": "-6.61,0.51,1.80,-16.76,-2.24",
      "filesize": 16671793,
      "duration": 128,
      "default": true,
      "lyrics": [
        {
          "filename": "JPN - Koumajou Densetsu II Stranger's Requiem - GAME PC OP - Afraid.ass",
          "default": true,
          "version": "Default"
        }
      ]
    }
  ],
  "data": {
    "created_at": "2017-10-11T17:02:55.000Z",
    "ignoreHooks": false,
    "kid": "27542ce1-963c-456e-b602-6ec73a6a9165",
    "modified_at": "2022-10-02T10:47:42.989Z",
    "repository": "kara.moe",
    "tags": {
      "authors": [
        "5bdaba57-27f8-4568-8806-76a807728766"
      ],
      "collections": [
        "c7db86a0-ff64-4044-9be4-66dd1ef1d1c1"
      ],
      "creators": [
        "13280f3c-1ee2-4796-bbd3-1e797db90e18"
      ],
      "families": [
        "dbedd6b3-d125-4cd8-aa32-c4175e4ca3a3"
      ],
      "groups": [
        "ae613721-1fbe-480d-ba6b-d6d0702b184d"
      ],
      "langs": [
        "4dcf9614-7914-42aa-99f4-dbce2e059133"
      ],
      "origins": [
        "ac5085db-52d8-44b4-8fbb-1697b24d2046"
      ],
      "platforms": [
        "3c15f758-e1bc-4266-8bb9-3c14112f504a"
      ],
      "series": [
        "a59048b9-20bf-443d-88f6-9ffba5960850"
      ],
      "singers": [
        "f94a3ed1-87a9-4124-b9d3-c0d1d6ffacd9"
      ],
      "songtypes": [
        "f02ad9b3-0bd9-4aad-85b3-9976739ba0e4"
      ],
      "songwriters": [
        "0432cb23-b4d4-4dfb-a9e9-c677488fad15",
        "436512d2-84f4-4524-a767-c920d06e3e25"
      ],
      "franchises": [
        "3f800ae0-3d08-4a2b-9611-f1c21d35cf9f",
        "1bdaa5a1-dfa6-4365-b746-7a0b194dafd6"
      ]
    },
    "titles": {
      "eng": "Afraid"
    },
    "titles_default_language": "eng",
    "title": "Afraid",
    "year": 2010
  }
}