{
  "header": {
    "version": 4,
    "description": "Karaoke Mugen Karaoke Data File"
  },
  "medias": [
    {
      "version": "Long.",
      "filename": "JPN - Macross F Music Clip Shuu Nyankuri - OVA IN - LION ~ Long Vers. ~ Alternative Vers.mp4",
      "audiogain": 1.39,
      "loudnorm": "-19.01,-5.77,6.00,-29.25,-0.61",
      "filesize": 110328290,
      "duration": 188,
      "default": true,
      "lyrics": [
        {
          "filename": "JPN - Macross F Music Clip Shuu Nyankuri - OVA IN - LION ~ Long Vers. ~ Alternative Vers.ass",
          "default": true,
          "version": "Default"
        }
      ]
    }
  ],
  "data": {
    "created_at": "2020-03-10T22:20:46.042Z",
    "kid": "fad6cd33-104a-4af7-9728-61fb940a82f5",
    "modified_at": "2021-07-22T19:08:51.415Z",
    "parents": [
      "057ff76e-ca7b-42ba-a7cc-34b6a75315fe"
    ],
    "repository": "kara.moe",
    "tags": {
      "authors": [
        "f7ce702e-09aa-4b22-8742-0c99cd7a5409"
      ],
      "collections": [
        "c7db86a0-ff64-4044-9be4-66dd1ef1d1c1"
      ],
      "creators": [
        "0041fabf-4b82-4ecd-961b-e4c49b8c88be"
      ],
      "families": [
        "0377db02-3af6-43b8-9b08-c759df3d25c3"
      ],
      "groups": [
        "2b4e9972-5e17-481b-99f5-d0787c0ada56",
        "ae613721-1fbe-480d-ba6b-d6d0702b184d"
      ],
      "langs": [
        "4dcf9614-7914-42aa-99f4-dbce2e059133"
      ],
      "origins": [
        "2a6ef087-a000-4f8e-aeb5-9a7968756a36"
      ],
      "series": [
        "af0de105-8a59-4699-9ce3-3fe3a6f98a56"
      ],
      "singers": [
        "73b841c7-d13c-44b4-9018-1727721742d1",
        "d538b18e-e59e-4cb1-85e8-d095c50cd3e1"
      ],
      "songtypes": [
        "5e5250d9-351a-4a82-98eb-55db50ad8962"
      ],
      "songwriters": [
        "54000730-0779-445e-b865-bf6cf2175579",
        "af0be06d-ea2d-4f46-85d1-58cf9f42532a"
      ],
      "versions": [
        "9f63c359-d1bf-425a-bcf5-b245c2c9211d"
      ],
      "franchises": [
        "01b9b958-2d2a-43d0-a5dd-efb5b14675ea"
      ]
    },
    "title": "LION ~ Long Vers.",
    "titles": {
      "eng": "LION ~ Long Vers.",
      "jpn": "ライオン"
    },
    "year": 2010,
    "titles_default_language": "eng"
  }
}