{
  "header": {
    "version": 4,
    "description": "Karaoke Mugen Karaoke Data File"
  },
  "medias": [
    {
      "version": "Default",
      "filename": "JPN - Ayashi no Ceres - OP2 - Scarlet.avi",
      "audiogain": -3.84,
      "loudnorm": "-14.18,-0.48,8.80,-24.54,-1.08",
      "filesize": 28175948,
      "duration": 100,
      "default": true,
      "lyrics": [
        {
          "filename": "JPN - Ayashi no Ceres - OP2 - Scarlet.ass",
          "default": true,
          "version": "Default"
        }
      ]
    }
  ],
  "data": {
    "created_at": "2017-10-11T17:02:58.000Z",
    "kid": "8d2ea3ff-c617-43f7-bace-a77551da9a79",
    "modified_at": "2022-07-20T11:37:04.850Z",
    "parents": [
      "5872fac3-f79e-456d-ac2f-42d16ac97366"
    ],
    "repository": "kara.moe",
    "songorder": 2,
    "tags": {
      "authors": [
        "5bdaba57-27f8-4568-8806-76a807728766"
      ],
      "creators": [
        "aaff4ba6-9a12-4bac-9bd0-c0cb783e4177"
      ],
      "families": [
        "0377db02-3af6-43b8-9b08-c759df3d25c3"
      ],
      "groups": [
        "3c14c864-533c-49e6-a3cc-6969f1233775"
      ],
      "langs": [
        "4dcf9614-7914-42aa-99f4-dbce2e059133"
      ],
      "origins": [
        "938de218-5343-4865-94d3-fb33f2eaa152"
      ],
      "series": [
        "b7189146-2c97-4327-8758-e1659a67189c"
      ],
      "singers": [
        "c4bdd393-08e0-426f-a5e5-ea0fec418265"
      ],
      "songtypes": [
        "f02ad9b3-0bd9-4aad-85b3-9976739ba0e4"
      ],
      "songwriters": [
        "387951d8-26d4-4032-a0cc-6d0a9802cd23",
        "96f5b3fa-e287-49ad-ac12-8cff8fbf2b9e"
      ],
      "collections": [
        "c7db86a0-ff64-4044-9be4-66dd1ef1d1c1"
      ],
      "warnings": [
        "24371984-5e4c-4485-a937-fb0c480ca23b"
      ]
    },
    "titles": {
      "eng": "Scarlet",
      "jpn": "スカーレット"
    },
    "titles_default_language": "eng",
    "title": "Scarlet",
    "year": 2000
  }
}