{
  "header": {
    "version": 4,
    "description": "Karaoke Mugen Karaoke Data File"
  },
  "medias": [
    {
      "version": "Default",
      "filename": "JPN - Hatsune Miku and Future Stars Project Mirai - GAME 3DS OP - Yume Yume.mp4",
      "audiogain": -7.31,
      "loudnorm": "-9.07,-1.30,3.00,-19.35,-0.29",
      "filesize": 32646637,
      "duration": 108,
      "default": true,
      "lyrics": [
        {
          "filename": "JPN - Hatsune Miku and Future Stars Project Mirai - GAME 3DS OP - Yume Yume.ass",
          "default": true,
          "version": "Default"
        }
      ]
    }
  ],
  "data": {
    "created_at": "2017-10-11T17:01:53.000Z",
    "kid": "7670627f-aea1-48fc-a442-824139e5accf",
    "modified_at": "2021-12-28T20:38:46.201Z",
    "repository": "kara.moe",
    "tags": {
      "authors": [
        "8c22c899-b3ed-42da-a548-ce00f950798b"
      ],
      "collections": [
        "c7db86a0-ff64-4044-9be4-66dd1ef1d1c1"
      ],
      "creators": [
        "20b56382-518e-44f2-bcec-fe6ba945fba9",
        "b8a3778d-0864-4135-9053-1def02d3262e"
      ],
      "families": [
        "dbedd6b3-d125-4cd8-aa32-c4175e4ca3a3"
      ],
      "genres": [
        "45623cae-6d68-4304-a49b-896d1d6f4580"
      ],
      "groups": [
        "8c22c899-b3ed-42da-a548-ce00f950798b",
        "ae613721-1fbe-480d-ba6b-d6d0702b184d"
      ],
      "langs": [
        "4dcf9614-7914-42aa-99f4-dbce2e059133"
      ],
      "platforms": [
        "d7393757-7de7-4247-ba59-120b3ceea9bf"
      ],
      "series": [
        "95b3e0af-b3b0-400f-9a57-6f311712c195"
      ],
      "singers": [
        "4407ba0e-5de7-4add-870f-7ac95a4804c9"
      ],
      "songtypes": [
        "f02ad9b3-0bd9-4aad-85b3-9976739ba0e4"
      ],
      "songwriters": [
        "6d9eaa90-048f-41d5-a264-8d73df69cc22"
      ],
      "franchises": [
        "8bc18f21-9750-4f43-97d3-2dd9352bb8af"
      ]
    },
    "titles": {
      "qro": "Yumeyume",
      "jpn": "ゆめゆめ"
    },
    "title": "Yume Yume",
    "year": 2012,
    "titles_default_language": "qro"
  }
}