{
  "header": {
    "version": 4,
    "description": "Karaoke Mugen Karaoke Data File"
  },
  "medias": [
    {
      "version": "Default",
      "filename": "JPN - Kanon - PC GAME OP - Last regrets.mp4",
      "audiogain": -3.67,
      "loudnorm": "-14.89,-0.38,6.40,-24.98,-1.37",
      "filesize": 22907672,
      "duration": 152,
      "default": true,
      "lyrics": [
        {
          "filename": "JPN - Kanon - PC GAME OP - Last regrets.ass",
          "default": true,
          "version": "Default",
          "subchecksum": "0d4cc9a9ef77d5c1d5a631a3700fc372"
        }
      ]
    }
  ],
  "data": {
    "created_at": "2017-10-11T17:02:05.000Z",
    "kid": "04bd2bd2-2fb7-45fa-bccc-1a91f6312f4a",
    "modified_at": "2021-02-25T11:55:02.813Z",
    "repository": "kara.moe",
    "tags": {
      "authors": [
        "1df04771-a378-4f14-a5e1-1455187d681a"
      ],
      "collections": [
        "c7db86a0-ff64-4044-9be4-66dd1ef1d1c1"
      ],
      "creators": [
        "4dd6987d-3036-4454-859b-ff18954541bf"
      ],
      "families": [
        "dbedd6b3-d125-4cd8-aa32-c4175e4ca3a3"
      ],
      "groups": [
        "24db50aa-a126-4d34-a48a-e45db79c4245"
      ],
      "langs": [
        "4dcf9614-7914-42aa-99f4-dbce2e059133"
      ],
      "platforms": [
        "3c15f758-e1bc-4266-8bb9-3c14112f504a"
      ],
      "series": [
        "e9a43ad9-eb15-446f-89eb-9f4faf745c45"
      ],
      "singers": [
        "0fbb5e2f-8eae-4fce-beaf-115cfc16d4a4"
      ],
      "songtypes": [
        "f02ad9b3-0bd9-4aad-85b3-9976739ba0e4"
      ],
      "songwriters": [
        "03e272ce-1c50-4706-a431-d49f48a5dd62",
        "6f9382dc-3b8f-4948-899c-23477cd9e23b"
      ],
      "franchises": [
        "e9a43ad9-eb15-446f-89eb-9f4faf745c45"
      ]
    },
    "title": "Last regrets",
    "titles": {
      "eng": "Last regrets"
    },
    "year": 1999,
    "titles_default_language": "eng"
  }
}