{
  "header": {
    "version": 4,
    "description": "Karaoke Mugen Karaoke Data File"
  },
  "medias": [
    {
      "version": "Default",
      "filename": "JPN - Sword Art Online - ED1 - Yume Sekai.mp4",
      "audiogain": 1.13,
      "loudnorm": "-20.27,-10.08,7.70,-30.53,-0.98",
      "filesize": 46973996,
      "duration": 90,
      "default": true,
      "lyrics": [
        {
          "filename": "JPN - Sword Art Online - ED1 - Yume Sekai.ass",
          "default": true,
          "version": "Default",
          "subchecksum": "0bb837fcf19500501d90ddc17665d7b4"
        }
      ]
    }
  ],
  "data": {
    "created_at": "2017-10-11T17:02:33.000Z",
    "kid": "20b2eb92-9387-480e-b8d4-c478735ef689",
    "modified_at": "2021-02-25T13:14:57.120Z",
    "repository": "kara.moe",
    "songorder": 1,
    "tags": {
      "authors": [
        "5bdaba57-27f8-4568-8806-76a807728766"
      ],
      "collections": [
        "c7db86a0-ff64-4044-9be4-66dd1ef1d1c1"
      ],
      "creators": [
        "b96e3686-bbe0-4b9e-815a-a278d5ff31be"
      ],
      "families": [
        "0377db02-3af6-43b8-9b08-c759df3d25c3"
      ],
      "groups": [
        "ae613721-1fbe-480d-ba6b-d6d0702b184d"
      ],
      "langs": [
        "4dcf9614-7914-42aa-99f4-dbce2e059133"
      ],
      "origins": [
        "938de218-5343-4865-94d3-fb33f2eaa152"
      ],
      "series": [
        "39976477-082d-4293-87d1-e1e3a9561125"
      ],
      "singers": [
        "001a6966-3d4d-4897-975d-4e9e2e052732"
      ],
      "songtypes": [
        "38c77c56-2b95-4040-b676-0994a8cb0597"
      ],
      "songwriters": [
        "ad73a27b-de24-4a08-99fc-a16caf59f60d",
        "cbd3ccbc-14c5-4f13-b461-6cfad840f5cd"
      ],
      "franchises": [
        "39976477-082d-4293-87d1-e1e3a9561125"
      ]
    },
    "title": "Yume Sekai",
    "titles": {
      "qro": "Yume Sekai",
      "jpn": "ユメセカイ"
    },
    "year": 2012,
    "titles_default_language": "qro"
  }
}