{
  "header": {
    "version": 4,
    "description": "Karaoke Mugen Karaoke Data File"
  },
  "medias": [
    {
      "version": "Default",
      "filename": "JPN - DISORDER 6 - PS3 XBOX360 GAME OP - Genjutsu no Crossroad.mp4",
      "audiogain": -9.37,
      "loudnorm": "-8.23,1.62,6.70,-18.25,-1.57",
      "filesize": 29371132,
      "duration": 107,
      "default": true,
      "lyrics": [
        {
          "filename": "JPN - DISORDER 6 - PS3 XBOX360 GAME OP - Genjutsu no Crossroad.ass",
          "default": true,
          "version": "Default",
          "subchecksum": "f954489214d504f33fedab524ef2194b"
        }
      ]
    }
  ],
  "data": {
    "created_at": "2017-10-11T17:02:13.000Z",
    "kid": "2d95006f-87f8-42e6-b8e4-39065fa9b34c",
    "modified_at": "2021-02-25T11:10:32.079Z",
    "repository": "kara.moe",
    "tags": {
      "authors": [
        "5bdaba57-27f8-4568-8806-76a807728766"
      ],
      "collections": [
        "c7db86a0-ff64-4044-9be4-66dd1ef1d1c1"
      ],
      "creators": [
        "7a8ad2ad-018d-4341-9be4-77bfc39a6edd"
      ],
      "families": [
        "dbedd6b3-d125-4cd8-aa32-c4175e4ca3a3"
      ],
      "groups": [
        "ae613721-1fbe-480d-ba6b-d6d0702b184d"
      ],
      "langs": [
        "4dcf9614-7914-42aa-99f4-dbce2e059133"
      ],
      "origins": [
        "2f96e82c-c61b-4413-817e-e6b247509b95"
      ],
      "platforms": [
        "7f63ff91-7961-4488-888d-4bf46eea3a2a",
        "d56f8d9d-9ccd-4ac8-a164-da0e62d1c060"
      ],
      "series": [
        "f778da42-d966-4d2c-8181-bdf555a6ac82"
      ],
      "singers": [
        "527d3a38-559d-4e99-9ed6-2a2fd772f45f"
      ],
      "songtypes": [
        "f02ad9b3-0bd9-4aad-85b3-9976739ba0e4"
      ],
      "songwriters": [
        "66339ced-7df9-40c8-aefd-59b2990df294"
      ]
    },
    "title": "Genjutsu no Crossroad",
    "titles": {
      "qro": "Genjutsu no Crossroad",
      "jpn": "幻術のクロスロード"
    },
    "year": 2013,
    "titles_default_language": "qro"
  }
}