{
  "header": {
    "version": 4,
    "description": "Karaoke Mugen Karaoke Data File"
  },
  "medias": [
    {
      "version": "Default",
      "filename": "JPN - Touhou - AMV - Narcissus no Sayonara.mp4",
      "audiogain": -0.35,
      "loudnorm": "-17.07,-6.73,6.10,-27.41,-0.82",
      "filesize": 39008856,
      "duration": 191,
      "default": true,
      "lyrics": [
        {
          "filename": "JPN - Touhou - AMV - Narcissus no Sayonara.ass",
          "default": true,
          "version": "Default"
        }
      ]
    }
  ],
  "data": {
    "created_at": "2022-05-15T00:07:17.875Z",
    "ignoreHooks": false,
    "kid": "49cb239e-d636-4ff0-a772-6839be6a1724",
    "modified_at": "2022-05-15T00:07:18.315Z",
    "repository": "kara.moe",
    "tags": {
      "authors": [
        "531cf155-28d3-46f6-a106-229622f2d491"
      ],
      "collections": [
        "c7db86a0-ff64-4044-9be4-66dd1ef1d1c1"
      ],
      "creators": [
        "5ad0c994-5c25-4edc-9349-f2681e76201f"
      ],
      "families": [
        "0377db02-3af6-43b8-9b08-c759df3d25c3"
      ],
      "langs": [
        "4dcf9614-7914-42aa-99f4-dbce2e059133"
      ],
      "origins": [
        "ac5085db-52d8-44b4-8fbb-1697b24d2046"
      ],
      "series": [
        "1bdaa5a1-dfa6-4365-b746-7a0b194dafd6"
      ],
      "singers": [
        "5a42b648-7b72-4e2f-8170-62eb4d88be73"
      ],
      "songtypes": [
        "a6c79ce5-89ee-4d50-afe8-3abd7317f6c2"
      ],
      "songwriters": [
        "b7e7890d-0aad-4432-b374-00aed612d4ba",
        "05b97938-1546-407a-beb6-cf832f6cfe6c"
      ],
      "groups": [
        "8e209ae4-4381-438f-89dc-1b21752027d2",
        "8c22c899-b3ed-42da-a548-ce00f950798b"
      ],
      "franchises": [
        "1bdaa5a1-dfa6-4365-b746-7a0b194dafd6"
      ]
    },
    "titles": {
      "qro": "Narcissus no Sayonara",
      "jpn": "ナルキッソスにさよなら"
    },
    "titles_default_language": "qro",
    "titles_aliases": [
      "Goodbye to Narcissus",
      "Farewell, Narcissus"
    ],
    "title": "Narcissus no Sayonara",
    "year": 2022
  }
}