{
  "header": {
    "version": 4,
    "description": "Karaoke Mugen Karaoke Data File"
  },
  "medias": [
    {
      "version": "Default",
      "filename": "JPN - Dies irae Also sprach Zarathustra -die Wiederkunft- - PC GAME OP - Einsatz.mp4",
      "audiogain": -10.19,
      "loudnorm": "-7.51,0.71,3.00,-17.83,-1.02",
      "filesize": 19481413,
      "duration": 99,
      "default": true,
      "lyrics": [
        {
          "filename": "JPN - Dies irae Also sprach Zarathustra -die Wiederkunft- - PC GAME OP - Einsatz.ass",
          "default": true,
          "version": "Default",
          "subchecksum": "fa50bcdcfcffc778c8c8acf6c8c52330"
        }
      ]
    }
  ],
  "data": {
    "created_at": "2019-05-12T15:25:19.000Z",
    "kid": "8522bca9-e551-45bf-ae38-692d8fc89f28",
    "modified_at": "2021-02-25T11:09:42.062Z",
    "parents": [
      "b52dfe77-64de-4c8e-84aa-213b48fa74a3"
    ],
    "repository": "kara.moe",
    "tags": {
      "authors": [
        "affbc2db-10d5-4c51-b2f6-61686dfbc1b1"
      ],
      "collections": [
        "c7db86a0-ff64-4044-9be4-66dd1ef1d1c1"
      ],
      "creators": [
        "90ec4be5-ad81-4de7-ab1e-9b3ca9f080b7"
      ],
      "families": [
        "dbedd6b3-d125-4cd8-aa32-c4175e4ca3a3"
      ],
      "groups": [
        "3c14c864-533c-49e6-a3cc-6969f1233775"
      ],
      "langs": [
        "4dcf9614-7914-42aa-99f4-dbce2e059133"
      ],
      "origins": [
        "2f96e82c-c61b-4413-817e-e6b247509b95"
      ],
      "platforms": [
        "3c15f758-e1bc-4266-8bb9-3c14112f504a"
      ],
      "series": [
        "1dc68c2c-d3e3-4315-9395-95a0a3d96624"
      ],
      "singers": [
        "8be7b6e2-4c57-42b1-824d-1f4c14efe028"
      ],
      "songtypes": [
        "f02ad9b3-0bd9-4aad-85b3-9976739ba0e4"
      ],
      "songwriters": [
        "8be7b6e2-4c57-42b1-824d-1f4c14efe028",
        "bb97f4a8-5942-4ab1-97e0-62c46384aa4e"
      ],
      "franchises": [
        "9c56c3e7-34f6-4aa5-900c-655a84744264"
      ]
    },
    "title": "Einsatz",
    "titles": {
      "jpn": "英雄",
      "ger": "Einsatz"
    },
    "year": 2009,
    "titles_default_language": "ger"
  }
}