{
  "header": {
    "version": 4,
    "description": "Karaoke Mugen Karaoke Data File"
  },
  "medias": [
    {
      "version": "Default",
      "filename": "JPN - Five Star Monogatari - MOVIE MV - Hitomi no naka Far away.mp4",
      "audiogain": -10.29,
      "loudnorm": "-8.70,4.20,3.60,-18.87,-0.56",
      "filesize": 45032339,
      "duration": 259,
      "default": true,
      "lyrics": [
        {
          "filename": "JPN - Five Star Monogatari - MOVIE MV - Hitomi no naka Far away.ass",
          "default": true,
          "version": "Default",
          "subchecksum": "d15fc58854e62eaad43023838df1d448"
        }
      ]
    }
  ],
  "data": {
    "created_at": "2020-01-14T21:53:05.020Z",
    "kid": "5a34bc64-7f1e-41b7-9675-3d6aeab05570",
    "modified_at": "2021-03-13T15:18:03.423Z",
    "repository": "kara.moe",
    "tags": {
      "authors": [
        "4607780c-f1ef-47cf-9c1c-b13e8f731699"
      ],
      "collections": [
        "c7db86a0-ff64-4044-9be4-66dd1ef1d1c1"
      ],
      "creators": [
        "ef8f80e1-d244-4aea-b7f0-984d6dd4b82b"
      ],
      "families": [
        "0377db02-3af6-43b8-9b08-c759df3d25c3"
      ],
      "genres": [
        "f60ba57d-5ef4-49e0-b93b-d0dcbcff6592"
      ],
      "groups": [
        "7792cc27-9ff9-4d47-9287-2338b7db1575"
      ],
      "langs": [
        "4dcf9614-7914-42aa-99f4-dbce2e059133"
      ],
      "origins": [
        "c8ca9dea-d8b4-48fe-8427-d911653232e9"
      ],
      "series": [
        "abf5ccb2-1429-4261-b25f-8ee603e98d2f"
      ],
      "singers": [
        "4f8bb135-44be-441a-8f69-56afb41e4a9e"
      ],
      "songtypes": [
        "7be1b15c-cff8-4b37-a649-5c90f3d569a9"
      ],
      "songwriters": [
        "9bb80865-1d6a-443f-adad-cd1b8479f31f",
        "eaa51085-e8fe-4631-9196-da2a28c4fea7"
      ]
    },
    "title": "Hitomi no naka Far away",
    "titles": {
      "qro": "Hitomi no naka Far away",
      "jpn": "瞳の中のファーラウェイ"
    },
    "year": 1989,
    "titles_default_language": "qro"
  }
}