{
  "header": {
    "version": 4,
    "description": "Karaoke Mugen Karaoke Data File"
  },
  "medias": [
    {
      "version": "Default",
      "filename": "JPN - AKB48 - MV - Heavy Rotation.mp4",
      "audiogain": -10.53,
      "loudnorm": "-6.65,0.84,2.90,-16.73,-0.85",
      "filesize": 148168828,
      "duration": 296,
      "default": true,
      "lyrics": [
        {
          "filename": "JPN - AKB48 - MV - Heavy Rotation.ass",
          "default": true,
          "version": "Default"
        }
      ]
    }
  ],
  "data": {
    "created_at": "2017-10-11T17:02:07.000Z",
    "kid": "da86805a-65b1-4395-bc60-b4aec559c010",
    "modified_at": "2022-06-04T00:13:15.352Z",
    "repository": "kara.moe",
    "songorder": null,
    "tags": {
      "authors": [
        "583e5531-426e-4d73-9aab-9cac10efb432"
      ],
      "creators": [
        "23cdc12f-a9aa-46b7-a687-b157838ad399",
        "882335d5-a2ae-4eba-93a7-85a9de2a2532"
      ],
      "families": [
        "5391f9fe-638c-415f-8dc9-958e3a2c5787"
      ],
      "groups": [
        "8c22c899-b3ed-42da-a548-ce00f950798b",
        "ae613721-1fbe-480d-ba6b-d6d0702b184d"
      ],
      "langs": [
        "4dcf9614-7914-42aa-99f4-dbce2e059133"
      ],
      "singers": [
        "0efdee07-82c8-47e8-8872-b0c279007c30"
      ],
      "songtypes": [
        "7be1b15c-cff8-4b37-a649-5c90f3d569a9"
      ],
      "songwriters": [
        "19045a57-4bc4-4c83-ad1c-3fa9a3b701b1",
        "28e3694e-2c0e-4f5c-8889-623a774d5c50"
      ],
      "collections": [
        "dbcf2c22-524d-4708-99bb-601703633927"
      ]
    },
    "titles": {
      "eng": "Heavy Rotation",
      "jpn": "ヘビーローテーション"
    },
    "titles_default_language": "eng",
    "title": "Heavy Rotation",
    "year": 2010
  }
}