{
  "header": {
    "version": 4,
    "description": "Karaoke Mugen Karaoke Data File"
  },
  "medias": [
    {
      "version": "Default",
      "filename": "JPN - Koi wa Ameagari no You ni - MV - Ref rain ~ Full Vers.mp4",
      "audiogain": -10.4,
      "loudnorm": "-6.94,1.93,9.40,-17.12,-1.69",
      "filesize": 155427553,
      "duration": 291,
      "default": true,
      "lyrics": [
        {
          "filename": "JPN - Koi wa Ameagari no You ni - MV - Ref rain ~ Full Vers.ass",
          "default": true,
          "version": "Default"
        }
      ]
    }
  ],
  "data": {
    "created_at": "2019-06-16T18:07:10.000Z",
    "kid": "12d26d09-40e6-490a-af57-edf39600cd31",
    "modified_at": "2022-06-04T00:13:57.407Z",
    "parents": [
      "734349e1-e73d-418f-bd1b-56e053ca687b"
    ],
    "repository": "kara.moe",
    "songorder": null,
    "tags": {
      "authors": [
        "6dff9198-29f1-470b-bac6-8a60032ca8b8"
      ],
      "creators": [
        "9f10c180-4ed1-4a4e-9e39-c37e09b91d5f"
      ],
      "families": [
        "5391f9fe-638c-415f-8dc9-958e3a2c5787"
      ],
      "groups": [
        "2b4e9972-5e17-481b-99f5-d0787c0ada56",
        "ae613721-1fbe-480d-ba6b-d6d0702b184d"
      ],
      "langs": [
        "4dcf9614-7914-42aa-99f4-dbce2e059133"
      ],
      "series": [
        "0655f85b-a7cf-48c4-a0f8-93ec05d9ff4f"
      ],
      "singers": [
        "6cfc20ab-c855-4f24-8bed-0981e465630b"
      ],
      "songtypes": [
        "7be1b15c-cff8-4b37-a649-5c90f3d569a9"
      ],
      "songwriters": [
        "6cfc20ab-c855-4f24-8bed-0981e465630b"
      ],
      "versions": [
        "c2143a7f-6970-450e-8a79-0302db9220a9"
      ],
      "collections": [
        "dbcf2c22-524d-4708-99bb-601703633927"
      ]
    },
    "titles": {
      "eng": "Ref:rain"
    },
    "titles_default_language": "eng",
    "title": "Ref:rain",
    "year": 2018
  }
}