{
  "header": {
    "version": 4,
    "description": "Karaoke Mugen Karaoke Data File"
  },
  "medias": [
    {
      "version": "Default",
      "filename": "JPN - Tsukipro The Animation 2 - ED5 - Nagori Oni.mp4",
      "audiogain": -2.22,
      "loudnorm": "-14.96,-6.73,4.40,-25.01,-0.61",
      "filesize": 31380785,
      "duration": 89,
      "default": true,
      "lyrics": [
        {
          "filename": "JPN - Tsukipro The Animation 2 - ED5 - Nagori Oni.ass",
          "default": true,
          "version": "Default"
        }
      ]
    }
  ],
  "data": {
    "created_at": "2022-11-03T12:49:19.566Z",
    "ignoreHooks": false,
    "kid": "c9c6d109-b563-4148-b071-94ead72be301",
    "modified_at": "2022-11-03T12:49:19.737Z",
    "repository": "kara.moe",
    "songorder": 5,
    "tags": {
      "authors": [
        "ee8628c8-9b7f-415b-bc0d-9b712d5daf8c"
      ],
      "collections": [
        "c7db86a0-ff64-4044-9be4-66dd1ef1d1c1"
      ],
      "creators": [
        "422a4f90-c9f2-49c3-b1d1-ee7de65ba052"
      ],
      "families": [
        "0377db02-3af6-43b8-9b08-c759df3d25c3"
      ],
      "genres": [
        "caa86df2-0d59-474b-885c-f240a9e891b0"
      ],
      "groups": [
        "8e209ae4-4381-438f-89dc-1b21752027d2"
      ],
      "langs": [
        "4dcf9614-7914-42aa-99f4-dbce2e059133"
      ],
      "origins": [
        "938de218-5343-4865-94d3-fb33f2eaa152"
      ],
      "series": [
        "052fd93d-feb8-4d26-b908-40d9722f521f"
      ],
      "singers": [
        "7b2309a3-647f-4e4e-9c18-354e4f479a54",
        "1701682c-b22e-420c-b499-3b503037882e",
        "d182360c-21ed-4887-a15f-8640f11a934a",
        "d72701c8-4aa0-4619-a4ea-aea77d37422c",
        "65441047-58cf-4275-9a2e-c1a67ebadd1f",
        "d50c08cf-99dd-4674-9e3c-76964d502097"
      ],
      "songtypes": [
        "38c77c56-2b95-4040-b676-0994a8cb0597"
      ],
      "songwriters": [
        "a00c9f59-2318-4ec2-b8c1-235dd0635ccb"
      ],
      "franchises": [
        "ac8c6bdb-a96f-4893-b434-78d9fbdf673e"
      ]
    },
    "titles": {
      "jpn": "名残鬼",
      "qro": "Nagori Oni"
    },
    "titles_default_language": "qro",
    "title": "Nagori Oni",
    "year": 2021
  }
}