{
  "header": {
    "version": 4,
    "description": "Karaoke Mugen Karaoke Data File"
  },
  "medias": [
    {
      "version": "Default",
      "filename": "JPN - Mermaid Melody Pichi Pichitto Live Start - GAME IN - Aurora no Kaze ni Notte.mp4",
      "audiogain": -4.72,
      "loudnorm": "-13.97,-0.24,5.00,-24.08,-0.74",
      "filesize": 10866812,
      "duration": 119,
      "default": true,
      "lyrics": [
        {
          "filename": "JPN - Mermaid Melody Pichi Pichitto Live Start - GAME IN - Aurora no Kaze ni Notte.ass",
          "default": true,
          "version": "Default",
          "subchecksum": "3484e9d4455176e8b5ca165772ebb3e7"
        }
      ]
    }
  ],
  "data": {
    "created_at": "2017-10-11T17:01:11.000Z",
    "kid": "6d151bad-6a23-4cb6-893e-c60f9ece2828",
    "modified_at": "2021-02-25T12:24:41.133Z",
    "repository": "kara.moe",
    "tags": {
      "authors": [
        "1b2f4ffc-ba49-4646-9eab-d19abe7e4081"
      ],
      "collections": [
        "c7db86a0-ff64-4044-9be4-66dd1ef1d1c1"
      ],
      "creators": [
        "22092200-b324-4277-8269-b8b0929f42c1"
      ],
      "families": [
        "dbedd6b3-d125-4cd8-aa32-c4175e4ca3a3"
      ],
      "genres": [
        "caa86df2-0d59-474b-885c-f240a9e891b0"
      ],
      "groups": [
        "3c14c864-533c-49e6-a3cc-6969f1233775",
        "8c22c899-b3ed-42da-a548-ce00f950798b"
      ],
      "langs": [
        "4dcf9614-7914-42aa-99f4-dbce2e059133"
      ],
      "series": [
        "3b7233c8-2038-4652-b1f0-9b0f6744e2dd"
      ],
      "singers": [
        "d4a41e52-44aa-479e-9dc5-f2886e7c9a96"
      ],
      "songtypes": [
        "5e5250d9-351a-4a82-98eb-55db50ad8962"
      ],
      "songwriters": [
        "1df9c75f-e1e3-404b-94f8-c64695d80d27",
        "a98edd2f-1b42-4904-ac5b-1c647431239d"
      ],
      "franchises": [
        "c0678268-0314-4ab6-a21e-191fd0837f67"
      ]
    },
    "title": "Aurora no Kaze ni Notte",
    "titles": {
      "qro": "Aurora no Kaze ni Notte",
      "jpn": "オーロラの風に乗って"
    },
    "year": 2004,
    "titles_default_language": "qro"
  }
}