{
  "header": {
    "version": 4,
    "description": "Karaoke Mugen Karaoke Data File"
  },
  "medias": [
    {
      "version": "Default",
      "filename": "JPN - Touhou - MV - Reverse Trigger.mp4",
      "audiogain": -8.1,
      "loudnorm": "-8.57,1.70,5.20,-18.81,-1.04",
      "filesize": 157490645,
      "duration": 240,
      "default": true,
      "lyrics": [
        {
          "filename": "JPN - Touhou - MV - Reverse Trigger.ass",
          "default": true,
          "version": "Default"
        }
      ]
    }
  ],
  "data": {
    "created_at": "2021-07-30T19:05:32.420Z",
    "kid": "b20e6829-1711-4a42-96be-2d584197525d",
    "modified_at": "2021-08-31T17:00:14.135Z",
    "repository": "kara.moe",
    "tags": {
      "authors": [
        "fb28c6d3-a81e-40c0-9a4c-e3268c60a64b"
      ],
      "collections": [
        "c7db86a0-ff64-4044-9be4-66dd1ef1d1c1"
      ],
      "creators": [
        "eb49131c-b890-422d-9947-0e82292801e1"
      ],
      "families": [
        "0377db02-3af6-43b8-9b08-c759df3d25c3"
      ],
      "groups": [
        "8e209ae4-4381-438f-89dc-1b21752027d2"
      ],
      "langs": [
        "4dcf9614-7914-42aa-99f4-dbce2e059133"
      ],
      "origins": [
        "ac5085db-52d8-44b4-8fbb-1697b24d2046"
      ],
      "series": [
        "1bdaa5a1-dfa6-4365-b746-7a0b194dafd6"
      ],
      "singers": [
        "a6e3509f-befc-4b8b-ac1c-3614e1c32447"
      ],
      "songtypes": [
        "7be1b15c-cff8-4b37-a649-5c90f3d569a9"
      ],
      "songwriters": [
        "26cb5252-8510-49e0-897c-a611a05fc056",
        "3059eca0-7b9f-41e0-a5a6-2e7e3be5d025",
        "a6e3509f-befc-4b8b-ac1c-3614e1c32447"
      ],
      "franchises": [
        "1bdaa5a1-dfa6-4365-b746-7a0b194dafd6"
      ]
    },
    "titles": {
      "eng": "Reverse Trigger",
      "jpn": "リバーストリガー"
    },
    "title": "Reverse Trigger",
    "year": 2021,
    "comment": "Thanks Atsuyas pour l'aide pour l'écriture des romajis!",
    "titles_default_language": "eng"
  }
}