{
  "header": {
    "version": 4,
    "description": "Karaoke Mugen Karaoke Data File"
  },
  "medias": [
    {
      "version": "Default",
      "filename": "JPN - Gintama. (2018) - ED - Hikari Shoumeiron.mp4",
      "audiogain": -1.34,
      "loudnorm": "-16.01,-7.55,3.60,-26.17,-0.77",
      "filesize": 24312561,
      "duration": 90,
      "default": true,
      "lyrics": [
        {
          "filename": "JPN - Gintama. (2018) - ED - Hikari Shoumeiron.ass",
          "default": true,
          "version": "Default"
        }
      ]
    }
  ],
  "data": {
    "created_at": "2020-05-12T23:38:06.774Z",
    "ignoreHooks": false,
    "kid": "724d1a5b-3b68-476d-b26a-356f66e625c1",
    "modified_at": "2022-10-01T10:14:46.386Z",
    "repository": "kara.moe",
    "tags": {
      "authors": [
        "1d7745a8-73ea-40bb-ad99-826af98f6e41"
      ],
      "collections": [
        "c7db86a0-ff64-4044-9be4-66dd1ef1d1c1"
      ],
      "creators": [
        "4d17b0cf-92fd-4ab3-8035-8a260a772e51"
      ],
      "families": [
        "0377db02-3af6-43b8-9b08-c759df3d25c3"
      ],
      "genres": [
        "a0aeef4a-6428-45ff-a6e1-468b595930c2"
      ],
      "groups": [
        "ae613721-1fbe-480d-ba6b-d6d0702b184d"
      ],
      "langs": [
        "4dcf9614-7914-42aa-99f4-dbce2e059133"
      ],
      "origins": [
        "938de218-5343-4865-94d3-fb33f2eaa152"
      ],
      "series": [
        "835cb643-34f2-4a14-9b73-3b168b395334"
      ],
      "singers": [
        "60705f2e-e3d4-46a2-a9ce-c641ccddf822"
      ],
      "songtypes": [
        "38c77c56-2b95-4040-b676-0994a8cb0597"
      ],
      "songwriters": [
        "af0dc126-897e-4390-a7a1-cbfed65c2925"
      ],
      "franchises": [
        "0433ab0b-74bb-4837-8f1b-fd17a9e0c526"
      ]
    },
    "titles": {
      "jpn": "ヒカリ証明論",
      "qro": "Hikari Shômeiron"
    },
    "titles_default_language": "qro",
    "title": "Hikari Shômeiron",
    "year": 2018,
    "titles_aliases": [
      "Shoumeiron"
    ]
  }
}