{
  "header": {
    "version": 4,
    "description": "Karaoke Mugen Karaoke Data File"
  },
  "medias": [
    {
      "version": "Default",
      "filename": "JPN - Kishidan - LIVE - The Aishiteru ~ Full Vers.avi",
      "audiogain": -7.21,
      "loudnorm": "-10.53,1.57,5.00,-20.53,-0.32",
      "filesize": 80221566,
      "duration": 299,
      "default": true,
      "lyrics": [
        {
          "filename": "JPN - Kishidan - LIVE - The Aishiteru ~ Full Vers.ass",
          "default": true,
          "version": "Default"
        }
      ]
    }
  ],
  "data": {
    "created_at": "2017-10-11T17:02:17.000Z",
    "ignoreHooks": false,
    "kid": "0ed2671f-5460-4159-977c-06282e825439",
    "modified_at": "2022-12-21T22:36:30.018Z",
    "repository": "kara.moe",
    "tags": {
      "authors": [
        "fa399f2f-ea1d-4902-8796-ea6d8218aff0"
      ],
      "collections": [
        "dbcf2c22-524d-4708-99bb-601703633927"
      ],
      "families": [
        "5391f9fe-638c-415f-8dc9-958e3a2c5787"
      ],
      "groups": [
        "3c14c864-533c-49e6-a3cc-6969f1233775"
      ],
      "langs": [
        "4dcf9614-7914-42aa-99f4-dbce2e059133"
      ],
      "singers": [
        "33706a36-4db9-4168-b095-fa90049d048c"
      ],
      "songtypes": [
        "a0167949-580c-4de3-bf13-497e462e02f3"
      ],
      "songwriters": [
        "635e0e9a-480b-4762-bdda-b89c666b1fa2"
      ],
      "versions": [
        "c2143a7f-6970-450e-8a79-0302db9220a9"
      ]
    },
    "titles": {
      "jpn": "The アイシテル",
      "qro": "The Aishiteru"
    },
    "titles_default_language": "qro",
    "year": 2006
  }
}