{
  "header": {
    "version": 4,
    "description": "Karaoke Mugen Karaoke Data File"
  },
  "medias": [
    {
      "version": "Default",
      "filename": "JPN - Akumaizer 3 - ED - Susume! Zaiderbeck.mp4",
      "audiogain": -5.57,
      "loudnorm": "-13.68,-1.58,2.80,-23.97,-0.42",
      "filesize": 10281372,
      "duration": 59,
      "default": true,
      "lyrics": [
        {
          "filename": "JPN - Akumaizer 3 - ED - Susume! Zaiderbeck.ass",
          "default": true,
          "version": "Default",
          "subchecksum": "b1d3798036b60b53d622e9d1996dcbc4"
        }
      ]
    }
  ],
  "data": {
    "created_at": "2019-02-05T19:51:36.000Z",
    "kid": "3c793f2d-d093-46f9-a4bf-844b1e15289b",
    "modified_at": "2021-02-25T10:41:35.750Z",
    "repository": "kara.moe",
    "tags": {
      "authors": [
        "4607780c-f1ef-47cf-9c1c-b13e8f731699"
      ],
      "collections": [
        "c7db86a0-ff64-4044-9be4-66dd1ef1d1c1"
      ],
      "creators": [
        "e32b14df-502b-45fa-9ca5-37554a63a4d7"
      ],
      "families": [
        "5391f9fe-638c-415f-8dc9-958e3a2c5787"
      ],
      "groups": [
        "57e5e0c0-e02e-4871-a6cb-d48ea604ebab"
      ],
      "langs": [
        "4dcf9614-7914-42aa-99f4-dbce2e059133"
      ],
      "origins": [
        "938de218-5343-4865-94d3-fb33f2eaa152",
        "d3fac9ab-630d-402d-a392-3d2450c3e62e"
      ],
      "series": [
        "0236caab-36c4-435c-9d82-efe56ded4055"
      ],
      "singers": [
        "59a38148-e0a8-43df-b149-a6118d9f2d4d",
        "e19c7217-c778-4fdb-868e-7ae532883d55"
      ],
      "songtypes": [
        "38c77c56-2b95-4040-b676-0994a8cb0597"
      ],
      "songwriters": [
        "2740545b-049c-4992-ab1c-4a0e039f93fe",
        "c8cc27d8-1322-4346-9fce-8f69001f0445"
      ]
    },
    "title": "Susume! Zaiderbeck",
    "titles": {
      "qro": "Susume! Zaiderbeck",
      "jpn": "進め!ザイダベック"
    },
    "year": 1975,
    "titles_default_language": "qro"
  }
}