{
  "header": {
    "version": 4,
    "description": "Karaoke Mugen Karaoke Data File"
  },
  "medias": [
    {
      "version": "Default",
      "filename": "JPN - Ultraman Orb - OP - Orb no Inori.mp4",
      "audiogain": 0.84,
      "loudnorm": "-17.85,-7.54,3.00,-27.85,-0.48",
      "filesize": 53790507,
      "duration": 83,
      "default": true,
      "lyrics": [
        {
          "filename": "JPN - Ultraman Orb - OP - Orb no Inori.ass",
          "default": true,
          "version": "Default",
          "subchecksum": "796e38bbe5231dbb8845248a514669bb"
        }
      ]
    }
  ],
  "data": {
    "created_at": "2019-04-22T14:03:35.000Z",
    "kid": "19bd63f6-b255-4859-a509-5fed4b15610d",
    "modified_at": "2021-02-25T13:31:51.217Z",
    "repository": "kara.moe",
    "tags": {
      "authors": [
        "ef611801-6a99-482e-9b99-13ad3d3a0648"
      ],
      "collections": [
        "c7db86a0-ff64-4044-9be4-66dd1ef1d1c1"
      ],
      "creators": [
        "308ee11d-80d2-4870-9ff4-e042b72070ee"
      ],
      "families": [
        "5391f9fe-638c-415f-8dc9-958e3a2c5787"
      ],
      "groups": [
        "ae613721-1fbe-480d-ba6b-d6d0702b184d"
      ],
      "langs": [
        "4dcf9614-7914-42aa-99f4-dbce2e059133"
      ],
      "origins": [
        "28650021-2b2a-4a55-aff4-85dd4896c687",
        "938de218-5343-4865-94d3-fb33f2eaa152",
        "d3fac9ab-630d-402d-a392-3d2450c3e62e"
      ],
      "series": [
        "bded983d-56d5-49ce-a35c-90f84dbe7d15"
      ],
      "singers": [
        "12bea406-759a-406e-8ed3-5d46a1b2172e",
        "536f8d96-b5ed-49c5-8f59-0b99b1f34fbb",
        "59a38148-e0a8-43df-b149-a6118d9f2d4d"
      ],
      "songtypes": [
        "f02ad9b3-0bd9-4aad-85b3-9976739ba0e4"
      ],
      "songwriters": [
        "3c712dd3-fe09-47ee-8a02-464f135a934d",
        "ed778281-a46b-4736-bf32-1e53d4b38e55"
      ],
      "franchises": [
        "e0d0d8b0-bf67-40a0-b0c1-082cd4ccc58b"
      ]
    },
    "title": "Orb no Inori",
    "titles": {
      "qro": "Orb no Inori",
      "jpn": "オーブの祈り"
    },
    "year": 2016,
    "titles_default_language": "qro"
  }
}