{
  "header": {
    "version": 4,
    "description": "Karaoke Mugen Karaoke Data File"
  },
  "medias": [
    {
      "version": "Default",
      "filename": "JPN - K Seven Stories SIDE GREEN ~Uwagaki Sekai~ - MOVIE ED - Uwagaki Sekai.mp4",
      "audiogain": 2.31,
      "loudnorm": "-19.51,-5.79,5.00,-29.51,-1.01",
      "filesize": 11208295,
      "duration": 87,
      "default": true,
      "lyrics": [
        {
          "filename": "JPN - K Seven Stories SIDE GREEN ~Uwagaki Sekai~ - MOVIE ED - Uwagaki Sekai.ass",
          "default": true,
          "version": "Default"
        }
      ]
    }
  ],
  "data": {
    "created_at": "2022-07-20T16:44:03.868Z",
    "ignoreHooks": false,
    "kid": "1e2dfebb-280d-42bb-abc9-e1931d81074e",
    "modified_at": "2022-07-20T16:44:07.496Z",
    "repository": "kara.moe",
    "tags": {
      "authors": [
        "ee8628c8-9b7f-415b-bc0d-9b712d5daf8c"
      ],
      "collections": [
        "c7db86a0-ff64-4044-9be4-66dd1ef1d1c1"
      ],
      "creators": [
        "c77da89b-5c99-43fa-a70d-bd25925074f6"
      ],
      "families": [
        "0377db02-3af6-43b8-9b08-c759df3d25c3"
      ],
      "groups": [
        "ae613721-1fbe-480d-ba6b-d6d0702b184d"
      ],
      "langs": [
        "4dcf9614-7914-42aa-99f4-dbce2e059133"
      ],
      "origins": [
        "c8ca9dea-d8b4-48fe-8427-d911653232e9"
      ],
      "series": [
        "e2e5c4b4-f493-425e-be27-9d3f0b5cd7f9"
      ],
      "singers": [
        "78d91182-ac66-49fb-9561-1d330667d6c4"
      ],
      "songtypes": [
        "38c77c56-2b95-4040-b676-0994a8cb0597"
      ],
      "songwriters": [
        "0b54e69d-4691-4415-be0e-0dd6fd5d4e1a",
        "84a20b00-fd06-43fd-b78e-9c1a2b7b7795"
      ],
      "franchises": [
        "91ed54e0-cff6-45f0-bd09-54eaffcab86a"
      ]
    },
    "titles": {
      "qro": "Uwagaki Sekai",
      "jpn": "上書き世界"
    },
    "titles_default_language": "qro",
    "title": "Uwagaki Sekai",
    "year": 2018
  }
}