{
  "header": {
    "version": 4,
    "description": "Karaoke Mugen Karaoke Data File"
  },
  "medias": [
    {
      "version": "Default",
      "filename": "JPN - Bannou Bunka Nekomusume - OVA OP1 - Watashi ni Happy Birthday.mp4",
      "audiogain": 3.01,
      "loudnorm": "-22.44,-8.63,13.20,-33.07,-1.59",
      "filesize": 24570363,
      "duration": 96,
      "default": true,
      "lyrics": [
        {
          "filename": "JPN - Bannou Bunka Nekomusume - OVA OP1 - Watashi ni Happy Birthday.ass",
          "default": true,
          "version": "Default",
          "subchecksum": "8333e26b1fb8429e74cf202f1ffb58a1"
        }
      ]
    }
  ],
  "data": {
    "created_at": "2021-03-08T15:53:10.807Z",
    "kid": "b2a46811-0790-45d4-818d-bee610bc868e",
    "modified_at": "2021-03-08T20:57:42.562Z",
    "repository": "kara.moe",
    "songorder": 1,
    "tags": {
      "authors": [
        "4d71ce82-eed1-4c44-ac85-5f7255f3dad3"
      ],
      "collections": [
        "c7db86a0-ff64-4044-9be4-66dd1ef1d1c1"
      ],
      "creators": [
        "77535c3f-22de-4b84-9654-92e597a2dfed"
      ],
      "families": [
        "0377db02-3af6-43b8-9b08-c759df3d25c3"
      ],
      "groups": [
        "24db50aa-a126-4d34-a48a-e45db79c4245"
      ],
      "langs": [
        "4dcf9614-7914-42aa-99f4-dbce2e059133"
      ],
      "origins": [
        "2a6ef087-a000-4f8e-aeb5-9a7968756a36"
      ],
      "series": [
        "b2fc7087-f2e0-4c62-af0e-2e1c9f4e2400"
      ],
      "singers": [
        "326621ef-f074-4b13-9921-9728c65a6dff"
      ],
      "songtypes": [
        "f02ad9b3-0bd9-4aad-85b3-9976739ba0e4"
      ],
      "songwriters": [
        "b424ad69-c619-4537-bf0b-326737dda311",
        "d21e85c1-31be-4ad6-bf2c-43802ebb89d8"
      ],
      "franchises": [
        "b2fc7087-f2e0-4c62-af0e-2e1c9f4e2400"
      ]
    },
    "title": "Watashi ni Happy Birthday",
    "titles": {
      "qro": "Watashi ni Happy Birthday",
      "jpn": "私にハッピーバースデイ"
    },
    "year": 1992,
    "titles_default_language": "qro"
  }
}