{
  "header": {
    "version": 4,
    "description": "Karaoke Mugen Karaoke Data File"
  },
  "medias": [
    {
      "version": "Default",
      "filename": "JPN - AKB0048 - AUDIO OP - Kibou ni Tsuite ~ Full Vers.mp3",
      "audiogain": -12.41,
      "loudnorm": "-6.32,1.70,5.40,-16.37,-0.90",
      "filesize": 4255498,
      "duration": 246,
      "default": true,
      "lyrics": [
        {
          "filename": "JPN - AKB0048 - AUDIO OP - Kibou ni Tsuite ~ Full Vers.ass",
          "default": true,
          "version": "Default"
        }
      ]
    }
  ],
  "data": {
    "created_at": "2023-01-03T21:12:32.333Z",
    "ignoreHooks": false,
    "kid": "8e6c78f1-dfee-4e54-9c48-2dc833d9bda1",
    "modified_at": "2023-01-03T21:12:32.431Z",
    "parents": [
      "9d1c7b4a-5980-411c-b9fb-814524cdfe7a"
    ],
    "repository": "kara.moe",
    "tags": {
      "authors": [
        "1db1738f-acdc-42fc-aec3-60f4bddf660d"
      ],
      "collections": [
        "c7db86a0-ff64-4044-9be4-66dd1ef1d1c1"
      ],
      "creators": [
        "0041fabf-4b82-4ecd-961b-e4c49b8c88be"
      ],
      "families": [
        "0377db02-3af6-43b8-9b08-c759df3d25c3"
      ],
      "genres": [
        "caa86df2-0d59-474b-885c-f240a9e891b0"
      ],
      "groups": [
        "ae613721-1fbe-480d-ba6b-d6d0702b184d"
      ],
      "langs": [
        "4dcf9614-7914-42aa-99f4-dbce2e059133"
      ],
      "origins": [
        "938de218-5343-4865-94d3-fb33f2eaa152"
      ],
      "series": [
        "bd559e4c-b15d-43e3-b340-1de2c302b0d7"
      ],
      "singers": [
        "5bbc56f1-c25e-4ba8-b95c-e8af0fb69ffe"
      ],
      "songtypes": [
        "f02ad9b3-0bd9-4aad-85b3-9976739ba0e4",
        "42a262ae-acba-4ab5-a446-c5789c96c821"
      ],
      "songwriters": [
        "0fee807e-e815-4883-bfb8-b0f79fac7629",
        "43b91a62-9255-424b-8595-6b026ec0999a"
      ],
      "versions": [
        "c2143a7f-6970-450e-8a79-0302db9220a9"
      ],
      "franchises": [
        "bd559e4c-b15d-43e3-b340-1de2c302b0d7"
      ]
    },
    "titles": {
      "jpn": "希望について",
      "qro": "Kibou ni Tsuite"
    },
    "titles_default_language": "qro",
    "year": 2012
  }
}