{
  "header": {
    "version": 4,
    "description": "Karaoke Mugen Karaoke Data File"
  },
  "medias": [
    {
      "version": "Default",
      "filename": "JPN - Miku Hatsune - MV - Dramaturgy.mp4",
      "audiogain": -11.57,
      "loudnorm": "-5.01,1.78,2.60,-15.16,-0.64",
      "filesize": 68113837,
      "duration": 245,
      "default": true,
      "lyrics": [
        {
          "filename": "JPN - Miku Hatsune - MV - Dramaturgy.ass",
          "default": true,
          "version": "Default"
        }
      ]
    }
  ],
  "data": {
    "created_at": "2022-01-16T17:50:56.073Z",
    "ignoreHooks": false,
    "kid": "4df62f82-35f7-4242-9708-8f99ceb4b8bd",
    "modified_at": "2022-08-22T20:02:06.511Z",
    "repository": "kara.moe",
    "tags": {
      "authors": [
        "f7ce702e-09aa-4b22-8742-0c99cd7a5409"
      ],
      "collections": [
        "c7db86a0-ff64-4044-9be4-66dd1ef1d1c1"
      ],
      "families": [
        "0377db02-3af6-43b8-9b08-c759df3d25c3"
      ],
      "genres": [
        "45623cae-6d68-4304-a49b-896d1d6f4580"
      ],
      "groups": [
        "2b4e9972-5e17-481b-99f5-d0787c0ada56",
        "ae613721-1fbe-480d-ba6b-d6d0702b184d"
      ],
      "langs": [
        "4dcf9614-7914-42aa-99f4-dbce2e059133"
      ],
      "singers": [
        "4407ba0e-5de7-4add-870f-7ac95a4804c9"
      ],
      "songtypes": [
        "7be1b15c-cff8-4b37-a649-5c90f3d569a9"
      ],
      "songwriters": [
        "a84f6a9f-4785-48bb-9f07-fdede3de7cae"
      ]
    },
    "titles": {
      "eng": "Dramaturgy",
      "jpn": "ドラマツルギー"
    },
    "titles_default_language": "eng",
    "title": "Dramaturgy",
    "year": 2017
  }
}