{
  "header": {
    "version": 4,
    "description": "Karaoke Mugen Karaoke Data File"
  },
  "medias": [
    {
      "version": "Default",
      "filename": "JPN - Dragon Ball Z Tenkaichi Budokai 3 - PS2 WII GAME OP - Super Survivor.mp4",
      "audiogain": -0.44,
      "loudnorm": "-17.76,-9.07,4.80,-27.92,-1.03",
      "filesize": 20305230,
      "duration": 93,
      "default": true,
      "lyrics": [
        {
          "filename": "JPN - Dragon Ball Z Tenkaichi Budokai 3 - PS2 WII GAME OP - Super Survivor.ass",
          "default": true,
          "version": "Default",
          "subchecksum": "476b9da27e8d7b4afed6c5c308371a9c"
        }
      ]
    }
  ],
  "data": {
    "created_at": "2019-12-22T19:09:18.522Z",
    "kid": "8c2e584a-0f12-46b3-afbc-bac4b2e9fc10",
    "modified_at": "2021-02-25T11:13:11.315Z",
    "repository": "kara.moe",
    "tags": {
      "authors": [
        "06852e02-b77e-4106-b6f7-2d03942ad0ea"
      ],
      "collections": [
        "c7db86a0-ff64-4044-9be4-66dd1ef1d1c1"
      ],
      "creators": [
        "c8177d98-c864-4c0d-900b-95fe4e1b8eb4"
      ],
      "families": [
        "dbedd6b3-d125-4cd8-aa32-c4175e4ca3a3"
      ],
      "genres": [
        "a0aeef4a-6428-45ff-a6e1-468b595930c2"
      ],
      "groups": [
        "3c14c864-533c-49e6-a3cc-6969f1233775"
      ],
      "langs": [
        "4dcf9614-7914-42aa-99f4-dbce2e059133"
      ],
      "platforms": [
        "2173004e-21da-45c9-9dfb-26014423c566",
        "78d46ef5-c98a-44dd-ad00-5d8c44b6271b"
      ],
      "series": [
        "83b792ab-d298-49a3-84c8-497f5267672c"
      ],
      "singers": [
        "162799fe-de2f-4f72-99a2-8c606aee4f2d"
      ],
      "songtypes": [
        "f02ad9b3-0bd9-4aad-85b3-9976739ba0e4"
      ],
      "songwriters": [
        "f29da5f3-027d-4eea-9abc-f8b99e93fce6"
      ],
      "franchises": [
        "c46f5c45-e15a-41b3-a3e6-a1ac023116e1"
      ]
    },
    "title": "Super Survivor",
    "titles": {
      "eng": "Super Survivor",
      "jpn": "スーパー・サバイバー"
    },
    "year": 2008,
    "titles_default_language": "eng"
  }
}