{
  "header": {
    "version": 4,
    "description": "Karaoke Mugen Karaoke Data File"
  },
  "medias": [
    {
      "version": "Default",
      "filename": "JPN - Ultraman Taiga - OP1 - Buddy, steady, go!.mp4",
      "audiogain": 4.19,
      "loudnorm": "-22.26,-5.39,4.30,-32.28,-0.38",
      "filesize": 27622729,
      "duration": 94,
      "default": true,
      "lyrics": [
        {
          "filename": "JPN - Ultraman Taiga - OP1 - Buddy, steady, go!.ass",
          "default": true,
          "version": "Default",
          "subchecksum": "8f81e8b98281a2938d5650c78e736df5"
        }
      ]
    }
  ],
  "data": {
    "created_at": "2019-07-18T19:25:25.000Z",
    "kid": "9a526e1d-34e1-4dd2-9d4d-a6264081801c",
    "modified_at": "2021-02-25T13:31:55.723Z",
    "repository": "kara.moe",
    "songorder": 1,
    "tags": {
      "authors": [
        "ef611801-6a99-482e-9b99-13ad3d3a0648"
      ],
      "collections": [
        "c7db86a0-ff64-4044-9be4-66dd1ef1d1c1"
      ],
      "creators": [
        "308ee11d-80d2-4870-9ff4-e042b72070ee"
      ],
      "families": [
        "5391f9fe-638c-415f-8dc9-958e3a2c5787"
      ],
      "groups": [
        "ae613721-1fbe-480d-ba6b-d6d0702b184d"
      ],
      "langs": [
        "4dcf9614-7914-42aa-99f4-dbce2e059133"
      ],
      "origins": [
        "28650021-2b2a-4a55-aff4-85dd4896c687",
        "938de218-5343-4865-94d3-fb33f2eaa152",
        "d3fac9ab-630d-402d-a392-3d2450c3e62e"
      ],
      "series": [
        "13657a63-8dd1-471a-940e-7eefe7835789"
      ],
      "singers": [
        "a5953838-93af-4574-b5ce-b8bc0c5b05f0"
      ],
      "songtypes": [
        "f02ad9b3-0bd9-4aad-85b3-9976739ba0e4"
      ],
      "songwriters": [
        "7145091d-e84a-43c2-a305-152647ac1fb0"
      ],
      "franchises": [
        "e0d0d8b0-bf67-40a0-b0c1-082cd4ccc58b"
      ]
    },
    "title": "Buddy, steady, go!",
    "titles": {
      "eng": "Buddy, steady, go!"
    },
    "year": 2019,
    "titles_default_language": "eng"
  }
}