{
  "header": {
    "version": 4,
    "description": "Karaoke Mugen Karaoke Data File"
  },
  "medias": [
    {
      "version": "Default",
      "filename": "JPN - Kenka Banchou Otome ~Kanzen Muketsu no My Honey~ - PSV GAME OP - TWO SOULS Atarashii Ashita e.mp4",
      "audiogain": -4.62,
      "loudnorm": "-11.45,-2.40,1.00,-21.78,-0.12",
      "filesize": 41199574,
      "duration": 92,
      "default": true,
      "lyrics": [
        {
          "filename": "JPN - Kenka Banchou Otome ~Kanzen Muketsu no My Honey~ - PSV GAME OP - TWO SOULS Atarashii Ashita e.ass",
          "default": true,
          "version": "Default",
          "subchecksum": "0fb87a6b16c9d3b22728e163c053b001"
        }
      ]
    }
  ],
  "data": {
    "created_at": "2019-12-30T15:41:58.585Z",
    "kid": "e31de39e-4e40-4e23-9da1-8d9c7ce3dbd8",
    "modified_at": "2021-02-25T11:57:52.245Z",
    "repository": "kara.moe",
    "tags": {
      "authors": [
        "2a9bbf75-0722-4b4a-9935-caa92f38fdd1"
      ],
      "collections": [
        "c7db86a0-ff64-4044-9be4-66dd1ef1d1c1"
      ],
      "creators": [
        "930330fc-79d4-464b-86d7-72cf60716fc6",
        "a52f4346-91ee-49ea-9ba4-97dfd4a5057b"
      ],
      "families": [
        "dbedd6b3-d125-4cd8-aa32-c4175e4ca3a3"
      ],
      "groups": [
        "ae613721-1fbe-480d-ba6b-d6d0702b184d"
      ],
      "langs": [
        "4dcf9614-7914-42aa-99f4-dbce2e059133"
      ],
      "origins": [
        "2f96e82c-c61b-4413-817e-e6b247509b95",
        "7025ae3c-7bd6-4787-8912-2c15063343bb"
      ],
      "platforms": [
        "e791f168-068f-4c05-aa36-e8d63726aa06"
      ],
      "series": [
        "d3d647df-ce29-4df0-bf72-3bdc9b945ec3"
      ],
      "singers": [
        "9c414b4c-422b-4857-b8fd-4556895a745c",
        "de21a500-3812-45af-aec7-356a7d76d2c5"
      ],
      "songtypes": [
        "f02ad9b3-0bd9-4aad-85b3-9976739ba0e4"
      ],
      "songwriters": [
        "08c827bc-7145-4fb0-b005-216fe3751ad0",
        "66339ced-7df9-40c8-aefd-59b2990df294"
      ],
      "franchises": [
        "9e367fa2-fb35-49fd-8d52-05b847f20373"
      ]
    },
    "title": "TWO SOULS Atarashii Ashita e",
    "titles": {
      "qro": "TWO SOULS Atarashii Ashita e",
      "jpn": "TWO SOULS 新しい明日へ"
    },
    "year": 2017,
    "titles_default_language": "qro"
  }
}