{
  "header": {
    "version": 4,
    "description": "Karaoke Mugen Karaoke Data File"
  },
  "medias": [
    {
      "version": "Default",
      "filename": "JPN - ZUTOMAYO - LIVE - Mune no Kemuri ~ Full Vers.mp4",
      "audiogain": 6.93,
      "loudnorm": "-24.58,-11.67,9.20,-34.97,-1.31",
      "filesize": 92276136,
      "duration": 259,
      "default": true,
      "lyrics": [
        {
          "filename": "JPN - ZUTOMAYO - LIVE - Mune no Kemuri ~ Full Vers.ass",
          "default": true,
          "version": "Default"
        }
      ]
    }
  ],
  "data": {
    "created_at": "2021-10-15T19:05:34.824Z",
    "ignoreHooks": false,
    "kid": "4412a2bd-0034-4252-8f4e-ba7761e9c868",
    "modified_at": "2022-12-21T22:36:31.841Z",
    "parents": [
      "17566bbb-127f-455d-86ef-a307807792c0"
    ],
    "repository": "kara.moe",
    "tags": {
      "authors": [
        "5e93f02a-bcd1-40a9-ba7a-91ada6683aea",
        "90698f28-1d62-4673-82c4-33ae96b1ba97"
      ],
      "collections": [
        "dbcf2c22-524d-4708-99bb-601703633927"
      ],
      "creators": [
        "7063573e-c832-44d1-86f3-6673e452a8f1"
      ],
      "families": [
        "5391f9fe-638c-415f-8dc9-958e3a2c5787"
      ],
      "groups": [
        "8e209ae4-4381-438f-89dc-1b21752027d2"
      ],
      "langs": [
        "4dcf9614-7914-42aa-99f4-dbce2e059133"
      ],
      "singers": [
        "d3f693d0-7d45-465e-82ed-a6723c600008"
      ],
      "singergroups": [
        "c7d361f6-c1cf-44b2-b40a-a18aa90f2d8f"
      ],
      "songtypes": [
        "a0167949-580c-4de3-bf13-497e462e02f3"
      ],
      "songwriters": [
        "c7d361f6-c1cf-44b2-b40a-a18aa90f2d8f"
      ],
      "versions": [
        "c2143a7f-6970-450e-8a79-0302db9220a9"
      ]
    },
    "titles": {
      "eng": "One's Mind",
      "jpn": "胸の煙",
      "qro": "Mune no Kemuri"
    },
    "titles_default_language": "qro",
    "year": 2021
  }
}