{
  "header": {
    "version": 4,
    "description": "Karaoke Mugen Karaoke Data File"
  },
  "medias": [
    {
      "version": "Default",
      "filename": "JPN - Miku Hatsune - MV - Mahou shoujo to chocolate ~ Off Vocal Vers.mp4",
      "audiogain": -6.28,
      "loudnorm": "-10.98,4.92,4.50,-21.23,-0.78",
      "filesize": 37296769,
      "duration": 187,
      "default": true,
      "lyrics": [
        {
          "filename": "JPN - Miku Hatsune - MV - Mahou shoujo to chocolate ~ Off Vocal Vers.ass",
          "default": true,
          "version": "Default"
        }
      ]
    }
  ],
  "data": {
    "created_at": "2022-12-27T21:16:09.685Z",
    "ignoreHooks": false,
    "kid": "bbe90eeb-fd49-4f1e-8323-ae7d492702da",
    "modified_at": "2022-12-27T21:16:09.850Z",
    "parents": [
      "61b8d155-3514-48ee-a8c7-ea78541957e4"
    ],
    "repository": "kara.moe",
    "tags": {
      "authors": [
        "84157b43-8a7a-482c-95d3-516757353835"
      ],
      "collections": [
        "c7db86a0-ff64-4044-9be4-66dd1ef1d1c1"
      ],
      "families": [
        "0377db02-3af6-43b8-9b08-c759df3d25c3"
      ],
      "genres": [
        "45623cae-6d68-4304-a49b-896d1d6f4580"
      ],
      "groups": [
        "8e209ae4-4381-438f-89dc-1b21752027d2"
      ],
      "langs": [
        "4dcf9614-7914-42aa-99f4-dbce2e059133"
      ],
      "singers": [
        "4407ba0e-5de7-4add-870f-7ac95a4804c9"
      ],
      "songtypes": [
        "7be1b15c-cff8-4b37-a649-5c90f3d569a9"
      ],
      "songwriters": [
        "1fbbae0a-e960-4869-aae1-512a064e94ca"
      ],
      "versions": [
        "c0cc87b9-55b9-40f0-878a-fbb9e34c151e"
      ]
    },
    "titles": {
      "eng": "Magical girl and chocolate",
      "jpn": "魔法少女とチョコレゐト",
      "qro": "Mahou shoujo to chocolate"
    },
    "titles_default_language": "qro",
    "year": 2022
  }
}