{
  "header": {
    "version": 4,
    "description": "Karaoke Mugen Karaoke Data File"
  },
  "medias": [
    {
      "version": "Default",
      "filename": "JPN - Bravely Second End Layer - 3DS GAME OP - Great Distance.mp4",
      "audiogain": -12.42,
      "loudnorm": "-4.74,2.52,3.40,-15.08,-0.09",
      "filesize": 82274754,
      "duration": 112,
      "default": true,
      "lyrics": [
        {
          "filename": "JPN - Bravely Second End Layer - 3DS GAME OP - Great Distance.ass",
          "default": true,
          "version": "Default",
          "subchecksum": "277729c3a6f8f2edd5c845b9a2b1dfb9"
        }
      ]
    }
  ],
  "data": {
    "created_at": "2017-10-11T17:01:19.000Z",
    "kid": "b6d90b46-1866-4134-ba2e-1cb5115e7f52",
    "modified_at": "2021-02-25T10:56:48.729Z",
    "repository": "kara.moe",
    "tags": {
      "authors": [
        "5bdaba57-27f8-4568-8806-76a807728766"
      ],
      "collections": [
        "c7db86a0-ff64-4044-9be4-66dd1ef1d1c1"
      ],
      "creators": [
        "684c9f3d-979b-410f-8626-51f03da12df0"
      ],
      "families": [
        "dbedd6b3-d125-4cd8-aa32-c4175e4ca3a3"
      ],
      "groups": [
        "ae613721-1fbe-480d-ba6b-d6d0702b184d"
      ],
      "langs": [
        "4dcf9614-7914-42aa-99f4-dbce2e059133"
      ],
      "misc": [
        "fe819ff1-9db8-4a0f-85dc-0e322c9126c4"
      ],
      "platforms": [
        "d7393757-7de7-4247-ba59-120b3ceea9bf"
      ],
      "series": [
        "fe8481a1-0027-4787-b7e2-74b9a0837308"
      ],
      "singers": [
        "8a497784-ffdb-4ec7-810e-252c51d144d2"
      ],
      "songtypes": [
        "f02ad9b3-0bd9-4aad-85b3-9976739ba0e4"
      ],
      "songwriters": [
        "b269bf90-79fc-4167-a78d-e22328df4ee0"
      ],
      "franchises": [
        "9eb88605-6b3f-48fa-b3f6-6dbdcb1b0046"
      ]
    },
    "title": "Great Distance",
    "titles": {
      "eng": "Great Distance"
    },
    "year": 2015,
    "titles_default_language": "eng"
  }
}