{
  "header": {
    "version": 4,
    "description": "Karaoke Mugen Karaoke Data File"
  },
  "medias": [
    {
      "version": "Default",
      "filename": "JPN - Final Fantasy XIII - PS3 XBOX360 PC GAME AMV - Kimi ga Iru Kara.mp4",
      "audiogain": -5.24,
      "loudnorm": "-12.13,-4.03,8.50,-22.32,-1.46",
      "filesize": 117866610,
      "duration": 354,
      "default": true,
      "lyrics": [
        {
          "filename": "JPN - Final Fantasy XIII - PS3 XBOX360 PC GAME AMV - Kimi ga Iru Kara.ass",
          "default": true,
          "version": "Default",
          "subchecksum": "b5d8d465ab5af90c397d0ffc055ed6d6"
        }
      ]
    }
  ],
  "data": {
    "created_at": "2020-08-08T17:50:48.106Z",
    "kid": "c6cfd3a2-52c4-4d73-ba20-43335e04565e",
    "modified_at": "2021-02-25T11:20:16.455Z",
    "repository": "kara.moe",
    "tags": {
      "authors": [
        "60defa7b-774e-4680-8321-51b742c2e009"
      ],
      "collections": [
        "c7db86a0-ff64-4044-9be4-66dd1ef1d1c1"
      ],
      "creators": [
        "ac4a5180-97af-4679-adcd-70ab39919d48"
      ],
      "families": [
        "dbedd6b3-d125-4cd8-aa32-c4175e4ca3a3"
      ],
      "groups": [
        "3c14c864-533c-49e6-a3cc-6969f1233775",
        "60defa7b-774e-4680-8321-51b742c2e009"
      ],
      "langs": [
        "4dcf9614-7914-42aa-99f4-dbce2e059133"
      ],
      "misc": [
        "86705d4b-24e4-4756-9687-2b9c98bcf366"
      ],
      "platforms": [
        "3c15f758-e1bc-4266-8bb9-3c14112f504a",
        "7f63ff91-7961-4488-888d-4bf46eea3a2a",
        "d56f8d9d-9ccd-4ac8-a164-da0e62d1c060"
      ],
      "series": [
        "8a3acc0c-66de-4813-b278-29defd687ea5"
      ],
      "singers": [
        "d9138eac-b2d0-4c3c-a5f5-5121ae50d18d"
      ],
      "songtypes": [
        "a6c79ce5-89ee-4d50-afe8-3abd7317f6c2"
      ],
      "songwriters": [
        "50a8a66c-cb32-468e-a1cd-ce57dbada67a",
        "d9138eac-b2d0-4c3c-a5f5-5121ae50d18d",
        "fe94bf15-b295-47dc-9905-d86ad2be82f7"
      ],
      "franchises": [
        "595c5b14-54f8-4885-a689-02296506a704"
      ]
    },
    "title": "Kimi ga Iru Kara",
    "titles": {
      "qro": "Kimi ga Iru Kara",
      "jpn": "君がいるから"
    },
    "year": 2009,
    "titles_default_language": "qro"
  }
}