{
  "header": {
    "version": 4,
    "description": "Karaoke Mugen Karaoke Data File"
  },
  "medias": [
    {
      "version": "Default",
      "filename": "JPN - Black Wolves Saga -Last Hope- - PSP GAME OP - Tears.mp4",
      "audiogain": -8.25,
      "loudnorm": "-10.96,0.89,16.80,-22.13,-1.37",
      "filesize": 57617634,
      "duration": 146,
      "default": true,
      "lyrics": [
        {
          "filename": "JPN - Black Wolves Saga -Last Hope- - PSP GAME OP - Tears.ass",
          "default": true,
          "version": "Default",
          "subchecksum": "4c526a5b60e5cdf5dfc8af35fbe9b442"
        }
      ]
    }
  ],
  "data": {
    "created_at": "2020-01-15T23:17:03.911Z",
    "kid": "b8c0db89-86ae-4de5-aaa7-fd708e0595d8",
    "modified_at": "2021-02-25T10:53:25.578Z",
    "repository": "kara.moe",
    "tags": {
      "authors": [
        "2a9bbf75-0722-4b4a-9935-caa92f38fdd1"
      ],
      "collections": [
        "c7db86a0-ff64-4044-9be4-66dd1ef1d1c1"
      ],
      "creators": [
        "0a0e4a48-34fa-4892-8ff0-0307e778f9ec",
        "98ab71c6-8066-4d59-84a2-9833a27ec461"
      ],
      "families": [
        "dbedd6b3-d125-4cd8-aa32-c4175e4ca3a3"
      ],
      "groups": [
        "ae613721-1fbe-480d-ba6b-d6d0702b184d"
      ],
      "langs": [
        "4dcf9614-7914-42aa-99f4-dbce2e059133"
      ],
      "origins": [
        "2f96e82c-c61b-4413-817e-e6b247509b95",
        "7025ae3c-7bd6-4787-8912-2c15063343bb"
      ],
      "platforms": [
        "6b101aff-4b7b-4b0d-b35e-0f1b67e38c9b"
      ],
      "series": [
        "2640c1dc-cc64-40f0-9008-55142d568a20"
      ],
      "singers": [
        "d6850099-08fa-4fe4-aa3a-aae9a2627095"
      ],
      "songtypes": [
        "f02ad9b3-0bd9-4aad-85b3-9976739ba0e4"
      ],
      "songwriters": [
        "c41cb891-206a-45e5-bf1c-5b98f2958b89",
        "e19520b5-c98c-493b-ac8d-a0a7a92562a5"
      ],
      "franchises": [
        "64b03657-f0f5-4d8d-935d-1ba4c5ed1d5a"
      ]
    },
    "title": "Tears",
    "titles": {
      "eng": "Tears"
    },
    "year": 2012,
    "titles_default_language": "eng"
  }
}