{
  "header": {
    "version": 4,
    "description": "Karaoke Mugen Karaoke Data File"
  },
  "medias": [
    {
      "version": "Default",
      "filename": "JPN - Kousoku Sentai Turboranger - ED - Zigzag Seishun Road.mp4",
      "audiogain": -4.29,
      "loudnorm": "-13.61,-1.03,2.40,-23.71,-0.57",
      "filesize": 10801977,
      "duration": 61,
      "default": true,
      "lyrics": [
        {
          "filename": "JPN - Kousoku Sentai Turboranger - ED - Zigzag Seishun Road.ass",
          "default": true,
          "version": "Default",
          "subchecksum": "53d7e06339e914fcacda21e5385d9b1f"
        }
      ]
    }
  ],
  "data": {
    "created_at": "2018-11-28T21:09:03.000Z",
    "kid": "f703e201-0c98-4e97-85a2-e23e3a3c51d8",
    "modified_at": "2021-02-25T12:06:54.159Z",
    "repository": "kara.moe",
    "tags": {
      "authors": [
        "4607780c-f1ef-47cf-9c1c-b13e8f731699"
      ],
      "collections": [
        "c7db86a0-ff64-4044-9be4-66dd1ef1d1c1"
      ],
      "creators": [
        "e32b14df-502b-45fa-9ca5-37554a63a4d7"
      ],
      "families": [
        "5391f9fe-638c-415f-8dc9-958e3a2c5787"
      ],
      "groups": [
        "7792cc27-9ff9-4d47-9287-2338b7db1575"
      ],
      "langs": [
        "4dcf9614-7914-42aa-99f4-dbce2e059133"
      ],
      "origins": [
        "938de218-5343-4865-94d3-fb33f2eaa152",
        "d3fac9ab-630d-402d-a392-3d2450c3e62e"
      ],
      "series": [
        "3028c398-e37c-4015-85a7-681a84eb8526"
      ],
      "singers": [
        "02b17cfc-5b8a-4bdd-aedc-8327e2d70ea4"
      ],
      "songtypes": [
        "38c77c56-2b95-4040-b676-0994a8cb0597"
      ],
      "songwriters": [
        "6e2e4ec0-5729-4745-abca-7c22dfc412a3",
        "f7cacb7e-2325-4572-8d4e-53660475eea5"
      ]
    },
    "title": "Zigzag Seishun Road",
    "titles": {
      "qro": "Zigzag Seishun Road",
      "jpn": "ジグザグ青春ロード"
    },
    "year": 1989,
    "titles_default_language": "qro"
  }
}