{
  "header": {
    "version": 4,
    "description": "Karaoke Mugen Karaoke Data File"
  },
  "medias": [
    {
      "version": "Default",
      "filename": "JPN - Little Busters! EX - GAME OP - Little Busters! -ecstasy ver.- ~ Alternative Vers.mp4",
      "audiogain": -9.09,
      "loudnorm": "-7.92,1.45,4.40,-18.00,-0.89",
      "filesize": 28101652,
      "duration": 214,
      "default": true,
      "lyrics": [
        {
          "filename": "JPN - Little Busters! EX - GAME OP - Little Busters! -ecstasy ver.- ~ Alternative Vers.ass",
          "default": true,
          "version": "Default",
          "subchecksum": "6a9a12dd0254701067408cde9976a43f"
        }
      ]
    }
  ],
  "data": {
    "created_at": "2017-10-11T17:02:07.000Z",
    "kid": "3a0a777e-4be4-4a14-a7e3-c98efe3975b6",
    "modified_at": "2021-05-20T11:30:11.249Z",
    "parents": [
      "ad72c371-5176-4ed2-b6e4-709df1a0512b"
    ],
    "repository": "kara.moe",
    "tags": {
      "authors": [
        "5bdaba57-27f8-4568-8806-76a807728766"
      ],
      "collections": [
        "c7db86a0-ff64-4044-9be4-66dd1ef1d1c1"
      ],
      "creators": [
        "4dd6987d-3036-4454-859b-ff18954541bf"
      ],
      "families": [
        "dbedd6b3-d125-4cd8-aa32-c4175e4ca3a3"
      ],
      "groups": [
        "3c14c864-533c-49e6-a3cc-6969f1233775"
      ],
      "langs": [
        "4dcf9614-7914-42aa-99f4-dbce2e059133"
      ],
      "origins": [
        "2f96e82c-c61b-4413-817e-e6b247509b95"
      ],
      "series": [
        "10817648-abe8-4921-8956-387c33843557"
      ],
      "singers": [
        "5f15d417-cdd0-4dc2-ace1-446d7971cf07"
      ],
      "songtypes": [
        "f02ad9b3-0bd9-4aad-85b3-9976739ba0e4"
      ],
      "songwriters": [
        "6f9382dc-3b8f-4948-899c-23477cd9e23b",
        "c1729905-5c2e-4d65-91f0-47543e8978af"
      ],
      "versions": [
        "9f63c359-d1bf-425a-bcf5-b245c2c9211d"
      ],
      "franchises": [
        "c33b20b0-fa9f-49cc-bc3c-e6c499dad264"
      ]
    },
    "title": "Little Busters! -ecstasy ver.-",
    "titles": {
      "eng": "Little Busters! -ecstasy ver.-",
      "jpn": "リトルバスターズ! -ecstasy ver.-"
    },
    "year": 2008,
    "titles_default_language": "eng"
  }
}