{
  "header": {
    "version": 4,
    "description": "Karaoke Mugen Karaoke Data File"
  },
  "medias": [
    {
      "version": "Default",
      "filename": "JPN - Furi Kuri - MV - Instant Music ~ Full Vers.mp4",
      "audiogain": -7.9,
      "loudnorm": "-8.66,0.94,1.70,-18.78,-0.53",
      "filesize": 17182915,
      "duration": 196,
      "default": true,
      "lyrics": [
        {
          "filename": "JPN - Furi Kuri - MV - Instant Music ~ Full Vers.ass",
          "default": true,
          "version": "Default"
        }
      ]
    }
  ],
  "data": {
    "created_at": "2019-09-27T17:42:27.000Z",
    "ignoreHooks": false,
    "kid": "f5848c93-0457-4275-b3a1-43a4e51300d1",
    "modified_at": "2022-04-10T20:46:31.813Z",
    "parents": [
      "c788d20a-5e5c-4e3e-ae19-e457d9f36095"
    ],
    "repository": "kara.moe",
    "tags": {
      "authors": [
        "4b834f78-16da-4e4d-926f-b93968affb69"
      ],
      "collections": [
        "c7db86a0-ff64-4044-9be4-66dd1ef1d1c1"
      ],
      "creators": [
        "d2a29c19-019f-4a3d-86ad-2dae9e41a4b1"
      ],
      "families": [
        "0377db02-3af6-43b8-9b08-c759df3d25c3"
      ],
      "groups": [
        "24db50aa-a126-4d34-a48a-e45db79c4245",
        "2b4e9972-5e17-481b-99f5-d0787c0ada56"
      ],
      "langs": [
        "4dcf9614-7914-42aa-99f4-dbce2e059133"
      ],
      "series": [
        "1159dad7-17ad-4591-b491-bba67e159a78"
      ],
      "singers": [
        "278eeffa-7d51-48a4-85a7-b10843f26cdf"
      ],
      "songtypes": [
        "7be1b15c-cff8-4b37-a649-5c90f3d569a9"
      ],
      "songwriters": [
        "278eeffa-7d51-48a4-85a7-b10843f26cdf",
        "2e1412e6-9db8-40f5-a4dd-a8afc37f285d",
        "bf7b2f04-a4b3-4c68-9f4f-7cac09a299bb"
      ],
      "versions": [
        "c2143a7f-6970-450e-8a79-0302db9220a9"
      ],
      "franchises": [
        "2fa2c26f-c630-4c9d-89f4-4e08ddb3f348"
      ]
    },
    "titles": {
      "eng": "Instant Music"
    },
    "titles_default_language": "eng",
    "title": "Instant Music",
    "year": 1999
  }
}