{
  "header": {
    "version": 4,
    "description": "Karaoke Mugen Karaoke Data File"
  },
  "medias": [
    {
      "version": "Default",
      "filename": "JPN - Brothers Conflict Passion Pink - PSP GAME OP - AFFECTIONS.mp4",
      "audiogain": -7.34,
      "loudnorm": "-10.30,0.63,5.60,-20.36,-0.64",
      "filesize": 24238707,
      "duration": 100,
      "default": true,
      "lyrics": [
        {
          "filename": "JPN - Brothers Conflict Passion Pink - PSP GAME OP - AFFECTIONS.ass",
          "default": true,
          "version": "Default",
          "subchecksum": "c75aeef10a8d10706ba941e680b36551"
        }
      ]
    }
  ],
  "data": {
    "created_at": "2019-03-18T21:07:52.000Z",
    "kid": "871edd57-bf44-4637-ad60-8bacda93ca6a",
    "modified_at": "2021-02-25T10:57:07.205Z",
    "repository": "kara.moe",
    "tags": {
      "authors": [
        "2a9bbf75-0722-4b4a-9935-caa92f38fdd1"
      ],
      "collections": [
        "c7db86a0-ff64-4044-9be4-66dd1ef1d1c1"
      ],
      "creators": [
        "98ab71c6-8066-4d59-84a2-9833a27ec461"
      ],
      "families": [
        "dbedd6b3-d125-4cd8-aa32-c4175e4ca3a3"
      ],
      "groups": [
        "ae613721-1fbe-480d-ba6b-d6d0702b184d"
      ],
      "langs": [
        "4dcf9614-7914-42aa-99f4-dbce2e059133"
      ],
      "origins": [
        "2f96e82c-c61b-4413-817e-e6b247509b95",
        "7025ae3c-7bd6-4787-8912-2c15063343bb"
      ],
      "platforms": [
        "6b101aff-4b7b-4b0d-b35e-0f1b67e38c9b"
      ],
      "series": [
        "b2ef2a84-9d38-4d86-b55b-36342c561281"
      ],
      "singers": [
        "1b061bf9-73e5-4365-b3f3-c31872fd8dab",
        "25b5b099-190e-4322-b0a8-04f4048d4ac8"
      ],
      "songtypes": [
        "f02ad9b3-0bd9-4aad-85b3-9976739ba0e4"
      ],
      "songwriters": [
        "72691741-9993-4a2c-a30b-4346a674ddd9",
        "732c6ea7-d746-4ae5-abe8-387085eac132"
      ],
      "franchises": [
        "75f9df2e-2765-4f44-b4d4-7c3501d3f441"
      ]
    },
    "title": "AFFECTIONS",
    "titles": {
      "eng": "AFFECTIONS"
    },
    "year": 2012,
    "titles_default_language": "eng"
  }
}