{
  "header": {
    "version": 4,
    "description": "Karaoke Mugen Karaoke Data File"
  },
  "medias": [
    {
      "version": "Default",
      "filename": "JPN - Kanojo, Okarishimasu - ED2 - FIRST DROP.mp4",
      "audiogain": -0.94,
      "loudnorm": "-16.11,-4.87,6.50,-26.19,-0.61",
      "filesize": 11247321,
      "duration": 90,
      "default": true,
      "lyrics": [
        {
          "filename": "JPN - Kanojo, Okarishimasu - ED2 - FIRST DROP.ass",
          "default": true,
          "version": "Default",
          "subchecksum": "eccbd783df0e90304055ab16a013d22c"
        }
      ]
    }
  ],
  "data": {
    "created_at": "2020-08-29T12:42:35.621Z",
    "kid": "ca9bf462-b5bf-4a5c-9997-3928da9cb033",
    "modified_at": "2021-02-25T11:54:45.158Z",
    "repository": "kara.moe",
    "songorder": 2,
    "tags": {
      "authors": [
        "87096920-112f-485f-a310-04156cb4624d"
      ],
      "collections": [
        "c7db86a0-ff64-4044-9be4-66dd1ef1d1c1"
      ],
      "creators": [
        "53e900ec-a1ff-4c95-8b2d-a63995c2936f"
      ],
      "families": [
        "0377db02-3af6-43b8-9b08-c759df3d25c3"
      ],
      "groups": [
        "60defa7b-774e-4680-8321-51b742c2e009",
        "8e209ae4-4381-438f-89dc-1b21752027d2"
      ],
      "langs": [
        "4dcf9614-7914-42aa-99f4-dbce2e059133"
      ],
      "origins": [
        "938de218-5343-4865-94d3-fb33f2eaa152"
      ],
      "series": [
        "930b0da5-ab03-4c81-ab32-b4e25dd9d39d"
      ],
      "singers": [
        "265b72f0-d4a6-4c0d-a88b-7ba9100e9d4c"
      ],
      "songtypes": [
        "38c77c56-2b95-4040-b676-0994a8cb0597"
      ],
      "songwriters": [
        "2ef719a2-4c10-4e01-a7e6-d3cd2a3fac7c",
        "dc1018ff-a0eb-4068-9a76-68d7fba7318d"
      ]
    },
    "title": "FIRST DROP",
    "titles": {
      "eng": "FIRST DROP"
    },
    "year": 2020,
    "titles_default_language": "eng"
  }
}