{
  "header": {
    "version": 4,
    "description": "Karaoke Mugen Karaoke Data File"
  },
  "medias": [
    {
      "version": "Default",
      "filename": "JPN - Tales of The Abyss - PS2 GAME OP - Karma.mp4",
      "audiogain": -4.97,
      "loudnorm": "-12.88,-0.32,7.10,-23.02,-0.74",
      "filesize": 21530088,
      "duration": 148,
      "default": true,
      "lyrics": [
        {
          "filename": "JPN - Tales of The Abyss - PS2 GAME OP - Karma.ass",
          "default": true,
          "version": "Default",
          "subchecksum": "1e64067a0fdb398c9770fae714db9345"
        }
      ]
    }
  ],
  "data": {
    "created_at": "2017-10-11T15:03:13.000Z",
    "kid": "978e5019-b666-4b09-86fd-988cf661e642",
    "modified_at": "2021-02-25T13:16:57.405Z",
    "repository": "kara.moe",
    "tags": {
      "authors": [
        "5bdaba57-27f8-4568-8806-76a807728766"
      ],
      "collections": [
        "c7db86a0-ff64-4044-9be4-66dd1ef1d1c1"
      ],
      "creators": [
        "7e37aea2-311a-4b93-8059-ba7a8fad65d9"
      ],
      "families": [
        "dbedd6b3-d125-4cd8-aa32-c4175e4ca3a3"
      ],
      "groups": [
        "3c14c864-533c-49e6-a3cc-6969f1233775"
      ],
      "langs": [
        "4dcf9614-7914-42aa-99f4-dbce2e059133"
      ],
      "platforms": [
        "2173004e-21da-45c9-9dfb-26014423c566"
      ],
      "series": [
        "e5d63121-29d4-45a5-aac1-79587118a1ee"
      ],
      "singers": [
        "a027724c-6136-4dc1-b585-7ae8f780c8d2"
      ],
      "songtypes": [
        "f02ad9b3-0bd9-4aad-85b3-9976739ba0e4"
      ],
      "songwriters": [
        "20a392bf-0517-4d22-a08c-46345d1077fe"
      ],
      "franchises": [
        "457ab7f6-9644-4493-b61b-8778400aaf54"
      ]
    },
    "title": "Karma",
    "titles": {
      "qro": "Karma",
      "jpn": "カルマ"
    },
    "year": 2005,
    "titles_default_language": "qro"
  }
}