{
  "header": {
    "version": 4,
    "description": "Karaoke Mugen Karaoke Data File"
  },
  "medias": [
    {
      "version": "Default",
      "filename": "JPN - Macross Frontier - OP1 - Triangler.mp4",
      "audiogain": -7.52,
      "loudnorm": "-10.66,-0.23,5.20,-20.82,-0.47",
      "filesize": 32715563,
      "duration": 92,
      "default": true,
      "lyrics": [
        {
          "filename": "JPN - Macross Frontier - OP1 - Triangler.ass",
          "default": true,
          "version": "Default",
          "subchecksum": "d7c062eff2277f198784dbdec7b17e6a"
        }
      ]
    }
  ],
  "data": {
    "created_at": "2017-10-11T17:01:59.000Z",
    "kid": "14ffa8cd-c8a0-4f5e-969d-949be947997a",
    "modified_at": "2021-02-25T12:17:15.320Z",
    "repository": "kara.moe",
    "songorder": 1,
    "tags": {
      "authors": [
        "5bdaba57-27f8-4568-8806-76a807728766"
      ],
      "collections": [
        "c7db86a0-ff64-4044-9be4-66dd1ef1d1c1"
      ],
      "creators": [
        "0041fabf-4b82-4ecd-961b-e4c49b8c88be"
      ],
      "families": [
        "0377db02-3af6-43b8-9b08-c759df3d25c3"
      ],
      "genres": [
        "caa86df2-0d59-474b-885c-f240a9e891b0",
        "f60ba57d-5ef4-49e0-b93b-d0dcbcff6592"
      ],
      "groups": [
        "3c14c864-533c-49e6-a3cc-6969f1233775"
      ],
      "langs": [
        "4dcf9614-7914-42aa-99f4-dbce2e059133"
      ],
      "misc": [
        "fe819ff1-9db8-4a0f-85dc-0e322c9126c4"
      ],
      "origins": [
        "938de218-5343-4865-94d3-fb33f2eaa152"
      ],
      "series": [
        "2d597a9c-87d8-4da3-a258-7c510480530a"
      ],
      "singers": [
        "1e93160f-11bb-4d02-b716-4660cb29206e"
      ],
      "songtypes": [
        "f02ad9b3-0bd9-4aad-85b3-9976739ba0e4"
      ],
      "songwriters": [
        "54000730-0779-445e-b865-bf6cf2175579",
        "af0be06d-ea2d-4f46-85d1-58cf9f42532a"
      ],
      "franchises": [
        "01b9b958-2d2a-43d0-a5dd-efb5b14675ea"
      ]
    },
    "title": "Triangler",
    "titles": {
      "eng": "Triangler",
      "jpn": "トライアングラー"
    },
    "year": 2008,
    "titles_default_language": "eng"
  }
}