{
  "header": {
    "version": 4,
    "description": "Karaoke Mugen Karaoke Data File"
  },
  "medias": [
    {
      "version": "Default",
      "filename": "JPN - ChaoS HEAd NoAH - GAME XBOX360 OP - fake me.avi",
      "audiogain": -8.65,
      "loudnorm": "-9.66,1.21,7.60,-19.70,-2.38",
      "filesize": 13500186,
      "duration": 109,
      "default": true,
      "lyrics": [
        {
          "filename": "JPN - ChaoS HEAd NoAH - GAME XBOX360 OP - fake me.ass",
          "default": true,
          "version": "Default"
        }
      ]
    }
  ],
  "data": {
    "created_at": "2017-10-11T17:02:29.000Z",
    "ignoreHooks": false,
    "kid": "0b509faa-7c40-4b36-a2fb-b3221d303e9b",
    "modified_at": "2022-08-23T18:07:25.117Z",
    "repository": "kara.moe",
    "tags": {
      "authors": [
        "5bdaba57-27f8-4568-8806-76a807728766"
      ],
      "collections": [
        "c7db86a0-ff64-4044-9be4-66dd1ef1d1c1"
      ],
      "creators": [
        "7a8ad2ad-018d-4341-9be4-77bfc39a6edd"
      ],
      "families": [
        "dbedd6b3-d125-4cd8-aa32-c4175e4ca3a3"
      ],
      "groups": [
        "3c14c864-533c-49e6-a3cc-6969f1233775"
      ],
      "langs": [
        "4dcf9614-7914-42aa-99f4-dbce2e059133"
      ],
      "origins": [
        "2f96e82c-c61b-4413-817e-e6b247509b95"
      ],
      "platforms": [
        "d56f8d9d-9ccd-4ac8-a164-da0e62d1c060"
      ],
      "series": [
        "fdc685eb-cf1c-4e28-9363-a9207d083648"
      ],
      "singers": [
        "3b97f60d-23e3-4e23-bf7f-9835bba682a7"
      ],
      "songtypes": [
        "f02ad9b3-0bd9-4aad-85b3-9976739ba0e4"
      ],
      "songwriters": [
        "66339ced-7df9-40c8-aefd-59b2990df294"
      ],
      "franchises": [
        "73f7aa30-d9e9-4365-9e19-a7bb63e9a6b6"
      ]
    },
    "titles": {
      "eng": "fake me"
    },
    "titles_default_language": "eng",
    "title": "fake me",
    "year": 2008
  }
}