{
  "header": {
    "version": 4,
    "description": "Karaoke Mugen Karaoke Data File"
  },
  "medias": [
    {
      "version": "Default",
      "filename": "JPN - Nisekoi 2 - ED7 - Crayon Cover.mp4",
      "audiogain": -5.83,
      "loudnorm": "-11.26,-0.11,2.90,-21.37,-0.37",
      "filesize": 75369994,
      "duration": 91,
      "default": true,
      "lyrics": [
        {
          "filename": "JPN - Nisekoi 2 - ED7 - Crayon Cover.ass",
          "default": true,
          "version": "Default",
          "subchecksum": "817070183d6b8587c6c98d2be4efa553"
        }
      ]
    }
  ],
  "data": {
    "created_at": "2017-10-11T17:01:29.000Z",
    "kid": "ff815193-dc54-45d3-a31d-6e416d1402e1",
    "modified_at": "2021-02-25T12:37:32.888Z",
    "repository": "kara.moe",
    "songorder": 7,
    "tags": {
      "authors": [
        "6bebcb04-2694-453c-9e0c-eb1a2e2718d9"
      ],
      "collections": [
        "c7db86a0-ff64-4044-9be4-66dd1ef1d1c1"
      ],
      "creators": [
        "c3bd80ef-d1fe-427f-913f-a2ba2fe66114"
      ],
      "families": [
        "0377db02-3af6-43b8-9b08-c759df3d25c3"
      ],
      "genres": [
        "a0aeef4a-6428-45ff-a6e1-468b595930c2"
      ],
      "groups": [
        "ae613721-1fbe-480d-ba6b-d6d0702b184d"
      ],
      "langs": [
        "4dcf9614-7914-42aa-99f4-dbce2e059133"
      ],
      "origins": [
        "938de218-5343-4865-94d3-fb33f2eaa152"
      ],
      "series": [
        "f58f1a35-c793-492d-bd2a-1a06735e03ca"
      ],
      "singers": [
        "458739df-9990-45ea-a8e7-ae6348c7534d"
      ],
      "songtypes": [
        "38c77c56-2b95-4040-b676-0994a8cb0597"
      ],
      "songwriters": [
        "b4279339-b1d8-4da7-8bf9-1f6d5b69be11"
      ],
      "franchises": [
        "648dcd60-220b-4211-a8ce-23086723374b"
      ]
    },
    "title": "Crayon Cover",
    "titles": {
      "eng": "Crayon Cover",
      "jpn": "クレヨンカバー"
    },
    "year": 2015,
    "titles_default_language": "eng"
  }
}