{
  "header": {
    "version": 4,
    "description": "Karaoke Mugen Karaoke Data File"
  },
  "medias": [
    {
      "version": "Default",
      "filename": "JPN - Love Live! Superstar!! - AUDIO - Star Sengen.mp3",
      "audiogain": -9.9,
      "loudnorm": "-7.92,1.31,5.30,-17.99,-1.08",
      "filesize": 9293770,
      "duration": 222,
      "default": true,
      "lyrics": [
        {
          "filename": "JPN - Love Live! Superstar!! - AUDIO - Star Sengen.ass",
          "default": true,
          "version": "Default"
        }
      ]
    }
  ],
  "data": {
    "created_at": "2022-10-08T22:03:52.498Z",
    "ignoreHooks": false,
    "kid": "6a9330df-2fc3-4455-a837-59a423926e26",
    "modified_at": "2022-10-14T18:24:07.129Z",
    "repository": "kara.moe",
    "tags": {
      "authors": [
        "449844e4-3a1f-46e1-8a92-bf72e2d1b6f1"
      ],
      "collections": [
        "c7db86a0-ff64-4044-9be4-66dd1ef1d1c1"
      ],
      "creators": [
        "b2805292-730e-473a-96f0-fd8e7ffd1fd7"
      ],
      "genres": [
        "caa86df2-0d59-474b-885c-f240a9e891b0"
      ],
      "groups": [
        "8e209ae4-4381-438f-89dc-1b21752027d2"
      ],
      "langs": [
        "4dcf9614-7914-42aa-99f4-dbce2e059133"
      ],
      "series": [
        "ed46191b-997b-4c2d-8088-bb30a5e6d4ca"
      ],
      "singers": [
        "4a1c9511-daa2-4172-9367-5afb3312234e",
        "4e66c19f-a55a-4be7-a948-4eb45796b71f",
        "7b8b38f7-9945-4ee3-9e38-25ddf137f1e0",
        "8a484e8b-1945-416f-b778-97a887ff24eb",
        "8b1d7f16-0b3e-4c63-82c1-bd60518b86a8",
        "a8ce4769-f4d8-4ac8-ad84-731f9895ad9f",
        "ac31fbd5-633b-4b85-8e6b-33976419c240",
        "c1fd3a67-0c3b-4d95-9cd8-f6aa2c8cc5a8",
        "d8060e7f-5362-405e-9e83-b9c854ca6e3c"
      ],
      "singergroups": [
        "f3e5b1d3-30b1-4548-95c8-6cf77216bdbd"
      ],
      "songtypes": [
        "42a262ae-acba-4ab5-a446-c5789c96c821"
      ],
      "songwriters": [
        "71f2ca71-a588-4eae-88a9-bd194e224fce",
        "822cccd0-ca68-4801-92a6-972c8fa23c57",
        "f77f4be8-1af3-4bab-9411-759dbd5bb583"
      ],
      "franchises": [
        "fd5d066e-e85a-4eea-8688-2979a887450a"
      ]
    },
    "titles": {
      "qro": "Star Sengen"
    },
    "titles_default_language": "qro",
    "title": "Star Sengen",
    "year": 2022
  }
}