{
  "header": {
    "version": 4,
    "description": "Karaoke Mugen Karaoke Data File"
  },
  "medias": [
    {
      "version": "Default",
      "filename": "JPN - Ninja Sentai Kakuranger - ED - Ninja! Matenrou Kids.mp4",
      "audiogain": 11.67,
      "loudnorm": "-30.17,-15.84,3.50,-40.23,-0.75",
      "filesize": 32773096,
      "duration": 64,
      "default": true,
      "lyrics": [
        {
          "filename": "JPN - Ninja Sentai Kakuranger - ED - Ninja! Matenrou Kids.ass",
          "default": true,
          "version": "Default"
        }
      ]
    }
  ],
  "data": {
    "created_at": "2017-10-11T15:02:55.000Z",
    "ignoreHooks": false,
    "kid": "d93fa431-8c62-4d09-994b-63f34cf06fdf",
    "modified_at": "2022-09-30T21:34:18.086Z",
    "repository": "kara.moe",
    "tags": {
      "authors": [
        "4607780c-f1ef-47cf-9c1c-b13e8f731699"
      ],
      "collections": [
        "c7db86a0-ff64-4044-9be4-66dd1ef1d1c1"
      ],
      "creators": [
        "e32b14df-502b-45fa-9ca5-37554a63a4d7"
      ],
      "families": [
        "5391f9fe-638c-415f-8dc9-958e3a2c5787"
      ],
      "groups": [
        "24db50aa-a126-4d34-a48a-e45db79c4245"
      ],
      "langs": [
        "4dcf9614-7914-42aa-99f4-dbce2e059133"
      ],
      "origins": [
        "938de218-5343-4865-94d3-fb33f2eaa152",
        "d3fac9ab-630d-402d-a392-3d2450c3e62e"
      ],
      "series": [
        "b511f698-b7d6-4716-9fdc-e80f03d73af1"
      ],
      "singers": [
        "e0ec5dea-3a2a-458a-8fe0-da095b48f892"
      ],
      "songtypes": [
        "38c77c56-2b95-4040-b676-0994a8cb0597"
      ],
      "songwriters": [
        "3041b201-84da-43aa-950a-a71512da2614",
        "eb0a249d-b12a-4fe4-94a2-c935b041b443"
      ]
    },
    "titles": {
      "jpn": "ニンジャ!摩天楼キッズ",
      "qro": "Ninja! Matenrô Kids"
    },
    "titles_default_language": "qro",
    "title": "Ninja! Matenrô Kids",
    "year": 1994,
    "titles_aliases": [
      "Matenrou"
    ]
  }
}