{
  "header": {
    "version": 4,
    "description": "Karaoke Mugen Karaoke Data File"
  },
  "medias": [
    {
      "version": "Default",
      "filename": "JPN - Ninpuu Sentai Hurricaneger - OP - Hurricaneger Sanjou!.mp4",
      "audiogain": 3.28,
      "loudnorm": "-20.32,-6.38,3.20,-30.43,-0.28",
      "filesize": 19875476,
      "duration": 88,
      "default": true,
      "lyrics": [
        {
          "filename": "JPN - Ninpuu Sentai Hurricaneger - OP - Hurricaneger Sanjou!.ass",
          "default": true,
          "version": "Default"
        }
      ]
    }
  ],
  "data": {
    "created_at": "2018-11-18T15:32:36.000Z",
    "ignoreHooks": false,
    "kid": "07a2b2a9-d0d9-4616-82f5-39e8d93c4be0",
    "modified_at": "2022-10-01T21:01:36.284Z",
    "repository": "kara.moe",
    "tags": {
      "authors": [
        "4607780c-f1ef-47cf-9c1c-b13e8f731699"
      ],
      "collections": [
        "c7db86a0-ff64-4044-9be4-66dd1ef1d1c1"
      ],
      "creators": [
        "e32b14df-502b-45fa-9ca5-37554a63a4d7"
      ],
      "families": [
        "5391f9fe-638c-415f-8dc9-958e3a2c5787"
      ],
      "groups": [
        "3c14c864-533c-49e6-a3cc-6969f1233775"
      ],
      "langs": [
        "4dcf9614-7914-42aa-99f4-dbce2e059133"
      ],
      "origins": [
        "938de218-5343-4865-94d3-fb33f2eaa152",
        "d3fac9ab-630d-402d-a392-3d2450c3e62e"
      ],
      "series": [
        "28846809-0ed2-4c80-a9db-9e721f3c678f"
      ],
      "singers": [
        "8d57f381-7300-4980-94d5-6cf8b4f6912b"
      ],
      "songtypes": [
        "f02ad9b3-0bd9-4aad-85b3-9976739ba0e4"
      ],
      "songwriters": [
        "4c786551-95e2-4aaa-9aca-792796abd9ec",
        "c0abb9f6-dfee-45d9-b964-6035e58bcbcd"
      ]
    },
    "titles": {
      "jpn": "ハリケンジャー参上!",
      "qro": "Hurricaneger Sanjô!"
    },
    "titles_default_language": "qro",
    "titles_aliases": [
      "Sanjou",
      "Sanjou!"
    ],
    "title": "Hurricaneger Sanjô!",
    "year": 2002
  }
}