{
  "header": {
    "version": 4,
    "description": "Karaoke Mugen Karaoke Data File"
  },
  "medias": [
    {
      "version": "Yukiho.",
      "filename": "JPN - The iDOLM@STER 2 - PS3 XBOX360 GAME IN - Kosmos, Cosmos ~ Yukiho Vers.mp4",
      "audiogain": -5.49,
      "loudnorm": "-12.88,0.36,5.60,-22.94,-0.42",
      "filesize": 70254860,
      "duration": 130,
      "default": true,
      "lyrics": [
        {
          "filename": "JPN - The iDOLM@STER 2 - PS3 XBOX360 GAME IN - Kosmos, Cosmos ~ Yukiho Vers.ass",
          "default": true,
          "version": "Default",
          "subchecksum": "767dc68b6ca6a87989476673185ecae8"
        }
      ]
    }
  ],
  "data": {
    "created_at": "2017-10-11T17:02:19.000Z",
    "kid": "af88a4a3-68df-440b-a70b-634bb6154e8f",
    "modified_at": "2021-02-25T13:21:21.469Z",
    "repository": "kara.moe",
    "tags": {
      "authors": [
        "8c22c899-b3ed-42da-a548-ce00f950798b"
      ],
      "collections": [
        "c7db86a0-ff64-4044-9be4-66dd1ef1d1c1"
      ],
      "creators": [
        "c3e622d4-2686-4331-8691-d528c8647088"
      ],
      "families": [
        "dbedd6b3-d125-4cd8-aa32-c4175e4ca3a3"
      ],
      "genres": [
        "caa86df2-0d59-474b-885c-f240a9e891b0"
      ],
      "groups": [
        "8c22c899-b3ed-42da-a548-ce00f950798b",
        "ae613721-1fbe-480d-ba6b-d6d0702b184d"
      ],
      "langs": [
        "4dcf9614-7914-42aa-99f4-dbce2e059133"
      ],
      "platforms": [
        "7f63ff91-7961-4488-888d-4bf46eea3a2a",
        "d56f8d9d-9ccd-4ac8-a164-da0e62d1c060"
      ],
      "series": [
        "ebed2224-07ea-4fda-8f1c-9884e3117877"
      ],
      "singers": [
        "1479a024-81fb-47b3-8990-02964fbda606"
      ],
      "songtypes": [
        "5e5250d9-351a-4a82-98eb-55db50ad8962"
      ],
      "songwriters": [
        "1b116b7b-1d6d-404c-99f7-746f397eee47",
        "77adf81b-4344-46e7-ae81-2e90f4e44ce3"
      ],
      "versions": [
        "9f63c359-d1bf-425a-bcf5-b245c2c9211d"
      ],
      "franchises": [
        "d34ceea8-7d7c-4d85-9213-18d24d2b7666"
      ]
    },
    "title": "Kosmos, Cosmos ~ Yukiho Vers.",
    "titles": {
      "eng": "Kosmos, Cosmos ~ Yukiho Vers.",
      "jpn": "Kosmos, Cosmos ~ 雪歩 Vers."
    },
    "year": 2011,
    "titles_default_language": "eng"
  }
}