{
  "header": {
    "version": 4,
    "description": "Karaoke Mugen Karaoke Data File"
  },
  "medias": [
    {
      "version": "Default",
      "filename": "JPN - The iDOLM@STER - ED10 - GO MY WAY!!.mp4",
      "audiogain": -3.79,
      "loudnorm": "-14.51,-4.14,4.40,-24.59,-1.41",
      "filesize": 98137791,
      "duration": 98,
      "default": true,
      "lyrics": [
        {
          "filename": "JPN - The iDOLM@STER - ED10 - GO MY WAY!!.ass",
          "default": true,
          "version": "Default"
        }
      ]
    }
  ],
  "data": {
    "created_at": "2017-10-11T17:02:00.000Z",
    "kid": "198a2d53-64cb-4748-bc4d-de46dfa9c0d9",
    "modified_at": "2021-10-28T17:57:26.626Z",
    "repository": "kara.moe",
    "songorder": 10,
    "tags": {
      "authors": [
        "fa399f2f-ea1d-4902-8796-ea6d8218aff0"
      ],
      "collections": [
        "c7db86a0-ff64-4044-9be4-66dd1ef1d1c1"
      ],
      "families": [
        "0377db02-3af6-43b8-9b08-c759df3d25c3"
      ],
      "genres": [
        "caa86df2-0d59-474b-885c-f240a9e891b0"
      ],
      "groups": [
        "ae613721-1fbe-480d-ba6b-d6d0702b184d"
      ],
      "langs": [
        "4dcf9614-7914-42aa-99f4-dbce2e059133"
      ],
      "misc": [
        "fe819ff1-9db8-4a0f-85dc-0e322c9126c4"
      ],
      "origins": [
        "938de218-5343-4865-94d3-fb33f2eaa152"
      ],
      "series": [
        "d34ceea8-7d7c-4d85-9213-18d24d2b7666"
      ],
      "singers": [
        "001a6966-3d4d-4897-975d-4e9e2e052732",
        "01d27ab4-ba4d-4225-af49-d0ad6d861e61",
        "08bfd717-9f49-4dbd-8037-5a750964fda8",
        "1479a024-81fb-47b3-8990-02964fbda606",
        "1a7dfbe0-3508-4786-8973-90213b902717",
        "1b168e50-934e-4d55-8772-53f71b94a001",
        "2d776945-754d-453a-aba7-836a3da5e28b",
        "458739df-9990-45ea-a8e7-ae6348c7534d",
        "4d3d3977-6aa4-47ee-b216-a2955a5f60b9",
        "51abb542-01b4-4267-821e-56c07d9a2705",
        "62f83f56-b7bc-4092-9c07-b79758bdfac3",
        "6b75c031-a5e4-4779-86e8-fba0e96bd29a",
        "6b9e0c83-60db-4f0f-bf10-63c37a8198d6",
        "72c2ad44-cf43-4322-99aa-d71df5cbe8a6",
        "78d6b851-76f9-49bc-bfb9-4d118f98d6c8",
        "cf4351d6-7a21-41cf-ac5e-0601fc673915",
        "de5be408-bbf9-48a5-913b-0e1e82872585"
      ],
      "songtypes": [
        "38c77c56-2b95-4040-b676-0994a8cb0597"
      ],
      "songwriters": [
        "56fed300-010f-4abd-91d7-a384615191bf",
        "d7658a75-7945-4f08-8233-02f38dc385ba"
      ],
      "franchises": [
        "d34ceea8-7d7c-4d85-9213-18d24d2b7666"
      ]
    },
    "titles": {
      "eng": "GO MY WAY!!"
    },
    "title": "GO MY WAY!!",
    "year": 2011,
    "titles_default_language": "eng"
  }
}