{
  "header": {
    "version": 4,
    "description": "Karaoke Mugen Karaoke Data File"
  },
  "medias": [
    {
      "version": "Default",
      "filename": "JPN - Ijiranaide, Nagatoro-san - ED - Colorful Canvas.mp4",
      "audiogain": 5.93,
      "loudnorm": "-22.77,-9.88,4.00,-32.88,-0.46",
      "filesize": 20132000,
      "duration": 90,
      "default": true,
      "lyrics": [
        {
          "filename": "JPN - Ijiranaide, Nagatoro-san - ED - Colorful Canvas.ass",
          "default": true,
          "version": "Default"
        }
      ]
    }
  ],
  "data": {
    "created_at": "2021-06-20T11:27:18.066Z",
    "kid": "b1017b2c-13d3-4ec0-a9a2-1e2854fb4742",
    "modified_at": "2021-07-22T19:06:24.123Z",
    "repository": "kara.moe",
    "tags": {
      "authors": [
        "4b2b4e27-8fc4-4018-8b1e-a2cf50baf436"
      ],
      "collections": [
        "c7db86a0-ff64-4044-9be4-66dd1ef1d1c1"
      ],
      "creators": [
        "e7fd2965-b154-4d71-9a4e-d6af1ec7243f"
      ],
      "families": [
        "0377db02-3af6-43b8-9b08-c759df3d25c3"
      ],
      "groups": [
        "2b4e9972-5e17-481b-99f5-d0787c0ada56",
        "8e209ae4-4381-438f-89dc-1b21752027d2"
      ],
      "langs": [
        "4dcf9614-7914-42aa-99f4-dbce2e059133"
      ],
      "origins": [
        "938de218-5343-4865-94d3-fb33f2eaa152"
      ],
      "series": [
        "5537c775-72f3-4f50-b66f-d6108bebd12b"
      ],
      "singers": [
        "5b21d12f-ac04-4272-882c-df57865ca6b9",
        "9332cf9e-20a6-4738-98a2-f6ef30529681",
        "e3ef4054-6292-4b5f-ad14-1008bae5e375",
        "f1b893a9-d27f-4aa3-9207-359371e0e6ff"
      ],
      "songtypes": [
        "38c77c56-2b95-4040-b676-0994a8cb0597"
      ],
      "songwriters": [
        "9729978c-1cab-4327-9c02-9c51700a424d",
        "e80e13ac-d708-44f5-b98f-5b55fe649886"
      ]
    },
    "title": "Colorful Canvas",
    "titles": {
      "eng": "Colorful Canvas",
      "jpn": "カラフル・キャンバス"
    },
    "year": 2021,
    "titles_default_language": "eng"
  }
}