{
  "header": {
    "version": 4,
    "description": "Karaoke Mugen Karaoke Data File"
  },
  "medias": [
    {
      "version": "Default",
      "filename": "JPN - Touhou - AUDIO - dakara Must Die.mp3",
      "audiogain": -12.97,
      "loudnorm": "-4.73,0.16,1.50,-14.76,-0.27",
      "filesize": 10028136,
      "duration": 204,
      "default": true,
      "lyrics": [
        {
          "filename": "JPN - Touhou - AUDIO - dakara Must Die.ass",
          "default": true,
          "version": "Default"
        }
      ]
    }
  ],
  "data": {
    "created_at": "2022-01-27T00:59:41.460Z",
    "kid": "71908fb8-040e-466c-9c8b-c9680883f499",
    "modified_at": "2022-09-19T07:46:19.655Z",
    "repository": "kara.moe",
    "tags": {
      "series": [
        "1bdaa5a1-dfa6-4365-b746-7a0b194dafd6"
      ],
      "singers": [
        "4cb575ae-a999-4234-9417-31580bcfab94"
      ],
      "songtypes": [
        "42a262ae-acba-4ab5-a446-c5789c96c821"
      ],
      "creators": [
        "ad4c9a45-6385-48ff-9468-1a056c486239"
      ],
      "langs": [
        "4dcf9614-7914-42aa-99f4-dbce2e059133"
      ],
      "authors": [
        "fb28c6d3-a81e-40c0-9a4c-e3268c60a64b"
      ],
      "songwriters": [
        "26cb5252-8510-49e0-897c-a611a05fc056",
        "ad4c9a45-6385-48ff-9468-1a056c486239"
      ],
      "groups": [
        "ae613721-1fbe-480d-ba6b-d6d0702b184d"
      ],
      "origins": [
        "ac5085db-52d8-44b4-8fbb-1697b24d2046"
      ],
      "collections": [
        "c7db86a0-ff64-4044-9be4-66dd1ef1d1c1"
      ],
      "franchises": [
        "1bdaa5a1-dfa6-4365-b746-7a0b194dafd6"
      ]
    },
    "titles": {
      "qro": "dakara Must Die",
      "jpn": "だからMust Die"
    },
    "titles_default_language": "qro",
    "title": "dakara Must Die",
    "year": 2018
  }
}