{
  "header": {
    "version": 4,
    "description": "Karaoke Mugen Karaoke Data File"
  },
  "medias": [
    {
      "version": "Default",
      "filename": "JPN - ZUTOMAYO - MV - MIRROR TUNE ~ Off Vocal Vers.mp4",
      "audiogain": -7.74,
      "loudnorm": "-11.16,0.49,6.60,-21.19,-0.76",
      "filesize": 82753269,
      "duration": 253,
      "default": true,
      "lyrics": [
        {
          "filename": "JPN - ZUTOMAYO - MV - MIRROR TUNE ~ Off Vocal Vers.ass",
          "default": true,
          "version": "Default"
        }
      ]
    }
  ],
  "data": {
    "created_at": "2022-04-25T21:39:31.989Z",
    "ignoreHooks": false,
    "kid": "02e06b73-a500-4fff-a06f-854635492efa",
    "modified_at": "2022-10-19T15:08:04.729Z",
    "parents": [
      "747036e6-8cff-48c4-b976-40195bcc8f5c"
    ],
    "repository": "kara.moe",
    "tags": {
      "authors": [
        "13ddf327-ecde-4c6c-9452-a43fb71db7ab"
      ],
      "collections": [
        "dbcf2c22-524d-4708-99bb-601703633927"
      ],
      "creators": [
        "ac881130-138c-46ef-b65e-c078971cfcda"
      ],
      "families": [
        "0377db02-3af6-43b8-9b08-c759df3d25c3"
      ],
      "groups": [
        "8e209ae4-4381-438f-89dc-1b21752027d2"
      ],
      "langs": [
        "4dcf9614-7914-42aa-99f4-dbce2e059133"
      ],
      "singers": [
        "d3f693d0-7d45-465e-82ed-a6723c600008"
      ],
      "singergroups": [
        "c7d361f6-c1cf-44b2-b40a-a18aa90f2d8f"
      ],
      "songtypes": [
        "7be1b15c-cff8-4b37-a649-5c90f3d569a9"
      ],
      "songwriters": [
        "c7d361f6-c1cf-44b2-b40a-a18aa90f2d8f",
        "c83db176-81d3-42fe-bd43-daaa2790da33"
      ],
      "versions": [
        "c0cc87b9-55b9-40f0-878a-fbb9e34c151e"
      ]
    },
    "titles": {
      "eng": "MIRROR TUNE",
      "jpn": "ミラーチューン"
    },
    "titles_default_language": "eng",
    "title": "MIRROR TUNE",
    "year": 2022
  }
}