{
  "header": {
    "version": 4,
    "description": "Karaoke Mugen Karaoke Data File"
  },
  "medias": [
    {
      "version": "Default",
      "filename": "JPN - TUYU - MV - Rock na Kimi to wa Owakare da.mp4",
      "audiogain": -8.54,
      "loudnorm": "-8.83,1.65,3.30,-18.91,-0.41",
      "filesize": 87004906,
      "duration": 208,
      "default": true,
      "lyrics": [
        {
          "filename": "JPN - TUYU - MV - Rock na Kimi to wa Owakare da.ass",
          "default": true,
          "version": "Default"
        }
      ]
    }
  ],
  "data": {
    "created_at": "2020-02-23T15:58:45.086Z",
    "ignoreHooks": false,
    "kid": "2c4aab4b-f388-4b54-9651-663cdb0fda90",
    "modified_at": "2022-12-24T20:54:02.749Z",
    "repository": "kara.moe",
    "tags": {
      "authors": [
        "1631228b-9125-497a-aafc-66f920a44a02"
      ],
      "collections": [
        "dbcf2c22-524d-4708-99bb-601703633927"
      ],
      "creators": [
        "619dd7d4-0caa-41b9-9676-89a430b42949",
        "cf47423f-8ca7-43e2-8465-ec76a9313e02"
      ],
      "families": [
        "0377db02-3af6-43b8-9b08-c759df3d25c3"
      ],
      "groups": [
        "8c22c899-b3ed-42da-a548-ce00f950798b",
        "ae613721-1fbe-480d-ba6b-d6d0702b184d"
      ],
      "langs": [
        "4dcf9614-7914-42aa-99f4-dbce2e059133"
      ],
      "singers": [
        "59d1295f-d723-464c-9422-96bb55789689"
      ],
      "singergroups": [
        "c76b646b-7af3-4828-988d-c62bc0b6a1d1"
      ],
      "songtypes": [
        "7be1b15c-cff8-4b37-a649-5c90f3d569a9"
      ],
      "songwriters": [
        "85027205-042c-46ec-bc47-f7bd83c694de"
      ]
    },
    "titles": {
      "eng": "Goodbye to Rock You",
      "jpn": "ロックな君とはお別れだ",
      "qro": "Rock na Kimi to wa Owakare da"
    },
    "titles_default_language": "qro",
    "year": 2019
  }
}