{
  "header": {
    "version": 4,
    "description": "Karaoke Mugen Karaoke Data File"
  },
  "medias": [
    {
      "version": "Default",
      "filename": "JPN - Touhou - MV - Zen Jinrui no Hisoutensoku.mp4",
      "audiogain": -0.38,
      "loudnorm": "-16.97,-1.76,9.60,-27.40,0.37",
      "filesize": 33528053,
      "duration": 151,
      "default": true,
      "lyrics": [
        {
          "filename": "JPN - Touhou - MV - Zen Jinrui no Hisoutensoku.ass",
          "default": true,
          "version": "Default"
        }
      ]
    }
  ],
  "data": {
    "created_at": "2017-10-11T17:02:46.000Z",
    "ignoreHooks": false,
    "kid": "e7996b4b-a90f-4a4b-acd6-8bd6add72bdc",
    "modified_at": "2022-11-25T20:45:42.385Z",
    "repository": "kara.moe",
    "tags": {
      "authors": [
        "dacb0560-9eee-45e3-a97e-294ca9f49d23"
      ],
      "collections": [
        "c7db86a0-ff64-4044-9be4-66dd1ef1d1c1"
      ],
      "creators": [
        "a56ed9e7-a3dc-4203-b91c-4128bcf7bfa9"
      ],
      "families": [
        "0377db02-3af6-43b8-9b08-c759df3d25c3"
      ],
      "groups": [
        "8c22c899-b3ed-42da-a548-ce00f950798b",
        "ae613721-1fbe-480d-ba6b-d6d0702b184d"
      ],
      "langs": [
        "4dcf9614-7914-42aa-99f4-dbce2e059133"
      ],
      "origins": [
        "ac5085db-52d8-44b4-8fbb-1697b24d2046"
      ],
      "series": [
        "1bdaa5a1-dfa6-4365-b746-7a0b194dafd6"
      ],
      "singers": [
        "bf4903d1-0b92-473a-964c-4535d6013100",
        "d5f9e745-a3ca-4184-a2bc-07369a2485b4"
      ],
      "songtypes": [
        "7be1b15c-cff8-4b37-a649-5c90f3d569a9"
      ],
      "songwriters": [
        "1ea59253-bc48-45fa-a27d-40d976321261",
        "23351848-e3cc-4420-b564-db2bfe2b7f3d",
        "26cb5252-8510-49e0-897c-a611a05fc056"
      ],
      "franchises": [
        "1bdaa5a1-dfa6-4365-b746-7a0b194dafd6"
      ]
    },
    "titles": {
      "eng": "All Mankind's Hisou Tensoku",
      "jpn": "全人類ノ非想天則",
      "qro": "Zen Jinrui no Hisoutensoku"
    },
    "titles_default_language": "qro",
    "titles_aliases": [
      "Hisoutensoku"
    ],
    "year": 2010
  }
}