{
  "header": {
    "version": 4,
    "description": "Karaoke Mugen Karaoke Data File"
  },
  "medias": [
    {
      "version": "Default",
      "filename": "JPN - Yoru no Yatterman - ED - Jounetsu CONTINUE.mp4",
      "audiogain": 1.75,
      "loudnorm": "-19.60,-7.53,5.80,-29.78,-0.25",
      "filesize": 45887789,
      "duration": 90,
      "default": true,
      "lyrics": [
        {
          "filename": "JPN - Yoru no Yatterman - ED - Jounetsu CONTINUE.ass",
          "default": true,
          "version": "Default"
        }
      ]
    }
  ],
  "data": {
    "created_at": "2017-10-11T17:02:32.000Z",
    "ignoreHooks": false,
    "kid": "ca8c34eb-ff09-43d6-a0c2-8d3fa5c15f0b",
    "modified_at": "2022-10-08T16:16:23.093Z",
    "repository": "kara.moe",
    "tags": {
      "authors": [
        "5bdaba57-27f8-4568-8806-76a807728766"
      ],
      "collections": [
        "c7db86a0-ff64-4044-9be4-66dd1ef1d1c1"
      ],
      "creators": [
        "cfdb2d1e-499d-47a1-b9f8-070153b5048e"
      ],
      "families": [
        "0377db02-3af6-43b8-9b08-c759df3d25c3"
      ],
      "groups": [
        "ae613721-1fbe-480d-ba6b-d6d0702b184d"
      ],
      "langs": [
        "4dcf9614-7914-42aa-99f4-dbce2e059133"
      ],
      "origins": [
        "938de218-5343-4865-94d3-fb33f2eaa152"
      ],
      "series": [
        "83d79ff2-81af-4609-88c5-578529410f04"
      ],
      "singers": [
        "256792ea-599e-41d8-98cd-9023a4e6c422"
      ],
      "songtypes": [
        "38c77c56-2b95-4040-b676-0994a8cb0597"
      ],
      "songwriters": [
        "9ef3d8bd-5338-4086-9ebe-ca7aa87eac04",
        "f41e7218-6c19-4e19-9b5f-4612dcd58243"
      ]
    },
    "titles": {
      "jpn": "情熱CONTINUE",
      "qro": "Jônetsu CONTINUE"
    },
    "titles_default_language": "qro",
    "titles_aliases": [
      "Jounetsu"
    ],
    "title": "Jônetsu CONTINUE",
    "year": 2015
  }
}