{
  "header": {
    "version": 4,
    "description": "Karaoke Mugen Karaoke Data File"
  },
  "medias": [
    {
      "version": "Default",
      "filename": "JPN - Inazuma Eleven - OP4 - Katte Nakouze!.mp4",
      "audiogain": -5.27,
      "loudnorm": "-12.62,-0.03,2.20,-22.68,-0.06",
      "filesize": 24440097,
      "duration": 90,
      "default": true,
      "lyrics": [
        {
          "filename": "JPN - Inazuma Eleven - OP4 - Katte Nakouze!.ass",
          "default": true,
          "version": "Default",
          "subchecksum": "f47ae3def918420ac1362741d8d5b6fb"
        }
      ]
    }
  ],
  "data": {
    "created_at": "2019-06-06T17:21:28.000Z",
    "kid": "14a3a67f-3574-4070-88ef-8e0acd5d9f0a",
    "modified_at": "2021-02-25T11:46:48.511Z",
    "repository": "kara.moe",
    "songorder": 4,
    "tags": {
      "authors": [
        "42ff8105-afa5-49c2-93b6-7951877c956d"
      ],
      "collections": [
        "c7db86a0-ff64-4044-9be4-66dd1ef1d1c1"
      ],
      "creators": [
        "03fe574b-c7f5-4520-96dc-47320c39e2cc"
      ],
      "families": [
        "0377db02-3af6-43b8-9b08-c759df3d25c3"
      ],
      "groups": [
        "3c14c864-533c-49e6-a3cc-6969f1233775"
      ],
      "langs": [
        "4dcf9614-7914-42aa-99f4-dbce2e059133"
      ],
      "origins": [
        "938de218-5343-4865-94d3-fb33f2eaa152"
      ],
      "series": [
        "8736c98c-8f96-4e0e-96a9-1d6eb10be540"
      ],
      "singers": [
        "649d36f3-728d-4230-9655-acd474036312",
        "a3e69301-4f5a-43fd-96d4-0a51b23f34ac"
      ],
      "songtypes": [
        "f02ad9b3-0bd9-4aad-85b3-9976739ba0e4"
      ],
      "songwriters": [
        "a3e69301-4f5a-43fd-96d4-0a51b23f34ac",
        "f2cadf55-15ce-47f1-be10-ed75ec34d17e",
        "fb42506e-9b6d-4807-9d8c-28caec4baed8"
      ],
      "franchises": [
        "8736c98c-8f96-4e0e-96a9-1d6eb10be540"
      ]
    },
    "title": "Katte Nakouze!",
    "titles": {
      "qro": "Katte Nakouze!",
      "jpn": "勝って泣こうゼッ!"
    },
    "year": 2008,
    "titles_default_language": "qro"
  }
}