{
  "header": {
    "version": 4,
    "description": "Karaoke Mugen Karaoke Data File"
  },
  "medias": [
    {
      "version": "Default",
      "filename": "JPN - Touhou - MV - Touhou Youyoumu ~the maximum moving about~.mp4",
      "audiogain": -4.41,
      "loudnorm": "-12.47,-2.00,3.30,-22.57,-0.84",
      "filesize": 4568007,
      "duration": 97,
      "default": true,
      "lyrics": [
        {
          "filename": "JPN - Touhou - MV - Touhou Youyoumu ~the maximum moving about~.ass",
          "default": true,
          "version": "Default"
        }
      ]
    }
  ],
  "data": {
    "created_at": "2022-10-02T11:17:09.954Z",
    "ignoreHooks": false,
    "kid": "ef02be10-f65c-415e-933d-b23e9d374505",
    "modified_at": "2022-10-02T11:17:10.678Z",
    "repository": "kara.moe",
    "tags": {
      "authors": [
        "1fbfef73-6731-40df-ba51-65a54b9d1605"
      ],
      "collections": [
        "c7db86a0-ff64-4044-9be4-66dd1ef1d1c1"
      ],
      "creators": [
        "ad4c9a45-6385-48ff-9468-1a056c486239",
        "f8913c6a-272c-48e0-955e-1d34c769b27d"
      ],
      "families": [
        "0377db02-3af6-43b8-9b08-c759df3d25c3"
      ],
      "langs": [
        "4dcf9614-7914-42aa-99f4-dbce2e059133"
      ],
      "origins": [
        "ac5085db-52d8-44b4-8fbb-1697b24d2046"
      ],
      "series": [
        "1bdaa5a1-dfa6-4365-b746-7a0b194dafd6"
      ],
      "singers": [
        "4cb575ae-a999-4234-9417-31580bcfab94"
      ],
      "songtypes": [
        "7be1b15c-cff8-4b37-a649-5c90f3d569a9"
      ],
      "songwriters": [
        "26cb5252-8510-49e0-897c-a611a05fc056",
        "1beb86fb-499b-412b-833d-3b8d5db091b0",
        "ad4c9a45-6385-48ff-9468-1a056c486239"
      ],
      "franchises": [
        "1bdaa5a1-dfa6-4365-b746-7a0b194dafd6"
      ],
      "groups": [
        "ae613721-1fbe-480d-ba6b-d6d0702b184d"
      ]
    },
    "titles": {
      "jpn": "東方妖々夢 〜the maximum moving about〜",
      "qro": "Touhou Youyoumu ~the maximum moving about~"
    },
    "titles_default_language": "qro",
    "title": "Touhou Youyoumu ~the maximum moving about~",
    "year": 2010
  }
}