{
  "header": {
    "version": 4,
    "description": "Karaoke Mugen Karaoke Data File"
  },
  "medias": [
    {
      "version": "Default",
      "filename": "JPN - Luminous Arc - GAME DS OP - Brilliant World.mp4",
      "audiogain": -2.2,
      "loudnorm": "-16.45,-3.02,4.50,-26.62,0.03",
      "filesize": 33201796,
      "duration": 95,
      "default": true,
      "lyrics": [
        {
          "filename": "JPN - Luminous Arc - GAME DS OP - Brilliant World.ass",
          "default": true,
          "version": "Default"
        }
      ]
    }
  ],
  "data": {
    "created_at": "2017-10-11T17:02:10.000Z",
    "ignoreHooks": false,
    "kid": "880f08ba-6da0-412c-bb3e-c0e7c044841c",
    "modified_at": "2022-09-25T10:50:10.022Z",
    "repository": "kara.moe",
    "tags": {
      "authors": [
        "5bdaba57-27f8-4568-8806-76a807728766"
      ],
      "collections": [
        "c7db86a0-ff64-4044-9be4-66dd1ef1d1c1"
      ],
      "creators": [
        "f2135722-dc64-49da-9e67-8a2d6262ca98"
      ],
      "families": [
        "dbedd6b3-d125-4cd8-aa32-c4175e4ca3a3"
      ],
      "groups": [
        "3c14c864-533c-49e6-a3cc-6969f1233775"
      ],
      "langs": [
        "4dcf9614-7914-42aa-99f4-dbce2e059133"
      ],
      "platforms": [
        "fafc313d-8d8a-4445-90b5-aad7928182ab"
      ],
      "series": [
        "9c4844e9-1ba6-4a43-9bb1-1023aa79b60a"
      ],
      "singers": [
        "1bad8332-c90e-4338-89b1-b8bfd8b67b41"
      ],
      "songtypes": [
        "f02ad9b3-0bd9-4aad-85b3-9976739ba0e4"
      ],
      "songwriters": [
        "a98edd2f-1b42-4904-ac5b-1c647431239d",
        "e9ba5168-176d-42ec-882d-eea896934b80"
      ],
      "franchises": [
        "9c4844e9-1ba6-4a43-9bb1-1023aa79b60a"
      ]
    },
    "titles": {
      "eng": "Brilliant World"
    },
    "titles_default_language": "eng",
    "title": "Brilliant World",
    "year": 2007
  }
}