{
  "header": {
    "version": 4,
    "description": "Karaoke Mugen Karaoke Data File"
  },
  "medias": [
    {
      "version": "Mugen.",
      "filename": "JPN - Sakura Taisen 2 ~Kimi Shinitamou koto Nakare~ - PC SATURN GAME OP - Geki! Teikoku Kagekidan ~ Mugen Vers.mp4",
      "audiogain": -3.27,
      "loudnorm": "-14.77,-0.56,2.40,-24.79,-0.44",
      "filesize": 29925278,
      "duration": 205,
      "default": true,
      "lyrics": [
        {
          "filename": "JPN - Sakura Taisen 2 ~Kimi Shinitamou koto Nakare~ - PC SATURN GAME OP - Geki! Teikoku Kagekidan ~ Mugen Vers.ass",
          "default": true,
          "version": "Default",
          "subchecksum": "2f2bc75d837ea442729bbfcddbabb1b0"
        }
      ]
    }
  ],
  "data": {
    "created_at": "2019-04-02T21:06:15.000Z",
    "kid": "d23f65a9-add3-4839-8cc9-7523b491e687",
    "modified_at": "2021-02-25T12:56:05.296Z",
    "parents": [
      "a5d4a23e-7ba6-41b1-a701-491e84feab6a"
    ],
    "repository": "kara.moe",
    "tags": {
      "authors": [
        "244ec47a-1d4d-472d-9588-67e859bf27df"
      ],
      "collections": [
        "c7db86a0-ff64-4044-9be4-66dd1ef1d1c1"
      ],
      "creators": [
        "500e2283-ec1c-46cf-a559-8e11e3e86d99",
        "ea2c97ab-72a6-4867-a3a7-1e7f0dfbcfc6"
      ],
      "families": [
        "dbedd6b3-d125-4cd8-aa32-c4175e4ca3a3"
      ],
      "genres": [
        "f60ba57d-5ef4-49e0-b93b-d0dcbcff6592"
      ],
      "groups": [
        "24db50aa-a126-4d34-a48a-e45db79c4245",
        "8c22c899-b3ed-42da-a548-ce00f950798b"
      ],
      "langs": [
        "4dcf9614-7914-42aa-99f4-dbce2e059133"
      ],
      "platforms": [
        "3c15f758-e1bc-4266-8bb9-3c14112f504a",
        "cf4a3dd9-affa-49b4-ad4c-67cbadf09c8d",
        "e6778c89-1d6b-455e-bd53-37a3b12b7140"
      ],
      "series": [
        "28840888-f7b1-4f67-9eef-74d8abac4f37"
      ],
      "singers": [
        "f6ed977b-9c0f-47ac-94e0-40859034624a"
      ],
      "songtypes": [
        "f02ad9b3-0bd9-4aad-85b3-9976739ba0e4"
      ],
      "songwriters": [
        "2461dcff-0d44-481a-9841-a8ae3e3d53db",
        "2d718c99-fcaf-494b-8216-06f2d66e66a5",
        "7cc5d197-4923-4d92-a0e8-deffcf49b1cf"
      ],
      "versions": [
        "9f63c359-d1bf-425a-bcf5-b245c2c9211d"
      ],
      "franchises": [
        "3843ae35-0d40-4fef-9bda-0c222c2e5682"
      ]
    },
    "title": "Geki! Teikoku Kagekidan ~ Mugen Vers.",
    "titles": {
      "qro": "Geki! Teikoku Kagekidan ~ Mugen Vers.",
      "jpn": "檄!帝国華撃団 ~ Mugen Vers."
    },
    "year": 1996,
    "titles_default_language": "qro"
  }
}