{
  "header": {
    "version": 4,
    "description": "Karaoke Mugen Karaoke Data File"
  },
  "medias": [
    {
      "version": "Default",
      "filename": "JPN - BlazBlue Continuum Shift - PS3 XBOX360 GAME AUDIO IS - Condemnation Wings ~Cry Camellia...~.mp3",
      "audiogain": -4.99,
      "loudnorm": "-11.86,-2.94,2.40,-21.93,-0.43",
      "filesize": 6477581,
      "duration": 346,
      "default": true,
      "lyrics": [
        {
          "filename": "JPN - BlazBlue Continuum Shift - PS3 XBOX360 GAME AUDIO IS - Condemnation Wings ~Cry Camellia...~.ass",
          "default": true,
          "version": "Default",
          "subchecksum": "32847670047277a47d46496bdfbd550f"
        }
      ]
    }
  ],
  "data": {
    "created_at": "2020-05-14T00:02:56.418Z",
    "kid": "9a2bc3ac-f64d-445e-a42c-e75422879473",
    "modified_at": "2021-02-25T10:53:48.633Z",
    "repository": "kara.moe",
    "tags": {
      "authors": [
        "60defa7b-774e-4680-8321-51b742c2e009"
      ],
      "collections": [
        "c7db86a0-ff64-4044-9be4-66dd1ef1d1c1"
      ],
      "creators": [
        "f068c907-7440-4e21-9667-1b905a7dbf23"
      ],
      "families": [
        "dbedd6b3-d125-4cd8-aa32-c4175e4ca3a3"
      ],
      "groups": [
        "3c14c864-533c-49e6-a3cc-6969f1233775",
        "60defa7b-774e-4680-8321-51b742c2e009"
      ],
      "langs": [
        "4dcf9614-7914-42aa-99f4-dbce2e059133"
      ],
      "misc": [
        "86705d4b-24e4-4756-9687-2b9c98bcf366"
      ],
      "platforms": [
        "7f63ff91-7961-4488-888d-4bf46eea3a2a",
        "d56f8d9d-9ccd-4ac8-a164-da0e62d1c060"
      ],
      "series": [
        "2723e0a5-0752-4d7d-8a71-4c7c1e0b7282"
      ],
      "singers": [
        "01d27ab4-ba4d-4225-af49-d0ad6d861e61"
      ],
      "songtypes": [
        "10a1ad3e-a05c-4f5c-84b6-f491e3e3a92e",
        "42a262ae-acba-4ab5-a446-c5789c96c821"
      ],
      "songwriters": [
        "1000fd0f-4088-4105-a053-a33b5daea9a0",
        "641b6d06-142e-4cf8-b09c-df6fc2f7eb9c"
      ],
      "franchises": [
        "39637867-c852-4398-9597-f681bc78355e"
      ]
    },
    "title": "Condemnation Wings ~Cry Camellia…~",
    "titles": {
      "eng": "Condemnation Wings ~Cry Camellia…~"
    },
    "year": 2009,
    "titles_default_language": "eng"
  }
}