{
  "header": {
    "version": 4,
    "description": "Karaoke Mugen Karaoke Data File"
  },
  "medias": [
    {
      "version": "Default",
      "filename": "JPN - Fate hollow ataraxia - MV - broKen NIGHT ~ Full Vers.mp4",
      "audiogain": -7.38,
      "loudnorm": "-10.01,-0.21,6.30,-20.24,-1.28",
      "filesize": 78970403,
      "duration": 297,
      "default": true,
      "lyrics": [
        {
          "filename": "JPN - Fate hollow ataraxia - MV - broKen NIGHT ~ Full Vers.ass",
          "default": true,
          "version": "Default"
        }
      ]
    }
  ],
  "data": {
    "created_at": "2022-07-31T20:35:41.897Z",
    "ignoreHooks": false,
    "kid": "8e53a9a3-0fa5-4763-a0ba-7d13c717d2bf",
    "modified_at": "2022-07-31T20:54:42.113Z",
    "parents": [
      "8f5c238d-72cc-4b60-8f0b-28f2cb623348"
    ],
    "repository": "kara.moe",
    "tags": {
      "authors": [
        "4d71ce82-eed1-4c44-ac85-5f7255f3dad3"
      ],
      "collections": [
        "dbcf2c22-524d-4708-99bb-601703633927"
      ],
      "creators": [
        "6fa9de67-21cf-420b-9ddb-57edb5abe523"
      ],
      "families": [
        "5391f9fe-638c-415f-8dc9-958e3a2c5787"
      ],
      "groups": [
        "ae613721-1fbe-480d-ba6b-d6d0702b184d"
      ],
      "langs": [
        "4dcf9614-7914-42aa-99f4-dbce2e059133"
      ],
      "series": [
        "36aa64e5-06e5-4e45-943a-88088ada6213"
      ],
      "singers": [
        "6cfc20ab-c855-4f24-8bed-0981e465630b"
      ],
      "songtypes": [
        "7be1b15c-cff8-4b37-a649-5c90f3d569a9"
      ],
      "songwriters": [
        "68890898-72a2-44a1-bdfc-f9c9d9c03899",
        "7e0db384-6c5d-482a-ad47-1614fe2b11d1"
      ],
      "versions": [
        "c2143a7f-6970-450e-8a79-0302db9220a9"
      ],
      "franchises": [
        "564373dc-4cfa-454e-8af1-bcccb886c007"
      ]
    },
    "titles": {
      "eng": "broKen NIGHT",
      "qro": "broKen NIGHT"
    },
    "titles_default_language": "eng",
    "title": "broKen NIGHT",
    "year": 2014
  }
}