{
  "header": {
    "version": 4,
    "description": "Karaoke Mugen Karaoke Data File"
  },
  "medias": [
    {
      "version": "Symphogear Live 2016.",
      "filename": "JPN - Senki Zesshou Symphogear GX - LIVE - Glorious Break ~ Symphogear Live 2016 Vers. ~ Full Vers.mp4",
      "audiogain": -0.94,
      "loudnorm": "-17.15,-6.69,5.30,-27.29,-0.95",
      "filesize": 130051501,
      "duration": 260,
      "default": true,
      "lyrics": [
        {
          "filename": "JPN - Senki Zesshou Symphogear GX - LIVE - Glorious Break ~ Symphogear Live 2016 Vers. ~ Full Vers.ass",
          "default": true,
          "version": "Default"
        }
      ]
    }
  ],
  "data": {
    "created_at": "2022-07-22T18:46:32.313Z",
    "ignoreHooks": false,
    "kid": "afbb41b9-9946-49c1-b4a7-cf68a1b325d6",
    "modified_at": "2022-12-27T23:50:14.672Z",
    "parents": [
      "5e0046d2-bc39-4495-849a-8c2fcf448e69"
    ],
    "repository": "kara.moe",
    "tags": {
      "authors": [
        "a5dbab74-510b-48c5-9cea-5a537a81c974"
      ],
      "collections": [
        "dbcf2c22-524d-4708-99bb-601703633927"
      ],
      "creators": [
        "d2a29c19-019f-4a3d-86ad-2dae9e41a4b1"
      ],
      "families": [
        "5391f9fe-638c-415f-8dc9-958e3a2c5787"
      ],
      "groups": [
        "8c22c899-b3ed-42da-a548-ce00f950798b",
        "ae613721-1fbe-480d-ba6b-d6d0702b184d"
      ],
      "langs": [
        "4dcf9614-7914-42aa-99f4-dbce2e059133"
      ],
      "series": [
        "86627e91-4551-4e88-899b-2cb017e853e0"
      ],
      "singers": [
        "6d2045b2-80ab-45ff-a131-c4df02ef52d1"
      ],
      "songtypes": [
        "a0167949-580c-4de3-bf13-497e462e02f3"
      ],
      "songwriters": [
        "8ac88d22-022b-4d8e-a806-b27551a9b0d5",
        "af3ffe51-8059-461c-bbb8-78ea388731f3"
      ],
      "versions": [
        "c2143a7f-6970-450e-8a79-0302db9220a9"
      ],
      "franchises": [
        "61b24082-a6a9-482b-b126-0ad7be595791"
      ]
    },
    "titles": {
      "eng": "Glorious Break ~ Symphogear Live 2016 Vers."
    },
    "titles_default_language": "eng",
    "year": 2016
  }
}