{
  "header": {
    "version": 4,
    "description": "Karaoke Mugen Karaoke Data File"
  },
  "medias": [
    {
      "version": "Default",
      "filename": "JPN - Sora no Oto - MV - Hikari no Senritsu ~ Full Vers.mp4",
      "audiogain": -8.08,
      "loudnorm": "-9.30,0.86,4.60,-19.39,-1.03",
      "filesize": 53555919,
      "duration": 379,
      "default": true,
      "lyrics": [
        {
          "filename": "JPN - Sora no Oto - MV - Hikari no Senritsu ~ Full Vers.ass",
          "default": true,
          "version": "Default"
        }
      ]
    }
  ],
  "data": {
    "created_at": "2017-10-11T17:01:38.000Z",
    "kid": "1928c79f-4338-4eea-aab7-53a97ddae4ad",
    "modified_at": "2022-06-04T00:18:39.857Z",
    "parents": [
      "a4d0e86a-166d-47b1-b29a-fa43bfa7e653"
    ],
    "repository": "kara.moe",
    "songorder": null,
    "tags": {
      "authors": [
        "5bdaba57-27f8-4568-8806-76a807728766"
      ],
      "creators": [
        "6fa9de67-21cf-420b-9ddb-57edb5abe523"
      ],
      "families": [
        "5391f9fe-638c-415f-8dc9-958e3a2c5787"
      ],
      "groups": [
        "ae613721-1fbe-480d-ba6b-d6d0702b184d"
      ],
      "langs": [
        "4dcf9614-7914-42aa-99f4-dbce2e059133"
      ],
      "misc": [
        "86705d4b-24e4-4756-9687-2b9c98bcf366"
      ],
      "series": [
        "353251ea-318c-4a4d-a74f-314a62cebc24"
      ],
      "singers": [
        "ce7ec1ec-54f1-4ff2-9b90-66e28a28e238"
      ],
      "songtypes": [
        "7be1b15c-cff8-4b37-a649-5c90f3d569a9"
      ],
      "songwriters": [
        "1f324dc7-f858-415b-bbc1-41fcce3d6ac7"
      ],
      "versions": [
        "c2143a7f-6970-450e-8a79-0302db9220a9"
      ],
      "collections": [
        "dbcf2c22-524d-4708-99bb-601703633927"
      ]
    },
    "titles": {
      "qro": "Hikari no Senritsu",
      "jpn": "光の旋律"
    },
    "titles_default_language": "qro",
    "title": "Hikari no Senritsu",
    "year": 2010
  }
}