{
  "header": {
    "version": 4,
    "description": "Karaoke Mugen Karaoke Data File"
  },
  "medias": [
    {
      "version": "Default",
      "filename": "JPN - Kud Wafter - GAME PC OP - one's future.mp4",
      "audiogain": -9.79,
      "loudnorm": "-8.58,1.21,6.00,-18.76,-1.03",
      "filesize": 36286180,
      "duration": 115,
      "default": true,
      "lyrics": [
        {
          "filename": "JPN - Kud Wafter - GAME PC OP - one's future.ass",
          "default": true,
          "version": "Default"
        }
      ]
    }
  ],
  "data": {
    "created_at": "2017-10-11T17:02:40.000Z",
    "ignoreHooks": false,
    "kid": "2c8bcd25-bfe7-4d63-8a98-87320a7efc9c",
    "modified_at": "2022-03-24T09:23:31.473Z",
    "repository": "kara.moe",
    "tags": {
      "authors": [
        "fa399f2f-ea1d-4902-8796-ea6d8218aff0"
      ],
      "collections": [
        "c7db86a0-ff64-4044-9be4-66dd1ef1d1c1"
      ],
      "creators": [
        "4dd6987d-3036-4454-859b-ff18954541bf"
      ],
      "families": [
        "dbedd6b3-d125-4cd8-aa32-c4175e4ca3a3"
      ],
      "groups": [
        "ae613721-1fbe-480d-ba6b-d6d0702b184d"
      ],
      "langs": [
        "4dcf9614-7914-42aa-99f4-dbce2e059133"
      ],
      "origins": [
        "2f96e82c-c61b-4413-817e-e6b247509b95"
      ],
      "platforms": [
        "3c15f758-e1bc-4266-8bb9-3c14112f504a"
      ],
      "series": [
        "cdbe419e-f8a7-4de1-a794-4110dedac540"
      ],
      "singers": [
        "ca08e696-f6cd-4ac9-9ae6-2f676651502c"
      ],
      "songtypes": [
        "f02ad9b3-0bd9-4aad-85b3-9976739ba0e4"
      ],
      "songwriters": [
        "e788a4a7-2e2d-49e5-bca0-99e3c4b4fe72",
        "ea3e603e-73c9-4235-9a6b-d5a4e2cb3906"
      ]
    },
    "titles": {
      "eng": "one's future",
      "jpn": "ワンズ・フューチャー"
    },
    "titles_default_language": "eng",
    "title": "one's future",
    "year": 2010
  }
}