{
  "header": {
    "version": 4,
    "description": "Karaoke Mugen Karaoke Data File"
  },
  "medias": [
    {
      "version": "Default",
      "filename": "JPN - Fubuki Shirakami, Matsuri Natsuiro - MV - Shinpakusuu 0822 ~ Cover Vers.mp4",
      "audiogain": -7.12,
      "loudnorm": "-12.01,-0.32,10.00,-22.67,-1.57",
      "filesize": 26933676,
      "duration": 114,
      "default": true,
      "lyrics": [
        {
          "filename": "JPN - Fubuki Shirakami, Matsuri Natsuiro - MV - Shinpakusuu 0822 ~ Cover Vers.ass",
          "default": true,
          "version": "Default"
        }
      ]
    }
  ],
  "data": {
    "created_at": "2020-02-05T19:00:19.649Z",
    "ignoreHooks": false,
    "kid": "c8d90709-46fc-4a74-ad20-5db6be42324b",
    "modified_at": "2022-01-21T18:12:39.007Z",
    "repository": "kara.moe",
    "tags": {
      "authors": [
        "f7ce702e-09aa-4b22-8742-0c99cd7a5409"
      ],
      "collections": [
        "c7db86a0-ff64-4044-9be4-66dd1ef1d1c1"
      ],
      "creators": [
        "0263d413-17bb-4cee-a311-6dd896eda1c9"
      ],
      "families": [
        "0377db02-3af6-43b8-9b08-c759df3d25c3"
      ],
      "groups": [
        "2b4e9972-5e17-481b-99f5-d0787c0ada56",
        "8e209ae4-4381-438f-89dc-1b21752027d2"
      ],
      "langs": [
        "4dcf9614-7914-42aa-99f4-dbce2e059133"
      ],
      "origins": [
        "5106d71b-a78e-4d19-a16d-f8fb6719538a"
      ],
      "singers": [
        "53b39b45-1ee9-4625-83d6-642c02ca8fba",
        "5755dfc0-cc41-469e-aea0-a69333aabb6d"
      ],
      "songtypes": [
        "7be1b15c-cff8-4b37-a649-5c90f3d569a9"
      ],
      "songwriters": [
        "0b3ae245-4c42-4fe6-8c44-162f843b0ce6"
      ],
      "versions": [
        "03e1e1d2-8641-47b7-bbcb-39a3df9ff21c"
      ]
    },
    "titles": {
      "qro": "Shinpakusû♯0822",
      "jpn": "心拍数♯0822"
    },
    "titles_aliases": [
      "shinpakusuu",
      "0822"
    ],
    "title": "Shinpakusû ♯0822",
    "year": 2020,
    "titles_default_language": "qro"
  }
}