{
  "header": {
    "version": 4,
    "description": "Karaoke Mugen Karaoke Data File"
  },
  "medias": [
    {
      "version": "Default",
      "filename": "JPN - Love Live! Nijigasaki Gakuen School Idol Doukoukai - IN - Awakening Promise.mp4",
      "audiogain": 0.67,
      "loudnorm": "-17.24,-5.58,2.00,-27.46,-0.54",
      "filesize": 78672685,
      "duration": 108,
      "default": true,
      "lyrics": [
        {
          "filename": "JPN - Love Live! Nijigasaki Gakuen School Idol Doukoukai - IN - Awakening Promise.ass",
          "default": true,
          "version": "Default",
          "subchecksum": "38a8396433e1b1d41042d67944d90366"
        }
      ]
    }
  ],
  "data": {
    "created_at": "2021-02-17T23:30:33.904Z",
    "kid": "a7dc7e35-4893-4dfb-991c-ba4026ecbc09",
    "modified_at": "2021-02-25T12:11:40.723Z",
    "repository": "kara.moe",
    "tags": {
      "authors": [
        "278c6742-0b75-43dd-b317-2ea112952b4a"
      ],
      "collections": [
        "c7db86a0-ff64-4044-9be4-66dd1ef1d1c1"
      ],
      "creators": [
        "ef8f80e1-d244-4aea-b7f0-984d6dd4b82b"
      ],
      "families": [
        "0377db02-3af6-43b8-9b08-c759df3d25c3"
      ],
      "genres": [
        "caa86df2-0d59-474b-885c-f240a9e891b0"
      ],
      "groups": [
        "8c22c899-b3ed-42da-a548-ce00f950798b",
        "8e209ae4-4381-438f-89dc-1b21752027d2"
      ],
      "langs": [
        "4dcf9614-7914-42aa-99f4-dbce2e059133"
      ],
      "origins": [
        "938de218-5343-4865-94d3-fb33f2eaa152"
      ],
      "series": [
        "9609e3a6-60db-412a-9d81-e9d9d2e0fb79"
      ],
      "singers": [
        "705909a5-72f1-4856-ac69-f26729eaabac"
      ],
      "songtypes": [
        "5e5250d9-351a-4a82-98eb-55db50ad8962"
      ],
      "songwriters": [
        "52d1a2be-00d4-4e08-87f8-8524ec89a643",
        "ff73b3ab-c654-45f7-8ebe-0a23b898cb94"
      ],
      "franchises": [
        "fd5d066e-e85a-4eea-8688-2979a887450a"
      ]
    },
    "title": "Awakening Promise",
    "titles": {
      "eng": "Awakening Promise"
    },
    "year": 2020,
    "titles_default_language": "eng"
  }
}