{
  "header": {
    "version": 4,
    "description": "Karaoke Mugen Karaoke Data File"
  },
  "medias": [
    {
      "version": "Default",
      "filename": "JPN - Love Live! Sunshine!! The School Idol Movie Over the Rainbow - MOVIE IN - Believe Again.mp4",
      "audiogain": -0.43,
      "loudnorm": "-16.05,-5.36,4.70,-26.29,-0.83",
      "filesize": 127068245,
      "duration": 123,
      "default": true,
      "lyrics": [
        {
          "filename": "JPN - Love Live! Sunshine!! The School Idol Movie Over the Rainbow - MOVIE IN - Believe Again.ass",
          "default": true,
          "version": "Default"
        }
      ]
    }
  ],
  "data": {
    "created_at": "2021-11-28T11:46:54.975Z",
    "kid": "8365c94c-6b51-4d6d-a1d0-7b3102e71c81",
    "modified_at": "2021-12-29T19:19:44.391Z",
    "repository": "kara.moe",
    "tags": {
      "authors": [
        "2c1f4c76-4de9-4548-9aa5-bc64ab296076",
        "5690b59e-e9d1-4384-8a50-f0ff04996dfb"
      ],
      "collections": [
        "c7db86a0-ff64-4044-9be4-66dd1ef1d1c1"
      ],
      "creators": [
        "ef8f80e1-d244-4aea-b7f0-984d6dd4b82b"
      ],
      "families": [
        "0377db02-3af6-43b8-9b08-c759df3d25c3"
      ],
      "genres": [
        "caa86df2-0d59-474b-885c-f240a9e891b0"
      ],
      "groups": [
        "ae613721-1fbe-480d-ba6b-d6d0702b184d"
      ],
      "langs": [
        "4dcf9614-7914-42aa-99f4-dbce2e059133"
      ],
      "misc": [
        "1d6ceadf-a885-47e5-b23b-c07bf668a424"
      ],
      "origins": [
        "c8ca9dea-d8b4-48fe-8427-d911653232e9"
      ],
      "series": [
        "80121a8f-c4d3-4d66-b9c1-607ba01dd25f"
      ],
      "singers": [
        "29774a6a-2bba-440d-b7e2-d033a3cca0cc",
        "bbf38c20-4ff8-46ca-8e23-55a71286f0ef"
      ],
      "songtypes": [
        "5e5250d9-351a-4a82-98eb-55db50ad8962"
      ],
      "songwriters": [
        "a1e191d4-2870-4292-b94e-c8bfee16ab35",
        "f41e7218-6c19-4e19-9b5f-4612dcd58243"
      ],
      "franchises": [
        "fd5d066e-e85a-4eea-8688-2979a887450a"
      ]
    },
    "titles": {
      "eng": "Believe Again"
    },
    "title": "Believe Again",
    "year": 2019,
    "titles_default_language": "eng"
  }
}