{
  "header": {
    "version": 4,
    "description": "Karaoke Mugen Karaoke Data File"
  },
  "medias": [
    {
      "version": "Default",
      "filename": "JPN - World End Economica Episode 1 - PC GAME ED - retrograde interior.mp4",
      "audiogain": -9.66,
      "loudnorm": "-7.71,0.80,5.20,-17.90,-1.42",
      "filesize": 21950464,
      "duration": 143,
      "default": true,
      "lyrics": [
        {
          "filename": "JPN - World End Economica Episode 1 - PC GAME ED - retrograde interior.ass",
          "default": true,
          "version": "Default",
          "subchecksum": "d4295ef2cdf817f469bd22a387a95a07"
        }
      ]
    }
  ],
  "data": {
    "created_at": "2020-05-09T22:32:18.646Z",
    "kid": "79754b2f-2bf6-42a4-b77b-542c75acb008",
    "modified_at": "2021-02-25T13:37:32.250Z",
    "repository": "kara.moe",
    "tags": {
      "authors": [
        "5cb3d0c5-479e-4224-b6ec-b27209e933a0"
      ],
      "collections": [
        "c7db86a0-ff64-4044-9be4-66dd1ef1d1c1"
      ],
      "creators": [
        "fda14a2c-77a7-4cfc-b53d-b61c8283e4d1"
      ],
      "families": [
        "dbedd6b3-d125-4cd8-aa32-c4175e4ca3a3"
      ],
      "groups": [
        "60defa7b-774e-4680-8321-51b742c2e009",
        "ae613721-1fbe-480d-ba6b-d6d0702b184d"
      ],
      "langs": [
        "4dcf9614-7914-42aa-99f4-dbce2e059133"
      ],
      "origins": [
        "2f96e82c-c61b-4413-817e-e6b247509b95"
      ],
      "platforms": [
        "3c15f758-e1bc-4266-8bb9-3c14112f504a"
      ],
      "series": [
        "45ddee86-55ff-4af0-96b8-75ed659e38de"
      ],
      "singers": [
        "26fcb5f6-06ef-40d1-aa62-0284cf7a2ca0"
      ],
      "songtypes": [
        "38c77c56-2b95-4040-b676-0994a8cb0597"
      ],
      "songwriters": [
        "efe8a5a9-23f4-484f-9558-56e1a200ba9f"
      ],
      "franchises": [
        "15a157f2-02d4-488a-a625-054096e8e5a1"
      ]
    },
    "title": "retrograde interior",
    "titles": {
      "eng": "retrograde interior"
    },
    "year": 2011,
    "titles_default_language": "eng"
  }
}