{
  "header": {
    "version": 4,
    "description": "Karaoke Mugen Karaoke Data File"
  },
  "medias": [
    {
      "version": "Default",
      "filename": "JPN - Ikebukuro West Gate Park - ED - Boukyaku no sora.mp4",
      "audiogain": 4.49,
      "loudnorm": "-22.06,-10.78,3.00,-32.06,-0.29",
      "filesize": 181594773,
      "duration": 119,
      "default": true,
      "lyrics": [
        {
          "filename": "JPN - Ikebukuro West Gate Park - ED - Boukyaku no sora.ass",
          "default": true,
          "version": "Default"
        }
      ]
    }
  ],
  "data": {
    "created_at": "2022-09-23T21:48:09.102Z",
    "ignoreHooks": false,
    "kid": "0dd8ba34-aa38-4467-9c84-aafe4b229aec",
    "modified_at": "2022-09-26T21:26:03.440Z",
    "repository": "kara.moe",
    "tags": {
      "authors": [
        "de87b60c-9c4f-4336-a981-02b02e420918"
      ],
      "collections": [
        "c7db86a0-ff64-4044-9be4-66dd1ef1d1c1",
        "dbcf2c22-524d-4708-99bb-601703633927"
      ],
      "creators": [
        "0d86c4b3-0672-46ed-aae7-8a1178243e5c"
      ],
      "families": [
        "5391f9fe-638c-415f-8dc9-958e3a2c5787"
      ],
      "groups": [
        "3c14c864-533c-49e6-a3cc-6969f1233775"
      ],
      "langs": [
        "4dcf9614-7914-42aa-99f4-dbce2e059133"
      ],
      "origins": [
        "28650021-2b2a-4a55-aff4-85dd4896c687"
      ],
      "series": [
        "78455198-c770-4367-bee1-b67481af174e"
      ],
      "singers": [
        "e67be762-9905-4bc5-9bf7-862192350be2"
      ],
      "songtypes": [
        "38c77c56-2b95-4040-b676-0994a8cb0597"
      ],
      "songwriters": [
        "95aea2c7-2b6e-4246-9ea7-a6ca34d4d8f6"
      ]
    },
    "titles": {
      "jpn": "忘却の空",
      "qro": "Boukyaku no sora"
    },
    "titles_default_language": "qro",
    "title": "Boukyaku no sora",
    "year": 2000
  }
}