{
  "header": {
    "version": 4,
    "description": "Karaoke Mugen Karaoke Data File"
  },
  "medias": [
    {
      "version": "Default",
      "filename": "JPN - Summer Time Rendering - ED2 - Shitsuren Song Takusan Kiite Naite Bakari no Watashi wa Mou.mp4",
      "audiogain": -0.57,
      "loudnorm": "-17.11,-3.02,5.40,-27.43,-0.76",
      "filesize": 17879421,
      "duration": 90,
      "default": true,
      "lyrics": [
        {
          "filename": "JPN - Summer Time Rendering - ED2 - Shitsuren Song Takusan Kiite Naite Bakari no Watashi wa Mou.ass",
          "default": true,
          "version": "Default"
        }
      ]
    }
  ],
  "data": {
    "created_at": "2022-07-28T18:32:39.652Z",
    "ignoreHooks": false,
    "kid": "58ae9b91-fbba-43e8-ae07-e93b8536d6d9",
    "modified_at": "2022-07-28T18:33:49.984Z",
    "repository": "kara.moe",
    "songorder": 2,
    "tags": {
      "authors": [
        "278c6742-0b75-43dd-b317-2ea112952b4a"
      ],
      "collections": [
        "c7db86a0-ff64-4044-9be4-66dd1ef1d1c1"
      ],
      "creators": [
        "03fe574b-c7f5-4520-96dc-47320c39e2cc"
      ],
      "families": [
        "0377db02-3af6-43b8-9b08-c759df3d25c3"
      ],
      "groups": [
        "8c22c899-b3ed-42da-a548-ce00f950798b",
        "8e209ae4-4381-438f-89dc-1b21752027d2"
      ],
      "langs": [
        "4dcf9614-7914-42aa-99f4-dbce2e059133"
      ],
      "origins": [
        "938de218-5343-4865-94d3-fb33f2eaa152"
      ],
      "series": [
        "f088821b-48e4-48bd-96fa-683fe3b54a04"
      ],
      "singers": [
        "5144fcd3-44a7-4bb4-8cdf-be3aeb556d8a"
      ],
      "songtypes": [
        "38c77c56-2b95-4040-b676-0994a8cb0597"
      ],
      "songwriters": [
        "5144fcd3-44a7-4bb4-8cdf-be3aeb556d8a"
      ]
    },
    "titles": {
      "jpn": " 失恋ソング沢山聴いて 泣いてばかりの私はもう.",
      "qro": "Shitsuren Song Takusan Kiite Naite Bakari no Watashi wa Mô."
    },
    "titles_default_language": "qro",
    "titles_aliases": [
      "Mou"
    ],
    "title": "Shitsuren Song Takusan Kiite Naite Bakari no Watashi wa Mô.",
    "year": 2022
  }
}