{
  "header": {
    "version": 4,
    "description": "Karaoke Mugen Karaoke Data File"
  },
  "medias": [
    {
      "version": "Default",
      "filename": "JPN - ZUTOMAYO - MV - Stay Foolish ~ Off Vocal Vers.mp4",
      "audiogain": -7.09,
      "loudnorm": "-10.40,0.86,5.40,-20.56,-0.99",
      "filesize": 75671414,
      "duration": 258,
      "default": true,
      "lyrics": [
        {
          "filename": "JPN - ZUTOMAYO - MV - Stay Foolish ~ Off Vocal Vers.ass",
          "default": true,
          "version": "Default"
        }
      ]
    }
  ],
  "data": {
    "created_at": "2021-10-20T17:10:46.107Z",
    "ignoreHooks": false,
    "kid": "7a1b2110-0d78-490a-a3f8-1269f2485ea2",
    "modified_at": "2022-10-19T15:08:03.672Z",
    "parents": [
      "a96d6998-b107-45ad-a97d-b8f69e680ca9"
    ],
    "repository": "kara.moe",
    "tags": {
      "authors": [
        "5e93f02a-bcd1-40a9-ba7a-91ada6683aea",
        "90698f28-1d62-4673-82c4-33ae96b1ba97"
      ],
      "collections": [
        "dbcf2c22-524d-4708-99bb-601703633927"
      ],
      "creators": [
        "ac881130-138c-46ef-b65e-c078971cfcda"
      ],
      "families": [
        "0377db02-3af6-43b8-9b08-c759df3d25c3"
      ],
      "groups": [
        "8e209ae4-4381-438f-89dc-1b21752027d2"
      ],
      "langs": [
        "4dcf9614-7914-42aa-99f4-dbce2e059133"
      ],
      "singers": [
        "d3f693d0-7d45-465e-82ed-a6723c600008"
      ],
      "singergroups": [
        "c7d361f6-c1cf-44b2-b40a-a18aa90f2d8f"
      ],
      "songtypes": [
        "7be1b15c-cff8-4b37-a649-5c90f3d569a9"
      ],
      "songwriters": [
        "c7d361f6-c1cf-44b2-b40a-a18aa90f2d8f"
      ],
      "versions": [
        "c0cc87b9-55b9-40f0-878a-fbb9e34c151e"
      ]
    },
    "titles": {
      "eng": "Stay Foolish",
      "jpn": "ばかじゃないのに",
      "qro": "Baka ja Nai no ni"
    },
    "titles_default_language": "eng",
    "title": "Stay Foolish",
    "year": 2021
  }
}