{
  "header": {
    "version": 4,
    "description": "Karaoke Mugen Karaoke Data File"
  },
  "medias": [
    {
      "version": "Default",
      "filename": "JPN - Kyoukai no Rinne - OP1 - Oka Ranman ~ Alternative Vers.mp4",
      "audiogain": 4.98,
      "loudnorm": "-21.48,-14.00,1.30,-31.57,0.04",
      "filesize": 51107133,
      "duration": 92,
      "default": true,
      "lyrics": [
        {
          "filename": "JPN - Kyoukai no Rinne - OP1 - Oka Ranman ~ Alternative Vers.ass",
          "default": true,
          "version": "Default"
        }
      ]
    }
  ],
  "data": {
    "comment": "Ajout opening alternatif Kyoukai no Rinne. UniversJB",
    "created_at": "2022-12-01T17:08:10.574Z",
    "ignoreHooks": false,
    "kid": "5b89294a-521e-4696-9620-9221014478af",
    "modified_at": "2022-12-01T17:08:10.992Z",
    "parents": [
      "c6a6e367-8566-4728-93e9-32774022d6aa"
    ],
    "repository": "kara.moe",
    "songorder": 1,
    "tags": {
      "authors": [
        "2eefc5c6-768c-4739-a6e0-ff4bada2a20a",
        "c1d13047-c6ce-4772-a06d-1808fd3d0476"
      ],
      "collections": [
        "c7db86a0-ff64-4044-9be4-66dd1ef1d1c1"
      ],
      "creators": [
        "a06f41a3-31b6-462a-a195-e48a11386da3"
      ],
      "families": [
        "0377db02-3af6-43b8-9b08-c759df3d25c3"
      ],
      "groups": [
        "ae613721-1fbe-480d-ba6b-d6d0702b184d"
      ],
      "langs": [
        "4dcf9614-7914-42aa-99f4-dbce2e059133"
      ],
      "misc": [
        "fe819ff1-9db8-4a0f-85dc-0e322c9126c4"
      ],
      "origins": [
        "938de218-5343-4865-94d3-fb33f2eaa152"
      ],
      "series": [
        "a89db341-e70a-4bdb-a3d8-4200150fd00b"
      ],
      "singers": [
        "ac3c8455-883e-4dbf-a6dd-2154397e7aba"
      ],
      "songtypes": [
        "f02ad9b3-0bd9-4aad-85b3-9976739ba0e4"
      ],
      "songwriters": [
        "7943db54-9965-4f59-a2a7-8b209ee473f8"
      ],
      "versions": [
        "9f63c359-d1bf-425a-bcf5-b245c2c9211d"
      ]
    },
    "titles": {
      "jpn": "桜花爛漫",
      "qro": "Oka Ranman"
    },
    "titles_default_language": "qro",
    "year": 2015
  }
}