{
  "header": {
    "version": 4,
    "description": "Karaoke Mugen Karaoke Data File"
  },
  "medias": [
    {
      "version": "Default",
      "filename": "JPN - Love Live! Sunshine!! - AUDIO - Yosoku Fukanou Driving! ~ Full Vers.mp3",
      "audiogain": -11.67,
      "loudnorm": "-5.48,2.46,2.60,-15.53,-0.40",
      "filesize": 9356124,
      "duration": 227,
      "default": true,
      "lyrics": [
        {
          "filename": "JPN - Love Live! Sunshine!! - AUDIO - Yosoku Fukanou Driving! ~ Full Vers.ass",
          "default": true,
          "version": "Default"
        }
      ]
    }
  ],
  "data": {
    "created_at": "2023-01-22T12:43:24.725Z",
    "ignoreHooks": false,
    "kid": "2b528ce0-6292-4c27-ac5d-a85960acb79f",
    "modified_at": "2023-01-22T12:45:04.677Z",
    "repository": "kara.moe",
    "tags": {
      "authors": [
        "449844e4-3a1f-46e1-8a92-bf72e2d1b6f1"
      ],
      "collections": [
        "dbcf2c22-524d-4708-99bb-601703633927"
      ],
      "creators": [
        "b2805292-730e-473a-96f0-fd8e7ffd1fd7"
      ],
      "families": [
        "0377db02-3af6-43b8-9b08-c759df3d25c3"
      ],
      "genres": [
        "caa86df2-0d59-474b-885c-f240a9e891b0"
      ],
      "groups": [
        "ae613721-1fbe-480d-ba6b-d6d0702b184d"
      ],
      "langs": [
        "4dcf9614-7914-42aa-99f4-dbce2e059133"
      ],
      "series": [
        "63466536-1102-4f91-b167-4380d274e2a3"
      ],
      "singers": [
        "2dcdc517-a816-496e-8bc8-8ce976e608c4",
        "9cd8d2dd-4328-4186-9d11-d5b021ae9fc0",
        "e3ef4054-6292-4b5f-ad14-1008bae5e375"
      ],
      "singergroups": [
        "b34161c7-a60d-4f1a-8436-11abc0875436"
      ],
      "songtypes": [
        "42a262ae-acba-4ab5-a446-c5789c96c821"
      ],
      "songwriters": [
        "236a5b15-fc97-4075-baab-537494d9b271",
        "3d512c13-48f2-43fd-9202-12de01495c1e",
        "f41e7218-6c19-4e19-9b5f-4612dcd58243"
      ],
      "versions": [
        "c2143a7f-6970-450e-8a79-0302db9220a9"
      ],
      "franchises": [
        "fd5d066e-e85a-4eea-8688-2979a887450a"
      ]
    },
    "titles": {
      "qro": "Yosoku Fukanou Driving!",
      "jpn": "予測不可能Driving!"
    },
    "titles_default_language": "qro",
    "year": 2018
  }
}