{
  "header": {
    "version": 4,
    "description": "Karaoke Mugen Karaoke Data File"
  },
  "medias": [
    {
      "version": "Default",
      "filename": "JPN - Kidou Senshi Gundam SEED Destiny - IN - Emotion.mp4",
      "audiogain": 2.97,
      "loudnorm": "-21.28,-6.64,2.80,-31.34,-0.20",
      "filesize": 52021077,
      "duration": 238,
      "default": true,
      "lyrics": [
        {
          "filename": "JPN - Kidou Senshi Gundam SEED Destiny - IN - Emotion.ass",
          "default": true,
          "version": "Default",
          "subchecksum": "09dc1745a881550696cc212ba89d53df"
        }
      ]
    }
  ],
  "data": {
    "created_at": "2018-11-06T13:53:47.000Z",
    "kid": "2673b373-2456-4ada-b917-7a893304c374",
    "modified_at": "2021-02-25T12:00:11.793Z",
    "repository": "kara.moe",
    "tags": {
      "authors": [
        "ad713171-dcf0-4076-911c-6764037096a1"
      ],
      "collections": [
        "c7db86a0-ff64-4044-9be4-66dd1ef1d1c1"
      ],
      "creators": [
        "ef8f80e1-d244-4aea-b7f0-984d6dd4b82b"
      ],
      "families": [
        "0377db02-3af6-43b8-9b08-c759df3d25c3"
      ],
      "genres": [
        "caa86df2-0d59-474b-885c-f240a9e891b0",
        "f60ba57d-5ef4-49e0-b93b-d0dcbcff6592"
      ],
      "groups": [
        "3c14c864-533c-49e6-a3cc-6969f1233775",
        "8c22c899-b3ed-42da-a548-ce00f950798b"
      ],
      "langs": [
        "4dcf9614-7914-42aa-99f4-dbce2e059133"
      ],
      "origins": [
        "938de218-5343-4865-94d3-fb33f2eaa152"
      ],
      "series": [
        "2e3ef498-e3f2-4609-8e34-916fbbf16ecf"
      ],
      "singers": [
        "6008adae-7997-4a23-ac14-f51cfe4ec984"
      ],
      "songtypes": [
        "5e5250d9-351a-4a82-98eb-55db50ad8962"
      ],
      "songwriters": [
        "6f1d5ed4-a27e-402b-a67a-7cb50a451474",
        "b2589e70-bebe-40cc-b9a2-fffb0d1605c9"
      ],
      "franchises": [
        "e6ade589-c2e4-49a1-acdb-ea9b03e57240"
      ]
    },
    "title": "Emotion",
    "titles": {
      "eng": "EMOTION"
    },
    "year": 2004,
    "titles_default_language": "eng"
  }
}