{
  "header": {
    "version": 4,
    "description": "Karaoke Mugen Karaoke Data File"
  },
  "medias": [
    {
      "version": "Default",
      "filename": "JPN - Re Zero kara Hajimeru Isekai Seikatsu - AMV - Suki desu.mp4",
      "audiogain": -9.43,
      "loudnorm": "-9.07,1.47,5.00,-19.36,-0.49",
      "filesize": 33190789,
      "duration": 162,
      "default": true,
      "lyrics": [
        {
          "filename": "JPN - Re Zero kara Hajimeru Isekai Seikatsu - AMV - Suki desu.ass",
          "default": true,
          "version": "Default"
        }
      ]
    }
  ],
  "data": {
    "created_at": "2022-04-17T19:40:40.881Z",
    "ignoreHooks": false,
    "kid": "bf9b45c6-d3d9-4ad9-a60f-1650e2d5ef03",
    "modified_at": "2022-04-17T19:40:41.732Z",
    "repository": "kara.moe",
    "tags": {
      "authors": [
        "ba4c7606-1e96-4c45-8e21-d5103477336b"
      ],
      "collections": [
        "c7db86a0-ff64-4044-9be4-66dd1ef1d1c1"
      ],
      "creators": [
        "01b5630b-d291-4ad5-a781-2cb717804d18"
      ],
      "families": [
        "0377db02-3af6-43b8-9b08-c759df3d25c3"
      ],
      "groups": [
        "2b4e9972-5e17-481b-99f5-d0787c0ada56",
        "ae613721-1fbe-480d-ba6b-d6d0702b184d"
      ],
      "langs": [
        "4dcf9614-7914-42aa-99f4-dbce2e059133"
      ],
      "origins": [
        "938de218-5343-4865-94d3-fb33f2eaa152"
      ],
      "series": [
        "6339add6-b9a3-46c4-9488-2660caa30487"
      ],
      "singers": [
        "7e153b87-dd5f-4ce1-b187-9941ca95ce3e"
      ],
      "songtypes": [
        "a6c79ce5-89ee-4d50-afe8-3abd7317f6c2"
      ],
      "franchises": [
        "6339add6-b9a3-46c4-9488-2660caa30487"
      ]
    },
    "titles": {
      "qro": "Suki desu"
    },
    "titles_default_language": "qro",
    "title": "Suki desu",
    "year": 2016
  }
}