{
  "header": {
    "version": 4,
    "description": "Karaoke Mugen Karaoke Data File"
  },
  "medias": [
    {
      "version": "Default",
      "filename": "JPN - Touhou - MV - effulgent SiGN.mp4",
      "audiogain": -3.49,
      "loudnorm": "-13.64,-3.79,4.60,-23.75,-0.24",
      "filesize": 89571994,
      "duration": 246,
      "default": true,
      "lyrics": [
        {
          "filename": "JPN - Touhou - MV - effulgent SiGN.ass",
          "default": true,
          "version": "Default"
        }
      ]
    }
  ],
  "data": {
    "created_at": "2022-09-18T16:50:18.889Z",
    "ignoreHooks": false,
    "kid": "77fba564-6dde-48f2-b15f-f5e2bc222846",
    "modified_at": "2022-10-01T23:22:30.992Z",
    "repository": "kara.moe",
    "tags": {
      "authors": [
        "1fbfef73-6731-40df-ba51-65a54b9d1605"
      ],
      "collections": [
        "c7db86a0-ff64-4044-9be4-66dd1ef1d1c1"
      ],
      "creators": [
        "a03b4a11-fcbd-4383-80ae-af5853ef6df0"
      ],
      "families": [
        "0377db02-3af6-43b8-9b08-c759df3d25c3"
      ],
      "groups": [
        "ae613721-1fbe-480d-ba6b-d6d0702b184d"
      ],
      "langs": [
        "4dcf9614-7914-42aa-99f4-dbce2e059133"
      ],
      "origins": [
        "ac5085db-52d8-44b4-8fbb-1697b24d2046"
      ],
      "series": [
        "1bdaa5a1-dfa6-4365-b746-7a0b194dafd6"
      ],
      "singers": [
        "cc7849c0-2465-4d40-93f8-4d657251097f"
      ],
      "songtypes": [
        "7be1b15c-cff8-4b37-a649-5c90f3d569a9"
      ],
      "songwriters": [
        "26cb5252-8510-49e0-897c-a611a05fc056",
        "27ec134d-96f7-499d-b956-8dc93d77b330",
        "3b6f9d12-8e35-4c78-9316-8d27fb35d19b",
        "ebe536cd-79cf-401d-88d1-5fabc75db636"
      ],
      "warnings": [
        "51288600-29e0-4e41-a42b-77f0498e5691"
      ],
      "franchises": [
        "1bdaa5a1-dfa6-4365-b746-7a0b194dafd6"
      ]
    },
    "titles": {
      "eng": "effulgent SiGN"
    },
    "titles_default_language": "eng",
    "title": "effulgent SiGN",
    "year": 2012
  }
}