{
  "header": {
    "version": 4,
    "description": "Karaoke Mugen Karaoke Data File"
  },
  "medias": [
    {
      "version": "Miku Expo 2018 Paris",
      "filename": "JPN - Miku Hatsune - LIVE - Unknown Mother-Goose ~ Miku Expo 2018 Paris ~ Full Vers.mp4",
      "audiogain": 7.31,
      "loudnorm": "-23.88,-11.19,3.20,-34.02,-0.04",
      "filesize": 203705720,
      "duration": 286,
      "default": true,
      "lyrics": [
        {
          "filename": "JPN - Miku Hatsune - LIVE - Unknown Mother-Goose ~ Miku Expo 2018 Paris ~ Full Vers.ass",
          "default": true,
          "version": "Default"
        }
      ]
    }
  ],
  "data": {
    "created_at": "2019-04-10T23:48:24.000Z",
    "ignoreHooks": false,
    "kid": "caf75f7d-74cf-4d90-a195-3ff5c0b93ed7",
    "modified_at": "2022-12-21T22:36:37.119Z",
    "repository": "kara.moe",
    "tags": {
      "authors": [
        "1df04771-a378-4f14-a5e1-1455187d681a"
      ],
      "collections": [
        "c7db86a0-ff64-4044-9be4-66dd1ef1d1c1"
      ],
      "creators": [
        "b08f2c69-8493-4187-a86d-495b91f1a6a5"
      ],
      "families": [
        "5391f9fe-638c-415f-8dc9-958e3a2c5787"
      ],
      "genres": [
        "45623cae-6d68-4304-a49b-896d1d6f4580"
      ],
      "groups": [
        "ae613721-1fbe-480d-ba6b-d6d0702b184d"
      ],
      "langs": [
        "4dcf9614-7914-42aa-99f4-dbce2e059133"
      ],
      "misc": [
        "ec4fee75-71fb-45b4-9772-2ca374b4b600"
      ],
      "singers": [
        "4407ba0e-5de7-4add-870f-7ac95a4804c9"
      ],
      "songtypes": [
        "a0167949-580c-4de3-bf13-497e462e02f3"
      ],
      "songwriters": [
        "26f212a2-3dcc-40f0-8b0e-0e65b6bdb80e",
        "3d9cfa91-782e-450f-99d1-911f51560af7",
        "a1fa74a3-4185-4faf-aae6-d1b9f07784f0",
        "aa4108b3-914c-4ad6-8c72-2d13457e3ed3",
        "b08f2c69-8493-4187-a86d-495b91f1a6a5"
      ],
      "versions": [
        "c2143a7f-6970-450e-8a79-0302db9220a9"
      ],
      "warnings": [
        "51288600-29e0-4e41-a42b-77f0498e5691"
      ]
    },
    "titles": {
      "eng": "Unknown Mother-Goose ~ Miku Expo 2018 Paris",
      "jpn": "アンノウンマザーグース ~ Miku Expo 2018 Paris"
    },
    "titles_default_language": "eng",
    "year": 2018
  }
}