{
  "header": {
    "version": 4,
    "description": "Karaoke Mugen Karaoke Data File"
  },
  "medias": [
    {
      "version": "Default",
      "filename": "JPN - Tenki no Ko - MOVIE IN - Ai ni Dekiru Koto wa mada Aru kai.mp4",
      "audiogain": 3.36,
      "loudnorm": "-22.59,-3.82,10.10,-33.10,-1.98",
      "filesize": 54885463,
      "duration": 149,
      "default": true,
      "lyrics": [
        {
          "filename": "JPN - Tenki no Ko - MOVIE IN - Ai ni Dekiru Koto wa mada Aru kai.ass",
          "default": true,
          "version": "Default"
        }
      ]
    }
  ],
  "data": {
    "created_at": "2020-05-27T16:47:30.022Z",
    "ignoreHooks": false,
    "kid": "a4e1cdd8-683a-4771-988d-61126e3dbb64",
    "modified_at": "2022-12-22T10:49:41.306Z",
    "repository": "kara.moe",
    "tags": {
      "authors": [
        "87096920-112f-485f-a310-04156cb4624d",
        "fa399f2f-ea1d-4902-8796-ea6d8218aff0"
      ],
      "collections": [
        "c7db86a0-ff64-4044-9be4-66dd1ef1d1c1"
      ],
      "creators": [
        "855072bc-b53e-4b85-b692-668294b4e151"
      ],
      "families": [
        "0377db02-3af6-43b8-9b08-c759df3d25c3"
      ],
      "groups": [
        "60defa7b-774e-4680-8321-51b742c2e009",
        "ae613721-1fbe-480d-ba6b-d6d0702b184d"
      ],
      "langs": [
        "4dcf9614-7914-42aa-99f4-dbce2e059133"
      ],
      "origins": [
        "c8ca9dea-d8b4-48fe-8427-d911653232e9"
      ],
      "series": [
        "fabb6c5b-c44a-4e26-8e6e-eca5bb28fd43"
      ],
      "singers": [
        "2afe9818-539c-4010-ae0a-7fa4c009fdbe"
      ],
      "songtypes": [
        "5e5250d9-351a-4a82-98eb-55db50ad8962"
      ],
      "songwriters": [
        "2afe9818-539c-4010-ae0a-7fa4c009fdbe"
      ]
    },
    "titles": {
      "eng": "Is There Still Anything That Love Can Do?",
      "jpn": "愛にできることはまだあるかい",
      "qro": "Ai ni Dekiru Koto wa mada Aru kai"
    },
    "titles_default_language": "qro",
    "year": 2019
  }
}