{
  "header": {
    "version": 4,
    "description": "Karaoke Mugen Karaoke Data File"
  },
  "medias": [
    {
      "version": "Default",
      "filename": "JPN - Yokufashi no Uta - OP - Daten.mp4",
      "audiogain": -9.32,
      "loudnorm": "-7.11,1.16,3.00,-17.44,-0.20",
      "filesize": 34795011,
      "duration": 90,
      "default": true,
      "lyrics": [
        {
          "filename": "JPN - Yokufashi no Uta - OP - Daten.ass",
          "default": true,
          "version": "Default"
        }
      ]
    }
  ],
  "data": {
    "created_at": "2022-07-07T20:06:11.840Z",
    "ignoreHooks": false,
    "kid": "1363ec8f-bb11-4767-80fb-27fb7cbca5e9",
    "modified_at": "2022-07-07T20:06:13.264Z",
    "repository": "kara.moe",
    "tags": {
      "authors": [
        "1df04771-a378-4f14-a5e1-1455187d681a"
      ],
      "collections": [
        "c7db86a0-ff64-4044-9be4-66dd1ef1d1c1"
      ],
      "creators": [
        "58186e9d-9478-47dc-8c95-eeea5c0a3317"
      ],
      "families": [
        "0377db02-3af6-43b8-9b08-c759df3d25c3"
      ],
      "langs": [
        "4dcf9614-7914-42aa-99f4-dbce2e059133"
      ],
      "origins": [
        "938de218-5343-4865-94d3-fb33f2eaa152"
      ],
      "series": [
        "0e044fb7-6c46-4dfe-9a8c-e9cfadbc354f"
      ],
      "singers": [
        "0fb20f65-a924-450b-93a9-0beabd19b354"
      ],
      "songtypes": [
        "f02ad9b3-0bd9-4aad-85b3-9976739ba0e4"
      ],
      "songwriters": [
        "5139894b-25e2-4e22-8960-534a1524a277",
        "1946f3be-f3da-44f9-9d2f-5925ed3ee3c1",
        "e1e1abbd-5c2e-406e-b0e9-530661f18bbe"
      ],
      "groups": [
        "8e209ae4-4381-438f-89dc-1b21752027d2"
      ]
    },
    "titles": {
      "jpn": "堕天",
      "qro": "Daten"
    },
    "titles_default_language": "qro",
    "title": "Daten",
    "year": 2022
  }
}