{
  "header": {
    "version": 4,
    "description": "Karaoke Mugen Karaoke Data File"
  },
  "medias": [
    {
      "version": "Default",
      "filename": "JPN - Diabolik Lovers Lunatic Parade - PSV GAME OP - Fanatic of Night.mp4",
      "audiogain": -9.54,
      "loudnorm": "-7.90,1.87,4.80,-18.19,-0.30",
      "filesize": 43984213,
      "duration": 168,
      "default": true,
      "lyrics": [
        {
          "filename": "JPN - Diabolik Lovers Lunatic Parade - PSV GAME OP - Fanatic of Night.ass",
          "default": true,
          "version": "Default",
          "subchecksum": "aa6921780cc7e1d8c1580f108ea090d3"
        }
      ]
    }
  ],
  "data": {
    "created_at": "2019-04-09T21:40:48.000Z",
    "kid": "2efa6c08-3024-4480-93ce-2c6442970814",
    "modified_at": "2021-02-25T11:09:28.442Z",
    "repository": "kara.moe",
    "tags": {
      "authors": [
        "2a9bbf75-0722-4b4a-9935-caa92f38fdd1"
      ],
      "collections": [
        "c7db86a0-ff64-4044-9be4-66dd1ef1d1c1"
      ],
      "creators": [
        "0a0e4a48-34fa-4892-8ff0-0307e778f9ec",
        "98ab71c6-8066-4d59-84a2-9833a27ec461"
      ],
      "families": [
        "dbedd6b3-d125-4cd8-aa32-c4175e4ca3a3"
      ],
      "groups": [
        "ae613721-1fbe-480d-ba6b-d6d0702b184d"
      ],
      "langs": [
        "4dcf9614-7914-42aa-99f4-dbce2e059133"
      ],
      "origins": [
        "2f96e82c-c61b-4413-817e-e6b247509b95",
        "7025ae3c-7bd6-4787-8912-2c15063343bb"
      ],
      "platforms": [
        "e791f168-068f-4c05-aa36-e8d63726aa06"
      ],
      "series": [
        "1938de7b-8be8-4083-96a2-c246ca0b701c"
      ],
      "singers": [
        "1b061bf9-73e5-4365-b3f3-c31872fd8dab",
        "45487374-6f70-47e7-81b0-ce3cc1d88f4e",
        "526ce133-ad31-4dbe-9728-b34da460aefa",
        "660feb50-cd74-434a-be0c-6245ddd7f14b",
        "9783f31c-816f-4e25-8449-2b9403448bb5",
        "d6850099-08fa-4fe4-aa3a-aae9a2627095"
      ],
      "songtypes": [
        "f02ad9b3-0bd9-4aad-85b3-9976739ba0e4"
      ],
      "songwriters": [
        "c41cb891-206a-45e5-bf1c-5b98f2958b89",
        "dc4c9e3c-e1ff-4397-9312-6f04e79ef712"
      ],
      "franchises": [
        "39784028-8340-444b-a430-8cd97967ef30"
      ]
    },
    "title": "Fanatic of Night",
    "titles": {
      "eng": "Fanatic of Night"
    },
    "year": 2016,
    "titles_default_language": "eng"
  }
}