{
  "header": {
    "version": 4,
    "description": "Karaoke Mugen Karaoke Data File"
  },
  "medias": [
    {
      "version": "Default",
      "filename": "JPN - Rikei ga Koi ni Ochita no de Shoumei Shite Mita. - MV - Turing Love ~ Full Vers.mp4",
      "audiogain": -10.34,
      "loudnorm": "-7.16,1.19,3.30,-17.24,-0.34",
      "filesize": 80351827,
      "duration": 220,
      "default": true,
      "lyrics": [
        {
          "filename": "JPN - Rikei ga Koi ni Ochita no de Shoumei Shite Mita. - MV - Turing Love ~ Full Vers.ass",
          "default": true,
          "version": "Default"
        }
      ]
    }
  ],
  "data": {
    "created_at": "2021-08-07T21:29:39.047Z",
    "ignoreHooks": false,
    "kid": "0ef14044-2297-4b4c-8a2c-d5374ef0045a",
    "modified_at": "2022-01-21T18:22:48.986Z",
    "parents": [
      "573eae63-7929-4db1-b938-58fed32fd4b6"
    ],
    "repository": "kara.moe",
    "tags": {
      "authors": [
        "4b50fcec-273e-4cc5-83f2-b156c2300f7f"
      ],
      "collections": [
        "c7db86a0-ff64-4044-9be4-66dd1ef1d1c1"
      ],
      "creators": [
        "6fa9de67-21cf-420b-9ddb-57edb5abe523"
      ],
      "families": [
        "0377db02-3af6-43b8-9b08-c759df3d25c3"
      ],
      "groups": [
        "8e209ae4-4381-438f-89dc-1b21752027d2"
      ],
      "langs": [
        "4dcf9614-7914-42aa-99f4-dbce2e059133"
      ],
      "series": [
        "a41c38af-b962-463a-960d-1d2628828e31"
      ],
      "singers": [
        "08105799-cab0-4d51-8912-f6e397c29306",
        "6bc43435-9f6b-4c50-836b-7077cfdfe3e0"
      ],
      "songtypes": [
        "7be1b15c-cff8-4b37-a649-5c90f3d569a9"
      ],
      "songwriters": [
        "cb9b1959-0972-4eb8-9955-c2e4a4f3988d"
      ],
      "versions": [
        "c2143a7f-6970-450e-8a79-0302db9220a9"
      ],
      "franchises": [
        "a41c38af-b962-463a-960d-1d2628828e31"
      ]
    },
    "titles": {
      "eng": "Turing Love",
      "jpn": "チューリングラブ"
    },
    "title": "Turing Love",
    "year": 2020,
    "titles_default_language": "eng"
  }
}