{
  "header": {
    "version": 4,
    "description": "Karaoke Mugen Karaoke Data File"
  },
  "medias": [
    {
      "version": "Default",
      "filename": "JPN - Aiko Yanai - MV - Kabutomushi.mp4",
      "audiogain": -5.39,
      "loudnorm": "-13.28,-0.31,7.00,-23.45,-1.99",
      "filesize": 65252155,
      "duration": 150,
      "default": true,
      "lyrics": [
        {
          "filename": "JPN - Aiko Yanai - MV - Kabutomushi.ass",
          "default": true,
          "version": "Default"
        }
      ]
    }
  ],
  "data": {
    "created_at": "2022-02-13T18:50:03.539Z",
    "kid": "7120ec87-d392-4704-89da-7b757dc204a6",
    "modified_at": "2022-06-04T00:13:20.461Z",
    "repository": "kara.moe",
    "songorder": null,
    "tags": {
      "authors": [
        "54e1331b-ad2b-4d39-b203-de7bdd6e8f0d"
      ],
      "creators": [
        "97e62433-0f2f-4e1b-ba1e-109eec95dc11"
      ],
      "families": [
        "5391f9fe-638c-415f-8dc9-958e3a2c5787"
      ],
      "groups": [
        "24db50aa-a126-4d34-a48a-e45db79c4245",
        "2b4e9972-5e17-481b-99f5-d0787c0ada56"
      ],
      "langs": [
        "4dcf9614-7914-42aa-99f4-dbce2e059133"
      ],
      "singers": [
        "4b7b2ab5-3085-49ec-9c0b-32dcfed66024"
      ],
      "songtypes": [
        "7be1b15c-cff8-4b37-a649-5c90f3d569a9"
      ],
      "songwriters": [
        "4b7b2ab5-3085-49ec-9c0b-32dcfed66024"
      ],
      "collections": [
        "dbcf2c22-524d-4708-99bb-601703633927"
      ]
    },
    "titles": {
      "qro": "Kabutomushi",
      "jpn": "カブトムシ"
    },
    "titles_default_language": "qro",
    "title": "Kabutomushi",
    "year": 1999
  }
}