{
  "header": {
    "version": 4,
    "description": "Karaoke Mugen Karaoke Data File"
  },
  "medias": [
    {
      "version": "Default",
      "filename": "JPN - Shining Hearts - PSP GAME OP - Kokoro ni Todoku Uta.mp4",
      "audiogain": -6.78,
      "loudnorm": "-10.84,1.02,8.20,-21.11,-1.58",
      "filesize": 27062373,
      "duration": 107,
      "default": true,
      "lyrics": [
        {
          "filename": "JPN - Shining Hearts - PSP GAME OP - Kokoro ni Todoku Uta.ass",
          "default": true,
          "version": "Default",
          "subchecksum": "f169c5cf5de0ebd929ae07f666413413"
        }
      ]
    }
  ],
  "data": {
    "created_at": "2017-10-11T15:01:02.000Z",
    "kid": "f53eba4d-dd3f-402d-a82a-902298b1ee16",
    "modified_at": "2021-02-25T13:04:48.671Z",
    "repository": "kara.moe",
    "tags": {
      "authors": [
        "5bdaba57-27f8-4568-8806-76a807728766"
      ],
      "collections": [
        "c7db86a0-ff64-4044-9be4-66dd1ef1d1c1"
      ],
      "creators": [
        "d13f3645-9cfb-4571-9ddd-3e240ab767ce"
      ],
      "families": [
        "dbedd6b3-d125-4cd8-aa32-c4175e4ca3a3"
      ],
      "groups": [
        "ae613721-1fbe-480d-ba6b-d6d0702b184d"
      ],
      "langs": [
        "4dcf9614-7914-42aa-99f4-dbce2e059133"
      ],
      "platforms": [
        "6b101aff-4b7b-4b0d-b35e-0f1b67e38c9b"
      ],
      "series": [
        "917ff94c-6119-4da9-8691-e16f76d73623"
      ],
      "singers": [
        "bb51b8eb-d68c-4210-9a94-c8d67daa14d3"
      ],
      "songtypes": [
        "f02ad9b3-0bd9-4aad-85b3-9976739ba0e4"
      ],
      "songwriters": [
        "034a11e2-70b3-4cf9-b902-bc738e0a6773",
        "af3ffe51-8059-461c-bbb8-78ea388731f3"
      ],
      "franchises": [
        "917ff94c-6119-4da9-8691-e16f76d73623"
      ]
    },
    "title": "Kokoro ni Todoku Uta",
    "titles": {
      "qro": "Kokoro ni Todoku Uta",
      "jpn": "心に届く詩"
    },
    "year": 2010,
    "titles_default_language": "qro"
  }
}