{
  "header": {
    "version": 4,
    "description": "Karaoke Mugen Karaoke Data File"
  },
  "medias": [
    {
      "version": "Default",
      "filename": "JPN - Mahou Shoujo Site - OP - Changing point.mp4",
      "audiogain": -2.06,
      "loudnorm": "-16.13,-4.55,8.20,-26.50,-1.26",
      "filesize": 32099431,
      "duration": 89,
      "default": true,
      "lyrics": [
        {
          "filename": "JPN - Mahou Shoujo Site - OP - Changing point.ass",
          "default": true,
          "version": "Default"
        }
      ]
    }
  ],
  "data": {
    "created_at": "2018-06-18T15:29:08.000Z",
    "ignoreHooks": false,
    "kid": "9d937d8a-a7f7-423c-8ac0-b3bf9e2edbdf",
    "modified_at": "2022-10-23T15:54:52.699Z",
    "repository": "kara.moe",
    "tags": {
      "authors": [
        "b5116310-e69b-4ed4-9e47-c5c53ee69023"
      ],
      "collections": [
        "c7db86a0-ff64-4044-9be4-66dd1ef1d1c1"
      ],
      "creators": [
        "fbdea836-8b33-4ff2-99df-658567343466"
      ],
      "families": [
        "0377db02-3af6-43b8-9b08-c759df3d25c3"
      ],
      "groups": [
        "ae613721-1fbe-480d-ba6b-d6d0702b184d"
      ],
      "langs": [
        "4dcf9614-7914-42aa-99f4-dbce2e059133"
      ],
      "origins": [
        "938de218-5343-4865-94d3-fb33f2eaa152"
      ],
      "series": [
        "bfbbf0f1-92c3-4bad-b414-ef076388e77a"
      ],
      "singers": [
        "50ace48d-4f9f-47e6-894d-5d66c9fd2014",
        "5d3e8ad0-0315-423b-a6cf-4ebed7ad5093",
        "7e4bddde-27db-412b-b37d-678d367864af",
        "8f4dc795-4e05-4e8f-a5fc-61e45e229402",
        "92adbbb5-d77d-4ab5-9ea6-81cb0f04800a",
        "ccf6ab16-cd54-4031-a2c3-b67242b54518"
      ],
      "singergroups": [
        "d1824d3d-fe54-4fea-b529-355f7b6517f7"
      ],
      "songtypes": [
        "f02ad9b3-0bd9-4aad-85b3-9976739ba0e4"
      ],
      "songwriters": [
        "ad73a27b-de24-4a08-99fc-a16caf59f60d",
        "cedf3ed7-b004-4c3c-8f30-42995aa57211"
      ]
    },
    "titles": {
      "eng": "Changing point"
    },
    "titles_default_language": "eng",
    "title": "Changing point",
    "year": 2018
  }
}