{
  "header": {
    "version": 4,
    "description": "Karaoke Mugen Karaoke Data File"
  },
  "medias": [
    {
      "version": "Default",
      "filename": "JPN - Akaya Akashiya Ayakashi no - PC GAME OP - Akakakushi.mp4",
      "audiogain": -11.18,
      "loudnorm": "-8.31,0.75,13.10,-18.91,-1.15",
      "filesize": 99466814,
      "duration": 136,
      "default": true,
      "lyrics": [
        {
          "filename": "JPN - Akaya Akashiya Ayakashi no - PC GAME OP - Akakakushi.ass",
          "default": true,
          "version": "Default",
          "subchecksum": "320478bd14e6bc01b12bb5da393fdd9b"
        }
      ]
    }
  ],
  "data": {
    "created_at": "2017-10-11T15:01:40.000Z",
    "kid": "d8b90d4a-bb15-424d-9454-84a270d038bc",
    "modified_at": "2021-02-25T10:40:33.023Z",
    "repository": "kara.moe",
    "tags": {
      "authors": [
        "2a9bbf75-0722-4b4a-9935-caa92f38fdd1"
      ],
      "collections": [
        "c7db86a0-ff64-4044-9be4-66dd1ef1d1c1"
      ],
      "creators": [
        "f202084b-8dff-48b7-b327-71b166a2d64b"
      ],
      "families": [
        "dbedd6b3-d125-4cd8-aa32-c4175e4ca3a3"
      ],
      "groups": [
        "ae613721-1fbe-480d-ba6b-d6d0702b184d"
      ],
      "langs": [
        "4dcf9614-7914-42aa-99f4-dbce2e059133"
      ],
      "origins": [
        "2f96e82c-c61b-4413-817e-e6b247509b95"
      ],
      "platforms": [
        "3c15f758-e1bc-4266-8bb9-3c14112f504a"
      ],
      "series": [
        "e35250f7-4247-4dc0-80e5-6ea7c29620b9"
      ],
      "singers": [
        "cc413549-14dd-4cc1-87d6-022fa80fbdd8"
      ],
      "songtypes": [
        "f02ad9b3-0bd9-4aad-85b3-9976739ba0e4"
      ],
      "songwriters": [
        "498b46e7-f739-4fcb-b538-9f924d7572fc",
        "cc413549-14dd-4cc1-87d6-022fa80fbdd8"
      ]
    },
    "title": "Akakakushi",
    "titles": {
      "qro": "Akakakushi",
      "jpn": "朱隠し"
    },
    "year": 2011,
    "titles_default_language": "qro"
  }
}