{
  "header": {
    "version": 4,
    "description": "Karaoke Mugen Karaoke Data File"
  },
  "medias": [
    {
      "version": "Default",
      "filename": "JPN - Ayaka - MV - Real voice.mp4",
      "audiogain": -3.75,
      "loudnorm": "-13.62,-2.89,2.80,-23.86,-0.90",
      "filesize": 21460997,
      "duration": 243,
      "default": true,
      "lyrics": [
        {
          "filename": "JPN - Ayaka - MV - Real voice.ass",
          "default": true,
          "version": "Default"
        }
      ]
    }
  ],
  "data": {
    "created_at": "2019-10-28T18:11:54.000Z",
    "kid": "264b9359-7eb2-48f1-9a3a-06023c7ea89c",
    "modified_at": "2022-06-04T00:14:15.297Z",
    "repository": "kara.moe",
    "songorder": null,
    "tags": {
      "authors": [
        "1db1738f-acdc-42fc-aec3-60f4bddf660d"
      ],
      "creators": [
        "424f77b6-39e2-48a2-8135-295a801bacab"
      ],
      "families": [
        "5391f9fe-638c-415f-8dc9-958e3a2c5787"
      ],
      "groups": [
        "3c14c864-533c-49e6-a3cc-6969f1233775"
      ],
      "langs": [
        "4dcf9614-7914-42aa-99f4-dbce2e059133"
      ],
      "singers": [
        "77b8513e-b0ba-4bad-8ca9-408ee5ad87aa"
      ],
      "songtypes": [
        "7be1b15c-cff8-4b37-a649-5c90f3d569a9"
      ],
      "songwriters": [
        "77b8513e-b0ba-4bad-8ca9-408ee5ad87aa",
        "b1876116-5224-46ca-a1ac-7482816df89b"
      ],
      "collections": [
        "dbcf2c22-524d-4708-99bb-601703633927"
      ]
    },
    "titles": {
      "eng": "Real voice"
    },
    "titles_default_language": "eng",
    "title": "Real voice",
    "year": 2006
  }
}