{
  "header": {
    "version": 4,
    "description": "Karaoke Mugen Karaoke Data File"
  },
  "medias": [
    {
      "version": "Default",
      "filename": "JPN - Naruto Shippuuden - ED17 - FREEDOM.mp4",
      "audiogain": -0.94,
      "loudnorm": "-15.94,-6.79,2.00,-25.96,-0.66",
      "filesize": 19423471,
      "duration": 90,
      "default": true,
      "lyrics": [
        {
          "filename": "JPN - Naruto Shippuuden - ED17 - FREEDOM.ass",
          "default": true,
          "version": "Default",
          "subchecksum": "f87fc12f23fcd29318843f1e892d8554"
        }
      ]
    }
  ],
  "data": {
    "created_at": "2020-08-17T19:33:44.661Z",
    "kid": "0c17146a-00c0-4b41-970d-16da892212c3",
    "modified_at": "2021-02-25T12:33:38.722Z",
    "repository": "kara.moe",
    "songorder": 17,
    "tags": {
      "authors": [
        "5749c7ce-bd5b-4667-85af-7f7efbbb06ee"
      ],
      "collections": [
        "c7db86a0-ff64-4044-9be4-66dd1ef1d1c1"
      ],
      "creators": [
        "aaff4ba6-9a12-4bac-9bd0-c0cb783e4177"
      ],
      "families": [
        "0377db02-3af6-43b8-9b08-c759df3d25c3"
      ],
      "genres": [
        "a0aeef4a-6428-45ff-a6e1-468b595930c2"
      ],
      "groups": [
        "ae613721-1fbe-480d-ba6b-d6d0702b184d"
      ],
      "langs": [
        "4dcf9614-7914-42aa-99f4-dbce2e059133"
      ],
      "misc": [
        "fe819ff1-9db8-4a0f-85dc-0e322c9126c4"
      ],
      "origins": [
        "938de218-5343-4865-94d3-fb33f2eaa152"
      ],
      "series": [
        "afd38f79-188d-47e4-95c6-f74c38895574"
      ],
      "singers": [
        "3dd93fd3-6e03-40ff-9349-122d5080fcf7"
      ],
      "songtypes": [
        "38c77c56-2b95-4040-b676-0994a8cb0597"
      ],
      "songwriters": [
        "365e6fe4-2de7-4312-a616-a6337e0c587b",
        "8ffba14b-3e74-404a-bb00-29bef9e286ee",
        "92c62e4b-7f25-432d-9450-592e7b4a25ac",
        "ebc76501-5a91-4fb5-9822-30a17a576af7"
      ],
      "franchises": [
        "3201e723-3e75-46f9-bb21-d991f4f7731e"
      ]
    },
    "title": "FREEDOM",
    "titles": {
      "eng": "FREEDOM"
    },
    "year": 2011,
    "titles_default_language": "eng"
  }
}