{
  "header": {
    "version": 4,
    "description": "Karaoke Mugen Karaoke Data File"
  },
  "medias": [
    {
      "version": "Shinobu.",
      "filename": "JPN - Owarimonogatari - ED1 - Sayonara no yukue ~ Shinobu Vers. ~ Alternative Vers.mp4",
      "audiogain": 5.19,
      "loudnorm": "-23.39,-9.78,7.10,-33.55,-0.83",
      "filesize": 33780517,
      "duration": 91,
      "default": true,
      "lyrics": [
        {
          "filename": "JPN - Owarimonogatari - ED1 - Sayonara no yukue ~ Shinobu Vers. ~ Alternative Vers.ass",
          "default": true,
          "version": "Default"
        }
      ]
    }
  ],
  "data": {
    "created_at": "2017-10-11T17:03:08.000Z",
    "ignoreHooks": false,
    "kid": "3a93ba12-0263-4bc5-9ab8-25fb380d53a9",
    "modified_at": "2022-03-24T11:20:19.614Z",
    "parents": [
      "d276b02b-55e1-4041-973d-c891ef5f6f1b"
    ],
    "repository": "kara.moe",
    "songorder": 1,
    "tags": {
      "authors": [
        "fa399f2f-ea1d-4902-8796-ea6d8218aff0"
      ],
      "collections": [
        "c7db86a0-ff64-4044-9be4-66dd1ef1d1c1"
      ],
      "creators": [
        "c3bd80ef-d1fe-427f-913f-a2ba2fe66114"
      ],
      "families": [
        "0377db02-3af6-43b8-9b08-c759df3d25c3"
      ],
      "groups": [
        "ae613721-1fbe-480d-ba6b-d6d0702b184d"
      ],
      "langs": [
        "4dcf9614-7914-42aa-99f4-dbce2e059133"
      ],
      "misc": [
        "fe819ff1-9db8-4a0f-85dc-0e322c9126c4"
      ],
      "origins": [
        "938de218-5343-4865-94d3-fb33f2eaa152"
      ],
      "series": [
        "249bbd66-ff32-475e-8197-dd2042b9c5e3"
      ],
      "singers": [
        "e90d1b5e-f919-4b7b-9ba5-9a9d4e21e8a6"
      ],
      "songtypes": [
        "38c77c56-2b95-4040-b676-0994a8cb0597"
      ],
      "songwriters": [
        "430ca736-28dd-4182-8a8d-1e1065e2d405",
        "e90d1b5e-f919-4b7b-9ba5-9a9d4e21e8a6"
      ],
      "versions": [
        "9f63c359-d1bf-425a-bcf5-b245c2c9211d"
      ],
      "franchises": [
        "94c05ef3-bfff-4a4d-a1a4-b07c32389971"
      ]
    },
    "titles": {
      "qro": "Sayonara no yukue ~ Shinobu Vers.",
      "jpn": "さよならのゆくえ ~ 忍 Vers."
    },
    "titles_default_language": "qro",
    "title": "Sayonara no yukue ~ Shinobu Vers.",
    "year": 2015
  }
}