{
  "header": {
    "version": 4,
    "description": "Karaoke Mugen Karaoke Data File"
  },
  "medias": [
    {
      "version": "Default",
      "filename": "JPN - Kanojo, Okarishimasu - ED3 - Ienai.mp4",
      "audiogain": 4.02,
      "loudnorm": "-21.24,-10.09,5.80,-31.49,-0.91",
      "filesize": 90610899,
      "duration": 89,
      "default": true,
      "lyrics": [
        {
          "filename": "JPN - Kanojo, Okarishimasu - ED3 - Ienai.ass",
          "default": true,
          "version": "Default"
        }
      ]
    }
  ],
  "data": {
    "created_at": "2022-09-03T12:21:42.011Z",
    "ignoreHooks": false,
    "kid": "cf266f90-171a-4558-96b3-de0622d8031e",
    "modified_at": "2022-09-03T12:31:23.204Z",
    "repository": "kara.moe",
    "songorder": 3,
    "tags": {
      "authors": [
        "ba4c7606-1e96-4c45-8e21-d5103477336b"
      ],
      "collections": [
        "c7db86a0-ff64-4044-9be4-66dd1ef1d1c1"
      ],
      "creators": [
        "53e900ec-a1ff-4c95-8b2d-a63995c2936f"
      ],
      "families": [
        "0377db02-3af6-43b8-9b08-c759df3d25c3"
      ],
      "groups": [
        "2b4e9972-5e17-481b-99f5-d0787c0ada56",
        "8e209ae4-4381-438f-89dc-1b21752027d2"
      ],
      "langs": [
        "4dcf9614-7914-42aa-99f4-dbce2e059133"
      ],
      "origins": [
        "938de218-5343-4865-94d3-fb33f2eaa152"
      ],
      "series": [
        "930b0da5-ab03-4c81-ab32-b4e25dd9d39d"
      ],
      "singers": [
        "2faef0d8-c3ec-4f81-b130-1985b2010d00"
      ],
      "songtypes": [
        "38c77c56-2b95-4040-b676-0994a8cb0597"
      ],
      "songwriters": [
        "16270ef6-5608-41df-871d-e4d30324d231"
      ]
    },
    "titles": {
      "jpn": "言えない",
      "qro": "Ienai"
    },
    "titles_default_language": "qro",
    "title": "Ienai",
    "year": 2022
  }
}