{
  "header": {
    "version": 4,
    "description": "Karaoke Mugen Karaoke Data File"
  },
  "medias": [
    {
      "version": "Default",
      "filename": "JPN - Higurashi no Naku Koro ni Hou - GAME SWITCH PS4 OP - Nageki no Mori.mp4",
      "audiogain": -5.64,
      "loudnorm": "-11.32,-0.01,7.00,-21.93,-0.21",
      "filesize": 44106851,
      "duration": 148,
      "default": true,
      "lyrics": [
        {
          "filename": "JPN - Higurashi no Naku Koro ni Hou - GAME SWITCH PS4 OP - Nageki no Mori.ass",
          "default": true,
          "version": "Default"
        }
      ]
    }
  ],
  "data": {
    "created_at": "2018-05-08T19:31:39.000Z",
    "ignoreHooks": false,
    "kid": "317ea000-ae80-45ee-af67-17da12ffde0f",
    "modified_at": "2022-03-24T08:57:50.807Z",
    "repository": "kara.moe",
    "tags": {
      "authors": [
        "fa399f2f-ea1d-4902-8796-ea6d8218aff0"
      ],
      "collections": [
        "c7db86a0-ff64-4044-9be4-66dd1ef1d1c1"
      ],
      "creators": [
        "b2194b36-200d-42c9-a849-6a583d5d6c66",
        "ee8900e9-5aee-4872-9093-0b5ce99c363c"
      ],
      "families": [
        "dbedd6b3-d125-4cd8-aa32-c4175e4ca3a3"
      ],
      "groups": [
        "ae613721-1fbe-480d-ba6b-d6d0702b184d"
      ],
      "langs": [
        "4dcf9614-7914-42aa-99f4-dbce2e059133"
      ],
      "misc": [
        "fe819ff1-9db8-4a0f-85dc-0e322c9126c4"
      ],
      "origins": [
        "2f96e82c-c61b-4413-817e-e6b247509b95"
      ],
      "platforms": [
        "0a880bfc-d0e5-448b-98d2-4ba7b3106641",
        "248d92ee-8c02-43bc-86e2-cc6029883564"
      ],
      "series": [
        "749d7b51-bf58-44e8-9bdd-7d9cff0345a2"
      ],
      "singers": [
        "527d3a38-559d-4e99-9ed6-2a2fd772f45f"
      ],
      "songtypes": [
        "f02ad9b3-0bd9-4aad-85b3-9976739ba0e4"
      ],
      "songwriters": [
        "66339ced-7df9-40c8-aefd-59b2990df294"
      ],
      "franchises": [
        "8050c613-375d-400c-983a-6578b5c6ca96"
      ]
    },
    "titles": {
      "qro": "Nageki no Mori",
      "jpn": "嘆きノ森"
    },
    "titles_default_language": "qro",
    "title": "Nageki no Mori",
    "year": 2018
  }
}