{
  "header": {
    "version": 4,
    "description": "Karaoke Mugen Karaoke Data File"
  },
  "medias": [
    {
      "version": "Syanthis.",
      "filename": "JPN - Sakura Taisen - AMV - Geki! Teikoku Kagekidan (Kai) ~ Syanthis Vers. ~ Alternative Cover Vers.mp4",
      "audiogain": -11.09,
      "loudnorm": "-6.20,1.35,2.70,-16.25,-0.35",
      "filesize": 109484776,
      "duration": 232,
      "default": true,
      "lyrics": [
        {
          "filename": "JPN - Sakura Taisen - AMV - Geki! Teikoku Kagekidan (Kai) ~ Syanthis Vers. ~ Alternative Cover Vers.ass",
          "default": true,
          "version": "Default",
          "subchecksum": "306eb61f0a765b656004ff6079328f78"
        }
      ]
    }
  ],
  "data": {
    "created_at": "2017-10-11T17:00:55.000Z",
    "kid": "bec3a40f-6559-442e-874d-60ceab46e61f",
    "modified_at": "2021-05-15T16:29:08.750Z",
    "parents": [
      "a5d4a23e-7ba6-41b1-a701-491e84feab6a"
    ],
    "repository": "kara.moe",
    "tags": {
      "authors": [
        "8c22c899-b3ed-42da-a548-ce00f950798b"
      ],
      "collections": [
        "c7db86a0-ff64-4044-9be4-66dd1ef1d1c1"
      ],
      "creators": [
        "a56ed9e7-a3dc-4203-b91c-4128bcf7bfa9"
      ],
      "families": [
        "0377db02-3af6-43b8-9b08-c759df3d25c3"
      ],
      "groups": [
        "8c22c899-b3ed-42da-a548-ce00f950798b",
        "ae613721-1fbe-480d-ba6b-d6d0702b184d"
      ],
      "langs": [
        "4dcf9614-7914-42aa-99f4-dbce2e059133"
      ],
      "series": [
        "3843ae35-0d40-4fef-9bda-0c222c2e5682"
      ],
      "singers": [
        "80f1cd63-9897-4497-9bf7-c4b2190f60e9"
      ],
      "songtypes": [
        "a6c79ce5-89ee-4d50-afe8-3abd7317f6c2"
      ],
      "songwriters": [
        "2461dcff-0d44-481a-9841-a8ae3e3d53db",
        "7cc5d197-4923-4d92-a0e8-deffcf49b1cf"
      ],
      "versions": [
        "03e1e1d2-8641-47b7-bbcb-39a3df9ff21c",
        "9f63c359-d1bf-425a-bcf5-b245c2c9211d"
      ],
      "franchises": [
        "3843ae35-0d40-4fef-9bda-0c222c2e5682"
      ]
    },
    "title": "Geki! Teikoku Kagekidan (Kai) ~ Syanthis Vers.",
    "titles": {
      "qro": "Geki! Teikoku Kagekidan (Kai) ~ Syanthis Vers.",
      "jpn": "檄!帝国華撃団 (改) ~ Syanthis Vers."
    },
    "year": 2012,
    "titles_default_language": "qro"
  }
}