{
  "header": {
    "version": 4,
    "description": "Karaoke Mugen Karaoke Data File"
  },
  "medias": [
    {
      "version": "Default",
      "filename": "JPN - Itsudatte Bokura no Koi wa 10 Centi Datta. - OP - Non Fantasy.mp4",
      "audiogain": -9.43,
      "loudnorm": "-8.26,1.01,5.70,-18.39,-1.03",
      "filesize": 37727906,
      "duration": 92,
      "default": true,
      "lyrics": [
        {
          "filename": "JPN - Itsudatte Bokura no Koi wa 10 Centi Datta. - OP - Non Fantasy.ass",
          "default": true,
          "version": "Default",
          "subchecksum": "7c98d8ef840ccb0aae1d58a5f484cd74"
        }
      ]
    }
  ],
  "data": {
    "created_at": "2020-02-29T00:15:42.187Z",
    "kid": "afaa0dd4-a9d4-492c-8f7f-e5ead7157a93",
    "modified_at": "2021-02-25T11:48:17.149Z",
    "repository": "kara.moe",
    "tags": {
      "authors": [
        "87096920-112f-485f-a310-04156cb4624d"
      ],
      "collections": [
        "c7db86a0-ff64-4044-9be4-66dd1ef1d1c1"
      ],
      "creators": [
        "4265e6a3-41bf-46ca-903a-b6e4551a901f"
      ],
      "families": [
        "0377db02-3af6-43b8-9b08-c759df3d25c3"
      ],
      "groups": [
        "60defa7b-774e-4680-8321-51b742c2e009",
        "ae613721-1fbe-480d-ba6b-d6d0702b184d"
      ],
      "langs": [
        "4dcf9614-7914-42aa-99f4-dbce2e059133"
      ],
      "origins": [
        "938de218-5343-4865-94d3-fb33f2eaa152"
      ],
      "series": [
        "d2b19bd1-5e57-4a64-b269-213618dd8c46"
      ],
      "singers": [
        "a1f83972-a75b-4f7f-9830-685b06cc30a1"
      ],
      "songtypes": [
        "f02ad9b3-0bd9-4aad-85b3-9976739ba0e4"
      ]
    },
    "title": "Non Fantasy",
    "titles": {
      "eng": "Non Fantasy",
      "jpn": "ノンファンタジー"
    },
    "year": 2017,
    "titles_default_language": "eng"
  }
}