{
  "header": {
    "version": 4,
    "description": "Karaoke Mugen Karaoke Data File"
  },
  "medias": [
    {
      "version": "Default",
      "filename": "JPN - Osomatsu-san - OP1 - Hanamaru Pippi wa Yoiko dake.mp4",
      "audiogain": 0.95,
      "loudnorm": "-18.81,-4.37,2.30,-28.85,-0.14",
      "filesize": 49620465,
      "duration": 91,
      "default": true,
      "lyrics": [
        {
          "filename": "JPN - Osomatsu-san - OP1 - Hanamaru Pippi wa Yoiko dake.ass",
          "default": true,
          "version": "Default",
          "subchecksum": "78ea801ea4d4acfa0d7b2e9316f66d00"
        }
      ]
    }
  ],
  "data": {
    "created_at": "2017-10-11T17:02:27.000Z",
    "kid": "bf34c854-9d81-4bd7-ab1e-483da5d530d6",
    "modified_at": "2021-02-25T12:42:47.084Z",
    "repository": "kara.moe",
    "songorder": 1,
    "tags": {
      "authors": [
        "5bdaba57-27f8-4568-8806-76a807728766"
      ],
      "collections": [
        "c7db86a0-ff64-4044-9be4-66dd1ef1d1c1"
      ],
      "creators": [
        "aaff4ba6-9a12-4bac-9bd0-c0cb783e4177"
      ],
      "families": [
        "0377db02-3af6-43b8-9b08-c759df3d25c3"
      ],
      "groups": [
        "ae613721-1fbe-480d-ba6b-d6d0702b184d"
      ],
      "langs": [
        "4dcf9614-7914-42aa-99f4-dbce2e059133"
      ],
      "origins": [
        "938de218-5343-4865-94d3-fb33f2eaa152"
      ],
      "series": [
        "f2f0f3c0-d942-4316-a4df-99ac0d9b4443"
      ],
      "singers": [
        "f00210d5-b88a-4f7a-ac3f-6743e950749f"
      ],
      "songtypes": [
        "f02ad9b3-0bd9-4aad-85b3-9976739ba0e4"
      ],
      "songwriters": [
        "25f87cf1-f749-4bf0-ad37-618e80a0abf8",
        "3579c0d4-924f-465c-89a0-3c9e732ec2f7"
      ],
      "franchises": [
        "f2f0f3c0-d942-4316-a4df-99ac0d9b4443"
      ]
    },
    "title": "Hanamaru Pippi wa Yoiko dake",
    "titles": {
      "qro": "Hanamaru Pippi wa Yoiko dake",
      "jpn": "はなまるぴっぴはよいこだけ"
    },
    "year": 2015,
    "titles_default_language": "qro"
  }
}