{
  "header": {
    "version": 4,
    "description": "Karaoke Mugen Karaoke Data File"
  },
  "medias": [
    {
      "version": "Default",
      "filename": "JPN - Aika Kobayashi - AUDIO - Meimei Tantei Yohane.mp3",
      "audiogain": -7.97,
      "loudnorm": "-10.09,0.96,7.30,-20.36,-0.99",
      "filesize": 5905017,
      "duration": 236,
      "default": true,
      "lyrics": [
        {
          "filename": "JPN - Aika Kobayashi - AUDIO - Meimei Tantei Yohane.ass",
          "default": true,
          "version": "Default"
        }
      ]
    }
  ],
  "data": {
    "created_at": "2022-08-14T00:09:50.595Z",
    "ignoreHooks": false,
    "kid": "76422a19-c2f6-4cb7-a5a5-0befa63bc472",
    "modified_at": "2022-11-12T21:07:16.397Z",
    "repository": "kara.moe",
    "tags": {
      "authors": [
        "449844e4-3a1f-46e1-8a92-bf72e2d1b6f1"
      ],
      "collections": [
        "dbcf2c22-524d-4708-99bb-601703633927"
      ],
      "creators": [
        "b2805292-730e-473a-96f0-fd8e7ffd1fd7"
      ],
      "genres": [
        "caa86df2-0d59-474b-885c-f240a9e891b0"
      ],
      "groups": [
        "8e209ae4-4381-438f-89dc-1b21752027d2"
      ],
      "langs": [
        "4dcf9614-7914-42aa-99f4-dbce2e059133"
      ],
      "singers": [
        "8f1cdf03-baf0-4294-bfdf-fdeedcdbeac5"
      ],
      "songtypes": [
        "42a262ae-acba-4ab5-a446-c5789c96c821"
      ],
      "songwriters": [
        "ec9dc791-f286-4f96-b74d-8bc3190ae113",
        "f41e7218-6c19-4e19-9b5f-4612dcd58243",
        "f63f1223-5dba-43ac-bdcd-d80756097399"
      ],
      "franchises": [
        "fd5d066e-e85a-4eea-8688-2979a887450a"
      ]
    },
    "titles": {
      "jpn": "迷冥探偵ヨハネ",
      "qro": "Meimei Tantei Yohane"
    },
    "titles_default_language": "qro",
    "year": 2022
  }
}