{
  "header": {
    "version": 4,
    "description": "Karaoke Mugen Karaoke Data File"
  },
  "medias": [
    {
      "version": "Default",
      "filename": "JPN - Gitaroo Man - PS2 GAME IN - Flyin' To Your Heart.mp4",
      "audiogain": -9.42,
      "loudnorm": "-7.67,2.80,5.10,-17.76,-0.26",
      "filesize": 145387197,
      "duration": 266,
      "default": true,
      "lyrics": [
        {
          "filename": "JPN - Gitaroo Man - PS2 GAME IN - Flyin' To Your Heart.ass",
          "default": true,
          "version": "Default",
          "subchecksum": "5a3b95848ef32946992ec9329b29b312"
        }
      ]
    }
  ],
  "data": {
    "created_at": "2020-04-17T23:06:13.580Z",
    "kid": "9a4bbb26-238d-4b0f-a93e-a22b83d8b1f5",
    "modified_at": "2021-02-25T11:29:44.381Z",
    "repository": "kara.moe",
    "tags": {
      "authors": [
        "60defa7b-774e-4680-8321-51b742c2e009"
      ],
      "collections": [
        "c7db86a0-ff64-4044-9be4-66dd1ef1d1c1"
      ],
      "creators": [
        "38d59e14-9776-4219-84e3-db86735fa541"
      ],
      "families": [
        "dbedd6b3-d125-4cd8-aa32-c4175e4ca3a3"
      ],
      "groups": [
        "3c14c864-533c-49e6-a3cc-6969f1233775",
        "60defa7b-774e-4680-8321-51b742c2e009"
      ],
      "langs": [
        "4dcf9614-7914-42aa-99f4-dbce2e059133"
      ],
      "platforms": [
        "2173004e-21da-45c9-9dfb-26014423c566"
      ],
      "series": [
        "1fc2a893-65cd-4a8c-8fc1-f765b3da9180"
      ],
      "singers": [
        "5c9b7668-a630-4f15-9a57-5e3b7b4e06b5"
      ],
      "songtypes": [
        "5e5250d9-351a-4a82-98eb-55db50ad8962"
      ],
      "songwriters": [
        "4c643a2a-1e23-4456-b938-63fe548529d6",
        "a5601020-c224-44a7-b82b-9b4d666f54e2"
      ]
    },
    "title": "Flyin' To Your Heart",
    "titles": {
      "eng": "Flyin' To Your Heart"
    },
    "year": 2001,
    "titles_default_language": "eng"
  }
}