{
  "header": {
    "version": 4,
    "description": "Karaoke Mugen Karaoke Data File"
  },
  "medias": [
    {
      "version": "Default",
      "filename": "JPN - Free! - MV - RAGE ON ~ Full Vers.mp4",
      "audiogain": 7.07,
      "loudnorm": "-24.16,-15.62,2.60,-34.19,-0.32",
      "filesize": 100116226,
      "duration": 266,
      "default": true,
      "lyrics": [
        {
          "filename": "JPN - Free! - MV - RAGE ON ~ Full Vers.ass",
          "default": true,
          "version": "Default"
        }
      ]
    }
  ],
  "data": {
    "created_at": "2021-09-11T22:37:22.618Z",
    "kid": "176b4776-8796-4624-ac3d-df2559e746e8",
    "modified_at": "2022-06-04T00:20:48.856Z",
    "repository": "kara.moe",
    "songorder": null,
    "tags": {
      "authors": [
        "1d7745a8-73ea-40bb-ad99-826af98f6e41"
      ],
      "creators": [
        "b2805292-730e-473a-96f0-fd8e7ffd1fd7"
      ],
      "families": [
        "5391f9fe-638c-415f-8dc9-958e3a2c5787"
      ],
      "groups": [
        "ae613721-1fbe-480d-ba6b-d6d0702b184d"
      ],
      "langs": [
        "4dcf9614-7914-42aa-99f4-dbce2e059133"
      ],
      "series": [
        "217ac64b-479e-46c7-9f72-0f5ca443d2af"
      ],
      "singers": [
        "aeb69346-3801-4f4a-9136-9d035556e182"
      ],
      "songtypes": [
        "7be1b15c-cff8-4b37-a649-5c90f3d569a9"
      ],
      "songwriters": [
        "894ed683-fb33-47a8-a718-3108c46e0c0d",
        "cfc4d392-20b9-48fc-abe9-9004fc76178b",
        "fb1bb4fb-92cb-40ee-b857-f1bf55060814"
      ],
      "versions": [
        "c2143a7f-6970-450e-8a79-0302db9220a9"
      ],
      "collections": [
        "dbcf2c22-524d-4708-99bb-601703633927"
      ],
      "franchises": [
        "217ac64b-479e-46c7-9f72-0f5ca443d2af"
      ]
    },
    "titles": {
      "eng": "Rage on"
    },
    "titles_default_language": "eng",
    "title": "RAGE ON",
    "year": 2013
  }
}