{
  "header": {
    "version": 4,
    "description": "Karaoke Mugen Karaoke Data File"
  },
  "medias": [
    {
      "version": "Default",
      "filename": "JPN - Kichiku Megane - PC GAME OP - under the darkness.mp4",
      "audiogain": -11.56,
      "loudnorm": "-5.78,3.07,4.90,-16.10,-0.84",
      "filesize": 17494163,
      "duration": 141,
      "default": true,
      "lyrics": [
        {
          "filename": "JPN - Kichiku Megane - PC GAME OP - under the darkness.ass",
          "default": true,
          "version": "Default",
          "subchecksum": "6b6419ad0c239992765ea3c07738f618"
        }
      ]
    }
  ],
  "data": {
    "created_at": "2019-03-28T16:25:53.000Z",
    "kid": "5364fe01-bf02-4a39-90a1-d60566d2b077",
    "modified_at": "2021-02-25T11:58:24.607Z",
    "repository": "kara.moe",
    "tags": {
      "authors": [
        "2a9bbf75-0722-4b4a-9935-caa92f38fdd1"
      ],
      "collections": [
        "c7db86a0-ff64-4044-9be4-66dd1ef1d1c1"
      ],
      "creators": [
        "d2d60be6-707c-4bac-9ec6-37e42cc02a33"
      ],
      "families": [
        "dbedd6b3-d125-4cd8-aa32-c4175e4ca3a3"
      ],
      "genres": [
        "724d2d80-a531-4579-bdaf-4a0db9a313d9"
      ],
      "groups": [
        "3c14c864-533c-49e6-a3cc-6969f1233775"
      ],
      "langs": [
        "4dcf9614-7914-42aa-99f4-dbce2e059133"
      ],
      "origins": [
        "2f96e82c-c61b-4413-817e-e6b247509b95"
      ],
      "platforms": [
        "3c15f758-e1bc-4266-8bb9-3c14112f504a"
      ],
      "series": [
        "2e95adb3-fc50-4ca5-80cf-5732af7e433a"
      ],
      "singers": [
        "16f0e7fc-4bf9-4cad-b1ad-4e524495b21d"
      ],
      "songtypes": [
        "f02ad9b3-0bd9-4aad-85b3-9976739ba0e4"
      ],
      "songwriters": [
        "8ca84fd7-0a88-4e2e-adb1-c77c7cc9260e"
      ],
      "franchises": [
        "2e95adb3-fc50-4ca5-80cf-5732af7e433a"
      ]
    },
    "title": "under the darkness",
    "titles": {
      "eng": "under the darkness"
    },
    "year": 2007,
    "titles_default_language": "eng"
  }
}