{
  "header": {
    "version": 4,
    "description": "Karaoke Mugen Karaoke Data File"
  },
  "medias": [
    {
      "version": "Default",
      "filename": "JPN - Kaguya-sama wa Kokurasetai Tensai-tachi no Ren'ai Zunousen - MOVIE MV - Aitakute ~ Acoustic Piano Vers.mp4",
      "audiogain": -7.2,
      "loudnorm": "-11.35,0.32,14.10,-22.02,-1.54",
      "filesize": 38798078,
      "duration": 323,
      "default": true,
      "lyrics": [
        {
          "filename": "JPN - Kaguya-sama wa Kokurasetai Tensai-tachi no Ren'ai Zunousen - MOVIE MV - Aitakute ~ Acoustic Piano Vers.ass",
          "default": true,
          "version": "Default"
        }
      ]
    }
  ],
  "data": {
    "created_at": "2021-11-26T14:13:15.513Z",
    "kid": "13e3189a-4a05-490c-9f15-4f4f4a1db6d0",
    "modified_at": "2021-11-29T21:19:07.108Z",
    "repository": "kara.moe",
    "tags": {
      "authors": [
        "921dc57c-e3e5-4a36-b1d7-399f5dec952a"
      ],
      "collections": [
        "c7db86a0-ff64-4044-9be4-66dd1ef1d1c1"
      ],
      "creators": [
        "6fa9de67-21cf-420b-9ddb-57edb5abe523"
      ],
      "families": [
        "0377db02-3af6-43b8-9b08-c759df3d25c3"
      ],
      "groups": [
        "8e209ae4-4381-438f-89dc-1b21752027d2"
      ],
      "langs": [
        "4dcf9614-7914-42aa-99f4-dbce2e059133"
      ],
      "misc": [
        "86705d4b-24e4-4756-9687-2b9c98bcf366"
      ],
      "origins": [
        "c8ca9dea-d8b4-48fe-8427-d911653232e9"
      ],
      "series": [
        "62023c2f-e50a-424d-85da-0505db2a2db0"
      ],
      "singers": [
        "98152dec-f25d-410b-b827-fd9fe2ac5a15"
      ],
      "songtypes": [
        "7be1b15c-cff8-4b37-a649-5c90f3d569a9"
      ],
      "songwriters": [
        "e95ebd28-7429-4679-a769-66c58647b35d"
      ],
      "versions": [
        "c85d82ac-9826-4f94-97f6-aea4257e51f3",
        "dd5e063e-8a40-478e-a4c5-d477ce8f13f7"
      ],
      "franchises": [
        "4898cebc-d830-4917-9651-1e80225bd02e"
      ]
    },
    "titles": {
      "qro": "Aitakute",
      "jpn": "会いたくて"
    },
    "title": "Aitakute",
    "year": 2021,
    "titles_default_language": "qro"
  }
}