{
  "header": {
    "version": 4,
    "description": "Karaoke Mugen Karaoke Data File"
  },
  "medias": [
    {
      "version": "Default",
      "filename": "JPN - Juuken Sentai Gekiranger - OP - Juuken Sentai Gekiranger.mp4",
      "audiogain": 3.14,
      "loudnorm": "-21.66,-4.40,3.10,-31.67,-0.24",
      "filesize": 33687917,
      "duration": 114,
      "default": true,
      "lyrics": [
        {
          "filename": "JPN - Juuken Sentai Gekiranger - OP - Juuken Sentai Gekiranger.ass",
          "default": true,
          "version": "Default"
        }
      ]
    }
  ],
  "data": {
    "created_at": "2018-11-17T12:51:56.000Z",
    "ignoreHooks": false,
    "kid": "dabf6b2b-d6fe-44d3-afe1-e46a53e8769d",
    "modified_at": "2022-10-01T09:49:19.773Z",
    "repository": "kara.moe",
    "tags": {
      "authors": [
        "4607780c-f1ef-47cf-9c1c-b13e8f731699"
      ],
      "collections": [
        "c7db86a0-ff64-4044-9be4-66dd1ef1d1c1"
      ],
      "creators": [
        "e32b14df-502b-45fa-9ca5-37554a63a4d7"
      ],
      "families": [
        "5391f9fe-638c-415f-8dc9-958e3a2c5787"
      ],
      "groups": [
        "3c14c864-533c-49e6-a3cc-6969f1233775"
      ],
      "langs": [
        "4dcf9614-7914-42aa-99f4-dbce2e059133"
      ],
      "origins": [
        "938de218-5343-4865-94d3-fb33f2eaa152",
        "d3fac9ab-630d-402d-a392-3d2450c3e62e"
      ],
      "series": [
        "bd12a2fa-bb12-44b1-8807-ac074e6a55e9"
      ],
      "singers": [
        "6d55b0b6-1009-4b36-bf16-15caabc456bc"
      ],
      "songtypes": [
        "f02ad9b3-0bd9-4aad-85b3-9976739ba0e4"
      ],
      "songwriters": [
        "3fd02899-3906-47b1-8e01-c5f9bb9e538d",
        "c0abb9f6-dfee-45d9-b964-6035e58bcbcd"
      ]
    },
    "titles": {
      "jpn": "獣拳戦隊ゲキレンジャー",
      "qro": "Jûken Sentai Gekiranger"
    },
    "titles_default_language": "qro",
    "title": "Jûken Sentai Gekiranger",
    "year": 2007,
    "titles_aliases": [
      "Juuken"
    ]
  }
}