{
  "header": {
    "version": 4,
    "description": "Karaoke Mugen Karaoke Data File"
  },
  "medias": [
    {
      "version": "Default",
      "filename": "JPN - New Danganronpa V3 Minna no koroshihai shin gakki - GAME SWITCH ED - Dan Kusari -break-.mp4",
      "audiogain": -4.18,
      "loudnorm": "-13.30,-3.82,4.10,-23.32,-0.65",
      "filesize": 260343329,
      "duration": 253,
      "default": true,
      "lyrics": [
        {
          "filename": "JPN - New Danganronpa V3 Minna no koroshihai shin gakki - GAME SWITCH ED - Dan Kusari -break-.ass",
          "default": true,
          "version": "Default"
        }
      ]
    }
  ],
  "data": {
    "created_at": "2022-08-26T20:47:08.943Z",
    "ignoreHooks": false,
    "kid": "23c4d835-69d4-44cf-a8a7-05de4309ddc7",
    "modified_at": "2022-12-22T16:08:50.945Z",
    "repository": "kara.moe",
    "tags": {
      "authors": [
        "06852e02-b77e-4106-b6f7-2d03942ad0ea"
      ],
      "collections": [
        "c7db86a0-ff64-4044-9be4-66dd1ef1d1c1"
      ],
      "creators": [
        "930330fc-79d4-464b-86d7-72cf60716fc6"
      ],
      "families": [
        "dbedd6b3-d125-4cd8-aa32-c4175e4ca3a3"
      ],
      "groups": [
        "ae613721-1fbe-480d-ba6b-d6d0702b184d"
      ],
      "langs": [
        "4dcf9614-7914-42aa-99f4-dbce2e059133"
      ],
      "platforms": [
        "0a880bfc-d0e5-448b-98d2-4ba7b3106641",
        "248d92ee-8c02-43bc-86e2-cc6029883564",
        "e791f168-068f-4c05-aa36-e8d63726aa06"
      ],
      "series": [
        "4f29e620-ffa6-4168-a1f1-5d7bfe36e10f"
      ],
      "singers": [
        "be436123-1593-471b-bad6-a93eaa4746bd"
      ],
      "songtypes": [
        "38c77c56-2b95-4040-b676-0994a8cb0597"
      ],
      "songwriters": [
        "28b975a1-0b59-49b7-aa1d-987c9b4fe7ae",
        "be436123-1593-471b-bad6-a93eaa4746bd"
      ],
      "warnings": [
        "24371984-5e4c-4485-a937-fb0c480ca23b"
      ],
      "franchises": [
        "15c7ca82-8e24-43d6-8d65-42df016c2c8c"
      ]
    },
    "titles": {
      "jpn": "断鎖 -break-",
      "qro": "Dan Kusari -break-"
    },
    "titles_default_language": "qro",
    "year": 2017
  }
}