{
  "header": {
    "version": 4,
    "description": "Karaoke Mugen Karaoke Data File"
  },
  "medias": [
    {
      "version": "Default",
      "filename": "JPN - Patra Suou - MV - Kanipu no uta.mp4",
      "audiogain": -7.78,
      "loudnorm": "-8.50,0.88,2.20,-18.56,-0.09",
      "filesize": 82739300,
      "duration": 201,
      "default": true,
      "lyrics": [
        {
          "filename": "JPN - Patra Suou - MV - Kanipu no uta.ass",
          "default": true,
          "version": "Default",
          "subchecksum": "f79f606e6dd644a3e3757bd557620c36"
        }
      ]
    }
  ],
  "data": {
    "created_at": "2021-06-26T11:01:41.863Z",
    "kid": "a3c7db5e-bc42-4f53-bed1-2a572b4122d5",
    "modified_at": "2021-06-26T11:03:27.678Z",
    "repository": "kara.moe",
    "tags": {
      "authors": [
        "84157b43-8a7a-482c-95d3-516757353835"
      ],
      "collections": [
        "c7db86a0-ff64-4044-9be4-66dd1ef1d1c1"
      ],
      "creators": [
        "a5c8f498-afec-4a45-b839-0f382fa98d8b"
      ],
      "groups": [
        "8e209ae4-4381-438f-89dc-1b21752027d2"
      ],
      "langs": [
        "4dcf9614-7914-42aa-99f4-dbce2e059133"
      ],
      "origins": [
        "5106d71b-a78e-4d19-a16d-f8fb6719538a"
      ],
      "singers": [
        "efeb2ede-dbce-4893-9b4e-03c48c9df25c"
      ],
      "songtypes": [
        "7be1b15c-cff8-4b37-a649-5c90f3d569a9"
      ],
      "songwriters": [
        "efeb2ede-dbce-4893-9b4e-03c48c9df25c"
      ]
    },
    "title": "Kanipu no uta",
    "titles": {
      "qro": "Kanipu no uta",
      "jpn": "かにプのうた"
    },
    "year": 2020,
    "titles_default_language": "qro"
  }
}