{
  "header": {
    "version": 4,
    "description": "Karaoke Mugen Karaoke Data File"
  },
  "medias": [
    {
      "version": "Default",
      "filename": "JPN - Hanakisou PLUS Plus DISC - PS2 PC GAME OP - Hanakisou.mp4",
      "audiogain": -5.21,
      "loudnorm": "-14.06,0.37,9.20,-24.31,-1.24",
      "filesize": 9446129,
      "duration": 110,
      "default": true,
      "lyrics": [
        {
          "filename": "JPN - Hanakisou PLUS Plus DISC - PS2 PC GAME OP - Hanakisou.ass",
          "default": true,
          "version": "Default",
          "subchecksum": "1c70ab2b06586f48e8aabf39d75f1240"
        }
      ]
    }
  ],
  "data": {
    "created_at": "2018-11-14T20:07:35.000Z",
    "kid": "2da1ba97-6f82-41e0-8235-37f07f52a5e9",
    "modified_at": "2021-02-25T11:36:15.518Z",
    "repository": "kara.moe",
    "tags": {
      "authors": [
        "2a9bbf75-0722-4b4a-9935-caa92f38fdd1"
      ],
      "collections": [
        "c7db86a0-ff64-4044-9be4-66dd1ef1d1c1"
      ],
      "creators": [
        "f202084b-8dff-48b7-b327-71b166a2d64b"
      ],
      "families": [
        "dbedd6b3-d125-4cd8-aa32-c4175e4ca3a3"
      ],
      "genres": [
        "724d2d80-a531-4579-bdaf-4a0db9a313d9"
      ],
      "groups": [
        "3c14c864-533c-49e6-a3cc-6969f1233775"
      ],
      "langs": [
        "4dcf9614-7914-42aa-99f4-dbce2e059133"
      ],
      "origins": [
        "2f96e82c-c61b-4413-817e-e6b247509b95"
      ],
      "platforms": [
        "2173004e-21da-45c9-9dfb-26014423c566",
        "3c15f758-e1bc-4266-8bb9-3c14112f504a"
      ],
      "series": [
        "e683c43b-462d-49f3-9ddb-c7670a1ff526"
      ],
      "singers": [
        "cc413549-14dd-4cc1-87d6-022fa80fbdd8"
      ],
      "songtypes": [
        "f02ad9b3-0bd9-4aad-85b3-9976739ba0e4"
      ],
      "songwriters": [
        "cc413549-14dd-4cc1-87d6-022fa80fbdd8"
      ]
    },
    "title": "Hanakisou",
    "titles": {
      "qro": "Hanakisou",
      "jpn": "花帰葬"
    },
    "year": 2003,
    "titles_default_language": "qro"
  }
}