{
  "header": {
    "version": 4,
    "description": "Karaoke Mugen Karaoke Data File"
  },
  "medias": [
    {
      "version": "Default",
      "filename": "JPN - Qiang Niang - MV - Hysteric Bullet ~ Full Vers.mp4",
      "audiogain": -10.08,
      "loudnorm": "-6.50,2.63,5.20,-16.59,-1.25",
      "filesize": 72932349,
      "duration": 274,
      "default": true,
      "lyrics": [
        {
          "filename": "JPN - Qiang Niang - MV - Hysteric Bullet ~ Full Vers.ass",
          "default": true,
          "version": "Default"
        }
      ]
    }
  ],
  "data": {
    "created_at": "2020-07-13T23:42:39.122Z",
    "kid": "975b4ce8-3826-45da-97db-51b5a4c48738",
    "modified_at": "2022-06-04T00:22:03.577Z",
    "parents": [
      "38e07266-5e59-4292-9063-1860a0996ca9"
    ],
    "repository": "kara.moe",
    "songorder": null,
    "tags": {
      "authors": [
        "4d71ce82-eed1-4c44-ac85-5f7255f3dad3"
      ],
      "creators": [
        "771735da-6b67-403d-8d5c-2761a0665168"
      ],
      "families": [
        "5391f9fe-638c-415f-8dc9-958e3a2c5787"
      ],
      "groups": [
        "ae613721-1fbe-480d-ba6b-d6d0702b184d"
      ],
      "langs": [
        "4dcf9614-7914-42aa-99f4-dbce2e059133"
      ],
      "series": [
        "aee30c56-e6f1-44b9-ab9d-7b16100dd905"
      ],
      "singers": [
        "40777238-a776-4235-9f5e-eec754c96827"
      ],
      "songtypes": [
        "7be1b15c-cff8-4b37-a649-5c90f3d569a9"
      ],
      "songwriters": [
        "30450ae7-a46f-41aa-a791-5d2c2697ee20",
        "796c4009-51ee-49a9-8947-d6cb242a9aad"
      ],
      "versions": [
        "c2143a7f-6970-450e-8a79-0302db9220a9"
      ],
      "collections": [
        "dbcf2c22-524d-4708-99bb-601703633927"
      ]
    },
    "titles": {
      "eng": "Hysteric Bullet"
    },
    "titles_default_language": "eng",
    "title": "Hysteric Bullet",
    "year": 2017
  }
}