{
  "header": {
    "version": 4,
    "description": "Karaoke Mugen Karaoke Data File"
  },
  "medias": [
    {
      "version": "Default",
      "filename": "JPN - ChaoS HEAd NoAH - GAME PS3 OP - CHAOS LOGIC.mp4",
      "audiogain": -3.36,
      "loudnorm": "-13.75,-0.49,4.20,-23.85,-0.79",
      "filesize": 130429978,
      "duration": 112,
      "default": true,
      "lyrics": [
        {
          "filename": "JPN - ChaoS HEAd NoAH - GAME PS3 OP - CHAOS LOGIC.ass",
          "default": true,
          "version": "Default"
        }
      ]
    }
  ],
  "data": {
    "created_at": "2018-11-06T14:09:36.000Z",
    "ignoreHooks": false,
    "kid": "f99a6cb3-824f-4140-8a99-5ec4c038616a",
    "modified_at": "2022-08-23T18:07:05.634Z",
    "repository": "kara.moe",
    "tags": {
      "authors": [
        "cfdaf046-d5cd-419c-9e71-16d69a8eabca"
      ],
      "collections": [
        "c7db86a0-ff64-4044-9be4-66dd1ef1d1c1"
      ],
      "creators": [
        "7a8ad2ad-018d-4341-9be4-77bfc39a6edd",
        "d8c36618-4baf-4969-a667-188a901a1f00"
      ],
      "families": [
        "dbedd6b3-d125-4cd8-aa32-c4175e4ca3a3"
      ],
      "groups": [
        "8c22c899-b3ed-42da-a548-ce00f950798b",
        "ae613721-1fbe-480d-ba6b-d6d0702b184d"
      ],
      "langs": [
        "4dcf9614-7914-42aa-99f4-dbce2e059133"
      ],
      "origins": [
        "2f96e82c-c61b-4413-817e-e6b247509b95"
      ],
      "platforms": [
        "7f63ff91-7961-4488-888d-4bf46eea3a2a"
      ],
      "series": [
        "fdc685eb-cf1c-4e28-9363-a9207d083648"
      ],
      "singers": [
        "3b97f60d-23e3-4e23-bf7f-9835bba682a7"
      ],
      "songtypes": [
        "f02ad9b3-0bd9-4aad-85b3-9976739ba0e4"
      ],
      "songwriters": [
        "66339ced-7df9-40c8-aefd-59b2990df294"
      ],
      "franchises": [
        "73f7aa30-d9e9-4365-9e19-a7bb63e9a6b6"
      ]
    },
    "titles": {
      "eng": "Chaos Logic",
      "jpn": "カオスロジック"
    },
    "titles_default_language": "eng",
    "title": "CHAOS LOGIC",
    "year": 2012
  }
}