{
  "header": {
    "version": 4,
    "description": "Karaoke Mugen Karaoke Data File"
  },
  "medias": [
    {
      "version": "Default",
      "filename": "JPN - Kingdom Hearts Re Coded - GAME OP - Hikari.mp4",
      "audiogain": -3,
      "loudnorm": "-14.16,-2.58,9.20,-24.65,-0.61",
      "filesize": 112469617,
      "duration": 174,
      "default": true,
      "lyrics": [
        {
          "filename": "JPN - Kingdom Hearts Re Coded - GAME OP - Hikari.ass",
          "default": true,
          "version": "Default",
          "subchecksum": "7304958471a278881b987d029916953c"
        }
      ]
    }
  ],
  "data": {
    "created_at": "2017-10-11T17:02:10.000Z",
    "kid": "878bf213-56b8-460c-b77f-cd61f60d4d0a",
    "modified_at": "2021-02-25T12:03:22.100Z",
    "parents": [
      "3866bf59-7c11-408f-83e5-2dfcd1b171c2"
    ],
    "repository": "kara.moe",
    "tags": {
      "authors": [
        "05c1e4ad-32ba-490e-8f3c-5cd491c96d85"
      ],
      "collections": [
        "c7db86a0-ff64-4044-9be4-66dd1ef1d1c1"
      ],
      "creators": [
        "ac4a5180-97af-4679-adcd-70ab39919d48"
      ],
      "families": [
        "dbedd6b3-d125-4cd8-aa32-c4175e4ca3a3"
      ],
      "groups": [
        "ae613721-1fbe-480d-ba6b-d6d0702b184d"
      ],
      "langs": [
        "4dcf9614-7914-42aa-99f4-dbce2e059133"
      ],
      "series": [
        "5c9dd5b3-a362-426e-a9c9-179b023d5a89"
      ],
      "singers": [
        "41a9b640-40e6-4019-a55b-9bb0e858e0fc"
      ],
      "songtypes": [
        "f02ad9b3-0bd9-4aad-85b3-9976739ba0e4"
      ],
      "songwriters": [
        "41a9b640-40e6-4019-a55b-9bb0e858e0fc"
      ],
      "franchises": [
        "2fdcf090-923c-456c-b4bf-96449bcaecd0"
      ]
    },
    "title": "Hikari",
    "titles": {
      "qro": "Hikari",
      "jpn": "光"
    },
    "year": 2010,
    "titles_default_language": "qro"
  }
}