{
  "header": {
    "version": 4,
    "description": "Karaoke Mugen Karaoke Data File"
  },
  "medias": [
    {
      "version": "Default",
      "filename": "JPN - Mushoku Tensei Isekai Ittara Honki Dasu - OP2 - Mezame no Uta.mp4",
      "audiogain": -0.98,
      "loudnorm": "-17.11,-3.25,5.90,-27.31,-0.27",
      "filesize": 41041729,
      "duration": 88,
      "default": true,
      "lyrics": [
        {
          "filename": "JPN - Mushoku Tensei Isekai Ittara Honki Dasu - OP2 - Mezame no Uta.ass",
          "default": true,
          "version": "Default",
          "subchecksum": "c27a6dd97446962f714e474cba5c4bc9"
        }
      ]
    }
  ],
  "data": {
    "created_at": "2021-05-10T12:23:16.965Z",
    "kid": "9c684453-68d9-448a-a25a-d515bfb8c953",
    "modified_at": "2021-05-10T12:31:37.230Z",
    "repository": "kara.moe",
    "songorder": 2,
    "tags": {
      "authors": [
        "56b54c89-86ae-4635-992f-ddc1234b8015"
      ],
      "collections": [
        "c7db86a0-ff64-4044-9be4-66dd1ef1d1c1"
      ],
      "creators": [
        "85a2cf91-86c2-4045-9d95-9e6152306c98"
      ],
      "families": [
        "0377db02-3af6-43b8-9b08-c759df3d25c3"
      ],
      "genres": [
        "4b80eca6-f44f-4262-a8d0-b6879d6b70cb"
      ],
      "groups": [
        "8c22c899-b3ed-42da-a548-ce00f950798b",
        "8e209ae4-4381-438f-89dc-1b21752027d2"
      ],
      "langs": [
        "4dcf9614-7914-42aa-99f4-dbce2e059133"
      ],
      "origins": [
        "938de218-5343-4865-94d3-fb33f2eaa152"
      ],
      "series": [
        "4005ebb8-68ea-4891-9f24-98effbb70e08"
      ],
      "singers": [
        "03f0a7d4-9570-4be0-910a-e0f03faa32c0"
      ],
      "songtypes": [
        "f02ad9b3-0bd9-4aad-85b3-9976739ba0e4"
      ],
      "songwriters": [
        "03f0a7d4-9570-4be0-910a-e0f03faa32c0",
        "8ece8508-3609-4ec3-9b7f-08117b9cc2f0"
      ]
    },
    "title": "Mezame no Uta",
    "titles": {
      "qro": "Mezame no Uta",
      "jpn": "目覚めの唄"
    },
    "year": 2021,
    "titles_default_language": "qro"
  }
}