{
  "header": {
    "version": 4,
    "description": "Karaoke Mugen Karaoke Data File"
  },
  "medias": [
    {
      "version": "Default",
      "filename": "JPN - Tsuki ga Michibiku Isekai Douchuu - OP - Gambling.mp4",
      "audiogain": -8.44,
      "loudnorm": "-8.49,-0.14,2.70,-18.51,-0.30",
      "filesize": 72054777,
      "duration": 90,
      "default": true,
      "lyrics": [
        {
          "filename": "JPN - Tsuki ga Michibiku Isekai Douchuu - OP - Gambling.ass",
          "default": true,
          "version": "Default",
          "subchecksum": "d668766732ce8a5133eab5c6d02cdc8b"
        }
      ]
    }
  ],
  "data": {
    "created_at": "2021-07-07T22:56:55.785Z",
    "kid": "b8d5ea34-23d2-44bb-ad8a-e8715e98c37e",
    "modified_at": "2021-07-07T23:00:32.846Z",
    "repository": "kara.moe",
    "tags": {
      "authors": [
        "9cdf3b70-3550-457c-bdb9-038f3253c6ad"
      ],
      "collections": [
        "c7db86a0-ff64-4044-9be4-66dd1ef1d1c1"
      ],
      "creators": [
        "c5b27231-6ac3-4a71-9d0c-06aa0282f55f"
      ],
      "families": [
        "0377db02-3af6-43b8-9b08-c759df3d25c3"
      ],
      "genres": [
        "4b80eca6-f44f-4262-a8d0-b6879d6b70cb"
      ],
      "groups": [
        "8e209ae4-4381-438f-89dc-1b21752027d2"
      ],
      "langs": [
        "4dcf9614-7914-42aa-99f4-dbce2e059133"
      ],
      "origins": [
        "938de218-5343-4865-94d3-fb33f2eaa152"
      ],
      "series": [
        "205e26fd-cb00-40fb-b0c1-369583f86312"
      ],
      "singers": [
        "13c686dd-4df8-4056-a46a-39ba871cba8b"
      ],
      "songtypes": [
        "f02ad9b3-0bd9-4aad-85b3-9976739ba0e4"
      ],
      "songwriters": [
        "13c686dd-4df8-4056-a46a-39ba871cba8b"
      ]
    },
    "title": "Gambling",
    "titles": {
      "eng": "Gamble",
      "jpn": "ギャンブル"
    },
    "year": 2021,
    "titles_default_language": "eng"
  }
}