{
  "header": {
    "version": 4,
    "description": "Karaoke Mugen Karaoke Data File"
  },
  "medias": [
    {
      "version": "Default",
      "filename": "JPN - Paradise Kiss - MV - Lonely in Gorgeous ~ Full Vers.mp4",
      "audiogain": -4.77,
      "loudnorm": "-13.23,-0.88,3.70,-23.52,-0.41",
      "filesize": 33661210,
      "duration": 252,
      "default": true,
      "lyrics": [
        {
          "filename": "JPN - Paradise Kiss - MV - Lonely in Gorgeous ~ Full Vers.ass",
          "default": true,
          "version": "Default"
        }
      ]
    }
  ],
  "data": {
    "created_at": "2017-10-11T17:01:50.000Z",
    "ignoreHooks": false,
    "kid": "a1f7da68-bf0d-4b98-a17c-78b759aa8637",
    "modified_at": "2022-12-22T16:08:55.186Z",
    "parents": [
      "7c4e51bf-4682-485d-b457-fdb4cde0b7f9"
    ],
    "repository": "kara.moe",
    "tags": {
      "authors": [
        "09c0bae3-a2f0-4e47-bf66-629df6dc4b55"
      ],
      "collections": [
        "dbcf2c22-524d-4708-99bb-601703633927"
      ],
      "creators": [
        "566082ee-060d-4470-ac6f-4a537a50a613"
      ],
      "families": [
        "5391f9fe-638c-415f-8dc9-958e3a2c5787"
      ],
      "groups": [
        "33881a14-788e-4e2a-a97d-1e5f51542a26",
        "3c14c864-533c-49e6-a3cc-6969f1233775"
      ],
      "langs": [
        "4dcf9614-7914-42aa-99f4-dbce2e059133"
      ],
      "series": [
        "338c7099-a60f-4be2-baae-cf9eeeba9114"
      ],
      "singers": [
        "bea215fe-12b4-4e98-8c20-4eab3660b480"
      ],
      "songtypes": [
        "7be1b15c-cff8-4b37-a649-5c90f3d569a9"
      ],
      "songwriters": [
        "88199ab7-04de-4e21-a725-342e283be5e5",
        "9338742e-d0c9-41e3-aa87-79c82b622d11"
      ],
      "versions": [
        "c2143a7f-6970-450e-8a79-0302db9220a9"
      ]
    },
    "titles": {
      "eng": "♥Lonely in Gorgeous♥"
    },
    "titles_default_language": "eng",
    "year": 2005
  }
}