{
  "header": {
    "version": 4,
    "description": "Karaoke Mugen Karaoke Data File"
  },
  "medias": [
    {
      "version": "Default",
      "filename": "JPN - Mission-E - ED1 - Feel so Easy!.avi",
      "audiogain": -4.75,
      "loudnorm": "-12.73,-4.54,2.10,-22.93,-0.30",
      "filesize": 9261566,
      "duration": 84,
      "default": true,
      "lyrics": [
        {
          "filename": "JPN - Mission-E - ED1 - Feel so Easy!.ass",
          "default": true,
          "version": "Default",
          "subchecksum": "eb379392b706cc18d47853903a294ef1"
        }
      ]
    }
  ],
  "data": {
    "created_at": "2017-10-11T17:02:13.000Z",
    "kid": "6dc0ae40-b5c0-40bb-97c3-95d6cbeb6ea6",
    "modified_at": "2021-02-25T12:28:56.710Z",
    "repository": "kara.moe",
    "songorder": 1,
    "tags": {
      "authors": [
        "5bdaba57-27f8-4568-8806-76a807728766"
      ],
      "collections": [
        "c7db86a0-ff64-4044-9be4-66dd1ef1d1c1"
      ],
      "creators": [
        "2bf7a71d-d3fc-42ba-8aa0-a94d7ca3888c"
      ],
      "families": [
        "0377db02-3af6-43b8-9b08-c759df3d25c3"
      ],
      "groups": [
        "3c14c864-533c-49e6-a3cc-6969f1233775"
      ],
      "langs": [
        "4dcf9614-7914-42aa-99f4-dbce2e059133"
      ],
      "origins": [
        "938de218-5343-4865-94d3-fb33f2eaa152"
      ],
      "series": [
        "93d1b692-fbd5-4f66-86d1-ea6200a78297"
      ],
      "singers": [
        "6b469883-82b3-4fa3-8b2b-c374aab91f81"
      ],
      "songtypes": [
        "38c77c56-2b95-4040-b676-0994a8cb0597"
      ],
      "songwriters": [
        "6b469883-82b3-4fa3-8b2b-c374aab91f81"
      ]
    },
    "title": "Feel so Easy!",
    "titles": {
      "eng": "Feel so Easy!"
    },
    "year": 2008,
    "titles_default_language": "eng"
  }
}