{
  "header": {
    "version": 4,
    "description": "Karaoke Mugen Karaoke Data File"
  },
  "medias": [
    {
      "version": "Default",
      "filename": "JPN - Tales of Asteria - GAME OP - believe in you.mp4",
      "audiogain": -5.7,
      "loudnorm": "-11.56,-2.60,5.40,-21.90,-0.62",
      "filesize": 18367228,
      "duration": 61,
      "default": true,
      "lyrics": [
        {
          "filename": "JPN - Tales of Asteria - GAME OP - believe in you.ass",
          "default": true,
          "version": "Default",
          "subchecksum": "cecbed55ba5272295bdfbd12a0ab84e9"
        }
      ]
    }
  ],
  "data": {
    "created_at": "2017-10-11T17:03:14.000Z",
    "kid": "daf7bb55-d1df-4f68-8621-46d3de29187c",
    "modified_at": "2021-02-25T13:16:12.764Z",
    "repository": "kara.moe",
    "tags": {
      "authors": [
        "5bdaba57-27f8-4568-8806-76a807728766"
      ],
      "collections": [
        "c7db86a0-ff64-4044-9be4-66dd1ef1d1c1"
      ],
      "creators": [
        "f3178845-e59b-4feb-9a45-de5f4e044b11"
      ],
      "families": [
        "dbedd6b3-d125-4cd8-aa32-c4175e4ca3a3"
      ],
      "groups": [
        "ae613721-1fbe-480d-ba6b-d6d0702b184d"
      ],
      "langs": [
        "4dcf9614-7914-42aa-99f4-dbce2e059133"
      ],
      "platforms": [
        "213a1a15-e73a-4a08-b3f6-b6e2745a82e5"
      ],
      "series": [
        "09ebcd21-4611-4bbd-8435-47bc3bd6b49f"
      ],
      "singers": [
        "6f1aaccd-0f96-4fa9-ae5f-4e9d47f103a6"
      ],
      "songtypes": [
        "f02ad9b3-0bd9-4aad-85b3-9976739ba0e4"
      ],
      "songwriters": [
        "4ca26970-c146-483f-a2bf-99be0ea4faf7",
        "ba7ae2ba-79a8-4cab-85e7-d68476b49bbf",
        "fda40c1e-0499-4b46-b265-84371155905e"
      ],
      "franchises": [
        "457ab7f6-9644-4493-b61b-8778400aaf54"
      ]
    },
    "title": "believe in you",
    "titles": {
      "eng": "believe in you"
    },
    "year": 2014,
    "titles_default_language": "eng"
  }
}