{
  "header": {
    "version": 4,
    "description": "Karaoke Mugen Karaoke Data File"
  },
  "medias": [
    {
      "version": "Default",
      "filename": "JPN - Marchen Awakens Romance - OP1 - Kimi no Omoi Egaita Yume Atsumeru Heaven.mp4",
      "audiogain": -5.23,
      "loudnorm": "-12.20,-0.23,3.30,-22.37,-0.53",
      "filesize": 18510255,
      "duration": 90,
      "default": true,
      "lyrics": [
        {
          "filename": "JPN - Marchen Awakens Romance - OP1 - Kimi no Omoi Egaita Yume Atsumeru Heaven.ass",
          "default": true,
          "version": "Default"
        }
      ]
    }
  ],
  "data": {
    "created_at": "2017-10-11T17:01:04.000Z",
    "ignoreHooks": false,
    "kid": "69ee25ad-40b6-4256-8f69-afe96e090188",
    "modified_at": "2022-04-18T13:32:13.808Z",
    "repository": "kara.moe",
    "songorder": 1,
    "tags": {
      "authors": [
        "38c2b2a5-de94-4552-a30a-90446b7f3b32"
      ],
      "collections": [
        "c7db86a0-ff64-4044-9be4-66dd1ef1d1c1"
      ],
      "creators": [
        "89712d07-0095-46b2-8399-dfcd8c837884"
      ],
      "families": [
        "0377db02-3af6-43b8-9b08-c759df3d25c3"
      ],
      "genres": [
        "a0aeef4a-6428-45ff-a6e1-468b595930c2"
      ],
      "groups": [
        "3c14c864-533c-49e6-a3cc-6969f1233775"
      ],
      "langs": [
        "4dcf9614-7914-42aa-99f4-dbce2e059133"
      ],
      "origins": [
        "938de218-5343-4865-94d3-fb33f2eaa152"
      ],
      "series": [
        "11876a1e-3b19-45ae-ae29-209014c153fb"
      ],
      "singers": [
        "a6c5ffa4-e70a-4808-b7ad-53a7d2b9b558"
      ],
      "songtypes": [
        "f02ad9b3-0bd9-4aad-85b3-9976739ba0e4"
      ],
      "songwriters": [
        "9338c83c-5901-40a7-af2e-369cb221b9d4",
        "9b87bc55-8b31-466e-b29f-512a03645641"
      ]
    },
    "titles": {
      "qro": "Kimi no Omoi Egaita Yume Atsumeru Heaven",
      "jpn": "君の思い描いた夢 集メル HEAVEN"
    },
    "titles_default_language": "qro",
    "title": "Kimi no Omoi Egaita Yume Atsumeru Heaven",
    "year": 2005
  }
}