{
  "header": {
    "version": 4,
    "description": "Karaoke Mugen Karaoke Data File"
  },
  "medias": [
    {
      "version": "Default",
      "filename": "JPN - Grisaia no Kajitsu - OP - Rakuen no Tsubasa.mp4",
      "audiogain": 3.88,
      "loudnorm": "-21.30,-9.30,3.80,-31.37,-0.38",
      "filesize": 40312619,
      "duration": 89,
      "default": true,
      "lyrics": [
        {
          "filename": "JPN - Grisaia no Kajitsu - OP - Rakuen no Tsubasa.ass",
          "default": true,
          "version": "Default",
          "subchecksum": "6fe52ea9cd885002612b02f4a487f781"
        }
      ]
    }
  ],
  "data": {
    "created_at": "2017-10-11T17:01:54.000Z",
    "kid": "7dcf152c-4d71-4169-9855-e6b5a1ed5fda",
    "modified_at": "2021-02-25T11:32:34.748Z",
    "repository": "kara.moe",
    "tags": {
      "authors": [
        "5bdaba57-27f8-4568-8806-76a807728766"
      ],
      "collections": [
        "c7db86a0-ff64-4044-9be4-66dd1ef1d1c1"
      ],
      "creators": [
        "126e5cf8-763f-43e2-9b09-8a30b586f256"
      ],
      "families": [
        "0377db02-3af6-43b8-9b08-c759df3d25c3"
      ],
      "groups": [
        "ae613721-1fbe-480d-ba6b-d6d0702b184d"
      ],
      "langs": [
        "4dcf9614-7914-42aa-99f4-dbce2e059133"
      ],
      "origins": [
        "938de218-5343-4865-94d3-fb33f2eaa152"
      ],
      "series": [
        "3414bad6-5491-4235-9bfd-545b632042fa"
      ],
      "singers": [
        "d5d04a4f-594b-4e7c-bf1f-546ea6c6aab4"
      ],
      "songtypes": [
        "f02ad9b3-0bd9-4aad-85b3-9976739ba0e4"
      ],
      "songwriters": [
        "18a5b3b4-9796-4d50-869f-1a1ebb96b1c4",
        "aa272687-791e-4bfc-ba7a-918b7f57e24d"
      ],
      "franchises": [
        "63d1e1dc-396b-41b1-8830-5f87e17f571e"
      ]
    },
    "title": "Rakuen no Tsubasa",
    "titles": {
      "qro": "Rakuen no Tsubasa",
      "jpn": "楽園の翼"
    },
    "year": 2014,
    "titles_default_language": "qro"
  }
}