{
  "header": {
    "version": 4,
    "description": "Karaoke Mugen Karaoke Data File"
  },
  "medias": [
    {
      "version": "Default",
      "filename": "JPN - Hanasaku Iroha - ED6 - High Leap ~ Full Vers.mp4",
      "audiogain": 1.87,
      "loudnorm": "-21.33,-5.43,15.30,-32.43,-1.68",
      "filesize": 70726513,
      "duration": 233,
      "default": true,
      "lyrics": [
        {
          "filename": "JPN - Hanasaku Iroha - ED6 - High Leap ~ Full Vers.ass",
          "default": true,
          "version": "Default"
        }
      ]
    }
  ],
  "data": {
    "created_at": "2017-10-11T17:02:11.000Z",
    "ignoreHooks": false,
    "kid": "7ec80cad-c7cc-4e92-94e3-4276f10b246a",
    "modified_at": "2022-12-21T23:12:55.416Z",
    "parents": [
      "492cba5d-3d85-4e8e-8825-32c4c3e43d34"
    ],
    "repository": "kara.moe",
    "songorder": 6,
    "tags": {
      "authors": [
        "5bdaba57-27f8-4568-8806-76a807728766"
      ],
      "collections": [
        "c7db86a0-ff64-4044-9be4-66dd1ef1d1c1"
      ],
      "creators": [
        "54259fe3-ce0c-4eca-855e-383f2c5be3a9"
      ],
      "families": [
        "0377db02-3af6-43b8-9b08-c759df3d25c3"
      ],
      "groups": [
        "ae613721-1fbe-480d-ba6b-d6d0702b184d"
      ],
      "langs": [
        "4dcf9614-7914-42aa-99f4-dbce2e059133"
      ],
      "misc": [
        "a98efc68-91c1-4291-b4af-e3990b939167"
      ],
      "origins": [
        "938de218-5343-4865-94d3-fb33f2eaa152"
      ],
      "series": [
        "8308d2af-47fd-4245-96c9-cda6684c3441"
      ],
      "singers": [
        "705e40f8-00f0-46e5-838a-4181d93de4b2"
      ],
      "songtypes": [
        "38c77c56-2b95-4040-b676-0994a8cb0597"
      ],
      "songwriters": [
        "222ae5d2-c7d4-4ba9-852c-681baf61ece4"
      ],
      "versions": [
        "c2143a7f-6970-450e-8a79-0302db9220a9"
      ]
    },
    "titles": {
      "eng": "High Leap",
      "jpn": "ハイリープ"
    },
    "titles_default_language": "eng",
    "year": 2011
  }
}