{
  "header": {
    "version": 4,
    "description": "Karaoke Mugen Karaoke Data File"
  },
  "medias": [
    {
      "version": "GranFest 2019.",
      "filename": "JPN - Granblue Fantasy - GAME LIVE - The Dragon Knights ~ GranFest 2019 Vers. ~ Alternative Full Vers.mp4",
      "audiogain": 5.85,
      "loudnorm": "-22.98,-9.61,4.70,-33.19,-0.52",
      "filesize": 101570112,
      "duration": 387,
      "default": true,
      "lyrics": [
        {
          "filename": "JPN - Granblue Fantasy - GAME LIVE - The Dragon Knights ~ GranFest 2019 Vers. ~ Alternative Full Vers.ass",
          "default": true,
          "version": "Default"
        }
      ]
    }
  ],
  "data": {
    "created_at": "2020-05-16T13:28:26.092Z",
    "ignoreHooks": false,
    "kid": "0e04bd0d-957d-4deb-ba79-f0319e63aadb",
    "modified_at": "2022-12-21T22:36:29.882Z",
    "parents": [
      "565e3444-0707-4a88-b294-98420d896904"
    ],
    "repository": "kara.moe",
    "tags": {
      "authors": [
        "2a9bbf75-0722-4b4a-9935-caa92f38fdd1"
      ],
      "collections": [
        "c7db86a0-ff64-4044-9be4-66dd1ef1d1c1"
      ],
      "creators": [
        "344cb973-3dac-4bac-b6b0-71243417856b"
      ],
      "families": [
        "dbedd6b3-d125-4cd8-aa32-c4175e4ca3a3"
      ],
      "groups": [
        "ae613721-1fbe-480d-ba6b-d6d0702b184d"
      ],
      "langs": [
        "4dcf9614-7914-42aa-99f4-dbce2e059133"
      ],
      "misc": [
        "86705d4b-24e4-4756-9687-2b9c98bcf366"
      ],
      "platforms": [
        "213a1a15-e73a-4a08-b3f6-b6e2745a82e5"
      ],
      "series": [
        "4849c8a3-1885-4e79-9c68-89fcbaebdac2"
      ],
      "singers": [
        "37e60254-e1a6-402d-9c70-b0fe11919cc7",
        "7b2309a3-647f-4e4e-9c18-354e4f479a54",
        "d182360c-21ed-4887-a15f-8640f11a934a",
        "ecca47d9-4c65-48bb-bcbc-9876fe2ea450"
      ],
      "songtypes": [
        "a0167949-580c-4de3-bf13-497e462e02f3"
      ],
      "songwriters": [
        "15a2ae55-e9af-497c-831b-af107c5fab4f",
        "22973edc-2b1d-4c54-9219-f5470f862bee",
        "36e8b01d-549b-426f-a3ec-9f425a83f938",
        "fffb9dd7-c02a-4f36-8f9a-d678c7da68ad"
      ],
      "versions": [
        "9f63c359-d1bf-425a-bcf5-b245c2c9211d",
        "c2143a7f-6970-450e-8a79-0302db9220a9"
      ],
      "franchises": [
        "4849c8a3-1885-4e79-9c68-89fcbaebdac2"
      ]
    },
    "titles": {
      "eng": "The Dragon Knights ~ GranFest 2019 Vers."
    },
    "titles_default_language": "eng",
    "year": 2019
  }
}