{
  "header": {
    "version": 4,
    "description": "Karaoke Mugen Karaoke Data File"
  },
  "medias": [
    {
      "version": "Default",
      "filename": "JPN - Amanchu! Advance - ED - Hello, Hello.mp4",
      "audiogain": 5.08,
      "loudnorm": "-23.44,-11.68,9.70,-33.82,-1.63",
      "filesize": 12880703,
      "duration": 90,
      "default": true,
      "lyrics": [
        {
          "filename": "JPN - Amanchu! Advance - ED - Hello, Hello.ass",
          "default": true,
          "version": "Default",
          "subchecksum": "e7f450294d8fd2b662d4b9ad0081aebe"
        }
      ]
    }
  ],
  "data": {
    "created_at": "2018-05-01T16:03:54.000Z",
    "kid": "65b266e2-ebb5-452d-be3f-30099c0940e1",
    "modified_at": "2021-02-25T10:42:19.059Z",
    "repository": "kara.moe",
    "tags": {
      "authors": [
        "b7711191-2388-4035-b172-7d29ac69622b"
      ],
      "collections": [
        "c7db86a0-ff64-4044-9be4-66dd1ef1d1c1"
      ],
      "creators": [
        "802a8ac8-b16f-40a4-944b-99956798c906"
      ],
      "families": [
        "0377db02-3af6-43b8-9b08-c759df3d25c3"
      ],
      "groups": [
        "ae613721-1fbe-480d-ba6b-d6d0702b184d"
      ],
      "langs": [
        "4dcf9614-7914-42aa-99f4-dbce2e059133"
      ],
      "misc": [
        "fe819ff1-9db8-4a0f-85dc-0e322c9126c4"
      ],
      "origins": [
        "938de218-5343-4865-94d3-fb33f2eaa152"
      ],
      "series": [
        "0f6a3949-8d75-4f06-9751-e9e197e84a15"
      ],
      "singers": [
        "1e93160f-11bb-4d02-b716-4660cb29206e"
      ],
      "songtypes": [
        "38c77c56-2b95-4040-b676-0994a8cb0597"
      ],
      "songwriters": [
        "1e93160f-11bb-4d02-b716-4660cb29206e",
        "e9c64889-7591-4cb0-84a0-fb6f47ab2055"
      ],
      "franchises": [
        "2f7923b6-d789-4460-8e60-cf9f9ef727c7"
      ]
    },
    "title": "Hello, Hello",
    "titles": {
      "eng": "Hello, Hello",
      "jpn": "ハロー, ハロー"
    },
    "year": 2018,
    "titles_default_language": "eng"
  }
}