{
  "header": {
    "version": 4,
    "description": "Karaoke Mugen Karaoke Data File"
  },
  "medias": [
    {
      "version": "Default",
      "filename": "JPN - Ryokuoushoku Shakai - MV - Mela! ~ Off Vocal Vers.mp4",
      "audiogain": -8.29,
      "loudnorm": "-8.04,2.29,3.40,-18.15,-1.03",
      "filesize": 82679159,
      "duration": 246,
      "default": true,
      "lyrics": [
        {
          "filename": "JPN - Ryokuoushoku Shakai - MV - Mela! ~ Off Vocal Vers.ass",
          "default": true,
          "version": "Default"
        }
      ]
    }
  ],
  "data": {
    "created_at": "2022-07-17T12:43:55.684Z",
    "ignoreHooks": false,
    "kid": "6043e4e2-350a-4caa-a021-dfbf418c08bb",
    "modified_at": "2022-07-17T12:46:55.422Z",
    "parents": [
      "876a3dba-b10c-4f5f-86d8-c7047324c024"
    ],
    "repository": "kara.moe",
    "tags": {
      "authors": [
        "90698f28-1d62-4673-82c4-33ae96b1ba97",
        "faa8becc-83b6-45d9-a3d0-a4c2c8b336c8"
      ],
      "collections": [
        "dbcf2c22-524d-4708-99bb-601703633927"
      ],
      "creators": [
        "0484c65c-b74a-4035-9ae0-39bd0b32a514"
      ],
      "families": [
        "0377db02-3af6-43b8-9b08-c759df3d25c3"
      ],
      "groups": [
        "8c22c899-b3ed-42da-a548-ce00f950798b",
        "8e209ae4-4381-438f-89dc-1b21752027d2"
      ],
      "langs": [
        "4dcf9614-7914-42aa-99f4-dbce2e059133"
      ],
      "singers": [
        "de886416-4876-48d8-95fe-a576738c1907"
      ],
      "songtypes": [
        "7be1b15c-cff8-4b37-a649-5c90f3d569a9"
      ],
      "songwriters": [
        "de886416-4876-48d8-95fe-a576738c1907"
      ],
      "versions": [
        "c0cc87b9-55b9-40f0-878a-fbb9e34c151e"
      ]
    },
    "titles": {
      "eng": "Mela!"
    },
    "titles_default_language": "eng",
    "title": "Mela!",
    "year": 2020
  }
}