{
  "header": {
    "version": 4,
    "description": "Karaoke Mugen Karaoke Data File"
  },
  "medias": [
    {
      "version": "Default",
      "filename": "JPN - Rikka (Hololive) - MV - Vampire ~ Cover Vers.mp4",
      "audiogain": -8.17,
      "loudnorm": "-9.57,0.84,4.50,-19.62,-0.45",
      "filesize": 30076491,
      "duration": 180,
      "default": true,
      "lyrics": [
        {
          "filename": "JPN - Rikka - MV - Vampire ~ Cover Vers.ass",
          "default": true,
          "version": "Default"
        }
      ]
    }
  ],
  "data": {
    "created_at": "2021-09-05T15:44:39.757Z",
    "kid": "d092c13b-2d89-40ca-9897-99acaf39b2b0",
    "modified_at": "2022-08-02T04:20:34.601Z",
    "parents": [
      "c2ff309d-1324-4686-bfad-629514aa75f2"
    ],
    "repository": "kara.moe",
    "tags": {
      "authors": [
        "84157b43-8a7a-482c-95d3-516757353835"
      ],
      "creators": [
        "0263d413-17bb-4cee-a311-6dd896eda1c9"
      ],
      "families": [
        "0377db02-3af6-43b8-9b08-c759df3d25c3"
      ],
      "groups": [
        "8e209ae4-4381-438f-89dc-1b21752027d2"
      ],
      "langs": [
        "4dcf9614-7914-42aa-99f4-dbce2e059133"
      ],
      "origins": [
        "5106d71b-a78e-4d19-a16d-f8fb6719538a"
      ],
      "singers": [
        "82ead1c5-d9e3-40cf-b9da-22d08fcefee1"
      ],
      "songtypes": [
        "7be1b15c-cff8-4b37-a649-5c90f3d569a9"
      ],
      "songwriters": [
        "6d9eaa90-048f-41d5-a264-8d73df69cc22"
      ],
      "versions": [
        "03e1e1d2-8641-47b7-bbcb-39a3df9ff21c"
      ],
      "collections": [
        "c7db86a0-ff64-4044-9be4-66dd1ef1d1c1"
      ]
    },
    "titles": {
      "eng": "Vampire",
      "jpn": "ヴァンパイア"
    },
    "titles_default_language": "eng",
    "title": "Vampire",
    "year": 2021
  }
}