{
  "header": {
    "version": 4,
    "description": "Karaoke Mugen Karaoke Data File"
  },
  "medias": [
    {
      "version": "Default",
      "filename": "JPN - Kamen Rider W - OP - W-B-X (W-Boiled Extreme).mp4",
      "audiogain": 3.83,
      "loudnorm": "-20.56,-9.82,2.60,-30.59,-1.01",
      "filesize": 38865890,
      "duration": 70,
      "default": true,
      "lyrics": [
        {
          "filename": "JPN - Kamen Rider W - OP - W-B-X (W-Boiled Extreme).ass",
          "default": true,
          "version": "Default",
          "subchecksum": "02d2bd55f06ee01f466172c6335eb4c1"
        }
      ]
    }
  ],
  "data": {
    "created_at": "2017-10-11T15:02:43.000Z",
    "kid": "21083267-3b9b-4c76-8147-5699392b230e",
    "modified_at": "2021-02-25T11:53:23.015Z",
    "repository": "kara.moe",
    "tags": {
      "authors": [
        "5bdaba57-27f8-4568-8806-76a807728766"
      ],
      "collections": [
        "c7db86a0-ff64-4044-9be4-66dd1ef1d1c1"
      ],
      "creators": [
        "e32b14df-502b-45fa-9ca5-37554a63a4d7"
      ],
      "families": [
        "5391f9fe-638c-415f-8dc9-958e3a2c5787"
      ],
      "groups": [
        "3c14c864-533c-49e6-a3cc-6969f1233775"
      ],
      "langs": [
        "4dcf9614-7914-42aa-99f4-dbce2e059133"
      ],
      "origins": [
        "938de218-5343-4865-94d3-fb33f2eaa152",
        "d3fac9ab-630d-402d-a392-3d2450c3e62e"
      ],
      "series": [
        "b72cb537-dbfc-402c-87e3-cbfecc70359c"
      ],
      "singers": [
        "23f1e99f-3964-44cf-b36a-de1341b1f213",
        "44ef61df-2cb4-436c-a1a9-513780e68f1a",
        "d2db81bb-ea97-4e43-9a5f-6080a866e32c"
      ],
      "songtypes": [
        "f02ad9b3-0bd9-4aad-85b3-9976739ba0e4"
      ],
      "songwriters": [
        "ad9de3e0-673e-459b-ac88-178ae5e04341",
        "ba322cf5-cc62-4f0c-911e-e6d86ce802e5"
      ],
      "franchises": [
        "93386847-9ab0-468e-bad0-e1d655e0e0ec"
      ]
    },
    "title": "W-B-X (W-Boiled Extreme)",
    "titles": {
      "eng": "W-B-X ～W-Boiled Extreme～"
    },
    "year": 2009,
    "titles_default_language": "eng"
  }
}