{
  "header": {
    "version": 4,
    "description": "Karaoke Mugen Karaoke Data File"
  },
  "medias": [
    {
      "version": "Lunatic Udongein",
      "filename": "JPN - Touhou - MV - Stops at the affected area and immediately dissolves ~ Lunatic Udongein.mp4",
      "audiogain": 0.16,
      "loudnorm": "-17.11,-4.18,6.30,-27.16,0.22",
      "filesize": 27863915,
      "duration": 135,
      "default": true,
      "lyrics": [
        {
          "filename": "JPN - Touhou - MV - Stops at the affected area and immediately dissolves ~ Lunatic Udongein.ass",
          "default": true,
          "version": "Default"
        }
      ]
    }
  ],
  "data": {
    "created_at": "2022-02-07T17:13:36.742Z",
    "kid": "654b0d50-9684-48fb-845b-71caf454526b",
    "modified_at": "2022-02-07T17:24:09.689Z",
    "repository": "kara.moe",
    "songorder": null,
    "tags": {
      "authors": [
        "a5dbab74-510b-48c5-9cea-5a537a81c974"
      ],
      "collections": [
        "c7db86a0-ff64-4044-9be4-66dd1ef1d1c1"
      ],
      "creators": [
        "25fc251a-0514-4bf5-a818-dd0547723f4a",
        "dfdca219-b7f2-4e7b-a18a-0229108ff1cd"
      ],
      "families": [
        "0377db02-3af6-43b8-9b08-c759df3d25c3"
      ],
      "groups": [
        "8c22c899-b3ed-42da-a548-ce00f950798b",
        "3c14c864-533c-49e6-a3cc-6969f1233775"
      ],
      "langs": [
        "4dcf9614-7914-42aa-99f4-dbce2e059133"
      ],
      "origins": [
        "ac5085db-52d8-44b4-8fbb-1697b24d2046"
      ],
      "series": [
        "1bdaa5a1-dfa6-4365-b746-7a0b194dafd6"
      ],
      "singers": [
        "0349bfe3-d608-448e-8cc5-476107e0f08a",
        "1be92ff9-340d-4da8-98a2-425ad5a7ab55",
        "98cd2e0e-44fb-4feb-aada-1b418e94af37"
      ],
      "songtypes": [
        "7be1b15c-cff8-4b37-a649-5c90f3d569a9"
      ],
      "songwriters": [
        "26cb5252-8510-49e0-897c-a611a05fc056",
        "3a8a22b2-9268-4c44-a0b6-dce0f3f68705",
        "c0f15485-c07b-4613-aadc-92ebb077178d",
        "feceb592-efac-4eda-9b03-c27cf509004c"
      ],
      "franchises": [
        "1bdaa5a1-dfa6-4365-b746-7a0b194dafd6"
      ]
    },
    "titles": {
      "eng": "Stops at the affected area and immediately dissolves ~ Lunatic Udongein",
      "qro": "Kanbu de tomatte sugu tokeru ～ Kyouki no Udongein",
      "jpn": "患部で止まってすぐ溶ける　～ 狂気の優曇華院"
    },
    "titles_aliases": [
      "Overdrive"
    ],
    "title": "Stops at the affected area and immediately dissolves ~ Lunatic Udongein",
    "year": 2006,
    "titles_default_language": "eng"
  }
}