{
  "header": {
    "version": 4,
    "description": "Karaoke Mugen Karaoke Data File"
  },
  "medias": [
    {
      "version": "Default",
      "filename": "JPN - Touhou Musou Kakyou A Summer Day's Dream - OVA ED2 - Himawari no Saku Basho.mp4",
      "audiogain": -0.21,
      "loudnorm": "-17.01,-5.98,3.90,-27.31,-0.81",
      "filesize": 26987198,
      "duration": 89,
      "default": true,
      "lyrics": [
        {
          "filename": "JPN - Touhou Musou Kakyou A Summer Day's Dream - OVA ED2 - Himawari no Saku Basho.ass",
          "default": true,
          "version": "Default",
          "subchecksum": "4a8734f4185762468794df30ac76565d"
        }
      ]
    }
  ],
  "data": {
    "created_at": "2021-06-15T21:53:36.108Z",
    "kid": "3bfd1d59-098a-495f-a762-8d8917b3f267",
    "modified_at": "2021-06-15T22:03:37.163Z",
    "repository": "kara.moe",
    "songorder": 2,
    "tags": {
      "authors": [
        "1631228b-9125-497a-aafc-66f920a44a02"
      ],
      "collections": [
        "c7db86a0-ff64-4044-9be4-66dd1ef1d1c1"
      ],
      "creators": [
        "3fb874fd-8e24-40ab-ae45-1e122016fbb1"
      ],
      "families": [
        "0377db02-3af6-43b8-9b08-c759df3d25c3"
      ],
      "groups": [
        "8c22c899-b3ed-42da-a548-ce00f950798b",
        "ae613721-1fbe-480d-ba6b-d6d0702b184d"
      ],
      "langs": [
        "4dcf9614-7914-42aa-99f4-dbce2e059133"
      ],
      "origins": [
        "2a6ef087-a000-4f8e-aeb5-9a7968756a36"
      ],
      "series": [
        "496eb3a6-3f01-42e9-ba05-06588ba29654"
      ],
      "singers": [
        "9f4c3c07-ea6a-44de-b75f-735d2276f0a4"
      ],
      "songtypes": [
        "38c77c56-2b95-4040-b676-0994a8cb0597"
      ],
      "songwriters": [
        "0ea1ee68-c8b7-404a-926e-1388b464d270"
      ],
      "franchises": [
        "1bdaa5a1-dfa6-4365-b746-7a0b194dafd6"
      ]
    },
    "title": "Himawari no Saku Basho",
    "titles": {
      "qro": "Himawari no Saku Basho",
      "jpn": "向日葵の咲く場所"
    },
    "year": 2012,
    "titles_default_language": "qro"
  }
}