{
  "header": {
    "version": 4,
    "description": "Karaoke Mugen Karaoke Data File"
  },
  "medias": [
    {
      "version": "Default",
      "filename": "JPN - Persona 3 FES - PS2 GAME OP - P3 FES.mp4",
      "audiogain": -10.33,
      "loudnorm": "-7.13,1.76,8.40,-17.27,-1.41",
      "filesize": 23812833,
      "duration": 89,
      "default": true,
      "lyrics": [
        {
          "filename": "JPN - Persona 3 FES - PS2 GAME OP - P3 FES.ass",
          "default": true,
          "version": "Default",
          "subchecksum": "db98650beb36d24396854f6da8eb862d"
        }
      ]
    }
  ],
  "data": {
    "created_at": "2017-10-11T17:01:16.000Z",
    "kid": "71eb123f-c2be-43e7-91b8-fb40b62b923a",
    "modified_at": "2021-02-25T12:45:07.659Z",
    "repository": "kara.moe",
    "tags": {
      "authors": [
        "5bdaba57-27f8-4568-8806-76a807728766"
      ],
      "collections": [
        "c7db86a0-ff64-4044-9be4-66dd1ef1d1c1"
      ],
      "creators": [
        "e9bb3a58-48d2-478c-bfe7-95237ddfe0fd"
      ],
      "families": [
        "dbedd6b3-d125-4cd8-aa32-c4175e4ca3a3"
      ],
      "groups": [
        "3c14c864-533c-49e6-a3cc-6969f1233775"
      ],
      "langs": [
        "4dcf9614-7914-42aa-99f4-dbce2e059133"
      ],
      "platforms": [
        "2173004e-21da-45c9-9dfb-26014423c566"
      ],
      "series": [
        "e67cd2ef-dbc7-46a6-a3ea-40cb4182fd35"
      ],
      "singers": [
        "900e7353-d9db-4c9e-88e9-24649beef963",
        "c5ce42f3-d4e1-417d-aded-e2ad4b2eab5f"
      ],
      "songtypes": [
        "f02ad9b3-0bd9-4aad-85b3-9976739ba0e4"
      ],
      "songwriters": [
        "900e7353-d9db-4c9e-88e9-24649beef963",
        "ec3a6acb-6751-49d9-84c7-b6b01ec163f4",
        "fa767fcb-2c77-4cfa-8cb2-62de628af625",
        "fe336c2c-58be-4751-acf4-842e8f6f3bb0"
      ],
      "franchises": [
        "d8030743-4563-41b9-a3e3-30a0b2fb2edb"
      ]
    },
    "title": "P3 FES",
    "titles": {
      "eng": "P3 FES"
    },
    "year": 2007,
    "titles_default_language": "eng"
  }
}