{
  "header": {
    "version": 4,
    "description": "Karaoke Mugen Karaoke Data File"
  },
  "medias": [
    {
      "version": "Default",
      "filename": "JPN - Soul Eater Repeat Show - ED1 - Ao no Kaori.mp4",
      "audiogain": 2.57,
      "loudnorm": "-21.07,-8.40,8.20,-31.42,-1.92",
      "filesize": 18520036,
      "duration": 90,
      "default": true,
      "lyrics": [
        {
          "filename": "JPN - Soul Eater Repeat Show - ED1 - Ao no Kaori.ass",
          "default": true,
          "version": "Default",
          "subchecksum": "00b9dfe7abfbed18d29fca71a9497c1a"
        }
      ]
    }
  ],
  "data": {
    "created_at": "2017-10-11T17:01:15.000Z",
    "kid": "e6de5a9a-33de-41cf-8374-c78be0495ef5",
    "modified_at": "2021-02-25T13:10:33.124Z",
    "repository": "kara.moe",
    "songorder": 1,
    "tags": {
      "authors": [
        "5bdaba57-27f8-4568-8806-76a807728766"
      ],
      "collections": [
        "c7db86a0-ff64-4044-9be4-66dd1ef1d1c1"
      ],
      "creators": [
        "57ffcdd9-7e4f-4971-85ce-0fb3aa8151ac"
      ],
      "families": [
        "0377db02-3af6-43b8-9b08-c759df3d25c3"
      ],
      "genres": [
        "a0aeef4a-6428-45ff-a6e1-468b595930c2"
      ],
      "groups": [
        "ae613721-1fbe-480d-ba6b-d6d0702b184d"
      ],
      "langs": [
        "4dcf9614-7914-42aa-99f4-dbce2e059133"
      ],
      "origins": [
        "938de218-5343-4865-94d3-fb33f2eaa152"
      ],
      "series": [
        "ee8628c0-62d6-477c-aa62-6f3bfe06a6ee"
      ],
      "singers": [
        "01900c77-94f2-4e04-8378-7028fb9e02be"
      ],
      "songtypes": [
        "38c77c56-2b95-4040-b676-0994a8cb0597"
      ],
      "songwriters": [
        "01900c77-94f2-4e04-8378-7028fb9e02be",
        "0bc259cb-a928-4632-9cb0-a94f8407d593"
      ],
      "franchises": [
        "a90829f8-13c3-4b20-be2c-1f4867b5a2d3"
      ]
    },
    "title": "Ao no Kaori",
    "titles": {
      "qro": "Ao no Kaori",
      "jpn": "碧の香り"
    },
    "year": 2010,
    "titles_default_language": "qro"
  }
}