{
  "header": {
    "version": 4,
    "description": "Karaoke Mugen Karaoke Data File"
  },
  "medias": [
    {
      "version": "Default",
      "filename": "JPN - Kakegurui - ED1 - LAYon-theLINE.mp4",
      "audiogain": 5.47,
      "loudnorm": "-22.31,-10.56,2.80,-32.44,-0.75",
      "filesize": 90215967,
      "duration": 89,
      "default": true,
      "lyrics": [
        {
          "filename": "JPN - Kakegurui - ED1 - LAYon-theLINE.ass",
          "default": true,
          "version": "Default",
          "subchecksum": "e8d7940e6de3086249b90a59be69b4fb"
        }
      ]
    }
  ],
  "data": {
    "created_at": "2017-12-22T11:24:31.000Z",
    "kid": "9176148e-d00e-4128-bf35-6557351f1782",
    "modified_at": "2021-02-25T11:52:03.136Z",
    "repository": "kara.moe",
    "songorder": 1,
    "tags": {
      "authors": [
        "79e0aa7d-da9a-4e9a-aa2b-64056a83b49b"
      ],
      "collections": [
        "c7db86a0-ff64-4044-9be4-66dd1ef1d1c1"
      ],
      "creators": [
        "0a86e9ea-5e17-4371-8f2a-60c818324d58"
      ],
      "families": [
        "0377db02-3af6-43b8-9b08-c759df3d25c3"
      ],
      "groups": [
        "ae613721-1fbe-480d-ba6b-d6d0702b184d"
      ],
      "langs": [
        "4dcf9614-7914-42aa-99f4-dbce2e059133"
      ],
      "origins": [
        "938de218-5343-4865-94d3-fb33f2eaa152"
      ],
      "series": [
        "5ae9840b-fd0b-44ab-aa7a-f2e3428d16f7"
      ],
      "singers": [
        "f091a89d-328d-48e1-9a9a-b6d9dfcc256f"
      ],
      "songtypes": [
        "38c77c56-2b95-4040-b676-0994a8cb0597"
      ],
      "songwriters": [
        "ab810184-53f6-43f5-9133-ffeeb4f5d7e5"
      ],
      "franchises": [
        "5ae9840b-fd0b-44ab-aa7a-f2e3428d16f7"
      ]
    },
    "title": "LAYon-theLINE",
    "titles": {
      "eng": "LAYon-theLINE"
    },
    "year": 2017,
    "titles_default_language": "eng"
  }
}