{
  "header": {
    "version": 4,
    "description": "Karaoke Mugen Karaoke Data File"
  },
  "medias": [
    {
      "version": "Default",
      "filename": "JPN - Senki Zesshou Symphogear XD Unlimited - GAME OP2 - FIRE SCREAM.mp4",
      "audiogain": -7.02,
      "loudnorm": "-9.72,0.22,2.50,-19.85,-0.70",
      "filesize": 42411017,
      "duration": 104,
      "default": true,
      "lyrics": [
        {
          "filename": "JPN - Senki Zesshou Symphogear XD Unlimited - GAME OP2 - FIRE SCREAM.ass",
          "default": true,
          "version": "Default"
        }
      ]
    }
  ],
  "data": {
    "created_at": "2020-10-15T23:00:09.892Z",
    "kid": "7d231c26-d0f8-4efe-ae8f-11ec2036753f",
    "modified_at": "2021-07-22T19:14:07.529Z",
    "repository": "kara.moe",
    "songorder": 2,
    "tags": {
      "authors": [
        "523ead5e-981e-4993-af29-12524f7edcf1"
      ],
      "collections": [
        "c7db86a0-ff64-4044-9be4-66dd1ef1d1c1"
      ],
      "creators": [
        "0041fabf-4b82-4ecd-961b-e4c49b8c88be",
        "bd4564a8-44e5-454a-9c57-bd2a3c8a537e"
      ],
      "families": [
        "dbedd6b3-d125-4cd8-aa32-c4175e4ca3a3"
      ],
      "genres": [
        "b84e28f9-db1e-447f-b339-7954c3592523"
      ],
      "groups": [
        "2b4e9972-5e17-481b-99f5-d0787c0ada56",
        "8e209ae4-4381-438f-89dc-1b21752027d2"
      ],
      "langs": [
        "4dcf9614-7914-42aa-99f4-dbce2e059133"
      ],
      "platforms": [
        "213a1a15-e73a-4a08-b3f6-b6e2745a82e5"
      ],
      "series": [
        "99a6a137-2984-4db4-a59c-66014ffae310"
      ],
      "singers": [
        "6d2045b2-80ab-45ff-a131-c4df02ef52d1"
      ],
      "songtypes": [
        "f02ad9b3-0bd9-4aad-85b3-9976739ba0e4"
      ],
      "songwriters": [
        "400922df-5396-43ea-a338-90771426a74f",
        "6d2045b2-80ab-45ff-a131-c4df02ef52d1",
        "af3ffe51-8059-461c-bbb8-78ea388731f3"
      ],
      "franchises": [
        "61b24082-a6a9-482b-b126-0ad7be595791"
      ]
    },
    "title": "FIRE SCREAM",
    "titles": {
      "eng": "FIRE SCREAM"
    },
    "year": 2020,
    "titles_default_language": "eng"
  }
}