{
  "header": {
    "version": 4,
    "description": "Karaoke Mugen Karaoke Data File"
  },
  "medias": [
    {
      "version": "Default",
      "filename": "JPN - BanG Dream! 3rd Season - ED1 - Yume wo Uchinuku Shunkan ni!.mp4",
      "audiogain": -0.88,
      "loudnorm": "-16.09,-7.16,5.40,-26.35,-0.81",
      "filesize": 18831871,
      "duration": 90,
      "default": true,
      "lyrics": [
        {
          "filename": "JPN - BanG Dream! 3rd Season - ED1 - Yume wo Uchinuku Shunkan ni!.ass",
          "default": true,
          "version": "Default",
          "subchecksum": "f697ce9db89cc03b8a26a28b05ae797d"
        }
      ]
    }
  ],
  "data": {
    "created_at": "2020-02-22T18:34:40.882Z",
    "kid": "de3b57bc-b20c-4d6b-a267-8f70140e820a",
    "modified_at": "2021-02-25T10:50:53.443Z",
    "repository": "kara.moe",
    "songorder": 1,
    "tags": {
      "authors": [
        "9097cd02-aa6c-4b63-8281-164e7540ecf2"
      ],
      "collections": [
        "c7db86a0-ff64-4044-9be4-66dd1ef1d1c1"
      ],
      "creators": [
        "4e1122b4-c09f-445f-bdfa-cbad9581f2dc"
      ],
      "families": [
        "0377db02-3af6-43b8-9b08-c759df3d25c3"
      ],
      "groups": [
        "8e209ae4-4381-438f-89dc-1b21752027d2"
      ],
      "langs": [
        "4dcf9614-7914-42aa-99f4-dbce2e059133"
      ],
      "origins": [
        "938de218-5343-4865-94d3-fb33f2eaa152"
      ],
      "series": [
        "b782f7cf-a779-4a3c-aa7f-5a546cf2d992"
      ],
      "singers": [
        "adb2af59-5df0-4e18-a0d1-b377416ef134"
      ],
      "songtypes": [
        "38c77c56-2b95-4040-b676-0994a8cb0597"
      ],
      "songwriters": [
        "74b347e5-fb3c-43c3-afe0-a2863f36d366",
        "af3ffe51-8059-461c-bbb8-78ea388731f3",
        "d8608f7f-4ff9-4db1-9b25-04f7517603e8"
      ],
      "franchises": [
        "a65e956d-39ab-4995-9ede-889c30a5cbf0"
      ]
    },
    "title": "Yume wo Uchinuku Shunkan ni!",
    "titles": {
      "qro": "Yume wo Uchinuku Shunkan ni!",
      "jpn": "夢を撃ち抜く瞬間に！"
    },
    "year": 2020,
    "titles_default_language": "qro"
  }
}