{
  "header": {
    "version": 4,
    "description": "Karaoke Mugen Karaoke Data File"
  },
  "medias": [
    {
      "version": "Default",
      "filename": "JPN - Pop Team Epic (2022) - OP1 - Endless Love.mp4",
      "audiogain": 2.92,
      "loudnorm": "-20.56,-6.46,4.10,-30.69,-0.85",
      "filesize": 45134040,
      "duration": 93,
      "default": true,
      "lyrics": [
        {
          "filename": "JPN - Pop Team Epic (2022) - OP1 - Endless Love.ass",
          "default": true,
          "version": "Default"
        }
      ]
    }
  ],
  "data": {
    "created_at": "2022-12-22T00:51:21.366Z",
    "ignoreHooks": false,
    "kid": "945e3420-416f-4d37-83cc-64a3aa3cb068",
    "modified_at": "2022-12-22T00:59:10.995Z",
    "repository": "kara.moe",
    "songorder": 1,
    "tags": {
      "authors": [
        "06852e02-b77e-4106-b6f7-2d03942ad0ea"
      ],
      "collections": [
        "c7db86a0-ff64-4044-9be4-66dd1ef1d1c1"
      ],
      "creators": [
        "3564a06f-167e-4708-be2e-c05bc5b2be5a"
      ],
      "families": [
        "0377db02-3af6-43b8-9b08-c759df3d25c3"
      ],
      "groups": [
        "8e209ae4-4381-438f-89dc-1b21752027d2"
      ],
      "langs": [
        "4dcf9614-7914-42aa-99f4-dbce2e059133"
      ],
      "origins": [
        "938de218-5343-4865-94d3-fb33f2eaa152",
        "d3fac9ab-630d-402d-a392-3d2450c3e62e"
      ],
      "series": [
        "2215663b-776f-4ced-a5d7-a92b49ea201c"
      ],
      "singers": [
        "9c414b4c-422b-4857-b8fd-4556895a745c"
      ],
      "songtypes": [
        "f02ad9b3-0bd9-4aad-85b3-9976739ba0e4"
      ],
      "songwriters": [
        "b7175b44-1e2e-42fb-85be-b9be3e178b31"
      ],
      "franchises": [
        "a70d6cff-c630-4a4e-b76f-21a76a018dd6"
      ]
    },
    "titles": {
      "eng": "Endless Love"
    },
    "titles_default_language": "eng",
    "year": 2022
  }
}