{
  "header": {
    "version": 4,
    "description": "Karaoke Mugen Karaoke Data File"
  },
  "medias": [
    {
      "version": "Default",
      "filename": "JPN - Gekijouban Jujutsu Kaisen 0 - MV - Sakayume ~ Full Vers.mp4",
      "audiogain": -8.98,
      "loudnorm": "-8.45,1.64,5.40,-18.57,-0.69",
      "filesize": 215390108,
      "duration": 305,
      "default": true,
      "lyrics": [
        {
          "filename": "JPN - Gekijouban Jujutsu Kaisen 0 - MV - Sakayume ~ Full Vers.ass",
          "default": true,
          "version": "Default"
        }
      ]
    }
  ],
  "data": {
    "created_at": "2022-04-30T15:36:59.696Z",
    "kid": "0a7d1b6f-4a0b-42f2-90e7-f889cd67d22e",
    "modified_at": "2022-06-04T00:14:53.843Z",
    "repository": "kara.moe",
    "songorder": null,
    "tags": {
      "authors": [
        "87096920-112f-485f-a310-04156cb4624d"
      ],
      "creators": [
        "6fa9de67-21cf-420b-9ddb-57edb5abe523"
      ],
      "families": [
        "5391f9fe-638c-415f-8dc9-958e3a2c5787"
      ],
      "groups": [
        "60defa7b-774e-4680-8321-51b742c2e009",
        "8e209ae4-4381-438f-89dc-1b21752027d2"
      ],
      "langs": [
        "4dcf9614-7914-42aa-99f4-dbce2e059133"
      ],
      "misc": [
        "86705d4b-24e4-4756-9687-2b9c98bcf366"
      ],
      "series": [
        "e0773f05-8ac9-4ed7-b2d9-37967070d642"
      ],
      "singers": [
        "0a7237a8-5da5-4b94-9c57-c79f73435105"
      ],
      "songtypes": [
        "7be1b15c-cff8-4b37-a649-5c90f3d569a9"
      ],
      "songwriters": [
        "0a7237a8-5da5-4b94-9c57-c79f73435105",
        "13c1ef7a-0b82-4f0e-9ebb-0aef854fcc59"
      ],
      "versions": [
        "c2143a7f-6970-450e-8a79-0302db9220a9"
      ],
      "collections": [
        "dbcf2c22-524d-4708-99bb-601703633927"
      ],
      "franchises": [
        "a1745d05-8aa6-45ad-bddb-2398275b0d83"
      ]
    },
    "titles": {
      "jpn": "逆夢",
      "qro": "Sakayume"
    },
    "titles_default_language": "qro",
    "title": "Sakayume",
    "year": 2022
  }
}