{
  "header": {
    "version": 4,
    "description": "Karaoke Mugen Karaoke Data File"
  },
  "medias": [
    {
      "version": "Default",
      "filename": "JPN - Hana Awase Himeutsugi Hen - GAME PC OP - Tsukioboro.mp4",
      "audiogain": -10.28,
      "loudnorm": "-7.13,2.64,2.50,-17.13,-0.63",
      "filesize": 27138745,
      "duration": 72,
      "default": true,
      "lyrics": [
        {
          "filename": "JPN - Hana Awase Himeutsugi Hen - GAME PC OP - Tsukioboro.ass",
          "default": true,
          "version": "Default"
        }
      ]
    }
  ],
  "data": {
    "created_at": "2022-10-22T19:32:30.069Z",
    "ignoreHooks": false,
    "kid": "8d7a324b-1563-405d-8a77-0eb0ae1297f6",
    "modified_at": "2022-10-22T23:32:02.748Z",
    "repository": "kara.moe",
    "tags": {
      "authors": [
        "0c8a5287-3954-48ce-b8ad-3d54e54bf96e"
      ],
      "collections": [
        "c7db86a0-ff64-4044-9be4-66dd1ef1d1c1"
      ],
      "creators": [
        "4fff5cee-8770-4e49-9ffa-df8410062c10",
        "8693dfda-7cce-4a8d-9629-1f0f30722596"
      ],
      "families": [
        "dbedd6b3-d125-4cd8-aa32-c4175e4ca3a3"
      ],
      "groups": [
        "ae613721-1fbe-480d-ba6b-d6d0702b184d"
      ],
      "langs": [
        "4dcf9614-7914-42aa-99f4-dbce2e059133"
      ],
      "origins": [
        "2f96e82c-c61b-4413-817e-e6b247509b95",
        "7025ae3c-7bd6-4787-8912-2c15063343bb"
      ],
      "platforms": [
        "3c15f758-e1bc-4266-8bb9-3c14112f504a"
      ],
      "series": [
        "06c71c3e-2396-47be-b60f-1eb477e58991"
      ],
      "singers": [
        "25139a5f-88b3-4c9e-8179-739af30592c4",
        "2dcd56ff-4042-4fd7-830e-44e83fce92b2",
        "30e8c162-cc8c-4898-9880-ef8f2687056f",
        "a5953838-93af-4574-b5ce-b8bc0c5b05f0",
        "cc02b0bf-6c89-485a-8a96-2468911d5502"
      ],
      "songtypes": [
        "f02ad9b3-0bd9-4aad-85b3-9976739ba0e4"
      ],
      "songwriters": [
        "30e0934f-c66b-470e-a294-907f8a5c345a"
      ],
      "franchises": [
        "2a680247-2f8a-4b62-b429-db0ba08efc2e"
      ]
    },
    "titles": {
      "jpn": "月朧",
      "qro": "Tsukioboro"
    },
    "titles_default_language": "qro",
    "title": "Tsukioboro",
    "year": 2014
  }
}