{
  "header": {
    "version": 4,
    "description": "Karaoke Mugen Karaoke Data File"
  },
  "medias": [
    {
      "version": "Default",
      "filename": "JPN - Final Fantasy X - GAME IN - Suteki da ne.mp4",
      "audiogain": -0.5,
      "loudnorm": "-19.16,-0.30,10.40,-29.53,-0.73",
      "filesize": 44146397,
      "duration": 132,
      "default": true,
      "lyrics": [
        {
          "filename": "JPN - Final Fantasy X - GAME IN - Suteki da ne.ass",
          "default": true,
          "version": "Default",
          "subchecksum": "cdd9d71aa1a47a81098b61778d1b1a5f"
        }
      ]
    }
  ],
  "data": {
    "created_at": "2017-10-11T17:03:09.000Z",
    "kid": "e0700f23-7b7a-4a80-b46b-27ba4eb13da6",
    "modified_at": "2021-02-25T11:19:58.618Z",
    "repository": "kara.moe",
    "tags": {
      "authors": [
        "09c0bae3-a2f0-4e47-bf66-629df6dc4b55"
      ],
      "collections": [
        "c7db86a0-ff64-4044-9be4-66dd1ef1d1c1"
      ],
      "creators": [
        "11259605-6535-4a8f-8156-6aaa1e81c4af"
      ],
      "families": [
        "dbedd6b3-d125-4cd8-aa32-c4175e4ca3a3"
      ],
      "groups": [
        "3c14c864-533c-49e6-a3cc-6969f1233775"
      ],
      "langs": [
        "4dcf9614-7914-42aa-99f4-dbce2e059133"
      ],
      "series": [
        "a34958ae-1578-4f5b-9472-c9d184372ccb"
      ],
      "singers": [
        "bb45b3c6-3b54-4741-8940-9687349fa99b"
      ],
      "songtypes": [
        "5e5250d9-351a-4a82-98eb-55db50ad8962"
      ],
      "songwriters": [
        "22973edc-2b1d-4c54-9219-f5470f862bee",
        "e4b6653b-d0a6-46d3-a24f-dad5c8dec4b8"
      ],
      "franchises": [
        "595c5b14-54f8-4885-a689-02296506a704"
      ]
    },
    "title": "Suteki da ne",
    "titles": {
      "qro": "Suteki da ne",
      "jpn": "素敵だね"
    },
    "year": 2001,
    "titles_default_language": "qro"
  }
}