{
  "header": {
    "version": 4,
    "description": "Karaoke Mugen Karaoke Data File"
  },
  "medias": [
    {
      "version": "Default",
      "filename": "JPN - Jikuu Senshi Spielban - ED2 - Kesshou da! Spielban.mp4",
      "audiogain": 6.79,
      "loudnorm": "-24.29,-13.85,3.00,-34.39,0.29",
      "filesize": 13351994,
      "duration": 75,
      "default": true,
      "lyrics": [
        {
          "filename": "JPN - Jikuu Senshi Spielban - ED2 - Kesshou da! Spielban.ass",
          "default": true,
          "version": "Default"
        }
      ]
    }
  ],
  "data": {
    "created_at": "2017-10-11T17:03:09.000Z",
    "ignoreHooks": false,
    "kid": "6ecfe1ed-3f35-4a3e-a41a-bc3cf2e0802a",
    "modified_at": "2022-10-01T09:52:00.875Z",
    "repository": "kara.moe",
    "songorder": 2,
    "tags": {
      "authors": [
        "4607780c-f1ef-47cf-9c1c-b13e8f731699"
      ],
      "collections": [
        "c7db86a0-ff64-4044-9be4-66dd1ef1d1c1"
      ],
      "creators": [
        "e32b14df-502b-45fa-9ca5-37554a63a4d7"
      ],
      "families": [
        "5391f9fe-638c-415f-8dc9-958e3a2c5787"
      ],
      "groups": [
        "7792cc27-9ff9-4d47-9287-2338b7db1575"
      ],
      "langs": [
        "4dcf9614-7914-42aa-99f4-dbce2e059133"
      ],
      "origins": [
        "938de218-5343-4865-94d3-fb33f2eaa152",
        "d3fac9ab-630d-402d-a392-3d2450c3e62e"
      ],
      "series": [
        "0c54b40b-9add-4a22-bbb4-3aeafd77fea2"
      ],
      "singers": [
        "59a38148-e0a8-43df-b149-a6118d9f2d4d"
      ],
      "songtypes": [
        "38c77c56-2b95-4040-b676-0994a8cb0597"
      ],
      "songwriters": [
        "65dfc88c-84db-4084-8d2d-6ef7a1c4c870"
      ],
      "franchises": [
        "dc364e7e-7b58-4721-b6cf-a19a1687dfbc"
      ]
    },
    "titles": {
      "jpn": "結晶だ！スピルバン",
      "qro": "Kesshô da! Spielban"
    },
    "titles_default_language": "qro",
    "titles_aliases": [
      "Kesshou"
    ],
    "title": "Kesshô da! Spielban",
    "year": 1986
  }
}