{
  "header": {
    "version": 4,
    "description": "Karaoke Mugen Karaoke Data File"
  },
  "medias": [
    {
      "version": "Default",
      "filename": "JPN - Umineko no Naku Koro ni Chiru ~Shinjitsu to Gensou no Nocturne~ - PS3 GAME OP3 - Kiri no Pithos.mp4",
      "audiogain": -8.66,
      "loudnorm": "-9.24,0.85,9.20,-19.54,-1.57",
      "filesize": 59688712,
      "duration": 110,
      "default": true,
      "lyrics": [
        {
          "filename": "JPN - Umineko no Naku Koro ni Chiru ~Shinjitsu to Gensou no Nocturne~ - PS3 GAME OP3 - Kiri no Pithos.ass",
          "default": true,
          "version": "Default",
          "subchecksum": "64ba79caf34271fba3c87a5afa0bf719"
        }
      ]
    }
  ],
  "data": {
    "created_at": "2020-09-01T22:46:45.085Z",
    "kid": "96c629e2-702f-4167-a50b-c00a111d61b6",
    "modified_at": "2021-02-25T13:33:02.910Z",
    "parents": [
      "d8182a8b-049b-49e9-a25c-460860f80571"
    ],
    "repository": "kara.moe",
    "songorder": 3,
    "tags": {
      "authors": [
        "56b54c89-86ae-4635-992f-ddc1234b8015"
      ],
      "collections": [
        "c7db86a0-ff64-4044-9be4-66dd1ef1d1c1"
      ],
      "creators": [
        "e7f03478-e37b-44d9-9fb8-8875401cfa42",
        "ee8900e9-5aee-4872-9093-0b5ce99c363c"
      ],
      "families": [
        "dbedd6b3-d125-4cd8-aa32-c4175e4ca3a3"
      ],
      "groups": [
        "8c22c899-b3ed-42da-a548-ce00f950798b",
        "ae613721-1fbe-480d-ba6b-d6d0702b184d"
      ],
      "langs": [
        "4dcf9614-7914-42aa-99f4-dbce2e059133"
      ],
      "origins": [
        "2f96e82c-c61b-4413-817e-e6b247509b95"
      ],
      "platforms": [
        "7f63ff91-7961-4488-888d-4bf46eea3a2a"
      ],
      "series": [
        "3fc69c31-784a-4ddd-8f34-3cbd095a06d7"
      ],
      "singers": [
        "1f893a45-3d80-466f-af2b-5b24826b3bf7",
        "3b874305-84b6-423e-850b-debacab9b602"
      ],
      "songtypes": [
        "f02ad9b3-0bd9-4aad-85b3-9976739ba0e4"
      ],
      "songwriters": [
        "127e564b-a210-406d-b510-4fadd1a33790",
        "3b874305-84b6-423e-850b-debacab9b602",
        "e7676506-6ae7-4142-9ab1-b470d459552f"
      ],
      "franchises": [
        "90f7ba8a-e8cc-4e13-b06d-ae2a2068efb9"
      ]
    },
    "title": "Kiri no Pithos",
    "titles": {
      "qro": "Kiri no Pithos",
      "jpn": "霧のピトス"
    },
    "year": 2011,
    "titles_default_language": "qro"
  }
}