{
  "header": {
    "version": 4,
    "description": "Karaoke Mugen Karaoke Data File"
  },
  "medias": [
    {
      "version": "Default",
      "filename": "JPN - Touhou - REMIX MV - Necromantic.mp4",
      "audiogain": -10.72,
      "loudnorm": "-6.59,1.81,4.20,-16.83,-0.97",
      "filesize": 97259810,
      "duration": 275,
      "default": true,
      "lyrics": [
        {
          "filename": "JPN - Touhou - REMIX MV - Necromantic.ass",
          "default": true,
          "version": "Default",
          "subchecksum": "80411bc933e266ee2e2f494e115a9736"
        }
      ]
    }
  ],
  "data": {
    "created_at": "2021-05-01T13:41:11.614Z",
    "kid": "e65b77da-1d17-42b5-b4de-2d58222ee6e6",
    "modified_at": "2021-05-01T13:44:22.126Z",
    "repository": "kara.moe",
    "tags": {
      "authors": [
        "84157b43-8a7a-482c-95d3-516757353835"
      ],
      "collections": [
        "c7db86a0-ff64-4044-9be4-66dd1ef1d1c1"
      ],
      "creators": [
        "eb49131c-b890-422d-9947-0e82292801e1"
      ],
      "families": [
        "0377db02-3af6-43b8-9b08-c759df3d25c3"
      ],
      "groups": [
        "8e209ae4-4381-438f-89dc-1b21752027d2"
      ],
      "langs": [
        "4dcf9614-7914-42aa-99f4-dbce2e059133"
      ],
      "misc": [
        "ec4360fa-3e3c-4f6f-b0e1-fb8b12b6dd18"
      ],
      "series": [
        "1bdaa5a1-dfa6-4365-b746-7a0b194dafd6"
      ],
      "singers": [
        "a6e3509f-befc-4b8b-ac1c-3614e1c32447"
      ],
      "songtypes": [
        "7be1b15c-cff8-4b37-a649-5c90f3d569a9"
      ],
      "songwriters": [
        "26cb5252-8510-49e0-897c-a611a05fc056",
        "3059eca0-7b9f-41e0-a5a6-2e7e3be5d025",
        "a6e3509f-befc-4b8b-ac1c-3614e1c32447"
      ],
      "franchises": [
        "1bdaa5a1-dfa6-4365-b746-7a0b194dafd6"
      ]
    },
    "title": "Necromantic",
    "titles": {
      "eng": "Necromantic"
    },
    "year": 2020,
    "titles_default_language": "eng"
  }
}