{
  "header": {
    "version": 4,
    "description": "Karaoke Mugen Karaoke Data File"
  },
  "medias": [
    {
      "version": "Default",
      "filename": "JPN - Touhou - LIVE - Le Cirque de Sept Couleurs ~ Full Vers.mp4",
      "audiogain": -5.26,
      "loudnorm": "-11.84,1.09,2.10,-21.84,0.06",
      "filesize": 74947709,
      "duration": 311,
      "default": true,
      "lyrics": [
        {
          "filename": "JPN - Touhou - LIVE - Le Cirque de Sept Couleurs ~ Full Vers.ass",
          "default": true,
          "version": "Default"
        }
      ]
    }
  ],
  "data": {
    "created_at": "2018-06-18T19:40:28.000Z",
    "ignoreHooks": false,
    "kid": "785544a0-b55b-40db-8e35-5f8f57da2c09",
    "modified_at": "2023-01-30T20:12:35.239Z",
    "repository": "kara.moe",
    "tags": {
      "authors": [
        "c2205bc1-b31a-4bbd-8953-7070204b5cbf"
      ],
      "collections": [
        "c7db86a0-ff64-4044-9be4-66dd1ef1d1c1"
      ],
      "creators": [
        "3408850b-72bd-474e-a367-78b81522fb32"
      ],
      "families": [
        "5391f9fe-638c-415f-8dc9-958e3a2c5787"
      ],
      "groups": [
        "8c22c899-b3ed-42da-a548-ce00f950798b",
        "ae613721-1fbe-480d-ba6b-d6d0702b184d"
      ],
      "langs": [
        "4dcf9614-7914-42aa-99f4-dbce2e059133"
      ],
      "misc": [
        "86705d4b-24e4-4756-9687-2b9c98bcf366"
      ],
      "series": [
        "1bdaa5a1-dfa6-4365-b746-7a0b194dafd6"
      ],
      "singers": [
        "12afab49-df88-41cc-bfcd-24a353a904a2"
      ],
      "songtypes": [
        "a0167949-580c-4de3-bf13-497e462e02f3"
      ],
      "songwriters": [
        "03cf436b-19a6-4ae1-8480-36edef3d6d62",
        "12afab49-df88-41cc-bfcd-24a353a904a2",
        "26cb5252-8510-49e0-897c-a611a05fc056"
      ],
      "versions": [
        "c2143a7f-6970-450e-8a79-0302db9220a9"
      ],
      "franchises": [
        "1bdaa5a1-dfa6-4365-b746-7a0b194dafd6"
      ]
    },
    "titles": {
      "fre": "Le Cirque de Sept Couleurs"
    },
    "titles_default_language": "fre",
    "year": 2013
  }
}