{
  "header": {
    "version": 4,
    "description": "Karaoke Mugen Karaoke Data File"
  },
  "medias": [
    {
      "version": "Default",
      "filename": "JPN - Sousei Kitan Aerial - GAME PC OP - Konpeki no Aerial.mp4",
      "audiogain": -7.01,
      "loudnorm": "-10.23,1.55,8.10,-20.48,-2.07",
      "filesize": 37645026,
      "duration": 156,
      "default": true,
      "lyrics": [
        {
          "filename": "JPN - Sousei Kitan Aerial - GAME PC OP - Konpeki no Aerial.ass",
          "default": true,
          "version": "Default"
        }
      ]
    }
  ],
  "data": {
    "created_at": "2017-10-11T17:01:19.000Z",
    "ignoreHooks": false,
    "kid": "4d9b1118-3dab-48b6-b554-d60d469803f0",
    "modified_at": "2022-12-27T23:06:04.462Z",
    "repository": "kara.moe",
    "tags": {
      "authors": [
        "5bdaba57-27f8-4568-8806-76a807728766"
      ],
      "collections": [
        "c7db86a0-ff64-4044-9be4-66dd1ef1d1c1"
      ],
      "creators": [
        "2c7746e7-7d9d-4e11-a31a-1334016edd4e"
      ],
      "families": [
        "dbedd6b3-d125-4cd8-aa32-c4175e4ca3a3"
      ],
      "groups": [
        "ae613721-1fbe-480d-ba6b-d6d0702b184d"
      ],
      "langs": [
        "4dcf9614-7914-42aa-99f4-dbce2e059133"
      ],
      "origins": [
        "2f96e82c-c61b-4413-817e-e6b247509b95"
      ],
      "platforms": [
        "3c15f758-e1bc-4266-8bb9-3c14112f504a"
      ],
      "series": [
        "0bdf1537-4fa1-4049-84f1-e0413c520346"
      ],
      "singers": [
        "8ac88d22-022b-4d8e-a806-b27551a9b0d5"
      ],
      "songtypes": [
        "f02ad9b3-0bd9-4aad-85b3-9976739ba0e4"
      ],
      "songwriters": [
        "af3ffe51-8059-461c-bbb8-78ea388731f3",
        "8ac88d22-022b-4d8e-a806-b27551a9b0d5"
      ]
    },
    "titles": {
      "jpn": "紺碧のアエリアル",
      "qro": "Konpeki no Aerial"
    },
    "titles_default_language": "qro",
    "year": 2012
  }
}