{
  "header": {
    "version": 4,
    "description": "Karaoke Mugen Karaoke Data File"
  },
  "medias": [
    {
      "version": "Default",
      "filename": "JPN - Eiyuu Densetsu Sora no Kiseki The Third - PS3 PSV PSP PC GAME ED - Sora wo Miagete.mp4",
      "audiogain": -0.81,
      "loudnorm": "-17.05,-5.64,8.10,-27.34,-1.40",
      "filesize": 70314348,
      "duration": 353,
      "default": true,
      "lyrics": [
        {
          "filename": "JPN - Eiyuu Densetsu Sora no Kiseki The Third - PS3 PSV PSP PC GAME ED - Sora wo Miagete.ass",
          "default": true,
          "version": "Default",
          "subchecksum": "a1e8e6f4a139538ec0919bdf261b56cf"
        }
      ]
    }
  ],
  "data": {
    "created_at": "2021-02-19T21:55:37.061Z",
    "kid": "b8bb4425-d205-4a41-b752-7d64bf55cb4d",
    "modified_at": "2021-02-25T11:14:59.082Z",
    "repository": "kara.moe",
    "tags": {
      "authors": [
        "782c6220-03e3-443a-b607-064457b1ed7d"
      ],
      "collections": [
        "c7db86a0-ff64-4044-9be4-66dd1ef1d1c1"
      ],
      "creators": [
        "ede2db68-39b9-4f49-9e99-9d5b01ab26a1"
      ],
      "families": [
        "dbedd6b3-d125-4cd8-aa32-c4175e4ca3a3"
      ],
      "groups": [
        "3c14c864-533c-49e6-a3cc-6969f1233775",
        "8c22c899-b3ed-42da-a548-ce00f950798b"
      ],
      "langs": [
        "4dcf9614-7914-42aa-99f4-dbce2e059133"
      ],
      "misc": [
        "86705d4b-24e4-4756-9687-2b9c98bcf366"
      ],
      "platforms": [
        "3c15f758-e1bc-4266-8bb9-3c14112f504a",
        "6b101aff-4b7b-4b0d-b35e-0f1b67e38c9b",
        "7f63ff91-7961-4488-888d-4bf46eea3a2a",
        "e791f168-068f-4c05-aa36-e8d63726aa06"
      ],
      "series": [
        "d7847841-7592-4d75-b271-6f643cdc8f9e"
      ],
      "singers": [
        "40c21e85-bf25-4c18-8405-ab8b0cb1279c",
        "a3ba41c9-c337-435f-bdb7-c984ebea1ad1",
        "d3cb28ab-30bc-4e5e-b442-b58a1701eade"
      ],
      "songtypes": [
        "38c77c56-2b95-4040-b676-0994a8cb0597"
      ],
      "songwriters": [
        "1800ba15-a78f-4314-9cd2-531621a36bf4",
        "a820d721-0725-48e7-9d5b-a25d69f516bd",
        "d45b43cd-d15c-43d8-9977-151dc5d85e6f"
      ],
      "franchises": [
        "d5b8ccf6-f5ec-4010-a7ea-76c5de88adf0"
      ]
    },
    "title": "Sora wo Miagete",
    "titles": {
      "qro": "Sora wo Miagete",
      "jpn": "空を見上げて"
    },
    "year": 2007,
    "titles_default_language": "qro"
  }
}