{
  "header": {
    "version": 4,
    "description": "Karaoke Mugen Karaoke Data File"
  },
  "medias": [
    {
      "version": "Default",
      "filename": "JPN - BlazBlue Continuum Shift - PS3 XBOX360 GAME OP - Hekira no Sora e Izanaedo.mp4",
      "audiogain": -5.78,
      "loudnorm": "-11.52,-3.64,3.50,-21.67,-0.96",
      "filesize": 28986522,
      "duration": 89,
      "default": true,
      "lyrics": [
        {
          "filename": "JPN - BlazBlue Continuum Shift - PS3 XBOX360 GAME OP - Hekira no Sora e Izanaedo.ass",
          "default": true,
          "version": "Default",
          "subchecksum": "b5e36b83217db2453c5aa27362be3488"
        }
      ]
    }
  ],
  "data": {
    "created_at": "2017-10-11T15:02:52.000Z",
    "kid": "1abca6a2-78ab-4b70-8707-7612b41be7d0",
    "modified_at": "2021-02-25T10:53:40.121Z",
    "repository": "kara.moe",
    "tags": {
      "authors": [
        "5bdaba57-27f8-4568-8806-76a807728766"
      ],
      "collections": [
        "c7db86a0-ff64-4044-9be4-66dd1ef1d1c1"
      ],
      "creators": [
        "f068c907-7440-4e21-9667-1b905a7dbf23"
      ],
      "families": [
        "dbedd6b3-d125-4cd8-aa32-c4175e4ca3a3"
      ],
      "groups": [
        "ae613721-1fbe-480d-ba6b-d6d0702b184d"
      ],
      "langs": [
        "4dcf9614-7914-42aa-99f4-dbce2e059133"
      ],
      "misc": [
        "fe819ff1-9db8-4a0f-85dc-0e322c9126c4"
      ],
      "platforms": [
        "7f63ff91-7961-4488-888d-4bf46eea3a2a",
        "d56f8d9d-9ccd-4ac8-a164-da0e62d1c060"
      ],
      "series": [
        "2723e0a5-0752-4d7d-8a71-4c7c1e0b7282"
      ],
      "singers": [
        "06c618ba-0261-4ad5-9a40-e2d31ef6c330"
      ],
      "songtypes": [
        "f02ad9b3-0bd9-4aad-85b3-9976739ba0e4"
      ],
      "songwriters": [
        "06c618ba-0261-4ad5-9a40-e2d31ef6c330",
        "a05da456-3805-46c4-bea0-dff69c0fb708"
      ],
      "franchises": [
        "39637867-c852-4398-9597-f681bc78355e"
      ]
    },
    "title": "Hekira no Sora e Izanaedo",
    "titles": {
      "qro": "Hekira no Sora e Izanaedo",
      "jpn": "碧羅の天へ誘えど"
    },
    "year": 2010,
    "titles_default_language": "qro"
  }
}