{
  "header": {
    "version": 4,
    "description": "Karaoke Mugen Karaoke Data File"
  },
  "medias": [
    {
      "version": "Default",
      "filename": "JPN - Gekijouban Macross Frontier Itsuwari wa Utahime - MOVIE IN - Universal Bunny.mp4",
      "audiogain": -1.09,
      "loudnorm": "-17.18,-0.60,10.60,-27.66,-0.16",
      "filesize": 176088546,
      "duration": 218,
      "default": true,
      "lyrics": [
        {
          "filename": "JPN - Gekijouban Macross Frontier Itsuwari wa Utahime - MOVIE IN - Universal Bunny.ass",
          "default": true,
          "version": "Default"
        }
      ]
    }
  ],
  "data": {
    "created_at": "2017-10-11T17:01:12.000Z",
    "ignoreHooks": false,
    "kid": "92cf2746-8cae-49ec-abeb-8eb14002a867",
    "modified_at": "2022-12-27T23:05:50.065Z",
    "repository": "kara.moe",
    "tags": {
      "authors": [
        "8c22c899-b3ed-42da-a548-ce00f950798b"
      ],
      "collections": [
        "c7db86a0-ff64-4044-9be4-66dd1ef1d1c1"
      ],
      "creators": [
        "0041fabf-4b82-4ecd-961b-e4c49b8c88be"
      ],
      "families": [
        "0377db02-3af6-43b8-9b08-c759df3d25c3"
      ],
      "genres": [
        "caa86df2-0d59-474b-885c-f240a9e891b0",
        "f60ba57d-5ef4-49e0-b93b-d0dcbcff6592"
      ],
      "groups": [
        "3c14c864-533c-49e6-a3cc-6969f1233775",
        "8c22c899-b3ed-42da-a548-ce00f950798b"
      ],
      "langs": [
        "4dcf9614-7914-42aa-99f4-dbce2e059133"
      ],
      "origins": [
        "c8ca9dea-d8b4-48fe-8427-d911653232e9"
      ],
      "series": [
        "0bb02f0b-9016-4cbb-96ad-17d3ba9fffd2"
      ],
      "singers": [
        "d538b18e-e59e-4cb1-85e8-d095c50cd3e1"
      ],
      "songtypes": [
        "5e5250d9-351a-4a82-98eb-55db50ad8962"
      ],
      "songwriters": [
        "54000730-0779-445e-b865-bf6cf2175579",
        "af0be06d-ea2d-4f46-85d1-58cf9f42532a",
        "bfeec776-8f0c-470b-a57b-fae35fe0a3a6",
        "8ac88d22-022b-4d8e-a806-b27551a9b0d5"
      ],
      "franchises": [
        "01b9b958-2d2a-43d0-a5dd-efb5b14675ea"
      ]
    },
    "titles": {
      "eng": "Universal Bunny",
      "jpn": "ユニバーサル・バニー"
    },
    "titles_default_language": "eng",
    "year": 2009
  }
}