{
  "header": {
    "version": 4,
    "description": "Karaoke Mugen Karaoke Data File"
  },
  "medias": [
    {
      "version": "Default",
      "filename": "JPN - Project X Zone 2 Brave New World - 3DS GAME OP - Sekai wa hitotsu no butai.mp4",
      "audiogain": -11.51,
      "loudnorm": "-6.59,2.27,7.70,-16.75,-2.25",
      "filesize": 36007960,
      "duration": 156,
      "default": true,
      "lyrics": [
        {
          "filename": "JPN - Project X Zone 2 Brave New World - 3DS GAME OP - Sekai wa hitotsu no butai.ass",
          "default": true,
          "version": "Default",
          "subchecksum": "913137ef4bd47ee4feeab7026069c7c5"
        }
      ]
    }
  ],
  "data": {
    "created_at": "2019-10-13T20:46:47.000Z",
    "kid": "93ca3b88-4e55-4e32-b957-8290d923320e",
    "modified_at": "2021-02-25T12:47:50.715Z",
    "repository": "kara.moe",
    "tags": {
      "authors": [
        "06852e02-b77e-4106-b6f7-2d03942ad0ea"
      ],
      "collections": [
        "c7db86a0-ff64-4044-9be4-66dd1ef1d1c1"
      ],
      "creators": [
        "a2457034-11ec-4d4e-b8cb-c3d313cc043d",
        "c3e622d4-2686-4331-8691-d528c8647088"
      ],
      "families": [
        "dbedd6b3-d125-4cd8-aa32-c4175e4ca3a3"
      ],
      "groups": [
        "ae613721-1fbe-480d-ba6b-d6d0702b184d"
      ],
      "langs": [
        "4dcf9614-7914-42aa-99f4-dbce2e059133"
      ],
      "platforms": [
        "d7393757-7de7-4247-ba59-120b3ceea9bf"
      ],
      "series": [
        "8401a19d-e024-49cf-ab6d-de0da46d0ee0"
      ],
      "singers": [
        "4bbae685-c0b1-4e63-921d-b83c8d1a5238"
      ],
      "songtypes": [
        "f02ad9b3-0bd9-4aad-85b3-9976739ba0e4"
      ],
      "songwriters": [
        "1d7a4606-32a6-471a-a8af-569489d8ea78",
        "609d4bf4-143b-451d-a99d-c3e761dd16e2",
        "6e102029-04ad-4e7f-a927-662fef22b24e"
      ],
      "franchises": [
        "1111a2a0-5857-4c95-ae0c-ee2390b7acac"
      ]
    },
    "title": "Sekai wa hitotsu no butai",
    "titles": {
      "qro": "Sekai wa Hitotsu no Butai",
      "jpn": "世界は一つの舞台"
    },
    "year": 2015,
    "titles_default_language": "qro"
  }
}