{
  "header": {
    "version": 4,
    "description": "Karaoke Mugen Karaoke Data File"
  },
  "medias": [
    {
      "version": "Default",
      "filename": "JPN - Kaiketsu Zubat - OP - Zubat of Hell.mp4",
      "audiogain": 9.39,
      "loudnorm": "-27.50,-17.66,4.50,-37.93,-0.51",
      "filesize": 29737244,
      "duration": 104,
      "default": true,
      "lyrics": [
        {
          "filename": "JPN - Kaiketsu Zubat - OP - Zubat of Hell.ass",
          "default": true,
          "version": "Default",
          "subchecksum": "a1bc0fdd3753cc39e3683cff210345cf"
        }
      ]
    }
  ],
  "data": {
    "created_at": "2017-10-11T15:02:19.000Z",
    "kid": "1aa3293d-9e43-4591-8e07-35e4f27f3483",
    "modified_at": "2021-02-25T11:51:41.153Z",
    "repository": "kara.moe",
    "tags": {
      "authors": [
        "4607780c-f1ef-47cf-9c1c-b13e8f731699"
      ],
      "collections": [
        "c7db86a0-ff64-4044-9be4-66dd1ef1d1c1"
      ],
      "creators": [
        "e32b14df-502b-45fa-9ca5-37554a63a4d7"
      ],
      "families": [
        "5391f9fe-638c-415f-8dc9-958e3a2c5787"
      ],
      "groups": [
        "57e5e0c0-e02e-4871-a6cb-d48ea604ebab"
      ],
      "langs": [
        "4dcf9614-7914-42aa-99f4-dbce2e059133"
      ],
      "origins": [
        "938de218-5343-4865-94d3-fb33f2eaa152",
        "d3fac9ab-630d-402d-a392-3d2450c3e62e"
      ],
      "series": [
        "24020792-60bc-406a-8101-a7dc1fcc0755"
      ],
      "singers": [
        "59a38148-e0a8-43df-b149-a6118d9f2d4d"
      ],
      "songtypes": [
        "f02ad9b3-0bd9-4aad-85b3-9976739ba0e4"
      ],
      "songwriters": [
        "cebce0c7-4f21-4943-a3a5-1a5825b63761",
        "d7ba6db9-164d-451c-a74b-ceb9c5435fe3"
      ]
    },
    "title": "Zubat of Hell",
    "titles": {
      "qro": "Jigoku no Zubat",
      "jpn": "地獄のズバット"
    },
    "year": 1977,
    "titles_default_language": "qro"
  }
}