{
  "header": {
    "version": 4,
    "description": "Karaoke Mugen Karaoke Data File"
  },
  "medias": [
    {
      "version": "Full Yui.",
      "filename": "JPN - Angel Beats! - AUDIO ED2 - Ichiban no Takaramono ~ Full Yui Vers.mp3",
      "audiogain": -9.11,
      "loudnorm": "-11.20,0.36,15.30,-22.06,-0.81",
      "filesize": 14483150,
      "duration": 359,
      "default": true,
      "lyrics": [
        {
          "filename": "JPN - Angel Beats! - AUDIO ED2 - Ichiban no Takaramono ~ Full Yui Vers.ass",
          "default": true,
          "version": "Default",
          "subchecksum": "7e3705daa77e48cb688de00a8b6df324"
        }
      ]
    }
  ],
  "data": {
    "created_at": "2020-06-17T21:01:28.570Z",
    "kid": "67ce5ff5-f192-4fcc-8e09-f767ccf70861",
    "modified_at": "2021-02-25T10:43:14.363Z",
    "parents": [
      "1e957aaf-947a-477c-8af6-2e2d76781912"
    ],
    "repository": "kara.moe",
    "songorder": 2,
    "tags": {
      "authors": [
        "87096920-112f-485f-a310-04156cb4624d"
      ],
      "collections": [
        "c7db86a0-ff64-4044-9be4-66dd1ef1d1c1"
      ],
      "creators": [
        "54259fe3-ce0c-4eca-855e-383f2c5be3a9"
      ],
      "families": [
        "0377db02-3af6-43b8-9b08-c759df3d25c3"
      ],
      "groups": [
        "60defa7b-774e-4680-8321-51b742c2e009",
        "ae613721-1fbe-480d-ba6b-d6d0702b184d"
      ],
      "langs": [
        "4dcf9614-7914-42aa-99f4-dbce2e059133"
      ],
      "misc": [
        "86705d4b-24e4-4756-9687-2b9c98bcf366"
      ],
      "origins": [
        "938de218-5343-4865-94d3-fb33f2eaa152"
      ],
      "series": [
        "968ce1fe-c2da-4db5-a451-d69b5a7eee62"
      ],
      "singers": [
        "41f045f2-1576-496d-91b1-c0f28bab57a4"
      ],
      "songtypes": [
        "38c77c56-2b95-4040-b676-0994a8cb0597",
        "42a262ae-acba-4ab5-a446-c5789c96c821"
      ],
      "songwriters": [
        "043de04e-4f84-425c-9240-288bb46e59e4",
        "6f9382dc-3b8f-4948-899c-23477cd9e23b",
        "7946300b-bf93-4f15-8dac-e6d0dc34f36f"
      ],
      "versions": [
        "c2143a7f-6970-450e-8a79-0302db9220a9"
      ]
    },
    "title": "Ichiban no Takaramono ~ Full Yui Vers.",
    "titles": {
      "qro": "Ichiban no Takaramono ~ Full Yui Vers.",
      "jpn": "一番の宝物 ~ Full ユイ Vers."
    },
    "year": 2010,
    "titles_default_language": "qro"
  }
}