{
  "header": {
    "version": 4,
    "description": "Karaoke Mugen Karaoke Data File"
  },
  "medias": [
    {
      "version": "Default",
      "filename": "JPN - Bleach - MV - Ichirin no hana ~ Full Vers.mp4",
      "audiogain": -7.87,
      "loudnorm": "-9.46,1.71,3.80,-19.55,-0.61",
      "filesize": 51250546,
      "duration": 220,
      "default": true,
      "lyrics": [
        {
          "filename": "JPN - Bleach - MV - Ichirin no hana ~ Full Vers.ass",
          "default": true,
          "version": "Default"
        }
      ]
    }
  ],
  "data": {
    "created_at": "2019-11-17T18:34:39.786Z",
    "kid": "442e4d05-e896-4ab0-914b-15ad475f3ddf",
    "modified_at": "2022-06-04T00:24:23.041Z",
    "parents": [
      "6f86eac1-be34-487c-ad61-e66c180e3c64"
    ],
    "repository": "kara.moe",
    "songorder": null,
    "tags": {
      "authors": [
        "1db1738f-acdc-42fc-aec3-60f4bddf660d"
      ],
      "creators": [
        "6fa9de67-21cf-420b-9ddb-57edb5abe523"
      ],
      "families": [
        "5391f9fe-638c-415f-8dc9-958e3a2c5787"
      ],
      "groups": [
        "3c14c864-533c-49e6-a3cc-6969f1233775"
      ],
      "langs": [
        "4dcf9614-7914-42aa-99f4-dbce2e059133"
      ],
      "series": [
        "d68e6557-fdc3-4c8b-805c-9778918abd03"
      ],
      "singers": [
        "064abb13-151a-4b3b-aedc-910b9a3d1055"
      ],
      "songtypes": [
        "7be1b15c-cff8-4b37-a649-5c90f3d569a9"
      ],
      "songwriters": [
        "064abb13-151a-4b3b-aedc-910b9a3d1055"
      ],
      "versions": [
        "c2143a7f-6970-450e-8a79-0302db9220a9"
      ],
      "collections": [
        "dbcf2c22-524d-4708-99bb-601703633927"
      ],
      "franchises": [
        "d68e6557-fdc3-4c8b-805c-9778918abd03"
      ]
    },
    "titles": {
      "qro": "Ichirin no Hana",
      "jpn": "一輪の花"
    },
    "titles_default_language": "qro",
    "title": "Ichirin no hana",
    "year": 2005
  }
}