{
  "header": {
    "version": 4,
    "description": "Karaoke Mugen Karaoke Data File"
  },
  "medias": [
    {
      "version": "Default",
      "filename": "JPN - Choujuushin Gravion - ED - WISH.mp4",
      "audiogain": -4.91,
      "loudnorm": "-12.95,0.48,5.20,-23.22,-1.38",
      "filesize": 13279297,
      "duration": 87,
      "default": true,
      "lyrics": [
        {
          "filename": "JPN - Choujuushin Gravion - ED - WISH.ass",
          "default": true,
          "version": "Default",
          "subchecksum": "6647873318bcdf915164f35fa3fde98c"
        }
      ]
    }
  ],
  "data": {
    "created_at": "2017-10-11T17:01:47.000Z",
    "kid": "77431564-c9e8-4927-83b3-f510426754b6",
    "modified_at": "2021-02-25T11:02:16.029Z",
    "repository": "kara.moe",
    "tags": {
      "authors": [
        "5bdaba57-27f8-4568-8806-76a807728766"
      ],
      "collections": [
        "c7db86a0-ff64-4044-9be4-66dd1ef1d1c1"
      ],
      "creators": [
        "12d35c78-7372-4a33-8843-b4a18b1ee737"
      ],
      "families": [
        "0377db02-3af6-43b8-9b08-c759df3d25c3"
      ],
      "genres": [
        "f60ba57d-5ef4-49e0-b93b-d0dcbcff6592"
      ],
      "groups": [
        "3c14c864-533c-49e6-a3cc-6969f1233775"
      ],
      "langs": [
        "4dcf9614-7914-42aa-99f4-dbce2e059133"
      ],
      "origins": [
        "938de218-5343-4865-94d3-fb33f2eaa152"
      ],
      "series": [
        "49b88b15-976a-4c4f-a185-edef659cf947"
      ],
      "singers": [
        "87fd793b-9a29-4cab-aaba-f3241eeb7441"
      ],
      "songtypes": [
        "38c77c56-2b95-4040-b676-0994a8cb0597"
      ],
      "songwriters": [
        "64742f1d-e1f1-4a7c-956a-c0bab5d459fc",
        "eae43792-43ca-44cd-871b-5d46e5531c45"
      ],
      "franchises": [
        "49b88b15-976a-4c4f-a185-edef659cf947"
      ]
    },
    "title": "WISH",
    "titles": {
      "eng": "WISH"
    },
    "year": 2002,
    "titles_default_language": "eng"
  }
}