{
  "header": {
    "version": 4,
    "description": "Karaoke Mugen Karaoke Data File"
  },
  "medias": [
    {
      "version": "Default",
      "filename": "KOR - Block B - MV - Be The Light.mp4",
      "audiogain": -10.45,
      "loudnorm": "-6.98,1.23,14.80,-17.90,-0.79",
      "filesize": 37822222,
      "duration": 226,
      "default": true,
      "lyrics": [
        {
          "filename": "KOR - Block B - MV - Be The Light.ass",
          "default": true,
          "version": "Default"
        }
      ]
    }
  ],
  "data": {
    "created_at": "2019-07-21T17:40:29.000Z",
    "kid": "0ffc9eca-460d-47fe-8429-d997875aed51",
    "modified_at": "2022-05-26T16:31:53.117Z",
    "repository": "kara.moe",
    "songorder": null,
    "tags": {
      "authors": [
        "10dd9fe7-e71e-47d6-85be-da1017f995f4"
      ],
      "creators": [
        "fad58712-747b-4642-8696-04cb328e0298"
      ],
      "families": [
        "5391f9fe-638c-415f-8dc9-958e3a2c5787"
      ],
      "groups": [
        "2b4e9972-5e17-481b-99f5-d0787c0ada56",
        "ae613721-1fbe-480d-ba6b-d6d0702b184d"
      ],
      "langs": [
        "3b9e2749-27d0-4a78-873d-ea91a9ee9a25"
      ],
      "singers": [
        "dbe4ad6f-f967-4d20-8cc4-2e968889e72d"
      ],
      "songtypes": [
        "7be1b15c-cff8-4b37-a649-5c90f3d569a9"
      ],
      "songwriters": [
        "102de828-6fc2-485a-89b0-e215e3e15c2b",
        "7db69f8d-0ba8-411f-b9eb-e678078f2f94"
      ],
      "collections": [
        "dbcf2c22-524d-4708-99bb-601703633927"
      ]
    },
    "titles": {
      "eng": "Be The Light"
    },
    "titles_default_language": "eng",
    "title": "Be The Light",
    "year": 2013
  }
}