{
  "header": {
    "version": 4,
    "description": "Karaoke Mugen Karaoke Data File"
  },
  "medias": [
    {
      "version": "Default",
      "filename": "KOR - TWICE - MV - FANCY.mp4",
      "audiogain": -9.81,
      "loudnorm": "-6.87,2.48,4.00,-16.96,-0.65",
      "filesize": 150762281,
      "duration": 218,
      "default": true,
      "lyrics": [
        {
          "filename": "KOR - TWICE - MV - FANCY.ass",
          "default": true,
          "version": "Default"
        }
      ]
    }
  ],
  "data": {
    "created_at": "2022-01-22T11:40:15.847Z",
    "ignoreHooks": false,
    "kid": "93edca61-16ba-42ec-b0ce-ee36a969778e",
    "modified_at": "2022-09-02T19:56:15.922Z",
    "repository": "kara.moe",
    "tags": {
      "authors": [
        "dd4f1279-de1b-4d06-b80d-29c4878bfd8e"
      ],
      "collections": [
        "dbcf2c22-524d-4708-99bb-601703633927"
      ],
      "creators": [
        "e1a9a889-9e39-49c9-8ff7-7d7d16331ee5"
      ],
      "families": [
        "5391f9fe-638c-415f-8dc9-958e3a2c5787"
      ],
      "groups": [
        "8c22c899-b3ed-42da-a548-ce00f950798b",
        "ae613721-1fbe-480d-ba6b-d6d0702b184d"
      ],
      "langs": [
        "3b9e2749-27d0-4a78-873d-ea91a9ee9a25"
      ],
      "singers": [
        "fe421082-61b7-4758-bcf2-71b03dd52a1d"
      ],
      "songtypes": [
        "7be1b15c-cff8-4b37-a649-5c90f3d569a9"
      ],
      "songwriters": [
        "9c0ac289-1862-4b50-bf6e-31fc563114ff",
        "a6f00cdd-3e31-42bf-8b9e-2758dda21bab"
      ]
    },
    "titles": {
      "eng": "FANCY"
    },
    "titles_default_language": "eng",
    "title": "FANCY",
    "year": 2019
  }
}