{
  "header": {
    "version": 4,
    "description": "Karaoke Mugen Karaoke Data File"
  },
  "medias": [
    {
      "version": "Default",
      "filename": "KOR - Mystic Messenger - GAME OP - Mysterious Messenger.mp4",
      "audiogain": -7.77,
      "loudnorm": "-9.05,0.91,3.50,-19.10,-0.49",
      "filesize": 24018891,
      "duration": 94,
      "default": true,
      "lyrics": [
        {
          "filename": "KOR - Mystic Messenger - GAME OP - Mysterious Messenger.ass",
          "default": true,
          "version": "Default",
          "subchecksum": "16819b7513ac4c960db633a46ad194cb"
        }
      ]
    }
  ],
  "data": {
    "created_at": "2019-03-18T19:42:50.000Z",
    "kid": "54c9e6f2-9a7f-4ef2-ada9-4b2dc8373add",
    "modified_at": "2021-02-25T13:48:03.963Z",
    "repository": "kara.moe",
    "tags": {
      "authors": [
        "2a9bbf75-0722-4b4a-9935-caa92f38fdd1"
      ],
      "collections": [
        "c7db86a0-ff64-4044-9be4-66dd1ef1d1c1"
      ],
      "creators": [
        "3887942e-6a82-4735-9918-2d445e3155f4"
      ],
      "families": [
        "dbedd6b3-d125-4cd8-aa32-c4175e4ca3a3"
      ],
      "groups": [
        "ae613721-1fbe-480d-ba6b-d6d0702b184d"
      ],
      "langs": [
        "3b9e2749-27d0-4a78-873d-ea91a9ee9a25"
      ],
      "origins": [
        "2f96e82c-c61b-4413-817e-e6b247509b95",
        "7025ae3c-7bd6-4787-8912-2c15063343bb"
      ],
      "platforms": [
        "213a1a15-e73a-4a08-b3f6-b6e2745a82e5"
      ],
      "series": [
        "83229e3a-52e9-47e5-bfe3-826c86b8503d"
      ],
      "singers": [
        "2fc521ba-bc16-4619-9f8f-2a6cd5c68e09"
      ],
      "songtypes": [
        "f02ad9b3-0bd9-4aad-85b3-9976739ba0e4"
      ],
      "songwriters": [
        "3887942e-6a82-4735-9918-2d445e3155f4",
        "a155ec5a-6531-41aa-8164-915f107349cb"
      ]
    },
    "title": "Mysterious Messenger",
    "titles": {
      "eng": "Mysterious Messenger"
    },
    "year": 2016
  }
}