{
  "header": {
    "version": 4,
    "description": "Karaoke Mugen Karaoke Data File"
  },
  "medias": [
    {
      "version": "Default",
      "filename": "KOR - BEAST - MV - FICTION.mp4",
      "audiogain": -9.1,
      "loudnorm": "-8.27,3.08,11.70,-18.99,-1.35",
      "filesize": 68624299,
      "duration": 305,
      "default": true,
      "lyrics": [
        {
          "filename": "KOR - BEAST - MV - FICTION.ass",
          "default": true,
          "version": "Default"
        }
      ]
    }
  ],
  "data": {
    "created_at": "2019-09-12T20:47:13.000Z",
    "kid": "871f52b9-b9fa-4d9c-8749-7c6f2ba467f9",
    "modified_at": "2022-05-26T16:30:39.997Z",
    "repository": "kara.moe",
    "songorder": null,
    "tags": {
      "authors": [
        "622e2a6d-e4e8-4ff5-b218-890e8d7a3abf"
      ],
      "creators": [
        "6b8ffb9d-bc6a-4de7-b8a7-b4c6b4c2f475"
      ],
      "families": [
        "5391f9fe-638c-415f-8dc9-958e3a2c5787"
      ],
      "groups": [
        "2b4e9972-5e17-481b-99f5-d0787c0ada56",
        "ae613721-1fbe-480d-ba6b-d6d0702b184d"
      ],
      "langs": [
        "3b9e2749-27d0-4a78-873d-ea91a9ee9a25"
      ],
      "misc": [
        "86705d4b-24e4-4756-9687-2b9c98bcf366"
      ],
      "singers": [
        "e89fecfd-cde2-443a-9dd7-74232f7bef6e"
      ],
      "songtypes": [
        "7be1b15c-cff8-4b37-a649-5c90f3d569a9"
      ],
      "songwriters": [
        "8dfe5b2d-bc27-40b2-852e-a801e1dc0250",
        "d11faafc-f6c0-4c07-9d48-2c088b23e439"
      ],
      "collections": [
        "dbcf2c22-524d-4708-99bb-601703633927"
      ]
    },
    "titles": {
      "eng": "FICTION"
    },
    "titles_default_language": "eng",
    "title": "FICTION",
    "year": 2011
  }
}