{
  "header": {
    "version": 4,
    "description": "Karaoke Mugen Karaoke Data File"
  },
  "medias": [
    {
      "version": "Default",
      "filename": "KOR - BTOB - MV - Remember That.mp4",
      "audiogain": -10.45,
      "loudnorm": "-6.64,7.04,7.30,-16.94,-1.10",
      "filesize": 41299205,
      "duration": 262,
      "default": true,
      "lyrics": [
        {
          "filename": "KOR - BTOB - MV - Remember That.ass",
          "default": true,
          "version": "Default"
        }
      ]
    }
  ],
  "data": {
    "created_at": "2019-10-06T21:18:37.000Z",
    "kid": "f40a891d-2ecd-4a95-9cad-2b9afd117716",
    "modified_at": "2022-05-26T16:31:14.408Z",
    "repository": "kara.moe",
    "songorder": null,
    "tags": {
      "authors": [
        "622e2a6d-e4e8-4ff5-b218-890e8d7a3abf"
      ],
      "creators": [
        "6b8ffb9d-bc6a-4de7-b8a7-b4c6b4c2f475"
      ],
      "families": [
        "5391f9fe-638c-415f-8dc9-958e3a2c5787"
      ],
      "groups": [
        "2b4e9972-5e17-481b-99f5-d0787c0ada56",
        "ae613721-1fbe-480d-ba6b-d6d0702b184d"
      ],
      "langs": [
        "3b9e2749-27d0-4a78-873d-ea91a9ee9a25"
      ],
      "singers": [
        "e29ca23d-958f-47c3-892c-605e38dd0b41"
      ],
      "songtypes": [
        "7be1b15c-cff8-4b37-a649-5c90f3d569a9"
      ],
      "songwriters": [
        "48db1760-3258-46ce-81b3-002cff53d2ab",
        "638d1a2f-578e-4d46-be77-6feac5f021c0"
      ],
      "collections": [
        "dbcf2c22-524d-4708-99bb-601703633927"
      ]
    },
    "titles": {
      "eng": "Remember That"
    },
    "titles_default_language": "eng",
    "title": "Remember That",
    "year": 2016
  }
}