{
  "header": {
    "version": 4,
    "description": "Karaoke Mugen Karaoke Data File"
  },
  "medias": [
    {
      "version": "Default",
      "filename": "KOR - Apink - MV - MY MY.mp4",
      "audiogain": -11.8,
      "loudnorm": "-5.52,1.83,3.70,-15.71,-0.40",
      "filesize": 104383787,
      "duration": 252,
      "default": true,
      "lyrics": [
        {
          "filename": "KOR - Apink - MV - MY MY.ass",
          "default": true,
          "version": "Default"
        }
      ]
    }
  ],
  "data": {
    "created_at": "2019-06-23T20:27:30.000Z",
    "kid": "23e8ea5f-98f8-4e45-b482-9bd34c479188",
    "modified_at": "2022-05-26T16:31:58.670Z",
    "repository": "kara.moe",
    "songorder": null,
    "tags": {
      "authors": [
        "622e2a6d-e4e8-4ff5-b218-890e8d7a3abf"
      ],
      "creators": [
        "6b8ffb9d-bc6a-4de7-b8a7-b4c6b4c2f475"
      ],
      "families": [
        "5391f9fe-638c-415f-8dc9-958e3a2c5787"
      ],
      "groups": [
        "2b4e9972-5e17-481b-99f5-d0787c0ada56",
        "ae613721-1fbe-480d-ba6b-d6d0702b184d"
      ],
      "langs": [
        "3b9e2749-27d0-4a78-873d-ea91a9ee9a25"
      ],
      "singers": [
        "e347f2d7-3609-4f49-a0f1-d2ba18ba6bfc"
      ],
      "songtypes": [
        "7be1b15c-cff8-4b37-a649-5c90f3d569a9"
      ],
      "songwriters": [
        "e347f2d7-3609-4f49-a0f1-d2ba18ba6bfc"
      ],
      "collections": [
        "dbcf2c22-524d-4708-99bb-601703633927"
      ]
    },
    "titles": {
      "eng": "MY MY"
    },
    "titles_default_language": "eng",
    "title": "MY MY",
    "year": 2011
  }
}