{
  "header": {
    "version": 4,
    "description": "Karaoke Mugen Karaoke Data File"
  },
  "medias": [
    {
      "version": "Default",
      "filename": "KOR - TWICE - MV - Dance The Night Away.mp4",
      "audiogain": -0.72,
      "loudnorm": "-17.36,-4.76,12.90,-28.23,-0.37",
      "filesize": 183066343,
      "duration": 249,
      "default": true,
      "lyrics": [
        {
          "filename": "KOR - TWICE - MV - Dance The Night Away.ass",
          "default": true,
          "version": "Default"
        }
      ]
    }
  ],
  "data": {
    "created_at": "2022-11-13T11:58:51.600Z",
    "ignoreHooks": false,
    "kid": "9268f9b0-ce77-462c-9d7e-0cee3c15132d",
    "modified_at": "2022-11-13T12:12:56.856Z",
    "repository": "kara.moe",
    "tags": {
      "authors": [
        "dd4f1279-de1b-4d06-b80d-29c4878bfd8e"
      ],
      "collections": [
        "dbcf2c22-524d-4708-99bb-601703633927"
      ],
      "creators": [
        "e1a9a889-9e39-49c9-8ff7-7d7d16331ee5"
      ],
      "families": [
        "5391f9fe-638c-415f-8dc9-958e3a2c5787"
      ],
      "groups": [
        "8c22c899-b3ed-42da-a548-ce00f950798b",
        "ae613721-1fbe-480d-ba6b-d6d0702b184d"
      ],
      "langs": [
        "3b9e2749-27d0-4a78-873d-ea91a9ee9a25"
      ],
      "singers": [
        "fe421082-61b7-4758-bcf2-71b03dd52a1d"
      ],
      "songtypes": [
        "7be1b15c-cff8-4b37-a649-5c90f3d569a9"
      ],
      "songwriters": [
        "6ee16f03-ead0-4c7a-8983-5e8a6de2bf65"
      ]
    },
    "titles": {
      "eng": "Dance The Night Away"
    },
    "titles_default_language": "eng",
    "year": 2018
  }
}