{
  "header": {
    "version": 4,
    "description": "Karaoke Mugen Karaoke Data File"
  },
  "medias": [
    {
      "version": "Default",
      "filename": "KOR - BTS - MV - The Truth Untold.mp4",
      "audiogain": -7.27,
      "loudnorm": "-10.70,0.90,10.50,-21.12,-1.52",
      "filesize": 49110563,
      "duration": 246,
      "default": true,
      "lyrics": [
        {
          "filename": "KOR - BTS - MV - The Truth Untold.ass",
          "default": true,
          "version": "Default"
        }
      ]
    }
  ],
  "data": {
    "created_at": "2022-05-03T20:24:41.562Z",
    "ignoreHooks": false,
    "kid": "5a56c991-fb24-4dae-a419-e4dd6415dc76",
    "modified_at": "2023-02-03T17:27:31.939Z",
    "repository": "kara.moe",
    "tags": {
      "authors": [
        "1d7745a8-73ea-40bb-ad99-826af98f6e41"
      ],
      "collections": [
        "dbcf2c22-524d-4708-99bb-601703633927"
      ],
      "creators": [
        "c62489b5-2ae8-4e09-af56-18bbd85093bb"
      ],
      "families": [
        "5391f9fe-638c-415f-8dc9-958e3a2c5787"
      ],
      "genres": [
        "caa86df2-0d59-474b-885c-f240a9e891b0"
      ],
      "groups": [
        "ae613721-1fbe-480d-ba6b-d6d0702b184d"
      ],
      "langs": [
        "3b9e2749-27d0-4a78-873d-ea91a9ee9a25"
      ],
      "misc": [
        "1d6ceadf-a885-47e5-b23b-c07bf668a424"
      ],
      "singergroups": [
        "b00876f7-3ffb-438c-8229-35a47fa9e667"
      ],
      "songtypes": [
        "7be1b15c-cff8-4b37-a649-5c90f3d569a9"
      ],
      "songwriters": [
        "066328c2-9822-404f-baca-66fdf5be05fc",
        "3cf2c67f-0c05-40c2-9441-a33ab6bbd7f7",
        "4280f66d-ce8f-416b-a493-dd9f400ecb36",
        "473bcd5a-bbd9-4296-aceb-014d261e93d8",
        "49c28382-effe-4c7b-a241-31e309f88a54",
        "583f7685-767e-4655-9f6d-015ae75a42f5",
        "6322e988-5931-437a-a968-1fefcf0fd7de"
      ]
    },
    "titles": {
      "eng": "The Truth Untold"
    },
    "titles_default_language": "eng",
    "year": 2018
  }
}