{
  "header": {
    "version": 4,
    "description": "Karaoke Mugen Karaoke Data File"
  },
  "medias": [
    {
      "version": "Default",
      "filename": "KOR - BTS - MV - We Are Bulletproof Pt.2.mp4",
      "audiogain": -9.56,
      "loudnorm": "-7.51,2.54,3.30,-17.61,-0.55",
      "filesize": 84674596,
      "duration": 224,
      "default": true,
      "lyrics": [
        {
          "filename": "KOR - BTS - MV - We Are Bulletproof Pt.2.ass",
          "default": true,
          "version": "Default"
        }
      ]
    }
  ],
  "data": {
    "created_at": "2022-08-04T13:20:10.590Z",
    "ignoreHooks": false,
    "kid": "16f3e9bd-a0a7-4249-8f1a-f5c541b79eeb",
    "modified_at": "2023-02-04T18:58:54.178Z",
    "repository": "kara.moe",
    "tags": {
      "authors": [
        "a8c04378-d185-40e8-95fa-c095b4b09727"
      ],
      "collections": [
        "dbcf2c22-524d-4708-99bb-601703633927"
      ],
      "creators": [
        "c62489b5-2ae8-4e09-af56-18bbd85093bb"
      ],
      "families": [
        "5391f9fe-638c-415f-8dc9-958e3a2c5787"
      ],
      "genres": [
        "caa86df2-0d59-474b-885c-f240a9e891b0"
      ],
      "groups": [
        "ae613721-1fbe-480d-ba6b-d6d0702b184d"
      ],
      "langs": [
        "3b9e2749-27d0-4a78-873d-ea91a9ee9a25"
      ],
      "misc": [
        "1d6ceadf-a885-47e5-b23b-c07bf668a424"
      ],
      "singers": [
        "0717f873-2ea2-4c72-ab1c-56cd8b1c389b",
        "817671df-895f-46fe-9d5a-e16267c379b4",
        "f38f2fe5-9f54-4a8e-b3cf-d4f6c8f3ca98",
        "e9efcafa-9697-4b56-9f10-c220c95be784"
      ],
      "singergroups": [
        "b00876f7-3ffb-438c-8229-35a47fa9e667"
      ],
      "songtypes": [
        "7be1b15c-cff8-4b37-a649-5c90f3d569a9"
      ],
      "songwriters": [
        "0717f873-2ea2-4c72-ab1c-56cd8b1c389b",
        "10fab4bb-b40a-4c77-93b8-2d64e9a88956",
        "3b77604d-5e08-4247-b8d6-8a3836d0e58a",
        "473bcd5a-bbd9-4296-aceb-014d261e93d8",
        "ac335f8d-9096-4202-9fee-eed07d089110",
        "e9efcafa-9697-4b56-9f10-c220c95be784",
        "f38f2fe5-9f54-4a8e-b3cf-d4f6c8f3ca98"
      ]
    },
    "titles": {
      "eng": "We Are Bulletproof Pt.2"
    },
    "titles_default_language": "eng",
    "year": 2013
  }
}