{
  "header": {
    "version": 4,
    "description": "Karaoke Mugen Karaoke Data File"
  },
  "medias": [
    {
      "version": "Default",
      "filename": "KOR - HyunA - MV - Bubble Pop!.mp4",
      "audiogain": -8.62,
      "loudnorm": "-9.28,2.51,4.40,-19.40,-0.63",
      "filesize": 103388356,
      "duration": 214,
      "default": true,
      "lyrics": [
        {
          "filename": "KOR - HyunA - MV - Bubble Pop!.ass",
          "default": true,
          "version": "Default"
        }
      ]
    }
  ],
  "data": {
    "created_at": "2019-10-06T12:59:57.000Z",
    "kid": "5b59d88b-7945-4480-a59e-b9007e6d2553",
    "modified_at": "2022-05-26T16:31:38.208Z",
    "repository": "kara.moe",
    "songorder": null,
    "tags": {
      "authors": [
        "622e2a6d-e4e8-4ff5-b218-890e8d7a3abf"
      ],
      "creators": [
        "6b8ffb9d-bc6a-4de7-b8a7-b4c6b4c2f475"
      ],
      "families": [
        "5391f9fe-638c-415f-8dc9-958e3a2c5787"
      ],
      "groups": [
        "2b4e9972-5e17-481b-99f5-d0787c0ada56",
        "ae613721-1fbe-480d-ba6b-d6d0702b184d"
      ],
      "langs": [
        "3b9e2749-27d0-4a78-873d-ea91a9ee9a25"
      ],
      "singers": [
        "eab8b9ae-cf0b-4c8d-ad9e-bf9ecb5c29b6"
      ],
      "songtypes": [
        "7be1b15c-cff8-4b37-a649-5c90f3d569a9"
      ],
      "songwriters": [
        "8dfe5b2d-bc27-40b2-852e-a801e1dc0250",
        "d11faafc-f6c0-4c07-9d48-2c088b23e439"
      ],
      "collections": [
        "dbcf2c22-524d-4708-99bb-601703633927"
      ]
    },
    "titles": {
      "eng": "Bubble Pop!"
    },
    "titles_default_language": "eng",
    "title": "Bubble Pop!",
    "year": 2011
  }
}