{
  "header": {
    "version": 4,
    "description": "Karaoke Mugen Karaoke Data File"
  },
  "medias": [
    {
      "version": "Default",
      "filename": "KOR - Harim, Jung Eunji - MV - Hopefully Sky.mp4",
      "audiogain": -10.06,
      "loudnorm": "-7.32,3.17,8.10,-17.70,-0.33",
      "filesize": 56723330,
      "duration": 250,
      "default": true,
      "lyrics": [
        {
          "filename": "KOR - Harim, Jung Eunji - MV - Hopefully Sky.ass",
          "default": true,
          "version": "Default"
        }
      ]
    }
  ],
  "data": {
    "created_at": "2019-10-06T13:40:55.000Z",
    "kid": "45fc4319-56b2-406b-89f9-5c8954d952a1",
    "modified_at": "2022-05-26T16:30:31.777Z",
    "repository": "kara.moe",
    "songorder": null,
    "tags": {
      "authors": [
        "622e2a6d-e4e8-4ff5-b218-890e8d7a3abf"
      ],
      "creators": [
        "3029aa15-2b94-435a-8428-576726ce5616"
      ],
      "families": [
        "5391f9fe-638c-415f-8dc9-958e3a2c5787"
      ],
      "groups": [
        "2b4e9972-5e17-481b-99f5-d0787c0ada56",
        "ae613721-1fbe-480d-ba6b-d6d0702b184d"
      ],
      "langs": [
        "3b9e2749-27d0-4a78-873d-ea91a9ee9a25"
      ],
      "singers": [
        "8beebde4-9d0b-4e6d-80b6-89a07677793f",
        "e718e7ff-7e35-4711-908f-bbfc5a314b0a"
      ],
      "songtypes": [
        "7be1b15c-cff8-4b37-a649-5c90f3d569a9"
      ],
      "songwriters": [
        "4152331f-48a3-44c3-a262-c8daa1d72dc3",
        "8beebde4-9d0b-4e6d-80b6-89a07677793f",
        "a6c8fc54-233a-49aa-b8f0-3aad86512cc2"
      ],
      "collections": [
        "dbcf2c22-524d-4708-99bb-601703633927"
      ]
    },
    "titles": {
      "eng": "Hopefully Sky"
    },
    "titles_default_language": "eng",
    "title": "Hopefully Sky",
    "year": 2016
  }
}