{
  "header": {
    "version": 4,
    "description": "Karaoke Mugen Karaoke Data File"
  },
  "medias": [
    {
      "version": "Default",
      "filename": "LAT - Fable II - XBOX360 GAME OP - Fable II.mp4",
      "audiogain": 1.45,
      "loudnorm": "-20.90,-4.59,12.60,-31.79,-1.96",
      "filesize": 11570678,
      "duration": 68,
      "default": true,
      "lyrics": [
        {
          "filename": "LAT - Fable II - XBOX360 GAME OP - Fable II.ass",
          "default": true,
          "version": "Default",
          "subchecksum": "78b61838fe375f603984012f644c7d7f"
        }
      ]
    }
  ],
  "data": {
    "created_at": "2017-10-11T17:01:37.000Z",
    "kid": "8cd857d6-31f8-403a-9485-f75d00d7dc11",
    "modified_at": "2021-02-25T13:48:43.336Z",
    "repository": "kara.moe",
    "tags": {
      "authors": [
        "5bdaba57-27f8-4568-8806-76a807728766"
      ],
      "collections": [
        "c7db86a0-ff64-4044-9be4-66dd1ef1d1c1"
      ],
      "creators": [
        "10de7d2a-d5f5-47d2-82f4-e95881e3e589"
      ],
      "families": [
        "dbedd6b3-d125-4cd8-aa32-c4175e4ca3a3"
      ],
      "groups": [
        "3c14c864-533c-49e6-a3cc-6969f1233775"
      ],
      "langs": [
        "9020a9e0-ed66-43b0-b795-7ef67eecf676"
      ],
      "platforms": [
        "d56f8d9d-9ccd-4ac8-a164-da0e62d1c060"
      ],
      "series": [
        "b89c660f-a977-49e6-930e-9a986e97b7af"
      ],
      "singers": [
        "22a08506-d7bd-4691-9ffa-5d76f58ca4a6",
        "e73dc53c-f613-425c-8c38-e2b944541936"
      ],
      "songtypes": [
        "f02ad9b3-0bd9-4aad-85b3-9976739ba0e4"
      ],
      "songwriters": [
        "5dc45b80-6e4e-49bb-bf36-581d2bc230a3",
        "f76570f0-8093-4d4a-b3a5-33a155a794de"
      ]
    },
    "title": "Fable II",
    "titles": {
      "eng": "Fable II"
    },
    "year": 2008
  }
}