{
  "header": {
    "version": 4,
    "description": "Karaoke Mugen Karaoke Data File"
  },
  "medias": [
    {
      "version": "Default",
      "filename": "LAT - Final Fantasy VIII - PSX PC GAME OP - Liberi Fatali.mp4",
      "audiogain": -5.9,
      "loudnorm": "-13.87,1.01,11.00,-24.25,-1.55",
      "filesize": 44818492,
      "duration": 192,
      "default": true,
      "lyrics": [
        {
          "filename": "LAT - Final Fantasy VIII - PSX PC GAME OP - Liberi Fatali.ass",
          "default": true,
          "version": "Default",
          "subchecksum": "58e1418706f993dfefe73a0019c53372"
        }
      ]
    }
  ],
  "data": {
    "created_at": "2017-10-11T17:01:51.000Z",
    "kid": "4def1d12-6d88-4d07-a285-0bd25a8cc744",
    "modified_at": "2021-02-25T13:48:50.068Z",
    "repository": "kara.moe",
    "tags": {
      "authors": [
        "5bdaba57-27f8-4568-8806-76a807728766"
      ],
      "collections": [
        "c7db86a0-ff64-4044-9be4-66dd1ef1d1c1"
      ],
      "creators": [
        "11259605-6535-4a8f-8156-6aaa1e81c4af"
      ],
      "families": [
        "dbedd6b3-d125-4cd8-aa32-c4175e4ca3a3"
      ],
      "groups": [
        "24db50aa-a126-4d34-a48a-e45db79c4245"
      ],
      "langs": [
        "9020a9e0-ed66-43b0-b795-7ef67eecf676"
      ],
      "platforms": [
        "3c15f758-e1bc-4266-8bb9-3c14112f504a",
        "f84b68ac-943a-495a-9c6e-d90ec959b19e"
      ],
      "series": [
        "3199d6f5-0826-42dc-a95b-830661a450f5"
      ],
      "singers": [
        "271cce8c-8aae-4d89-975a-03764ec36dff",
        "42f4b31b-e9b2-4ae3-8358-a2d91ab69053",
        "69fcc20b-f1a7-4b50-bd19-959950b487aa",
        "9f704e0d-8744-4fd6-902e-97aca95be555",
        "a071b2fd-11b3-4c86-a7c6-5fa4952da0a3",
        "a36d601e-faba-415f-9dd3-b27b1fa735c1",
        "e409b683-41a4-42a5-8cf9-788b160e2938",
        "e4229973-1fad-44a2-bef9-e8e47b36e2a8"
      ],
      "songtypes": [
        "f02ad9b3-0bd9-4aad-85b3-9976739ba0e4"
      ],
      "songwriters": [
        "22973edc-2b1d-4c54-9219-f5470f862bee",
        "e4b6653b-d0a6-46d3-a24f-dad5c8dec4b8",
        "f740ee67-a454-4578-8da4-c3431af2a4b5"
      ],
      "franchises": [
        "595c5b14-54f8-4885-a689-02296506a704"
      ]
    },
    "title": "Liberi Fatali",
    "titles": {
      "eng": "Liberi Fatali"
    },
    "year": 1999
  }
}