{
  "header": {
    "version": 4,
    "description": "Karaoke Mugen Karaoke Data File"
  },
  "medias": [
    {
      "version": "Default",
      "filename": "LAT - Genso Suikoden II - GAME PSX OP - Theme of Genso Suikoden II.mp4",
      "audiogain": -3.65,
      "loudnorm": "-16.04,-0.22,19.00,-27.13,-1.28",
      "filesize": 16573749,
      "duration": 158,
      "default": true,
      "lyrics": [
        {
          "filename": "LAT - Genso Suikoden II - GAME PSX OP - Theme of Genso Suikoden II.ass",
          "default": true,
          "version": "Default"
        }
      ]
    }
  ],
  "data": {
    "created_at": "2017-10-11T17:02:14.000Z",
    "ignoreHooks": false,
    "kid": "0dd2f867-c822-44e2-b1dc-853729d3781b",
    "modified_at": "2022-09-24T21:15:13.062Z",
    "repository": "kara.moe",
    "tags": {
      "authors": [
        "1df04771-a378-4f14-a5e1-1455187d681a"
      ],
      "collections": [
        "c7db86a0-ff64-4044-9be4-66dd1ef1d1c1"
      ],
      "creators": [
        "22092200-b324-4277-8269-b8b0929f42c1"
      ],
      "families": [
        "dbedd6b3-d125-4cd8-aa32-c4175e4ca3a3"
      ],
      "groups": [
        "24db50aa-a126-4d34-a48a-e45db79c4245"
      ],
      "langs": [
        "9020a9e0-ed66-43b0-b795-7ef67eecf676"
      ],
      "platforms": [
        "f84b68ac-943a-495a-9c6e-d90ec959b19e"
      ],
      "series": [
        "eab294a0-bee3-4a8d-ab9b-d8879805e80e"
      ],
      "singers": [
        "63ada6db-fdf4-4e85-bf95-a6ebefaddab5"
      ],
      "songtypes": [
        "f02ad9b3-0bd9-4aad-85b3-9976739ba0e4"
      ],
      "songwriters": [
        "49e2d4ee-09a6-4041-a787-d89bc89d58b1",
        "f2f65f85-759c-4deb-b24f-38f950c886d9"
      ],
      "franchises": [
        "0dd1a0c1-a690-42d3-933f-16c610a62086"
      ]
    },
    "titles": {
      "eng": "Theme of Genso Suikoden II"
    },
    "titles_default_language": "eng",
    "title": "Theme of Genso Suikoden II",
    "year": 1998
  }
}