{
  "header": {
    "version": 4,
    "description": "Karaoke Mugen Karaoke Data File"
  },
  "medias": [
    {
      "version": "Default",
      "filename": "SPA - Jeanette - MV - Porque te vas.mp4",
      "audiogain": -1.51,
      "loudnorm": "-17.02,-7.08,2.70,-27.06,0.06",
      "filesize": 18383955,
      "duration": 199,
      "default": true,
      "lyrics": [
        {
          "filename": "SPA - Jeanette - MV - Porque te vas.ass",
          "default": true,
          "version": "Default"
        }
      ]
    }
  ],
  "data": {
    "created_at": "2022-03-19T15:07:50.665Z",
    "ignoreHooks": false,
    "kid": "70d7f576-c765-4d0e-8038-b7126575e075",
    "modified_at": "2022-03-19T15:08:21.316Z",
    "repository": "kara.moe",
    "tags": {
      "authors": [
        "dd4f1279-de1b-4d06-b80d-29c4878bfd8e"
      ],
      "collections": [
        "efe171c0-e8a1-4d03-98c0-60ecf741ad52"
      ],
      "creators": [
        "b0c2158f-cf3e-46ac-8068-9bfe261fa16a",
        "ee954a78-2b37-4071-b094-f9945d846d63"
      ],
      "families": [
        "5391f9fe-638c-415f-8dc9-958e3a2c5787"
      ],
      "groups": [
        "57e5e0c0-e02e-4871-a6cb-d48ea604ebab",
        "8c22c899-b3ed-42da-a548-ce00f950798b"
      ],
      "langs": [
        "11e9665f-f813-4495-bced-7ef9422cc992"
      ],
      "singers": [
        "feb4fb89-27f6-429a-8c9b-df46c00d5075"
      ],
      "songtypes": [
        "7be1b15c-cff8-4b37-a649-5c90f3d569a9"
      ],
      "songwriters": [
        "63b54b22-764f-4160-b992-d0068d59433d"
      ]
    },
    "titles": {
      "eng": "Porque te vas"
    },
    "title": "Porque te vas",
    "year": 1976
  }
}