{
  "header": {
    "version": 4,
    "description": "Karaoke Mugen Karaoke Data File"
  },
  "medias": [
    {
      "version": "Default",
      "filename": "SPA - Mecano - MV - Hijo de la Luna.mp4",
      "audiogain": -3.45,
      "loudnorm": "-14.92,-1.14,9.70,-25.26,-1.92",
      "filesize": 17164320,
      "duration": 258,
      "default": true,
      "lyrics": [
        {
          "filename": "SPA - Mecano - MV - Hijo de la Luna.ass",
          "default": true,
          "version": "Default"
        }
      ]
    }
  ],
  "data": {
    "created_at": "2021-12-04T20:26:31.682Z",
    "kid": "b3473052-e9c5-43c2-9dd5-7f38c122c06f",
    "modified_at": "2021-12-04T20:29:34.104Z",
    "repository": "kara.moe",
    "tags": {
      "authors": [
        "0c8e4377-ee35-4896-89ed-9d06a1b5acd5"
      ],
      "collections": [
        "efe171c0-e8a1-4d03-98c0-60ecf741ad52"
      ],
      "creators": [
        "5b29bf8d-93e9-4601-9992-0b2b6d87e27d"
      ],
      "families": [
        "5391f9fe-638c-415f-8dc9-958e3a2c5787"
      ],
      "groups": [
        "7792cc27-9ff9-4d47-9287-2338b7db1575"
      ],
      "langs": [
        "11e9665f-f813-4495-bced-7ef9422cc992"
      ],
      "singers": [
        "683a2f39-70e2-4cbe-b1fa-4b16004e128f"
      ],
      "songtypes": [
        "7be1b15c-cff8-4b37-a649-5c90f3d569a9"
      ],
      "songwriters": [
        "cdf7bd14-a581-49c5-ad2e-ee3acf7a3baa"
      ]
    },
    "titles": {
      "eng": "Hijo de la Luna"
    },
    "title": "Hijo de la Luna",
    "year": 1986
  }
}