{
  "header": {
    "version": 4,
    "description": "Karaoke Mugen Karaoke Data File"
  },
  "medias": [
    {
      "version": "Default",
      "filename": "UND - Ar Tonelico 3 Sekai Shuuen no Hikigane wa Shoujo no Uta ga Hiku - PS3 GAME AMV - EXEC_COSMOFLIPS.mp4",
      "audiogain": -0.45,
      "loudnorm": "-17.07,-6.95,4.30,-27.20,-0.91",
      "filesize": 71033010,
      "duration": 212,
      "default": true,
      "lyrics": [
        {
          "filename": "UND - Ar Tonelico 3 Sekai Shuuen no Hikigane wa Shoujo no Uta ga Hiku - PS3 GAME AMV - EXEC_COSMOFLIPS.ass",
          "default": true,
          "version": "Default",
          "subchecksum": "7b24aea75bd7621f19c858d94e4cbb40"
        }
      ]
    }
  ],
  "data": {
    "created_at": "2021-02-07T19:28:03.303Z",
    "kid": "b09da608-54f4-45b5-8a0b-acec4f3c2cea",
    "modified_at": "2021-02-25T13:49:53.769Z",
    "repository": "kara.moe",
    "tags": {
      "authors": [
        "dacb0560-9eee-45e3-a97e-294ca9f49d23"
      ],
      "collections": [
        "c7db86a0-ff64-4044-9be4-66dd1ef1d1c1"
      ],
      "creators": [
        "4914b4f7-053a-4e89-adac-e25b526e3b7a",
        "dacb0560-9eee-45e3-a97e-294ca9f49d23"
      ],
      "families": [
        "dbedd6b3-d125-4cd8-aa32-c4175e4ca3a3"
      ],
      "groups": [
        "8c22c899-b3ed-42da-a548-ce00f950798b",
        "8e209ae4-4381-438f-89dc-1b21752027d2"
      ],
      "langs": [
        "12bce133-e896-4ea8-9c43-e06a4288ddfc"
      ],
      "platforms": [
        "7f63ff91-7961-4488-888d-4bf46eea3a2a"
      ],
      "series": [
        "317e4e95-f03e-4b56-ba18-7f744f9cb1e8"
      ],
      "singers": [
        "11ce1acb-d36e-47f7-8822-41d478282184"
      ],
      "songtypes": [
        "a6c79ce5-89ee-4d50-afe8-3abd7317f6c2"
      ],
      "songwriters": [
        "11ce1acb-d36e-47f7-8822-41d478282184"
      ],
      "franchises": [
        "c3da97d2-5ff0-4b28-8598-fc5ccf3e040d"
      ]
    },
    "title": "EXEC_COSMOFLIPS",
    "titles": {
      "eng": "EXEC_COSMOFLIPS"
    },
    "year": 2021
  }
}