{
  "header": {
    "version": 4,
    "description": "Karaoke Mugen Karaoke Data File"
  },
  "medias": [
    {
      "version": "Default",
      "filename": "UND - Ar Tonelico 3 Sekai Shuuen no Hikigane wa Shoujo no Uta ga Hiku - PS3 GAME IN - EXEC_FLIP_ARPHAGE.mp4",
      "audiogain": -9.34,
      "loudnorm": "-9.41,0.35,10.20,-19.79,-1.71",
      "filesize": 66471118,
      "duration": 305,
      "default": true,
      "lyrics": [
        {
          "filename": "UND - Ar Tonelico 3 Sekai Shuuen no Hikigane wa Shoujo no Uta ga Hiku - PS3 GAME IN - EXEC_FLIP_ARPHAGE.ass",
          "default": true,
          "version": "Default",
          "subchecksum": "60819fb7ba864eb7b71984a4d88dca8f"
        }
      ]
    }
  ],
  "data": {
    "created_at": "2019-09-28T12:50:42.000Z",
    "kid": "b5ceff76-2484-467c-859a-6751da702652",
    "modified_at": "2021-02-25T13:49:59.603Z",
    "repository": "kara.moe",
    "tags": {
      "authors": [
        "0081300d-c0f9-4cff-a4f7-e726a293a76b"
      ],
      "collections": [
        "c7db86a0-ff64-4044-9be4-66dd1ef1d1c1"
      ],
      "creators": [
        "4914b4f7-053a-4e89-adac-e25b526e3b7a"
      ],
      "families": [
        "dbedd6b3-d125-4cd8-aa32-c4175e4ca3a3"
      ],
      "groups": [
        "ae613721-1fbe-480d-ba6b-d6d0702b184d"
      ],
      "langs": [
        "12bce133-e896-4ea8-9c43-e06a4288ddfc",
        "4dcf9614-7914-42aa-99f4-dbce2e059133"
      ],
      "misc": [
        "86705d4b-24e4-4756-9687-2b9c98bcf366"
      ],
      "platforms": [
        "7f63ff91-7961-4488-888d-4bf46eea3a2a"
      ],
      "series": [
        "317e4e95-f03e-4b56-ba18-7f744f9cb1e8"
      ],
      "singers": [
        "cc413549-14dd-4cc1-87d6-022fa80fbdd8"
      ],
      "songtypes": [
        "5e5250d9-351a-4a82-98eb-55db50ad8962"
      ],
      "songwriters": [
        "cc413549-14dd-4cc1-87d6-022fa80fbdd8"
      ],
      "franchises": [
        "c3da97d2-5ff0-4b28-8598-fc5ccf3e040d"
      ]
    },
    "title": "EXEC_FLIP_ARPHAGE/.",
    "titles": {
      "eng": "EXEC_FLIP_ARPHAGE/."
    },
    "year": 2010,
    "titles_default_language": "eng"
  }
}