{
  "header": {
    "version": 4,
    "description": "Karaoke Mugen Karaoke Data File"
  },
  "medias": [
    {
      "version": "Touhou.",
      "filename": "UND - Touhou - MV - LocoRoco Song, Kulche ~ Touhou Vers.mp4",
      "audiogain": -7.64,
      "loudnorm": "-10.06,0.10,2.60,-20.15,-0.77",
      "filesize": 19363985,
      "duration": 138,
      "default": true,
      "lyrics": [
        {
          "filename": "UND - Touhou - MV - LocoRoco Song, Kulche ~ Touhou Vers.ass",
          "default": true,
          "version": "Default",
          "subchecksum": "e0a6d6e748270bd9df5af333e18fecd4"
        }
      ]
    }
  ],
  "data": {
    "created_at": "2017-10-11T17:00:51.000Z",
    "kid": "e4dbaf0a-da16-4759-994d-b673584eb845",
    "modified_at": "2021-04-04T15:50:53.199Z",
    "repository": "kara.moe",
    "tags": {
      "authors": [
        "5bdaba57-27f8-4568-8806-76a807728766"
      ],
      "collections": [
        "c7db86a0-ff64-4044-9be4-66dd1ef1d1c1"
      ],
      "creators": [
        "a56ed9e7-a3dc-4203-b91c-4128bcf7bfa9"
      ],
      "families": [
        "0377db02-3af6-43b8-9b08-c759df3d25c3"
      ],
      "groups": [
        "ae613721-1fbe-480d-ba6b-d6d0702b184d"
      ],
      "langs": [
        "12bce133-e896-4ea8-9c43-e06a4288ddfc"
      ],
      "series": [
        "1bdaa5a1-dfa6-4365-b746-7a0b194dafd6"
      ],
      "singers": [
        "7a80ca93-9652-4887-88ee-1de30aa7c037"
      ],
      "songtypes": [
        "7be1b15c-cff8-4b37-a649-5c90f3d569a9"
      ],
      "songwriters": [
        "4a5af54f-4c7e-4e3e-ab43-41ccfe91555d",
        "b4050646-0946-44e9-8a25-5c4de5ecba24"
      ],
      "franchises": [
        "1bdaa5a1-dfa6-4365-b746-7a0b194dafd6"
      ]
    },
    "title": "LocoRoco Song, Kulche ~ Touhou Vers.",
    "titles": {
      "eng": "LocoRoco Song, Kulche ~ Touhou Vers."
    },
    "year": 2010
  }
}