{
  "header": {
    "version": 4,
    "description": "Karaoke Mugen Karaoke Data File"
  },
  "medias": [
    {
      "version": "Default",
      "filename": "UND - Gravity Daze - PSV GAME ED - Douse Shinundakara.mp4",
      "audiogain": 15.62,
      "loudnorm": "-32.81,-18.61,2.20,-42.83,-0.36",
      "filesize": 26862541,
      "duration": 178,
      "default": true,
      "lyrics": [
        {
          "filename": "UND - Gravity Daze - PSV GAME ED - Douse Shinundakara.ass",
          "default": true,
          "version": "Default",
          "subchecksum": "e8086d7c2bdbcde0abc0f7cb71d039f4"
        }
      ]
    }
  ],
  "data": {
    "created_at": "2017-10-11T17:02:59.000Z",
    "kid": "a914f464-b496-4b31-8f37-b6a7eee3c57e",
    "modified_at": "2021-02-25T13:50:18.489Z",
    "repository": "kara.moe",
    "tags": {
      "authors": [
        "8c22c899-b3ed-42da-a548-ce00f950798b"
      ],
      "collections": [
        "c7db86a0-ff64-4044-9be4-66dd1ef1d1c1"
      ],
      "creators": [
        "edcc2877-e672-42f5-ae02-1cbf78378cac"
      ],
      "families": [
        "dbedd6b3-d125-4cd8-aa32-c4175e4ca3a3"
      ],
      "groups": [
        "8c22c899-b3ed-42da-a548-ce00f950798b",
        "ae613721-1fbe-480d-ba6b-d6d0702b184d"
      ],
      "langs": [
        "12bce133-e896-4ea8-9c43-e06a4288ddfc"
      ],
      "platforms": [
        "e791f168-068f-4c05-aa36-e8d63726aa06"
      ],
      "series": [
        "573540c4-648b-4583-8dea-4ba98e4c3743"
      ],
      "singers": [
        "3cc085d8-68d8-4cb6-b3b8-7f76d05d8afe"
      ],
      "songtypes": [
        "38c77c56-2b95-4040-b676-0994a8cb0597"
      ],
      "songwriters": [
        "2461dcff-0d44-481a-9841-a8ae3e3d53db",
        "83076d66-601b-4f01-be60-04a44757a839"
      ]
    },
    "title": "Douse Shinundakara",
    "titles": {
      "eng": "Douse Shinundakara"
    },
    "year": 2012
  }
}