{
  "header": {
    "version": 4,
    "description": "Karaoke Mugen Karaoke Data File"
  },
  "medias": [
    {
      "version": "Default",
      "filename": "UND - NieR Automata - GAME XBOXONE AMV - A Beautiful Song.mp4",
      "audiogain": -4.51,
      "loudnorm": "-11.12,0.30,4.30,-21.32,-0.45",
      "filesize": 42856097,
      "duration": 145,
      "default": true,
      "lyrics": [
        {
          "filename": "UND - NieR Automata - GAME XBOXONE AMV - A Beautiful Song.ass",
          "default": true,
          "version": "Default"
        }
      ]
    }
  ],
  "data": {
    "created_at": "2019-09-15T14:12:31.000Z",
    "ignoreHooks": false,
    "kid": "9a64dcb1-1fd5-44c4-9e07-9a627bc5d90e",
    "modified_at": "2022-09-02T18:26:58.973Z",
    "repository": "kara.moe",
    "tags": {
      "authors": [
        "faa8becc-83b6-45d9-a3d0-a4c2c8b336c8"
      ],
      "collections": [
        "c7db86a0-ff64-4044-9be4-66dd1ef1d1c1"
      ],
      "creators": [
        "ace53238-953d-43ed-8a2d-5ec02d2c1a7c"
      ],
      "families": [
        "dbedd6b3-d125-4cd8-aa32-c4175e4ca3a3"
      ],
      "groups": [
        "8c22c899-b3ed-42da-a548-ce00f950798b",
        "ae613721-1fbe-480d-ba6b-d6d0702b184d"
      ],
      "langs": [
        "12bce133-e896-4ea8-9c43-e06a4288ddfc"
      ],
      "platforms": [
        "22840d76-7030-4c3f-ab35-4a863adce093",
        "248d92ee-8c02-43bc-86e2-cc6029883564",
        "3c15f758-e1bc-4266-8bb9-3c14112f504a"
      ],
      "series": [
        "be7d088d-2997-41a2-af7f-d2a0cef2465b"
      ],
      "singers": [
        "5f5940c3-0baa-4ab1-bb09-475530da19d1",
        "8a02fd8b-3b9c-45c4-9a98-511809c26969"
      ],
      "songtypes": [
        "a6c79ce5-89ee-4d50-afe8-3abd7317f6c2"
      ],
      "songwriters": [
        "a0a834a6-eaff-4a95-bdf2-6c606633a8cb"
      ],
      "franchises": [
        "c1316bef-8063-4d9b-ae4f-3fbd68424764"
      ]
    },
    "titles": {
      "eng": "A Beautiful Song"
    },
    "titles_default_language": "eng",
    "title": "A Beautiful Song",
    "year": 2017
  }
}