{
  "header": {
    "version": 4,
    "description": "Karaoke Mugen Karaoke Data File"
  },
  "medias": [
    {
      "version": "Default",
      "filename": "UND - Chrono Trigger, Lucky Star - REMIX GAME OT - Konata Healing Springs.mp4",
      "audiogain": -7.16,
      "loudnorm": "-9.36,0.02,5.10,-19.81,-1.07",
      "filesize": 14128825,
      "duration": 110,
      "default": true,
      "lyrics": [
        {
          "filename": "UND - Chrono Trigger, Lucky Star - REMIX GAME OT - Konata Healing Springs.ass",
          "default": true,
          "version": "Default"
        }
      ]
    }
  ],
  "data": {
    "created_at": "2019-10-01T18:33:50.000Z",
    "kid": "1e573d58-bacf-4d1f-af7a-e3546f5dc6ca",
    "modified_at": "2021-07-22T19:02:45.741Z",
    "repository": "kara.moe",
    "tags": {
      "authors": [
        "f7ce702e-09aa-4b22-8742-0c99cd7a5409"
      ],
      "collections": [
        "c7db86a0-ff64-4044-9be4-66dd1ef1d1c1"
      ],
      "creators": [
        "bfe2712f-5988-4fe0-88c2-21da3420a0ef"
      ],
      "families": [
        "0377db02-3af6-43b8-9b08-c759df3d25c3",
        "dbedd6b3-d125-4cd8-aa32-c4175e4ca3a3"
      ],
      "groups": [
        "2b4e9972-5e17-481b-99f5-d0787c0ada56",
        "3c14c864-533c-49e6-a3cc-6969f1233775"
      ],
      "langs": [
        "12bce133-e896-4ea8-9c43-e06a4288ddfc"
      ],
      "misc": [
        "ec4360fa-3e3c-4f6f-b0e1-fb8b12b6dd18"
      ],
      "series": [
        "010a52bf-ce74-42be-b259-d167d72d2ea8",
        "c77d4074-282a-45cf-8015-b83d0914cead"
      ],
      "singers": [
        "488aea99-01a0-4c2c-b475-b61d99efe994"
      ],
      "songtypes": [
        "97769615-a2e5-4f36-8c23-b2ce2ce3c460"
      ],
      "franchises": [
        "010a52bf-ce74-42be-b259-d167d72d2ea8"
      ]
    },
    "title": "Konata Healing Springs",
    "titles": {
      "eng": "Konata Healing Springs"
    },
    "year": 2009
  }
}