{
  "header": {
    "description": "Karaoke Mugen Tag File",
    "version": 1
  },
  "tag": {
    "i18n": {
      "eng": "(G)I-DLE"
    },
    "name": "(G)I-DLE",
    "tid": "963b5ad3-acc1-44b3-bcbd-ed3d36d490a4",
    "types": [
      "singers",
      "2"
    ],
    "repository": "kara.moe",
    "modified_at": "2020-03-31T19:04:33.219Z"
  }
}