{
  "header": {
    "description": "Karaoke Mugen Tag File",
    "version": 1
  },
  "tag": {
    "i18n": {
      "eng": "164"
    },
    "name": "164",
    "tid": "3da2188a-925c-47b4-aede-d9e964334650",
    "types": [
      "songwriters",
      "8"
    ],
    "repository": "kara.moe",
    "modified_at": "2020-03-31T19:04:33.226Z"
  }
}