{
  "header": {
    "description": "Karaoke Mugen Tag File",
    "version": 1
  },
  "tag": {
    "i18n": {
      "eng": "1999 Shoujo Tai"
    },
    "name": "1999 Shoujo Tai",
    "tid": "92a3bece-cc9d-4a36-bf08-20b642af0b77",
    "types": [
      "singers",
      "2"
    ],
    "repository": "kara.moe",
    "modified_at": "2020-03-31T19:04:33.227Z"
  }
}