{
  "header": {
    "description": "Karaoke Mugen Tag File",
    "version": 1
  },
  "tag": {
    "i18n": {
      "eng": "2020s"
    },
    "name": "2020s",
    "tid": "8e209ae4-4381-438f-89dc-1b21752027d2",
    "types": [
      "groups",
      "9"
    ],
    "repository": "kara.moe",
    "modified_at": "2020-03-31T19:04:33.229Z"
  }
}