{
  "header": {
    "description": "Karaoke Mugen Tag File",
    "version": 1
  },
  "tag": {
    "i18n": {
      "eng": "20th Century Records"
    },
    "modified_at": "2021-05-23T23:26:19.776Z",
    "name": "20th Century Records",
    "repository": "kara.moe",
    "tid": "18e389d9-5f05-4966-8015-cf807525588a",
    "types": [
      "creators",
      "4"
    ]
  }
}