{
  "header": {
    "description": "Karaoke Mugen Tag File",
    "version": 1
  },
  "tag": {
    "aliases": [
      "Phantom Thief Jade"
    ],
    "i18n": {
      "eng": "24-ji, Kimi no Heart wa Nusumareru ~Kaitou Jade~",
      "jpn": "24時、君のハートは盗まれる～怪盗ジェイド～",
      "qro": "24-ji Kimi no Heart wa Nusumareru ~Kaitou Jade~"
    },
    "modified_at": "2020-03-31T19:04:30.866Z",
    "name": "24-ji Kimi no Heart wa Nusumareru ~Kaitou Jade~",
    "repository": "kara.moe",
    "tid": "27b449a1-20e2-4e74-bc81-ec53bee8e738",
    "types": [
      "series",
      "1"
    ]
  }
}