{
  "header": {
    "description": "Karaoke Mugen Tag File",
    "version": 1
  },
  "tag": {
    "aliases": [
      "N25",
      "Niigo",
      "25ji Nightcord de.",
      "25 o'clock at Nightcord"
    ],
    "external_database_ids": {},
    "i18n": {
      "eng": "Nightcord at 25:00",
      "jpn": "25時、ナイトコードで。",
      "qro": "25-ji, Nightcord de."
    },
    "name": "25-ji, Nightcord de.",
    "repository": "kara.moe",
    "tid": "210b7f5a-db03-4cb6-ab5d-68052851cbb2",
    "types": [
      "singergroups",
      "17"
    ]
  }
}