{
  "header": {
    "description": "Karaoke Mugen Tag File",
    "version": 1
  },
  "tag": {
    "aliases": [
      "3月的狮子",
      "Sangatsu no Lion",
      "sangatsu (2016)",
      "Март месец връхлита като лъв",
      "Март месец те връхлита като лъв",
      "Мартовский лев"
    ],
    "external_database_ids": {
      "anilist": 21366,
      "myanimelist": 31646,
      "kitsu": 11380
    },
    "i18n": {
      "eng": "March Comes In Like a Lion",
      "ita": "Un marzo da leoni",
      "jpn": "3月のライオン",
      "kor": "3월의 라이온",
      "qro": "3-gatsu no Lion"
    },
    "modified_at": "2020-06-21T23:45:31.966Z",
    "name": "3-gatsu no Lion",
    "repository": "kara.moe",
    "tid": "bfd9a244-40d0-4ec8-81ba-041ae07a6797",
    "types": [
      "series",
      "1",
      "franchises",
      "18"
    ]
  }
}