{
  "header": {
    "description": "Karaoke Mugen Tag File",
    "version": 1
  },
  "tag": {
    "i18n": {
      "eng": "3xCube"
    },
    "name": "3xCube",
    "tid": "6458393f-dea3-4210-84ad-7207d8a5d073",
    "types": [
      "creators",
      "4"
    ],
    "repository": "kara.moe",
    "modified_at": "2020-03-31T19:04:33.236Z"
  }
}