{
  "header": {
    "description": "Karaoke Mugen Tag File",
    "version": 1
  },
  "tag": {
    "i18n": {
      "eng": "456"
    },
    "name": "456",
    "tid": "fd26e5fd-9c0b-47dc-8442-334991b19877",
    "types": [
      "creators",
      "4"
    ],
    "repository": "kara.moe",
    "modified_at": "2020-03-31T19:04:33.239Z"
  }
}