{
  "header": {
    "description": "Karaoke Mugen Tag File",
    "version": 1
  },
  "tag": {
    "i18n": {
      "eng": "610"
    },
    "name": "610",
    "tid": "13d94be4-e8c5-42bd-9f2b-131e28f22f2b",
    "types": [
      "singers",
      "2"
    ],
    "repository": "kara.moe",
    "modified_at": "2020-03-31T19:04:33.244Z"
  }
}