{
  "header": {
    "description": "Karaoke Mugen Tag File",
    "version": 1
  },
  "tag": {
    "aliases": [
      "seven seeds"
    ],
    "external_database_ids": {
      "anilist": 105807,
      "myanimelist": 38735,
      "kitsu": 42064
    },
    "i18n": {
      "eng": "7 SEEDS",
      "jpn": "7SEEDS",
      "heb": "7 זרעים",
      "qro": "7 SEEDS"
    },
    "modified_at": "2021-09-09T13:08:47.720Z",
    "name": "7 SEEDS",
    "repository": "kara.moe",
    "tid": "7e1f7d90-3614-4820-bbbd-1e50ca016f51",
    "types": [
      "series",
      "1"
    ]
  }
}