{
  "header": {
    "description": "Karaoke Mugen Tag File",
    "version": 1
  },
  "tag": {
    "i18n": {
      "eng": "7DOC",
      "chi": "七创社"
    },
    "name": "7DOC",
    "repository": "kara.moe",
    "tid": "395c3564-00ba-4231-9446-bb8dc99dd55a",
    "types": [
      "creators",
      "4"
    ]
  }
}