{
  "header": {
    "description": "Karaoke Mugen Tag File",
    "version": 1
  },
  "tag": {
    "aliases": [
      "八三",
      "Hassan",
      "はっさん",
      "Hachi San"
    ],
    "i18n": {
      "eng": "83"
    },
    "name": "83",
    "repository": "kara.moe",
    "tid": "3fb0e3a0-3bc2-4b05-85a2-3ae56fba4f07",
    "types": [
      "creators",
      "4"
    ]
  }
}