{
  "header": {
    "description": "Karaoke Mugen Tag File",
    "version": 1
  },
  "tag": {
    "i18n": {
      "eng": "9 Nine"
    },
    "modified_at": "2020-04-30T17:57:52.104Z",
    "name": "9 Nine",
    "repository": "kara.moe",
    "tid": "1f9bffd6-adc0-4ef5-9a86-edd8faee1270",
    "types": [
      "singers",
      "2"
    ]
  }
}