{
  "header": {
    "description": "Karaoke Mugen Tag File",
    "version": 1
  },
  "tag": {
    "i18n": {
      "eng": "99RadioService"
    },
    "name": "99RadioService",
    "tid": "87d6b297-df26-47cb-8436-b4e290c57641",
    "types": [
      "singers",
      "2"
    ],
    "repository": "kara.moe",
    "modified_at": "2020-03-31T19:04:33.256Z"
  }
}