{
  "header": {
    "description": "Karaoke Mugen Tag File",
    "version": 1
  },
  "tag": {
    "i18n": {
      "eng": "Ā kūn",
      "chi": "阿鲲"
    },
    "modified_at": "2021-03-13T14:23:57.924Z",
    "name": "Ā kūn",
    "repository": "kara.moe",
    "tid": "88e9781b-6047-4a00-88c0-fb97c5be9841",
    "types": [
      "songwriters",
      "8"
    ]
  }
}