{
  "header": {
    "description": "Karaoke Mugen Tag File",
    "version": 1
  },
  "tag": {
    "i18n": {
      "eng": "A-One"
    },
    "name": "A-One",
    "repository": "kara.moe",
    "tid": "45ad128c-a37d-4b3d-88db-eca4fc821e96",
    "types": [
      "creators",
      "4"
    ]
  }
}