{
  "header": {
    "description": "Karaoke Mugen Tag File",
    "version": 1
  },
  "tag": {
    "aliases": [
      "Alvin Pleasant Delaney Carter"
    ],
    "i18n": {
      "eng": "A. P. Carter"
    },
    "name": "A. P. Carter",
    "repository": "kara.moe",
    "tid": "306e215e-9f73-4ef6-a978-523a75851204",
    "types": [
      "songwriters",
      "8"
    ]
  }
}