{
  "header": {
    "description": "Karaoke Mugen Tag File",
    "version": 1
  },
  "tag": {
    "aliases": [
      "AMG",
      "AMG TV",
      "AMS",
      "AMS TV",
      "Ah! My Goddess",
      "OMG",
      "OMG TV",
      "Oh! My Goddess",
      "aams",
      "Ах! Богиньо моя!"
    ],
    "external_database_ids": {
      "anilist": 50,
      "myanimelist": 50,
      "kitsu": 31
    },
    "i18n": {
      "chi": "我的女神",
      "eng": "Ah! My Goddess",
      "fre": "Ah! My Goddess (saison 1)",
      "ger": "Oh! My Goddess \"Die Serie\"",
      "jpn": "ああっ女神さまっ (2005)",
      "pol": "Oh! My Goddess",
      "por": "Ah! Minha Deusa (2005)",
      "qro": "Aa! Megami-sama! (2005)"
    },
    "modified_at": "2020-03-31T19:04:30.878Z",
    "name": "Aa! Megami-sama! (2005)",
    "repository": "kara.moe",
    "tid": "2d72fd12-c33f-47a0-a733-143f2b07c537",
    "types": [
      "series",
      "1"
    ]
  }
}