{
  "header": {
    "description": "Karaoke Mugen Tag File",
    "version": 1
  },
  "tag": {
    "aliases": [
      "All Around the World Productions"
    ],
    "i18n": {
      "eng": "AATW"
    },
    "name": "AATW",
    "repository": "kara.moe",
    "tid": "c6bea900-1938-415d-90d8-86eb97402ee4",
    "types": [
      "creators",
      "4"
    ]
  }
}