{
  "header": {
    "description": "Karaoke Mugen Tag File",
    "version": 1
  },
  "tag": {
    "i18n": {
      "eng": "ab:fly"
    },
    "name": "ab:fly",
    "tid": "3d3caaaa-aa26-4990-aa64-547726f8fb8d",
    "types": [
      "songwriters",
      "8"
    ],
    "repository": "kara.moe",
    "modified_at": "2020-03-31T19:04:33.273Z"
  }
}