{
  "header": {
    "description": "Karaoke Mugen Tag File",
    "version": 1
  },
  "tag": {
    "i18n": {
      "eng": "acane_madder"
    },
    "name": "acane_madder",
    "tid": "a548c722-50a0-4c8c-b981-eed26f812482",
    "types": [
      "songwriters",
      "8"
    ],
    "repository": "kara.moe",
    "modified_at": "2020-03-31T19:04:33.280Z"
  }
}