{
  "header": {
    "description": "Karaoke Mugen Tag File",
    "version": 1
  },
  "tag": {
    "aliases": [
      "AoB"
    ],
    "i18n": {
      "eng": "Ace of Base"
    },
    "name": "Ace of Base",
    "repository": "kara.moe",
    "tid": "9f21dddd-5c1d-4721-89ec-0ab1c5618741",
    "types": [
      "singers",
      "2"
    ]
  }
}