{
  "header": {
    "description": "Karaoke Mugen Tag File",
    "version": 1
  },
  "tag": {
    "i18n": {
      "eng": "acid+ LE antoinette"
    },
    "name": "acid+ LE antoinette",
    "repository": "kara.moe",
    "tid": "3fe7ef13-c5de-4533-afcf-f172a42234dc",
    "types": [
      "songwriters",
      "8",
      "singers",
      "2"
    ]
  }
}