{
  "header": {
    "description": "Karaoke Mugen Tag File",
    "version": 1
  },
  "tag": {
    "i18n": {
      "eng": "Acquire"
    },
    "name": "Acquire",
    "tid": "fa113567-c803-4643-bbb9-cc2e8e923191",
    "types": [
      "creators",
      "4"
    ],
    "repository": "kara.moe",
    "modified_at": "2020-03-31T19:04:33.286Z"
  }
}