{
  "header": {
    "description": "Karaoke Mugen Tag File",
    "version": 1
  },
  "tag": {
    "i18n": {
      "eng": "Actas"
    },
    "name": "Actas",
    "tid": "11dd3933-9117-42f4-9fc8-4b6e18109832",
    "types": [
      "creators",
      "4"
    ],
    "repository": "kara.moe",
    "modified_at": "2020-03-31T19:04:33.287Z"
  }
}