{
  "header": {
    "description": "Karaoke Mugen Tag File",
    "version": 1
  },
  "tag": {
    "i18n": {
      "eng": "Action Man"
    },
    "name": "Action Man",
    "repository": "kara.moe",
    "tid": "c2411c5a-aed7-45b0-89b3-190fa03548d5",
    "types": [
      "franchises",
      "18"
    ]
  }
}