{
  "header": {
    "description": "Karaoke Mugen Tag File",
    "version": 1
  },
  "tag": {
    "aliases": [
      "AdaShima"
    ],
    "external_database_ids": {
      "anilist": 109287,
      "myanimelist": 39790,
      "kitsu": 42342
    },
    "i18n": {
      "eng": "Adachi and Shimamura",
      "jpn": "安達としまむら",
      "qro": "Adachi to Shimamura"
    },
    "modified_at": "2020-10-29T01:22:20.787Z",
    "name": "Adachi to Shimamura",
    "repository": "kara.moe",
    "tid": "97fe5b88-afbe-4d09-891d-2318ea1d4048",
    "types": [
      "series",
      "1"
    ]
  }
}