{
  "header": {
    "description": "Karaoke Mugen Tag File",
    "version": 1
  },
  "tag": {
    "aliases": [
      "Adam by Eve - A Live in Animation"
    ],
    "i18n": {
      "eng": "Adam by Eve"
    },
    "name": "Adam by Eve",
    "repository": "kara.moe",
    "tid": "10415b69-c741-4006-bd4f-e1dda5e1e5a2",
    "types": [
      "series",
      "1"
    ]
  }
}