{
  "header": {
    "description": "Karaoke Mugen Tag File",
    "version": 1
  },
  "tag": {
    "aliases": [
      "adrianjorge2"
    ],
    "i18n": {
      "eng": "Adrian"
    },
    "name": "Adrian",
    "repository": "kara.moe",
    "tid": "523ead5e-981e-4993-af29-12524f7edcf1",
    "types": [
      "authors",
      "6"
    ]
  }
}