{
  "header": {
    "description": "Karaoke Mugen Tag File",
    "version": 1
  },
  "tag": {
    "i18n": {
      "eng": "Adrián Barba"
    },
    "name": "Adrián Barba",
    "repository": "kara.moe",
    "tid": "00c2f80a-3d34-4571-b749-a5ce3ec1754c",
    "types": [
      "singers",
      "2",
      "songwriters",
      "8"
    ]
  }
}