{
  "header": {
    "description": "Karaoke Mugen Tag File",
    "version": 1
  },
  "tag": {
    "i18n": {
      "eng": "Afilia Saga"
    },
    "name": "Afilia Saga",
    "tid": "4632cf0f-5d9f-49a1-be02-1686f83a91ac",
    "types": [
      "singers",
      "2"
    ],
    "repository": "kara.moe",
    "modified_at": "2020-03-31T19:04:33.296Z"
  }
}