{
  "header": {
    "description": "Karaoke Mugen Tag File",
    "version": 1
  },
  "tag": {
    "i18n": {
      "eng": "âge"
    },
    "name": "âge",
    "tid": "5e87ca69-52dd-4df4-957a-5a24d5a19c94",
    "types": [
      "creators",
      "4"
    ],
    "repository": "kara.moe",
    "modified_at": "2020-03-31T19:04:33.299Z"
  }
}