{
  "header": {
    "description": "Karaoke Mugen Tag File",
    "version": 1
  },
  "tag": {
    "i18n": {
      "eng": "Ai Ichikawa"
    },
    "name": "Ai Ichikawa",
    "repository": "kara.moe",
    "tid": "df61f0b3-ba32-46bd-aa23-7491c0f28e8f",
    "types": [
      "singers",
      "2"
    ]
  }
}