{
  "header": {
    "description": "Karaoke Mugen Tag File",
    "version": 1
  },
  "tag": {
    "i18n": {
      "eng": "Ai Ikegami"
    },
    "modified_at": "2020-06-05T19:09:13.307Z",
    "name": "Ai Ikegami",
    "repository": "kara.moe",
    "tid": "65e428f2-7c4e-41fa-971e-b7ee0d2bf70d",
    "types": [
      "singers",
      "2"
    ]
  }
}