{
  "header": {
    "description": "Karaoke Mugen Tag File",
    "version": 1
  },
  "tag": {
    "aliases": [
      "AiM",
      "Ai Maeda"
    ],
    "i18n": {
      "eng": "Ai Maeda"
    },
    "modified_at": "2020-08-18T23:08:29.418Z",
    "name": "Ai Maeda",
    "repository": "kara.moe",
    "tid": "444a5d2f-e9b9-4df6-90a3-49bc6832cb01",
    "types": [
      "singers",
      "2"
    ]
  }
}