{
  "header": {
    "description": "Karaoke Mugen Tag File",
    "version": 1
  },
  "tag": {
    "aliases": [
      "Les 4 filles du docteur March",
      "Love's Tale of Young Grass",
      "Piccole donne",
      "สี่ดรุณี"
    ],
    "external_database_ids": {
      "anilist": 2548,
      "myanimelist": 2548,
      "kitsu": 2313
    },
    "i18n": {
      "ara": "نساء صغيرات",
      "eng": "Little Women",
      "fin": "Pikku naisia",
      "fre": "Les quatre filles du Docteur March",
      "ger": "Eine fröhliche Familie",
      "heb": "נשים קטנות",
      "ita": "Una per tutte, tutte per una",
      "jpn": "愛の若草物語",
      "per": "زنان کوچک",
      "por": "As Mulherzinhas",
      "spa": "Mujercitas",
      "qro": "Ai no Wakakusa Monogatari"
    },
    "modified_at": "2020-03-31T19:04:30.896Z",
    "name": "Ai no Wakakusa Monogatari",
    "repository": "kara.moe",
    "tid": "091bae55-3f8e-443f-b6c9-fcabbb1cd5f4",
    "types": [
      "series",
      "1"
    ]
  }
}