{
  "header": {
    "description": "Karaoke Mugen Tag File",
    "version": 1
  },
  "tag": {
    "aliases": [
      "AYA",
      "AiAo",
      "Azul",
      "Blau",
      "Bluer than Indigo",
      "Sempre più Blu",
      "aya1",
      "Синее синего",
      "青出于蓝"
    ],
    "external_database_ids": {
      "anilist": 53,
      "myanimelist": 53,
      "kitsu": 34
    },
    "i18n": {
      "eng": "Ai Yori Aoshi",
      "fre": "Bleu Indigo",
      "jpn": "藍より青し",
      "rus": "Темнее, чем индиго",
      "qro": "Ai Yori Aoshi"
    },
    "modified_at": "2020-03-31T19:04:30.898Z",
    "name": "Ai Yori Aoshi",
    "repository": "kara.moe",
    "tid": "23f96642-0062-4aad-a317-a81c1a8748d4",
    "types": [
      "series",
      "1",
      "franchises",
      "18"
    ]
  }
}