{
  "header": {
    "description": "Karaoke Mugen Tag File",
    "version": 1
  },
  "tag": {
    "i18n": {
      "eng": "Aika"
    },
    "name": "Aika",
    "tid": "4dac72e7-4610-4fdb-859e-ac0b8397b582",
    "types": [
      "songwriters",
      "8"
    ],
    "repository": "kara.moe",
    "modified_at": "2020-03-31T19:04:33.315Z"
  }
}