{
  "header": {
    "description": "Karaoke Mugen Tag File",
    "version": 1
  },
  "tag": {
    "aliases": [
      "Idol Katsudou",
      "Idol Katsudô"
    ],
    "external_database_ids": {
      "anilist": 111082,
      "myanimelist": 40266,
      "kitsu": 42497
    },
    "i18n": {
      "eng": "Aikatsu on Parade!",
      "jpn": "アイカツオンパレード!",
      "qro": "Aikatsu on Parade!"
    },
    "modified_at": "2021-01-20T00:25:55.178Z",
    "name": "Aikatsu on Parade!",
    "repository": "kara.moe",
    "tid": "1a16633e-b562-4ddc-85d8-3cc00b4ce9a6",
    "types": [
      "series",
      "1"
    ]
  }
}