{
  "header": {
    "description": "Karaoke Mugen Tag File",
    "version": 1
  },
  "tag": {
    "i18n": {
      "eng": "Aika Oono"
    },
    "name": "Aika Oono",
    "tid": "bc0997f3-7027-4767-a501-6a915d5b9c2a",
    "types": [
      "songwriters",
      "8"
    ],
    "repository": "kara.moe",
    "modified_at": "2020-03-31T19:04:33.315Z"
  }
}