{
  "header": {
    "description": "Karaoke Mugen Tag File",
    "version": 1
  },
  "tag": {
    "i18n": {
      "eng": "Aiko Takase"
    },
    "name": "Aiko Takase",
    "tid": "e4fe2286-9058-4509-9ba2-64b089651dca",
    "types": [
      "songwriters",
      "8"
    ],
    "repository": "kara.moe",
    "modified_at": "2020-03-31T19:04:33.321Z"
  }
}