{
  "header": {
    "description": "Karaoke Mugen Tag File",
    "version": 1
  },
  "tag": {
    "aliases": [
      "Aiko Kayou"
    ],
    "i18n": {
      "eng": "Aiko Kayô"
    },
    "modified_at": "2020-08-18T23:00:41.232Z",
    "name": "Aiko Kayô",
    "repository": "kara.moe",
    "tid": "08f4e158-35dd-44be-8940-0b81d2f4abd6",
    "types": [
      "singers",
      "2"
    ]
  }
}