{
  "header": {
    "description": "Karaoke Mugen Tag File",
    "version": 1
  },
  "tag": {
    "i18n": {
      "eng": "Aiko Kitahara"
    },
    "name": "Aiko Kitahara",
    "tid": "4f118775-4856-4d34-83c9-480ab1ed8967",
    "types": [
      "singers",
      "2",
      "songwriters",
      "8"
    ],
    "repository": "kara.moe",
    "modified_at": "2020-03-31T19:04:33.319Z"
  }
}