{
  "header": {
    "description": "Karaoke Mugen Tag File",
    "version": 1
  },
  "tag": {
    "i18n": {
      "eng": "AiRI"
    },
    "name": "AiRI",
    "tid": "5aea2118-b7fd-43d6-814c-2ce6d6b44b8a",
    "types": [
      "singers",
      "2",
      "songwriters",
      "8"
    ],
    "repository": "kara.moe",
    "modified_at": "2020-03-31T19:04:33.332Z"
  }
}