{
  "header": {
    "description": "Karaoke Mugen Tag File",
    "version": 1
  },
  "tag": {
    "i18n": {
      "eng": "Airi Suzuki"
    },
    "modified_at": "2020-05-10T20:34:29.852Z",
    "name": "Airi Suzuki",
    "repository": "kara.moe",
    "tid": "04806896-e3ef-4ffe-a5a5-3f3ca632e0d9",
    "types": [
      "singers",
      "2"
    ]
  }
}