{
  "header": {
    "description": "Karaoke Mugen Tag File",
    "version": 1
  },
  "tag": {
    "i18n": {
      "eng": "Airin"
    },
    "name": "Airin",
    "tid": "e1129dfd-6b5e-4595-83a7-52b23b54acb9",
    "types": [
      "songwriters",
      "8"
    ],
    "repository": "kara.moe",
    "modified_at": "2020-03-31T19:04:33.332Z"
  }
}