{
  "header": {
    "description": "Karaoke Mugen Tag File",
    "version": 1
  },
  "tag": {
    "aliases": [
      "Ai Shite Knight",
      "Love Me Knight",
      "Love in Rock 'n Roll",
      "Lucile Amour et Rock'n'roll",
      "Lucile amour et rock 'n' roll",
      "Rock'n'Roll Kids"
    ],
    "external_database_ids": {
      "anilist": 2221,
      "myanimelist": 2221,
      "kitsu": 2012
    },
    "i18n": {
      "eng": "Rock'n Roll Kids",
      "fre": "Embrasse-moi, Lucile",
      "ger": "Rock'n Roll Kids",
      "ita": "Kiss Me, Licia",
      "jpn": "愛してナイト",
      "por": "A Minha Amiga Licia",
      "spa": "Bésame Licia",
      "qro": "Aishite Knight"
    },
    "modified_at": "2020-03-31T19:04:30.904Z",
    "name": "Aishite Knight",
    "repository": "kara.moe",
    "tid": "859e9f92-bf14-476b-b2b1-28964f8f87da",
    "types": [
      "series",
      "1"
    ]
  }
}