{
  "header": {
    "description": "Karaoke Mugen Tag File",
    "version": 1
  },
  "tag": {
    "i18n": {
      "eng": "Ajia-Do"
    },
    "modified_at": "2021-02-05T16:51:53.847Z",
    "name": "Ajia-Do",
    "repository": "kara.moe",
    "tid": "d031503e-efcc-4da5-8368-98571f1ad461",
    "types": [
      "creators",
      "4"
    ]
  }
}