{
  "header": {
    "description": "Karaoke Mugen Tag File",
    "version": 1
  },
  "tag": {
    "aliases": [
      "Получеловек"
    ],
    "external_database_ids": {
      "anilist": 21341,
      "myanimelist": 31580,
      "kitsu": 11368
    },
    "i18n": {
      "chi": "亞人",
      "eng": "Ajin: Demi-Human",
      "fre": "Ajin: Semi-Humain",
      "jpn": "亜人 (2016)",
      "kor": "아인",
      "spa": "Ajin: Semihumano",
      "qro": "Ajin (2016)"
    },
    "modified_at": "2020-03-31T19:04:30.909Z",
    "name": "Ajin (2016)",
    "repository": "kara.moe",
    "tid": "ce3cbe3c-b6ef-419b-9c8f-8be5470046a0",
    "types": [
      "series",
      "1"
    ]
  }
}