{
  "header": {
    "description": "Karaoke Mugen Tag File",
    "version": 1
  },
  "tag": {
    "aliases": [
      "Ajin: Yarı İnsan (2016)"
    ],
    "external_database_ids": {
      "anilist": 21799,
      "myanimelist": 33253,
      "kitsu": 12115
    },
    "i18n": {
      "chi": " 亚人 第二季",
      "eng": "Ajin 2 (2016)",
      "fre": "Ajin: Semi-Humain Saison 2",
      "jpn": "亜人 2 (2016)",
      "kor": "아인 2",
      "rus": "Полулюди ТВ-2",
      "qro": "Ajin 2 (2016)"
    },
    "modified_at": "2020-08-19T12:05:04.850Z",
    "name": "Ajin 2 (2016)",
    "repository": "kara.moe",
    "tid": "f36fe932-087a-4b92-9020-74a3c3a038a4",
    "types": [
      "series",
      "1"
    ]
  }
}