{
  "header": {
    "description": "Karaoke Mugen Tag File",
    "version": 1
  },
  "tag": {
    "i18n": {
      "eng": "Akali"
    },
    "modified_at": "2021-09-26T12:15:12.780Z",
    "name": "Akali",
    "repository": "kara.moe",
    "tid": "5b733e8b-9a00-4cc7-878c-fa8541b8f90a",
    "types": [
      "songwriters",
      "8"
    ]
  }
}