{
  "header": {
    "description": "Karaoke Mugen Tag File",
    "version": 1
  },
  "tag": {
    "i18n": {
      "eng": "Akane Matsunaga"
    },
    "name": "Akane Matsunaga",
    "tid": "165868c0-2088-4ebc-a787-34266193f569",
    "types": [
      "singers",
      "2"
    ],
    "repository": "kara.moe",
    "modified_at": "2020-03-31T19:04:33.342Z"
  }
}