{
  "header": {
    "description": "Karaoke Mugen Tag File",
    "version": 1
  },
  "tag": {
    "i18n": {
      "eng": "Akane Fujieda"
    },
    "name": "Akane Fujieda",
    "tid": "f4cee1ab-5de1-4f18-9aad-d64bb4d64541",
    "types": [
      "singers",
      "2"
    ],
    "repository": "kara.moe",
    "modified_at": "2020-03-31T19:04:33.341Z"
  }
}