{
  "header": {
    "description": "Karaoke Mugen Tag File",
    "version": 1
  },
  "tag": {
    "i18n": {
      "eng": "Akatsuki Records"
    },
    "modified_at": "2021-02-13T22:00:48.775Z",
    "name": "Akatsuki Records",
    "repository": "kara.moe",
    "tid": "eb49131c-b890-422d-9947-0e82292801e1",
    "types": [
      "creators",
      "4"
    ]
  }
}