{
  "header": {
    "description": "Karaoke Mugen Tag File",
    "version": 1
  },
  "tag": {
    "aliases": [
      "chacha tv",
      "빨간망토 차차"
    ],
    "external_database_ids": {
      "anilist": 103,
      "myanimelist": 103,
      "kitsu": 82
    },
    "i18n": {
      "eng": "Red Riding Hood Chacha",
      "jpn": "赤ずきんチャチャ",
      "tha": "ชาช่า หนูน้อยหมวกแดง",
      "qro": "Akazukin Chacha"
    },
    "modified_at": "2020-06-21T23:45:31.966Z",
    "name": "Akazukin Chacha",
    "repository": "kara.moe",
    "tid": "e2666c8b-28d0-4501-97e3-b5e061dbfb98",
    "types": [
      "series",
      "1"
    ]
  }
}