{
  "header": {
    "description": "Karaoke Mugen Tag File",
    "version": 1
  },
  "tag": {
    "aliases": [
      "Akebi-chan no Serafuku",
      "La divisa scolastica di Akebi"
    ],
    "external_database_ids": {
      "anilist": 131548,
      "myanimelist": 48553,
      "kitsu": 44210
    },
    "i18n": {
      "jpn": "明日ちゃんのセーラー服",
      "eng": "Akebi's Sailor Uniform"
    },
    "name": "Akebi-chan no Sailor Fuku",
    "repository": "kara.moe",
    "tid": "dad9636c-a5cb-4c13-b8d9-ad751665e019",
    "types": [
      "series",
      "1"
    ]
  }
}