{
  "header": {
    "description": "Karaoke Mugen Tag File",
    "version": 1
  },
  "tag": {
    "i18n": {
      "eng": "Akeiro Kaikitan",
      "jpn": "あけいろ怪奇譚",
      "qro": "Akeiro Kaikitan"
    },
    "modified_at": "2020-03-31T19:04:30.918Z",
    "name": "Akeiro Kaikitan",
    "repository": "kara.moe",
    "tid": "e908b4c0-4cef-49d7-bcf8-853c4e48b94e",
    "types": [
      "series",
      "1"
    ]
  }
}