{
  "header": {
    "description": "Karaoke Mugen Tag File",
    "version": 1
  },
  "tag": {
    "i18n": {
      "eng": "Aki Toyosaki"
    },
    "name": "Aki Toyosaki",
    "tid": "e57f782d-e2ef-4248-ba60-4627cb31f522",
    "types": [
      "singers",
      "2"
    ],
    "repository": "kara.moe",
    "modified_at": "2020-03-31T19:04:33.363Z"
  }
}