{
  "header": {
    "description": "Karaoke Mugen Tag File",
    "version": 1
  },
  "tag": {
    "i18n": {
      "eng": "Aki Asakura"
    },
    "name": "Aki Asakura",
    "tid": "1c9c6fd3-8ab9-4fb8-906d-e16da9ebea7b",
    "types": [
      "singers",
      "2"
    ],
    "repository": "kara.moe",
    "modified_at": "2020-03-31T19:04:33.356Z"
  }
}