{
  "header": {
    "description": "Karaoke Mugen Tag File",
    "version": 1
  },
  "tag": {
    "i18n": {
      "chi": "秋葉原脫物語2",
      "eng": "Akiba's Trip: Undead & Undressed",
      "jpn": "アキバズトリップ2",
      "qro": "Akiba's Trip 2"
    },
    "modified_at": "2020-03-31T19:04:30.920Z",
    "name": "Akiba's Trip 2",
    "repository": "kara.moe",
    "tid": "6d0107bd-b6f9-44c6-9a38-6c638d6bf1c5",
    "types": [
      "series",
      "1"
    ]
  }
}