{
  "header": {
    "description": "Karaoke Mugen Tag File",
    "version": 1
  },
  "tag": {
    "i18n": {
      "eng": "Akigumi"
    },
    "name": "Akigumi",
    "repository": "kara.moe",
    "tid": "90061070-b659-4d8e-883d-898b290fe85a",
    "types": [
      "singergroups",
      "17"
    ]
  }
}