{
  "header": {
    "description": "Karaoke Mugen Tag File",
    "version": 1
  },
  "tag": {
    "i18n": {
      "eng": "Akihiko Yamaguchi"
    },
    "name": "Akihiko Yamaguchi",
    "tid": "9ef3d8bd-5338-4086-9ebe-ca7aa87eac04",
    "types": [
      "songwriters",
      "8"
    ],
    "repository": "kara.moe",
    "modified_at": "2020-03-31T19:04:33.371Z"
  }
}