{
  "header": {
    "description": "Karaoke Mugen Tag File",
    "version": 1
  },
  "tag": {
    "i18n": {
      "eng": "Akiho Suzumoto"
    },
    "modified_at": "2021-08-27T16:52:02.240Z",
    "name": "Akiho Suzumoto",
    "repository": "kara.moe",
    "tid": "7aaaca29-9626-40c6-b620-f1e5ed302977",
    "types": [
      "singers",
      "2"
    ]
  }
}