{
  "header": {
    "description": "Karaoke Mugen Tag File",
    "version": 1
  },
  "tag": {
    "i18n": {
      "eng": "Akiko Kosaka"
    },
    "name": "Akiko Kosaka",
    "tid": "8f085066-da1b-4df6-b183-e8c6a4530b5e",
    "types": [
      "songwriters",
      "8"
    ],
    "repository": "kara.moe",
    "modified_at": "2020-03-31T19:04:33.378Z"
  }
}