{
  "header": {
    "description": "Karaoke Mugen Tag File",
    "version": 1
  },
  "tag": {
    "i18n": {
      "eng": "Akiko Shikata"
    },
    "name": "Akiko Shikata",
    "tid": "cc413549-14dd-4cc1-87d6-022fa80fbdd8",
    "types": [
      "singers",
      "2",
      "songwriters",
      "8"
    ],
    "repository": "kara.moe",
    "modified_at": "2020-03-31T19:04:33.379Z"
  }
}