{
  "header": {
    "description": "Karaoke Mugen Tag File",
    "version": 1
  },
  "tag": {
    "i18n": {
      "eng": "Akim Laouar Aronsen"
    },
    "name": "Akim Laouar Aronsen",
    "repository": "kara.moe",
    "tid": "5aa79f58-1510-46f2-898b-fd577b97476e",
    "types": [
      "songwriters",
      "8",
      "creators",
      "4"
    ]
  }
}