{
  "header": {
    "description": "Karaoke Mugen Tag File",
    "version": 1
  },
  "tag": {
    "i18n": {
      "eng": "Akio Izutsu"
    },
    "name": "Akio Izutsu",
    "tid": "af2241fe-849a-4357-9fba-30ccafb808a8",
    "types": [
      "songwriters",
      "8"
    ],
    "repository": "kara.moe",
    "modified_at": "2020-03-31T19:04:33.386Z"
  }
}