{
  "header": {
    "description": "Karaoke Mugen Tag File",
    "version": 1
  },
  "tag": {
    "i18n": {
      "eng": "Akira Miyagawa"
    },
    "name": "Akira Miyagawa",
    "tid": "b95df6dd-de05-4d12-a6a1-31c1014d0ac6",
    "types": [
      "songwriters",
      "8"
    ],
    "repository": "kara.moe",
    "modified_at": "2020-03-31T19:04:33.397Z"
  }
}