{
  "header": {
    "description": "Karaoke Mugen Tag File",
    "version": 1
  },
  "tag": {
    "i18n": {
      "eng": "Akira Itô"
    },
    "name": "Akira Itô",
    "tid": "cad18282-6cb7-412c-8e52-c89ece6cccfd",
    "types": [
      "songwriters",
      "8"
    ],
    "repository": "kara.moe",
    "modified_at": "2020-03-31T19:04:33.395Z"
  }
}