{
  "header": {
    "description": "Karaoke Mugen Tag File",
    "version": 1
  },
  "tag": {
    "i18n": {
      "eng": "Akira Asakura"
    },
    "name": "Akira Asakura",
    "tid": "42b195eb-96d3-498f-b0b3-37e70159ca7a",
    "types": [
      "singers",
      "2"
    ],
    "repository": "kara.moe",
    "modified_at": "2020-03-31T19:04:33.390Z"
  }
}