{
  "header": {
    "description": "Karaoke Mugen Tag File",
    "version": 1
  },
  "tag": {
    "i18n": {
      "eng": "Akira Ôtsu"
    },
    "name": "Akira Ôtsu",
    "tid": "dfb52d7b-ea91-4d3d-9dd1-a33982c1988d",
    "types": [
      "songwriters",
      "8"
    ],
    "repository": "kara.moe",
    "modified_at": "2020-03-31T19:04:33.401Z"
  }
}