{
  "header": {
    "description": "Karaoke Mugen Tag File",
    "version": 1
  },
  "tag": {
    "i18n": {
      "eng": "Akito Matsuda"
    },
    "name": "Akito Matsuda",
    "tid": "e419fc31-beca-4b6f-8f81-4a2392d4c2f3",
    "types": [
      "songwriters",
      "8"
    ],
    "repository": "kara.moe",
    "modified_at": "2020-03-31T19:04:33.409Z"
  }
}