{
  "header": {
    "description": "Karaoke Mugen Tag File",
    "version": 1
  },
  "tag": {
    "i18n": {
      "eng": "Akito Sugibayashi"
    },
    "name": "Akito Sugibayashi",
    "repository": "kara.moe",
    "tid": "c290d510-dd63-4e81-b180-2111b9905ed0",
    "types": [
      "singers",
      "2"
    ]
  }
}