{
  "header": {
    "description": "Karaoke Mugen Tag File",
    "version": 1
  },
  "tag": {
    "i18n": {
      "eng": "AKLO"
    },
    "modified_at": "2020-10-26T23:00:46.074Z",
    "name": "AKLO",
    "repository": "kara.moe",
    "tid": "f6d759c3-3383-44e0-8881-dce91c7f45a3",
    "types": [
      "songwriters",
      "8"
    ]
  }
}