{
  "header": {
    "description": "Karaoke Mugen Tag File",
    "version": 1
  },
  "tag": {
    "i18n": {
      "eng": "Akorus"
    },
    "name": "Akorus",
    "tid": "b2eabaef-6bdc-4d92-ba0b-a53a92fad08d",
    "types": [
      "authors",
      "6"
    ],
    "repository": "kara.moe",
    "modified_at": "2020-03-31T19:04:33.413Z"
  }
}