{
  "header": {
    "description": "Karaoke Mugen Tag File",
    "version": 1
  },
  "tag": {
    "external_database_ids": {
      "anilist": 116566,
      "myanimelist": 41433,
      "kitsu": 43067
    },
    "i18n": {
      "eng": "Akudama Drive",
      "jpn": "アクダマドライブ",
      "rus": "Акудама Драйв",
      "qro": "Akudama Drive"
    },
    "modified_at": "2020-11-27T01:03:43.606Z",
    "name": "Akudama Drive",
    "repository": "kara.moe",
    "tid": "170d49dd-61d2-4d1b-8814-023577305e80",
    "types": [
      "series",
      "1"
    ]
  }
}