{
  "header": {
    "description": "Karaoke Mugen Tag File",
    "version": 1
  },
  "tag": {
    "i18n": {
      "eng": "Al Hoffman"
    },
    "name": "Al Hoffman",
    "tid": "0b235e7a-49cf-432d-aa3d-046fa1b565ec",
    "types": [
      "songwriters",
      "8"
    ],
    "repository": "kara.moe",
    "modified_at": "2020-03-31T19:04:33.415Z"
  }
}