{
  "header": {
    "description": "Karaoke Mugen Tag File",
    "version": 1
  },
  "tag": {
    "i18n": {
      "eng": "AlAi"
    },
    "name": "AlAi",
    "tid": "f6206ef6-7046-4587-b099-edff38034334",
    "types": [
      "songwriters",
      "8"
    ],
    "repository": "kara.moe",
    "modified_at": "2020-03-31T19:04:33.417Z"
  }
}