{
  "header": {
    "description": "Karaoke Mugen Tag File",
    "version": 1
  },
  "tag": {
    "i18n": {
      "eng": "Alain Chabat"
    },
    "name": "Alain Chabat",
    "tid": "23d6a784-d8ed-4ff4-a1bb-5447542950ab",
    "types": [
      "singers",
      "2",
      "songwriters",
      "8"
    ],
    "repository": "kara.moe",
    "modified_at": "2020-03-31T19:04:33.418Z"
  }
}