{
  "header": {
    "description": "Karaoke Mugen Tag File",
    "version": 1
  },
  "tag": {
    "aliases": [
      "Pascale Filippi",
      "Jeanne Ermilova"
    ],
    "i18n": {
      "eng": "Alana Filippi"
    },
    "modified_at": "2021-06-05T20:13:18.377Z",
    "name": "Alana Filippi",
    "repository": "kara.moe",
    "tid": "6525a565-0f41-4528-91a8-6df40a71148a",
    "types": [
      "songwriters",
      "8"
    ]
  }
}