{
  "header": {
    "description": "Karaoke Mugen Tag File",
    "version": 1
  },
  "tag": {
    "i18n": {
      "eng": "Alan Day"
    },
    "name": "Alan Day",
    "repository": "kara.moe",
    "tid": "8ad8ba11-598b-45fa-91e9-4769f4042fc4",
    "types": [
      "singers",
      "2"
    ]
  }
}