{
  "header": {
    "description": "Karaoke Mugen Tag File",
    "version": 1
  },
  "tag": {
    "i18n": {
      "eng": "ALcot"
    },
    "name": "ALcot",
    "tid": "43636bc4-3df8-4830-b8a8-ad8a249f7fe9",
    "types": [
      "creators",
      "4"
    ],
    "repository": "kara.moe",
    "modified_at": "2020-03-31T19:04:33.424Z"
  }
}