{
  "header": {
    "description": "Karaoke Mugen Tag File",
    "version": 1
  },
  "tag": {
    "aliases": [
      "Alinvest"
    ],
    "i18n": {
      "eng": "Alessandra Valeri-Manera",
      "ita": "Alessandra Valeri-Manera"
    },
    "modified_at": "2021-10-15T21:33:24.367Z",
    "name": "Alessandra Valeri-Manera",
    "repository": "kara.moe",
    "tid": "64a8cccb-769f-430d-b1d4-2073b0c52701",
    "types": [
      "songwriters",
      "8"
    ]
  }
}