{
  "header": {
    "description": "Karaoke Mugen Tag File",
    "version": 1
  },
  "tag": {
    "i18n": {
      "eng": "Alex Bilowitz"
    },
    "name": "Alex Bilowitz",
    "repository": "kara.moe",
    "tid": "fafc482d-01c9-4714-abd0-53c4b1274c0a",
    "types": [
      "songwriters",
      "8"
    ]
  }
}