{
  "header": {
    "description": "Karaoke Mugen Tag File",
    "version": 1
  },
  "tag": {
    "i18n": {
      "eng": "Alexis"
    },
    "modified_at": "2021-04-27T22:38:26.887Z",
    "name": "Alexis",
    "repository": "kara.moe",
    "tid": "82f7beaf-930f-4b01-bef0-0e3994fd7508",
    "types": [
      "songwriters",
      "8"
    ]
  }
}