{
  "header": {
    "description": "Karaoke Mugen Tag File",
    "version": 1
  },
  "tag": {
    "i18n": {
      "eng": "Alexis Kesselman"
    },
    "name": "Alexis Kesselman",
    "repository": "kara.moe",
    "tid": "66588605-54bd-4017-9994-d4a4f69f7e79",
    "types": [
      "songwriters",
      "8"
    ]
  }
}