{
  "header": {
    "description": "Karaoke Mugen Tag File",
    "version": 1
  },
  "tag": {
    "i18n": {
      "eng": "Alexandre Pilot"
    },
    "name": "Alexandre Pilot",
    "tid": "675d8841-9d39-45c8-aa28-d54cc79cef2d",
    "types": [
      "creators",
      "4"
    ],
    "repository": "kara.moe",
    "modified_at": "2020-03-31T19:04:33.432Z"
  }
}