{
  "header": {
    "description": "Karaoke Mugen Tag File",
    "version": 1
  },
  "tag": {
    "i18n": {
      "eng": "AlexTrip Sands"
    },
    "name": "AlexTrip Sands",
    "repository": "kara.moe",
    "tid": "c21c9996-dcba-46c3-b96b-10c40e5c8d3e",
    "types": [
      "songwriters",
      "8"
    ],
    "modified_at": "2020-03-31T19:04:33.436Z"
  }
}