{
  "header": {
    "description": "Karaoke Mugen Tag File",
    "version": 1
  },
  "tag": {
    "i18n": {
      "eng": "Alexandre Révérend"
    },
    "name": "Alexandre Révérend",
    "tid": "202e6d8e-cfd2-4a94-9f46-b2409e2174ac",
    "types": [
      "songwriters",
      "8"
    ],
    "repository": "kara.moe",
    "modified_at": "2020-03-31T19:04:33.433Z"
  }
}