{
  "header": {
    "description": "Karaoke Mugen Tag File",
    "version": 1
  },
  "tag": {
    "i18n": {
      "eng": "Alex Kidd in Miracle World",
      "jpn": "アレックスキッドのミラクルワールド",
      "qro": "Alex Kidd in Miracle World"
    },
    "modified_at": "2020-03-31T19:04:30.929Z",
    "name": "Alex Kidd in Miracle World",
    "repository": "kara.moe",
    "tid": "bd800393-49f9-41c6-b93e-1c393c123124",
    "types": [
      "series",
      "1"
    ]
  }
}