{
  "header": {
    "description": "Karaoke Mugen Tag File",
    "version": 1
  },
  "tag": {
    "i18n": {
      "eng": "Alexandre"
    },
    "name": "Alexandre",
    "tid": "9bc8879f-b503-4f5c-99de-0f952c44fdf5",
    "types": [
      "singers",
      "2"
    ],
    "repository": "kara.moe",
    "modified_at": "2020-03-31T19:04:33.434Z"
  }
}