{
  "header": {
    "description": "Karaoke Mugen Tag File",
    "version": 1
  },
  "tag": {
    "i18n": {
      "eng": "Alexandre Gibert"
    },
    "name": "Alexandre Gibert",
    "tid": "6bf7b8ae-6ea3-4ba4-b0d1-5fcacb67e56e",
    "types": [
      "songwriters",
      "8"
    ],
    "repository": "kara.moe",
    "modified_at": "2020-03-31T19:04:33.431Z"
  }
}