{
  "header": {
    "description": "Karaoke Mugen Tag File",
    "version": 1
  },
  "tag": {
    "i18n": {
      "eng": "Alfakyun.",
      "jpn": "＋α／あるふぁきゅん。"
    },
    "name": "Alfakyun.",
    "repository": "kara.moe",
    "tid": "89c72acd-c888-4f27-b06c-1e9165b0df73",
    "types": [
      "singers",
      "2"
    ]
  }
}