{
  "header": {
    "description": "Karaoke Mugen Tag File",
    "version": 1
  },
  "tag": {
    "i18n": {
      "eng": "Ali Tamposi"
    },
    "modified_at": "2021-09-12T12:00:37.453Z",
    "name": "Ali Tamposi",
    "repository": "kara.moe",
    "tid": "caf001aa-91c2-4863-ba03-25aeea1162b3",
    "types": [
      "songwriters",
      "8"
    ]
  }
}