{
  "header": {
    "description": "Karaoke Mugen Tag File",
    "version": 1
  },
  "tag": {
    "i18n": {
      "eng": "Ali Tabatabaee"
    },
    "name": "Ali Tabatabaee",
    "repository": "kara.moe",
    "tid": "c94b0508-4f0e-4732-a7c1-af01fe8b1eae",
    "types": [
      "singers",
      "2"
    ]
  }
}