{
  "header": {
    "description": "Karaoke Mugen Tag File",
    "version": 1
  },
  "tag": {
    "i18n": {
      "eng": "ALiCE'S EMOTION"
    },
    "name": "ALiCE'S EMOTION",
    "repository": "kara.moe",
    "tid": "dc79d9df-3904-4772-8785-48ad1e332a60",
    "types": [
      "creators",
      "4"
    ]
  }
}