{
  "header": {
    "description": "Karaoke Mugen Tag File",
    "version": 1
  },
  "tag": {
    "i18n": {
      "eng": "Alisa"
    },
    "name": "Alisa",
    "repository": "kara.moe",
    "tid": "ec05d0a1-6040-4c1e-804f-9d6de3bf8dc3",
    "types": [
      "singers",
      "2"
    ],
    "modified_at": "2020-03-31T19:04:33.447Z"
  }
}