{
  "header": {
    "description": "Karaoke Mugen Tag File",
    "version": 1
  },
  "tag": {
    "aliases": [
      "Alps no Shoujo Heidi",
      "De Avonturen Van Heidi",
      "Heidi la fille des Alpes",
      "Heidi: Girl of the Alps",
      "shoujo"
    ],
    "external_database_ids": {
      "anilist": 2225,
      "myanimelist": 2225,
      "kitsu": 2016
    },
    "i18n": {
      "ara": "هايدي",
      "cat": "Heidi",
      "dut": "Heidi",
      "eng": "Heidi: Girl of the Alps",
      "fre": "Heidi",
      "ger": "Heidi",
      "gre": "Χάιντι",
      "hun": "Heidi",
      "ice": "Heiða í Ölpunum",
      "ita": "Heidi",
      "jpn": "アルプスの少女ハイジ",
      "per": "هایدی، دختر آلپ",
      "pol": "Heidi",
      "por": "Heidi",
      "rum": "Heidi",
      "rus": "Хайди - девочка Альп",
      "spa": "Heidi",
      "tur": "Heidi",
      "ukr": "Хайді",
      "qro": "Alps no Shôjo Heidi"
    },
    "modified_at": "2020-06-21T23:45:31.966Z",
    "name": "Alps no Shôjo Heidi",
    "repository": "kara.moe",
    "tid": "3b31f226-4f50-46af-82b9-1d5037f931bf",
    "types": [
      "series",
      "1"
    ]
  }
}