{
  "header": {
    "description": "Karaoke Mugen Tag File",
    "version": 1
  },
  "tag": {
    "i18n": {
      "eng": "Alternative",
      "fre": "Alternative"
    },
    "modified_at": "2021-04-12T19:28:20.030Z",
    "name": "Alternative",
    "priority": 2,
    "repository": "kara.moe",
    "tid": "9f63c359-d1bf-425a-bcf5-b245c2c9211d",
    "types": [
      "versions",
      "14"
    ]
  }
}