{
  "header": {
    "description": "Karaoke Mugen Tag File",
    "version": 1
  },
  "tag": {
    "i18n": {
      "eng": "ALvino"
    },
    "name": "ALvino",
    "tid": "f208ac63-d935-40d8-aca1-dd1207143698",
    "types": [
      "singers",
      "2"
    ],
    "repository": "kara.moe",
    "modified_at": "2020-03-31T19:04:33.452Z"
  }
}