{
  "header": {
    "description": "Karaoke Mugen Tag File",
    "version": 1
  },
  "tag": {
    "i18n": {
      "eng": "amadas"
    },
    "name": "amadas",
    "repository": "kara.moe",
    "tid": "87e23592-d710-4a2d-a639-57841a348aaa",
    "types": [
      "authors",
      "6"
    ]
  }
}