{
  "header": {
    "description": "Karaoke Mugen Tag File",
    "version": 1
  },
  "tag": {
    "aliases": [
      "Amaburi",
      "amaburi",
      "甘ブリ",
      "아마기"
    ],
    "external_database_ids": {
      "anilist": 20602,
      "myanimelist": 22147,
      "kitsu": 8259
    },
    "i18n": {
      "chi": "甘城光辉游乐园",
      "eng": "Amagi Brilliant Park",
      "jpn": "甘城ブリリアントパーク",
      "kor": "아마기 브릴리언트 파크",
      "pol": "Cudowny Park Amagi",
      "qro": "Amagi Brilliant Park"
    },
    "modified_at": "2020-03-31T19:04:30.936Z",
    "name": "Amagi Brilliant Park",
    "repository": "kara.moe",
    "tid": "043eda5d-0a8b-42c9-a420-f6e23875b4be",
    "types": [
      "series",
      "1"
    ]
  }
}