{
  "header": {
    "description": "Karaoke Mugen Tag File",
    "version": 1
  },
  "tag": {
    "aliases": [
      "Amagami SS Plus",
      "ss plus"
    ],
    "external_database_ids": {
      "anilist": 11235,
      "myanimelist": 11235,
      "kitsu": 6478
    },
    "i18n": {
      "eng": "Amagami SS +Plus",
      "jpn": "アマガミSS+ plus",
      "qro": "Amagami SS+"
    },
    "modified_at": "2020-03-31T19:04:30.935Z",
    "name": "Amagami SS+",
    "repository": "kara.moe",
    "tid": "a1549e21-d3a8-4bbe-a2a1-27abb4a8515f",
    "types": [
      "series",
      "1"
    ]
  }
}