{
  "header": {
    "description": "Karaoke Mugen Tag File",
    "version": 1
  },
  "tag": {
    "i18n": {
      "eng": "AmaLee"
    },
    "name": "AmaLee",
    "repository": "kara.moe",
    "tid": "ecbb40c4-6ea6-4cb0-8a79-0482b8d07484",
    "types": [
      "singers",
      "2"
    ]
  }
}