{
  "header": {
    "description": "Karaoke Mugen Tag File",
    "version": 1
  },
  "tag": {
    "i18n": {
      "eng": "Amamiya Iori"
    },
    "name": "Amamiya Iori",
    "repository": "kara.moe",
    "tid": "bd55e82a-52a5-4fe7-bbdf-b34ea53429a6",
    "types": [
      "singers",
      "2"
    ]
  }
}