{
  "header": {
    "description": "Karaoke Mugen Tag File",
    "version": 1
  },
  "tag": {
    "i18n": {
      "eng": "Amane",
      "jpn": "あまね"
    },
    "name": "Amane",
    "repository": "kara.moe",
    "tid": "8863c512-04a6-4bba-be93-14c824fba970",
    "types": [
      "singers",
      "2"
    ]
  }
}