{
  "header": {
    "description": "Karaoke Mugen Tag File",
    "version": 1
  },
  "tag": {
    "aliases": [
      "Ameiro Cocoa"
    ],
    "external_database_ids": {
      "anilist": 21054,
      "myanimelist": 28981,
      "kitsu": 10095
    },
    "i18n": {
      "eng": "Rainy Cocoa",
      "fre": "Ame-iro Cocoa",
      "jpn": "雨色ココア",
      "qro": "Ame-iro Cocoa"
    },
    "modified_at": "2020-03-31T19:04:30.942Z",
    "name": "Ame-iro Cocoa",
    "repository": "kara.moe",
    "tid": "460e8e0f-1efa-4b32-850e-d93d2d765470",
    "types": [
      "series",
      "1",
      "franchises",
      "18"
    ]
  }
}