{
  "header": {
    "description": "Karaoke Mugen Tag File",
    "version": 1
  },
  "tag": {
    "i18n": {
      "eng": "Amebiyori",
      "jpn": "飴日和"
    },
    "name": "Amebiyori",
    "repository": "kara.moe",
    "tid": "e9608e46-f98d-41e7-b324-36a6188a6b73",
    "types": [
      "creators",
      "4"
    ]
  }
}