{
  "header": {
    "description": "Karaoke Mugen Tag File",
    "version": 1
  },
  "tag": {
    "i18n": {
      "eng": "Ami Koshimizu"
    },
    "name": "Ami Koshimizu",
    "tid": "211358f7-a5b2-4722-b95e-b20c53fda4c5",
    "types": [
      "singers",
      "2"
    ],
    "repository": "kara.moe",
    "modified_at": "2020-03-31T19:04:33.459Z"
  }
}