{
  "header": {
    "description": "Karaoke Mugen Tag File",
    "version": 1
  },
  "tag": {
    "aliases": [
      "アムネシア V"
    ],
    "i18n": {
      "eng": "Amnesia: Memories",
      "jpn": "AMNESIA V",
      "qro": "Amnesia: Memories (V Edition)"
    },
    "modified_at": "2020-03-31T19:04:30.944Z",
    "name": "Amnesia: Memories (V Edition)",
    "repository": "kara.moe",
    "tid": "2a44eab2-041f-4a20-832b-c3804efbb808",
    "types": [
      "series",
      "1"
    ]
  }
}