{
  "header": {
    "description": "Karaoke Mugen Tag File",
    "version": 1
  },
  "tag": {
    "i18n": {
      "eng": "amoethyst"
    },
    "name": "amoethyst",
    "tid": "f7ce702e-09aa-4b22-8742-0c99cd7a5409",
    "types": [
      "authors",
      "6"
    ],
    "repository": "kara.moe",
    "modified_at": "2020-03-31T19:04:33.468Z"
  }
}