{
  "header": {
    "description": "Karaoke Mugen Tag File",
    "version": 1
  },
  "tag": {
    "i18n": {
      "eng": "AmPm"
    },
    "modified_at": "2020-04-14T10:47:48.938Z",
    "name": "AmPm",
    "repository": "kara.moe",
    "tid": "9f0f4821-4400-4b2d-b077-89fd0add2486",
    "types": [
      "songwriters",
      "8"
    ]
  }
}