{
  "header": {
    "description": "Karaoke Mugen Tag File",
    "version": 1
  },
  "tag": {
    "aliases": [
      "Projet Asylum",
      "AMV Hell",
      "Un AMV Français",
      "AMV Céleste"
    ],
    "i18n": {
      "fre": "AMV Enfer 2"
    },
    "modified_at": "2021-06-05T21:57:35.278Z",
    "name": "AMV Enfer 2",
    "repository": "kara.moe",
    "tid": "b6570038-246b-4412-afd8-cb7f8979b010",
    "types": [
      "series",
      "1"
    ]
  }
}