{
  "header": {
    "description": "Karaoke Mugen Tag File",
    "version": 1
  },
  "tag": {
    "aliases": [
      "AMV Enfer",
      "AMV Céleste",
      "Un AMV Français"
    ],
    "i18n": {
      "eng": "AMV Hell 4"
    },
    "modified_at": "2021-06-05T21:57:56.125Z",
    "name": "AMV Hell 4",
    "repository": "kara.moe",
    "tid": "ddbf8e25-a024-4f70-8cc3-17bf11bf202e",
    "types": [
      "series",
      "1"
    ]
  }
}