{
  "header": {
    "description": "Karaoke Mugen Tag File",
    "version": 1
  },
  "tag": {
    "i18n": {
      "eng": "Amy Lee"
    },
    "modified_at": "2020-07-11T22:51:17.275Z",
    "name": "Amy Lee",
    "repository": "kara.moe",
    "tid": "bc804657-5e10-4748-8336-1e4d9e3b3cc0",
    "types": [
      "songwriters",
      "8"
    ]
  }
}