{
  "header": {
    "description": "Karaoke Mugen Tag File",
    "version": 1
  },
  "tag": {
    "i18n": {
      "eng": "Anan Khayyat"
    },
    "modified_at": "2020-10-18T01:25:20.182Z",
    "name": "Anan Khayyat",
    "repository": "kara.moe",
    "tid": "f06aacbf-2f1e-464f-bea5-4f45e04612b4",
    "types": [
      "singers",
      "2"
    ]
  }
}