{
  "header": {
    "description": "Karaoke Mugen Tag File",
    "version": 1
  },
  "tag": {
    "i18n": {
      "eng": "ANANT-GARDE EYES"
    },
    "modified_at": "2020-05-02T22:06:00.511Z",
    "name": "ANANT-GARDE EYES",
    "repository": "kara.moe",
    "tid": "7946300b-bf93-4f15-8dac-e6d0dc34f36f",
    "types": [
      "songwriters",
      "8"
    ]
  }
}