{
  "header": {
    "description": "Karaoke Mugen Tag File",
    "version": 1
  },
  "tag": {
    "i18n": {
      "eng": "Anders Hellgren"
    },
    "name": "Anders Hellgren",
    "tid": "61b9e64e-da3f-46b6-9918-ebf6417843b3",
    "types": [
      "songwriters",
      "8"
    ],
    "repository": "kara.moe",
    "modified_at": "2020-03-31T19:04:33.479Z"
  }
}