{
  "header": {
    "description": "Karaoke Mugen Tag File",
    "version": 1
  },
  "tag": {
    "i18n": {
      "eng": "Anders Froen"
    },
    "name": "Anders Froen",
    "repository": "kara.moe",
    "tid": "fd6524b3-89d6-4e8e-962a-e0d60378c6ca",
    "types": [
      "songwriters",
      "8"
    ]
  }
}