{
  "header": {
    "description": "Karaoke Mugen Tag File",
    "version": 1
  },
  "tag": {
    "i18n": {
      "eng": "Andrea Lo Vecchio"
    },
    "modified_at": "2021-05-18T20:21:55.962Z",
    "name": "Andrea Lo Vecchio",
    "repository": "kara.moe",
    "tid": "12047392-db62-4c41-9e0f-39549f33f120",
    "types": [
      "songwriters",
      "8",
      "singers",
      "2"
    ]
  }
}