{
  "header": {
    "description": "Karaoke Mugen Tag File",
    "version": 1
  },
  "tag": {
    "i18n": {
      "eng": "André Valmy"
    },
    "name": "André Valmy",
    "repository": "kara.moe",
    "tid": "01157240-1563-41e0-a411-bab53da5b3e3",
    "types": [
      "singers",
      "2"
    ]
  }
}