{
  "header": {
    "description": "Karaoke Mugen Tag File",
    "version": 1
  },
  "tag": {
    "i18n": {
      "eng": "Andrea Libman"
    },
    "modified_at": "2020-05-22T23:54:00.050Z",
    "name": "Andrea Libman",
    "repository": "kara.moe",
    "tid": "b9db117e-a5a0-4754-a8b3-19f5c926bc7f",
    "types": [
      "singers",
      "2"
    ]
  }
}