{
  "header": {
    "description": "Karaoke Mugen Tag File",
    "version": 1
  },
  "tag": {
    "i18n": {
      "eng": "André Maia"
    },
    "name": "André Maia",
    "repository": "kara.moe",
    "tid": "fbf67c24-1d88-4cc6-8a51-65fee63f8c84",
    "types": [
      "singers",
      "2"
    ]
  }
}