{
  "header": {
    "description": "Karaoke Mugen Tag File",
    "version": 1
  },
  "tag": {
    "i18n": {
      "eng": "Andra"
    },
    "name": "Andra",
    "repository": "kara.moe",
    "tid": "d2312014-a9c4-41e1-82c0-fe964b5bc4c6",
    "types": [
      "creators",
      "4"
    ]
  }
}