{
  "header": {
    "description": "Karaoke Mugen Tag File",
    "version": 1
  },
  "tag": {
    "i18n": {
      "eng": "Andrea Wagner"
    },
    "name": "Andrea Wagner",
    "repository": "kara.moe",
    "tid": "4e8c5781-ae98-4f17-b2b1-625a9663979c",
    "types": [
      "songwriters",
      "8"
    ]
  }
}