{
  "header": {
    "description": "Karaoke Mugen Tag File",
    "version": 1
  },
  "tag": {
    "i18n": {
      "eng": "Andy"
    },
    "name": "Andy",
    "tid": "25dc1c72-27d7-4969-972f-9e221d7329b0",
    "types": [
      "singers",
      "2"
    ],
    "repository": "kara.moe",
    "modified_at": "2020-03-31T19:04:33.484Z"
  }
}