{
  "header": {
    "description": "Karaoke Mugen Tag File",
    "version": 1
  },
  "tag": {
    "i18n": {
      "eng": "Andy Bell"
    },
    "modified_at": "2020-07-03T20:55:39.673Z",
    "name": "Andy Bell",
    "repository": "kara.moe",
    "tid": "0eace9c7-0f84-4013-8d6f-6651dc251bce",
    "types": [
      "songwriters",
      "8"
    ]
  }
}