{
  "header": {
    "description": "Karaoke Mugen Tag File",
    "version": 1
  },
  "tag": {
    "i18n": {
      "eng": "angela"
    },
    "name": "angela",
    "tid": "78d91182-ac66-49fb-9561-1d330667d6c4",
    "types": [
      "singers",
      "2"
    ],
    "repository": "kara.moe",
    "modified_at": "2020-03-31T19:04:33.487Z"
  }
}