{
  "header": {
    "description": "Karaoke Mugen Tag File",
    "version": 1
  },
  "tag": {
    "i18n": {
      "eng": "Angel Smile"
    },
    "name": "Angel Smile",
    "tid": "f79eba63-567f-42b3-81df-3c2f927d31a8",
    "types": [
      "creators",
      "4"
    ],
    "repository": "kara.moe",
    "modified_at": "2020-03-31T19:04:33.486Z"
  }
}