{
  "header": {
    "description": "Karaoke Mugen Tag File",
    "version": 1
  },
  "tag": {
    "i18n": {
      "eng": "AngelXC"
    },
    "name": "AngelXC",
    "repository": "kara.moe",
    "tid": "4c76be02-5a14-486e-ab53-5caaa8f77751",
    "types": [
      "authors",
      "6"
    ]
  }
}