{
  "header": {
    "description": "Karaoke Mugen Tag File",
    "version": 1
  },
  "tag": {
    "i18n": {
      "eng": "Anila Mirza"
    },
    "name": "Anila Mirza",
    "tid": "4ae1a27b-ae30-431d-aa1e-a8f726ec4da0",
    "types": [
      "singers",
      "2"
    ],
    "repository": "kara.moe",
    "modified_at": "2020-03-31T19:04:33.489Z"
  }
}