{
  "header": {
    "description": "Karaoke Mugen Tag File",
    "version": 1
  },
  "tag": {
    "aliases": [
      "animegataris",
      "Аниме истории"
    ],
    "external_database_ids": {
      "anilist": 98607,
      "myanimelist": 35427,
      "kitsu": 13699
    },
    "i18n": {
      "eng": "Anime-Gataris",
      "jpn": "アニメガタリズ",
      "kor": "애니메 가타리즈",
      "qro": "Anime-Gataris"
    },
    "modified_at": "2020-03-31T19:04:30.957Z",
    "name": "Anime-Gataris",
    "repository": "kara.moe",
    "tid": "e51079fa-12e1-4ff3-a469-a27dfec5dd0d",
    "types": [
      "series",
      "1"
    ]
  }
}