{
  "header": {
    "description": "Karaoke Mugen Tag File",
    "version": 1
  },
  "tag": {
    "i18n": {
      "eng": "Anison Generation"
    },
    "name": "Anison Generation",
    "tid": "c1a2ca30-4f96-42eb-a19f-7a8b1c7e9a2c",
    "types": [
      "songwriters",
      "8"
    ],
    "repository": "kara.moe",
    "modified_at": "2020-03-31T19:04:33.494Z"
  }
}