{
  "header": {
    "description": "Karaoke Mugen Tag File",
    "version": 1
  },
  "tag": {
    "i18n": {
      "eng": "annapantsu"
    },
    "name": "annapantsu",
    "repository": "kara.moe",
    "tid": "e402083a-9789-4e16-9212-62d09770439f",
    "types": [
      "creators",
      "4",
      "singers",
      "2"
    ]
  }
}