{
  "header": {
    "description": "Karaoke Mugen Tag File",
    "version": 1
  },
  "tag": {
    "i18n": {
      "eng": "Anna Suzuki"
    },
    "modified_at": "2021-12-09T10:52:06.223Z",
    "name": "Anna Suzuki",
    "repository": "kara.moe",
    "tid": "12db86c4-7463-4267-9808-4e99fa0b5339",
    "types": [
      "singers",
      "2"
    ]
  }
}