{
  "header": {
    "description": "Karaoke Mugen Tag File",
    "version": 1
  },
  "tag": {
    "i18n": {
      "eng": "Anna Kendrick"
    },
    "name": "Anna Kendrick",
    "repository": "kara.moe",
    "tid": "b6fb2a60-34f3-4ab4-a1c5-2a59629171b5",
    "types": [
      "singers",
      "2"
    ]
  }
}