{
  "header": {
    "description": "Karaoke Mugen Tag File",
    "version": 1
  },
  "tag": {
    "i18n": {
      "eng": "Annabel"
    },
    "name": "Annabel",
    "tid": "a73335e3-1229-47e6-b17b-33f4fe647afe",
    "types": [
      "songwriters",
      "8",
      "singers",
      "2"
    ],
    "repository": "kara.moe",
    "modified_at": "2020-03-31T19:04:33.500Z"
  }
}