{
  "header": {
    "description": "Karaoke Mugen Tag File",
    "version": 1
  },
  "tag": {
    "i18n": {
      "eng": "Anneli"
    },
    "modified_at": "2020-07-15T22:04:12.913Z",
    "name": "Anneli",
    "repository": "kara.moe",
    "tid": "ace638c2-9eb5-49ae-a644-7348823a08da",
    "types": [
      "songwriters",
      "8"
    ]
  }
}