{
  "header": {
    "description": "Karaoke Mugen Tag File",
    "version": 1
  },
  "tag": {
    "i18n": {
      "eng": "Anri"
    },
    "name": "Anri",
    "tid": "b3c9c7eb-5d83-4f10-84ee-53dbc81786f2",
    "types": [
      "singers",
      "2"
    ],
    "repository": "kara.moe",
    "modified_at": "2020-03-31T19:04:33.508Z"
  }
}