{
  "header": {
    "description": "Karaoke Mugen Tag File",
    "version": 1
  },
  "tag": {
    "i18n": {
      "eng": "Antony Manley"
    },
    "modified_at": "2021-01-19T21:27:16.762Z",
    "name": "Antony Manley",
    "repository": "kara.moe",
    "tid": "44373887-0e92-4d36-8d1e-39c56db8b7ff",
    "types": [
      "creators",
      "4"
    ]
  }
}