{
  "header": {
    "description": "Karaoke Mugen Tag File",
    "version": 1
  },
  "tag": {
    "i18n": {
      "eng": "Antonina Armato"
    },
    "modified_at": "2021-11-13T12:57:40.443Z",
    "name": "Antonina Armato",
    "repository": "kara.moe",
    "tid": "dd9ef0d9-9966-453d-98ad-97c132d3f22f",
    "types": [
      "songwriters",
      "8"
    ]
  }
}