{
  "header": {
    "description": "Karaoke Mugen Tag File",
    "version": 1
  },
  "tag": {
    "i18n": {
      "eng": "Anya Melfissa"
    },
    "modified_at": "2021-08-17T19:44:21.550Z",
    "name": "Anya Melfissa",
    "repository": "kara.moe",
    "tid": "3ea8c428-f5c9-44f2-89e9-ee813f154cb4",
    "types": [
      "singers",
      "2"
    ]
  }
}