{
  "header": {
    "description": "Karaoke Mugen Tag File",
    "version": 1
  },
  "tag": {
    "i18n": {
      "eng": "ANZA"
    },
    "name": "ANZA",
    "tid": "d9a55a6a-d191-47d5-80fd-e326593e0171",
    "types": [
      "singers",
      "2"
    ],
    "repository": "kara.moe",
    "modified_at": "2020-03-31T19:04:33.513Z"
  }
}