{
  "header": {
    "description": "Karaoke Mugen Tag File",
    "version": 1
  },
  "tag": {
    "i18n": {
      "eng": "Anzen Chitai"
    },
    "name": "Anzen Chitai",
    "tid": "b0c62f68-66c3-4cac-a1d0-d33aa3e0cbea",
    "types": [
      "singers",
      "2"
    ],
    "repository": "kara.moe",
    "modified_at": "2020-03-31T19:04:33.513Z"
  }
}