{
  "header": {
    "description": "Karaoke Mugen Tag File",
    "version": 1
  },
  "tag": {
    "i18n": {
      "eng": "Anzu Haruno"
    },
    "name": "Anzu Haruno",
    "tid": "da23cf70-c52c-443c-93c4-0e256facd980",
    "types": [
      "singers",
      "2"
    ],
    "repository": "kara.moe",
    "modified_at": "2020-03-31T19:04:33.515Z"
  }
}