{
  "header": {
    "description": "Karaoke Mugen Tag File",
    "version": 1
  },
  "tag": {
    "i18n": {
      "eng": "Ao Takahashi"
    },
    "name": "Ao Takahashi",
    "tid": "19d92d0e-df8d-4409-b82b-dc2edb4f1350",
    "types": [
      "singers",
      "2"
    ],
    "repository": "kara.moe",
    "modified_at": "2020-03-31T19:04:33.515Z"
  }
}