{
  "header": {
    "description": "Karaoke Mugen Tag File",
    "version": 1
  },
  "tag": {
    "i18n": {
      "eng": "AO"
    },
    "name": "AO",
    "tid": "4eadbe82-995d-4522-baa8-46538c74af49",
    "types": [
      "songwriters",
      "8"
    ],
    "repository": "kara.moe",
    "modified_at": "2020-03-31T19:04:33.516Z"
  }
}