{
  "header": {
    "description": "Karaoke Mugen Tag File",
    "version": 1
  },
  "tag": {
    "i18n": {
      "eng": "Aoi Koga"
    },
    "name": "Aoi Koga",
    "tid": "e8386ce8-5597-4605-b028-fb899064a78c",
    "types": [
      "singers",
      "2"
    ],
    "repository": "kara.moe",
    "modified_at": "2020-03-31T19:04:33.518Z"
  }
}