{
  "header": {
    "description": "Karaoke Mugen Tag File",
    "version": 1
  },
  "tag": {
    "i18n": {
      "eng": "Aoi Hana"
    },
    "name": "Aoi Hana",
    "repository": "kara.moe",
    "tid": "acce9b52-21bb-4184-9e16-f8b57399bc78",
    "types": [
      "singers",
      "2"
    ]
  }
}