{
  "header": {
    "description": "Karaoke Mugen Tag File",
    "version": 1
  },
  "tag": {
    "i18n": {
      "eng": "Aoi Tada"
    },
    "name": "Aoi Tada",
    "tid": "97d99ae1-5be4-420e-8400-96b47ae9dad3",
    "types": [
      "singers",
      "2"
    ],
    "repository": "kara.moe",
    "modified_at": "2020-03-31T19:04:33.520Z"
  }
}