{
  "header": {
    "description": "Karaoke Mugen Tag File",
    "version": 1
  },
  "tag": {
    "i18n": {
      "eng": "Apink"
    },
    "name": "Apink",
    "tid": "e347f2d7-3609-4f49-a0f1-d2ba18ba6bfc",
    "types": [
      "singers",
      "2",
      "songwriters",
      "8"
    ],
    "repository": "kara.moe",
    "modified_at": "2020-03-31T19:04:33.526Z"
  }
}