{
  "header": {
    "description": "Karaoke Mugen Tag File",
    "version": 1
  },
  "tag": {
    "i18n": {
      "eng": " aqu3ra"
    },
    "name": " aqu3ra",
    "repository": "kara.moe",
    "tid": "68d46994-71da-477d-a368-ddf6105a50f8",
    "types": [
      "songwriters",
      "8"
    ]
  }
}