{
  "header": {
    "description": "Karaoke Mugen Tag File",
    "version": 1
  },
  "tag": {
    "external_database_ids": {
      "anilist": 21115,
      "myanimelist": 30382,
      "kitsu": 10764
    },
    "i18n": {
      "eng": "Aquarion Logos",
      "jpn": "アクエリオンロゴス",
      "qro": "Aquarion Logos"
    },
    "modified_at": "2020-03-31T19:04:30.974Z",
    "name": "Aquarion Logos",
    "repository": "kara.moe",
    "tid": "25723b1c-fb7f-4844-ab4f-e75dac608492",
    "types": [
      "series",
      "1"
    ]
  }
}