{
  "header": {
    "description": "Karaoke Mugen Tag File",
    "version": 1
  },
  "tag": {
    "aliases": [
      "Ar Tonelico 3: Sekai Shuuen no Hikigane wa Shoujo no Uta ga Hiku",
      "Ar tonelico 3: The Girl's Song that Pulls the Trigger of World's Demise",
      "Ar-Tonelico 3",
      "ar tonelico 3",
      "shuuen",
      "shoujo"
    ],
    "i18n": {
      "eng": "Ar tonelico Qoga: Knell of Ar Ciel",
      "jpn": "アルトネリコ3 世界終焉の引鉄は少女の詩が弾く",
      "qro": "Ar Tonelico 3: Sekai Shûen no Hikigane wa Shôjo no Uta ga Hiku"
    },
    "modified_at": "2020-03-31T19:04:30.975Z",
    "name": "Ar Tonelico 3: Sekai Shûen no Hikigane wa Shôjo no Uta ga Hiku",
    "repository": "kara.moe",
    "tid": "317e4e95-f03e-4b56-ba18-7f744f9cb1e8",
    "types": [
      "series",
      "1"
    ]
  }
}