{
  "header": {
    "description": "Karaoke Mugen Tag File",
    "version": 1
  },
  "tag": {
    "aliases": [
      "The Girl Who Sings at the End of the World",
      "shoujo"
    ],
    "i18n": {
      "eng": "Ar tonelico: Melody of Elemia",
      "jpn": "アルトネリコ 世界の終わりで詩い続ける少女",
      "bul": "Ар Тонелико: Момичето което пее накрая на света",
      "qro": "Ar tonelico: Sekai no Owari de Utai Tsuzukeru Shôjo"
    },
    "modified_at": "2020-03-31T19:04:30.977Z",
    "name": "Ar tonelico: Sekai no Owari de Utai Tsuzukeru Shôjo",
    "repository": "kara.moe",
    "tid": "364866c7-95a6-4d74-8c35-68452448e1d0",
    "types": [
      "series",
      "1"
    ]
  }
}