{
  "header": {
    "description": "Karaoke Mugen Tag File",
    "version": 1
  },
  "tag": {
    "i18n": {
      "eng": "Araki"
    },
    "name": "Araki",
    "tid": "1926b85b-ec5a-4b57-ac70-c64f75652e0d",
    "types": [
      "singers",
      "2"
    ],
    "repository": "kara.moe",
    "modified_at": "2020-03-31T19:04:33.531Z"
  }
}