{
  "header": {
    "description": "Karaoke Mugen Tag File",
    "version": 1
  },
  "tag": {
    "aliases": [
      "Arata: The Legend"
    ],
    "external_database_ids": {
      "anilist": 16518,
      "myanimelist": 16518,
      "kitsu": 7448
    },
    "i18n": {
      "dut": "Arata The Legend",
      "eng": "Arata: The Legend",
      "fre": "Arata",
      "jpn": "アラタカンガタリ ~革神語~",
      "qro": "Arata Kangatari"
    },
    "modified_at": "2020-03-31T19:04:30.980Z",
    "name": "Arata Kangatari",
    "repository": "kara.moe",
    "tid": "db436e38-c885-485f-bac9-96a21dfd36fc",
    "types": [
      "series",
      "1"
    ]
  }
}