{
  "header": {
    "description": "Karaoke Mugen Tag File",
    "version": 1
  },
  "tag": {
    "i18n": {
      "eng": "ARC SYSTEM WORKS"
    },
    "name": "ARC SYSTEM WORKS",
    "tid": "f068c907-7440-4e21-9667-1b905a7dbf23",
    "types": [
      "creators",
      "4"
    ],
    "repository": "kara.moe",
    "modified_at": "2020-03-31T19:04:33.532Z"
  }
}