{
  "header": {
    "description": "Karaoke Mugen Tag File",
    "version": 1
  },
  "tag": {
    "i18n": {
      "eng": "Arcane: League of Legends"
    },
    "modified_at": "2021-11-13T12:57:40.441Z",
    "name": "Arcane: League of Legends",
    "repository": "kara.moe",
    "tid": "72381acc-375b-4d40-81b1-3199f7007f83",
    "types": [
      "series",
      "1"
    ]
  }
}