{
  "header": {
    "description": "Karaoke Mugen Tag File",
    "version": 1
  },
  "tag": {
    "i18n": {
      "eng": "ARCHITECT"
    },
    "name": "ARCHITECT",
    "tid": "a23a5b09-8857-411c-8e73-005975dad0bf",
    "types": [
      "songwriters",
      "8"
    ],
    "repository": "kara.moe",
    "modified_at": "2020-03-31T19:04:33.533Z"
  }
}