{
  "header": {
    "description": "Karaoke Mugen Tag File",
    "version": 1
  },
  "tag": {
    "i18n": {
      "eng": "archist2357"
    },
    "modified_at": "2021-02-18T22:58:34.901Z",
    "name": "archist2357",
    "repository": "kara.moe",
    "tid": "b7205b9f-1861-44cd-ba20-b78a3f144b88",
    "types": [
      "creators",
      "4"
    ]
  }
}