{
  "header": {
    "description": "Karaoke Mugen Tag File",
    "version": 1
  },
  "tag": {
    "i18n": {
      "eng": "ARI"
    },
    "name": "ARI",
    "tid": "345dbcb8-ae05-446c-8979-fae8b8adc682",
    "types": [
      "songwriters",
      "8"
    ],
    "repository": "kara.moe",
    "modified_at": "2020-03-31T19:04:33.536Z"
  }
}