{
  "header": {
    "description": "Karaoke Mugen Tag File",
    "version": 1
  },
  "tag": {
    "i18n": {
      "eng": "Arikarin"
    },
    "name": "Arikarin",
    "repository": "kara.moe",
    "tid": "efb1b957-5f9c-4e9e-9d0d-1f8abe4238aa",
    "types": [
      "authors",
      "6"
    ]
  }
}