{
  "header": {
    "description": "Karaoke Mugen Tag File",
    "version": 1
  },
  "tag": {
    "i18n": {
      "eng": "Arista Japan"
    },
    "modified_at": "2021-02-20T13:55:38.391Z",
    "name": "Arista Japan",
    "repository": "kara.moe",
    "tid": "951f236c-b4ab-4d0e-9d56-37a23d71a453",
    "types": [
      "creators",
      "4"
    ]
  }
}