{
  "header": {
    "description": "Karaoke Mugen Tag File",
    "version": 1
  },
  "tag": {
    "i18n": {
      "eng": "Arlissa Ruppert"
    },
    "name": "Arlissa Ruppert",
    "repository": "kara.moe",
    "tid": "54f84ebb-0364-468f-8b05-4ae790c9a1e4",
    "types": [
      "songwriters",
      "8"
    ]
  }
}