{
  "header": {
    "description": "Karaoke Mugen Tag File",
    "version": 1
  },
  "tag": {
    "i18n": {
      "eng": "Ars-Magna"
    },
    "name": "Ars-Magna",
    "tid": "6fe50b73-58f5-421c-87c7-26fa6888ef97",
    "types": [
      "singers",
      "2"
    ],
    "repository": "kara.moe",
    "modified_at": "2020-03-31T19:04:33.547Z"
  }
}