{
  "header": {
    "description": "Karaoke Mugen Tag File",
    "version": 1
  },
  "tag": {
    "aliases": [
      "Arislan",
      "Arslan Senki OVA",
      "The Heroic Legend of Arislan - Age of Heroes",
      "The Heroic Legend of Arslan - Age of Heroes",
      "arusen",
      "Героичната легенда за Арислан - Ерата на героите",
      "حماسه ارسلان",
      "アル戦"
    ],
    "external_database_ids": {
      "anilist": 1762,
      "myanimelist": 1762,
      "kitsu": 1582
    },
    "i18n": {
      "ara": "بطولات الأسطورة أرسلان",
      "eng": "The Heroic Legend of Arslan",
      "fre": "Les chroniques d'Arslân",
      "gre": "Ο Ηρωικός Πρίγκιπας Arslan",
      "ita": "La leggenda di Arslan",
      "jpn": "アルスラーン戦記",
      "per": "افسانه ارسلان، شاهزاده پارس",
      "spa": "La Heroica Leyenda de Arslan",
      "qro": "Arslan Senki"
    },
    "modified_at": "2020-06-21T23:45:31.966Z",
    "name": "Arslan Senki",
    "repository": "kara.moe",
    "tid": "dca96d6b-23b3-48e1-8329-e17114803896",
    "types": [
      "series",
      "1",
      "franchises",
      "18"
    ]
  }
}