{
  "header": {
    "description": "Karaoke Mugen Tag File",
    "version": 1
  },
  "tag": {
    "i18n": {
      "eng": "Arthur Murakami"
    },
    "name": "Arthur Murakami",
    "tid": "f1a29012-0118-46f7-b5f5-c4b2a6ade407",
    "types": [
      "songwriters",
      "8"
    ],
    "repository": "kara.moe",
    "modified_at": "2020-03-31T19:04:33.548Z"
  }
}