{
  "header": {
    "description": "Karaoke Mugen Tag File",
    "version": 1
  },
  "tag": {
    "aliases": [
      "Arukara",
      "アルカラ"
    ],
    "description": {
      "jpn": "アルカライダー",
      "qro": "Aruka Rider"
    },
    "i18n": {
      "eng": "Aruka Rider"
    },
    "name": "Aruka Rider",
    "repository": "kara.moe",
    "short": "Arukara",
    "tid": "30b6fe55-0594-4820-8ebe-9da95377ac10",
    "types": [
      "singers",
      "2"
    ]
  }
}