{
  "header": {
    "description": "Karaoke Mugen Tag File",
    "version": 1
  },
  "tag": {
    "aliases": [
      "Yôsei",
      "Mechanized Fairies",
      "Wakate Animator Ikusei Project 2013 3",
      "Young Animator Training Project 2013 3",
      "若手アニメーター育成プロジェクト 2013 3"
    ],
    "external_database_ids": {
      "anilist": 13863,
      "kitsu": 7051,
      "myanimelist": 13863
    },
    "i18n": {
      "eng": "Arve Rezzle: Kikaijikake no Yousei-tachi",
      "jpn": "アルヴ・レズル -機械仕掛けの妖精たち-",
      "qro": "Arve Rezzle: Kikaijikake no Yousei-tachi"
    },
    "name": "Arve Rezzle: Kikaijikake no Yousei-tachi",
    "repository": "kara.moe",
    "tid": "2d44fd21-f318-4ffd-b1fb-808ade1fc85c",
    "types": [
      "series",
      "1"
    ]
  }
}