{
  "header": {
    "description": "Karaoke Mugen Tag File",
    "version": 1
  },
  "tag": {
    "i18n": {
      "eng": "Asa-Chang & Junray"
    },
    "name": "Asa-Chang & Junray",
    "tid": "684aba23-b046-4b0c-a40e-512674043e46",
    "types": [
      "singers",
      "2"
    ],
    "repository": "kara.moe",
    "modified_at": "2020-03-31T19:04:33.552Z"
  }
}