{
  "header": {
    "description": "Karaoke Mugen Tag File",
    "version": 1
  },
  "tag": {
    "i18n": {
      "eng": "Asajimi"
    },
    "name": "Asajimi",
    "tid": "c1d13047-c6ce-4772-a06d-1808fd3d0476",
    "types": [
      "authors",
      "6"
    ],
    "repository": "kara.moe",
    "modified_at": "2020-03-31T19:04:33.554Z"
  }
}