{
  "header": {
    "description": "Karaoke Mugen Tag File",
    "version": 1
  },
  "tag": {
    "i18n": {
      "eng": "Asako"
    },
    "name": "Asako",
    "repository": "kara.moe",
    "tid": "00fc4f1f-a9f2-42ef-9e3e-5f204fac2583",
    "types": [
      "songwriters",
      "8"
    ]
  }
}