{
  "header": {
    "description": "Karaoke Mugen Tag File",
    "version": 1
  },
  "tag": {
    "i18n": {
      "eng": "Asami Seto"
    },
    "name": "Asami Seto",
    "tid": "00671aa0-d38b-445e-bc8e-ae8f5a3fe133",
    "types": [
      "singers",
      "2"
    ],
    "repository": "kara.moe",
    "modified_at": "2020-03-31T19:04:33.559Z"
  }
}