{
  "header": {
    "description": "Karaoke Mugen Tag File",
    "version": 1
  },
  "tag": {
    "i18n": {
      "eng": "Asami Abe",
      "jpn": "安倍 麻美",
      "qro": "Asami Abe"
    },
    "name": "Asami Abe",
    "repository": "kara.moe",
    "tid": "712f239e-c929-4845-9c22-5690f74e68bc",
    "types": [
      "singers",
      "2",
      "songwriters",
      "8"
    ]
  }
}