{
  "header": {
    "description": "Karaoke Mugen Tag File",
    "version": 1
  },
  "tag": {
    "i18n": {
      "eng": "asdFer"
    },
    "modified_at": "2020-05-12T18:22:37.029Z",
    "name": "asdFer",
    "repository": "kara.moe",
    "tid": "1d7745a8-73ea-40bb-ad99-826af98f6e41",
    "types": [
      "authors",
      "6"
    ]
  }
}