{
  "header": {
    "description": "Karaoke Mugen Tag File",
    "version": 1
  },
  "tag": {
    "i18n": {
      "eng": "Ashley Johnson"
    },
    "name": "Ashley Johnson",
    "repository": "kara.moe",
    "tid": "713682b5-e43d-4bb4-8e77-fc2f97dcd843",
    "types": [
      "singers",
      "2"
    ]
  }
}