{
  "header": {
    "description": "Karaoke Mugen Tag File",
    "version": 1
  },
  "tag": {
    "i18n": {
      "eng": "Ashucky"
    },
    "modified_at": "2021-04-27T22:38:26.951Z",
    "name": "Ashucky",
    "repository": "kara.moe",
    "tid": "25879c7f-f2bd-4cad-915b-a3c121e06c03",
    "types": [
      "songwriters",
      "8"
    ]
  }
}