{
  "header": {
    "description": "Karaoke Mugen Tag File",
    "version": 1
  },
  "tag": {
    "i18n": {
      "eng": "Asuka Oda"
    },
    "name": "Asuka Oda",
    "tid": "60c782e0-d553-46c4-a470-bf13b3c88689",
    "types": [
      "songwriters",
      "8"
    ],
    "repository": "kara.moe",
    "modified_at": "2020-03-31T19:04:33.576Z"
  }
}