{
  "header": {
    "description": "Karaoke Mugen Tag File",
    "version": 1
  },
  "tag": {
    "i18n": {
      "eng": "Asuka Oogame"
    },
    "name": "Asuka Oogame",
    "tid": "679cd0f1-ae2a-45c3-8f65-7c985d159520",
    "types": [
      "singers",
      "2"
    ],
    "repository": "kara.moe",
    "modified_at": "2020-03-31T19:04:33.578Z"
  }
}