{
  "header": {
    "description": "Karaoke Mugen Tag File",
    "version": 1
  },
  "tag": {
    "i18n": {
      "eng": "Asuna Kawagishi"
    },
    "name": "Asuna Kawagishi",
    "tid": "f8ebb497-8ccf-419c-93c6-99d96e251706",
    "types": [
      "songwriters",
      "8"
    ],
    "repository": "kara.moe",
    "modified_at": "2020-03-31T19:04:33.580Z"
  }
}