{
  "header": {
    "description": "Karaoke Mugen Tag File",
    "version": 1
  },
  "tag": {
    "external_database_ids": {},
    "i18n": {
      "jpn": "アトリエシリーズ",
      "fre": "Atelier"
    },
    "name": "Atelier",
    "repository": "kara.moe",
    "tid": "60ce9235-1314-497c-a74e-3f9f4b7b7c24",
    "types": [
      "franchises",
      "18"
    ]
  }
}