{
  "header": {
    "description": "Karaoke Mugen Tag File",
    "version": 1
  },
  "tag": {
    "i18n": {
      "eng": "Atlantic Records"
    },
    "modified_at": "2020-07-06T20:50:16.549Z",
    "name": "Atlantic Records",
    "repository": "kara.moe",
    "tid": "45924098-30ef-4f74-a1e8-18be7d2fbb3f",
    "types": [
      "creators",
      "4"
    ]
  }
}