{
  "header": {
    "description": "Karaoke Mugen Tag File",
    "version": 1
  },
  "tag": {
    "i18n": {
      "eng": "Atoms"
    },
    "name": "Atoms",
    "tid": "8f66114d-4793-451c-a82b-84b3513b3148",
    "types": [
      "singers",
      "2"
    ],
    "repository": "kara.moe",
    "modified_at": "2020-03-31T19:04:33.582Z"
  }
}