{
  "header": {
    "description": "Karaoke Mugen Tag File",
    "version": 1
  },
  "tag": {
    "i18n": {
      "eng": "Atsuyas"
    },
    "modified_at": "2021-03-31T21:54:31.887Z",
    "name": "Atsuyas",
    "repository": "kara.moe",
    "tid": "84157b43-8a7a-482c-95d3-516757353835",
    "types": [
      "authors",
      "6"
    ]
  }
}