{
  "header": {
    "description": "Karaoke Mugen Tag File",
    "version": 1
  },
  "tag": {
    "i18n": {
      "eng": "Atsuo Tanimoto"
    },
    "name": "Atsuo Tanimoto",
    "tid": "2590dfc2-fa53-4039-bade-e16cab2744e9",
    "types": [
      "singers",
      "2"
    ],
    "repository": "kara.moe",
    "modified_at": "2020-03-31T19:04:33.587Z"
  }
}