{
  "header": {
    "description": "Karaoke Mugen Tag File",
    "version": 1
  },
  "tag": {
    "i18n": {
      "eng": "Atsuya Uki"
    },
    "name": "Atsuya Uki",
    "tid": "18d74885-dae8-44d1-9185-f5a3811e415a",
    "types": [
      "creators",
      "4"
    ],
    "repository": "kara.moe",
    "modified_at": "2020-03-31T19:04:33.596Z"
  }
}