{
  "header": {
    "description": "Karaoke Mugen Tag File",
    "version": 1
  },
  "tag": {
    "i18n": {
      "eng": "Atsushi Kitajô"
    },
    "name": "Atsushi Kitajô",
    "tid": "46994f82-720a-49eb-bf79-f27a14d6791d",
    "types": [
      "songwriters",
      "8"
    ],
    "repository": "kara.moe",
    "modified_at": "2020-03-31T19:04:33.589Z"
  }
}