{
  "header": {
    "description": "Karaoke Mugen Tag File",
    "version": 1
  },
  "tag": {
    "i18n": {
      "eng": "Atsushi Abe"
    },
    "name": "Atsushi Abe",
    "tid": "5ae9fd1c-1617-4eff-ae3e-62502d2a7b8d",
    "types": [
      "singers",
      "2"
    ],
    "repository": "kara.moe",
    "modified_at": "2020-03-31T19:04:33.588Z"
  }
}