{
  "header": {
    "description": "Karaoke Mugen Tag File",
    "version": 1
  },
  "tag": {
    "i18n": {
      "eng": "ATTACK HAUS"
    },
    "name": "ATTACK HAUS",
    "tid": "8869dc28-90ff-4199-835a-e662e28b89a9",
    "types": [
      "singers",
      "2"
    ],
    "repository": "kara.moe",
    "modified_at": "2020-03-31T19:04:33.597Z"
  }
}