{
  "header": {
    "description": "Karaoke Mugen Tag File",
    "version": 1
  },
  "tag": {
    "aliases": [
      "Attacker Yuu!",
      "Mila e Shiro",
      "アタッカーユウ!",
      "アタッカー・ユウ!"
    ],
    "external_database_ids": {
      "anilist": 3081,
      "myanimelist": 3081,
      "kitsu": 2779
    },
    "i18n": {
      "fre": "Jeanne et Serge",
      "ita": "Mila e Shiro, due cuori nella pallavolo",
      "jpn": "アタッカーYOU!",
      "pol": "Pojedynek aniołów",
      "por": "Joana e Sérgio: O Desafio dos Anjos",
      "spa": "Dos Fuera de Serie, Juana y Sergio",
      "qro": "Attacker YOU!"
    },
    "modified_at": "2020-03-31T19:04:31.012Z",
    "name": "Attacker YOU!",
    "repository": "kara.moe",
    "tid": "fdac2379-9256-4a1c-ac8f-a7c46aec01f7",
    "types": [
      "series",
      "1"
    ]
  }
}