{
  "header": {
    "description": "Karaoke Mugen Tag File",
    "version": 1
  },
  "tag": {
    "aliases": [
      "MP3"
    ],
    "i18n": {
      "eng": "Audio only",
      "fre": "Audio uniquement"
    },
    "karafile_tag": "AUDIO",
    "modified_at": "2021-02-14T15:50:55.133Z",
    "name": "AUDIO",
    "priority": 20,
    "repository": "kara.moe",
    "tid": "42a262ae-acba-4ab5-a446-c5789c96c821",
    "types": [
      "songtypes",
      "3"
    ]
  }
}