{
  "header": {
    "description": "Karaoke Mugen Tag File",
    "version": 1
  },
  "tag": {
    "i18n": {
      "eng": "Augusto Martelli"
    },
    "name": "Augusto Martelli",
    "repository": "kara.moe",
    "tid": "a9b6c83a-ca2b-45c1-bc13-fe3b927bd81c",
    "types": [
      "songwriters",
      "8"
    ]
  }
}