{
  "header": {
    "description": "Karaoke Mugen Tag File",
    "version": 1
  },
  "tag": {
    "i18n": {
      "eng": "Auguste"
    },
    "name": "Auguste",
    "repository": "kara.moe",
    "tid": "23c47854-98ea-4b6a-94b0-fdafd9860026",
    "types": [
      "authors",
      "6"
    ]
  }
}