{
  "header": {
    "description": "Karaoke Mugen Tag File",
    "version": 1
  },
  "tag": {
    "i18n": {
      "eng": "Avalon Code",
      "jpn": "アヴァロンコード",
      "qro": "Avalon Code"
    },
    "modified_at": "2020-03-31T19:04:31.012Z",
    "name": "Avalon Code",
    "repository": "kara.moe",
    "tid": "f776a7d3-38bc-4779-b88a-88ca307efe88",
    "types": [
      "series",
      "1"
    ]
  }
}