{
  "header": {
    "description": "Karaoke Mugen Tag File",
    "version": 1
  },
  "tag": {
    "aliases": [
      "Avicii"
    ],
    "i18n": {
      "eng": "ΛVICII"
    },
    "modified_at": "2021-05-21T16:51:35.971Z",
    "name": "ΛVICII",
    "repository": "kara.moe",
    "tid": "f55f9ff7-5dcc-447d-901d-ae4cd3735713",
    "types": [
      "singers",
      "2"
    ]
  }
}