{
  "header": {
    "description": "Karaoke Mugen Tag File",
    "version": 1
  },
  "tag": {
    "i18n": {
      "eng": "Awoji Segawa"
    },
    "modified_at": "2021-09-08T22:49:41.512Z",
    "name": "Awoji Segawa",
    "repository": "kara.moe",
    "tid": "caa00dcf-ec12-4976-970f-88f58c0a5ab4",
    "types": [
      "creators",
      "4"
    ]
  }
}