{
  "header": {
    "description": "Karaoke Mugen Tag File",
    "version": 1
  },
  "tag": {
    "i18n": {
      "eng": "Axel Bauer"
    },
    "name": "Axel Bauer",
    "repository": "kara.moe",
    "tid": "48058b02-9c73-47b2-a778-493070ecf8b7",
    "types": [
      "singers",
      "2",
      "songwriters",
      "8"
    ]
  }
}