{
  "header": {
    "description": "Karaoke Mugen Tag File",
    "version": 1
  },
  "tag": {
    "i18n": {
      "eng": "Aya Endô"
    },
    "name": "Aya Endô",
    "tid": "95c10948-48c5-4469-9ce8-f98aacdbb16c",
    "types": [
      "singers",
      "2"
    ],
    "repository": "kara.moe",
    "modified_at": "2020-03-31T19:04:33.607Z"
  }
}