{
  "header": {
    "description": "Karaoke Mugen Tag File",
    "version": 1
  },
  "tag": {
    "i18n": {
      "eng": "Aya Harukazu"
    },
    "name": "Aya Harukazu",
    "tid": "f6908113-e5b2-41f8-a408-2973d36b7587",
    "types": [
      "songwriters",
      "8"
    ],
    "repository": "kara.moe",
    "modified_at": "2020-03-31T19:04:33.609Z"
  }
}