{
  "header": {
    "description": "Karaoke Mugen Tag File",
    "version": 1
  },
  "tag": {
    "i18n": {
      "eng": "Aya Kagami"
    },
    "modified_at": "2020-08-19T12:24:16.208Z",
    "name": "Aya Kagami",
    "repository": "kara.moe",
    "tid": "87cab31d-f3d5-4777-9785-2e78f797646b",
    "types": [
      "songwriters",
      "8",
      "singers",
      "2"
    ]
  }
}