{
  "header": {
    "description": "Karaoke Mugen Tag File",
    "version": 1
  },
  "tag": {
    "i18n": {
      "eng": "Ayako Yoshitani"
    },
    "name": "Ayako Yoshitani",
    "tid": "c0cb9de7-00f3-4b37-8fa2-a3a1e63bf9db",
    "types": [
      "singers",
      "2"
    ],
    "repository": "kara.moe",
    "modified_at": "2020-03-31T19:04:33.626Z"
  }
}