{
  "header": {
    "description": "Karaoke Mugen Tag File",
    "version": 1
  },
  "tag": {
    "i18n": {
      "eng": "Ayano Ishikawa"
    },
    "name": "Ayano Ishikawa",
    "tid": "302adf8a-bb48-442f-afc5-ac1198fbd244",
    "types": [
      "singers",
      "2"
    ],
    "repository": "kara.moe",
    "modified_at": "2020-03-31T19:04:33.632Z"
  }
}