{
  "header": {
    "description": "Karaoke Mugen Tag File",
    "version": 1
  },
  "tag": {
    "i18n": {
      "eng": "Ayana Taketatsu"
    },
    "name": "Ayana Taketatsu",
    "tid": "8839799f-e64a-4548-8ad1-3aefa0817b0c",
    "types": [
      "singers",
      "2"
    ],
    "repository": "kara.moe",
    "modified_at": "2020-03-31T19:04:33.628Z"
  }
}