{
  "header": {
    "description": "Karaoke Mugen Tag File",
    "version": 1
  },
  "tag": {
    "i18n": {
      "eng": "Ayana"
    },
    "name": "Ayana",
    "tid": "0fbb5e2f-8eae-4fce-beaf-115cfc16d4a4",
    "types": [
      "singers",
      "2"
    ],
    "repository": "kara.moe",
    "modified_at": "2020-03-31T19:04:33.628Z"
  }
}