{
  "header": {
    "description": "Karaoke Mugen Tag File",
    "version": 1
  },
  "tag": {
    "i18n": {
      "eng": "Ayato Shinozaki"
    },
    "modified_at": "2021-07-03T23:39:54.473Z",
    "name": "Ayato Shinozaki",
    "repository": "kara.moe",
    "tid": "f2d7b99d-52df-4590-8828-7d89c44d9930",
    "types": [
      "songwriters",
      "8",
      "singers",
      "2"
    ]
  }
}