{
  "header": {
    "description": "Karaoke Mugen Tag File",
    "version": 1
  },
  "tag": {
    "i18n": {
      "eng": "Ayu Matsûra"
    },
    "modified_at": "2021-01-06T18:22:55.671Z",
    "name": "Ayu Matsûra",
    "repository": "kara.moe",
    "tid": "f03882a4-ea1c-428f-a060-05bc4c920941",
    "types": [
      "singers",
      "2"
    ]
  }
}