{
  "header": {
    "description": "Karaoke Mugen Tag File",
    "version": 1
  },
  "tag": {
    "i18n": {
      "eng": "Ayumikurikamaki"
    },
    "name": "Ayumikurikamaki",
    "tid": "2ffd5428-dba3-43fa-bfc3-0758e8ef3d69",
    "types": [
      "singers",
      "2"
    ],
    "repository": "kara.moe",
    "modified_at": "2020-03-31T19:04:33.645Z"
  }
}