{
  "header": {
    "description": "Karaoke Mugen Tag File",
    "version": 1
  },
  "tag": {
    "i18n": {
      "eng": "Ayumu Murase"
    },
    "name": "Ayumu Murase",
    "tid": "26d7abe2-1c37-44a3-94b0-c746391146f0",
    "types": [
      "singers",
      "2"
    ],
    "repository": "kara.moe",
    "modified_at": "2020-03-31T19:04:33.646Z"
  }
}