{
  "header": {
    "description": "Karaoke Mugen Tag File",
    "version": 1
  },
  "tag": {
    "i18n": {
      "eng": "AZ"
    },
    "name": "AZ",
    "repository": "kara.moe",
    "tid": "30e1ca0b-3db3-4aac-af8a-fb738c7d1281",
    "types": [
      "creators",
      "4"
    ]
  }
}