{
  "header": {
    "description": "Karaoke Mugen Tag File",
    "version": 1
  },
  "tag": {
    "i18n": {
      "eng": "Azarashi Soft"
    },
    "name": "Azarashi Soft",
    "tid": "aad11e90-b2f6-471a-97aa-561bf9cf9675",
    "types": [
      "creators",
      "4"
    ],
    "repository": "kara.moe",
    "modified_at": "2020-03-31T19:04:33.648Z"
  }
}