{
  "header": {
    "description": "Karaoke Mugen Tag File",
    "version": 1
  },
  "tag": {
    "i18n": {
      "eng": "Azumi Inoue"
    },
    "name": "Azumi Inoue",
    "tid": "75eb6e0c-08b2-402e-b4d9-13104195ac1e",
    "types": [
      "singers",
      "2"
    ],
    "repository": "kara.moe",
    "modified_at": "2020-03-31T19:04:33.653Z"
  }
}