{
  "header": {
    "description": "Karaoke Mugen Tag File",
    "version": 1
  },
  "tag": {
    "i18n": {
      "eng": "Azuma Lim"
    },
    "name": "Azuma Lim",
    "tid": "0376fab7-0ab6-47b1-ac15-01f9aa5ebcf5",
    "repository": "kara.moe",
    "types": [
      "singers",
      "2"
    ],
    "modified_at": "2020-03-31T19:04:33.652Z"
  }
}