{
  "header": {
    "description": "Karaoke Mugen Tag File",
    "version": 1
  },
  "tag": {
    "aliases": [
      "B-Gata H-Kei",
      "B-Type H-Group",
      "B-Type H-Style",
      "B-cup H-group",
      "B-type H-persona",
      "B-группа H-персона",
      "BGHK",
      "BGata",
      "B型H系",
      "Второй размер интим предлагать"
    ],
    "external_database_ids": {
      "anilist": 7817,
      "myanimelist": 7817,
      "kitsu": 5134
    },
    "i18n": {
      "chi": "B型H系",
      "eng": "B Gata H Kei: Yamada's First Time",
      "fre": "Yamada : Ma première fois",
      "jpn": "B型H系",
      "qro": "B Gata H Kei"
    },
    "modified_at": "2020-03-31T19:04:31.017Z",
    "name": "B Gata H Kei",
    "repository": "kara.moe",
    "tid": "0271c696-fea0-4540-80a2-767741151f07",
    "types": [
      "series",
      "1"
    ]
  }
}