{
  "header": {
    "description": "Karaoke Mugen Tag File",
    "version": 1
  },
  "tag": {
    "aliases": [
      "Katil B",
      "Perfect Bones",
      "パーフェクト・ボーンズ"
    ],
    "external_database_ids": {
      "anilist": 21665,
      "myanimelist": 32827,
      "kitsu": 11880
    },
    "i18n": {
      "eng": "B: The Beginning",
      "fre": "B: The Beginning",
      "ita": "B: The Beginning",
      "jpn": "B: The Beginning",
      "spa": "B: The Beginning",
      "qro": "B: The Beginning"
    },
    "modified_at": "2020-03-31T19:04:31.017Z",
    "name": "B: The Beginning",
    "repository": "kara.moe",
    "tid": "61ab0f6d-7bc5-4300-b41c-42283478b9a1",
    "types": [
      "series",
      "1"
    ]
  }
}