{
  "header": {
    "description": "Karaoke Mugen Tag File",
    "version": 1
  },
  "tag": {
    "i18n": {
      "eng": "BAAD"
    },
    "name": "BAAD",
    "tid": "47cc86ae-c692-461b-91c8-dfd241a789c7",
    "types": [
      "singers",
      "2"
    ],
    "repository": "kara.moe",
    "modified_at": "2020-03-31T19:04:33.659Z"
  }
}