{
  "header": {
    "description": "Karaoke Mugen Tag File",
    "version": 1
  },
  "tag": {
    "aliases": [
      "بابل 2"
    ],
    "external_database_ids": {
      "anilist": 1666,
      "myanimelist": 1666,
      "kitsu": 1496
    },
    "i18n": {
      "eng": "Babel II",
      "ita": "Babil Junior",
      "jpn": "バビル2世",
      "qro": "Babel Nisei"
    },
    "modified_at": "2020-03-31T19:04:31.020Z",
    "name": "Babel Nisei",
    "repository": "kara.moe",
    "tid": "82862b66-6aa2-4870-bb2d-d15414c0e542",
    "types": [
      "series",
      "1"
    ]
  }
}