{
  "header": {
    "description": "Karaoke Mugen Tag File",
    "version": 1
  },
  "tag": {
    "i18n": {
      "eng": "Baby"
    },
    "modified_at": "2020-07-09T20:13:34.932Z",
    "name": "Baby",
    "repository": "kara.moe",
    "tid": "562eb02f-f404-43b0-872c-6a1c2555ef4b",
    "types": [
      "creators",
      "4"
    ]
  }
}