{
  "header": {
    "description": "Karaoke Mugen Tag File",
    "version": 1
  },
  "tag": {
    "i18n": {
      "eng": "BACHLOGIC"
    },
    "name": "BACHLOGIC",
    "repository": "kara.moe",
    "tid": "a36b3de9-5a36-4ac3-806f-00005583e73a",
    "types": [
      "songwriters",
      "8"
    ]
  }
}