{
  "header": {
    "description": "Karaoke Mugen Tag File",
    "version": 1
  },
  "tag": {
    "aliases": [
      "Bad Medicine -Infectious Teachers-"
    ],
    "i18n": {
      "eng": "Bad Medicine: Infectious Teachers",
      "jpn": "バッドメディスン-Infectious Teachers-",
      "qro": "Bad Medicine: Infectious Teachers"
    },
    "modified_at": "2020-03-31T19:04:31.023Z",
    "name": "Bad Medicine: Infectious Teachers",
    "repository": "kara.moe",
    "tid": "b9769d2c-f4c7-42d8-a6fb-11795e71f97f",
    "types": [
      "series",
      "1"
    ]
  }
}