{
  "header": {
    "description": "Karaoke Mugen Tag File",
    "version": 1
  },
  "tag": {
    "i18n": {
      "eng": "Baek Chan"
    },
    "name": "Baek Chan",
    "tid": "1411df17-974b-454f-b664-b0e4fcb9c27f",
    "types": [
      "songwriters",
      "8"
    ],
    "repository": "kara.moe",
    "modified_at": "2020-03-31T19:04:33.670Z"
  }
}