{
  "header": {
    "description": "Karaoke Mugen Tag File",
    "version": 1
  },
  "tag": {
    "i18n": {
      "eng": "Bai Sha Jaws",
      "chi": "白鲨JAWS"
    },
    "modified_at": "2021-10-22T17:16:09.055Z",
    "name": "Bai Sha Jaws",
    "repository": "kara.moe",
    "tid": "ca054cff-32e6-40c2-b860-9e4e1c37501c",
    "types": [
      "singers",
      "2"
    ]
  }
}