{
  "header": {
    "description": "Karaoke Mugen Tag File",
    "version": 1
  },
  "tag": {
    "i18n": {
      "afr": "Bashkir",
      "amh": "Bashkir",
      "ara": "الباشكيرية",
      "aze": "Başqırd",
      "bak": "Башҡорт теле",
      "bel": "Башкірская",
      "bul": "Башкирски",
      "ben": "বাশকির",
      "bos": "Ganda",
      "cat": "Bashkir",
      "cze": "Baškirština",
      "wel": "Bashkir",
      "dan": "Bashkir",
      "ger": "Bashkir",
      "gre": "Μπασκίρ",
      "eng": "Bashkir",
      "epo": "Baŝkira",
      "spa": "Bashkir",
      "est": "Baškiiri",
      "baq": "Bashkir",
      "per": "باشقیر",
      "fin": "Baškiiri",
      "fre": "Bachkir",
      "gle": "Baiscíris",
      "gla": "Bashkir",
      "glg": "Bashkir",
      "guj": "બષ્ખિર",
      "heb": "בשקיריתname",
      "hin": "बशख़िर",
      "hrv": "Baškirski",
      "hat": "Bashkir",
      "hun": "Bashkir",
      "arm": "Bashkir",
      "ind": "Bashkir",
      "ice": "Íslenska",
      "ita": "Bashkir",
      "jpn": "Bashkir",
      "jav": "Bashkir",
      "geo": "Bashkir",
      "kaz": "Башқұрт",
      "kan": "ಬಶ್ಕಿರ್",
      "kor": "르바이잔",
      "kir": "Башкирский",
      "lat": "Bashkir",
      "lit": "Bashkir",
      "lav": "Baškīri",
      "mlg": "Bashkir",
      "mao": "Pahikia",
      "mac": "Bashkir",
      "mal": "ബാഷ്ക്കിർ",
      "mon": "Башкирын",
      "mar": "Bashkir",
      "may": "Maryland",
      "mlt": "}",
      "nep": "बाश्कीर",
      "dut": "Bashkir",
      "nor": "Bashkir",
      "pan": "ਬਸ਼ਕੀਰ",
      "pol": "Baszkirski",
      "por": "Bashkir",
      "rum": "Bașkiră",
      "rus": "Башкирский",
      "sin": "Bashkir",
      "slo": "Bashkir",
      "slv": "Bashkir",
      "alb": "Bashkir",
      "srp": "Башкирски",
      "sun": "Bashkir",
      "swe": "Basjkiriska",
      "swa": "Bashkir",
      "tam": "பாஷ்கிர்",
      "tel": "బష్కిర్",
      "tgk": "Башкирский",
      "tha": "ภาษาแบชเคียร์ name",
      "tgl": "Bashkir",
      "tur": "Başkurt",
      "tat": "Башкорт теле",
      "ukr": "Башкирська",
      "urd": "Bashkir",
      "uzb": "Bashkir",
      "vie": "Azerbaijan",
      "xho": "Bashkir",
      "yid": "באַשקיר",
      "chi": "巴什基尔"
    },
    "name": "bak",
    "tid": "676ac255-80f2-45d8-a120-8a2e9b1f4447",
    "types": [
      "langs",
      "5"
    ],
    "repository": "kara.moe",
    "modified_at": "2020-03-31T19:04:33.671Z"
  }
}