{
  "header": {
    "description": "Karaoke Mugen Tag File",
    "version": 1
  },
  "tag": {
    "i18n": {
      "eng": "Bakudan Johnny"
    },
    "name": "Bakudan Johnny",
    "tid": "24c891ae-7699-46ac-9bd4-58fec0ae49b6",
    "types": [
      "singers",
      "2",
      "songwriters",
      "8"
    ],
    "repository": "kara.moe",
    "modified_at": "2020-03-31T19:04:33.675Z"
  }
}