{
  "header": {
    "description": "Karaoke Mugen Tag File",
    "version": 1
  },
  "tag": {
    "aliases": [
      "Bakuman",
      "bakuman",
      "Бакуман",
      "爆漫王",
      "食梦者"
    ],
    "external_database_ids": {
      "anilist": 7674,
      "myanimelist": 7674,
      "kitsu": 5079
    },
    "i18n": {
      "eng": "Bakuman.",
      "fre": "Bakuman.",
      "ger": "Bakuman",
      "jpn": "バクマン.",
      "ukr": "Бакуман",
      "qro": "Bakuman."
    },
    "modified_at": "2020-03-31T19:04:31.031Z",
    "name": "Bakuman.",
    "repository": "kara.moe",
    "tid": "ceb7f741-fbeb-407d-8130-28291ce3cc92",
    "types": [
      "series",
      "1",
      "franchises",
      "18"
    ]
  }
}