{
  "header": {
    "description": "Karaoke Mugen Tag File",
    "version": 1
  },
  "tag": {
    "i18n": {
      "eng": "Bana"
    },
    "name": "Bana",
    "tid": "69b953a5-a680-4d74-8b14-27ea656d0198",
    "types": [
      "singers",
      "2"
    ],
    "repository": "kara.moe",
    "modified_at": "2020-03-31T19:04:33.679Z"
  }
}