{
  "header": {
    "description": "Karaoke Mugen Tag File",
    "version": 1
  },
  "tag": {
    "i18n": {
      "eng": "Banpresto"
    },
    "name": "Banpresto",
    "tid": "cce4d4a6-abcc-4627-94fa-4bc7ccbacf81",
    "types": [
      "creators",
      "4"
    ],
    "repository": "kara.moe",
    "modified_at": "2020-03-31T19:04:33.686Z"
  }
}