{
  "header": {
    "description": "Karaoke Mugen Tag File",
    "version": 1
  },
  "tag": {
    "aliases": [
      "Баракамон",
      "Веселба"
    ],
    "external_database_ids": {
      "anilist": 20722,
      "myanimelist": 22789,
      "kitsu": 8026
    },
    "i18n": {
      "chi": "元气囝仔",
      "eng": "Barakamon",
      "jpn": "ばらかもん",
      "per": "باراکامون",
      "qro": "Barakamon"
    },
    "modified_at": "2020-03-31T19:04:31.047Z",
    "name": "Barakamon",
    "repository": "kara.moe",
    "tid": "5e4ab743-4b1c-4451-9e42-3f7413fb05d5",
    "types": [
      "series",
      "1"
    ]
  }
}