{
  "header": {
    "description": "Karaoke Mugen Tag File",
    "version": 1
  },
  "tag": {
    "i18n": {
      "eng": "Barbara Pravi"
    },
    "name": "Barbara Pravi",
    "repository": "kara.moe",
    "tid": "f6d6be35-a0c4-4e8b-a20e-76b6b237ca47",
    "types": [
      "songwriters",
      "8"
    ]
  }
}