{
  "header": {
    "description": "Karaoke Mugen Tag File",
    "version": 1
  },
  "tag": {
    "i18n": {
      "eng": "Barenaked Ladies"
    },
    "name": "Barenaked Ladies",
    "repository": "kara.moe",
    "tid": "b9da0b8d-f7ee-430c-b133-4902e29fdaef",
    "types": [
      "songwriters",
      "8",
      "singers",
      "2"
    ]
  }
}