{
  "header": {
    "description": "Karaoke Mugen Tag File",
    "version": 1
  },
  "tag": {
    "i18n": {
      "eng": "Barry McGuire"
    },
    "name": "Barry McGuire",
    "tid": "01f283ad-1b95-4cac-b381-902ffcd379a8",
    "types": [
      "songwriters",
      "8"
    ],
    "repository": "kara.moe",
    "modified_at": "2020-03-31T19:04:33.689Z"
  }
}