{
  "header": {
    "description": "Karaoke Mugen Tag File",
    "version": 1
  },
  "tag": {
    "aliases": [
      "Battle Athletess Daiundoukai",
      "daiundoukai"
    ],
    "external_database_ids": {
      "anilist": 1185,
      "myanimelist": 1185,
      "kitsu": 1065
    },
    "i18n": {
      "eng": "Battle Athletes Victory",
      "jpn": "バトルアスリーテス大運動会 (1997)",
      "qro": "Battle Athletess Daiundôkai"
    },
    "modified_at": "2021-05-22T13:30:08.545Z",
    "name": "Battle Athletess Daiundôkai",
    "repository": "kara.moe",
    "tid": "bbd55534-fd65-485b-94af-5474e296fb77",
    "types": [
      "series",
      "1"
    ]
  }
}