{
  "header": {
    "description": "Karaoke Mugen Tag File",
    "version": 1
  },
  "tag": {
    "external_database_ids": {
      "anilist": 21702,
      "myanimelist": 32947,
      "kitsu": 11938
    },
    "i18n": {
      "eng": "Battery",
      "jpn": "バッテリー",
      "qro": "Battery"
    },
    "modified_at": "2020-03-31T19:04:31.052Z",
    "name": "Battery",
    "repository": "kara.moe",
    "tid": "fad4c7a4-6e89-4a21-a41e-0b039442f3b9",
    "types": [
      "series",
      "1"
    ]
  }
}