{
  "header": {
    "description": "Karaoke Mugen Tag File",
    "version": 1
  },
  "tag": {
    "i18n": {
      "eng": "Bayonetta",
      "jpn": "ベヨネッタ",
      "qro": "Bayonetta"
    },
    "name": "Bayonetta",
    "repository": "kara.moe",
    "tid": "d103261b-ff8c-4d1e-bc65-b28f836349b4",
    "types": [
      "franchises",
      "18",
      "series",
      "1"
    ]
  }
}