{
  "header": {
    "description": "Karaoke Mugen Tag File",
    "version": 1
  },
  "tag": {
    "i18n": {
      "eng": "Bayonetta 2",
      "jpn": "ベヨネッタ2",
      "qro": "Bayonetta 2"
    },
    "name": "Bayonetta 2",
    "repository": "kara.moe",
    "tid": "2bf8ff57-e0c6-4bb8-8180-fd115675cf70",
    "types": [
      "series",
      "1"
    ]
  }
}