{
  "header": {
    "description": "Karaoke Mugen Tag File",
    "version": 1
  },
  "tag": {
    "i18n": {
      "eng": "Be Cool! / King"
    },
    "name": "Be Cool! / King",
    "tid": "23cdc12f-a9aa-46b7-a687-b157838ad399",
    "types": [
      "creators",
      "4"
    ],
    "repository": "kara.moe",
    "modified_at": "2020-03-31T19:04:33.694Z"
  }
}