{
  "header": {
    "description": "Karaoke Mugen Tag File",
    "version": 1
  },
  "tag": {
    "i18n": {
      "eng": "BEAT CRUSADERS"
    },
    "name": "BEAT CRUSADERS",
    "tid": "ede5afa3-2be5-457b-b205-b576f6cbcec2",
    "types": [
      "songwriters",
      "8",
      "singers",
      "2"
    ],
    "repository": "kara.moe",
    "modified_at": "2020-03-31T19:04:33.697Z"
  }
}