{
  "header": {
    "description": "Karaoke Mugen Tag File",
    "version": 1
  },
  "tag": {
    "i18n": {
      "eng": "Becky G"
    },
    "name": "Becky G",
    "repository": "kara.moe",
    "tid": "e82baaf7-58df-4200-be62-388e8d31ef06",
    "types": [
      "singers",
      "2"
    ]
  }
}