{
  "header": {
    "description": "Karaoke Mugen Tag File",
    "version": 1
  },
  "tag": {
    "i18n": {
      "eng": "Beethoven Suzuki"
    },
    "name": "Beethoven Suzuki",
    "repository": "kara.moe",
    "tid": "2609343c-a3c9-4b9f-affa-7fb5c703b6fa",
    "types": [
      "songwriters",
      "8"
    ]
  }
}