{
  "header": {
    "description": "Karaoke Mugen Tag File",
    "version": 1
  },
  "tag": {
    "i18n": {
      "eng": "Begin"
    },
    "name": "Begin",
    "repository": "kara.moe",
    "tid": "a4896d57-0f0f-41c1-a491-8e1bb2251ba9",
    "types": [
      "singergroups",
      "17"
    ]
  }
}