{
  "header": {
    "description": "Karaoke Mugen Tag File",
    "version": 1
  },
  "tag": {
    "i18n": {
      "eng": "Beijing Rocen Digital",
      "chi": "北京若森数字科技股份有限公司"
    },
    "modified_at": "2021-03-11T19:02:02.010Z",
    "name": "Beijing Rocen Digital",
    "repository": "kara.moe",
    "tid": "f9b5844f-5f66-45a2-812e-ce277a033415",
    "types": [
      "creators",
      "4"
    ]
  }
}