{
  "header": {
    "description": "Karaoke Mugen Tag File",
    "version": 1
  },
  "tag": {
    "aliases": [
      "Rebecca Rose Johnson"
    ],
    "i18n": {
      "eng": "Bekuh BOOM"
    },
    "modified_at": "2021-10-24T20:35:04.213Z",
    "name": "Bekuh BOOM",
    "repository": "kara.moe",
    "tid": "5092adbb-0292-47be-bf28-dc0b20025086",
    "types": [
      "songwriters",
      "8",
      "singers",
      "2"
    ]
  }
}