{
  "header": {
    "description": "Karaoke Mugen Tag File",
    "version": 1
  },
  "tag": {
    "aliases": [
      "Wonchop"
    ],
    "i18n": {
      "eng": "Ben Smallman"
    },
    "name": "Ben Smallman",
    "tid": "e3dadb3b-32f3-4447-875a-25ebae553f51",
    "types": [
      "songwriters",
      "8"
    ],
    "repository": "kara.moe",
    "modified_at": "2020-03-31T19:04:33.709Z"
  }
}