{
  "header": {
    "description": "Karaoke Mugen Tag File",
    "version": 1
  },
  "tag": {
    "i18n": {
      "eng": "Ben McKee"
    },
    "modified_at": "2020-07-03T22:43:30.216Z",
    "name": "Ben McKee",
    "repository": "kara.moe",
    "tid": "c9ea8a61-5e5f-4abe-8cb5-82259d2e8ad6",
    "types": [
      "songwriters",
      "8"
    ]
  }
}