{
  "header": {
    "description": "Karaoke Mugen Tag File",
    "version": 1
  },
  "tag": {
    "aliases": [
      "Ben-to",
      "Хавчик",
      "ベントー",
      "便当",
      "ben-tou"
    ],
    "external_database_ids": {
      "anilist": 10396,
      "myanimelist": 10396,
      "kitsu": 6164
    },
    "i18n": {
      "eng": "Ben-To",
      "jpn": "ベン・トー",
      "qro": "Ben-Tô"
    },
    "modified_at": "2020-03-31T19:04:31.064Z",
    "name": "Ben-Tô",
    "repository": "kara.moe",
    "tid": "a8987231-ca29-4008-be74-fefa5f97d61d",
    "types": [
      "series",
      "1"
    ]
  }
}