{
  "header": {
    "description": "Karaoke Mugen Tag File",
    "version": 1
  },
  "tag": {
    "i18n": {
      "eng": "Beneblade"
    },
    "modified_at": "2020-08-19T11:51:40.302Z",
    "name": "Beneblade",
    "repository": "kara.moe",
    "tid": "3d443636-e0b9-46f1-950e-357043331c46",
    "types": [
      "authors",
      "6"
    ]
  }
}