{
  "header": {
    "description": "Karaoke Mugen Tag File",
    "version": 1
  },
  "tag": {
    "i18n": {
      "eng": "Bénédicte Lécroart"
    },
    "name": "Bénédicte Lécroart",
    "tid": "3b41e2cd-fd5d-4a93-9621-2e2a967c3ebb",
    "types": [
      "singers",
      "2"
    ],
    "repository": "kara.moe",
    "modified_at": "2020-03-31T19:04:33.711Z"
  }
}