{
  "header": {
    "description": "Karaoke Mugen Tag File",
    "version": 1
  },
  "tag": {
    "i18n": {
      "eng": "Beni Arashiro"
    },
    "name": "Beni Arashiro",
    "tid": "e0c14ada-f923-435d-85d4-6adf232beb2b",
    "types": [
      "singers",
      "2"
    ],
    "repository": "kara.moe",
    "modified_at": "2020-03-31T19:04:33.711Z"
  }
}