{
  "header": {
    "description": "Karaoke Mugen Tag File",
    "version": 1
  },
  "tag": {
    "i18n": {
      "eng": "Benjy Gibson"
    },
    "name": "Benjy Gibson",
    "repository": "kara.moe",
    "tid": "466c11fe-742c-4438-bc30-fdf7c4c5dcf9",
    "types": [
      "songwriters",
      "8"
    ]
  }
}