{
  "header": {
    "description": "Karaoke Mugen Tag File",
    "version": 1
  },
  "tag": {
    "i18n": {
      "eng": "Benjazunyan"
    },
    "name": "Benjazunyan",
    "tid": "9a30f575-b83f-4731-a9c4-41fffa464293",
    "types": [
      "authors",
      "6"
    ],
    "repository": "kara.moe",
    "modified_at": "2020-03-31T19:04:33.715Z"
  }
}