{
  "header": {
    "description": "Karaoke Mugen Tag File",
    "version": 1
  },
  "tag": {
    "aliases": [
      "Beomgyu"
    ],
    "i18n": {
      "eng": "Ben Choi",
      "qro": "Choi Beom Gyu",
      "kor": "최범규"
    },
    "name": "Beomgyu",
    "repository": "kara.moe",
    "tid": "b1258403-eacf-4ee3-b323-651fbab89975",
    "types": [
      "singers",
      "2"
    ]
  }
}