{
  "header": {
    "description": "Karaoke Mugen Tag File",
    "version": 1
  },
  "tag": {
    "i18n": {
      "eng": "Beom x Nang"
    },
    "name": "Beom x Nang",
    "repository": "kara.moe",
    "tid": "2fd0e26b-8d6b-459a-8eca-bc51078d89e7",
    "types": [
      "songwriters",
      "8"
    ]
  }
}