{
  "header": {
    "description": "Karaoke Mugen Tag File",
    "version": 1
  },
  "tag": {
    "i18n": {
      "eng": "Bernard Denimal"
    },
    "name": "Bernard Denimal",
    "tid": "ebbb1ebd-8e64-488a-ae82-800466ce25c7",
    "types": [
      "singers",
      "2"
    ],
    "repository": "kara.moe",
    "modified_at": "2020-03-31T19:04:33.720Z"
  }
}