{
  "header": {
    "description": "Karaoke Mugen Tag File",
    "version": 1
  },
  "tag": {
    "i18n": {
      "eng": "Bernie Hoffer"
    },
    "name": "Bernie Hoffer",
    "tid": "18439b64-a2b1-459f-91f2-efd7491f4385",
    "types": [
      "songwriters",
      "8"
    ],
    "repository": "kara.moe",
    "modified_at": "2020-03-31T19:04:33.722Z"
  }
}