{
  "header": {
    "description": "Karaoke Mugen Tag File",
    "version": 1
  },
  "tag": {
    "i18n": {
      "eng": "Bernard Lenclos"
    },
    "modified_at": "2021-02-14T15:02:59.379Z",
    "name": "Bernard Lenclos",
    "repository": "kara.moe",
    "tid": "f437050a-058a-4a5b-81c5-267b002473f4",
    "types": [
      "songwriters",
      "8"
    ]
  }
}