{
  "header": {
    "description": "Karaoke Mugen Tag File",
    "version": 1
  },
  "tag": {
    "aliases": [
      "Berryz Koubou"
    ],
    "i18n": {
      "eng": "Berryz Kôbô"
    },
    "modified_at": "2021-03-18T22:35:00.128Z",
    "name": "Berryz Kôbô",
    "repository": "kara.moe",
    "tid": "99380495-0093-4a8d-b4f1-c4214602a4c6",
    "types": [
      "singers",
      "2"
    ]
  }
}