{
  "header": {
    "description": "Karaoke Mugen Tag File",
    "version": 1
  },
  "tag": {
    "i18n": {
      "eng": "Bettina Antoni"
    },
    "name": "Bettina Antoni",
    "tid": "c1d4304a-7820-459e-86df-7aa4b8481425",
    "types": [
      "songwriters",
      "8"
    ],
    "repository": "kara.moe",
    "modified_at": "2020-03-31T19:04:33.724Z"
  }
}