{
  "header": {
    "description": "Karaoke Mugen Tag File",
    "version": 1
  },
  "tag": {
    "i18n": {
      "eng": "Beverly Hills Teens",
      "fre": "Bécébégé",
      "ita": "Siamo quelli di Beverly Hills",
      "pol": "Nastolatki z Beverly Hills"
    },
    "name": "Beverly Hills Teens",
    "repository": "kara.moe",
    "tid": "f0410b62-add3-4f05-8942-e1b31bc1c5fb",
    "types": [
      "series",
      "1"
    ]
  }
}