{
  "header": {
    "description": "Karaoke Mugen Tag File",
    "version": 1
  },
  "tag": {
    "i18n": {
      "eng": "Big Bazar"
    },
    "modified_at": "2021-04-29T21:11:37.368Z",
    "name": "Big Bazar",
    "repository": "kara.moe",
    "tid": "88f7529f-a971-464e-9eb1-9bb359134c31",
    "types": [
      "singers",
      "2"
    ]
  }
}