{
  "header": {
    "description": "Karaoke Mugen Tag File",
    "version": 1
  },
  "tag": {
    "i18n": {
      "eng": "Big Machine Records"
    },
    "name": "Big Machine Records",
    "repository": "kara.moe",
    "tid": "e63642dc-90f5-4b53-80db-0567e62a8aa5",
    "types": [
      "creators",
      "4"
    ]
  }
}