{
  "header": {
    "description": "Karaoke Mugen Tag File",
    "version": 1
  },
  "tag": {
    "i18n": {
      "eng": "Billy Walsh"
    },
    "name": "Billy Walsh",
    "tid": "ee7fc390-a7c4-46f2-ac40-285cd3a6f485",
    "types": [
      "songwriters",
      "8"
    ],
    "repository": "kara.moe",
    "modified_at": "2020-03-31T19:04:33.735Z"
  }
}