{
  "header": {
    "description": "Karaoke Mugen Tag File",
    "version": 1
  },
  "tag": {
    "i18n": {
      "eng": "Billy Joel"
    },
    "name": "Billy Joel",
    "repository": "kara.moe",
    "tid": "9af1adc5-eb57-4714-87cc-16aef85a705e",
    "types": [
      "singers",
      "2",
      "songwriters",
      "8"
    ]
  }
}