{
  "header": {
    "description": "Karaoke Mugen Tag File",
    "version": 1
  },
  "tag": {
    "i18n": {
      "eng": "Binyu-P"
    },
    "name": "Binyu-P",
    "tid": "f368f874-65a3-4033-8d80-41f9083364e0",
    "types": [
      "songwriters",
      "8"
    ],
    "repository": "kara.moe",
    "modified_at": "2020-03-31T19:04:33.737Z"
  }
}