{
  "header": {
    "description": "Karaoke Mugen Tag File",
    "version": 1
  },
  "tag": {
    "aliases": [
      "小鳥之翼, 小鸟之翼 高尔夫少女"
    ],
    "external_database_ids": {
      "anilist": 140830,
      "myanimelist": 50248,
      "kitsu": 45391
    },
    "i18n": {
      "eng": "Birdie Wing: Golf Girls' Story",
      "jpn": "BIRDIE WING -Golf Girls' Story-"
    },
    "name": "Birdie Wing: Golf Girls' Story",
    "repository": "kara.moe",
    "tid": "5ea5d5a1-0a65-4b71-85b2-13cb13cce40e",
    "types": [
      "series",
      "1"
    ]
  }
}