{
  "header": {
    "description": "Karaoke Mugen Tag File",
    "version": 1
  },
  "tag": {
    "i18n": {
      "eng": "Bis"
    },
    "name": "Bis",
    "tid": "819542cb-4444-4d5d-bca5-ffda0c715634",
    "types": [
      "singers",
      "2"
    ],
    "repository": "kara.moe",
    "modified_at": "2020-03-31T19:04:33.738Z"
  }
}