{
  "header": {
    "description": "Karaoke Mugen Tag File",
    "version": 1
  },
  "tag": {
    "aliases": [
      "Death Busters-hen",
      "美少女戦士セーラームーンCrystal 第3期"
    ],
    "external_database_ids": {
      "anilist": 21462,
      "myanimelist": 31733,
      "kitsu": 11415
    },
    "i18n": {
      "eng": "Sailor Moon Crystal Season 3",
      "jpn": "美少女戦士セーラームーン Crystal Season III",
      "qro": "Bishôjo Senshi Sailor Moon Crystal Season III"
    },
    "modified_at": "2020-06-21T23:45:31.966Z",
    "name": "Bishôjo Senshi Sailor Moon Crystal Season III",
    "repository": "kara.moe",
    "tid": "e7d223df-6cdb-4cdd-8260-f4d0a8a53fde",
    "types": [
      "series",
      "1"
    ]
  }
}