{
  "header": {
    "description": "Karaoke Mugen Tag File",
    "version": 1
  },
  "tag": {
    "i18n": {
      "eng": "Bivattchee"
    },
    "name": "Bivattchee",
    "tid": "e5fe0b5f-8680-4cd5-9971-a3bf0ddf7eb9",
    "types": [
      "singers",
      "2"
    ],
    "repository": "kara.moe",
    "modified_at": "2020-03-31T19:04:33.741Z"
  }
}