{
  "header": {
    "description": "Karaoke Mugen Tag File",
    "version": 1
  },
  "tag": {
    "i18n": {
      "eng": "Björn Ulvaeus"
    },
    "name": "Björn Ulvaeus",
    "repository": "kara.moe",
    "tid": "4af14e96-9960-4074-9518-c4a6a35b38d5",
    "types": [
      "songwriters",
      "8"
    ]
  }
}