{
  "header": {
    "description": "Karaoke Mugen Tag File",
    "version": 1
  },
  "tag": {
    "aliases": [
      "BC",
      "Gato Negro",
      "Gato Preto",
      "Kara Kedi",
      "Pisica Neagră",
      "Zwarte Kat",
      "Черна Котка",
      "Чёрный Кот",
      "黑猫"
    ],
    "external_database_ids": {
      "anilist": 68,
      "myanimelist": 68,
      "kitsu": 49
    },
    "i18n": {
      "ara": "Black Cat",
      "eng": "Black Cat",
      "fre": "Black Cat",
      "ger": "Black Cat",
      "jpn": "ブラックキャット",
      "por": "Black Cat",
      "tha": "แบล็คแคท",
      "qro": "Black Cat"
    },
    "modified_at": "2020-03-31T19:04:31.080Z",
    "name": "Black Cat",
    "repository": "kara.moe",
    "tid": "5cb8e9fc-334f-4a27-9b32-eefed4797279",
    "types": [
      "series",
      "1"
    ]
  }
}