{
  "header": {
    "description": "Karaoke Mugen Tag File",
    "version": 1
  },
  "tag": {
    "i18n": {
      "eng": "Black Raison d'être"
    },
    "name": "Black Raison d'être",
    "tid": "bd0637b1-8912-4cbe-a36f-38d90ce9423a",
    "types": [
      "singers",
      "2"
    ],
    "repository": "kara.moe",
    "modified_at": "2020-03-31T19:04:33.743Z"
  }
}