{
  "header": {
    "description": "Karaoke Mugen Tag File",
    "version": 1
  },
  "tag": {
    "i18n": {
      "eng": "Black Biscuits"
    },
    "name": "Black Biscuits",
    "tid": "fb18aaf6-af0e-4e16-abde-fa2bc2db2b5e",
    "types": [
      "singers",
      "2",
      "songwriters",
      "8"
    ],
    "repository": "kara.moe",
    "modified_at": "2020-03-31T19:04:33.742Z"
  }
}