{
  "header": {
    "description": "Karaoke Mugen Tag File",
    "version": 1
  },
  "tag": {
    "aliases": [
      "BRS The Game",
      "black rock"
    ],
    "i18n": {
      "eng": "Black★Rock Shooter: The Game",
      "jpn": "ブラック★ロックシューター THE GAME",
      "qro": "Black★Rock Shooter The Game"
    },
    "modified_at": "2020-03-31T19:04:31.086Z",
    "name": "Black★Rock Shooter The Game",
    "repository": "kara.moe",
    "tid": "37cbaac8-3d03-487a-9c4f-e6fc56a2c200",
    "types": [
      "series",
      "1"
    ]
  }
}