{
  "header": {
    "description": "Karaoke Mugen Tag File",
    "version": 1
  },
  "tag": {
    "aliases": [
      "Blade and Soul",
      "Душа и острие",
      "ブレイド&ソウル",
      "ブレイドアンドソウル"
    ],
    "external_database_ids": {
      "anilist": 20619,
      "myanimelist": 22547,
      "kitsu": 8293
    },
    "i18n": {
      "chi": "剑灵",
      "eng": "Blade & Soul",
      "fre": "Blade & Soul",
      "jpn": "ブレイドアンドソウル",
      "qro": "Blade & Soul"
    },
    "modified_at": "2020-03-31T19:04:31.090Z",
    "name": "Blade & Soul",
    "repository": "kara.moe",
    "tid": "d5db2f72-db67-4d5d-85b2-284e06f6f522",
    "types": [
      "series",
      "1"
    ]
  }
}