{
  "header": {
    "description": "Karaoke Mugen Tag File",
    "version": 1
  },
  "tag": {
    "i18n": {
      "eng": "Blair James Packham"
    },
    "name": "Blair James Packham",
    "tid": "c037f7f7-71f9-400f-9b91-c324dfe2e5e0",
    "types": [
      "songwriters",
      "8"
    ],
    "repository": "kara.moe",
    "modified_at": "2020-03-31T19:04:33.745Z"
  }
}