{
  "header": {
    "description": "Karaoke Mugen Tag File",
    "version": 1
  },
  "tag": {
    "i18n": {
      "eng": "BlazBlue: Chrono Phantasma",
      "jpn": "ブレイブルー クロノファンタズマ",
      "qro": "BlazBlue: Chronophantasma"
    },
    "modified_at": "2020-08-20T18:54:35.310Z",
    "name": "BlazBlue: Chronophantasma",
    "repository": "kara.moe",
    "tid": "2af93397-b42d-4d51-a440-17e2fd20726d",
    "types": [
      "series",
      "1"
    ]
  }
}