{
  "header": {
    "description": "Karaoke Mugen Tag File",
    "version": 1
  },
  "tag": {
    "aliases": [
      "+دم",
      "B+",
      "Blood TV",
      "Blood+",
      "Kraujas Plius",
      "blood plus"
    ],
    "external_database_ids": {
      "anilist": 150,
      "myanimelist": 150,
      "kitsu": 128
    },
    "i18n": {
      "bul": "Кръв+",
      "cze": "BLOOD+",
      "eng": "BLOOD+",
      "fre": "BLOOD+",
      "ger": "Blood+",
      "hun": "BLOOD+",
      "jpn": "BLOOD+",
      "pol": "BLOOD+",
      "por": "Blood+",
      "rum": "BLOOD+",
      "rus": "Кровь+",
      "spa": "Blood+",
      "qro": "Blood+"
    },
    "modified_at": "2020-03-31T19:04:31.100Z",
    "name": "Blood+",
    "repository": "kara.moe",
    "tid": "43dc2602-fdb2-4a84-b9bb-6fbc1f35e876",
    "types": [
      "series",
      "1"
    ]
  }
}