{
  "header": {
    "description": "Karaoke Mugen Tag File",
    "version": 1
  },
  "tag": {
    "i18n": {
      "eng": "BLUEW"
    },
    "name": "BLUEW",
    "tid": "90b61a63-1939-4fc0-875e-e47528d852b4",
    "types": [
      "singers",
      "2"
    ],
    "repository": "kara.moe",
    "modified_at": "2020-03-31T19:04:33.753Z"
  }
}