{
  "header": {
    "description": "Karaoke Mugen Tag File",
    "version": 1
  },
  "tag": {
    "i18n": {
      "eng": "Blue Bandana Jake"
    },
    "modified_at": "2021-01-09T20:33:37.848Z",
    "name": "Blue Bandana Jake",
    "repository": "kara.moe",
    "tid": "b352c60b-80fa-4f3f-b0d0-9df79bc9a6ab",
    "types": [
      "creators",
      "4"
    ]
  }
}