{
  "header": {
    "description": "Karaoke Mugen Tag File",
    "version": 1
  },
  "tag": {
    "i18n": {
      "eng": "Bo Burnham"
    },
    "modified_at": "2021-06-09T19:22:22.221Z",
    "name": "Bo Burnham",
    "repository": "kara.moe",
    "tid": "2d2d901c-b5bb-4b18-9a22-6f8fe776a841",
    "types": [
      "singers",
      "2",
      "songwriters",
      "8",
      "creators",
      "4"
    ]
  }
}