{
  "header": {
    "description": "Karaoke Mugen Tag File",
    "version": 1
  },
  "tag": {
    "i18n": {
      "eng": "Bob Gaudio"
    },
    "name": "Bob Gaudio",
    "tid": "1f30a722-d9ad-4ff5-9c7a-8053b862b5f0",
    "types": [
      "songwriters",
      "8"
    ],
    "repository": "kara.moe",
    "modified_at": "2020-03-31T19:04:33.756Z"
  }
}