{
  "header": {
    "description": "Karaoke Mugen Tag File",
    "version": 1
  },
  "tag": {
    "i18n": {
      "eng": "Bob Crewe"
    },
    "name": "Bob Crewe",
    "tid": "e549b576-695f-4b2f-9fcd-ef9dd365257f",
    "types": [
      "songwriters",
      "8"
    ],
    "repository": "kara.moe",
    "modified_at": "2020-03-31T19:04:33.756Z"
  }
}