{
  "header": {
    "description": "Karaoke Mugen Tag File",
    "version": 1
  },
  "tag": {
    "aliases": [
      "Angelas su Kuoka",
      "Beating Angel Dokuro-chan",
      "Club-To-Death Angel Dokuro-chan",
      "Club-to-death Angel Dokuro-chan",
      "El Ángel de la Maza Mortal Dokuro-chan",
      "Totschlag-Engel Dokuro-chan",
      "btd",
      "dokuro",
      "Убойный ангел Докуро-тян",
      "扑杀天使"
    ],
    "external_database_ids": {
      "anilist": 357,
      "myanimelist": 357,
      "kitsu": 324
    },
    "i18n": {
      "eng": "Bludgeoning Angel Dokuro-chan",
      "fre": "Dokuro-chan",
      "jpn": "撲殺天使ドクロちゃん",
      "qro": "Bokusatsu Tenshi Dokuro-chan"
    },
    "modified_at": "2020-06-21T23:45:31.966Z",
    "name": "Bokusatsu Tenshi Dokuro-chan",
    "repository": "kara.moe",
    "tid": "225b13dc-82f2-40b9-8839-f0e8d45f880a",
    "types": [
      "series",
      "1",
      "franchises",
      "18"
    ]
  }
}