{
  "header": {
    "description": "Karaoke Mugen Tag File",
    "version": 1
  },
  "tag": {
    "aliases": [
      "Boku no Kanojo ga Majime Sugiru Shojo Bitch na Ken",
      "Boku no Kanojo ga Majimesugiru Shojo Bitch na Ken",
      "My Girlfriend is a Faithful Virgin Bitch",
      "僕の彼女がマジメ過ぎる処女ビッチな件",
      "내 여자친구가 너무 진지해서 처녀 비치인 건"
    ],
    "external_database_ids": {
      "anilist": 98951,
      "myanimelist": 35712,
      "kitsu": 13693
    },
    "i18n": {
      "eng": "My Girlfriend Is Shobitch",
      "fre": "My Girlfriend Is Too Much to Handle",
      "jpn": "僕の彼女がマジメ過ぎるしょびっちな件",
      "qro": "Boku no Kanojo ga Majimesugiru Sho-bitch na Ken"
    },
    "modified_at": "2020-03-31T19:04:31.110Z",
    "name": "Boku no Kanojo ga Majimesugiru Sho-bitch na Ken",
    "repository": "kara.moe",
    "tid": "af14b0d1-6145-4f8e-bdda-ee5e149b3eb2",
    "types": [
      "series",
      "1"
    ]
  }
}