{
  "header": {
    "description": "Karaoke Mugen Tag File",
    "version": 1
  },
  "tag": {
    "aliases": [
      "MHA",
      "BNHA",
      "HeroAca"
    ],
    "external_database_ids": {
      "anilist": 139630,
      "kitsu": 45240,
      "myanimelist": 49918
    },
    "i18n": {
      "eng": "My Hero Academia (season 6)",
      "fre": "My Hero Academia (saison 6)",
      "jpn": "僕のヒーローアカデミア (2022)",
      "qro": "Boku no Hero Academia (2022)"
    },
    "name": "Boku no Hero Academia (2022)",
    "repository": "kara.moe",
    "tid": "8c50a7e3-d395-441e-99f8-0180dcd271e4",
    "types": [
      "series",
      "1"
    ]
  }
}