{
  "header": {
    "description": "Karaoke Mugen Tag File",
    "version": 1
  },
  "tag": {
    "aliases": [
      "Love song of the angels.",
      "僕が天使になったわけ"
    ],
    "i18n": {
      "eng": "Bokuten – Why I Became an Angel",
      "fre": "Boku ga Tenshi ni Natta Wake",
      "jpn": "僕が天使になった理由",
      "qro": "Boku ga Tenshi ni Natta Wake"
    },
    "modified_at": "2020-03-31T19:04:31.104Z",
    "name": "Boku ga Tenshi ni Natta Wake",
    "repository": "kara.moe",
    "tid": "4cd084fc-ebc8-4e99-867b-a985ac8d5e45",
    "types": [
      "series",
      "1"
    ]
  }
}