{
  "header": {
    "description": "Karaoke Mugen Tag File",
    "version": 1
  },
  "tag": {
    "aliases": [
      "BokuMachi",
      "Erased - La città in cui io non ci sono",
      "The Town Where Only I am Missing",
      "Город где меня больше нет",
      "Града в който ме няма",
      "Градът в който мен ме няма"
    ],
    "external_database_ids": {
      "anilist": 21234,
      "myanimelist": 31043,
      "kitsu": 11110
    },
    "i18n": {
      "eng": "Erased",
      "fre": "Erased",
      "ger": "Erased - Die Stadt, in der es mich nicht gibt -",
      "jpn": "僕だけがいない街",
      "kor": "나만이 없는 거리",
      "spa": "Desaparecido",
      "qro": "Boku dake ga Inai Machi"
    },
    "modified_at": "2020-03-31T19:04:31.104Z",
    "name": "Boku dake ga Inai Machi",
    "repository": "kara.moe",
    "tid": "64d7562c-f249-4d4d-809a-f43a27223483",
    "types": [
      "series",
      "1"
    ]
  }
}