{
  "header": {
    "description": "Karaoke Mugen Tag File",
    "version": 1
  },
  "tag": {
    "aliases": [
      "BokuHero S3",
      "HeroAca S3",
      "MHA S3",
      "heroaca3"
    ],
    "external_database_ids": {
      "anilist": 100166,
      "myanimelist": 36456,
      "kitsu": 13881
    },
    "i18n": {
      "eng": "My Hero Academia 3rd Season",
      "fre": "My Hero Academia (saison 3)",
      "jpn": "僕のヒーローアカデミア (2018)",
      "kor": "나의 히어로 아카데미아 3",
      "qro": "Boku no Hero Academia S3"
    },
    "modified_at": "2020-03-31T19:04:31.107Z",
    "name": "Boku no Hero Academia S3",
    "repository": "kara.moe",
    "tid": "f462b8dc-9a28-4e3f-865d-3cd9b78e17e1",
    "types": [
      "series",
      "1"
    ]
  }
}