{
  "header": {
    "description": "Karaoke Mugen Tag File",
    "version": 1
  },
  "tag": {
    "i18n": {
      "eng": "Bon Karaya"
    },
    "name": "Bon Karaya",
    "tid": "04e90585-ade8-4499-895e-9456ab7bf19b",
    "types": [
      "songwriters",
      "8"
    ],
    "repository": "kara.moe",
    "modified_at": "2020-03-31T19:04:33.762Z"
  }
}