{
  "header": {
    "description": "Karaoke Mugen Tag File",
    "version": 1
  },
  "tag": {
    "i18n": {
      "eng": "BON'Z"
    },
    "name": "BON'Z",
    "tid": "b9d82dc9-fb60-464c-80b6-a059946fe9f0",
    "types": [
      "singers",
      "2",
      "songwriters",
      "8"
    ],
    "repository": "kara.moe",
    "modified_at": "2020-03-31T19:04:33.762Z"
  }
}