{
  "header": {
    "description": "Karaoke Mugen Tag File",
    "version": 1
  },
  "tag": {
    "i18n": {
      "eng": "Bon-Bon Blanco"
    },
    "name": "Bon-Bon Blanco",
    "tid": "c28f0830-a600-4fe1-bf0f-d04b61b1650c",
    "types": [
      "singers",
      "2"
    ],
    "repository": "kara.moe",
    "modified_at": "2020-03-31T19:04:33.763Z"
  }
}