{
  "header": {
    "description": "Karaoke Mugen Tag File",
    "version": 1
  },
  "tag": {
    "aliases": [
      "BonKoi",
      "Bonjour Koiaji Patisserie",
      "bonkoi",
      "bonjour koiaji",
      "patisserie"
    ],
    "external_database_ids": {
      "anilist": 20813,
      "myanimelist": 25839,
      "kitsu": 8895
    },
    "i18n": {
      "eng": "Bonjour Sweet Love Patisserie",
      "fre": "Bonjour♪Koiaji Pâtisserie",
      "jpn": "Bonjour♪恋味パティスリー",
      "spa": "BONJOUR♪Sweet Love Patisserie",
      "qro": "Bonjour♪Koiaji Pâtisserie"
    },
    "modified_at": "2020-03-31T19:04:31.117Z",
    "name": "Bonjour♪Koiaji Pâtisserie",
    "repository": "kara.moe",
    "tid": "72df3cd0-16b1-4ff8-ac3e-2dbc6e5032f1",
    "types": [
      "series",
      "1"
    ]
  }
}