{
  "header": {
    "description": "Karaoke Mugen Tag File",
    "version": 1
  },
  "tag": {
    "i18n": {
      "eng": "Bonjour Suzuki"
    },
    "name": "Bonjour Suzuki",
    "tid": "7925caaa-cba8-44e7-b3d2-cf7d3422ad41",
    "types": [
      "songwriters",
      "8",
      "singers",
      "2"
    ],
    "repository": "kara.moe",
    "modified_at": "2020-03-31T19:04:33.765Z"
  }
}