{
  "header": {
    "description": "Karaoke Mugen Tag File",
    "version": 1
  },
  "tag": {
    "i18n": {
      "eng": "Bonjwa"
    },
    "name": "Bonjwa",
    "tid": "52241b4a-b141-406d-9166-9f6a50d7734b",
    "types": [
      "authors",
      "6"
    ],
    "repository": "kara.moe",
    "modified_at": "2020-03-31T19:04:33.766Z"
  }
}