{
  "header": {
    "description": "Karaoke Mugen Tag File",
    "version": 1
  },
  "tag": {
    "i18n": {
      "eng": "Bono"
    },
    "modified_at": "2020-07-06T20:35:57.318Z",
    "name": "Bono",
    "repository": "kara.moe",
    "tid": "b5d94a8b-bea7-4eb2-9a17-72eaf4b040ce",
    "types": [
      "songwriters",
      "8"
    ]
  }
}