{
  "header": {
    "description": "Karaoke Mugen Tag File",
    "version": 1
  },
  "tag": {
    "i18n": {
      "eng": "BOOGEY VOXX"
    },
    "modified_at": "2021-11-13T12:57:40.449Z",
    "name": "BOOGEY VOXX",
    "repository": "kara.moe",
    "tid": "159712d4-ee72-4e64-9c42-56a1e164f84c",
    "types": [
      "singers",
      "2"
    ]
  }
}