{
  "header": {
    "description": "Karaoke Mugen Tag File",
    "version": 1
  },
  "tag": {
    "i18n": {
      "afr": "Bosniese",
      "amh": "መገለጫዎ",
      "ara": "البوسنية",
      "aze": "Босниец",
      "bak": "Босний",
      "bel": "Басніец",
      "bul": "Босниец",
      "ben": "বসনিয়ান",
      "bos": "Bosanskih",
      "cat": "Bosnià",
      "cze": "Bosenština",
      "wel": "Bosnian",
      "dan": "Bosniske",
      "ger": "Bosnisch",
      "gre": "Βοσνιακά",
      "eng": "Bosnian",
      "epo": "Bosnia",
      "spa": "Bosnio",
      "est": "Bosnia",
      "baq": "Bosniako",
      "per": "بوسنی",
      "fin": "Bosnian",
      "fre": "Bosniaque",
      "gle": "Boisnis",
      "gla": "Bosnais",
      "glg": "Bosnia",
      "guj": "બોસ્નિયન",
      "heb": "הבוסני.",
      "hin": "बोस्नियाई",
      "hrv": "Босниец",
      "hat": "Bosnian",
      "hun": "Bosnyák",
      "arm": "Босниец",
      "ind": "Bosnia",
      "ice": "Bosníu",
      "ita": "Bosniaco",
      "jpn": "罪",
      "jav": "Bosnia",
      "geo": "ბოსნიური",
      "kaz": "Босниец",
      "kan": "ಬೋಸ್ನಿಯನ್",
      "kor": "보스니아어",
      "kir": "Босниец",
      "lat": "Ucraina",
      "lit": "Bosnių",
      "lav": "Bosnijas",
      "mlg": "Bosniaka",
      "mao": "Azerbaijani",
      "mac": "Босански",
      "mal": "ബോസ്നിയന്",
      "mon": "Bosnian",
      "mar": "बोस्नियन",
      "may": "Bosnia",
      "mlt": "Bosnja",
      "nep": "बोस्नियाली",
      "dut": "Bosnisch",
      "nor": "Bosniske",
      "pan": "ਬੋਸਨੀ",
      "pol": "Босниец",
      "por": "Bósnio",
      "rum": "Bosniacă",
      "rus": "Босниец",
      "sin": "බොස්නියාවේ",
      "slo": "Bosniansky",
      "slv": "Bosanski",
      "alb": "Boshnjake",
      "srp": "Бошњачка",
      "sun": "Bosnia",
      "swe": "Bosniska",
      "swa": "Bosnian",
      "tam": "போஸ்னியன்",
      "tel": "బోస్నియన్",
      "tgk": "Босниец",
      "tha": "ภาษาบอสเนีย name",
      "tgl": "Bosnian",
      "tur": "Bosnalı",
      "tat": "Босниец",
      "ukr": "Боснієць",
      "urd": "بوسنی",
      "uzb": "Bosnian",
      "vie": "Bosnia",
      "xho": "Isibosnian",
      "yid": "באָסניש",
      "chi": "波斯尼亚"
    },
    "name": "bos",
    "tid": "757dc9b9-6589-443f-b8d1-980c6d6e4d24",
    "types": [
      "langs",
      "5"
    ],
    "repository": "kara.moe",
    "modified_at": "2020-03-31T19:04:33.769Z"
  }
}