{
  "header": {
    "description": "Karaoke Mugen Tag File",
    "version": 1
  },
  "tag": {
    "aliases": [
      "A Bosco léghajó kalandjai",
      "Bosco Daibouken",
      "La forêt magique",
      "Przygody Bosco",
      "Приключения Боско",
      "daibouken"
    ],
    "external_database_ids": {
      "anilist": 3460,
      "myanimelist": 3460,
      "kitsu": 3025
    },
    "i18n": {
      "ara": "سفينة الأصدقاء",
      "bul": "Приключенията на Боско",
      "eng": "Bosco Adventure",
      "fre": "Les aventures du Bosco",
      "heb": "חבורת הצב המעופף",
      "ita": "Principessa dai capelli blu",
      "jpn": "ボスコアドベンチャー",
      "pol": "Bosco",
      "srp": "Plava princeza",
      "qro": "Bosco Daibôken"
    },
    "modified_at": "2020-03-31T19:04:31.121Z",
    "name": "Bosco Daibôken",
    "repository": "kara.moe",
    "tid": "30f80cef-f8c0-41d8-a3cb-069a825bd305",
    "types": [
      "series",
      "1"
    ]
  }
}