{
  "header": {
    "description": "Karaoke Mugen Tag File",
    "version": 1
  },
  "tag": {
    "i18n": {
      "eng": "Bpk. Sutirto"
    },
    "name": "Bpk. Sutirto",
    "repository": "kara.moe",
    "tid": "b6cd556d-b111-4866-84f6-14f6f8fe8bad",
    "types": [
      "songwriters",
      "8"
    ]
  }
}