{
  "header": {
    "description": "Karaoke Mugen Tag File",
    "version": 1
  },
  "tag": {
    "i18n": {
      "eng": "Brandon Roy Melancon"
    },
    "name": "Brandon Roy Melancon",
    "repository": "kara.moe",
    "tid": "98b84ad9-262c-4b90-a27a-e94aed540394",
    "types": [
      "songwriters",
      "8"
    ]
  }
}