{
  "header": {
    "description": "Karaoke Mugen Tag File",
    "version": 1
  },
  "tag": {
    "i18n": {
      "eng": "Brave Brothers"
    },
    "name": "Brave Brothers",
    "tid": "8f5c6a93-b2bc-4567-9d1c-c26f2efd3cd0",
    "types": [
      "songwriters",
      "8"
    ],
    "repository": "kara.moe",
    "modified_at": "2020-03-31T19:04:33.782Z"
  }
}