{
  "header": {
    "description": "Karaoke Mugen Tag File",
    "version": 1
  },
  "tag": {
    "i18n": {
      "eng": "BREATHE"
    },
    "name": "BREATHE",
    "tid": "57d557c4-317e-4191-9470-932240413870",
    "types": [
      "singers",
      "2"
    ],
    "repository": "kara.moe",
    "modified_at": "2020-03-31T19:04:33.785Z"
  }
}