{
  "header": {
    "description": "Karaoke Mugen Tag File",
    "version": 1
  },
  "tag": {
    "i18n": {
      "eng": "Brian Molko"
    },
    "modified_at": "2021-05-21T16:29:09.801Z",
    "name": "Brian Molko",
    "repository": "kara.moe",
    "tid": "c8ade018-601e-4444-916e-a57794f5c6f0",
    "types": [
      "songwriters",
      "8"
    ]
  }
}