{
  "header": {
    "description": "Karaoke Mugen Tag File",
    "version": 1
  },
  "tag": {
    "i18n": {
      "eng": "Brief & Trunks",
      "jpn": "ブリーフ&トランクス"
    },
    "name": "Brief & Trunks",
    "repository": "kara.moe",
    "tid": "985297ce-e3c8-421f-9445-08959a6644fa",
    "types": [
      "singergroups",
      "17"
    ]
  }
}