{
  "header": {
    "description": "Karaoke Mugen Tag File",
    "version": 1
  },
  "tag": {
    "i18n": {
      "eng": "Britt McKillip"
    },
    "name": "Britt McKillip",
    "tid": "0eb39956-a6b7-4990-a5b2-f9d45be1d5f8",
    "types": [
      "singers",
      "2"
    ],
    "repository": "kara.moe",
    "modified_at": "2020-03-31T19:04:33.795Z"
  }
}