{
  "header": {
    "description": "Karaoke Mugen Tag File",
    "version": 1
  },
  "tag": {
    "i18n": {
      "eng": "Bruce Straley"
    },
    "name": "Bruce Straley",
    "tid": "816e7d2e-6262-4ee0-b4d2-e97c87fc9d18",
    "types": [
      "songwriters",
      "8"
    ],
    "repository": "kara.moe",
    "modified_at": "2020-03-31T19:04:33.802Z"
  }
}