{
  "header": {
    "description": "Karaoke Mugen Tag File",
    "version": 1
  },
  "tag": {
    "aliases": [
      "BBK",
      "BRNK",
      "ブブキブランキ",
      "ブブキ・ブランキ"
    ],
    "external_database_ids": {
      "anilist": 21471,
      "myanimelist": 32023,
      "kitsu": 11486
    },
    "i18n": {
      "eng": "BBK/BRNK",
      "jpn": "ブブキ･ブランキ",
      "qro": "Bubuki Buranki"
    },
    "modified_at": "2020-03-31T19:04:31.136Z",
    "name": "Bubuki Buranki",
    "repository": "kara.moe",
    "tid": "d65f9d6c-d0bb-408b-b3af-6ff7f333ad30",
    "types": [
      "series",
      "1"
    ]
  }
}