{
  "header": {
    "description": "Karaoke Mugen Tag File",
    "version": 1
  },
  "tag": {
    "external_database_ids": {
      "anilist": 20533,
      "myanimelist": 21437,
      "kitsu": 8139
    },
    "i18n": {
      "eng": "Buddy Complex",
      "jpn": "バディ・コンプレックス",
      "kor": "버디 컴플렉스",
      "qro": "Buddy Complex"
    },
    "modified_at": "2020-03-31T19:04:31.137Z",
    "name": "Buddy Complex",
    "repository": "kara.moe",
    "tid": "12acc57e-f344-4e28-a4bc-81a96f81489e",
    "types": [
      "series",
      "1"
    ]
  }
}