{
  "header": {
    "description": "Karaoke Mugen Tag File",
    "version": 1
  },
  "tag": {
    "external_database_ids": {},
    "i18n": {
      "eng": "Build Divide",
      "jpn": "ビルディバイド"
    },
    "name": "Build Divide",
    "repository": "kara.moe",
    "tid": "d4443016-d32c-422c-b15f-998eb2fb0478",
    "types": [
      "franchises",
      "18"
    ]
  }
}