{
  "header": {
    "description": "Karaoke Mugen Tag File",
    "version": 1
  },
  "tag": {
    "aliases": [
      "Build Divide 1st season"
    ],
    "external_database_ids": {
      "anilist": 132525,
      "myanimelist": 48776,
      "kitsu": 44425
    },
    "i18n": {
      "eng": "Build Divide -#000000- CODE BLACK",
      "jpn": "ビルディバイド -#000000- CODE BLACK"
    },
    "name": "Build Divide: Code Black",
    "repository": "kara.moe",
    "tid": "9dd6bac1-21ca-4d68-881a-cdc6947129ad",
    "types": [
      "series",
      "1"
    ]
  }
}