{
  "header": {
    "description": "Karaoke Mugen Tag File",
    "version": 1
  },
  "tag": {
    "aliases": [
      "BSD",
      "Bungou Stray Dogs",
      "bungou"
    ],
    "external_database_ids": {
      "anilist": 21311,
      "myanimelist": 31478,
      "kitsu": 11339
    },
    "i18n": {
      "eng": "Bungo Stray Dogs",
      "fre": "Bungô Stray Dogs",
      "jpn": "文豪ストレイドッグス",
      "qro": "Bungô Stray Dogs"
    },
    "modified_at": "2020-03-31T19:04:31.139Z",
    "name": "Bungô Stray Dogs",
    "repository": "kara.moe",
    "tid": "1427e787-1b4e-4460-ba4c-8e724b802d80",
    "types": [
      "series",
      "1",
      "franchises",
      "18"
    ]
  }
}