{
  "header": {
    "description": "Karaoke Mugen Tag File",
    "version": 1
  },
  "tag": {
    "i18n": {
      "eng": "BUNNY"
    },
    "name": "BUNNY",
    "tid": "ba03a4a4-3050-4483-8804-05a5dca73bc9",
    "types": [
      "songwriters",
      "8"
    ],
    "repository": "kara.moe",
    "modified_at": "2020-03-31T19:04:33.815Z"
  }
}