{
  "header": {
    "description": "Karaoke Mugen Tag File",
    "version": 1
  },
  "tag": {
    "aliases": [
      "バーン・ザ・ウィッチ"
    ],
    "external_database_ids": {
      "anilist": 116673,
      "myanimelist": 41468,
      "kitsu": 43146
    },
    "i18n": {
      "eng": "Burn the Witch",
      "jpn": "BURN THE WITCH",
      "chi": "龙与魔女",
      "ara": "احرقوا الساحرة",
      "qro": "BURN THE WITCH"
    },
    "modified_at": "2020-11-02T17:48:55.368Z",
    "name": "BURN THE WITCH",
    "repository": "kara.moe",
    "tid": "5212a749-385f-480b-9dc8-fcd87877ca01",
    "types": [
      "series",
      "1"
    ]
  }
}