{
  "header": {
    "description": "Karaoke Mugen Tag File",
    "version": 1
  },
  "tag": {
    "i18n": {
      "eng": "ButterFile Artist"
    },
    "name": "ButterFile Artist",
    "tid": "a8ec8a4f-33f9-45b7-a21c-4b29e82ffdb1",
    "types": [
      "creators",
      "4"
    ],
    "repository": "kara.moe",
    "modified_at": "2020-03-31T19:04:33.821Z"
  }
}