{
  "header": {
    "description": "Karaoke Mugen Tag File",
    "version": 1
  },
  "tag": {
    "i18n": {
      "eng": "ByAsh"
    },
    "modified_at": "2020-12-15T21:48:46.898Z",
    "name": "ByAsh",
    "repository": "kara.moe",
    "tid": "45b536f0-a00e-45d7-be9f-0f28dd1e2a4b",
    "types": [
      "creators",
      "4"
    ]
  }
}