{
  "header": {
    "description": "Karaoke Mugen Tag File",
    "version": 1
  },
  "tag": {
    "aliases": [
      "C - Control",
      "C - The Money of Soul and Possibility Control",
      "C The Money of Soul and Possibility Control",
      "C ~ The Money of Soul and Possibility Control",
      "C: پول روح و کنترل احتمالات",
      "[C] - Control - The Money and Soul of Possibility",
      "С - Парите могат да контролират душата"
    ],
    "external_database_ids": {
      "anilist": 10163,
      "myanimelist": 10163,
      "kitsu": 6061
    },
    "i18n": {
      "eng": "[C] CONTROL - The Money and Soul of Possibility",
      "jpn": "「C」 CONTROL - THE MONEY OF SOUL AND POSSIBILITY",
      "qro": "C: The Money and Soul of Possibility Control"
    },
    "modified_at": "2020-06-21T23:45:31.966Z",
    "name": "C: The Money and Soul of Possibility Control",
    "repository": "kara.moe",
    "tid": "d2a966a2-e595-4dbb-80d1-eb7e6e9bb226",
    "types": [
      "series",
      "1"
    ]
  }
}