{
  "header": {
    "description": "Karaoke Mugen Tag File",
    "version": 1
  },
  "tag": {
    "i18n": {
      "eng": "c.g mix"
    },
    "name": "c.g mix",
    "tid": "a05da456-3805-46c4-bea0-dff69c0fb708",
    "types": [
      "songwriters",
      "8"
    ],
    "repository": "kara.moe",
    "modified_at": "2020-03-31T19:04:33.829Z"
  }
}