{
  "header": {
    "description": "Karaoke Mugen Tag File",
    "version": 1
  },
  "tag": {
    "i18n": {
      "eng": "Callnong"
    },
    "name": "Callnong",
    "repository": "kara.moe",
    "tid": "c50cbb86-1b83-41de-abe9-1e12ac483a90",
    "types": [
      "creators",
      "4"
    ]
  }
}