{
  "header": {
    "description": "Karaoke Mugen Tag File",
    "version": 1
  },
  "tag": {
    "i18n": {
      "eng": "Canako Asashi"
    },
    "name": "Canako Asashi",
    "tid": "06be2038-fc98-4a58-80b6-1339815ac87a",
    "types": [
      "singers",
      "2"
    ],
    "repository": "kara.moe",
    "modified_at": "2020-03-31T19:04:33.836Z"
  }
}