{
  "header": {
    "description": "Karaoke Mugen Tag File",
    "version": 1
  },
  "tag": {
    "i18n": {
      "eng": "Candace Nicole Sosa"
    },
    "name": "Candace Nicole Sosa",
    "repository": "kara.moe",
    "tid": "971d476f-ab25-4018-913a-fcd2253b8889",
    "types": [
      "songwriters",
      "8"
    ]
  }
}