{
  "header": {
    "description": "Karaoke Mugen Tag File",
    "version": 1
  },
  "tag": {
    "i18n": {
      "eng": "cAnON."
    },
    "name": "cAnON.",
    "tid": "e0e8293e-4c3a-4a64-91cc-f47f687c5d08",
    "types": [
      "songwriters",
      "8"
    ],
    "repository": "kara.moe",
    "modified_at": "2020-03-31T19:04:33.837Z"
  }
}