{
  "header": {
    "description": "Karaoke Mugen Tag File",
    "version": 1
  },
  "tag": {
    "i18n": {
      "eng": "Capital Cities"
    },
    "modified_at": "2020-10-25T13:59:40.018Z",
    "name": "Capital Cities",
    "repository": "kara.moe",
    "tid": "5b5d521c-50be-42ee-bd73-907b6c16c3cb",
    "types": [
      "singers",
      "2"
    ]
  }
}