{
  "header": {
    "description": "Karaoke Mugen Tag File",
    "version": 1
  },
  "tag": {
    "i18n": {
      "eng": "Carlos Carrillo"
    },
    "modified_at": "2021-10-10T21:55:44.330Z",
    "name": "Carlos Carrillo",
    "repository": "kara.moe",
    "tid": "4e4d93a7-1e32-4c4c-8ad3-4d7319d8db90",
    "types": [
      "singers",
      "2"
    ]
  }
}