{
  "header": {
    "description": "Karaoke Mugen Tag File",
    "version": 1
  },
  "tag": {
    "i18n": {
      "eng": "Carlo Karges"
    },
    "name": "Carlo Karges",
    "repository": "kara.moe",
    "tid": "cc995842-453f-4d10-91f9-50090b80106a",
    "types": [
      "songwriters",
      "8"
    ]
  }
}