{
  "header": {
    "description": "Karaoke Mugen Tag File",
    "version": 1
  },
  "tag": {
    "i18n": {
      "eng": "Carla Lazzari"
    },
    "name": "Carla Lazzari",
    "repository": "kara.moe",
    "tid": "e021e185-fcd3-4b9e-8bd3-e951bbfed867",
    "types": [
      "singers",
      "2"
    ]
  }
}