{
  "header": {
    "description": "Karaoke Mugen Tag File",
    "version": 1
  },
  "tag": {
    "aliases": [
      "カーニバル・ファンタズム"
    ],
    "external_database_ids": {
      "anilist": 10012,
      "myanimelist": 10012,
      "kitsu": 5992
    },
    "i18n": {
      "chi": "幻想嘉年華",
      "eng": "Carnival Phantasm",
      "jpn": "カーニバル・ファンタズム",
      "qro": "Carnival Phantasm"
    },
    "modified_at": "2020-06-21T23:45:31.966Z",
    "name": "Carnival Phantasm",
    "repository": "kara.moe",
    "tid": "f2dcafb0-7eaf-4096-af6f-af8eb53acc40",
    "types": [
      "series",
      "1"
    ]
  }
}