{
  "header": {
    "description": "Karaoke Mugen Tag File",
    "version": 1
  },
  "tag": {
    "i18n": {
      "eng": "Cartoon Network"
    },
    "name": "Cartoon Network",
    "tid": "fdb3dcea-ccfe-420c-9954-7a6c2e10051a",
    "types": [
      "creators",
      "4"
    ],
    "repository": "kara.moe",
    "modified_at": "2020-03-31T19:04:33.851Z"
  }
}