{
  "header": {
    "description": "Karaoke Mugen Tag File",
    "version": 1
  },
  "tag": {
    "i18n": {
      "eng": "Cartoons"
    },
    "name": "Cartoons",
    "repository": "kara.moe",
    "tid": "484b90b6-1aec-4124-8f9e-efd78d8362f3",
    "types": [
      "singers",
      "2"
    ],
    "modified_at": "2020-03-31T19:04:33.851Z"
  }
}