{
  "header": {
    "description": "Karaoke Mugen Tag File",
    "version": 1
  },
  "tag": {
    "i18n": {
      "eng": "Catherine Conet"
    },
    "name": "Catherine Conet",
    "tid": "d82838df-51d4-4bf0-9447-961b69ccf488",
    "types": [
      "singers",
      "2"
    ],
    "repository": "kara.moe",
    "modified_at": "2020-03-31T19:04:33.856Z"
  }
}