{
  "header": {
    "description": "Karaoke Mugen Tag File",
    "version": 1
  },
  "tag": {
    "i18n": {
      "eng": "Cazzi Opeia"
    },
    "name": "Cazzi Opeia",
    "repository": "kara.moe",
    "tid": "4d0cb615-eac2-4923-90d7-6d0f52e0b60e",
    "types": [
      "songwriters",
      "8"
    ]
  }
}