{
  "header": {
    "description": "Karaoke Mugen Tag File",
    "version": 1
  },
  "tag": {
    "i18n": {
      "eng": "CBS Records"
    },
    "modified_at": "2021-04-29T21:11:37.549Z",
    "name": "CBS Records",
    "repository": "kara.moe",
    "tid": "a4b3c0bf-15ad-44e7-bd74-1c1709f00436",
    "types": [
      "creators",
      "4"
    ]
  }
}