{
  "header": {
    "description": "Karaoke Mugen Tag File",
    "version": 1
  },
  "tag": {
    "i18n": {
      "eng": "Cencoroll"
    },
    "name": "Cencoroll",
    "repository": "kara.moe",
    "tid": "1e183f1a-647a-451f-a68d-8c87e61b4606",
    "types": [
      "franchises",
      "18"
    ]
  }
}