{
  "header": {
    "description": "Karaoke Mugen Tag File",
    "version": 1
  },
  "tag": {
    "aliases": [
      "カオスチャイルド",
      "chaos child"
    ],
    "external_database_ids": {
      "anilist": 21126,
      "myanimelist": 30485,
      "kitsu": 10786
    },
    "i18n": {
      "eng": "ChäoS;Child",
      "jpn": "CHAOS;CHILD",
      "qro": "ChäoS;Child"
    },
    "modified_at": "2020-03-31T19:04:31.168Z",
    "name": "ChäoS;Child",
    "repository": "kara.moe",
    "tid": "1e1f4bb8-1c70-4dac-a7ca-2c300b8b5c84",
    "types": [
      "series",
      "1"
    ]
  }
}