{
  "header": {
    "description": "Karaoke Mugen Tag File",
    "version": 1
  },
  "tag": {
    "i18n": {
      "eng": "Charles Greywolf"
    },
    "modified_at": "2020-10-25T18:20:35.753Z",
    "name": "Charles Greywolf",
    "repository": "kara.moe",
    "tid": "495efc61-4d4b-41a6-aad3-66f1d56fae57",
    "types": [
      "songwriters",
      "8"
    ]
  }
}