{
  "header": {
    "description": "Karaoke Mugen Tag File",
    "version": 1
  },
  "tag": {
    "i18n": {
      "eng": "chelste"
    },
    "name": "chelste",
    "repository": "kara.moe",
    "tid": "09fdd0c3-51ca-4570-a4a1-d0012aeedd5f",
    "types": [
      "authors",
      "6"
    ]
  }
}