{
  "header": {
    "description": "Karaoke Mugen Tag File",
    "version": 1
  },
  "tag": {
    "i18n": {
      "eng": "chelly"
    },
    "name": "chelly",
    "tid": "8a497784-ffdb-4ec7-810e-252c51d144d2",
    "types": [
      "singers",
      "2"
    ],
    "repository": "kara.moe",
    "modified_at": "2020-03-31T19:04:33.885Z"
  }
}