{
  "header": {
    "description": "Karaoke Mugen Tag File",
    "version": 1
  },
  "tag": {
    "i18n": {
      "eng": "Cheong Hoesaeg"
    },
    "name": "Cheong Hoesaeg",
    "repository": "kara.moe",
    "tid": "be00f5e6-1250-4ace-add6-7edef6eedaa9",
    "types": [
      "creators",
      "4"
    ]
  }
}