{
  "header": {
    "description": "Karaoke Mugen Tag File",
    "version": 1
  },
  "tag": {
    "i18n": {
      "eng": "Cherrytree Records"
    },
    "modified_at": "2021-05-21T20:36:07.416Z",
    "name": "Cherrytree Records",
    "repository": "kara.moe",
    "tid": "ed7689db-cc8f-4f27-a860-8cc7dde10c17",
    "types": [
      "creators",
      "4"
    ]
  }
}