{
  "header": {
    "description": "Karaoke Mugen Tag File",
    "version": 1
  },
  "tag": {
    "i18n": {
      "eng": "Cherico"
    },
    "modified_at": "2020-11-23T22:27:45.111Z",
    "name": "Cherico",
    "repository": "kara.moe",
    "tid": "cfc25137-42e2-43c1-a2f4-84bc57d2f2e3",
    "types": [
      "creators",
      "4"
    ]
  }
}