{
  "header": {
    "description": "Karaoke Mugen Tag File",
    "version": 1
  },
  "tag": {
    "aliases": [
      "Chi",
      "Chizzu",
      "Słodki domek Chi",
      "chii",
      "chii1",
      "Милый дом Ти",
      "Милый дом Чи",
      "Сладкият дом на Чи",
      "ביתה המתוק של צ'י",
      "منزل تشي السعيد",
      "甜甜起司猫"
    ],
    "external_database_ids": {
      "anilist": 3841,
      "myanimelist": 3841,
      "kitsu": 3293
    },
    "i18n": {
      "eng": "Chi's Sweet Home",
      "fre": "Chi : Une vie de chat",
      "jpn": "チーズスイートホーム",
      "per": "خانه زیبای چی",
      "tha": "บ้านนี้ต้องมีเหมียว",
      "qro": "Chi's Sweet Home"
    },
    "modified_at": "2020-06-21T23:45:31.966Z",
    "name": "Chi's Sweet Home",
    "repository": "kara.moe",
    "tid": "929e9830-02d1-4d99-96ef-523db18a578f",
    "types": [
      "series",
      "1",
      "franchises",
      "18"
    ]
  }
}