{
  "header": {
    "description": "Karaoke Mugen Tag File",
    "version": 1
  },
  "tag": {
    "aliases": [
      "Chi's 2",
      "Chi's Sweet Home: Atarashii O'uchi",
      "Chi's Sweet Home: Atarashii Ouchi",
      "Chi's Sweet Home: Atarashii Ouchi",
      "Chi's Sweet Home: New Address",
      "Chi2",
      "Chii's New Address",
      "Chii's Sweet Home: Atarashii Ouchi",
      "Chii's Sweet Home: New Address",
      "Chizzu 2",
      "chii2",
      "Милый дом Чи (второй сезон)",
      "הכתובת החדשה של צ'י",
      "ouchi"
    ],
    "external_database_ids": {
      "anilist": 6024,
      "myanimelist": 6024,
      "kitsu": 4388
    },
    "i18n": {
      "eng": "Chi's New Address",
      "fre": "Chi : Une vie de chat 2",
      "jpn": "チーズスイートホーム あたらしいおうち",
      "per": "خانه زیبای چی: آپارتمان جدید",
      "qro": "Chi's Sweet Home: Atarashii Ôchi"
    },
    "modified_at": "2020-03-31T19:04:31.176Z",
    "name": "Chi's Sweet Home: Atarashii Ôchi",
    "repository": "kara.moe",
    "tid": "f770305a-a88d-460d-a2f1-8e7484fece36",
    "types": [
      "series",
      "1"
    ]
  }
}