{
  "header": {
    "description": "Karaoke Mugen Tag File",
    "version": 1
  },
  "tag": {
    "aliases": [
      "Kelly Rae Boyer"
    ],
    "i18n": {
      "eng": "Chi-Chi"
    },
    "modified_at": "2021-11-13T12:57:40.909Z",
    "name": "Chi-Chi",
    "repository": "kara.moe",
    "tid": "45083d12-ba54-4fc5-9fa1-195dc785ecea",
    "types": [
      "songwriters",
      "8",
      "singers",
      "2"
    ]
  }
}