{
  "header": {
    "description": "Karaoke Mugen Tag File",
    "version": 1
  },
  "tag": {
    "i18n": {
      "afr": "Chinese",
      "amh": "ቻይንኛ",
      "ara": "الصينية",
      "aze": "Çin",
      "bak": "- Ҡытай теле",
      "bel": "Кітайскі",
      "bul": "Китайски",
      "ben": "চীনা",
      "bos": "Kineski",
      "cat": "Xinès",
      "cze": "Čínský",
      "wel": "Tseiniaidd",
      "dan": "Kinesisk",
      "ger": "Chinesisch",
      "gre": "Κινέζικα",
      "eng": "Chinese",
      "epo": "La ĉina",
      "spa": "Chino",
      "est": "Hiina",
      "baq": "Txinako",
      "per": "چینی",
      "fin": "Kiinan",
      "fre": "Chinois",
      "gle": "Sínis",
      "gla": "Sìnis",
      "glg": "Chinés",
      "guj": "ચિની",
      "heb": "סיני",
      "hin": "चीनी",
      "hrv": "Kineski",
      "hat": "Chinwa",
      "hun": "Kínai",
      "arm": "Չինարեն",
      "ind": "Cina",
      "ice": "Kínverska",
      "ita": "Cinese",
      "jpn": "中国",
      "jav": "Cina",
      "geo": "ჩინური",
      "kaz": "Қытай",
      "kan": "ಚೀನೀ",
      "kor": "중국",
      "kir": "Китайский",
      "lat": "Seres",
      "lit": "Kinijos",
      "lav": "Ķīniešu",
      "mlg": "Sinoa",
      "mao": "Hainamana",
      "mac": "Кинески",
      "mal": "ചൈനീസ്",
      "mon": "Бнхау-ын",
      "mar": "चीनी",
      "may": "Cina",
      "mlt": "Ċiniż",
      "nep": "चिनियाँ",
      "dut": "Chinees",
      "nor": "Kinesisk",
      "pan": "ਚੀਨੀ",
      "pol": "Chiński",
      "por": "Chinês",
      "rum": "Chineză",
      "rus": "Китайский",
      "sin": "චීන",
      "slo": "Čínske",
      "slv": "Kitajski",
      "alb": "Kineze",
      "srp": "Кинески",
      "sun": "Cina",
      "swe": "Kinesiska",
      "swa": "Kichina",
      "tam": "சீன",
      "tel": "చైనీస్",
      "tgk": "Чин",
      "tha": "จีน",
      "tgl": "Intsik",
      "tur": "Çin",
      "tat": "- Кытай теле",
      "ukr": "Китайський",
      "urd": "چینی",
      "uzb": "Xitoy",
      "vie": "Trung quốc",
      "xho": "Isitshayina",
      "yid": "כינעזיש",
      "chi": "中国"
    },
    "name": "chi",
    "tid": "ad109694-16f7-4386-b8c2-a6db05ad3530",
    "types": [
      "langs",
      "5"
    ],
    "repository": "kara.moe",
    "modified_at": "2020-03-31T19:04:33.891Z"
  }
}