{
  "header": {
    "description": "Karaoke Mugen Tag File",
    "version": 1
  },
  "tag": {
    "aliases": [
      "Mayumura Chiaki"
    ],
    "i18n": {
      "qro": "Chiaki Mayumura",
      "jpn": "眉村ちあき"
    },
    "name": "Chiaki Mayumura",
    "repository": "kara.moe",
    "tid": "91e35074-110a-4401-97c1-d564c2f29a72",
    "types": [
      "singers",
      "2",
      "songwriters",
      "8"
    ]
  }
}