{
  "header": {
    "description": "Karaoke Mugen Tag File",
    "version": 1
  },
  "tag": {
    "i18n": {
      "eng": "Chia"
    },
    "modified_at": "2020-05-01T19:53:57.753Z",
    "name": "Chia",
    "repository": "kara.moe",
    "tid": "2f712e24-201d-416a-ad54-94f81961683c",
    "types": [
      "creators",
      "4"
    ]
  }
}