{
  "header": {
    "description": "Karaoke Mugen Tag File",
    "version": 1
  },
  "tag": {
    "i18n": {
      "eng": "Chiaki Iizuka"
    },
    "modified_at": "2020-08-20T22:56:48.422Z",
    "name": "Chiaki Iizuka",
    "repository": "kara.moe",
    "tid": "e9947bf7-4a18-4ced-b9a2-dbd0502aae86",
    "types": [
      "songwriters",
      "8"
    ]
  }
}