{
  "header": {
    "description": "Karaoke Mugen Tag File",
    "version": 1
  },
  "tag": {
    "aliases": [
      "Little Miss Maruko",
      "Petite Maruko-chan"
    ],
    "external_database_ids": {
      "anilist": 3203,
      "myanimelist": 3203,
      "kitsu": 2855
    },
    "i18n": {
      "eng": "Chibi Maruko-chan (1990)",
      "jpn": "ちびまる子ちゃん (1990)",
      "ara": "ماروكو الصغيرة",
      "tha": "หนูน้อยจอมซ่า มารุโกะจัง",
      "chi": "櫻桃小丸子",
      "qro": "Chibi Maruko-chan (1990)"
    },
    "modified_at": "2020-09-11T17:25:30.082Z",
    "name": "Chibi Maruko-chan (1990)",
    "repository": "kara.moe",
    "tid": "6821155b-2e75-452c-8d16-5a13387feabb",
    "types": [
      "series",
      "1"
    ]
  }
}