{
  "header": {
    "description": "Karaoke Mugen Tag File",
    "version": 1
  },
  "tag": {
    "i18n": {
      "eng": "CHiCO"
    },
    "name": "CHiCO",
    "tid": "60705f2e-e3d4-46a2-a9ce-c641ccddf822",
    "types": [
      "singers",
      "2"
    ],
    "repository": "kara.moe",
    "modified_at": "2020-03-31T19:04:33.898Z"
  }
}