{
  "header": {
    "description": "Karaoke Mugen Tag File",
    "version": 1
  },
  "tag": {
    "i18n": {
      "eng": "Chieko Kawabe"
    },
    "name": "Chieko Kawabe",
    "tid": "0d1af074-febe-4e56-a456-1f8fd8a9d719",
    "types": [
      "singers",
      "2"
    ],
    "repository": "kara.moe",
    "modified_at": "2020-03-31T19:04:33.903Z"
  }
}