{
  "header": {
    "description": "Karaoke Mugen Tag File",
    "version": 1
  },
  "tag": {
    "i18n": {
      "eng": "Chiffon Brownie"
    },
    "name": "Chiffon Brownie",
    "tid": "4e3833c7-74e7-4df9-9592-d1f614da6aa6",
    "types": [
      "songwriters",
      "8"
    ],
    "repository": "kara.moe",
    "modified_at": "2020-03-31T19:04:33.906Z"
  }
}