{
  "header": {
    "description": "Karaoke Mugen Tag File",
    "version": 1
  },
  "tag": {
    "i18n": {
      "eng": "CHIHIRO"
    },
    "name": "CHIHIRO",
    "tid": "62c3a966-a14a-433b-8cc3-dcc7a4a74bc5",
    "types": [
      "songwriters",
      "8",
      "singers",
      "2"
    ],
    "repository": "kara.moe",
    "modified_at": "2020-03-31T19:04:33.914Z"
  }
}