{
  "header": {
    "description": "Karaoke Mugen Tag File",
    "version": 1
  },
  "tag": {
    "i18n": {
      "eng": "Chihiro Aihara"
    },
    "name": "Chihiro Aihara",
    "repository": "kara.moe",
    "tid": "34b6678e-ba18-4b48-985e-586ab6836b27",
    "types": [
      "singers",
      "2"
    ]
  }
}