{
  "header": {
    "description": "Karaoke Mugen Tag File",
    "version": 1
  },
  "tag": {
    "i18n": {
      "eng": "Chika Fujitô"
    },
    "name": "Chika Fujitô",
    "tid": "6c3f4dea-2944-428e-a35a-8097ef6ee030",
    "types": [
      "singers",
      "2"
    ],
    "repository": "kara.moe",
    "modified_at": "2020-03-31T19:04:33.917Z"
  }
}