{
  "header": {
    "description": "Karaoke Mugen Tag File",
    "version": 1
  },
  "tag": {
    "i18n": {
      "eng": "Chikayo Fukuda"
    },
    "name": "Chikayo Fukuda",
    "tid": "f80d9dec-700e-4e9a-b9f1-cf098a8da4a0",
    "types": [
      "songwriters",
      "8"
    ],
    "repository": "kara.moe",
    "modified_at": "2020-03-31T19:04:33.921Z"
  }
}