{
  "header": {
    "description": "Karaoke Mugen Tag File",
    "version": 1
  },
  "tag": {
    "i18n": {
      "eng": "Chika Shirokiri"
    },
    "modified_at": "2021-03-14T18:53:56.318Z",
    "name": "Chika Shirokiri",
    "repository": "kara.moe",
    "tid": "caeb2bcf-5975-4ec8-b9cd-d2718623489f",
    "types": [
      "songwriters",
      "8"
    ]
  }
}