{
  "header": {
    "description": "Karaoke Mugen Tag File",
    "version": 1
  },
  "tag": {
    "i18n": {
      "eng": "Chika Itô"
    },
    "name": "Chika Itô",
    "tid": "038d3405-a62b-49e1-ac7b-03f0a07a5a84",
    "types": [
      "songwriters",
      "8"
    ],
    "repository": "kara.moe",
    "modified_at": "2020-03-31T19:04:33.919Z"
  }
}