{
  "header": {
    "description": "Karaoke Mugen Tag File",
    "version": 1
  },
  "tag": {
    "aliases": [
      "Chikyuu Bouei Kigyou Dai-Guard",
      "Chikyuu Bouei Kigyou DaiGuard",
      "chikyuu",
      "bouei",
      "kigyou"
    ],
    "external_database_ids": {
      "anilist": 1312,
      "myanimelist": 1312,
      "kitsu": 1177
    },
    "i18n": {
      "eng": "Dai-Guard",
      "fre": "Terrestrial Defense Corp. Dai-Guard",
      "jpn": "地球防衛企業ダイ・ガード",
      "qro": "Chikyû Bôei Kigyô Dai-Guard"
    },
    "modified_at": "2020-06-21T23:45:31.966Z",
    "name": "Chikyû Bôei Kigyô Dai-Guard",
    "repository": "kara.moe",
    "tid": "c1392dfa-e49d-4cc3-98b2-521aa9c1b178",
    "types": [
      "series",
      "1"
    ]
  }
}