{
  "header": {
    "description": "Karaoke Mugen Tag File",
    "version": 1
  },
  "tag": {
    "i18n": {
      "eng": "Chikae Takahashi"
    },
    "name": "Chikae Takahashi",
    "tid": "52286fc0-27d0-4b1d-8863-03206c62c544",
    "types": [
      "songwriters",
      "8"
    ],
    "repository": "kara.moe",
    "modified_at": "2020-03-31T19:04:33.920Z"
  }
}