{
  "header": {
    "description": "Karaoke Mugen Tag File",
    "version": 1
  },
  "tag": {
    "i18n": {
      "eng": "Chinozo"
    },
    "modified_at": "2021-06-26T09:44:02.071Z",
    "name": "Chinozo",
    "repository": "kara.moe",
    "tid": "38d440f0-af1f-4c2d-9a15-1327aa882bbf",
    "types": [
      "songwriters",
      "8",
      "creators",
      "4"
    ]
  }
}