{
  "header": {
    "description": "Karaoke Mugen Tag File",
    "version": 1
  },
  "tag": {
    "i18n": {
      "eng": "Chiro Kanzaki"
    },
    "name": "Chiro Kanzaki",
    "tid": "622a1f15-ef65-4c3d-8f10-fd9ed195f99c",
    "types": [
      "singers",
      "2"
    ],
    "repository": "kara.moe",
    "modified_at": "2020-03-31T19:04:33.928Z"
  }
}