{
  "header": {
    "description": "Karaoke Mugen Tag File",
    "version": 1
  },
  "tag": {
    "i18n": {
      "eng": "Chisato Nishimura"
    },
    "name": "Chisato Nishimura",
    "tid": "ede1518b-953e-4174-a4fb-8521eac1daf8",
    "types": [
      "songwriters",
      "8"
    ],
    "repository": "kara.moe",
    "modified_at": "2020-03-31T19:04:33.933Z"
  }
}