{
  "header": {
    "description": "Karaoke Mugen Tag File",
    "version": 1
  },
  "tag": {
    "i18n": {
      "eng": "Chisa Yokoyama"
    },
    "name": "Chisa Yokoyama",
    "tid": "f6ed977b-9c0f-47ac-94e0-40859034624a",
    "types": [
      "singers",
      "2"
    ],
    "repository": "kara.moe",
    "modified_at": "2020-03-31T19:04:33.931Z"
  }
}