{
  "header": {
    "description": "Karaoke Mugen Tag File",
    "version": 1
  },
  "tag": {
    "aliases": [
      "Kudou"
    ],
    "i18n": {
      "eng": "Chitose Kudô",
      "jpn": "久遠千歳"
    },
    "name": "Chitose Kudô",
    "repository": "kara.moe",
    "tid": "2ab1fc97-3d87-4422-b0fe-801b0e415b63",
    "types": [
      "singers",
      "2"
    ]
  }
}