{
  "header": {
    "description": "Karaoke Mugen Tag File",
    "version": 1
  },
  "tag": {
    "i18n": {
      "eng": "Chitose Hajime"
    },
    "name": "Chitose Hajime",
    "tid": "760d0cba-2d78-457e-88c3-91a55def0331",
    "types": [
      "singers",
      "2"
    ],
    "repository": "kara.moe",
    "modified_at": "2020-03-31T19:04:33.934Z"
  }
}