{
  "header": {
    "description": "Karaoke Mugen Tag File",
    "version": 1
  },
  "tag": {
    "i18n": {
      "eng": "Chiyomaru Shikura"
    },
    "name": "Chiyomaru Shikura",
    "tid": "66339ced-7df9-40c8-aefd-59b2990df294",
    "types": [
      "songwriters",
      "8",
      "singers",
      "2"
    ],
    "repository": "kara.moe",
    "modified_at": "2020-03-31T19:04:33.938Z"
  }
}