{
  "header": {
    "description": "Karaoke Mugen Tag File",
    "version": 1
  },
  "tag": {
    "i18n": {
      "eng": "Chlore"
    },
    "name": "Chlore",
    "tid": "38c2b2a5-de94-4552-a30a-90446b7f3b32",
    "types": [
      "authors",
      "6"
    ],
    "repository": "kara.moe",
    "modified_at": "2020-03-31T19:04:33.938Z"
  }
}