{
  "header": {
    "description": "Karaoke Mugen Tag File",
    "version": 1
  },
  "tag": {
    "aliases": [
      "Чобитс",
      "Чобіти",
      "人形电脑天使心"
    ],
    "external_database_ids": {
      "anilist": 59,
      "myanimelist": 59,
      "kitsu": 40
    },
    "i18n": {
      "eng": "Chobits",
      "fre": "Chobits",
      "ger": "Chobits",
      "jpn": "ちょびっツ",
      "kor": "쵸빗츠",
      "pol": "Chobits",
      "por": "Chobits",
      "rus": "Чобиты",
      "qro": "Chobits"
    },
    "modified_at": "2020-03-31T19:04:31.187Z",
    "name": "Chobits",
    "repository": "kara.moe",
    "tid": "40290dd3-afa6-4b3c-b83f-f3d27eddd3bf",
    "types": [
      "series",
      "1"
    ]
  }
}