{
  "header": {
    "description": "Karaoke Mugen Tag File",
    "version": 1
  },
  "tag": {
    "external_database_ids": {
      "anilist": 18599,
      "myanimelist": 18599,
      "kitsu": 7819
    },
    "i18n": {
      "eng": "Chocotan!",
      "jpn": "チョコタン!",
      "qro": "Chocotan!"
    },
    "modified_at": "2020-03-31T19:04:31.188Z",
    "name": "Chocotan!",
    "repository": "kara.moe",
    "tid": "33c7152e-8b6f-4d1f-9ef4-eecb848ddc38",
    "types": [
      "series",
      "1"
    ]
  }
}