{
  "header": {
    "description": "Karaoke Mugen Tag File",
    "version": 1
  },
  "tag": {
    "i18n": {
      "eng": "Chœurs de l'Armée rouge"
    },
    "modified_at": "2020-07-03T20:55:01.754Z",
    "name": "Chœurs de l'Armée rouge",
    "repository": "kara.moe",
    "tid": "fd83944a-fed7-462d-a05e-931ada3532fb",
    "types": [
      "singers",
      "2"
    ]
  }
}