{
  "header": {
    "description": "Karaoke Mugen Tag File",
    "version": 1
  },
  "tag": {
    "i18n": {
      "eng": "Choi Chul Ho"
    },
    "name": "Choi Chul Ho",
    "tid": "84c1b336-aea1-4fce-920d-65969c4549cb",
    "types": [
      "songwriters",
      "8"
    ],
    "repository": "kara.moe",
    "modified_at": "2020-03-31T19:04:33.940Z"
  }
}