{
  "header": {
    "description": "Karaoke Mugen Tag File",
    "version": 1
  },
  "tag": {
    "i18n": {
      "eng": "Choi Kyu Sung"
    },
    "name": "Choi Kyu Sung",
    "tid": "d11faafc-f6c0-4c07-9d48-2c088b23e439",
    "types": [
      "songwriters",
      "8"
    ],
    "repository": "kara.moe",
    "modified_at": "2020-03-31T19:04:33.941Z"
  }
}