{
  "header": {
    "description": "Karaoke Mugen Tag File",
    "version": 1
  },
  "tag": {
    "i18n": {
      "eng": "chomori"
    },
    "name": "chomori",
    "repository": "kara.moe",
    "tid": "e9ff8e4f-cf0e-4cc2-a90f-cfdbc0677858",
    "types": [
      "creators",
      "4"
    ]
  }
}