{
  "header": {
    "description": "Karaoke Mugen Tag File",
    "version": 1
  },
  "tag": {
    "i18n": {
      "eng": "Chomei Kaapu Fan"
    },
    "name": "Chomei Kaapu Fan",
    "tid": "b5ce3748-7727-4729-94ba-784bbf2514c6",
    "types": [
      "singers",
      "2"
    ],
    "repository": "kara.moe",
    "modified_at": "2020-03-31T19:04:33.945Z"
  }
}