{
  "header": {
    "description": "Karaoke Mugen Tag File",
    "version": 1
  },
  "tag": {
    "i18n": {
      "eng": "Chorogons"
    },
    "name": "Chorogons",
    "tid": "bf1f0c1a-d142-430c-aea9-fc8acf01a5a5",
    "types": [
      "singers",
      "2"
    ],
    "repository": "kara.moe",
    "modified_at": "2020-03-31T19:04:33.946Z"
  }
}