{
  "header": {
    "description": "Karaoke Mugen Tag File",
    "version": 1
  },
  "tag": {
    "aliases": [
      "Choujin Sentai Baratack",
      "Superman Task Force Baratack",
      "choujin"
    ],
    "external_database_ids": {
      "anilist": 6970,
      "myanimelist": 6970,
      "kitsu": 4811
    },
    "i18n": {
      "eng": "Superhuman Combat Team Baratack",
      "fin": "Balatack",
      "jpn": "超人戦隊バラタック",
      "spa": "Balatak",
      "swe": "Balatack",
      "qro": "Chôjin Sentai Baratack"
    },
    "modified_at": "2020-03-31T19:04:31.206Z",
    "name": "Chôjin Sentai Baratack",
    "repository": "kara.moe",
    "tid": "736d75e6-79dd-4db7-9737-50bb144c4f3e",
    "types": [
      "series",
      "1"
    ]
  }
}