{
  "header": {
    "description": "Karaoke Mugen Tag File",
    "version": 1
  },
  "tag": {
    "aliases": [
      "macross 2",
      "chou",
      "jikuu",
      "yousai"
    ],
    "external_database_ids": {
      "anilist": 1262,
      "myanimelist": 1262,
      "kitsu": 1137
    },
    "i18n": {
      "eng": "Super Dimension Fortress Macross II: Lovers Again",
      "fin": "Macross II - Yliulottuvaisuuden linnake",
      "ger": "Macross II",
      "jpn": "超時空要塞マクロスII -Lovers Again-",
      "pol": "Macross II",
      "qro": "Chô Jikû Yôsai Macross II: Lovers Again"
    },
    "modified_at": "2020-06-21T23:45:31.966Z",
    "name": "Chô Jikû Yôsai Macross II: Lovers Again",
    "repository": "kara.moe",
    "tid": "656ad00b-4440-449b-9cf5-4de3a96637d7",
    "types": [
      "series",
      "1"
    ]
  }
}