{
  "header": {
    "description": "Karaoke Mugen Tag File",
    "version": 1
  },
  "tag": {
    "aliases": [
      "Chou Jikuu Kidan Southern Cross",
      "Robotech The Masters",
      "Robotech: The Masters",
      "The Southern Cross",
      "chou",
      "jikuu"
    ],
    "external_database_ids": {
      "anilist": 4503,
      "myanimelist": 4503,
      "kitsu": 3653
    },
    "i18n": {
      "eng": "Super Dimensional Cavalry Southern Cross",
      "fre": "Super Dimensional Cavalry Southern Cross",
      "jpn": "超時空騎団サザンクロス",
      "qro": "Chô Jikû Kidan Southern Cross"
    },
    "modified_at": "2020-06-21T23:45:31.966Z",
    "name": "Chô Jikû Kidan Southern Cross",
    "repository": "kara.moe",
    "tid": "9a166587-d4ac-4484-9253-f572d95ad131",
    "types": [
      "series",
      "1"
    ]
  }
}