{
  "header": {
    "description": "Karaoke Mugen Tag File",
    "version": 1
  },
  "tag": {
    "i18n": {
      "eng": "ChouCho"
    },
    "name": "ChouCho",
    "tid": "b140bce2-2cc0-4a87-bddf-5af47293e458",
    "types": [
      "singers",
      "2",
      "songwriters",
      "8"
    ],
    "repository": "kara.moe",
    "modified_at": "2020-03-31T19:04:33.947Z"
  }
}