{
  "header": {
    "description": "Karaoke Mugen Tag File",
    "version": 1
  },
  "tag": {
    "aliases": [
      "Chou Gekijouban Keroro Gunsou: Gekishin Dragon Warriors de Arimasu!",
      "chou",
      "gekijouban",
      "gunsou"
    ],
    "i18n": {
      "eng": "Keroro Gunso the Super Movie 4: Gekishin Dragon Warriors",
      "jpn": "超劇場版ケロロ軍曹 撃侵ドラゴンウォリアーズであります!",
      "qro": "Chô Gekijôban Keroro Gunsô 4: Gekishin Dragon Warriors de Arimasu!"
    },
    "modified_at": "2020-03-31T19:04:31.192Z",
    "name": "Chô Gekijôban Keroro Gunsô 4: Gekishin Dragon Warriors de Arimasu!",
    "repository": "kara.moe",
    "tid": "97448fc0-bb6d-4d8b-9491-a5d1e912d897",
    "types": [
      "series",
      "1"
    ]
  }
}