{
  "header": {
    "description": "Karaoke Mugen Tag File",
    "version": 1
  },
  "tag": {
    "aliases": [
      "Choujin Sentai Jetman",
      "choujin"
    ],
    "i18n": {
      "eng": "Jetman",
      "fre": "Jetman",
      "jpn": "鳥人戦隊ジェットマン",
      "qro": "Chôjin Sentai Jetman"
    },
    "modified_at": "2020-03-31T19:04:31.207Z",
    "name": "Chôjin Sentai Jetman",
    "repository": "kara.moe",
    "tid": "d4c87bc2-bacc-48fc-93f5-e36de865a6fc",
    "types": [
      "series",
      "1"
    ]
  }
}