{
  "header": {
    "description": "Karaoke Mugen Tag File",
    "version": 1
  },
  "tag": {
    "i18n": {
      "eng": "Hyperdimension Neptunia Re;Birth1",
      "jpn": "超次次元ゲイム ネプテューヌRe;Birth1",
      "qro": "Chôjijigen Game Neptune Re;Birth1"
    },
    "modified_at": "2020-03-31T19:04:31.203Z",
    "name": "Chôjijigen Game Neptune Re;Birth1",
    "repository": "kara.moe",
    "tid": "4d97fb96-c57d-4edb-b0fc-54ca9d613659",
    "types": [
      "series",
      "1"
    ]
  }
}