{
  "header": {
    "description": "Karaoke Mugen Tag File",
    "version": 1
  },
  "tag": {
    "aliases": [
      "Chou Shinsei Flashman",
      "Choushinsei Flashman",
      "choushinsei"
    ],
    "i18n": {
      "eng": "Supernova Flashman",
      "jpn": "超新星フラッシュマン",
      "qro": "Chôshinsei Flashman"
    },
    "modified_at": "2020-03-31T19:04:31.211Z",
    "name": "Chôshinsei Flashman",
    "repository": "kara.moe",
    "tid": "e59f4500-7f35-428a-bdef-a06737713718",
    "types": [
      "series",
      "1"
    ]
  }
}