{
  "header": {
    "description": "Karaoke Mugen Tag File",
    "version": 1
  },
  "tag": {
    "aliases": [
      "Choujin Barom 1",
      "choujin"
    ],
    "i18n": {
      "eng": "Barom-1",
      "jpn": "超人バロム・1",
      "qro": "Chôjin Barom 1"
    },
    "modified_at": "2020-03-31T19:04:31.204Z",
    "name": "Chôjin Barom 1",
    "repository": "kara.moe",
    "tid": "c0cae801-89a5-495a-a4c2-c4860e4c7cdc",
    "types": [
      "series",
      "1"
    ]
  }
}