{
  "header": {
    "description": "Karaoke Mugen Tag File",
    "version": 1
  },
  "tag": {
    "aliases": [
      "Chou Juushin Gravion",
      "Choujuushin Gravion",
      "Super Heavy God Gravion",
      "choujuushin"
    ],
    "external_database_ids": {
      "anilist": 833,
      "myanimelist": 833,
      "kitsu": 738
    },
    "i18n": {
      "eng": "Gravion",
      "fre": "Super Gravity God Gravion",
      "jpn": "超重神グラヴィオン",
      "por": "Gravion",
      "qro": "Chôjûshin Gravion"
    },
    "modified_at": "2020-03-31T19:04:31.210Z",
    "name": "Chôjûshin Gravion",
    "repository": "kara.moe",
    "tid": "49b88b15-976a-4c4f-a185-edef659cf947",
    "types": [
      "series",
      "1",
      "franchises",
      "18"
    ]
  }
}