{
  "header": {
    "description": "Karaoke Mugen Tag File",
    "version": 1
  },
  "tag": {
    "i18n": {
      "eng": "Christophe Després"
    },
    "modified_at": "2021-09-05T21:11:52.463Z",
    "name": "Christophe Després",
    "repository": "kara.moe",
    "tid": "177be5c6-0b8e-4b79-a9c2-ea320a9fa68a",
    "types": [
      "songwriters",
      "8"
    ]
  }
}