{
  "header": {
    "description": "Karaoke Mugen Tag File",
    "version": 1
  },
  "tag": {
    "i18n": {
      "eng": "Christophe Casanave"
    },
    "modified_at": "2021-05-11T20:19:23.049Z",
    "name": "Christophe Casanave",
    "repository": "kara.moe",
    "tid": "11cc27ca-2567-4f96-bbde-4e21d7a257ce",
    "types": [
      "songwriters",
      "8"
    ]
  }
}