{
  "header": {
    "description": "Karaoke Mugen Tag File",
    "version": 1
  },
  "tag": {
    "i18n": {
      "eng": "Chris Warren Jr."
    },
    "modified_at": "2020-07-07T09:07:48.011Z",
    "name": "Chris Warren Jr.",
    "repository": "kara.moe",
    "tid": "adb81e40-9383-4527-a989-6442e9740f14",
    "types": [
      "singers",
      "2"
    ]
  }
}