{
  "header": {
    "description": "Karaoke Mugen Tag File",
    "version": 1
  },
  "tag": {
    "i18n": {
      "eng": "Chris Marlow"
    },
    "name": "Chris Marlow",
    "tid": "40f53332-f8ea-4d85-b3b4-f8ea7f71ce28",
    "types": [
      "singers",
      "2"
    ],
    "repository": "kara.moe",
    "modified_at": "2020-03-31T19:04:33.950Z"
  }
}