{
  "header": {
    "description": "Karaoke Mugen Tag File",
    "version": 1
  },
  "tag": {
    "i18n": {
      "eng": "Christina Fry"
    },
    "name": "Christina Fry",
    "repository": "kara.moe",
    "tid": "e0aed030-5e6f-4d68-a37a-841b5eedfb26",
    "types": [
      "singers",
      "2"
    ]
  }
}