{
  "header": {
    "description": "Karaoke Mugen Tag File",
    "version": 1
  },
  "tag": {
    "i18n": {
      "eng": "Chris James"
    },
    "name": "Chris James",
    "repository": "kara.moe",
    "tid": "3ea6777e-09fa-43eb-ae21-070b1a39fa08",
    "types": [
      "songwriters",
      "8"
    ]
  }
}