{
  "header": {
    "description": "Karaoke Mugen Tag File",
    "version": 1
  },
  "tag": {
    "aliases": [
      "Kuronosutashia"
    ],
    "i18n": {
      "eng": "Chronostacia",
      "jpn": "クロノスタシア",
      "qro": "Chronostacia"
    },
    "modified_at": "2020-03-31T19:04:31.215Z",
    "name": "Chronostacia",
    "repository": "kara.moe",
    "tid": "ebe9464f-e1d2-41a7-8313-edadb0c737dd",
    "types": [
      "series",
      "1"
    ]
  }
}