{
  "header": {
    "description": "Karaoke Mugen Tag File",
    "version": 1
  },
  "tag": {
    "i18n": {
      "eng": "Chrono Clock",
      "jpn": "クロノクロック",
      "qro": "Chrono Clock"
    },
    "modified_at": "2020-03-31T19:04:31.214Z",
    "name": "Chrono Clock",
    "repository": "kara.moe",
    "tid": "61d1b3f4-e6a2-49b3-acc4-187bf9839967",
    "types": [
      "series",
      "1"
    ]
  }
}