{
  "header": {
    "description": "Karaoke Mugen Tag File",
    "version": 1
  },
  "tag": {
    "aliases": [
      "クロノサークル"
    ],
    "i18n": {
      "eng": "Chrono Circle"
    },
    "name": "Chrono Circle",
    "repository": "kara.moe",
    "tid": "77885a76-4566-46ee-b681-b9a2d857ff4c",
    "types": [
      "series",
      "1"
    ]
  }
}