{
  "header": {
    "description": "Karaoke Mugen Tag File",
    "version": 1
  },
  "tag": {
    "aliases": [
      "Chu-2 Byo",
      "Chu-2 Byo demo Koi ga Shitai! Ren",
      "Chu2Koi Ren",
      "Chuu2Koi Ren",
      "Chuunibyou Demo KOI ga Shitai! Ren",
      "Chuunibyou demo Koi ga Shitai! 2",
      "chu2ren",
      "chuu2koiren",
      "chuu2ren",
      "chuunibyou"
    ],
    "external_database_ids": {
      "anilist": 18671,
      "myanimelist": 18671,
      "kitsu": 7705
    },
    "i18n": {
      "chi": "中二病也要谈恋爱! 恋",
      "eng": "Love, Chunibyo and Other Delusions! Heart Throb",
      "fre": "Love, Chunibyo & Other Delusions ! Heart Throb",
      "jpn": "中二病でも恋がしたい! 戀",
      "kor": "중2병이라도 사랑이 하고 싶어! 연",
      "pol": "Miłość, gimbaza i kosmiczna faza: Porywy serca",
      "qro": "Chûnibyô Demo KOI ga Shitai! Ren"
    },
    "modified_at": "2020-03-31T19:04:31.219Z",
    "name": "Chûnibyô Demo KOI ga Shitai! Ren",
    "repository": "kara.moe",
    "tid": "31c8bd02-a9dc-48e0-b170-c572a07e5d2c",
    "types": [
      "series",
      "1"
    ]
  }
}