{
  "header": {
    "description": "Karaoke Mugen Tag File",
    "version": 1
  },
  "tag": {
    "aliases": [
      "Chu-2 Byo Lite",
      "Chu-2 Byo demo Koi ga Shitai! Ren Lite",
      "Chu2Koi Ren Lite",
      "Chuu2Koi Ren Lite",
      "Chuunibyou Demo KOI ga Shitai! Ren Lite",
      "Chuunibyou demo Koi ga Shitai! 2 Lite",
      "chu2ren Lite",
      "chuu2koiren Lite",
      "chuu2ren Lite",
      "chuunibyou"
    ],
    "external_database_ids": {
      "anilist": 20582,
      "myanimelist": 21797,
      "kitsu": 8154
    },
    "i18n": {
      "eng": "Love, Chunibyo & Other Delusions! Heart Throb Lite Shorts",
      "fre": "Love, Chunibyo & Other Delusions ! Heart Throb Lite Shorts",
      "jpn": "中二病でも恋がしたい！戀 Lite",
      "qro": "Chûnibyô Demo KOI ga Shitai! Ren Lite"
    },
    "modified_at": "2020-03-31T19:04:31.219Z",
    "name": "Chûnibyô Demo KOI ga Shitai! Ren Lite",
    "repository": "kara.moe",
    "tid": "0d65766c-9ece-41ad-bc1d-9d5718cd3003",
    "types": [
      "series",
      "1"
    ]
  }
}