{
  "header": {
    "description": "Karaoke Mugen Tag File",
    "version": 1
  },
  "tag": {
    "aliases": [
      "Young disease outburst Boy"
    ],
    "external_database_ids": {
      "anilist": 109089,
      "myanimelist": 38390,
      "kitsu": 42120
    },
    "i18n": {
      "eng": "Outburst Dreamer Boys",
      "fre": "Chûbyô Gekihatsu Boy",
      "jpn": "厨病激発ボーイ",
      "qro": "Chuubyou Gekihatsu-Boy"
    },
    "modified_at": "2020-03-31T19:04:31.217Z",
    "name": "Chuubyou Gekihatsu-Boy",
    "repository": "kara.moe",
    "tid": "7c165ebc-2f9f-4be6-9c8b-a41e66374714",
    "types": [
      "series",
      "1"
    ]
  }
}