{
  "header": {
    "description": "Karaoke Mugen Tag File",
    "version": 1
  },
  "tag": {
    "aliases": [
      "Chu-2 Byo",
      "Chu-2 Byou demo Koi ga Shitai!",
      "Chu2Koi",
      "Chuu2Koi",
      "Chuunibyou Demo KOI ga Shitai!",
      "Love Chunibyo & Other Delusions",
      "Regardless of My Adolescent Delusions of Grandeur I Want a Date!",
      "chu2koi",
      "chuu2koi",
      "Чюнібьо теж хочуть кохати!",
      "Я не от мира сего но тоже любить хочу!",
      "中二病也想谈恋爱!",
      "chuunibyou"
    ],
    "external_database_ids": {
      "anilist": 14741,
      "myanimelist": 14741,
      "kitsu": 7160
    },
    "i18n": {
      "chi": "中二病也要谈恋爱!",
      "eng": "Love, Chunibyo & Other Delusions!",
      "fre": "Love, Chunibyo & Other Delusions !",
      "jpn": "中二病でも恋がしたい!",
      "kor": "중2병이라도 사랑이 하고 싶어!",
      "pol": "Miłość, gimbaza i kosmiczna faza",
      "qro": "Chûnibyô Demo KOI ga Shitai!"
    },
    "modified_at": "2020-03-31T19:04:31.221Z",
    "name": "Chûnibyô Demo KOI ga Shitai!",
    "repository": "kara.moe",
    "tid": "ed5a577a-e69a-4323-aa6f-87ca936c5723",
    "types": [
      "series",
      "1",
      "franchises",
      "18"
    ]
  }
}