{
  "header": {
    "description": "Karaoke Mugen Tag File",
    "version": 1
  },
  "tag": {
    "i18n": {
      "eng": "cibo"
    },
    "name": "cibo",
    "repository": "kara.moe",
    "tid": "0f5cc170-a057-42a9-974e-da4a4d74068b",
    "types": [
      "creators",
      "4"
    ]
  }
}