{
  "header": {
    "description": "Karaoke Mugen Tag File",
    "version": 1
  },
  "tag": {
    "aliases": [
      "WTC 5",
      "When the Storks Cry"
    ],
    "i18n": {
      "eng": "Ciconia: When They Cry",
      "jpn": "コニアのなく頃に",
      "qro": "Ciconia no Naku Koro ni"
    },
    "modified_at": "2021-04-21T15:43:09.194Z",
    "name": "Ciconia no Naku Koro ni",
    "repository": "kara.moe",
    "tid": "c6c13505-ef19-4b7d-ac2a-ce429b665399",
    "types": [
      "series",
      "1"
    ]
  }
}