{
  "header": {
    "description": "Karaoke Mugen Tag File",
    "version": 1
  },
  "tag": {
    "i18n": {
      "eng": "cielkocka"
    },
    "name": "cielkocka",
    "repository": "kara.moe",
    "tid": "66b10e51-74c4-4af6-90e4-71b034e2b508",
    "types": [
      "creators",
      "4"
    ]
  }
}