{
  "header": {
    "description": "Karaoke Mugen Tag File",
    "version": 1
  },
  "tag": {
    "external_database_ids": {
      "anilist": 141055,
      "myanimelist": 50288,
      "kitsu": 45477
    },
    "i18n": {
      "eng": "Cinderella",
      "fre": "Cendrillon",
      "jpn": "シンデレラ",
      "qro": "Cinderella"
    },
    "modified_at": "2020-03-31T19:04:31.221Z",
    "name": "Cinderella",
    "repository": "kara.moe",
    "tid": "d432ce36-a265-48ae-ac7f-3f58a23ff3db",
    "types": [
      "series",
      "1"
    ]
  }
}