{
  "header": {
    "description": "Karaoke Mugen Tag File",
    "version": 1
  },
  "tag": {
    "i18n": {
      "eng": "cinema staff"
    },
    "name": "cinema staff",
    "tid": "f7a6883f-914f-4727-8a38-5a1caf9610f5",
    "types": [
      "singers",
      "2",
      "songwriters",
      "8"
    ],
    "repository": "kara.moe",
    "modified_at": "2020-03-31T19:04:33.967Z"
  }
}