{
  "header": {
    "description": "Karaoke Mugen Tag File",
    "version": 1
  },
  "tag": {
    "i18n": {
      "eng": "cinnamons"
    },
    "modified_at": "2021-07-24T21:24:32.318Z",
    "name": "cinnamons",
    "repository": "kara.moe",
    "tid": "3ecf7a93-6a88-404c-a3f8-9f75ab855388",
    "types": [
      "singers",
      "2"
    ]
  }
}