{
  "header": {
    "description": "Karaoke Mugen Tag File",
    "version": 1
  },
  "tag": {
    "aliases": [
      "City Hunter - Goodbye My Sweetheart",
      "City Hunter Special: Good-by My Sweet Heart",
      "City Hunter: The Motion Picture",
      "シティーハンター スペシャル グッド・バイ・マイ・スイート・ハート"
    ],
    "external_database_ids": {
      "anilist": 1478,
      "myanimelist": 1478,
      "kitsu": 1324
    },
    "i18n": {
      "eng": "City Hunter: Goodbye My Sweetheart",
      "fre": "Nicky Larson : Goodbye My Sweetheart",
      "ita": "City Hunter Special 5 - La Rosa Nera",
      "jpn": "シティーハンタースペシャル グッド・バイ・マイ・スイート・ハート",
      "qro": "City Hunter Special: Goodbye My Sweetheart"
    },
    "modified_at": "2020-03-31T19:04:31.224Z",
    "name": "City Hunter Special: Goodbye My Sweetheart",
    "repository": "kara.moe",
    "tid": "2ff77550-fb99-4d97-bbb5-397db985f689",
    "types": [
      "series",
      "1"
    ]
  }
}