{
  "header": {
    "description": "Karaoke Mugen Tag File",
    "version": 1
  },
  "tag": {
    "i18n": {
      "eng": "Claire"
    },
    "name": "Claire",
    "tid": "33f5005d-b126-4200-995e-c23e44cc4698",
    "types": [
      "singers",
      "2"
    ],
    "repository": "kara.moe",
    "modified_at": "2020-03-31T19:04:33.972Z"
  }
}