{
  "header": {
    "description": "Karaoke Mugen Tag File",
    "version": 1
  },
  "tag": {
    "i18n": {
      "eng": "Claire Baradat"
    },
    "name": "Claire Baradat",
    "tid": "5d897c83-36e1-41f5-a7f4-82bd2b90bf9f",
    "types": [
      "singers",
      "2"
    ],
    "repository": "kara.moe",
    "modified_at": "2020-03-31T19:04:33.971Z"
  }
}