{
  "header": {
    "description": "Karaoke Mugen Tag File",
    "version": 1
  },
  "tag": {
    "aliases": [
      "クラスルーム☆クライシス"
    ],
    "external_database_ids": {
      "anilist": 21112,
      "myanimelist": 30383,
      "kitsu": 10782
    },
    "i18n": {
      "eng": "Classroom Crisis",
      "fre": "Classroom☆Crisis",
      "jpn": "クラスルーム☆クライシス",
      "qro": "Classroom Crisis"
    },
    "modified_at": "2020-03-31T19:04:31.232Z",
    "name": "Classroom Crisis",
    "repository": "kara.moe",
    "tid": "ad36a9cc-4744-4b25-86bf-7bec709762e1",
    "types": [
      "series",
      "1"
    ]
  }
}