{
  "header": {
    "description": "Karaoke Mugen Tag File",
    "version": 1
  },
  "tag": {
    "i18n": {
      "eng": "Clémentine"
    },
    "name": "Clémentine",
    "tid": "f27eb141-683d-4056-a264-b83c3712d405",
    "types": [
      "singers",
      "2"
    ],
    "repository": "kara.moe",
    "modified_at": "2020-03-31T19:04:33.981Z"
  }
}