{
  "header": {
    "description": "Karaoke Mugen Tag File",
    "version": 1
  },
  "tag": {
    "i18n": {
      "eng": "Cloudjumper"
    },
    "modified_at": "2021-04-27T22:31:47.454Z",
    "name": "Cloudjumper",
    "repository": "kara.moe",
    "tid": "37ad49cb-484d-43e7-af9d-187d2b7677a1",
    "types": [
      "songwriters",
      "8"
    ]
  }
}