{
  "header": {
    "description": "Karaoke Mugen Tag File",
    "version": 1
  },
  "tag": {
    "i18n": {
      "eng": "Club Dorothée"
    },
    "name": "Club Dorothée",
    "repository": "kara.moe",
    "tid": "ec0feff8-2746-4aab-a7bc-ced15dff6fbd",
    "types": [
      "series",
      "1",
      "creators",
      "4"
    ]
  }
}