{
  "header": {
    "description": "Karaoke Mugen Tag File",
    "version": 1
  },
  "tag": {
    "aliases": [
      "Miku Kobato",
      "小鳩ミク"
    ],
    "i18n": {
      "eng": "Cluppo"
    },
    "name": "Cluppo",
    "repository": "kara.moe",
    "tid": "b8267d1d-c623-4c17-b206-ae65d0351a5a",
    "types": [
      "singers",
      "2",
      "songwriters",
      "8"
    ]
  }
}