{
  "header": {
    "description": "Karaoke Mugen Tag File",
    "version": 1
  },
  "tag": {
    "i18n": {
      "eng": "Cö shu Nie"
    },
    "name": "Cö shu Nie",
    "repository": "kara.moe",
    "tid": "fb0f3808-19f7-4680-97e2-24afe60acf57",
    "types": [
      "singers",
      "2",
      "songwriters",
      "8"
    ],
    "modified_at": "2020-03-31T19:04:33.987Z"
  }
}