{
  "header": {
    "description": "Karaoke Mugen Tag File",
    "version": 1
  },
  "tag": {
    "aliases": [
      "Кобра: Психозброя"
    ],
    "external_database_ids": {
      "anilist": 4646,
      "myanimelist": 4646,
      "kitsu": 3722
    },
    "i18n": {
      "eng": "Cobra the Animation: The Psychogun",
      "jpn": "COBRA THE ANIMATION ザ・サイコガン",
      "qro": "Cobra The Animation: The Psychogun"
    },
    "modified_at": "2020-03-31T19:04:31.235Z",
    "name": "Cobra The Animation: The Psychogun",
    "repository": "kara.moe",
    "tid": "a32d15c7-3b31-48a5-8915-8ba8f6aae610",
    "types": [
      "series",
      "1"
    ]
  }
}