{
  "header": {
    "description": "Karaoke Mugen Tag File",
    "version": 1
  },
  "tag": {
    "i18n": {
      "eng": "Coco Kiryu",
      "jpn": "桐生ココ",
      "qro": "Coco Kiryu"
    },
    "modified_at": "2021-09-02T20:37:00.711Z",
    "name": "Coco Kiryu",
    "repository": "kara.moe",
    "tid": "ec83f2de-6320-4deb-9512-b3a4b97b2aaf",
    "types": [
      "singers",
      "2"
    ]
  }
}