{
  "header": {
    "description": "Karaoke Mugen Tag File",
    "version": 1
  },
  "tag": {
    "i18n": {
      "eng": "Code name wa sailor V"
    },
    "modified_at": "2020-08-20T21:33:32.256Z",
    "name": "Code name wa sailor V",
    "repository": "kara.moe",
    "tid": "29c2f8e8-199f-43f7-9341-64b212c11c76",
    "types": [
      "series",
      "1"
    ]
  }
}