{
  "header": {
    "description": "Karaoke Mugen Tag File",
    "version": 1
  },
  "tag": {
    "aliases": [
      "CG R2",
      "Code Geass 2",
      "Code Geass R2",
      "Code Geass S2",
      "Code Geass: Cuộc khởi nghĩa của Lelouch R2",
      "Code Geass: Lelouch da Rebelião R2",
      "Code Geass: Lelouch'un Başkaldırısı R2",
      "Código Geass R2",
      "Código Geass: Lelouch da Rebelião R2",
      "Kodas Geass: Leloušio sukilimas R2",
      "cg2",
      "cgr2",
      "geass2",
      "Код Геас: Бунтът на Люлюш 2",
      "Код Гиас: Восставший Лелуш R2",
      "Код Ґіас: Повстання Лелуша",
      "叛逆的鲁鲁修 R2"
    ],
    "external_database_ids": {
      "anilist": 2904,
      "myanimelist": 2904,
      "kitsu": 2634
    },
    "i18n": {
      "chi": "Code Geass 反叛的鲁鲁修 R2",
      "eng": "Code Geass: Lelouch of the Rebellion R2",
      "fre": "Code Geass R2",
      "ger": "Code Geass: Lelouch of the Rebellion R2",
      "ita": "Code Geass R2",
      "jpn": "コードギアス 反逆のルルーシュ R2",
      "kor": "코드기어스 반역의 를르슈 R2",
      "mon": "Код Гиасс: Лелоүшийн Бослого Р2",
      "tha": "โค้ด กีอัส ภาคการปฏิวัติของลูลูช R2",
      "qro": "Code Geass: Hangyaku no Lelouch R2"
    },
    "modified_at": "2020-06-21T23:45:31.966Z",
    "name": "Code Geass: Hangyaku no Lelouch R2",
    "repository": "kara.moe",
    "tid": "bd71b69a-e48a-4caf-9f24-c1619727debe",
    "types": [
      "series",
      "1"
    ]
  }
}