{
  "header": {
    "description": "Karaoke Mugen Tag File",
    "version": 1
  },
  "tag": {
    "i18n": {
      "eng": "Cody Ruegger"
    },
    "name": "Cody Ruegger",
    "repository": "kara.moe",
    "tid": "c0b123ab-6294-4207-87be-05d64604bc57",
    "types": [
      "singers",
      "2"
    ]
  }
}