{
  "header": {
    "description": "Karaoke Mugen Tag File",
    "version": 1
  },
  "tag": {
    "i18n": {
      "eng": "COMA"
    },
    "name": "COMA",
    "tid": "36c2387d-a19c-4dc6-8312-5d06429d79a7",
    "types": [
      "singers",
      "2"
    ],
    "repository": "kara.moe",
    "modified_at": "2020-03-31T19:04:33.999Z"
  }
}