{
  "header": {
    "description": "Karaoke Mugen Tag File",
    "version": 1
  },
  "tag": {
    "aliases": [
      "Comic Party OVA",
      "cpr"
    ],
    "external_database_ids": {
      "anilist": 706,
      "myanimelist": 706,
      "kitsu": 640
    },
    "i18n": {
      "eng": "Comic Party Revolution",
      "jpn": "こみっくパーティーRevolution",
      "qro": "Comic Party Revolution"
    },
    "modified_at": "2020-03-31T19:04:31.241Z",
    "name": "Comic Party Revolution",
    "repository": "kara.moe",
    "tid": "c59cd1db-01cd-4bd9-bbb7-be371a260a35",
    "types": [
      "series",
      "1"
    ]
  }
}