{
  "header": {
    "description": "Karaoke Mugen Tag File",
    "version": 1
  },
  "tag": {
    "i18n": {
      "eng": "Comicdud"
    },
    "modified_at": "2021-01-03T23:47:33.808Z",
    "name": "Comicdud",
    "repository": "kara.moe",
    "tid": "348a9806-1a6b-490f-801e-683c1c268694",
    "types": [
      "creators",
      "4"
    ]
  }
}