{
  "header": {
    "description": "Karaoke Mugen Tag File",
    "version": 1
  },
  "tag": {
    "i18n": {
      "eng": "Coming Century"
    },
    "name": "Coming Century",
    "tid": "5cf60f76-ff7d-4a1c-a789-cf66bd56e6eb",
    "types": [
      "singers",
      "2"
    ],
    "repository": "kara.moe",
    "modified_at": "2020-03-31T19:04:34.000Z"
  }
}