{
  "header": {
    "description": "Karaoke Mugen Tag File",
    "version": 1
  },
  "tag": {
    "i18n": {
      "eng": "Conception: Ore no Kodomo o Undekure!",
      "jpn": "CONCEPTION 俺の子供を産んでくれ!",
      "qro": "Conception: Ore no Kodomo wo Undekure!"
    },
    "modified_at": "2020-03-31T19:04:31.242Z",
    "name": "Conception: Ore no Kodomo wo Undekure!",
    "repository": "kara.moe",
    "tid": "6120d164-4c3f-4cd8-8ae8-83b3266a0969",
    "types": [
      "series",
      "1"
    ]
  }
}