{
  "header": {
    "description": "Karaoke Mugen Tag File",
    "version": 1
  },
  "tag": {
    "i18n": {
      "eng": "ConejoF1"
    },
    "modified_at": "2020-07-10T22:29:01.500Z",
    "name": "ConejoF1",
    "repository": "kara.moe",
    "tid": "eccfb637-34ae-410a-b418-2697d8be3226",
    "types": [
      "authors",
      "6"
    ]
  }
}