{
  "header": {
    "description": "Karaoke Mugen Tag File",
    "version": 1
  },
  "tag": {
    "i18n": {
      "eng": "Copley"
    },
    "modified_at": "2020-11-22T20:45:29.151Z",
    "name": "Copley",
    "repository": "kara.moe",
    "tid": "bc40ee23-9d48-41dc-9ad6-8c7cdbe85388",
    "types": [
      "songwriters",
      "8"
    ]
  }
}