{
  "header": {
    "description": "Karaoke Mugen Tag File",
    "version": 1
  },
  "tag": {
    "external_database_ids": {},
    "i18n": {
      "eng": "Corpse Party",
      "jpn": "コープスパーティー"
    },
    "name": "Corpse Party",
    "repository": "kara.moe",
    "tid": "f757d345-18c4-4718-8f0d-6a2869d60b5c",
    "types": [
      "franchises",
      "18"
    ]
  }
}