{
  "header": {
    "description": "Karaoke Mugen Tag File",
    "version": 1
  },
  "tag": {
    "aliases": [
      "Collector Yui",
      "コレクター・ユイ"
    ],
    "external_database_ids": {
      "anilist": 111,
      "myanimelist": 111,
      "kitsu": 90
    },
    "i18n": {
      "eng": "Corrector Yui",
      "ita": "Yui ragazza virtuale",
      "jpn": "コレクターユイ",
      "por": "Corrector Yui",
      "qro": "Corrector Yui"
    },
    "modified_at": "2020-06-21T23:45:31.966Z",
    "name": "Corrector Yui",
    "repository": "kara.moe",
    "tid": "dec3110e-ba2c-4b27-ab6c-4493df6bc3b4",
    "types": [
      "series",
      "1"
    ]
  }
}