{
  "header": {
    "description": "Karaoke Mugen Tag File",
    "version": 1
  },
  "tag": {
    "i18n": {
      "eng": "Cotori"
    },
    "modified_at": "2021-10-02T11:08:00.274Z",
    "name": "Cotori",
    "repository": "kara.moe",
    "tid": "6343a047-7633-4428-ba0a-2a9807a2375f",
    "types": [
      "songwriters",
      "8"
    ]
  }
}