{
  "header": {
    "description": "Karaoke Mugen Tag File",
    "version": 1
  },
  "tag": {
    "aliases": [
      "CB Movie",
      "Cowboy Bebop - The Movie",
      "Cowboy Bebop: Knockin' on Heaven's Door",
      "Cowboy Bebop: la película",
      "Cowboy Bebop: llamando a las puertas del cielo",
      "Kovboy Bebop: Film",
      "Kowboj Bebop",
      "Kowboj Bebop the Movie",
      "Kowboj Bebop: Pukając do nieba bram",
      "Kowboj Bepop",
      "bebop movie",
      "Бібоп фільм",
      "Ковбой Бибоп: Достучаться до небес",
      "Ковбой Бібоп: Фільм",
      "Марсиански Каубой: Врата към Рая"
    ],
    "external_database_ids": {
      "anilist": 5,
      "myanimelist": 5,
      "kitsu": 2
    },
    "i18n": {
      "chi": "星際牛仔: 天國之門",
      "cze": "Kovboj Bebop: Lovec odměn",
      "eng": "Cowboy Bebop: Knockin' on Heaven's Door",
      "est": "Kauboipeitus",
      "fin": "Cowboy Bebop - palkkionmetsästäjät",
      "fre": "Cowboy Bebop le film : Knockin' on Heaven's Door",
      "ger": "Cowboy Bebop - Der Film",
      "heb": "קאובוי ביבופ: הסרט",
      "hun": "Cowboy Bebop - A film",
      "ita": "Cowboy Bebop - Il Film",
      "jpn": "カウボーイビバップ天国の扉",
      "kor": "카우보이 비밥 - 천국의 문",
      "lit": "Kaubojus Bibopas: Filmas",
      "pol": "Cowboy Bebop: Pukając do nieba bram",
      "por": "Cowboy Bebop - O Filme",
      "rus": "Ковбой Бибоп",
      "spa": "Cowboy Bebop: La Película",
      "swe": "Cowboy Bebop - The Movie",
      "qro": "Cowboy Bebop: Tengoku no Tobira"
    },
    "modified_at": "2020-03-31T19:04:31.255Z",
    "name": "Cowboy Bebop: Tengoku no Tobira",
    "repository": "kara.moe",
    "tid": "528dc2b2-df51-4649-a7ef-ed9155271935",
    "types": [
      "series",
      "1"
    ]
  }
}