{
  "header": {
    "description": "Karaoke Mugen Tag File",
    "version": 1
  },
  "tag": {
    "i18n": {
      "eng": "Coyass"
    },
    "modified_at": "2020-04-25T14:33:40.519Z",
    "name": "Coyass",
    "repository": "kara.moe",
    "tid": "e1524959-17ff-4cec-bd5c-6ce4cfdf7ebc",
    "types": [
      "songwriters",
      "8"
    ]
  }
}