{
  "header": {
    "description": "Karaoke Mugen Tag File",
    "version": 1
  },
  "tag": {
    "i18n": {
      "eng": "Crash Bandicoot 2: Cortex Strikes Back"
    },
    "modified_at": "2020-03-31T19:04:31.257Z",
    "name": "Crash Bandicoot 2: Cortex Strikes Back",
    "repository": "kara.moe",
    "tid": "5ff85ff2-8d86-4259-b597-96ba02d411bb",
    "types": [
      "series",
      "1"
    ]
  }
}