{
  "header": {
    "description": "Karaoke Mugen Tag File",
    "version": 1
  },
  "tag": {
    "i18n": {
      "eng": "CREA"
    },
    "name": "CREA",
    "tid": "0f5c8010-3f5e-4655-b0e7-073725ccf5c7",
    "types": [
      "songwriters",
      "8"
    ],
    "repository": "kara.moe",
    "modified_at": "2020-03-31T19:04:34.019Z"
  }
}