{
  "header": {
    "description": "Karaoke Mugen Tag File",
    "version": 1
  },
  "tag": {
    "i18n": {
      "eng": "Creep-P"
    },
    "modified_at": "1982-04-06",
    "name": "Creep-P",
    "repository": "kara.moe",
    "tid": "dc8a195e-3f9e-46d3-bfdb-b1ceb55d230d",
    "types": [
      "songwriters",
      "8"
    ]
  }
}