{
  "header": {
    "description": "Karaoke Mugen Tag File",
    "version": 1
  },
  "tag": {
    "i18n": {
      "eng": "Cromosoma"
    },
    "name": "Cromosoma",
    "repository": "kara.moe",
    "tid": "2297041a-2169-43ab-9f5f-5c1f3d8a00f4",
    "types": [
      "creators",
      "4"
    ]
  }
}