{
  "header": {
    "description": "Karaoke Mugen Tag File",
    "version": 1
  },
  "tag": {
    "i18n": {
      "eng": "Character Song"
    },
    "karafile_tag": "CS",
    "modified_at": "2021-02-14T15:57:23.722Z",
    "name": "CS",
    "priority": 15,
    "repository": "kara.moe",
    "tid": "a8a2616c-b5a1-4df3-ad6f-89291bc67dee",
    "types": [
      "songtypes",
      "3"
    ]
  }
}