{
  "header": {
    "description": "Karaoke Mugen Tag File",
    "version": 1
  },
  "tag": {
    "i18n": {
      "eng": "CUBISMO GRAFICO"
    },
    "modified_at": "2020-11-01T19:27:45.600Z",
    "name": "CUBISMO GRAFICO",
    "repository": "kara.moe",
    "tid": "4dfd1733-3063-43fc-9463-2a430b0bf629",
    "types": [
      "songwriters",
      "8"
    ]
  }
}