{
  "header": {
    "description": "Karaoke Mugen Tag File",
    "version": 1
  },
  "tag": {
    "aliases": [
      "Cutey Honey: The Live",
      "CH",
      "Cherry Miel"
    ],
    "external_database_ids": {},
    "i18n": {
      "eng": "Cutie Honey: The Live",
      "jpn": "キューティーハニー THE LIVE"
    },
    "name": "Cutie Honey: The Live",
    "repository": "kara.moe",
    "tid": "a3b04664-1990-4d70-b22e-afb306ffa9c4",
    "types": [
      "series",
      "1"
    ]
  }
}