{
  "header": {
    "description": "Karaoke Mugen Tag File",
    "version": 1
  },
  "tag": {
    "i18n": {
      "eng": "cutting edge"
    },
    "name": "cutting edge",
    "tid": "3ab07a8f-c7da-44da-b7b6-5628d7424be9",
    "types": [
      "creators",
      "4"
    ],
    "repository": "kara.moe",
    "modified_at": "2020-03-31T19:04:34.035Z"
  }
}