{
  "header": {
    "description": "Karaoke Mugen Tag File",
    "version": 1
  },
  "tag": {
    "i18n": {
      "eng": "CyberAgent"
    },
    "name": "CyberAgent",
    "repository": "kara.moe",
    "tid": "71b3bd00-5282-4b12-86b4-49b1c6a0169f",
    "types": [
      "creators",
      "4"
    ]
  }
}