{
  "header": {
    "description": "Karaoke Mugen Tag File",
    "version": 1
  },
  "tag": {
    "i18n": {
      "eng": "Cyberdimension Neptunia: 4 Goddesses Online",
      "jpn": "四女神オンライン CYBER DIMENSION NEPTUNE",
      "qro": "Cyber Dimension Neptune: 4 Megami Online"
    },
    "modified_at": "2020-03-31T19:04:31.263Z",
    "name": "Cyber Dimension Neptune: 4 Megami Online",
    "repository": "kara.moe",
    "tid": "e9a6e4fe-d1a4-442a-9e38-ff6a3c7fb09a",
    "types": [
      "series",
      "1"
    ]
  }
}