{
  "header": {
    "description": "Karaoke Mugen Tag File",
    "version": 1
  },
  "tag": {
    "i18n": {
      "eng": "Djibril The Angels Of Cyberspace",
      "qro": "Cyber Angel Jibril",
      "jpn": "電脳天使ジブリール",
      "kor": "사이버 엔젤 지브릴"
    },
    "name": "Cyber Angel Jibril",
    "repository": "kara.moe",
    "tid": "fcb10e69-a88f-4867-9be7-158c9495a574",
    "types": [
      "series",
      "1"
    ]
  }
}