{
  "header": {
    "description": "Karaoke Mugen Tag File",
    "version": 1
  },
  "tag": {
    "i18n": {
      "eng": "Cyberpunk 2077",
      "jpn": "サイバーパンク2077"
    },
    "name": "Cyberpunk 2077",
    "repository": "kara.moe",
    "tid": "59414586-1fb0-494f-9522-f964c285b55b",
    "types": [
      "franchises",
      "18"
    ]
  }
}