{
  "header": {
    "description": "Karaoke Mugen Tag File",
    "version": 1
  },
  "tag": {
    "i18n": {
      "eng": "Cyber ​​​​Security Foundation",
      "jpn": "サイバーセキュリティ財団",
      "qro": "Cyber ​​​​Security zaidan"
    },
    "name": "Cyber ​​​​Security Foundation",
    "repository": "kara.moe",
    "tid": "2ebf064b-a129-4e1a-a1c9-0811e97a985f",
    "types": [
      "creators",
      "4"
    ]
  }
}