{
  "header": {
    "description": "Karaoke Mugen Tag File",
    "version": 1
  },
  "tag": {
    "external_database_ids": {
      "anilist": 8394,
      "myanimelist": 8394,
      "kitsu": 3741
    },
    "i18n": {
      "eng": "Cyborg 009 (1968)",
      "jpn": "サイボーグ009 (1968)",
      "qro": "Cyborg 009 (1968)"
    },
    "modified_at": "2020-03-31T19:04:31.264Z",
    "name": "Cyborg 009 (1968)",
    "repository": "kara.moe",
    "tid": "5dd92f33-2cb9-4498-8fa0-b7250109f559",
    "types": [
      "series",
      "1"
    ]
  }
}