{
  "header": {
    "description": "Karaoke Mugen Tag File",
    "version": 1
  },
  "tag": {
    "i18n": {
      "eng": "Cygames"
    },
    "name": "Cygames",
    "tid": "344cb973-3dac-4bac-b6b0-71243417856b",
    "types": [
      "creators",
      "4"
    ],
    "repository": "kara.moe",
    "modified_at": "2020-03-31T19:04:34.036Z"
  }
}