{
  "header": {
    "description": "Karaoke Mugen Tag File",
    "version": 1
  },
  "tag": {
    "i18n": {
      "eng": "Cynthia Harrell"
    },
    "name": "Cynthia Harrell",
    "tid": "55470a48-8470-41d0-94d1-a496639b3e7a",
    "types": [
      "singers",
      "2"
    ],
    "repository": "kara.moe",
    "modified_at": "2020-03-31T19:04:34.037Z"
  }
}