{
  "header": {
    "description": "Karaoke Mugen Tag File",
    "version": 1
  },
  "tag": {
    "i18n": {
      "eng": "Cyua"
    },
    "name": "Cyua",
    "tid": "6152a88f-8154-4883-b070-e6187b0e0f18",
    "types": [
      "singers",
      "2"
    ],
    "repository": "kara.moe",
    "modified_at": "2020-03-31T19:04:34.040Z"
  }
}