{
  "header": {
    "description": "Karaoke Mugen Tag File",
    "version": 1
  },
  "tag": {
    "i18n": {
      "afr": "Tsjeggies",
      "amh": "ቼክ",
      "ara": "التشيكية",
      "aze": "Çex",
      "bak": "Чехия республикаһы",
      "bel": "Чэшская",
      "bul": "Чешка",
      "ben": "চেক",
      "bos": "Češki",
      "cat": "Txeca",
      "cze": "České",
      "wel": "Tsiec",
      "dan": "Tjekker",
      "ger": "Tschechische",
      "gre": "Τσεχική",
      "eng": "Czech",
      "epo": "Ĉeĥa",
      "spa": "Checa",
      "est": "Tšehhi",
      "baq": "Txekiar",
      "per": "چک",
      "fin": "Tšekki",
      "fre": "Tchèque",
      "gle": "Seice",
      "gla": "An t-seic",
      "glg": "Checa",
      "guj": "ચેક રિપબ્લિક દેશ નુ",
      "heb": "צ ' כית",
      "hin": "चेक",
      "hrv": "Češka",
      "hat": "Tchekoslovaki",
      "hun": "Cseh",
      "arm": "Չեխիայի",
      "ind": "Ceko",
      "ice": "Tékkneska",
      "ita": "Ceca",
      "jpn": "チェコ",
      "jav": "Ceko",
      "geo": "ჩეხური",
      "kaz": "Чех",
      "kan": "ಜೆಕ್",
      "kor": "체코",
      "kir": "Чех",
      "lat": "Czech",
      "lit": "Čekijos",
      "lav": "Čehu",
      "mlg": "Czech",
      "mao": "Tieke",
      "mac": "Чешка",
      "mal": "ചെക്ക്",
      "mon": "Чех",
      "mar": "झेक",
      "may": "Czech",
      "mlt": "Ċeka",
      "nep": "चेक",
      "dut": "Tsjechisch",
      "nor": "Tsjekkisk",
      "pan": "ਚੈੱਕ",
      "pol": "Korona",
      "por": "Checa",
      "rum": "Cehă",
      "rus": "Чешская",
      "sin": "චෙක්",
      "slo": "Česká",
      "slv": "Češki",
      "alb": "Çeke",
      "srp": "Чешка",
      "sun": "Czech",
      "swe": "Tjeckiska",
      "swa": "Kicheki",
      "tam": "செக்",
      "tel": "చెక్",
      "tgk": "Czech",
      "tha": "ภาษาเชค name",
      "tgl": "Czech",
      "tur": "Çek",
      "tat": "Чехия республикасы",
      "ukr": "Чеська",
      "urd": "چیک",
      "uzb": "Chexiya",
      "vie": "Séc",
      "xho": "Isiczech",
      "yid": "טשעכיש",
      "chi": "捷克"
    },
    "name": "cze",
    "tid": "46fc405e-ccb4-4b47-a54b-3cdc3aa27e30",
    "types": [
      "langs",
      "5"
    ],
    "repository": "kara.moe",
    "modified_at": "2020-03-31T19:04:34.040Z"
  }
}