{
  "header": {
    "description": "Karaoke Mugen Tag File",
    "version": 1
  },
  "tag": {
    "i18n": {
      "eng": "D-Train"
    },
    "name": "D-Train",
    "tid": "9668cc5f-7dd0-434c-9aa7-f3d5d31b1316",
    "types": [
      "singers",
      "2"
    ],
    "repository": "kara.moe",
    "modified_at": "2020-03-31T19:04:34.043Z"
  }
}