{
  "header": {
    "description": "Karaoke Mugen Tag File",
    "version": 1
  },
  "tag": {
    "aliases": [
      "D.N Angel",
      "D.N.Angel",
      "DN Angel",
      "DNA Angel",
      "DNAngel",
      "ДНК Ангел",
      "天使怪盗",
      "d.n.angel"
    ],
    "external_database_ids": {
      "anilist": 61,
      "myanimelist": 61,
      "kitsu": 42
    },
    "i18n": {
      "eng": "DNAngel",
      "fin": "D.N. Angel",
      "fre": "D.N.Angel",
      "jpn": "D・N・ANGEL",
      "pol": "D.N.Angel",
      "rus": "Код Ангела",
      "tha": "ดีเอ็นแองเจิ้ล",
      "qro": "D・N・ANGEL"
    },
    "modified_at": "2020-03-31T19:04:31.270Z",
    "name": "D・N・ANGEL",
    "repository": "kara.moe",
    "tid": "e86662c2-fad3-40d7-ab6d-45b067fcedab",
    "types": [
      "series",
      "1"
    ]
  }
}