{
  "header": {
    "description": "Karaoke Mugen Tag File",
    "version": 1
  },
  "tag": {
    "aliases": [
      "ディーフォーディージェー",
      "Dig Delight Direct Drive DJ"
    ],
    "i18n": {
      "eng": "D4DJ Groovy Mix"
    },
    "modified_at": "2021-11-08T00:42:23.545Z",
    "name": "D4DJ Groovy Mix",
    "repository": "kara.moe",
    "tid": "93077816-d626-4bdb-a4a6-39300f0159cf",
    "types": [
      "series",
      "1"
    ]
  }
}