{
  "header": {
    "description": "Karaoke Mugen Tag File",
    "version": 1
  },
  "tag": {
    "i18n": {
      "eng": "DA PUMP"
    },
    "name": "DA PUMP",
    "tid": "9446d0a6-681d-42d3-8e46-99f462495f3e",
    "types": [
      "singers",
      "2"
    ],
    "repository": "kara.moe",
    "modified_at": "2020-03-31T19:04:34.046Z"
  }
}