{
  "header": {
    "description": "Karaoke Mugen Tag File",
    "version": 1
  },
  "tag": {
    "i18n": {
      "eng": "Da-ice"
    },
    "name": "Da-ice",
    "repository": "kara.moe",
    "tid": "23db8344-2b81-4c6e-95fc-c6c78e17607f",
    "types": [
      "singers",
      "2"
    ]
  }
}