{
  "header": {
    "description": "Karaoke Mugen Tag File",
    "version": 1
  },
  "tag": {
    "i18n": {
      "eng": "Daddy Yankee"
    },
    "name": "Daddy Yankee",
    "repository": "kara.moe",
    "tid": "a0f61d65-da91-4afd-a4cc-abf1eb182cf5",
    "types": [
      "singers",
      "2",
      "songwriters",
      "8"
    ]
  }
}