{
  "header": {
    "description": "Karaoke Mugen Tag File",
    "version": 1
  },
  "tag": {
    "i18n": {
      "eng": "daggeg"
    },
    "modified_at": "2020-07-05T20:03:50.960Z",
    "name": "daggeg",
    "repository": "kara.moe",
    "tid": "3c67482b-b1ba-477e-88ca-46af456a6d5f",
    "types": [
      "authors",
      "6"
    ]
  }
}