{
  "header": {
    "description": "Karaoke Mugen Tag File",
    "version": 1
  },
  "tag": {
    "i18n": {
      "eng": "Dai-Ichi Dôga Bungeibu"
    },
    "name": "Dai-Ichi Dôga Bungeibu",
    "tid": "b12e4611-594d-4b20-9a9d-95ad469146fe",
    "types": [
      "songwriters",
      "8"
    ],
    "repository": "kara.moe",
    "modified_at": "2020-03-31T19:04:34.050Z"
  }
}