{
  "header": {
    "description": "Karaoke Mugen Tag File",
    "version": 1
  },
  "tag": {
    "aliases": [
      "Daicon 4",
      "Daikon 4"
    ],
    "i18n": {
      "eng": "DAICON IV ~ Making of"
    },
    "modified_at": "2020-03-31T19:04:31.275Z",
    "name": "DAICON IV ~ Making of",
    "repository": "kara.moe",
    "tid": "390200b2-7764-44da-a712-35497fbb736c",
    "types": [
      "series",
      "1"
    ]
  }
}