{
  "header": {
    "description": "Karaoke Mugen Tag File",
    "version": 1
  },
  "tag": {
    "i18n": {
      "eng": "Daiki Kobayashi"
    },
    "name": "Daiki Kobayashi",
    "repository": "kara.moe",
    "tid": "c41c2030-3b13-45f0-9eb3-fc5e7f896894",
    "types": [
      "singers",
      "2"
    ]
  }
}