{
  "header": {
    "description": "Karaoke Mugen Tag File",
    "version": 1
  },
  "tag": {
    "i18n": {
      "eng": "Daisuke Namikawa"
    },
    "name": "Daisuke Namikawa",
    "tid": "52674021-aaa2-462e-bfc9-eccd262b0bea",
    "types": [
      "singers",
      "2"
    ],
    "repository": "kara.moe",
    "modified_at": "2020-03-31T19:04:34.070Z"
  }
}