{
  "header": {
    "description": "Karaoke Mugen Tag File",
    "version": 1
  },
  "tag": {
    "i18n": {
      "eng": "Daisuke Hasegawa"
    },
    "name": "Daisuke Hasegawa",
    "tid": "cf3cb54e-d510-4893-9dfe-5161ec4f229b",
    "types": [
      "singers",
      "2",
      "songwriters",
      "8"
    ],
    "repository": "kara.moe",
    "modified_at": "2020-03-31T19:04:34.061Z"
  }
}