{
  "header": {
    "description": "Karaoke Mugen Tag File",
    "version": 1
  },
  "tag": {
    "i18n": {
      "eng": "Daisuke Watanabe"
    },
    "name": "Daisuke Watanabe",
    "repository": "kara.moe",
    "tid": "8a479c05-b37e-49cd-a57c-4e6e13ac5785",
    "types": [
      "songwriters",
      "8"
    ]
  }
}