{
  "header": {
    "description": "Karaoke Mugen Tag File",
    "version": 1
  },
  "tag": {
    "i18n": {
      "eng": "Daisuke Sakabe"
    },
    "name": "Daisuke Sakabe",
    "tid": "fe2d71bb-85bd-4055-a213-ef6d3ddd07e1",
    "types": [
      "songwriters",
      "8"
    ],
    "repository": "kara.moe",
    "modified_at": "2020-03-31T19:04:34.071Z"
  }
}