{
  "header": {
    "description": "Karaoke Mugen Tag File",
    "version": 1
  },
  "tag": {
    "i18n": {
      "eng": "Daizaburô Nakayama"
    },
    "modified_at": "2020-07-19T15:30:47.206Z",
    "name": "Daizaburô Nakayama",
    "repository": "kara.moe",
    "tid": "dd06bd5d-79fa-4344-8c11-ed7fe50f919e",
    "types": [
      "songwriters",
      "8"
    ]
  }
}