{
  "header": {
    "description": "Karaoke Mugen Tag File",
    "version": 1
  },
  "tag": {
    "i18n": {
      "eng": "Dallas"
    },
    "name": "Dallas",
    "repository": "kara.moe",
    "tid": "6f812ded-d6b3-4855-868b-9c860ccd27d5",
    "types": [
      "series",
      "1"
    ]
  }
}