{
  "header": {
    "description": "Karaoke Mugen Tag File",
    "version": 1
  },
  "tag": {
    "i18n": {
      "eng": "Dan Miyakawa"
    },
    "name": "Dan Miyakawa",
    "tid": "09808ede-030e-42fa-822c-cbb36d107b81",
    "types": [
      "songwriters",
      "8"
    ],
    "repository": "kara.moe",
    "modified_at": "2020-03-31T19:04:34.081Z"
  }
}