{
  "header": {
    "description": "Karaoke Mugen Tag File",
    "version": 1
  },
  "tag": {
    "i18n": {
      "eng": "Dan Auerbach"
    },
    "modified_at": "2020-08-25T15:20:22.535Z",
    "name": "Dan Auerbach",
    "repository": "kara.moe",
    "tid": "46349048-0561-4714-a33a-cd0d6049f93e",
    "types": [
      "songwriters",
      "8"
    ]
  }
}