{
  "header": {
    "description": "Karaoke Mugen Tag File",
    "version": 1
  },
  "tag": {
    "i18n": {
      "eng": "Dandelion"
    },
    "name": "Dandelion",
    "tid": "5cc6c2ac-511f-4c12-b57d-2d17fed729ee",
    "types": [
      "singers",
      "2"
    ],
    "repository": "kara.moe",
    "modified_at": "2020-03-31T19:04:34.086Z"
  }
}