{
  "header": {
    "description": "Karaoke Mugen Tag File",
    "version": 1
  },
  "tag": {
    "aliases": [
      "Dangan Ronpa: Academy of Hope and High School Students of Despair",
      "Dangan Ronpa"
    ],
    "i18n": {
      "eng": "DanganRonpa: Trigger Happy Havoc",
      "jpn": "ダンガンロンパ 希望の学園と絶望の高校生",
      "qro": "Danganronpa: Kibou no Gakuen to Zetsubou no Koukousei"
    },
    "modified_at": "2021-09-02T18:06:35.725Z",
    "name": "Danganronpa: Kibou no Gakuen to Zetsubou no Koukousei",
    "repository": "kara.moe",
    "tid": "dc8aeb24-94c7-4747-a954-2b32c640674a",
    "types": [
      "series",
      "1"
    ]
  }
}