{
  "header": {
    "description": "Karaoke Mugen Tag File",
    "version": 1
  },
  "tag": {
    "i18n": {
      "eng": "dangereus"
    },
    "modified_at": "2020-08-21T13:23:58.985Z",
    "name": "dangereus",
    "repository": "kara.moe",
    "tid": "6747e46a-0936-4caa-81e3-db3853416f08",
    "types": [
      "authors",
      "6"
    ]
  }
}