{
  "header": {
    "description": "Karaoke Mugen Tag File",
    "version": 1
  },
  "tag": {
    "i18n": {
      "eng": "Daniel James"
    },
    "name": "Daniel James",
    "repository": "kara.moe",
    "tid": "46ad2939-5986-4226-805d-5aa96ad2bcaf",
    "types": [
      "songwriters",
      "8"
    ]
  }
}