{
  "header": {
    "description": "Karaoke Mugen Tag File",
    "version": 1
  },
  "tag": {
    "i18n": {
      "eng": "Danièle Hazan"
    },
    "name": "Danièle Hazan",
    "tid": "6311a30f-a921-4644-8d58-ffa45400aaaf",
    "types": [
      "singers",
      "2"
    ],
    "repository": "kara.moe",
    "modified_at": "2020-03-31T19:04:34.096Z"
  }
}