{
  "header": {
    "description": "Karaoke Mugen Tag File",
    "version": 1
  },
  "tag": {
    "i18n": {
      "eng": "Danilo Ciotti"
    },
    "modified_at": "2021-03-13T17:21:01.870Z",
    "name": "Danilo Ciotti",
    "repository": "kara.moe",
    "tid": "67de72ae-a3da-4aac-93a7-650558cb3468",
    "types": [
      "songwriters",
      "8"
    ]
  }
}