{
  "header": {
    "description": "Karaoke Mugen Tag File",
    "version": 1
  },
  "tag": {
    "aliases": [
      "Familia Myth",
      "La Légende des Familias"
    ],
    "external_database_ids": {},
    "i18n": {
      "jpn": "ダンまち",
      "qro": "DanMachi",
      "kor": "소드 오라토리아"
    },
    "name": "Danmachi",
    "repository": "kara.moe",
    "tid": "bbc91686-df3d-49a9-83ca-cc53893b616b",
    "types": [
      "franchises",
      "18"
    ]
  }
}