{
  "header": {
    "description": "Karaoke Mugen Tag File",
    "version": 1
  },
  "tag": {
    "external_database_ids": {
      "anilist": 16355,
      "myanimelist": 16355,
      "kitsu": 7411
    },
    "i18n": {
      "eng": "The Severing Crime Edge",
      "jpn": "断裁分離のクライムエッジ",
      "qro": "Dansai Bunri no Crime Edge"
    },
    "modified_at": "2020-03-31T19:04:31.291Z",
    "name": "Dansai Bunri no Crime Edge",
    "repository": "kara.moe",
    "tid": "78ba5b69-7a9e-476c-8f85-2a79245f5528",
    "types": [
      "series",
      "1"
    ]
  }
}