{
  "header": {
    "description": "Karaoke Mugen Tag File",
    "version": 1
  },
  "tag": {
    "i18n": {
      "eng": "Daphné D'Heur"
    },
    "name": "Daphné D'Heur",
    "tid": "580ed753-bfc0-4085-9b0d-e6f93159a6ef",
    "types": [
      "singers",
      "2"
    ],
    "repository": "kara.moe",
    "modified_at": "2020-03-31T19:04:34.100Z"
  }
}