{
  "header": {
    "description": "Karaoke Mugen Tag File",
    "version": 1
  },
  "tag": {
    "i18n": {
      "eng": "Dareen"
    },
    "name": "Dareen",
    "tid": "d04d6a20-790f-4fb2-b996-51c250cf4bd7",
    "types": [
      "authors",
      "6"
    ],
    "repository": "kara.moe",
    "modified_at": "2020-03-31T19:04:34.101Z"
  }
}