{
  "header": {
    "description": "Karaoke Mugen Tag File",
    "version": 1
  },
  "tag": {
    "i18n": {
      "eng": "Dargaud Films"
    },
    "name": "Dargaud Films",
    "tid": "ac92e807-12b1-4e7f-aed3-a6423d43c40a",
    "types": [
      "creators",
      "4"
    ],
    "repository": "kara.moe",
    "modified_at": "2020-03-31T19:04:34.101Z"
  }
}