{
  "header": {
    "description": "Karaoke Mugen Tag File",
    "version": 1
  },
  "tag": {
    "i18n": {
      "eng": "Dark Shingo"
    },
    "name": "Dark Shingo",
    "tid": "de7ad0d2-40d0-4776-980c-641052ab9039",
    "types": [
      "singers",
      "2",
      "songwriters",
      "8"
    ],
    "repository": "kara.moe",
    "modified_at": "2020-03-31T19:04:34.103Z"
  }
}