{
  "header": {
    "description": "Karaoke Mugen Tag File",
    "version": 1
  },
  "tag": {
    "i18n": {
      "eng": "Darren Korb"
    },
    "modified_at": "2021-12-08T15:51:41.287Z",
    "name": "Darren Korb",
    "repository": "kara.moe",
    "tid": "04c68c86-8342-4554-838e-55bb390db040",
    "types": [
      "songwriters",
      "8",
      "singers",
      "2"
    ]
  }
}