{
  "header": {
    "description": "Karaoke Mugen Tag File",
    "version": 1
  },
  "tag": {
    "i18n": {
      "eng": "Datenshi Kokoeru"
    },
    "modified_at": "2020-10-10T21:59:06.097Z",
    "name": "Datenshi Kokoeru",
    "repository": "kara.moe",
    "tid": "6bac66f4-74d2-4af8-aafb-8ddaefda5c73",
    "types": [
      "singers",
      "2"
    ]
  }
}