{
  "header": {
    "description": "Karaoke Mugen Tag File",
    "version": 1
  },
  "tag": {
    "i18n": {
      "eng": "Dave Stewart"
    },
    "name": "Dave Stewart",
    "repository": "kara.moe",
    "tid": "c75cf024-ccfc-4b3d-a34a-f9708f61fbb1",
    "types": [
      "songwriters",
      "8"
    ]
  }
}