{
  "header": {
    "description": "Karaoke Mugen Tag File",
    "version": 1
  },
  "tag": {
    "i18n": {
      "eng": "David Guetta"
    },
    "name": "David Guetta",
    "repository": "kara.moe",
    "tid": "2d28b400-bf94-4815-a05a-819d8a50d222",
    "types": [
      "songwriters",
      "8",
      "singers",
      "2"
    ]
  }
}