{
  "header": {
    "description": "Karaoke Mugen Tag File",
    "version": 1
  },
  "tag": {
    "i18n": {
      "eng": "David Allen Baker"
    },
    "modified_at": "2020-06-14T21:57:54.468Z",
    "name": "David Allen Baker",
    "repository": "kara.moe",
    "tid": "186a7430-c73c-4fb2-829f-65c045e5fa5d",
    "types": [
      "singers",
      "2"
    ]
  }
}