{
  "header": {
    "description": "Karaoke Mugen Tag File",
    "version": 1
  },
  "tag": {
    "i18n": {
      "eng": "David Toons"
    },
    "modified_at": "2021-01-03T23:47:33.232Z",
    "name": "David Toons",
    "repository": "kara.moe",
    "tid": "55c99fb7-bc26-46bc-8abc-5b440b5c8fb4",
    "types": [
      "creators",
      "4"
    ]
  }
}