{
  "header": {
    "description": "Karaoke Mugen Tag File",
    "version": 1
  },
  "tag": {
    "i18n": {
      "eng": "David Castello-Lopes"
    },
    "modified_at": "2021-03-24T18:32:31.909Z",
    "name": "David Castello-Lopes",
    "repository": "kara.moe",
    "tid": "966b867d-ea77-40a7-965e-b9616062b694",
    "types": [
      "songwriters",
      "8",
      "singers",
      "2",
      "creators",
      "4"
    ]
  }
}