{
  "header": {
    "description": "Karaoke Mugen Tag File",
    "version": 1
  },
  "tag": {
    "i18n": {
      "eng": "DAY-BREAK"
    },
    "name": "DAY-BREAK",
    "tid": "b091623c-a06d-4585-9905-af40d32da6ab",
    "types": [
      "singers",
      "2"
    ],
    "repository": "kara.moe",
    "modified_at": "2020-03-31T19:04:34.122Z"
  }
}