{
  "header": {
    "description": "Karaoke Mugen Tag File",
    "version": 1
  },
  "tag": {
    "aliases": [
      "Парад на смъртта",
      "Парад смерти",
      "Парад смерті"
    ],
    "external_database_ids": {
      "anilist": 20931,
      "myanimelist": 28223,
      "kitsu": 9969
    },
    "i18n": {
      "chi": "死亡游行",
      "eng": "Death Parade",
      "jpn": "デス・パレード",
      "qro": "Death Parade"
    },
    "modified_at": "2020-03-31T19:04:31.305Z",
    "name": "Death Parade",
    "repository": "kara.moe",
    "tid": "0245a3e3-7356-4e0c-99a3-392e9974ee84",
    "types": [
      "series",
      "1"
    ]
  }
}