{
  "header": {
    "description": "Karaoke Mugen Tag File",
    "version": 1
  },
  "tag": {
    "aliases": [
      "Death March kara Hajimaru Isekai Kyousoukyoku",
      "Desumachi",
      "デスマ",
      "kyousoukyoku"
    ],
    "external_database_ids": {
      "anilist": 97907,
      "myanimelist": 34497,
      "kitsu": 13276
    },
    "i18n": {
      "chi": "爆肝工程師的異世界狂想曲",
      "eng": "Death March to the Parallel World Rhapsody",
      "jpn": "デスマーチからはじまる異世界狂想曲",
      "kor": "데스마치에서 시작하는 이세계 광상곡",
      "qro": "Death March kara Hajimaru Isekai Kyôsôkyoku"
    },
    "modified_at": "2020-03-31T19:04:31.303Z",
    "name": "Death March kara Hajimaru Isekai Kyôsôkyoku",
    "repository": "kara.moe",
    "tid": "8b08f085-78ef-4ea6-bd6e-98280630db3f",
    "types": [
      "series",
      "1"
    ]
  }
}