{
  "header": {
    "description": "Karaoke Mugen Tag File",
    "version": 1
  },
  "tag": {
    "aliases": [
      "デス エンド リクエスト",
      "re quest"
    ],
    "i18n": {
      "eng": "Death end re;Quest",
      "jpn": "Death end re;Quest",
      "qro": "Death end re;Quest"
    },
    "modified_at": "2020-03-31T19:04:31.302Z",
    "name": "Death end re;Quest",
    "repository": "kara.moe",
    "tid": "e1316ecf-af7d-4350-b8f4-2e52bf480a31",
    "types": [
      "series",
      "1"
    ]
  }
}