{
  "header": {
    "description": "Karaoke Mugen Tag File",
    "version": 1
  },
  "tag": {
    "i18n": {
      "eng": "DECO*27"
    },
    "name": "DECO*27",
    "tid": "6d9eaa90-048f-41d5-a264-8d73df69cc22",
    "types": [
      "songwriters",
      "8"
    ],
    "repository": "kara.moe",
    "modified_at": "2020-03-31T19:04:34.128Z"
  }
}