{
  "header": {
    "description": "Karaoke Mugen Tag File",
    "version": 1
  },
  "tag": {
    "aliases": [
      "ディープインサニティ ザ・ロストチャイルド"
    ],
    "external_database_ids": {
      "anilist": 136947,
      "kitsu": 45007,
      "myanimelist": 49292
    },
    "i18n": {
      "eng": "Deep Insanity : The Lost Child",
      "chi": "狂热深渊-迷失的孩子"
    },
    "name": "Deep Insanity : The Lost Child",
    "repository": "kara.moe",
    "tid": "13778757-ea42-4ea1-82f3-2d4f8e2826f4",
    "types": [
      "series",
      "1"
    ]
  }
}