{
  "header": {
    "description": "Karaoke Mugen Tag File",
    "version": 1
  },
  "tag": {
    "i18n": {
      "eng": "Del the Funky Homosapien"
    },
    "modified_at": "2020-07-05T18:25:38.789Z",
    "name": "Del the Funky Homosapien",
    "repository": "kara.moe",
    "tid": "42de7ed4-fa48-4a34-ba97-d4dfcddd8de8",
    "types": [
      "songwriters",
      "8"
    ]
  }
}