{
  "header": {
    "description": "Karaoke Mugen Tag File",
    "version": 1
  },
  "tag": {
    "aliases": [
      "Delicious Party♡Pretty Cure",
      "depapre"
    ],
    "external_database_ids": {
      "anilist": 142080,
      "myanimelist": 50281,
      "kitsu": 45733
    },
    "i18n": {
      "eng": "Delicious Party♡PreCure",
      "jpn": "デリシャスパーティ♡プリキュア"
    },
    "name": "Delicious Party♡PreCure",
    "repository": "kara.moe",
    "tid": "36338f53-e0e8-4499-af33-5ea5d12ce810",
    "types": [
      "series",
      "1"
    ]
  }
}