{
  "header": {
    "description": "Karaoke Mugen Tag File",
    "version": 1
  },
  "tag": {
    "aliases": [
      "Le garçon du train"
    ],
    "i18n": {
      "eng": "Train Man",
      "fre": "Densha Otoko ‒ L'homme du train",
      "jpn": "電車男",
      "qro": "Densha Otoko"
    },
    "modified_at": "2020-03-31T19:04:31.316Z",
    "name": "Densha Otoko",
    "repository": "kara.moe",
    "tid": "10f114a6-d80f-46bb-bba4-eed3b1d38240",
    "types": [
      "series",
      "1"
    ]
  }
}