{
  "header": {
    "description": "Karaoke Mugen Tag File",
    "version": 1
  },
  "tag": {
    "i18n": {
      "eng": "Denver Symphony Orchestra"
    },
    "modified_at": "2020-11-03T16:32:51.018Z",
    "name": "Denver Symphony Orchestra",
    "repository": "kara.moe",
    "tid": "8c0b140c-814a-4b00-83f4-26608032e34f",
    "types": [
      "singers",
      "2"
    ]
  }
}