{
  "header": {
    "description": "Karaoke Mugen Tag File",
    "version": 1
  },
  "tag": {
    "i18n": {
      "eng": "Depeche Mode"
    },
    "name": "Depeche Mode",
    "repository": "kara.moe",
    "tid": "df7df744-e44a-422e-8a95-459776718c58",
    "types": [
      "singers",
      "2",
      "songwriters",
      "8"
    ]
  }
}