{
  "header": {
    "description": "Karaoke Mugen Tag File",
    "version": 1
  },
  "tag": {
    "aliases": [
      "Claudie Fritsch-Mentrop"
    ],
    "i18n": {
      "eng": "Desireless"
    },
    "modified_at": "2021-06-05T19:45:11.369Z",
    "name": "Desireless",
    "repository": "kara.moe",
    "tid": "0e756898-b81f-4492-ac3a-643b3a369ea0",
    "types": [
      "singers",
      "2"
    ]
  }
}