{
  "header": {
    "description": "Karaoke Mugen Tag File",
    "version": 1
  },
  "tag": {
    "i18n": {
      "eng": "Desmond Child"
    },
    "name": "Desmond Child",
    "repository": "kara.moe",
    "tid": "71f1b2db-a48f-452c-9e5e-da9b8e72318c",
    "types": [
      "songwriters",
      "8"
    ]
  }
}