{
  "header": {
    "description": "Karaoke Mugen Tag File",
    "version": 1
  },
  "tag": {
    "i18n": {
      "eng": "Deurstann"
    },
    "modified_at": "2020-10-25T18:20:35.587Z",
    "name": "Deurstann",
    "repository": "kara.moe",
    "tid": "782c6220-03e3-443a-b607-064457b1ed7d",
    "types": [
      "authors",
      "6"
    ]
  }
}