{
  "header": {
    "description": "Karaoke Mugen Tag File",
    "version": 1
  },
  "tag": {
    "i18n": {
      "eng": "Deva Carell"
    },
    "name": "Deva Carell",
    "tid": "55358dc2-2b60-4b69-b6d9-de3e61da489b",
    "types": [
      "creators",
      "4"
    ],
    "repository": "kara.moe",
    "modified_at": "2020-03-31T19:04:34.143Z"
  }
}