{
  "header": {
    "description": "Karaoke Mugen Tag File",
    "version": 1
  },
  "tag": {
    "aliases": [
      "Devil's Line",
      "Devils Line"
    ],
    "external_database_ids": {
      "anilist": 99531,
      "myanimelist": 35928,
      "kitsu": 13708
    },
    "i18n": {
      "eng": "Devils' Line",
      "jpn": "デビルズライン",
      "kor": "데빌즈 라인",
      "qro": "Devils' Line"
    },
    "modified_at": "2020-03-31T19:04:31.324Z",
    "name": "Devils' Line",
    "repository": "kara.moe",
    "tid": "bfec6854-9fd9-4632-a752-e9da4eb91fb7",
    "types": [
      "series",
      "1"
    ]
  }
}