{
  "header": {
    "description": "Karaoke Mugen Tag File",
    "version": 1
  },
  "tag": {
    "aliases": [
      "SMT",
      "Persona",
      "MegaTen"
    ],
    "i18n": {
      "eng": "Shin Megami Tensei: Devil Survivor Overclocked",
      "jpn": "デビルサバイバー オーバークロック",
      "qro": "Devil Survivor Overclock"
    },
    "modified_at": "2021-02-08T19:58:11.893Z",
    "name": "Devil Survivor Overclock",
    "repository": "kara.moe",
    "tid": "87973e4a-d671-4093-81b9-5aa6d7276f47",
    "types": [
      "series",
      "1"
    ]
  }
}