{
  "header": {
    "description": "Karaoke Mugen Tag File",
    "version": 1
  },
  "tag": {
    "external_database_ids": {
      "anilist": 1757,
      "myanimelist": 1757,
      "kitsu": 1577
    },
    "i18n": {
      "eng": "Di Gi Charat: Christmas Special",
      "jpn": "デ・ジ・キャラット クリスマススペシャル",
      "qro": "Di Gi Charat: Christmas Special"
    },
    "modified_at": "2020-03-31T19:04:31.325Z",
    "name": "Di Gi Charat: Christmas Special",
    "repository": "kara.moe",
    "tid": "82e7b029-fbd6-49ba-b2bd-452e5677817e",
    "types": [
      "series",
      "1"
    ]
  }
}