{
  "header": {
    "description": "Karaoke Mugen Tag File",
    "version": 1
  },
  "tag": {
    "i18n": {
      "eng": "Diabolik Lovers - Limited V Edition",
      "jpn": "Diabolik Lovers - Limited V Edition",
      "qro": "Diabolik Lovers - Limited V Edition"
    },
    "modified_at": "2020-03-31T19:04:31.327Z",
    "name": "Diabolik Lovers - Limited V Edition",
    "repository": "kara.moe",
    "tid": "b5facfc9-98f5-4643-a8f5-6ae3047763f3",
    "types": [
      "series",
      "1"
    ]
  }
}