{
  "header": {
    "description": "Karaoke Mugen Tag File",
    "version": 1
  },
  "tag": {
    "aliases": [
      "Dia no Ace: Act II"
    ],
    "external_database_ids": {
      "anilist": 105749,
      "myanimelist": 38731,
      "kitsu": 42160
    },
    "i18n": {
      "eng": "Ace of the Diamond: Act II",
      "jpn": "ダイヤのA[エース] actII",
      "qro": "Diamond no Ace: Act II"
    },
    "modified_at": "2020-03-31T19:04:31.333Z",
    "name": "Diamond no Ace: Act II",
    "repository": "kara.moe",
    "tid": "34e11c46-4350-429f-bc4c-9a0da75022ed",
    "types": [
      "series",
      "1"
    ]
  }
}