{
  "header": {
    "description": "Karaoke Mugen Tag File",
    "version": 1
  },
  "tag": {
    "i18n": {
      "eng": "Diggy-MO'"
    },
    "name": "Diggy-MO'",
    "tid": "0179fe70-a021-4188-b08a-62de55ce39c6",
    "types": [
      "songwriters",
      "8",
      "singers",
      "2"
    ],
    "repository": "kara.moe",
    "modified_at": "2020-03-31T19:04:34.152Z"
  }
}