{
  "header": {
    "description": "Karaoke Mugen Tag File",
    "version": 1
  },
  "tag": {
    "aliases": [
      "Digital Monsters",
      "digimon5",
      "Спасатели дигимонов",
      "数码兽拯救者"
    ],
    "external_database_ids": {
      "anilist": 859,
      "myanimelist": 859,
      "kitsu": 761
    },
    "i18n": {
      "eng": "Digimon Data Squad",
      "fre": "Digimon Savers",
      "ger": "Digimon Data Squad",
      "jpn": "デジモンセイバーズ",
      "por": "Digimon Data Squad",
      "qro": "Digimon Savers"
    },
    "modified_at": "2020-03-31T19:04:31.340Z",
    "name": "Digimon Savers",
    "repository": "kara.moe",
    "tid": "f22bd32b-2fb5-4dd8-a9ad-9a4fd208a4d4",
    "types": [
      "series",
      "1"
    ]
  }
}