{
  "header": {
    "description": "Karaoke Mugen Tag File",
    "version": 1
  },
  "tag": {
    "external_database_ids": {
      "anilist": 137309,
      "myanimelist": 49515,
      "kitsu": 44946
    },
    "i18n": {
      "eng": "Digimon Ghost Game",
      "jpn": "デジモンゴーストゲーム",
      "qro": "Digimon Ghost Game"
    },
    "name": "Digimon Ghost Game",
    "repository": "kara.moe",
    "tid": "7a4b4950-5562-4ff0-99fb-938a0ab04df0",
    "types": [
      "series",
      "1"
    ]
  }
}