{
  "header": {
    "description": "Karaoke Mugen Tag File",
    "version": 1
  },
  "tag": {
    "aliases": [
      "Digital Monster",
      "DM"
    ],
    "external_database_ids": {
      "anilist": 108260,
      "myanimelist": 38088,
      "kitsu": 42474
    },
    "i18n": {
      "eng": "Digimon Adventure: Last Evolution Kizuna",
      "jpn": "デジモンアドベンチャー LAST EVOLUTION 絆",
      "qro": "Digimon Adventure: Last Evolution Kizuna"
    },
    "modified_at": "2020-09-25T21:19:02.894Z",
    "name": "Digimon Adventure: Last Evolution Kizuna",
    "repository": "kara.moe",
    "tid": "317ea35b-5607-4b6e-8c64-5e65e4dba6c0",
    "types": [
      "series",
      "1"
    ]
  }
}