{
  "header": {
    "description": "Karaoke Mugen Tag File",
    "version": 1
  },
  "tag": {
    "i18n": {
      "eng": "Digital Extremes"
    },
    "name": "Digital Extremes",
    "repository": "kara.moe",
    "tid": "c8c6a253-b209-4b92-8ab6-78dc113a94d6",
    "types": [
      "creators",
      "4"
    ]
  }
}