{
  "header": {
    "description": "Karaoke Mugen Tag File",
    "version": 1
  },
  "tag": {
    "i18n": {
      "eng": "Dimitri From Paris"
    },
    "name": "Dimitri From Paris",
    "tid": "0d32f54a-b62f-42d7-98e9-f834d7e39735",
    "types": [
      "songwriters",
      "8"
    ],
    "repository": "kara.moe",
    "modified_at": "2020-03-31T19:04:34.156Z"
  }
}