{
  "header": {
    "description": "Karaoke Mugen Tag File",
    "version": 1
  },
  "tag": {
    "i18n": {
      "eng": "Dimps"
    },
    "name": "Dimps",
    "tid": "7983561a-69d0-432d-8ced-34ddbe44b0bd",
    "types": [
      "creators",
      "4"
    ],
    "repository": "kara.moe",
    "modified_at": "2020-03-31T19:04:34.157Z"
  }
}