{
  "header": {
    "description": "Karaoke Mugen Tag File",
    "version": 1
  },
  "tag": {
    "i18n": {
      "eng": "Dindisc"
    },
    "modified_at": "2021-09-05T21:30:32.128Z",
    "name": "Dindisc",
    "repository": "kara.moe",
    "tid": "264c3a5c-f3de-49ef-973f-9804bf0bd88b",
    "types": [
      "creators",
      "4"
    ]
  }
}