{
  "header": {
    "description": "Karaoke Mugen Tag File",
    "version": 1
  },
  "tag": {
    "i18n": {
      "eng": "Dino Verde"
    },
    "name": "Dino Verde",
    "repository": "kara.moe",
    "tid": "5d6d62fd-c3c7-4fd9-a03c-6c479a5a2022",
    "types": [
      "songwriters",
      "8"
    ]
  }
}