{
  "header": {
    "description": "Karaoke Mugen Tag File",
    "version": 1
  },
  "tag": {
    "i18n": {
      "eng": "diomedéa"
    },
    "name": "diomedéa",
    "tid": "e9bbc92f-b99d-45d4-869c-39b36d70382e",
    "types": [
      "creators",
      "4"
    ],
    "repository": "kara.moe",
    "modified_at": "2020-03-31T19:04:34.157Z"
  }
}