{
  "header": {
    "description": "Karaoke Mugen Tag File",
    "version": 1
  },
  "tag": {
    "i18n": {
      "bul": "Диплодоните",
      "eng": "Diplodos",
      "fre": "Diplodo",
      "ger": "Diplodo",
      "pol": "Diplodo",
      "rus": "Диплодоки"
    },
    "modified_at": "2020-03-31T19:04:31.341Z",
    "name": "Diplodo",
    "repository": "kara.moe",
    "tid": "771472ab-c74a-4754-8a16-7f6208bda6f0",
    "types": [
      "series",
      "1"
    ]
  }
}