{
  "header": {
    "description": "Karaoke Mugen Tag File",
    "version": 1
  },
  "tag": {
    "aliases": [
      "DPF",
      "Dan et Dany",
      "Dan & Dany"
    ],
    "external_database_ids": {
      "anilist": 12343,
      "myanimelist": 12343,
      "kitsu": 6708
    },
    "i18n": {
      "eng": "Dirty Pair Flash 2",
      "jpn": "ダーティペアFLASH 2"
    },
    "name": "Dirty Pair Flash 2",
    "repository": "kara.moe",
    "tid": "edfc104f-e4fd-4f8f-8c0a-e32e71f54f60",
    "types": [
      "series",
      "1"
    ]
  }
}