{
  "header": {
    "description": "Karaoke Mugen Tag File",
    "version": 1
  },
  "tag": {
    "i18n": {
      "eng": "Disney: Twisted-Wonderland",
      "jpn": "ディズニー ツイステッドワンダーランド"
    },
    "name": "Disney: Twisted-Wonderland",
    "repository": "kara.moe",
    "tid": "50c7e352-b6c4-4aee-93ba-d5b7115ba9be",
    "types": [
      "series",
      "1"
    ]
  }
}