{
  "header": {
    "description": "Karaoke Mugen Tag File",
    "version": 1
  },
  "tag": {
    "i18n": {
      "eng": "Dissidia 012: Final Fantasy",
      "jpn": "ディシディア デュオデシム",
      "qro": "Dissidia 012: Final Fantasy"
    },
    "modified_at": "2020-04-13T18:43:34.707Z",
    "name": "Dissidia 012: Final Fantasy",
    "repository": "kara.moe",
    "tid": "d2423a35-23f0-4feb-bb53-b79e6083111b",
    "types": [
      "series",
      "1"
    ]
  }
}