{
  "header": {
    "description": "Karaoke Mugen Tag File",
    "version": 1
  },
  "tag": {
    "i18n": {
      "eng": "DIVELA"
    },
    "name": "DIVELA",
    "repository": "kara.moe",
    "tid": "ba591e71-7e12-4a06-a321-33f362d2106b",
    "types": [
      "songwriters",
      "8"
    ]
  }
}