{
  "header": {
    "description": "Karaoke Mugen Tag File",
    "version": 1
  },
  "tag": {
    "i18n": {
      "eng": "DJ ENOCK"
    },
    "name": "DJ ENOCK",
    "repository": "kara.moe",
    "tid": "44b87a52-f05e-4b5a-89d6-53781bf60aad",
    "types": [
      "songwriters",
      "8"
    ]
  }
}