{
  "header": {
    "description": "Karaoke Mugen Tag File",
    "version": 1
  },
  "tag": {
    "i18n": {
      "eng": "DJ Matsunaga"
    },
    "name": "DJ Matsunaga",
    "repository": "kara.moe",
    "tid": "1946f3be-f3da-44f9-9d2f-5925ed3ee3c1",
    "types": [
      "songwriters",
      "8"
    ],
    "modified_at": "2020-03-31T19:04:34.164Z"
  }
}