{
  "header": {
    "description": "Karaoke Mugen Tag File",
    "version": 1
  },
  "tag": {
    "i18n": {
      "eng": "DJ MITSU"
    },
    "name": "DJ MITSU",
    "tid": "d94eda36-5488-4b77-9b0c-b25f8c2f0933",
    "types": [
      "songwriters",
      "8"
    ],
    "repository": "kara.moe",
    "modified_at": "2020-03-31T19:04:34.166Z"
  }
}