{
  "header": {
    "description": "Karaoke Mugen Tag File",
    "version": 1
  },
  "tag": {
    "i18n": {
      "eng": "DJ Ötzi"
    },
    "name": "DJ Ötzi",
    "repository": "kara.moe",
    "tid": "1e7d5911-e8ec-44c6-8be8-cb1d02485d94",
    "types": [
      "singers",
      "2"
    ]
  }
}