{
  "header": {
    "description": "Karaoke Mugen Tag File",
    "version": 1
  },
  "tag": {
    "i18n": {
      "eng": "DJ TAKE-SHIT"
    },
    "name": "DJ TAKE-SHIT",
    "tid": "3f3fbdec-3dbe-4c72-9d6d-21f71a007f28",
    "types": [
      "songwriters",
      "8"
    ],
    "repository": "kara.moe",
    "modified_at": "2020-03-31T19:04:34.168Z"
  }
}