{
  "header": {
    "description": "Karaoke Mugen Tag File",
    "version": 1
  },
  "tag": {
    "i18n": {
      "eng": "dj_pazzo"
    },
    "modified_at": "2021-09-19T17:07:43.217Z",
    "name": "dj_pazzo",
    "repository": "kara.moe",
    "tid": "7277286b-c789-415d-8cb6-0736a525a140",
    "types": [
      "authors",
      "6"
    ]
  }
}