{
  "header": {
    "description": "Karaoke Mugen Tag File",
    "version": 1
  },
  "tag": {
    "i18n": {
      "eng": "DMM.futureworks"
    },
    "name": "DMM.futureworks",
    "tid": "de444eaa-180a-4c65-bd17-0885c4044cc3",
    "types": [
      "creators",
      "4"
    ],
    "repository": "kara.moe",
    "modified_at": "2020-03-31T19:04:34.172Z"
  }
}