{
  "header": {
    "description": "Karaoke Mugen Tag File",
    "version": 1
  },
  "tag": {
    "i18n": {
      "eng": "DNA no Dôro"
    },
    "modified_at": "2020-10-04T16:38:22.487Z",
    "name": "DNA no Dôro",
    "repository": "kara.moe",
    "tid": "ce9fc364-39fe-46c1-8de3-83f2df74b6aa",
    "types": [
      "creators",
      "4"
    ]
  }
}