{
  "header": {
    "description": "Karaoke Mugen Tag File",
    "version": 1
  },
  "tag": {
    "aliases": [
      "Dog Days 2",
      "dd2",
      "ドッグデイズ'"
    ],
    "external_database_ids": {
      "anilist": 11783,
      "myanimelist": 11783,
      "kitsu": 6598
    },
    "i18n": {
      "eng": "Dog Days 2",
      "jpn": "ドッグデイズ'",
      "qro": "Dog Days'"
    },
    "modified_at": "2020-03-31T19:04:31.345Z",
    "name": "Dog Days'",
    "repository": "kara.moe",
    "tid": "85de4f4f-8bf0-494b-9142-dac1ad958646",
    "types": [
      "series",
      "1"
    ]
  }
}