{
  "header": {
    "description": "Karaoke Mugen Tag File",
    "version": 1
  },
  "tag": {
    "i18n": {
      "eng": "Dogeza Tai"
    },
    "name": "Dogeza Tai",
    "repository": "kara.moe",
    "tid": "6e668ead-aa96-4762-bbd2-ce9aa51ba1f2",
    "types": [
      "singers",
      "2"
    ]
  }
}