{
  "header": {
    "description": "Karaoke Mugen Tag File",
    "version": 1
  },
  "tag": {
    "i18n": {
      "eng": "Dohna Dohna Issho ni Warui Koto wo Shiyou",
      "jpn": "ドーナドーナ いっしょにわるいことをしよう"
    },
    "modified_at": "2021-10-17T16:19:08.249Z",
    "name": "Dohna Dohna Issho ni Warui Koto wo Shiyou",
    "repository": "kara.moe",
    "tid": "41edd001-b3c6-4679-a7f4-0ece1e0498f5",
    "types": [
      "series",
      "1"
    ]
  }
}