{
  "header": {
    "description": "Karaoke Mugen Tag File",
    "version": 1
  },
  "tag": {
    "external_database_ids": {
      "anilist": 112818,
      "myanimelist": 40623,
      "kitsu": 42657
    },
    "i18n": {
      "eng": "Super HxEros",
      "jpn": "ド級編隊エグゼロス",
      "qro": "Dokyuu Hentai HxEros"
    },
    "modified_at": "2020-07-23T21:21:13.111Z",
    "name": "Dokyuu Hentai HxEros",
    "repository": "kara.moe",
    "tid": "b2bbfd60-54d3-4073-9a1f-752c526beac9",
    "types": [
      "series",
      "1"
    ]
  }
}