{
  "header": {
    "description": "Karaoke Mugen Tag File",
    "version": 1
  },
  "tag": {
    "i18n": {
      "eng": "Domenico Della Vecchia"
    },
    "name": "Domenico Della Vecchia",
    "repository": "kara.moe",
    "tid": "d1401369-d88b-4a56-a388-62a06143f0d1",
    "types": [
      "songwriters",
      "8"
    ]
  }
}