{
  "header": {
    "description": "Karaoke Mugen Tag File",
    "version": 1
  },
  "tag": {
    "i18n": {
      "eng": "Donald Reignoux"
    },
    "modified_at": "2020-05-28T22:33:35.582Z",
    "name": "Donald Reignoux",
    "repository": "kara.moe",
    "tid": "64dbd00d-3d8b-40d8-95f9-285bfda1203c",
    "types": [
      "singers",
      "2"
    ]
  }
}