{
  "header": {
    "description": "Karaoke Mugen Tag File",
    "version": 1
  },
  "tag": {
    "i18n": {
      "jpn": "Donjon de Naheulbeuk",
      "qro": "Donjon de Naheulbeuk"
    },
    "modified_at": "2020-03-31T19:04:31.352Z",
    "name": "Donjon de Naheulbeuk",
    "repository": "kara.moe",
    "tid": "ec750895-a72d-4e60-8ea5-ba6f504316fd",
    "types": [
      "series",
      "1"
    ]
  }
}