{
  "header": {
    "description": "Karaoke Mugen Tag File",
    "version": 1
  },
  "tag": {
    "i18n": {
      "eng": "Donmaru"
    },
    "name": "Donmaru",
    "tid": "ba798f60-f0ed-410e-8439-e91245f33e61",
    "types": [
      "songwriters",
      "8"
    ],
    "repository": "kara.moe",
    "modified_at": "2020-03-31T19:04:34.183Z"
  }
}