{
  "header": {
    "description": "Karaoke Mugen Tag File",
    "version": 1
  },
  "tag": {
    "aliases": [
      "新ドラえもん"
    ],
    "external_database_ids": {
      "anilist": 8687,
      "myanimelist": 8687,
      "kitsu": 5443
    },
    "i18n": {
      "eng": "Doraemon (2005)",
      "jpn": "ドラえもん (2005)",
      "qro": "Doraemon (2005)"
    },
    "modified_at": "2020-08-29T12:34:15.471Z",
    "name": "Doraemon (2005)",
    "repository": "kara.moe",
    "tid": "147d3781-42ff-462f-833c-dd1946395716",
    "types": [
      "series",
      "1"
    ]
  }
}