{
  "header": {
    "description": "Karaoke Mugen Tag File",
    "version": 1
  },
  "tag": {
    "i18n": {
      "eng": "Dorian"
    },
    "name": "Dorian",
    "tid": "ba2b2cdc-b063-4eda-b1b7-1fb126f42d9c",
    "types": [
      "singers",
      "2"
    ],
    "repository": "kara.moe",
    "modified_at": "2020-03-31T19:04:34.185Z"
  }
}