{
  "header": {
    "description": "Karaoke Mugen Tag File",
    "version": 1
  },
  "tag": {
    "i18n": {
      "eng": "Doro TV"
    },
    "modified_at": "2021-09-12T13:06:27.710Z",
    "name": "Doro TV",
    "repository": "kara.moe",
    "tid": "5a794030-b78b-4af6-b721-552f71c87a1a",
    "types": [
      "creators",
      "4"
    ]
  }
}