{
  "header": {
    "description": "Karaoke Mugen Tag File",
    "version": 1
  },
  "tag": {
    "external_database_ids": {
      "anilist": 105228,
      "myanimelist": 38668,
      "kitsu": 42040
    },
    "i18n": {
      "jpn": "ドロヘドロ",
      "eng": "Dorohedoro",
      "fre": "Dorohedoro",
      "qro": "Dorohedoro"
    },
    "modified_at": "2020-05-29T18:29:33.880Z",
    "name": "Dorohedoro",
    "repository": "kara.moe",
    "tid": "8c46d4fc-027f-404d-89f0-6d90365e1b45",
    "types": [
      "series",
      "1"
    ]
  }
}