{
  "header": {
    "description": "Karaoke Mugen Tag File",
    "version": 1
  },
  "tag": {
    "external_database_ids": {
      "anilist": 101318,
      "myanimelist": 37496,
      "kitsu": 41075
    },
    "i18n": {
      "eng": "Double Decker! Doug & Kirill",
      "jpn": "DOUBLE DECKER! ダグ＆キリル",
      "kor": "Double Decker! 더그 & 키릴",
      "qro": "Double Decker! Doug & Kirill"
    },
    "modified_at": "2020-03-31T19:04:31.357Z",
    "name": "Double Decker! Doug & Kirill",
    "repository": "kara.moe",
    "tid": "7018ef27-1341-49b1-9664-2677b80d98e0",
    "types": [
      "series",
      "1"
    ]
  }
}