{
  "header": {
    "description": "Karaoke Mugen Tag File",
    "version": 1
  },
  "tag": {
    "i18n": {
      "eng": "Double D"
    },
    "name": "Double D",
    "repository": "kara.moe",
    "tid": "81c1ddd0-e554-4656-acdc-ceb134812441",
    "types": [
      "authors",
      "6"
    ]
  }
}