{
  "header": {
    "description": "Karaoke Mugen Tag File",
    "version": 1
  },
  "tag": {
    "i18n": {
      "eng": "Dougy Mandagi"
    },
    "modified_at": "2020-09-26T18:03:22.128Z",
    "name": "Dougy Mandagi",
    "repository": "kara.moe",
    "tid": "093b2a7a-2b23-4bb0-ab17-71ef1a90d7f9",
    "types": [
      "singers",
      "2"
    ]
  }
}