{
  "header": {
    "description": "Karaoke Mugen Tag File",
    "version": 1
  },
  "tag": {
    "i18n": {
      "eng": "Douglas Meakin"
    },
    "modified_at": "2021-03-13T17:37:47.068Z",
    "name": "Douglas Meakin",
    "repository": "kara.moe",
    "tid": "f78b828a-70e0-4c97-9c95-235ec1963a24",
    "types": [
      "songwriters",
      "8"
    ]
  }
}