{
  "header": {
    "description": "Karaoke Mugen Tag File",
    "version": 1
  },
  "tag": {
    "aliases": [
      "Dr. Kotou Shinryoujo",
      "kotou",
      "shinryoujo"
    ],
    "i18n": {
      "eng": "Dr. Kotô Shinryôjo",
      "jpn": "Dr.コトー診療所",
      "qro": "Dr. Kotô Shinryôjo"
    },
    "modified_at": "2020-07-22T20:09:44.006Z",
    "name": "Dr. Kotô Shinryôjo",
    "repository": "kara.moe",
    "tid": "737f5397-07b5-40db-80f7-3dac25cbc6c0",
    "types": [
      "series",
      "1"
    ]
  }
}