{
  "header": {
    "description": "Karaoke Mugen Tag File",
    "version": 1
  },
  "tag": {
    "i18n": {
      "eng": "Dr. Zitbag's Transylvania Pet Shop",
      "fre": "Docteur Globule"
    },
    "modified_at": "2020-03-31T19:04:31.360Z",
    "name": "Dr. Zitbag's Transylvania Pet Shop",
    "repository": "kara.moe",
    "tid": "dd49a3d0-0ef4-4f3f-8a9b-babc9489a528",
    "types": [
      "series",
      "1"
    ]
  }
}