{
  "header": {
    "description": "Karaoke Mugen Tag File",
    "version": 1
  },
  "tag": {
    "external_database_ids": {
      "anilist": 2222,
      "myanimelist": 2222,
      "kitsu": 2013
    },
    "i18n": {
      "ara": "مغامرات رنا",
      "cat": "Dr. Slump",
      "chi": "IQ博士",
      "fre": "Dr Slump",
      "glg": "O Doutor Slump e Arale",
      "ita": "Dr. Slump & Arale",
      "jpn": "Dr.スランプ・アラレちゃん",
      "pol": "Dr. Slump",
      "tha": "ดร.สลัมป์ และหนูน้อยอาราเล่",
      "qro": "Dr. Slump Arale-chan"
    },
    "modified_at": "2020-03-31T19:04:31.359Z",
    "name": "Dr. Slump Arale-chan",
    "repository": "kara.moe",
    "tid": "6a946231-7ee1-495d-b586-c7cad6f6b455",
    "types": [
      "series",
      "1"
    ]
  }
}