{
  "header": {
    "description": "Karaoke Mugen Tag File",
    "version": 1
  },
  "tag": {
    "i18n": {
      "eng": "Dr.Loui"
    },
    "name": "Dr.Loui",
    "repository": "kara.moe",
    "tid": "bf882b19-a143-4146-8b64-b13b6e071184",
    "types": [
      "songwriters",
      "8"
    ]
  }
}