{
  "header": {
    "description": "Karaoke Mugen Tag File",
    "version": 1
  },
  "tag": {
    "i18n": {
      "eng": "DracoVirgo"
    },
    "name": "DracoVirgo",
    "repository": "kara.moe",
    "tid": "653af7eb-d060-45bd-9460-c24fd2b096ea",
    "types": [
      "singers",
      "2"
    ],
    "modified_at": "2020-03-31T19:04:34.195Z"
  }
}