{
  "header": {
    "description": "Karaoke Mugen Tag File",
    "version": 1
  },
  "tag": {
    "i18n": {
      "eng": "dracena"
    },
    "modified_at": "2021-03-11T20:44:22.446Z",
    "name": "dracena",
    "repository": "kara.moe",
    "tid": "2321246d-6b18-43c4-b155-c91b7d05f0ce",
    "types": [
      "songwriters",
      "8"
    ]
  }
}