{
  "header": {
    "description": "Karaoke Mugen Tag File",
    "version": 1
  },
  "tag": {
    "aliases": [
      "As aventuras de Fly",
      "Dai no Daibouken",
      "DnD",
      "Dragon Quest: Dai no Daibouken",
      "Dragon Quest: Dai's Great Adventure",
      "Fly",
      "ドラゴンクエスト ダイの大冒険",
      "daibouken"
    ],
    "external_database_ids": {
      "anilist": 2229,
      "myanimelist": 2229,
      "kitsu": 2020
    },
    "i18n": {
      "ara": "مغامرات داي الشجاع",
      "cat": "Fly",
      "eng": "Dragon Quest: Adventure of Dai",
      "fre": "Fly",
      "jpn": "DRAGON QUEST ダイの大冒険",
      "por": "Fly, o Pequeno Guerreiro",
      "spa": "Dragon Quest: Las Aventuras de Fly",
      "qro": "Dragon Quest: Dai no Daibôken"
    },
    "modified_at": "2020-03-31T19:04:31.379Z",
    "name": "Dragon Quest: Dai no Daibôken",
    "repository": "kara.moe",
    "tid": "165eabeb-1b7e-4ffd-b47c-61db748ccb3c",
    "types": [
      "series",
      "1",
      "franchises",
      "18"
    ]
  }
}