{
  "header": {
    "description": "Karaoke Mugen Tag File",
    "version": 1
  },
  "tag": {
    "aliases": [
      "Dragon Ball Z Film 2",
      "Dragon Ball Z: The Strongest Guy in the World",
      "Wheelo",
      "Willow"
    ],
    "external_database_ids": {
      "anilist": 895,
      "myanimelist": 895,
      "kitsu": 795
    },
    "i18n": {
      "eng": "Dragon Ball Z: The World's Strongest",
      "fre": "Dragon Ball Z : Le Robot des glaces",
      "jpn": "ドラゴンボールZ　この世で一番強いヤツ",
      "qro": "Dragon Ball Z Movie 2: Kono yo de ichiban tsuyoi yatsu"
    },
    "modified_at": "2020-03-31T19:04:31.371Z",
    "name": "Dragon Ball Z Movie 2: Kono yo de ichiban tsuyoi yatsu",
    "repository": "kara.moe",
    "tid": "a68ae360-8a3c-4455-b5c7-adf99aca140d",
    "types": [
      "series",
      "1"
    ]
  }
}