{
  "header": {
    "description": "Karaoke Mugen Tag File",
    "version": 1
  },
  "tag": {
    "aliases": [
      "Broly 2"
    ],
    "external_database_ids": {
      "anilist": 903,
      "myanimelist": 903,
      "kitsu": 803
    },
    "i18n": {
      "eng": "Dragon Ball Z: Broly - Second Coming",
      "fre": "Dragon Ball Z : Le retour de Broly",
      "jpn": "ドラゴンボールZ 危険なふたり！ 超戦士はねむれない",
      "qro": "Dragon Ball Z Movie 10: Kiken na Futari! Super Senshi wa Nemurenai"
    },
    "modified_at": "2020-03-31T19:04:31.367Z",
    "name": "Dragon Ball Z Movie 10: Kiken na Futari! Super Senshi wa Nemurenai",
    "repository": "kara.moe",
    "tid": "6d08720d-ec35-4e7f-aeac-fcf94d20e57b",
    "types": [
      "series",
      "1"
    ]
  }
}