{
  "header": {
    "description": "Karaoke Mugen Tag File",
    "version": 1
  },
  "tag": {
    "aliases": [
      "DBZ TV SP 1",
      "Dragon Ball Z : Baddack contre Freezer",
      "Dragon Ball Z TV Special 1"
    ],
    "external_database_ids": {
      "anilist": 986,
      "myanimelist": 986,
      "kitsu": 876
    },
    "i18n": {
      "eng": "Dragon Ball Z Bardock The Father of Goku",
      "fre": "Dragon Ball Z: Le père de Songoku",
      "jpn": "ドラゴンボールゼット たったひとりの最終決戦～フリーザに挑んだZ戦士 孫悟空の父～",
      "qro": "Dragon Ball Z: Tatta Hitori no Saishuu Kessen ~Freezer ni Idonda Z-Senshi Son Gokuu no Chichi~"
    },
    "modified_at": "2020-05-16T15:54:27.703Z",
    "name": "Dragon Ball Z: Tatta Hitori no Saishuu Kessen ~Freezer ni Idonda Z-Senshi Son Gokuu no Chichi~",
    "repository": "kara.moe",
    "tid": "8eff7182-7e78-48ea-b600-2ab4676cbc60",
    "types": [
      "series",
      "1"
    ]
  }
}