{
  "header": {
    "description": "Karaoke Mugen Tag File",
    "version": 1
  },
  "tag": {
    "aliases": [
      "DBS"
    ],
    "i18n": {
      "eng": "Dragon Ball Super : Broly",
      "jpn": "DRAGON BALL超[スーパー] ブロリー",
      "qro": "Dragon Ball Super : Broly"
    },
    "modified_at": "2020-06-15T12:01:11.119Z",
    "name": "Dragon Ball Super : Broly",
    "repository": "kara.moe",
    "tid": "a1ed15b9-8f03-4bcf-a6c4-4c52f82379f7",
    "types": [
      "series",
      "1"
    ]
  }
}