{
  "header": {
    "description": "Karaoke Mugen Tag File",
    "version": 1
  },
  "tag": {
    "aliases": [
      "Pusiau Drakonas"
    ],
    "external_database_ids": {
      "anilist": 870,
      "myanimelist": 870,
      "kitsu": 771
    },
    "i18n": {
      "eng": "Dragon Half",
      "ger": "Dragon Half",
      "jpn": "ドラゴンハーフ",
      "qro": "Dragon Half"
    },
    "modified_at": "2020-03-31T19:04:31.377Z",
    "name": "Dragon Half",
    "repository": "kara.moe",
    "tid": "746f1140-8908-492a-9128-da74fe431485",
    "types": [
      "series",
      "1"
    ]
  }
}