{
  "header": {
    "description": "Karaoke Mugen Tag File",
    "version": 1
  },
  "tag": {
    "aliases": [
      "Super Dragon Ball Heroes",
      "スーパー ドラゴンボール ヒーローズ"
    ],
    "i18n": {
      "eng": "Dragon Ball Heroes",
      "jpn": "ドラゴンボール ヒーローズ ",
      "qro": "Dragon Ball Heroes"
    },
    "modified_at": "2020-03-31T19:04:31.363Z",
    "name": "Dragon Ball Heroes",
    "repository": "kara.moe",
    "tid": "2b0674fb-fd5d-41a4-813a-58c2e3ad7263",
    "types": [
      "series",
      "1"
    ]
  }
}