{
  "header": {
    "description": "Karaoke Mugen Tag File",
    "version": 1
  },
  "tag": {
    "aliases": [
      "DBZ Budokai 2"
    ],
    "i18n": {
      "eng": "Dragon Ball Z: Budokai 2",
      "jpn": "ドラゴンボールZ2",
      "qro": "Dragon Ball Z Budokai 2"
    },
    "modified_at": "2020-03-31T19:04:31.365Z",
    "name": "Dragon Ball Z Budokai 2",
    "repository": "kara.moe",
    "tid": "53c86457-722e-4322-b3f7-d680042c7427",
    "types": [
      "series",
      "1"
    ]
  }
}