{
  "header": {
    "description": "Karaoke Mugen Tag File",
    "version": 1
  },
  "tag": {
    "i18n": {
      "eng": "Dragon Ball Z Abridged"
    },
    "name": "Dragon Ball Z Abridged",
    "repository": "kara.moe",
    "tid": "d27b6875-a48c-489e-be20-0fbf5c33669a",
    "types": [
      "series",
      "1"
    ]
  }
}