{
  "header": {
    "description": "Karaoke Mugen Tag File",
    "version": 1
  },
  "tag": {
    "aliases": [
      "DBZ Film 4",
      "Dragon Ball Z: Super Saiya Son Goku",
      "Slug"
    ],
    "external_database_ids": {
      "anilist": 897,
      "myanimelist": 897,
      "kitsu": 797
    },
    "i18n": {
      "eng": "Dragon Ball Z: Lord Slug",
      "fre": "Dragon Ball Z: La menace de Namek",
      "jpn": "ドラゴンボールZ 超サイヤ人だ孫悟空",
      "qro": "Dragon Ball Z Movie 4: Super Saiyajin da Son Gokuu"
    },
    "modified_at": "2020-03-31T19:04:31.372Z",
    "name": "Dragon Ball Z Movie 4: Super Saiyajin da Son Gokuu",
    "repository": "kara.moe",
    "tid": "f35e8a18-e2ce-45b5-89a5-67c4cf45c951",
    "types": [
      "series",
      "1"
    ]
  }
}