{
  "header": {
    "description": "Karaoke Mugen Tag File",
    "version": 1
  },
  "tag": {
    "aliases": [
      "Cooler",
      "DBZ Film 5",
      "Dragon Ball Z: The Strongest Rivals"
    ],
    "external_database_ids": {
      "anilist": 898,
      "myanimelist": 898,
      "kitsu": 798
    },
    "i18n": {
      "eng": "Dragon Ball Z: Cooler's Revenge",
      "fre": "Dragon Ball Z: La revanche de Cooler",
      "jpn": "ドラゴンボールZ とびっきりの最強対最強",
      "qro": "Dragon Ball Z Movie 5: Tobikkiri no saikyou tai saikyou"
    },
    "modified_at": "2020-03-31T19:04:31.372Z",
    "name": "Dragon Ball Z Movie 5: Tobikkiri no saikyou tai saikyou",
    "repository": "kara.moe",
    "tid": "9a52997f-646e-4cb1-a780-5c5766b6334c",
    "types": [
      "series",
      "1"
    ]
  }
}