{
  "header": {
    "description": "Karaoke Mugen Tag File",
    "version": 1
  },
  "tag": {
    "aliases": [
      "DB Super",
      "DBS",
      "Dragon Ball Chou (Super)"
    ],
    "external_database_ids": {
      "anilist": 21175,
      "myanimelist": 30694,
      "kitsu": 10879
    },
    "i18n": {
      "eng": "Dragon Ball Super",
      "heb": "דרגון בול סופר",
      "jpn": "ドラゴンボール超[スーパー]",
      "qro": "Dragon Ball Super"
    },
    "modified_at": "2020-03-31T19:04:31.365Z",
    "name": "Dragon Ball Super",
    "repository": "kara.moe",
    "tid": "7d18f71c-e5b4-4ee1-a393-8902b4ad7a2c",
    "types": [
      "series",
      "1"
    ]
  }
}