{
  "header": {
    "description": "Karaoke Mugen Tag File",
    "version": 1
  },
  "tag": {
    "i18n": {
      "eng": "Dreamusic"
    },
    "modified_at": "2021-06-06T20:42:38.729Z",
    "name": "Dreamusic",
    "repository": "kara.moe",
    "tid": "0436d462-6b0b-491c-9938-5890de7b32a4",
    "types": [
      "creators",
      "4"
    ]
  }
}