{
  "header": {
    "description": "Karaoke Mugen Tag File",
    "version": 1
  },
  "tag": {
    "i18n": {
      "eng": "dream"
    },
    "name": "dream",
    "tid": "8801d797-7ab5-4455-94d9-560d6f0c7c60",
    "types": [
      "singers",
      "2"
    ],
    "repository": "kara.moe",
    "modified_at": "2020-03-31T19:04:34.197Z"
  }
}