{
  "header": {
    "description": "Karaoke Mugen Tag File",
    "version": 1
  },
  "tag": {
    "i18n": {
      "eng": "Dred Foxx"
    },
    "name": "Dred Foxx",
    "repository": "kara.moe",
    "tid": "5885d28a-6115-41f5-a2b0-4e252d69aed0",
    "types": [
      "singers",
      "2"
    ]
  }
}