{
  "header": {
    "description": "Karaoke Mugen Tag File",
    "version": 1
  },
  "tag": {
    "i18n": {
      "eng": "Drope"
    },
    "name": "Drope",
    "repository": "kara.moe",
    "tid": "1af4cea4-bcb2-43e5-bd6d-0fcfeb7c6f34",
    "types": [
      "songwriters",
      "8"
    ]
  }
}