{
  "header": {
    "description": "Karaoke Mugen Tag File",
    "version": 1
  },
  "tag": {
    "aliases": [
      "Dungeon ni Deai o Motomeru no wa Machigatte Iru Darouka",
      "DanMachi Gaiden",
      "darouka"
    ],
    "external_database_ids": {
      "anilist": 21676,
      "myanimelist": 32887,
      "kitsu": 11902
    },
    "i18n": {
      "eng": "Is It Wrong to Try to Pick Up Girls in a Dungeon? On the Side: Sword Oratoria",
      "fre": "DanMachi : Sword Oratoria",
      "jpn": "ダンジョンに出会いを求めるのは間違っているだろうか外伝 ソード・オラトリア",
      "kor": "소드 오라토리아: 던전에서 만남을 추구하면 안 되는 걸까 외전",
      "qro": "Dungeon ni Deai o Motomeru no wa Machigatte Iru Darôka Gaiden: Sword Oratoria"
    },
    "modified_at": "2020-10-24T22:50:13.332Z",
    "name": "Dungeon ni Deai o Motomeru no wa Machigatte Iru Darôka Gaiden: Sword Oratoria",
    "repository": "kara.moe",
    "tid": "8f77717b-86bd-402c-b181-550ee8152a30",
    "types": [
      "series",
      "1"
    ]
  }
}