{
  "header": {
    "description": "Karaoke Mugen Tag File",
    "version": 1
  },
  "tag": {
    "aliases": [
      "DRRR!!x2 Shou",
      "Drrr!!x2",
      "Drrrx2",
      "Durarara S2",
      "Durarara!!x2 Shou",
      "Durarara2",
      "drrr2",
      "durarara 2",
      "durarara x2",
      "shou"
    ],
    "external_database_ids": {
      "anilist": 20652,
      "myanimelist": 23199,
      "kitsu": 8314
    },
    "i18n": {
      "chi": "無頭騎士異聞錄 DuRaRaRa!!×2 承",
      "eng": "Durarara!! x2: The First Arc",
      "jpn": "デュラララ!!x2 承",
      "qro": "Durarara!!x2 Shô"
    },
    "modified_at": "2020-03-31T19:04:31.388Z",
    "name": "Durarara!!x2 Shô",
    "repository": "kara.moe",
    "tid": "9c7b7d1b-cee0-428e-adf5-2fc60b0391fb",
    "types": [
      "series",
      "1"
    ]
  }
}