{
  "header": {
    "description": "Karaoke Mugen Tag File",
    "version": 1
  },
  "tag": {
    "aliases": [
      "DRRR!!x2 Ten",
      "Drrr!!x2 2",
      "Drrrx2 2",
      "Durarara S3",
      "Durarara3",
      "drrr3",
      "durarara x2"
    ],
    "external_database_ids": {
      "anilist": 20879,
      "myanimelist": 27831,
      "kitsu": 9726
    },
    "i18n": {
      "eng": "Durarara!! x2: The Second Arc",
      "jpn": "デュラララ!!x2 転",
      "qro": "Durarara!!x2 Ten"
    },
    "modified_at": "2020-03-31T19:04:31.388Z",
    "name": "Durarara!!x2 Ten",
    "repository": "kara.moe",
    "tid": "b6bf11f5-b0b0-4213-bbd3-9816ab6e1b0f",
    "types": [
      "series",
      "1"
    ]
  }
}