{
  "header": {
    "description": "Karaoke Mugen Tag File",
    "version": 1
  },
  "tag": {
    "i18n": {
      "eng": "Dustin Bates"
    },
    "name": "Dustin Bates",
    "repository": "kara.moe",
    "tid": "12011865-d17d-4bf6-9714-3725105f431d",
    "types": [
      "songwriters",
      "8"
    ]
  }
}