{
  "header": {
    "description": "Karaoke Mugen Tag File",
    "version": 1
  },
  "tag": {
    "i18n": {
      "eng": "DWANGO"
    },
    "name": "DWANGO",
    "tid": "54d7b0ca-91b9-49f3-93ff-a78ab6d81fb0",
    "types": [
      "creators",
      "4"
    ],
    "repository": "kara.moe",
    "modified_at": "2020-03-31T19:04:34.209Z"
  }
}