{
  "header": {
    "description": "Karaoke Mugen Tag File",
    "version": 1
  },
  "tag": {
    "i18n": {
      "eng": "DynamiteSHU"
    },
    "name": "DynamiteSHU",
    "tid": "38ebcea0-3764-4d42-b314-01022d54497b",
    "types": [
      "singers",
      "2"
    ],
    "repository": "kara.moe",
    "modified_at": "2020-03-31T19:04:34.212Z"
  }
}