{
  "header": {
    "description": "Karaoke Mugen Tag File",
    "version": 1
  },
  "tag": {
    "i18n": {
      "eng": "Earphones"
    },
    "name": "Earphones",
    "tid": "64c14b9a-9273-4c55-bace-521c6e07e517",
    "types": [
      "singers",
      "2"
    ],
    "repository": "kara.moe",
    "modified_at": "2020-03-31T19:04:34.218Z"
  }
}