{
  "header": {
    "description": "Karaoke Mugen Tag File",
    "version": 1
  },
  "tag": {
    "i18n": {
      "eng": "Earth Star Dream"
    },
    "name": "Earth Star Dream",
    "tid": "a247692c-4eaa-4e36-adfe-60739613c258",
    "types": [
      "singers",
      "2"
    ],
    "repository": "kara.moe",
    "modified_at": "2020-03-31T19:04:34.219Z"
  }
}