{
  "header": {
    "description": "Karaoke Mugen Tag File",
    "version": 1
  },
  "tag": {
    "i18n": {
      "eng": "Ebi Curry Earl"
    },
    "name": "Ebi Curry Earl",
    "repository": "kara.moe",
    "tid": "c52b073c-41aa-4bb9-a259-06c8dc5a7404",
    "types": [
      "songwriters",
      "8"
    ]
  }
}