{
  "header": {
    "description": "Karaoke Mugen Tag File",
    "version": 1
  },
  "tag": {
    "i18n": {
      "eng": "Ed Goldfarb"
    },
    "modified_at": "2021-02-17T23:48:19.340Z",
    "name": "Ed Goldfarb",
    "repository": "kara.moe",
    "tid": "3f093dce-2b33-4fe6-b94f-fa20b5c02cd5",
    "types": [
      "songwriters",
      "8"
    ]
  }
}