{
  "header": {
    "description": "Karaoke Mugen Tag File",
    "version": 1
  },
  "tag": {
    "i18n": {
      "eng": "Eden"
    },
    "name": "Eden",
    "tid": "4607780c-f1ef-47cf-9c1c-b13e8f731699",
    "types": [
      "authors",
      "6"
    ],
    "repository": "kara.moe",
    "modified_at": "2020-03-31T19:04:34.227Z"
  }
}