{
  "header": {
    "description": "Karaoke Mugen Tag File",
    "version": 1
  },
  "tag": {
    "i18n": {
      "eng": "Edouard Brenneisen"
    },
    "modified_at": "2020-08-23T17:34:14.599Z",
    "name": "Edouard Brenneisen",
    "repository": "kara.moe",
    "tid": "16f2954c-f91e-4fcb-b52a-1ca063d4e3b5",
    "types": [
      "songwriters",
      "8"
    ]
  }
}