{
  "header": {
    "description": "Karaoke Mugen Tag File",
    "version": 1
  },
  "tag": {
    "external_database_ids": {
      "anilist": 2924,
      "myanimelist": 2924,
      "kitsu": 2649
    },
    "i18n": {
      "eng": "ef ~ a tale of memories.",
      "jpn": "ef ~ a tale of memories.",
      "qro": "ef ~ a tale of memories."
    },
    "modified_at": "2020-03-31T19:04:31.392Z",
    "name": "ef ~ a tale of memories.",
    "repository": "kara.moe",
    "tid": "e232098c-128f-4c79-9297-5f9e5f826eff",
    "types": [
      "series",
      "1"
    ]
  }
}