{
  "header": {
    "description": "Karaoke Mugen Tag File",
    "version": 1
  },
  "tag": {
    "i18n": {
      "eng": "ef ~ the latter tale.",
      "jpn": "ef ~ the latter tale.",
      "qro": "ef ~ the latter tale."
    },
    "modified_at": "2020-03-31T19:04:31.392Z",
    "name": "ef ~ the latter tale.",
    "repository": "kara.moe",
    "tid": "083f1539-42a3-4ba8-9a2a-e418130f2872",
    "types": [
      "series",
      "1"
    ]
  }
}