{
  "header": {
    "description": "Karaoke Mugen Tag File",
    "version": 1
  },
  "tag": {
    "aliases": [
      "Crayon Shin-chan Movie 21: Ridiculously Tasty! B-class Food Survival!!",
      "Eiga Crayon Shin-chan: Bakauma! B-Kyuu Gourmet Survival Battle!!",
      "b-kyuu"
    ],
    "i18n": {
      "eng": "Eiga Crayon Shin-chan: Bakauma! B-Kyû Gourmet Survival Battle!!",
      "jpn": "映画クレヨンしんちゃん バカうまっ! B級グルメサバイバル!!",
      "qro": "Eiga Crayon Shin-chan: Bakauma! B-Kyû Gourmet Survival Battle!!"
    },
    "modified_at": "2020-03-31T19:04:31.394Z",
    "name": "Eiga Crayon Shin-chan: Bakauma! B-Kyû Gourmet Survival Battle!!",
    "repository": "kara.moe",
    "tid": "da0d0d6f-0329-48af-8b7a-fa2db4f19677",
    "types": [
      "series",
      "1"
    ]
  }
}