{
  "header": {
    "description": "Karaoke Mugen Tag File",
    "version": 1
  },
  "tag": {
    "i18n": {
      "eng": "Eiichirô Oda"
    },
    "name": "Eiichirô Oda",
    "tid": "01a34d12-c7cf-4c1c-98e9-e428cc53f570",
    "types": [
      "songwriters",
      "8"
    ],
    "repository": "kara.moe",
    "modified_at": "2020-03-31T19:04:34.238Z"
  }
}