{
  "header": {
    "description": "Karaoke Mugen Tag File",
    "version": 1
  },
  "tag": {
    "i18n": {
      "eng": "Eiichi Ôtaki"
    },
    "modified_at": "2020-03-31T19:04:30.873Z",
    "name": "Eiichi Ôtaki",
    "repository": "kara.moe",
    "tid": "882e6c19-83d1-447a-9768-b41fe6e0e3a3",
    "types": [
      "songwriters",
      "8",
      "singers",
      "2"
    ]
  }
}