{
  "header": {
    "description": "Karaoke Mugen Tag File",
    "version": 1
  },
  "tag": {
    "i18n": {
      "eng": "Eiichirô Yanagi"
    },
    "name": "Eiichirô Yanagi",
    "tid": "436512d2-84f4-4524-a767-c920d06e3e25",
    "types": [
      "songwriters",
      "8"
    ],
    "repository": "kara.moe",
    "modified_at": "2020-03-31T19:04:34.238Z"
  }
}