{
  "header": {
    "description": "Karaoke Mugen Tag File",
    "version": 1
  },
  "tag": {
    "i18n": {
      "eng": "Eiji Hishiki"
    },
    "name": "Eiji Hishiki",
    "tid": "14ac9712-311c-4fc9-84c2-4700e8f60390",
    "types": [
      "songwriters",
      "8"
    ],
    "repository": "kara.moe",
    "modified_at": "2020-03-31T19:04:34.239Z"
  }
}