{
  "header": {
    "description": "Karaoke Mugen Tag File",
    "version": 1
  },
  "tag": {
    "i18n": {
      "eng": "Eiji Nishiki"
    },
    "name": "Eiji Nishiki",
    "tid": "453a839b-619f-4815-a682-d4a3fc1f7fff",
    "types": [
      "songwriters",
      "8"
    ],
    "repository": "kara.moe",
    "modified_at": "2020-03-31T19:04:34.242Z"
  }
}