{
  "header": {
    "description": "Karaoke Mugen Tag File",
    "version": 1
  },
  "tag": {
    "i18n": {
      "eng": "Eiko Yamada"
    },
    "modified_at": "2020-11-21T15:51:06.201Z",
    "name": "Eiko Yamada",
    "repository": "kara.moe",
    "tid": "8abc4676-eab6-4429-b410-8f02375d0757",
    "types": [
      "singers",
      "2"
    ]
  }
}