{
  "header": {
    "description": "Karaoke Mugen Tag File",
    "version": 1
  },
  "tag": {
    "i18n": {
      "eng": "Eill"
    },
    "name": "Eill",
    "repository": "kara.moe",
    "tid": "73d63b30-90d3-49ea-bbab-0e2eb6010dff",
    "types": [
      "singers",
      "2",
      "songwriters",
      "8"
    ]
  }
}