{
  "header": {
    "description": "Karaoke Mugen Tag File",
    "version": 1
  },
  "tag": {
    "i18n": {
      "eng": "Eishō Higa"
    },
    "name": "Eishō Higa",
    "repository": "kara.moe",
    "tid": "6436a683-1283-47d7-8691-a867699b26b4",
    "types": [
      "singers",
      "2"
    ]
  }
}