{
  "header": {
    "description": "Karaoke Mugen Tag File",
    "version": 1
  },
  "tag": {
    "aliases": [
      "Eiyuu Densetsu: Sen no Kiseki",
      "eiyuu"
    ],
    "i18n": {
      "eng": "The Legend of Heroes: Trails of Cold Steel",
      "jpn": "英雄伝説 閃の軌跡",
      "qro": "Eiyû Densetsu: Sen no Kiseki"
    },
    "modified_at": "2020-03-31T19:04:31.396Z",
    "name": "Eiyû Densetsu: Sen no Kiseki",
    "repository": "kara.moe",
    "tid": "9f560144-40c5-4191-8ba5-3ae7a74d0806",
    "types": [
      "series",
      "1"
    ]
  }
}