{
  "header": {
    "description": "Karaoke Mugen Tag File",
    "version": 1
  },
  "tag": {
    "aliases": [
      "Eiyuu Densetsu Sora no Kiseki The Third",
      "TLoH",
      "The Legend of Heroes VI: Sora no Kiseki the 3rd",
      "eiyuu"
    ],
    "i18n": {
      "eng": "The Legend of Heroes: Trails in the Sky The Third",
      "jpn": "英雄伝説 空の軌跡",
      "qro": "Eiyû Densetsu: Sora no Kiseki The Third"
    },
    "modified_at": "2020-03-31T19:04:31.397Z",
    "name": "Eiyû Densetsu: Sora no Kiseki The Third",
    "repository": "kara.moe",
    "tid": "d7847841-7592-4d75-b271-6f643cdc8f9e",
    "types": [
      "series",
      "1"
    ]
  }
}