{
  "header": {
    "description": "Karaoke Mugen Tag File",
    "version": 1
  },
  "tag": {
    "aliases": [
      "Eiyuu Densetsu Zero no Kiseki",
      "TLoH",
      "eiyuu"
    ],
    "i18n": {
      "eng": "The Legend of Heroes: Zero no Kiseki",
      "jpn": "英雄伝説 零の軌跡",
      "qro": "Eiyû Densetsu: Zero no Kiseki"
    },
    "modified_at": "2020-03-31T19:04:31.399Z",
    "name": "Eiyû Densetsu: Zero no Kiseki",
    "repository": "kara.moe",
    "tid": "7bafd697-1f3b-4fb5-ae10-08c9c9f53667",
    "types": [
      "series",
      "1"
    ]
  }
}