{
  "header": {
    "description": "Karaoke Mugen Tag File",
    "version": 1
  },
  "tag": {
    "i18n": {
      "eng": "Eizo Japan"
    },
    "name": "Eizo Japan",
    "tid": "1311537e-e30e-4b52-abd6-88d4c2299ce7",
    "types": [
      "singers",
      "2"
    ],
    "repository": "kara.moe",
    "modified_at": "2020-03-31T19:04:34.250Z"
  }
}