{
  "header": {
    "description": "Karaoke Mugen Tag File",
    "version": 1
  },
  "tag": {
    "aliases": [
      "ELO"
    ],
    "i18n": {
      "eng": "Electric Light Orchestra"
    },
    "name": "Electric Light Orchestra",
    "repository": "kara.moe",
    "tid": "d4f256fc-ad8d-4df6-8602-94e12300f935",
    "types": [
      "singers",
      "2",
      "songwriters",
      "8"
    ]
  }
}