{
  "header": {
    "description": "Karaoke Mugen Tag File",
    "version": 1
  },
  "tag": {
    "aliases": [
      "Honkai Impact 3rd"
    ],
    "i18n": {
      "eng": "ELF Academy"
    },
    "modified_at": "2021-07-21T17:04:58.199Z",
    "name": "ELF Academy",
    "repository": "kara.moe",
    "tid": "2704e781-cd16-40ca-b199-f25132b90d9f",
    "types": [
      "series",
      "1"
    ]
  }
}