{
  "header": {
    "description": "Karaoke Mugen Tag File",
    "version": 1
  },
  "tag": {
    "i18n": {
      "eng": "Elf"
    },
    "name": "Elf",
    "repository": "kara.moe",
    "tid": "b84667b7-950a-40eb-ae63-3a8e6889c3f6",
    "types": [
      "creators",
      "4"
    ],
    "modified_at": "2020-03-31T19:04:34.253Z"
  }
}