{
  "header": {
    "description": "Karaoke Mugen Tag File",
    "version": 1
  },
  "tag": {
    "i18n": {
      "eng": "Eliana"
    },
    "name": "Eliana",
    "tid": "f4df50f8-0efd-40a6-b510-126471b78aa9",
    "types": [
      "singers",
      "2"
    ],
    "repository": "kara.moe",
    "modified_at": "2020-03-31T19:04:34.255Z"
  }
}