{
  "header": {
    "description": "Karaoke Mugen Tag File",
    "version": 1
  },
  "tag": {
    "i18n": {
      "eng": "Éliane Thibault"
    },
    "name": "Éliane Thibault",
    "tid": "af8c5fa0-5785-4613-bd42-9e49aa2257ce",
    "types": [
      "singers",
      "2"
    ],
    "repository": "kara.moe",
    "modified_at": "2020-03-31T19:04:34.255Z"
  }
}