{
  "header": {
    "description": "Karaoke Mugen Tag File",
    "version": 1
  },
  "tag": {
    "i18n": {
      "eng": "elika"
    },
    "name": "elika",
    "tid": "a17f484a-9614-4f73-a312-332d5da9eee8",
    "types": [
      "singers",
      "2"
    ],
    "repository": "kara.moe",
    "modified_at": "2020-03-31T19:04:34.256Z"
  }
}