{
  "header": {
    "description": "Karaoke Mugen Tag File",
    "version": 1
  },
  "tag": {
    "i18n": {
      "eng": "Elspeth Bawden"
    },
    "name": "Elspeth Bawden",
    "repository": "kara.moe",
    "tid": "b880c3c5-1024-4115-9384-6817b20e626b",
    "types": [
      "singers",
      "2"
    ]
  }
}