{
  "header": {
    "description": "Karaoke Mugen Tag File",
    "version": 1
  },
  "tag": {
    "i18n": {
      "eng": "EMI Records"
    },
    "name": "EMI Records",
    "repository": "kara.moe",
    "tid": "31eff3f0-2c1f-4fbb-88ee-a9b6ca46118e",
    "types": [
      "creators",
      "4"
    ]
  }
}