{
  "header": {
    "description": "Karaoke Mugen Tag File",
    "version": 1
  },
  "tag": {
    "i18n": {
      "eng": "Emi Ito"
    },
    "modified_at": "2020-09-22T18:55:14.344Z",
    "name": "Emi Ito",
    "repository": "kara.moe",
    "tid": "33665b0f-20fc-47de-9b8c-de72c1711e66",
    "types": [
      "singers",
      "2"
    ]
  }
}