{
  "header": {
    "description": "Karaoke Mugen Tag File",
    "version": 1
  },
  "tag": {
    "i18n": {
      "eng": "Emile Wandelmer"
    },
    "name": "Emile Wandelmer",
    "repository": "kara.moe",
    "tid": "a1111229-41c6-4fa1-9046-df83c6aa7855",
    "types": [
      "songwriters",
      "8"
    ]
  }
}