{
  "header": {
    "description": "Karaoke Mugen Tag File",
    "version": 1
  },
  "tag": {
    "i18n": {
      "eng": "Emmanuel Jacomy"
    },
    "name": "Emmanuel Jacomy",
    "tid": "51449215-ac65-4cf0-a5b2-db22290acc3d",
    "types": [
      "singers",
      "2"
    ],
    "repository": "kara.moe",
    "modified_at": "2020-03-31T19:04:34.277Z"
  }
}