{
  "header": {
    "description": "Karaoke Mugen Tag File",
    "version": 1
  },
  "tag": {
    "i18n": {
      "eng": "Emma Daumas"
    },
    "name": "Emma Daumas",
    "repository": "kara.moe",
    "tid": "c7434b55-4d59-4b03-a3fc-8b3f046f219d",
    "types": [
      "singers",
      "2"
    ]
  }
}