{
  "header": {
    "description": "Karaoke Mugen Tag File",
    "version": 1
  },
  "tag": {
    "i18n": {
      "eng": "En route pour l'aventure"
    },
    "name": "En route pour l'aventure",
    "repository": "kara.moe",
    "tid": "9982ad18-163c-4e0c-80f1-a19b2363dc4a",
    "types": [
      "series",
      "1"
    ]
  }
}