{
  "header": {
    "description": "Karaoke Mugen Tag File",
    "version": 1
  },
  "tag": {
    "aliases": [
      "Enen no Shouboutai",
      "shouboutai"
    ],
    "external_database_ids": {
      "anilist": 105310,
      "myanimelist": 38671,
      "kitsu": 42068
    },
    "i18n": {
      "eng": "Fire Force",
      "fre": "Fire Force",
      "jpn": "炎炎ノ消防隊",
      "qro": "En'en no shôbôtai"
    },
    "modified_at": "2020-05-12T17:05:09.265Z",
    "name": "En'en no shôbôtai",
    "repository": "kara.moe",
    "tid": "bab4a47c-7a0c-401b-a2ca-f87a01ae733e",
    "types": [
      "series",
      "1",
      "franchises",
      "18"
    ]
  }
}