{
  "header": {
    "description": "Karaoke Mugen Tag File",
    "version": 1
  },
  "tag": {
    "external_database_ids": {
      "anilist": 21611,
      "myanimelist": 32608,
      "kitsu": 11807
    },
    "i18n": {
      "eng": "Endride",
      "jpn": "エンドライド",
      "qro": "Endride"
    },
    "modified_at": "2020-03-31T19:04:31.405Z",
    "name": "Endride",
    "repository": "kara.moe",
    "tid": "b6cae579-03b7-4f53-afb0-21c63b6a7435",
    "types": [
      "series",
      "1"
    ]
  }
}