{
  "header": {
    "description": "Karaoke Mugen Tag File",
    "version": 1
  },
  "tag": {
    "i18n": {
      "eng": "Enna Alouette"
    },
    "modified_at": "2021-10-20T16:38:15.511Z",
    "name": "Enna Alouette",
    "repository": "kara.moe",
    "tid": "db334bec-62f5-451d-bdff-a1b07b74c3a7",
    "types": [
      "singers",
      "2"
    ]
  }
}