{
  "header": {
    "description": "Karaoke Mugen Tag File",
    "version": 1
  },
  "tag": {
    "i18n": {
      "eng": "Enrico Torre"
    },
    "name": "Enrico Torre",
    "tid": "8f26ffb6-5a9a-4449-b52c-45710dd3e3a7",
    "types": [
      "songwriters",
      "8"
    ],
    "repository": "kara.moe",
    "modified_at": "2020-03-31T19:04:34.289Z"
  }
}