{
  "header": {
    "description": "Karaoke Mugen Tag File",
    "version": 1
  },
  "tag": {
    "aliases": [
      "N7"
    ],
    "i18n": {
      "eng": "ENSEEIHT-Japan7"
    },
    "modified_at": "2021-07-22T18:32:53.140Z",
    "name": "ENSEEIHT-japan7",
    "repository": "kara.moe",
    "tid": "2b4e9972-5e17-481b-99f5-d0787c0ada56",
    "types": [
      "authors",
      "6",
      "groups",
      "9"
    ]
  }
}