{
  "header": {
    "description": "Karaoke Mugen Tag File",
    "version": 1
  },
  "tag": {
    "i18n": {
      "eng": "Epic Records"
    },
    "modified_at": "2020-07-04T15:24:03.391Z",
    "name": "Epic Records",
    "repository": "kara.moe",
    "tid": "1cd2f13e-05cb-49b5-b42f-96260f7a162b",
    "types": [
      "creators",
      "4"
    ]
  }
}