{
  "header": {
    "description": "Karaoke Mugen Tag File",
    "version": 1
  },
  "tag": {
    "i18n": {
      "eng": "EPO"
    },
    "name": "EPO",
    "tid": "e0cb586f-2df3-4d63-98ec-29eb4ddfcca3",
    "types": [
      "songwriters",
      "8"
    ],
    "repository": "kara.moe",
    "modified_at": "2020-03-31T19:04:34.297Z"
  }
}