{
  "header": {
    "description": "Karaoke Mugen Tag File",
    "version": 1
  },
  "tag": {
    "i18n": {
      "eng": "Erasure"
    },
    "modified_at": "2020-07-03T20:55:39.694Z",
    "name": "Erasure",
    "repository": "kara.moe",
    "tid": "b6cde612-6e32-4d51-aae5-31e8baa738a6",
    "types": [
      "singers",
      "2"
    ]
  }
}