{
  "header": {
    "description": "Karaoke Mugen Tag File",
    "version": 1
  },
  "tag": {
    "i18n": {
      "eng": "ERI"
    },
    "name": "ERI",
    "tid": "ea3dcf51-1b68-45d7-a58a-f88d29c362fe",
    "types": [
      "singers",
      "2"
    ],
    "repository": "kara.moe",
    "modified_at": "2020-03-31T19:04:34.308Z"
  }
}