{
  "header": {
    "description": "Karaoke Mugen Tag File",
    "version": 1
  },
  "tag": {
    "i18n": {
      "eng": "Éric Charden"
    },
    "name": "Éric Charden",
    "tid": "521b94d3-5582-4568-a43f-27740fcb2778",
    "types": [
      "singers",
      "2",
      "songwriters",
      "8"
    ],
    "repository": "kara.moe",
    "modified_at": "2020-03-31T19:04:34.311Z"
  }
}