{
  "header": {
    "description": "Karaoke Mugen Tag File",
    "version": 1
  },
  "tag": {
    "i18n": {
      "eng": "Erick Benzi"
    },
    "name": "Erick Benzi",
    "repository": "kara.moe",
    "tid": "4f51e25c-b26e-40ca-9788-432339fd31c3",
    "types": [
      "songwriters",
      "8"
    ]
  }
}