{
  "header": {
    "description": "Karaoke Mugen Tag File",
    "version": 1
  },
  "tag": {
    "i18n": {
      "eng": "Erii Yamazaki"
    },
    "name": "Erii Yamazaki",
    "tid": "292a4345-a00d-45e8-978c-40d2cd213dba",
    "types": [
      "singers",
      "2"
    ],
    "repository": "kara.moe",
    "modified_at": "2020-03-31T19:04:34.313Z"
  }
}