{
  "header": {
    "description": "Karaoke Mugen Tag File",
    "version": 1
  },
  "tag": {
    "aliases": [
      "Torine "
    ],
    "i18n": {
      "eng": "Eriko Sakurai"
    },
    "modified_at": "2020-10-03T00:57:45.868Z",
    "name": "Eriko Sakurai",
    "repository": "kara.moe",
    "tid": "d9d0c19b-e4e4-4ac9-b3f8-ed464dd4d3ae",
    "types": [
      "songwriters",
      "8"
    ]
  }
}