{
  "header": {
    "description": "Karaoke Mugen Tag File",
    "version": 1
  },
  "tag": {
    "i18n": {
      "eng": "Ermite Moderne"
    },
    "name": "Ermite Moderne",
    "tid": "654cb316-a346-4467-a887-ed76886e9a4b",
    "types": [
      "creators",
      "4",
      "singers",
      "2",
      "songwriters",
      "8"
    ],
    "repository": "kara.moe",
    "modified_at": "2020-03-31T19:04:34.322Z"
  }
}