{
  "header": {
    "description": "Karaoke Mugen Tag File",
    "version": 1
  },
  "tag": {
    "i18n": {
      "eng": "Errol Rennalls"
    },
    "name": "Errol Rennalls",
    "repository": "kara.moe",
    "tid": "892523ca-8450-4770-98de-680d13a70505",
    "types": [
      "songwriters",
      "8"
    ]
  }
}