{
  "header": {
    "description": "Karaoke Mugen Tag File",
    "version": 1
  },
  "tag": {
    "aliases": [
      "Escaflowne: A Girl in Gaea",
      "Escaflowne: la película",
      "Eskaflonė: Mergina iš Gajos",
      "Видение Эскафлона - Фильм Ескафлон"
    ],
    "external_database_ids": {
      "anilist": 393,
      "kitsu": 360,
      "myanimelist": 393
    },
    "i18n": {
      "eng": "Escaflowne: The Movie",
      "fre": "Escaflowne - Une fille sur Gaia",
      "ger": "Escaflowne - The Movie",
      "jpn": "エスカフローネ",
      "kor": "천공의 에스카폴로네",
      "por": "Escaflowne: O Filme",
      "qro": "Escaflowne"
    },
    "name": "Escaflowne",
    "repository": "kara.moe",
    "tid": "929f104d-c943-4e9c-9b50-6b070cb369fb",
    "types": [
      "series",
      "1"
    ]
  }
}