{
  "header": {
    "description": "Karaoke Mugen Tag File",
    "version": 1
  },
  "tag": {
    "i18n": {
      "eng": "Estelle"
    },
    "name": "Estelle",
    "tid": "17156337-5cfb-429b-87b7-a5631d15b675",
    "types": [
      "singers",
      "2"
    ],
    "repository": "kara.moe",
    "modified_at": "2020-03-31T19:04:34.327Z"
  }
}