{
  "header": {
    "description": "Karaoke Mugen Tag File",
    "version": 1
  },
  "tag": {
    "i18n": {
      "eng": "Ethan Kath"
    },
    "name": "Ethan Kath",
    "tid": "9ada2f50-0ab8-493e-b017-7da732451de1",
    "types": [
      "songwriters",
      "8"
    ],
    "repository": "kara.moe",
    "modified_at": "2020-03-31T19:04:34.329Z"
  }
}