{
  "header": {
    "description": "Karaoke Mugen Tag File",
    "version": 1
  },
  "tag": {
    "i18n": {
      "eng": "Etsuko Nishio"
    },
    "name": "Etsuko Nishio",
    "tid": "d7a75814-0c35-442e-b99f-4403c0b4b21a",
    "types": [
      "singers",
      "2"
    ],
    "repository": "kara.moe",
    "modified_at": "2020-03-31T19:04:34.331Z"
  }
}