{
  "header": {
    "description": "Karaoke Mugen Tag File",
    "version": 1
  },
  "tag": {
    "i18n": {
      "eng": "eufonius"
    },
    "name": "eufonius",
    "tid": "d2c58207-02f6-44e6-a80d-1cd4dc3df848",
    "types": [
      "singers",
      "2",
      "songwriters",
      "8"
    ],
    "repository": "kara.moe",
    "modified_at": "2020-03-31T19:04:34.333Z"
  }
}