{
  "header": {
    "description": "Karaoke Mugen Tag File",
    "version": 1
  },
  "tag": {
    "aliases": [
      "E7",
      "交響詩篇エウレカセブン",
      "Koukyoushihen Eureka Seven",
      "Kôkyôshihen Eureka Seven",
      "Psalms of Planets"
    ],
    "external_database_ids": {},
    "i18n": {
      "eng": "Eureka Seven",
      "jpn": "エウレカセブン ",
      "kor": "에우레카 세븐"
    },
    "name": "Eureka Seven",
    "repository": "kara.moe",
    "tid": "ff285d6c-0ae5-4cc6-8226-fbf5effb2277",
    "types": [
      "franchises",
      "18"
    ]
  }
}