{
  "header": {
    "description": "Karaoke Mugen Tag File",
    "version": 1
  },
  "tag": {
    "i18n": {
      "eng": "Eurythmics"
    },
    "name": "Eurythmics",
    "repository": "kara.moe",
    "tid": "a8e344f8-fdfb-4156-a6c9-c88236e5f8ba",
    "types": [
      "singers",
      "2"
    ]
  }
}