{
  "header": {
    "description": "Karaoke Mugen Tag File",
    "version": 1
  },
  "tag": {
    "i18n": {
      "eng": "eyelis"
    },
    "name": "eyelis",
    "tid": "d700aeee-531c-4ef8-a6d7-1df3d24fe3ec",
    "types": [
      "singers",
      "2"
    ],
    "repository": "kara.moe",
    "modified_at": "2020-03-31T19:04:34.344Z"
  }
}