{
  "header": {
    "description": "Karaoke Mugen Tag File",
    "version": 1
  },
  "tag": {
    "aliases": [
      "Eyeshield21",
      "e21",
      "es21",
      "Айшийлд 21",
      "Айшилд 21",
      "المقنع 21"
    ],
    "external_database_ids": {
      "anilist": 15,
      "myanimelist": 15,
      "kitsu": 6
    },
    "i18n": {
      "eng": "Eyeshield 21",
      "fre": "Eyeshield 21",
      "jpn": "アイシールド21",
      "qro": "Eyeshield 21"
    },
    "modified_at": "2020-03-31T19:04:31.417Z",
    "name": "Eyeshield 21",
    "repository": "kara.moe",
    "tid": "1593e2bc-a870-418c-ab0d-cff080034487",
    "types": [
      "series",
      "1"
    ]
  }
}