{
  "header": {
    "description": "Karaoke Mugen Tag File",
    "version": 1
  },
  "tag": {
    "i18n": {
      "eng": "ezora"
    },
    "modified_at": "2021-11-20T16:16:24.075Z",
    "name": "ezora",
    "repository": "kara.moe",
    "tid": "0c7bb6c5-6614-426f-90c7-e64e2cb0caec",
    "types": [
      "songwriters",
      "8"
    ]
  }
}