{
  "header": {
    "description": "Karaoke Mugen Tag File",
    "version": 1
  },
  "tag": {
    "i18n": {
      "eng": "f(x)"
    },
    "name": "f(x)",
    "repository": "kara.moe",
    "tid": "f8cecbce-7b95-4ebb-85c5-c29d1fb48bcb",
    "types": [
      "singers",
      "2"
    ]
  }
}