{
  "header": {
    "description": "Karaoke Mugen Tag File",
    "version": 1
  },
  "tag": {
    "i18n": {
      "eng": "F. Rizzolo"
    },
    "name": "F. Rizzolo",
    "tid": "43e57458-ff14-48ec-9794-3fe59d0eee38",
    "types": [
      "songwriters",
      "8"
    ],
    "repository": "kara.moe",
    "modified_at": "2020-03-31T19:04:34.346Z"
  }
}