{
  "header": {
    "description": "Karaoke Mugen Tag File",
    "version": 1
  },
  "tag": {
    "i18n": {
      "eng": "f1r3w4ll"
    },
    "modified_at": "2021-05-24T00:16:09.724Z",
    "name": "f1r3w4ll",
    "repository": "kara.moe",
    "tid": "51825f15-84ac-4aee-b8b4-0750d91bcf53",
    "types": [
      "authors",
      "6"
    ]
  }
}