{
  "header": {
    "description": "Karaoke Mugen Tag File",
    "version": 1
  },
  "tag": {
    "i18n": {
      "eng": "fabthehedgehog"
    },
    "modified_at": "2021-05-17T14:43:22.665Z",
    "name": "fabthehedgehog",
    "repository": "kara.moe",
    "tid": "9cdf3b70-3550-457c-bdb9-038f3253c6ad",
    "types": [
      "authors",
      "6",
      "creators",
      "4"
    ]
  }
}