{
  "header": {
    "description": "Karaoke Mugen Tag File",
    "version": 1
  },
  "tag": {
    "i18n": {
      "eng": "fabzt10"
    },
    "modified_at": "2020-08-20T21:33:32.329Z",
    "name": "fabzt10",
    "repository": "kara.moe",
    "tid": "92b9ad0c-03f8-46a1-a892-3f58d1858916",
    "types": [
      "creators",
      "4"
    ]
  }
}