{
  "header": {
    "description": "Karaoke Mugen Tag File",
    "version": 1
  },
  "tag": {
    "i18n": {
      "eng": "Fagagie"
    },
    "name": "Fagagie",
    "tid": "4aa7994f-fd99-461e-908b-be84e4586421",
    "types": [
      "singers",
      "2"
    ],
    "repository": "kara.moe",
    "modified_at": "2020-03-31T19:04:34.350Z"
  }
}