{
  "header": {
    "description": "Karaoke Mugen Tag File",
    "version": 1
  },
  "tag": {
    "i18n": {
      "eng": "FalKKonE"
    },
    "modified_at": "2020-08-07T19:33:44.475Z",
    "name": "FalKKonE",
    "repository": "kara.moe",
    "tid": "8e0be719-5184-4ef9-8079-eca976c90fcc",
    "types": [
      "singers",
      "2"
    ]
  }
}