{
  "header": {
    "description": "Karaoke Mugen Tag File",
    "version": 1
  },
  "tag": {
    "i18n": {
      "ara": "فول أوت 3",
      "chi": "辐射3",
      "eng": "Fallout 3"
    },
    "modified_at": "2020-03-31T19:04:31.422Z",
    "name": "Fallout 3",
    "repository": "kara.moe",
    "tid": "e3cac537-ebd1-4713-afa5-eb4379ae88cb",
    "types": [
      "series",
      "1"
    ]
  }
}