{
  "header": {
    "description": "Karaoke Mugen Tag File",
    "version": 1
  },
  "tag": {
    "i18n": {
      "eng": "Fan Works",
      "fre": "Oeuvre de fan"
    },
    "name": "Fan Works",
    "repository": "kara.moe",
    "short": "FAN",
    "tid": "ac5085db-52d8-44b4-8fbb-1697b24d2046",
    "types": [
      "origins",
      "11"
    ]
  }
}