{
  "header": {
    "description": "Karaoke Mugen Tag File",
    "version": 1
  },
  "tag": {
    "i18n": {
      "eng": "FANTASTICS from EXILE TRIBE"
    },
    "name": "FANTASTICS from EXILE TRIBE",
    "repository": "kara.moe",
    "tid": "215b7b2c-7635-465e-877b-575b540276fb",
    "types": [
      "singergroups",
      "17"
    ]
  }
}