{
  "header": {
    "description": "Karaoke Mugen Tag File",
    "version": 1
  },
  "tag": {
    "external_database_ids": {
      "anilist": 15883,
      "myanimelist": 15883,
      "kitsu": 7332
    },
    "i18n": {
      "eng": "Fantasista Doll",
      "jpn": "ファンタジスタドール",
      "qro": "Fantasista Doll"
    },
    "modified_at": "2020-03-31T19:04:31.423Z",
    "name": "Fantasista Doll",
    "repository": "kara.moe",
    "tid": "3b7e29d7-f69e-4d16-87ab-bc9b0fae72e0",
    "types": [
      "series",
      "1"
    ]
  }
}