{
  "header": {
    "description": "Karaoke Mugen Tag File",
    "version": 1
  },
  "tag": {
    "i18n": {
      "afr": "Faroese",
      "amh": "Faroese",
      "ara": "جزر فارو",
      "aze": "Фарерцы",
      "bak": "Фарер",
      "bel": "Фарерцы",
      "bul": "Фарьорските острови",
      "ben": "ফেরাউনি",
      "bos": "Bosanski",
      "cat": "Faroese",
      "cze": "Faerských ostrovů",
      "wel": "Ffaroes",
      "dan": "Færøske",
      "ger": "Färöisch",
      "gre": "Φαρόε",
      "eng": "Faroese",
      "epo": "Feroa",
      "spa": "Las islas feroe",
      "est": "Fääri saarte",
      "baq": "Faroese",
      "per": "فاروئی",
      "fin": "Färsaarten",
      "fre": "Des îles féroé",
      "gle": "Faróis",
      "gla": "Faroese",
      "glg": "Feroés",
      "guj": "ફોરિસ્ત",
      "heb": "פארואיתname",
      "hin": "फिरोज़ी",
      "hrv": "Фарерцы",
      "hat": "Faroese",
      "hun": "Feröer-szigetek",
      "arm": "Фарерцы",
      "ind": "Faroe",
      "ice": "Færeyska",
      "ita": "Faroese",
      "jpn": "フェロー",
      "jav": "Faroese",
      "geo": "Faroese",
      "kaz": "Фарерцы",
      "kan": "ಫರೋಸಿ",
      "kor": "페로어",
      "kir": "Фарерцы",
      "lat": "Faroese",
      "lit": "Farerų salos",
      "lav": "Fēru salu",
      "mlg": "Zavatra",
      "mao": "Estonian",
      "mac": "Faroese",
      "mal": "സ്പാനിഷ്",
      "mon": "Faroese",
      "mar": "उर्दू",
      "may": "Faroe",
      "mlt": "- Gżejjer faroe",
      "nep": "फारसी",
      "dut": "Faeröers",
      "nor": "Færøyske",
      "pan": "ਫ਼ਰੋਈ",
      "pol": "Фарерцы",
      "por": "Feroês",
      "rum": "Faroeză",
      "rus": "Фарерцы",
      "sin": "Faroese",
      "slo": "Faerčina",
      "slv": "Ferščina",
      "alb": "Faroese",
      "srp": "Фарерцы",
      "sun": "Estonian",
      "swe": "Färöiska",
      "swa": "Kifaroe",
      "tam": "ஃபரிஸ்த்",
      "tel": "ఫారోయీజ్",
      "tgk": "Фарерцы",
      "tha": "ภาษาฟาโรอีส name",
      "tgl": "Faroese",
      "tur": "Faroe",
      "tat": "Фарерцы",
      "ukr": "Фарерці",
      "urd": "فیروئیز",
      "uzb": "Faroese",
      "vie": "Tiếng",
      "xho": "Faroesename",
      "yid": "פֿאַראָעזיש",
      "chi": "法罗群岛"
    },
    "name": "fao",
    "tid": "42495663-8b13-4ecf-8a29-34288094a44b",
    "types": [
      "langs",
      "5"
    ],
    "repository": "kara.moe",
    "modified_at": "2020-03-31T19:04:34.359Z"
  }
}