{
  "header": {
    "description": "Karaoke Mugen Tag File",
    "version": 1
  },
  "tag": {
    "external_database_ids": {
      "anilist": 20927,
      "myanimelist": 28205,
      "kitsu": 9971
    },
    "i18n": {
      "eng": "Fastening Days",
      "jpn": "FASTENING DAYS",
      "qro": "Fastening Days"
    },
    "modified_at": "2020-04-25T13:42:00.478Z",
    "name": "Fastening Days",
    "repository": "kara.moe",
    "tid": "0565c7bf-619b-42e1-8dc7-53d3275a7db6",
    "types": [
      "series",
      "1"
    ]
  }
}