{
  "header": {
    "description": "Karaoke Mugen Tag File",
    "version": 1
  },
  "tag": {
    "i18n": {
      "eng": "Fatal Twelve"
    },
    "name": "Fatal Twelve",
    "repository": "kara.moe",
    "tid": "46407c4b-a6a0-4a0b-9387-0949d80cb103",
    "types": [
      "series",
      "1"
    ]
  }
}