{
  "header": {
    "description": "Karaoke Mugen Tag File",
    "version": 1
  },
  "tag": {
    "aliases": [
      "Fate Grand Order",
      "FGO",
      "F/GO",
      "fate grand"
    ],
    "i18n": {
      "jpn": "Fate/Grand Order: Salem of Heresy",
      "qro": "Fate/Grand Order: Salem of Heresy"
    },
    "modified_at": "2021-11-22T01:47:43.456Z",
    "name": "Fate/Grand Order: Salem of Heresy",
    "repository": "kara.moe",
    "tid": "f9fbf946-6e09-46d0-aa40-23a65d548bc8",
    "types": [
      "series",
      "1"
    ]
  }
}