{
  "header": {
    "description": "Karaoke Mugen Tag File",
    "version": 1
  },
  "tag": {
    "aliases": [
      "F/K 3",
      "Fate/Kaleid Liner Prisma Illya 3rei!!",
      "Fate/Kaleid Liner Prisma Illya Drei!!",
      "Fate/Kaleid Liner プリズマ☆イリヤ ドライ!!",
      "Prillya Drei",
      "Fate kaleid liner",
      "fate kaleid",
      "prisma illya"
    ],
    "external_database_ids": {
      "anilist": 21379,
      "myanimelist": 31706,
      "kitsu": 11438
    },
    "i18n": {
      "eng": "Fate/kaleid liner Prisma☆Illya 3rei!!",
      "jpn": "Fate/kaleid liner プリズマ☆イリヤ 3rei!!",
      "qro": "Fate/kaleid liner Prisma☆Illya 3rei!!"
    },
    "modified_at": "2021-04-19T14:33:51.424Z",
    "name": "Fate/kaleid liner Prisma☆Illya 3rei!!",
    "repository": "kara.moe",
    "tid": "a86daddc-9f64-42d0-802b-ef4a09232f3c",
    "types": [
      "series",
      "1"
    ]
  }
}