{
  "header": {
    "description": "Karaoke Mugen Tag File",
    "version": 1
  },
  "tag": {
    "i18n": {
      "eng": "Favorite"
    },
    "name": "Favorite",
    "tid": "fc05b934-77bc-4935-affa-65b3f8cdf301",
    "types": [
      "creators",
      "4"
    ],
    "repository": "kara.moe",
    "modified_at": "2020-03-31T19:04:34.361Z"
  }
}