{
  "header": {
    "description": "Karaoke Mugen Tag File",
    "version": 1
  },
  "tag": {
    "i18n": {
      "eng": "Fayray"
    },
    "modified_at": "2021-03-09T15:33:38.471Z",
    "name": "Fayray",
    "repository": "kara.moe",
    "tid": "3b545728-8fe3-42cb-8f3e-db8070aa6a60",
    "types": [
      "songwriters",
      "8",
      "singers",
      "2"
    ]
  }
}