{
  "header": {
    "description": "Karaoke Mugen Tag File",
    "version": 1
  },
  "tag": {
    "i18n": {
      "eng": "FictionJunction KEIKO"
    },
    "name": "FictionJunction KEIKO",
    "tid": "69a3856d-a7f9-43dc-9891-56f0196444c8",
    "types": [
      "singers",
      "2"
    ],
    "repository": "kara.moe",
    "modified_at": "2020-03-31T19:04:34.372Z"
  }
}