{
  "header": {
    "description": "Karaoke Mugen Tag File",
    "version": 1
  },
  "tag": {
    "i18n": {
      "eng": "FIELD OF VIEW"
    },
    "name": "FIELD OF VIEW",
    "tid": "626ad3ba-050a-4b75-8099-898b181405dd",
    "types": [
      "singers",
      "2"
    ],
    "repository": "kara.moe",
    "modified_at": "2020-03-31T19:04:34.374Z"
  }
}