{
  "header": {
    "description": "Karaoke Mugen Tag File",
    "version": 1
  },
  "tag": {
    "aliases": [
      "Charger Girl Ju-den Chan",
      "Fight Ippatsu! Juuden-chan!!",
      "Fight One Shot! Charger Girls!!",
      "juuden",
      "Разряд! Со всей дури!!",
      "С первого удара! Заряжай-ка!!",
      "魔力充电娘",
      "魔力充電娘",
      "juuden-chan"
    ],
    "external_database_ids": {
      "anilist": 5973,
      "myanimelist": 5973,
      "kitsu": 4368
    },
    "i18n": {
      "eng": "Juden Chan Recharged",
      "fre": "Jûden Chan Recharged",
      "jpn": "ファイト一発! 充電ちゃん!!",
      "qro": "Fight Ippatsu! Jûden-chan!!"
    },
    "modified_at": "2020-03-31T19:04:31.439Z",
    "name": "Fight Ippatsu! Jûden-chan!!",
    "repository": "kara.moe",
    "tid": "e861bef8-7614-41d3-b54b-34f65a32da6c",
    "types": [
      "series",
      "1"
    ]
  }
}