{
  "header": {
    "description": "Karaoke Mugen Tag File",
    "version": 1
  },
  "tag": {
    "aliases": [
      "FF X-2",
      "FF X2",
      "FFX-2",
      "FFX2"
    ],
    "i18n": {
      "ara": "X-2 فاينل فانتَسي",
      "chi": "最終幻想X-2",
      "eng": "Final Fantasy X-2",
      "fre": "Final Fantasy X-2",
      "jpn": "ファイナルファンタジーX-2",
      "qro": "Final Fantasy X-2"
    },
    "modified_at": "2020-03-31T19:04:31.444Z",
    "name": "Final Fantasy X-2",
    "repository": "kara.moe",
    "tid": "cc95159a-472d-444a-9f93-22f97306957f",
    "types": [
      "series",
      "1"
    ]
  }
}