{
  "header": {
    "description": "Karaoke Mugen Tag File",
    "version": 1
  },
  "tag": {
    "i18n": {
      "eng": "Finana Ryugu"
    },
    "modified_at": "2021-09-29T23:24:19.647Z",
    "name": "Finana Ryugu",
    "repository": "kara.moe",
    "tid": "d22da5f0-75b5-4dff-b0a7-f8e48ab34efa",
    "types": [
      "singers",
      "2"
    ]
  }
}