{
  "header": {
    "description": "Karaoke Mugen Tag File",
    "version": 1
  },
  "tag": {
    "aliases": [
      "FF 8",
      "FF VIII",
      "FF8",
      "FFVIII"
    ],
    "i18n": {
      "ara": "VIII فاينل فانتَسي",
      "chi": "最終幻想VIII",
      "eng": "Final Fantasy VIII",
      "fre": "Final Fantasy VIII",
      "jpn": "ファイナルファンタジーVIII",
      "qro": "Final Fantasy VIII"
    },
    "modified_at": "2020-03-31T19:04:31.443Z",
    "name": "Final Fantasy VIII",
    "repository": "kara.moe",
    "tid": "3199d6f5-0826-42dc-a95b-830661a450f5",
    "types": [
      "series",
      "1"
    ]
  }
}