{
  "header": {
    "description": "Karaoke Mugen Tag File",
    "version": 1
  },
  "tag": {
    "i18n": {
      "eng": "Final Fantasy XI",
      "jpn": "ファイナルファンタジーXI",
      "qro": "Final Fantasy XI"
    },
    "modified_at": "2020-08-15T17:06:20.445Z",
    "name": "Final Fantasy XI",
    "repository": "kara.moe",
    "tid": "6aa208b0-847e-44f4-a8d2-86224ef2bb80",
    "types": [
      "series",
      "1"
    ]
  }
}