{
  "header": {
    "description": "Karaoke Mugen Tag File",
    "version": 1
  },
  "tag": {
    "aliases": [
      "FE"
    ],
    "external_database_ids": {},
    "i18n": {
      "eng": "Fire Emblem",
      "jpn": "ファイアーエムブレム"
    },
    "name": "Fire Emblem",
    "repository": "kara.moe",
    "tid": "346c01b0-a356-4db7-9be5-0d499988886a",
    "types": [
      "franchises",
      "18"
    ]
  }
}