{
  "header": {
    "description": "Karaoke Mugen Tag File",
    "version": 1
  },
  "tag": {
    "aliases": [
      "5 star stories",
      "Beş Yıldız Öyküleri",
      "FSS",
      "Истории от петте звезди"
    ],
    "external_database_ids": {
      "anilist": 2042,
      "myanimelist": 2042,
      "kitsu": 1841
    },
    "i18n": {
      "eng": "The Five Star Stories",
      "jpn": "ファイブスター物語",
      "rus": "Герои пяти планет",
      "qro": "Five Star Monogatari"
    },
    "modified_at": "2020-03-31T19:04:31.449Z",
    "name": "Five Star Monogatari",
    "repository": "kara.moe",
    "tid": "abf5ccb2-1429-4261-b25f-8ee603e98d2f",
    "types": [
      "series",
      "1"
    ]
  }
}