{
  "header": {
    "description": "Karaoke Mugen Tag File",
    "version": 1
  },
  "tag": {
    "i18n": {
      "eng": "Five Spirits"
    },
    "name": "Five Spirits",
    "tid": "6bc7524d-8b33-4bd7-9b42-651a1178a355",
    "types": [
      "singers",
      "2"
    ],
    "repository": "kara.moe",
    "modified_at": "2020-03-31T19:04:34.378Z"
  }
}