{
  "header": {
    "description": "Karaoke Mugen Tag File",
    "version": 1
  },
  "tag": {
    "i18n": {
      "fre": "Flander's Company"
    },
    "modified_at": "2020-03-31T19:04:31.450Z",
    "name": "Flander's Company",
    "repository": "kara.moe",
    "tid": "d5cb8ac0-0711-4f8d-8a5e-f3dbfa83fd88",
    "types": [
      "series",
      "1"
    ]
  }
}