{
  "header": {
    "description": "Karaoke Mugen Tag File",
    "version": 1
  },
  "tag": {
    "i18n": {
      "eng": "Flare Shiranui",
      "jpn": "不知火フレア",
      "qro": "Flare Shiranui"
    },
    "modified_at": "2021-09-02T20:29:49.843Z",
    "name": "Flare Shiranui",
    "repository": "kara.moe",
    "tid": "1813f043-d361-4df9-9cdf-24e3d0d1044c",
    "types": [
      "singers",
      "2"
    ]
  }
}