{
  "header": {
    "description": "Karaoke Mugen Tag File",
    "version": 1
  },
  "tag": {
    "aliases": [
      "Furi Kuri",
      "Fooley Cooley",
      "Fooly Cooly",
      "Fuli Culi",
      "Furi Curi"
    ],
    "external_database_ids": {},
    "i18n": {
      "eng": "FLCL",
      "kor": "프리크리",
      "jpn": "フリクリ"
    },
    "name": "FLCL",
    "repository": "kara.moe",
    "tid": "2fa2c26f-c630-4c9d-89f4-4e08ddb3f348",
    "types": [
      "franchises",
      "18"
    ]
  }
}