{
  "header": {
    "description": "Karaoke Mugen Tag File",
    "version": 1
  },
  "tag": {
    "i18n": {
      "eng": "Fling Posse"
    },
    "name": "Fling Posse",
    "repository": "kara.moe",
    "tid": "58083e61-6d68-48a8-a5b3-4bbfa418cf81",
    "types": [
      "singergroups",
      "17"
    ]
  }
}