{
  "header": {
    "description": "Karaoke Mugen Tag File",
    "version": 1
  },
  "tag": {
    "i18n": {
      "eng": "Flora Balzano"
    },
    "name": "Flora Balzano",
    "tid": "0c825b76-936c-4614-8018-f5d74dac7fdf",
    "types": [
      "singers",
      "2"
    ],
    "repository": "kara.moe",
    "modified_at": "2020-03-31T19:04:34.382Z"
  }
}