{
  "header": {
    "description": "Karaoke Mugen Tag File",
    "version": 1
  },
  "tag": {
    "i18n": {
      "eng": "Florent Mothe"
    },
    "name": "Florent Mothe",
    "repository": "kara.moe",
    "tid": "9929a976-a1a3-4598-8bf8-2212464f2fc5",
    "types": [
      "singers",
      "2"
    ]
  }
}