{
  "header": {
    "description": "Karaoke Mugen Tag File",
    "version": 1
  },
  "tag": {
    "i18n": {
      "eng": "Florence Welch"
    },
    "name": "Florence Welch",
    "repository": "kara.moe",
    "tid": "8e8b250a-e299-4875-87a1-f864f7f08cb6",
    "types": [
      "songwriters",
      "8"
    ]
  }
}