{
  "header": {
    "description": "Karaoke Mugen Tag File",
    "version": 1
  },
  "tag": {
    "i18n": {
      "eng": "Flowsik"
    },
    "name": "Flowsik",
    "repository": "kara.moe",
    "tid": "77cd218d-2952-4f7b-8db5-d4a99876985c",
    "types": [
      "songwriters",
      "8"
    ]
  }
}