{
  "header": {
    "description": "Karaoke Mugen Tag File",
    "version": 1
  },
  "tag": {
    "i18n": {
      "eng": "FLOW"
    },
    "name": "FLOW",
    "repository": "kara.moe",
    "tid": "fa3c1f40-c7ef-4ba2-9630-f540bcf94b43",
    "types": [
      "singers",
      "2",
      "songwriters",
      "8"
    ]
  }
}