{
  "header": {
    "description": "Karaoke Mugen Tag File",
    "version": 1
  },
  "tag": {
    "i18n": {
      "eng": "flumpool"
    },
    "name": "flumpool",
    "tid": "6c1b58ed-075a-472a-9ac0-58966e6c9e42",
    "types": [
      "singers",
      "2"
    ],
    "repository": "kara.moe",
    "modified_at": "2020-03-31T19:04:34.386Z"
  }
}