{
  "header": {
    "description": "Karaoke Mugen Tag File",
    "version": 1
  },
  "tag": {
    "i18n": {
      "eng": "Foglia"
    },
    "name": "Foglia",
    "tid": "551022e6-e58c-44d8-83c1-6c1ad36fd300",
    "types": [
      "songwriters",
      "8"
    ],
    "repository": "kara.moe",
    "modified_at": "2020-03-31T19:04:34.389Z"
  }
}