{
  "header": {
    "description": "Karaoke Mugen Tag File",
    "version": 1
  },
  "tag": {
    "i18n": {
      "eng": "Foreground Eclipse"
    },
    "name": "Foreground Eclipse",
    "repository": "kara.moe",
    "tid": "118022d4-b72b-42d1-a814-c031d53bebd2",
    "types": [
      "creators",
      "4",
      "singers",
      "2",
      "songwriters",
      "8"
    ]
  }
}