{
  "header": {
    "description": "Karaoke Mugen Tag File",
    "version": 1
  },
  "tag": {
    "aliases": [
      "fa",
      "フォアテリ",
      "フォーチュンアテリアル"
    ],
    "i18n": {
      "eng": "Fortune Arterial",
      "jpn": "Fortune Arterial",
      "qro": "Fortune Arterial"
    },
    "modified_at": "2020-03-31T19:04:31.456Z",
    "name": "Fortune Arterial",
    "repository": "kara.moe",
    "tid": "6c3b83ef-01f8-4e98-8cd4-ef44ed7a2fb7",
    "types": [
      "series",
      "1",
      "franchises",
      "18"
    ]
  }
}