{
  "header": {
    "description": "Karaoke Mugen Tag File",
    "version": 1
  },
  "tag": {
    "i18n": {
      "eng": "Francine Chantereau"
    },
    "name": "Francine Chantereau",
    "tid": "4ab90991-758f-4942-99d3-17355e4698c0",
    "types": [
      "singers",
      "2"
    ],
    "repository": "kara.moe",
    "modified_at": "2020-03-31T19:04:34.400Z"
  }
}