{
  "header": {
    "description": "Karaoke Mugen Tag File",
    "version": 1
  },
  "tag": {
    "i18n": {
      "eng": "Frank Farian"
    },
    "modified_at": "2020-10-21T19:00:13.899Z",
    "name": "Frank Farian",
    "repository": "kara.moe",
    "tid": "290c12bf-2c01-4b22-913e-300d8282140e",
    "types": [
      "songwriters",
      "8"
    ]
  }
}