{
  "header": {
    "description": "Karaoke Mugen Tag File",
    "version": 1
  },
  "tag": {
    "i18n": {
      "eng": "Franco Fasano"
    },
    "name": "Franco Fasano",
    "tid": "14ab79df-6596-4860-b9f3-fc13563d19c5",
    "types": [
      "songwriters",
      "8"
    ],
    "repository": "kara.moe",
    "modified_at": "2020-03-31T19:04:34.402Z"
  }
}