{
  "header": {
    "description": "Karaoke Mugen Tag File",
    "version": 1
  },
  "tag": {
    "i18n": {
      "eng": "Frank Schindel"
    },
    "name": "Frank Schindel",
    "repository": "kara.moe",
    "tid": "dcb848d2-86dd-47bd-bc9f-909c47d5068a",
    "types": [
      "singers",
      "2"
    ]
  }
}