{
  "header": {
    "description": "Karaoke Mugen Tag File",
    "version": 1
  },
  "tag": {
    "i18n": {
      "eng": "François Le Roux"
    },
    "name": "François Le Roux",
    "repository": "kara.moe",
    "tid": "ca2329e4-f509-48f2-839b-f792ceb9c98b",
    "types": [
      "singers",
      "2"
    ],
    "modified_at": "2020-03-31T19:04:34.405Z"
  }
}