{
  "header": {
    "description": "Karaoke Mugen Tag File",
    "version": 1
  },
  "tag": {
    "i18n": {
      "eng": "Francois Juno"
    },
    "modified_at": "2021-02-05T20:57:32.518Z",
    "name": "Francois Juno",
    "repository": "kara.moe",
    "tid": "3464bf78-417c-4928-825f-2008dd286c77",
    "types": [
      "singers",
      "2"
    ]
  }
}