{
  "header": {
    "description": "Karaoke Mugen Tag File",
    "version": 1
  },
  "tag": {
    "i18n": {
      "eng": "France Animation"
    },
    "name": "France Animation",
    "tid": "a42d73a6-3699-4ca4-90a8-423bdd07dea0",
    "types": [
      "creators",
      "4"
    ],
    "repository": "kara.moe",
    "modified_at": "2020-03-31T19:04:34.398Z"
  }
}