{
  "header": {
    "description": "Karaoke Mugen Tag File",
    "version": 1
  },
  "tag": {
    "i18n": {
      "eng": "Freddie Cowan"
    },
    "modified_at": "2020-09-26T18:03:21.973Z",
    "name": "Freddie Cowan",
    "repository": "kara.moe",
    "tid": "66be5d03-0b19-4840-b69e-c09b9a06381c",
    "types": [
      "singers",
      "2"
    ]
  }
}