{
  "header": {
    "description": "Karaoke Mugen Tag File",
    "version": 1
  },
  "tag": {
    "external_database_ids": {
      "anilist": 101117,
      "myanimelist": 36704,
      "kitsu": 14010
    },
    "i18n": {
      "eng": "Free! Dive to the Future",
      "fre": "Free! Dive to the Future",
      "jpn": "Free!-Dive to the Future-",
      "kor": "프리! 다이브 투 더 퓨처",
      "qro": "Free! Dive to the Future"
    },
    "modified_at": "2020-03-31T19:04:31.460Z",
    "name": "Free! Dive to the Future",
    "repository": "kara.moe",
    "tid": "d2a6d247-8239-4e6f-ad37-aad73cefe0af",
    "types": [
      "series",
      "1"
    ]
  }
}