{
  "header": {
    "description": "Karaoke Mugen Tag File",
    "version": 1
  },
  "tag": {
    "i18n": {
      "eng": "Frida Sundemo"
    },
    "name": "Frida Sundemo",
    "tid": "01f9c86d-e8f7-45ae-a771-a26efcdb6ce9",
    "types": [
      "songwriters",
      "8"
    ],
    "repository": "kara.moe",
    "modified_at": "2020-03-31T19:04:34.412Z"
  }
}