{
  "header": {
    "description": "Karaoke Mugen Tag File",
    "version": 1
  },
  "tag": {
    "i18n": {
      "eng": "From4to7"
    },
    "name": "From4to7",
    "tid": "abb8c6e6-9e26-4234-8734-108b50c24fe8",
    "types": [
      "singers",
      "2"
    ],
    "repository": "kara.moe",
    "modified_at": "2020-03-31T19:04:34.414Z"
  }
}