{
  "header": {
    "description": "Karaoke Mugen Tag File",
    "version": 1
  },
  "tag": {
    "i18n": {
      "eng": "fu-rin"
    },
    "name": "fu-rin",
    "repository": "kara.moe",
    "tid": "94c38add-7b43-43fa-9333-b68c46727d8d",
    "types": [
      "songwriters",
      "8"
    ]
  }
}