{
  "header": {
    "description": "Karaoke Mugen Tag File",
    "version": 1
  },
  "tag": {
    "i18n": {
      "eng": "Fuji TV"
    },
    "name": "Fuji TV",
    "tid": "75cd9c99-a991-449e-9b5c-954410edbe60",
    "types": [
      "creators",
      "4"
    ],
    "repository": "kara.moe",
    "modified_at": "2020-03-31T19:04:34.421Z"
  }
}