{
  "header": {
    "description": "Karaoke Mugen Tag File",
    "version": 1
  },
  "tag": {
    "i18n": {
      "eng": "Fuji-metal"
    },
    "name": "Fuji-metal",
    "tid": "fcb4416b-609e-4f23-acd8-e7bd163f7b06",
    "types": [
      "songwriters",
      "8"
    ],
    "repository": "kara.moe",
    "modified_at": "2020-03-31T19:04:34.422Z"
  }
}