{
  "header": {
    "description": "Karaoke Mugen Tag File",
    "version": 1
  },
  "tag": {
    "external_database_ids": {
      "anilist": 21643,
      "myanimelist": 32696,
      "kitsu": 11826
    },
    "i18n": {
      "eng": "The Morose Mononokean",
      "jpn": "不機嫌なモノノケ庵",
      "qro": "Fukigen na Mononokean"
    },
    "modified_at": "2020-03-31T19:04:31.468Z",
    "name": "Fukigen na Mononokean",
    "repository": "kara.moe",
    "tid": "43d02f6d-1a80-4f58-96cd-94186953e2c0",
    "types": [
      "series",
      "1"
    ]
  }
}