{
  "header": {
    "description": "Karaoke Mugen Tag File",
    "version": 1
  },
  "tag": {
    "i18n": {
      "eng": "Fukkun"
    },
    "name": "Fukkun",
    "tid": "7a4e0231-5eaa-4d49-a2f6-31353a4cfed8",
    "types": [
      "songwriters",
      "8"
    ],
    "repository": "kara.moe",
    "modified_at": "2020-03-31T19:04:34.429Z"
  }
}