{
  "header": {
    "description": "Karaoke Mugen Tag File",
    "version": 1
  },
  "tag": {
    "i18n": {
      "eng": "FUMIHIKO"
    },
    "modified_at": "2020-08-18T22:58:23.973Z",
    "name": "FUMIHIKO",
    "repository": "kara.moe",
    "tid": "d483e932-fc24-4dac-b83b-8be11c437632",
    "types": [
      "songwriters",
      "8"
    ]
  }
}