{
  "header": {
    "description": "Karaoke Mugen Tag File",
    "version": 1
  },
  "tag": {
    "i18n": {
      "eng": "Fumio Yasuda"
    },
    "name": "Fumio Yasuda",
    "tid": "0d93e7f9-9488-4d90-874b-22c82367742b",
    "types": [
      "songwriters",
      "8"
    ],
    "repository": "kara.moe",
    "modified_at": "2020-03-31T19:04:34.439Z"
  }
}