{
  "header": {
    "description": "Karaoke Mugen Tag File",
    "version": 1
  },
  "tag": {
    "i18n": {
      "eng": "Fümi"
    },
    "name": "Fümi",
    "tid": "58fd05e3-ba38-465f-8e0e-91f3bc405eb8",
    "types": [
      "songwriters",
      "8"
    ],
    "repository": "kara.moe",
    "modified_at": "2020-03-31T19:04:34.434Z"
  }
}