{
  "header": {
    "description": "Karaoke Mugen Tag File",
    "version": 1
  },
  "tag": {
    "i18n": {
      "eng": "FUNK UCHINO"
    },
    "name": "FUNK UCHINO",
    "repository": "kara.moe",
    "tid": "5a6ea75b-74f6-4300-a6f6-ff463d394cc6",
    "types": [
      "songwriters",
      "8"
    ]
  }
}