{
  "header": {
    "description": "Karaoke Mugen Tag File",
    "version": 1
  },
  "tag": {
    "i18n": {
      "eng": "Furan4su"
    },
    "name": "Furan4su",
    "repository": "kara.moe",
    "tid": "c95a17fb-a30a-4e4e-976c-36f836dbcdd3",
    "types": [
      "creators",
      "4"
    ]
  }
}