{
  "header": {
    "description": "Karaoke Mugen Tag File",
    "version": 1
  },
  "tag": {
    "i18n": {
      "eng": "Furen E  Lustario"
    },
    "modified_at": "2021-01-29T01:02:28.961Z",
    "name": "Furen E  Lustario",
    "repository": "kara.moe",
    "tid": "ec7a2ad9-4ed7-421d-af07-21d1a0e969fc",
    "types": [
      "singers",
      "2"
    ]
  }
}