{
  "header": {
    "description": "Karaoke Mugen Tag File",
    "version": 1
  },
  "tag": {
    "i18n": {
      "eng": "FuRyu Corporation",
      "jpn": "フリュー株式会社"
    },
    "name": "FuRyu Corporation",
    "repository": "kara.moe",
    "tid": "907cc541-deab-45e6-bf9d-da523438f307",
    "types": [
      "creators",
      "4"
    ]
  }
}