{
  "header": {
    "description": "Karaoke Mugen Tag File",
    "version": 1
  },
  "tag": {
    "aliases": [
      "Futari wa Precure Max Heart",
      "Futari wa Pretty Cure Max Heart",
      "Pretty Cure Max Heart TV",
      "pcmh",
      "precure2"
    ],
    "external_database_ids": {
      "anilist": 1929,
      "myanimelist": 1929,
      "kitsu": 1739
    },
    "i18n": {
      "eng": "Pretty Cure: Max Heart",
      "fre": "Futari wa PreCure: Max Heart",
      "ita": "Pretty Cure Max Heart",
      "jpn": "ふたりはプリキュア ー マックスハート",
      "por": "Pretty Cure Max Heart",
      "spa": "Pretty Cure Max Heart",
      "tha": "มหัศจรรย์สาวน้อย พริตตี้เคียว แมกซ์ฮาร์ท",
      "qro": "Futari wa PreCure: Max Heart"
    },
    "modified_at": "2020-06-21T23:45:31.966Z",
    "name": "Futari wa PreCure: Max Heart",
    "repository": "kara.moe",
    "tid": "7c704582-77e9-4406-b0d8-bd6bf07a2a13",
    "types": [
      "series",
      "1"
    ]
  }
}