{
  "header": {
    "description": "Karaoke Mugen Tag File",
    "version": 1
  },
  "tag": {
    "aliases": [
      "PCSS",
      "Precure Splash Star",
      "Pretty Cure Splash Star",
      "precure3",
      "splash star"
    ],
    "external_database_ids": {
      "anilist": 1534,
      "myanimelist": 1534,
      "kitsu": 1375
    },
    "i18n": {
      "eng": "Pretty Cure: Splash Star",
      "fre": "Futari wa PreCure: Splash☆Star",
      "jpn": "ふたりはプリキュア Splash Star",
      "qro": "Futari wa PreCure: Splash☆Star"
    },
    "modified_at": "2020-03-31T19:04:31.480Z",
    "name": "Futari wa PreCure: Splash☆Star",
    "repository": "kara.moe",
    "tid": "cdc5306c-7e6d-4bb4-b108-555d96ee1b39",
    "types": [
      "series",
      "1"
    ]
  }
}