{
  "header": {
    "description": "Karaoke Mugen Tag File",
    "version": 1
  },
  "tag": {
    "aliases": [
      "Futsuu no Joshikousei ga (Locodol) Yatte Mita.",
      "Обычные девочки пытаются стать локодолами",
      "futsuu",
      "joshikousei",
      "locodol"
    ],
    "external_database_ids": {
      "anilist": 20611,
      "myanimelist": 22189,
      "kitsu": 8267
    },
    "i18n": {
      "chi": "普通女高中生要做当地偶像",
      "eng": "Locodol",
      "fre": "Locodol",
      "jpn": "普通の女子校生が[ろこどる]やってみた.",
      "per": "دختران طبیعی دبیرستان",
      "qro": "Futsû no Joshikôsei ga [Locodol] Yattemita."
    },
    "modified_at": "2020-09-23T07:47:34.602Z",
    "name": "Futsû no Joshikôsei ga [Locodol] Yattemita.",
    "repository": "kara.moe",
    "tid": "fd746ab8-0493-441d-b2e3-0ff3ac0c6382",
    "types": [
      "series",
      "1"
    ]
  }
}