{
  "header": {
    "description": "Karaoke Mugen Tag File",
    "version": 1
  },
  "tag": {
    "i18n": {
      "eng": " Futurikon"
    },
    "name": " Futurikon",
    "repository": "kara.moe",
    "tid": "1a621013-a5f5-4cb9-9af6-685b9e6352c6",
    "types": [
      "creators",
      "4"
    ]
  }
}