{
  "header": {
    "description": "Karaoke Mugen Tag File",
    "version": 1
  },
  "tag": {
    "i18n": {
      "eng": "Future Bounce"
    },
    "name": "Future Bounce",
    "repository": "kara.moe",
    "tid": "527a8280-ebed-4d1a-a967-7f4323699eaf",
    "types": [
      "songwriters",
      "8"
    ]
  }
}