{
  "header": {
    "description": "Karaoke Mugen Tag File",
    "version": 1
  },
  "tag": {
    "aliases": [
      "Fûjin Monogatari",
      "Ветряные истории"
    ],
    "external_database_ids": {
      "anilist": 1524,
      "myanimelist": 1524,
      "kitsu": 1366
    },
    "i18n": {
      "eng": "Windy Tales",
      "jpn": "風人物語",
      "qro": "Fuujin Monogatari"
    },
    "modified_at": "2020-03-31T19:04:31.486Z",
    "name": "Fuujin Monogatari",
    "repository": "kara.moe",
    "tid": "43f24e8f-11ca-492e-8ead-8243b1551602",
    "types": [
      "series",
      "1"
    ]
  }
}