{
  "header": {
    "description": "Karaoke Mugen Tag File",
    "version": 1
  },
  "tag": {
    "aliases": [
      "Fuusen no Doratarou",
      "fuusen",
      "doratarou"
    ],
    "external_database_ids": {
      "anilist": 5594,
      "myanimelist": 5594,
      "kitsu": 4189
    },
    "i18n": {
      "eng": "Fûsen no Doratarô",
      "jpn": "フーセンのドラ太郎",
      "qro": "Fûsen no Doratarô"
    },
    "modified_at": "2020-03-31T19:04:31.489Z",
    "name": "Fûsen no Doratarô",
    "repository": "kara.moe",
    "tid": "6c089454-89ce-4f78-bedd-edf0d7342e53",
    "types": [
      "series",
      "1"
    ]
  }
}