{
  "header": {
    "description": "Karaoke Mugen Tag File",
    "version": 1
  },
  "tag": {
    "i18n": {
      "eng": "G. Na"
    },
    "name": "G. Na",
    "tid": "3cc561b6-3c28-46ca-8bbf-6fce728d6709",
    "types": [
      "singers",
      "2"
    ],
    "repository": "kara.moe",
    "modified_at": "2020-03-31T19:04:34.453Z"
  }
}