{
  "header": {
    "description": "Karaoke Mugen Tag File",
    "version": 1
  },
  "tag": {
    "i18n": {
      "eng": "G.CMay Animation & Film"
    },
    "name": "G.CMay Animation & Film",
    "tid": "bba70095-822f-4742-b28b-c926cd534650",
    "types": [
      "creators",
      "4"
    ],
    "repository": "kara.moe",
    "modified_at": "2020-03-31T19:04:34.455Z"
  }
}