{
  "header": {
    "description": "Karaoke Mugen Tag File",
    "version": 1
  },
  "tag": {
    "i18n": {
      "eng": "G・P・S"
    },
    "name": "G・P・S",
    "tid": "eb26d919-202e-473e-8265-6602b7a801ec",
    "types": [
      "singers",
      "2",
      "songwriters",
      "8"
    ],
    "repository": "kara.moe",
    "modified_at": "2020-03-31T19:04:34.456Z"
  }
}