{
  "header": {
    "description": "Karaoke Mugen Tag File",
    "version": 1
  },
  "tag": {
    "aliases": [
      "Yôko Kanno",
      "Youko Kanno"
    ],
    "i18n": {
      "eng": "Gabriela Robin"
    },
    "modified_at": "2020-05-24T15:47:36.768Z",
    "name": "Gabriela Robin",
    "repository": "kara.moe",
    "tid": "54000730-0779-445e-b865-bf6cf2175579",
    "types": [
      "singers",
      "2",
      "songwriters",
      "8"
    ]
  }
}