{
  "header": {
    "description": "Karaoke Mugen Tag File",
    "version": 1
  },
  "tag": {
    "aliases": [
      "Gackpoid"
    ],
    "i18n": {
      "eng": "Gackpo Camui",
      "jpn": "神威がくぽ",
      "qro": "Kamui Gakupo"
    },
    "name": "Gackpo Camui",
    "repository": "kara.moe",
    "tid": "38ec16e6-9ede-415c-8586-ab11bb5c8355",
    "types": [
      "singers",
      "2"
    ]
  }
}