{
  "header": {
    "description": "Karaoke Mugen Tag File",
    "version": 1
  },
  "tag": {
    "i18n": {
      "eng": "Gaël 42"
    },
    "name": "Gaël 42",
    "repository": "kara.moe",
    "tid": "d4cf600a-3780-46fe-9c17-e098c77b7ad2",
    "types": [
      "singers",
      "2"
    ]
  }
}