{
  "header": {
    "description": "Karaoke Mugen Tag File",
    "version": 1
  },
  "tag": {
    "i18n": {
      "eng": "Gaetano Lama"
    },
    "name": "Gaetano Lama",
    "repository": "kara.moe",
    "tid": "aa8b15e2-beec-496c-ab54-49f43fbb57df",
    "types": [
      "songwriters",
      "8"
    ]
  }
}