{
  "header": {
    "description": "Karaoke Mugen Tag File",
    "version": 1
  },
  "tag": {
    "external_database_ids": {
      "anilist": 1196,
      "myanimelist": 1196,
      "kitsu": 1076
    },
    "i18n": {
      "eng": "Gag Manga Biyori",
      "jpn": "ギャグマンガ日和",
      "qro": "Gag Manga Biyori"
    },
    "modified_at": "2021-10-17T02:19:21.953Z",
    "name": "Gag Manga Biyori",
    "repository": "kara.moe",
    "tid": "bdd41199-24ce-4b31-89c1-08ff721b2694",
    "types": [
      "series",
      "1",
      "franchises",
      "18"
    ]
  }
}