{
  "header": {
    "description": "Karaoke Mugen Tag File",
    "version": 1
  },
  "tag": {
    "i18n": {
      "eng": "Gaga Corporation"
    },
    "name": "Gaga Corporation",
    "repository": "kara.moe",
    "tid": "5fcd4056-e634-413d-b266-51e281232411",
    "types": [
      "creators",
      "4"
    ]
  }
}