{
  "header": {
    "description": "Karaoke Mugen Tag File",
    "version": 1
  },
  "tag": {
    "i18n": {
      "eng": "Gagaga Sp"
    },
    "name": "Gagaga Sp",
    "tid": "be15ee8e-fad1-422c-a558-6ce11b1a17df",
    "types": [
      "singers",
      "2",
      "songwriters",
      "8"
    ],
    "repository": "kara.moe",
    "modified_at": "2020-03-31T19:04:34.461Z"
  }
}