{
  "header": {
    "description": "Karaoke Mugen Tag File",
    "version": 1
  },
  "tag": {
    "i18n": {
      "eng": "Gaia"
    },
    "name": "Gaia",
    "repository": "kara.moe",
    "tid": "2a3242de-ed0f-478a-b047-89ea0379dc35",
    "types": [
      "singers",
      "2"
    ]
  }
}