{
  "header": {
    "description": "Karaoke Mugen Tag File",
    "version": 1
  },
  "tag": {
    "i18n": {
      "eng": "Gaku Kuze"
    },
    "name": "Gaku Kuze",
    "repository": "kara.moe",
    "tid": "03bc4bab-ad60-48c1-8e6b-e03cc3cce70d",
    "types": [
      "songwriters",
      "8"
    ]
  }
}