{
  "header": {
    "description": "Karaoke Mugen Tag File",
    "version": 1
  },
  "tag": {
    "aliases": [
      "Gal and Dinosaur",
      "Gyaru to Kyoryu",
      "Gyaru to Kyouryuu",
      "kyouryuu"
    ],
    "external_database_ids": {
      "anilist": 111323,
      "myanimelist": 40358,
      "kitsu": 42532
    },
    "i18n": {
      "eng": "Gal & Dino",
      "jpn": "ギャルと恐竜",
      "qro": "Gal to Kyôryû"
    },
    "modified_at": "2020-04-19T22:09:00.958Z",
    "name": "Gal to Kyôryû",
    "repository": "kara.moe",
    "tid": "03a8df32-3a3e-4dce-a942-494d0cd29bbe",
    "types": [
      "series",
      "1"
    ]
  }
}