{
  "header": {
    "description": "Karaoke Mugen Tag File",
    "version": 1
  },
  "tag": {
    "aliases": [
      "GA A",
      "GA3",
      "Galaxy Angel 3",
      "Galaxy Angel AA",
      "Galaxy Angel Double A",
      "Galaxy Angel S",
      "Galaxy Angel Season 3",
      "Galaxy Angel s3",
      "ギャラクシーエンジェルA",
      "ギャラクシーエンジェルAA",
      "ギャラクシーエンジェルS"
    ],
    "external_database_ids": {
      "anilist": 653,
      "myanimelist": 653,
      "kitsu": 601
    },
    "i18n": {
      "eng": "Galaxy Angel A",
      "jpn": "ギャラクシーエンジェル (第3期)",
      "qro": "Galaxy Angel A"
    },
    "modified_at": "2020-06-21T23:45:31.966Z",
    "name": "Galaxy Angel A",
    "repository": "kara.moe",
    "tid": "02247749-73ab-43f9-a837-e6eb2c7712f6",
    "types": [
      "series",
      "1"
    ]
  }
}