{
  "header": {
    "description": "Karaoke Mugen Tag File",
    "version": 1
  },
  "tag": {
    "i18n": {
      "eng": "Gala"
    },
    "name": "Gala",
    "repository": "kara.moe",
    "tid": "67d75ce1-8894-40cd-b470-d6b39ee069af",
    "types": [
      "singers",
      "2"
    ]
  }
}