{
  "header": {
    "description": "Karaoke Mugen Tag File",
    "version": 1
  },
  "tag": {
    "aliases": [
      "Galaxy Ange-lune",
      "Galaxy Angel II",
      "gaII"
    ],
    "external_database_ids": {
      "anilist": 1600,
      "myanimelist": 1600,
      "kitsu": 1440
    },
    "i18n": {
      "eng": "Galaxy Angel Rune",
      "qro": "Galaxy Angel Rune",
      "jpn": "ギャラクシーエンジェる~ん"
    },
    "name": "Galaxy Angel Rune",
    "repository": "kara.moe",
    "tid": "3b618443-4da3-40ff-af68-e0068eeedf4e",
    "types": [
      "series",
      "1"
    ]
  }
}