{
  "header": {
    "description": "Karaoke Mugen Tag File",
    "version": 1
  },
  "tag": {
    "i18n": {
      "eng": "GameCube"
    },
    "karafile_tag": "GAMECUBE",
    "name": "Gamecube",
    "tid": "9c2e70a6-ac40-4701-9f3e-268cc52500c8",
    "types": [
      "platforms",
      "13"
    ],
    "short": "GC",
    "repository": "kara.moe",
    "modified_at": "2020-03-31T19:04:34.472Z"
  }
}