{
  "header": {
    "description": "Karaoke Mugen Tag File",
    "version": 1
  },
  "tag": {
    "aliases": [
      "Doukichan"
    ],
    "external_database_ids": {
      "anilist": 137877,
      "myanimelist": 49605,
      "kitsu": 44977
    },
    "i18n": {
      "eng": "Ganbare Dôki-chan",
      "jpn": "がんばれ同期ちゃん",
      "qro": "Ganbare Douki-chan"
    },
    "name": "Ganbare Dôki-chan",
    "repository": "kara.moe",
    "tid": "01884989-9bcf-40ab-aec9-7d6121823997",
    "types": [
      "series",
      "1"
    ]
  }
}