{
  "header": {
    "description": "Karaoke Mugen Tag File",
    "version": 1
  },
  "tag": {
    "aliases": [
      "Gangsta",
      "Гангста",
      "Гангстери",
      "ギャングスタ",
      "黑街"
    ],
    "external_database_ids": {
      "anilist": 20773,
      "myanimelist": 25183,
      "kitsu": 8576
    },
    "i18n": {
      "eng": "GANGSTA.",
      "jpn": "GANGSTA.",
      "qro": "GANGSTA."
    },
    "modified_at": "2020-03-31T19:04:31.509Z",
    "name": "GANGSTA.",
    "repository": "kara.moe",
    "tid": "2787df98-9e07-4b9c-a3ee-b09bc70d7bbf",
    "types": [
      "series",
      "1"
    ]
  }
}