{
  "header": {
    "description": "Karaoke Mugen Tag File",
    "version": 1
  },
  "tag": {
    "i18n": {
      "eng": "Gaogao Seidan"
    },
    "name": "Gaogao Seidan",
    "tid": "28afc2a3-f30f-4959-b433-62930895f757",
    "types": [
      "singers",
      "2"
    ],
    "repository": "kara.moe",
    "modified_at": "2020-03-31T19:04:34.474Z"
  }
}