{
  "header": {
    "description": "Karaoke Mugen Tag File",
    "version": 1
  },
  "tag": {
    "i18n": {
      "eng": "gaspar17"
    },
    "modified_at": "2020-08-17T12:05:13.301Z",
    "name": "gaspar17",
    "repository": "kara.moe",
    "tid": "b218393d-3c25-4d7d-ad8e-c78eb2413fbb",
    "types": [
      "authors",
      "6"
    ]
  }
}