{
  "header": {
    "description": "Karaoke Mugen Tag File",
    "version": 1
  },
  "tag": {
    "aliases": [
      "gk21"
    ],
    "external_database_ids": {
      "anilist": 128,
      "myanimelist": 128,
      "kitsu": 107
    },
    "i18n": {
      "chi": "捍衛者21",
      "fre": "Gate Keepers 21",
      "jpn": "ゲートキーパーズ21",
      "qro": "GateKeepers 21"
    },
    "modified_at": "2020-06-21T23:45:31.966Z",
    "name": "GateKeepers 21",
    "repository": "kara.moe",
    "tid": "8e3083dd-9a76-40f4-b481-930868cd7bb8",
    "types": [
      "series",
      "1"
    ]
  }
}