{
  "header": {
    "description": "Karaoke Mugen Tag File",
    "version": 1
  },
  "tag": {
    "i18n": {
      "eng": "Gathering"
    },
    "name": "Gathering",
    "tid": "af9d8b3d-7822-4d37-94b8-98d60c38333f",
    "types": [
      "creators",
      "4"
    ],
    "repository": "kara.moe",
    "modified_at": "2020-03-31T19:04:34.479Z"
  }
}