{
  "header": {
    "description": "Karaoke Mugen Tag File",
    "version": 1
  },
  "tag": {
    "aliases": [
      "Fairy Tail Movie 1: Priestess of the Phoenix",
      "Gekijouban Fairy Tail Houou no Miko",
      "gekijouban",
      "houou"
    ],
    "external_database_ids": {
      "anilist": 12049,
      "myanimelist": 12049,
      "kitsu": 6652
    },
    "i18n": {
      "eng": "Fairy Tail the Movie: Phoenix Priestess",
      "fre": "Fairy Tail le Film: La prêtresse du Phœnix",
      "jpn": "劇場版 FAIRY TAIL 鳳凰の巫女",
      "qro": "Gekijôban Fairy Tail: Hôô no Miko"
    },
    "modified_at": "2020-03-31T19:04:31.527Z",
    "name": "Gekijôban Fairy Tail: Hôô no Miko",
    "repository": "kara.moe",
    "tid": "db973480-5478-4e55-8d10-23e7bf3c517e",
    "types": [
      "series",
      "1"
    ]
  }
}