{
  "header": {
    "description": "Karaoke Mugen Tag File",
    "version": 1
  },
  "tag": {
    "aliases": [
      "Gekiganger 3",
      "nadesico ova",
      "Гекигангер 3: Жаркая Схватка"
    ],
    "external_database_ids": {
      "anilist": 2067,
      "myanimelist": 2067,
      "kitsu": 1866
    },
    "i18n": {
      "eng": "Gekigangar 3",
      "jpn": "ゲキ・ガンガー3 熱血大決戦",
      "qro": "Gekiganger 3: Nekketsu Daikessen!!"
    },
    "modified_at": "2020-03-31T19:04:31.523Z",
    "name": "Gekiganger 3: Nekketsu Daikessen!!",
    "repository": "kara.moe",
    "tid": "4a02b6cf-8823-4ba9-a3d3-1e9c1427e314",
    "types": [
      "series",
      "1"
    ]
  }
}