{
  "header": {
    "description": "Karaoke Mugen Tag File",
    "version": 1
  },
  "tag": {
    "aliases": [
      "Gekijouban Aikatsu! Idol Katsudou!",
      "gekijouban",
      "katsudou"
    ],
    "external_database_ids": {
      "anilist": 20640,
      "myanimelist": 22819,
      "kitsu": 8499
    },
    "i18n": {
      "eng": "Aikatsu! The Movie",
      "jpn": "劇場版 アイカツ! アイドルカツドウ!",
      "qro": "Gekijôban Aikatsu! Idol Katsudô!"
    },
    "modified_at": "2020-03-31T19:04:31.524Z",
    "name": "Gekijôban Aikatsu! Idol Katsudô!",
    "repository": "kara.moe",
    "tid": "4d7bf7ad-722a-4375-b6fb-edbcc6bf1b68",
    "types": [
      "series",
      "1"
    ]
  }
}