{
  "header": {
    "description": "Karaoke Mugen Tag File",
    "version": 1
  },
  "tag": {
    "aliases": [
      "Gekijouban Steins;Gate: Fuka Ryouiki no Déjà vu",
      "gekijouban",
      "steins gate",
      "ryouiki",
      "deja"
    ],
    "external_database_ids": {
      "anilist": 11577,
      "myanimelist": 11577,
      "kitsu": 6539
    },
    "i18n": {
      "eng": "Steins;Gate ‒ The Movie: Load Region of Déjà Vu",
      "jpn": "劇場版 シュタインズゲート 負荷領域のデジャヴ",
      "qro": "Gekijôban Steins;Gate: Fuka Ryôiki no Déjà vu"
    },
    "modified_at": "2020-03-31T19:04:31.541Z",
    "name": "Gekijôban Steins;Gate: Fuka Ryôiki no Déjà vu",
    "repository": "kara.moe",
    "tid": "5d9c4d94-1728-4395-bbac-b28c262b074b",
    "types": [
      "series",
      "1"
    ]
  }
}