{
  "header": {
    "description": "Karaoke Mugen Tag File",
    "version": 1
  },
  "tag": {
    "i18n": {
      "eng": "Gema Carballedo"
    },
    "name": "Gema Carballedo",
    "repository": "kara.moe",
    "tid": "6123b168-bbac-40ef-99e8-24907bf3bc7e",
    "types": [
      "singers",
      "2"
    ]
  }
}