{
  "header": {
    "description": "Karaoke Mugen Tag File",
    "version": 1
  },
  "tag": {
    "i18n": {
      "eng": "GEN"
    },
    "name": "GEN",
    "repository": "kara.moe",
    "tid": "336b1c68-2d8c-41d6-b45a-0928fd2f7f73",
    "types": [
      "songwriters",
      "8"
    ],
    "modified_at": "2020-03-31T19:04:34.486Z"
  }
}