{
  "header": {
    "description": "Karaoke Mugen Tag File",
    "version": 1
  },
  "tag": {
    "aliases": [
      "Генератор Гаул",
      "Генератор Гоул"
    ],
    "external_database_ids": {
      "anilist": 1022,
      "myanimelist": 1022,
      "kitsu": 912
    },
    "i18n": {
      "eng": "Generator Gawl",
      "heb": "הלוחמים מהעתיד",
      "jpn": "ジェネレイターガウル",
      "qro": "Generator Gawl"
    },
    "modified_at": "2020-06-21T23:45:31.966Z",
    "name": "Generator Gawl",
    "repository": "kara.moe",
    "tid": "9b21f721-9581-4ec8-8fb6-09e73e27d74a",
    "types": [
      "series",
      "1"
    ]
  }
}