{
  "header": {
    "description": "Karaoke Mugen Tag File",
    "version": 1
  },
  "tag": {
    "i18n": {
      "eng": "GENERATIONS from EXILE TRIBE"
    },
    "name": "GENERATIONS from EXILE TRIBE",
    "repository": "kara.moe",
    "tid": "1bcf93f5-0866-4433-8531-e1da3fd7e774",
    "types": [
      "singers",
      "2"
    ],
    "modified_at": "2020-03-31T19:04:34.488Z"
  }
}