{
  "header": {
    "description": "Karaoke Mugen Tag File",
    "version": 1
  },
  "tag": {
    "i18n": {
      "eng": "GENIC"
    },
    "modified_at": "2021-05-09T10:55:29.947Z",
    "name": "GENIC",
    "repository": "kara.moe",
    "tid": "14e5dc8b-2953-4a2b-960f-033e3813c514",
    "types": [
      "songwriters",
      "8",
      "singers",
      "2"
    ]
  }
}