{
  "header": {
    "description": "Karaoke Mugen Tag File",
    "version": 1
  },
  "tag": {
    "i18n": {
      "eng": "Genki Hikota"
    },
    "name": "Genki Hikota",
    "tid": "7c57935d-4ec3-45fe-a636-1c6de1a9e036",
    "types": [
      "songwriters",
      "8"
    ],
    "repository": "kara.moe",
    "modified_at": "2020-03-31T19:04:34.490Z"
  }
}