{
  "header": {
    "description": "Karaoke Mugen Tag File",
    "version": 1
  },
  "tag": {
    "i18n": {
      "eng": "Genki Mizuno"
    },
    "name": "Genki Mizuno",
    "tid": "55c188df-382c-4f13-8dd9-b538528cda6b",
    "types": [
      "songwriters",
      "8"
    ],
    "repository": "kara.moe",
    "modified_at": "2020-03-31T19:04:34.491Z"
  }
}