{
  "header": {
    "description": "Karaoke Mugen Tag File",
    "version": 1
  },
  "tag": {
    "i18n": {
      "eng": "Genki Sudo"
    },
    "name": "Genki Sudo",
    "tid": "fbf2ca7b-7c3e-4c42-b7c3-16733b0e6324",
    "types": [
      "songwriters",
      "8"
    ],
    "repository": "kara.moe",
    "modified_at": "2020-03-31T19:04:34.492Z"
  }
}