{
  "header": {
    "description": "Karaoke Mugen Tag File",
    "version": 1
  },
  "tag": {
    "i18n": {
      "eng": "Gentaro Takashi"
    },
    "name": "Gentaro Takashi",
    "repository": "kara.moe",
    "tid": "6fa435c6-35c8-48db-8ac3-2b359f0a25ac",
    "types": [
      "singers",
      "2"
    ],
    "modified_at": "2020-03-31T19:04:34.494Z"
  }
}