{
  "header": {
    "description": "Karaoke Mugen Tag File",
    "version": 1
  },
  "tag": {
    "aliases": [
      "Joji",
      "Filthy Frank",
      "Pink Guy"
    ],
    "i18n": {
      "eng": "George Miller"
    },
    "modified_at": "2021-01-30T14:42:54.869Z",
    "name": "George Miller",
    "repository": "kara.moe",
    "tid": "7b35d929-2b61-4c49-93c3-54e0487201d3",
    "types": [
      "creators",
      "4",
      "singers",
      "2",
      "songwriters",
      "8"
    ]
  }
}