{
  "header": {
    "description": "Karaoke Mugen Tag File",
    "version": 1
  },
  "tag": {
    "i18n": {
      "eng": "Georgia Lepore"
    },
    "modified_at": "2021-09-12T13:06:27.574Z",
    "name": "Georgia Lepore",
    "repository": "kara.moe",
    "tid": "03986ac5-a98d-42b2-8a90-84adc4eaf570",
    "types": [
      "singers",
      "2"
    ]
  }
}