{
  "header": {
    "description": "Karaoke Mugen Tag File",
    "version": 1
  },
  "tag": {
    "i18n": {
      "eng": "Gérard Darmon"
    },
    "name": "Gérard Darmon",
    "tid": "eb2ff463-7817-46d5-9a59-bd03979d25e5",
    "types": [
      "singers",
      "2"
    ],
    "repository": "kara.moe",
    "modified_at": "2020-03-31T19:04:34.500Z"
  }
}