{
  "header": {
    "description": "Karaoke Mugen Tag File",
    "version": 1
  },
  "tag": {
    "i18n": {
      "eng": "Gesukawa Girls"
    },
    "name": "Gesukawa Girls",
    "tid": "fb5de7e3-1de9-4429-b16a-2c8e0b32ce80",
    "types": [
      "singers",
      "2"
    ],
    "repository": "kara.moe",
    "modified_at": "2020-03-31T19:04:34.504Z"
  }
}