{
  "header": {
    "description": "Karaoke Mugen Tag File",
    "version": 1
  },
  "tag": {
    "external_database_ids": {
      "anilist": 2400,
      "myanimelist": 2400,
      "kitsu": 2177
    },
    "i18n": {
      "eng": "Ghost Sweeper Mikami",
      "jpn": "GS美神",
      "qro": "Ghost Sweeper Mikami"
    },
    "modified_at": "2020-11-29T22:56:15.748Z",
    "name": "Ghost Sweeper Mikami",
    "repository": "kara.moe",
    "tid": "faa271ee-523e-46cf-a26d-7113fd84b2cf",
    "types": [
      "series",
      "1"
    ]
  }
}