{
  "header": {
    "description": "Karaoke Mugen Tag File",
    "version": 1
  },
  "tag": {
    "i18n": {
      "eng": "Giancarlo Pasquini"
    },
    "name": "Giancarlo Pasquini",
    "tid": "3036429c-4660-482c-b79b-404962a7efa2",
    "types": [
      "songwriters",
      "8"
    ],
    "repository": "kara.moe",
    "modified_at": "2020-03-31T19:04:34.508Z"
  }
}