{
  "header": {
    "description": "Karaoke Mugen Tag File",
    "version": 1
  },
  "tag": {
    "aliases": [
      "Kyoshin Gorg",
      "Гигантът Горг"
    ],
    "external_database_ids": {
      "anilist": 3327,
      "myanimelist": 3327,
      "kitsu": 2939
    },
    "i18n": {
      "eng": "Giant Gorg",
      "jpn": "巨神[ジャイアント]ゴーグ",
      "qro": "Giant Gorg"
    },
    "modified_at": "2020-03-31T19:04:31.556Z",
    "name": "Giant Gorg",
    "repository": "kara.moe",
    "tid": "640a4956-8520-46a9-a761-92c4e657def0",
    "types": [
      "series",
      "1"
    ]
  }
}