{
  "header": {
    "description": "Karaoke Mugen Tag File",
    "version": 1
  },
  "tag": {
    "i18n": {
      "eng": "Gilbert O'Sullivan"
    },
    "name": "Gilbert O'Sullivan",
    "tid": "6c5bdde8-db73-48e6-8465-20015b5d8aa2",
    "types": [
      "singers",
      "2",
      "songwriters",
      "8"
    ],
    "repository": "kara.moe",
    "modified_at": "2020-03-31T19:04:34.512Z"
  }
}