{
  "header": {
    "description": "Karaoke Mugen Tag File",
    "version": 1
  },
  "tag": {
    "i18n": {
      "eng": "Gille Audiard"
    },
    "name": "Gille Audiard",
    "repository": "kara.moe",
    "tid": "8c64ce74-5e7b-4bb8-aa83-bcf88c10e574",
    "types": [
      "songwriters",
      "8"
    ]
  }
}