{
  "header": {
    "description": "Karaoke Mugen Tag File",
    "version": 1
  },
  "tag": {
    "aliases": [
      "Gin no Saji 2",
      "Gin no Saji S2",
      "Silver Spoon 2",
      "Silver Spoon S2"
    ],
    "external_database_ids": {
      "anilist": 19363,
      "myanimelist": 19363,
      "kitsu": 7860
    },
    "i18n": {
      "chi": "银之匙 Silver Spoon (2014)",
      "eng": "Silver Spoon 2nd Season",
      "fre": "Silver Spoon (saison 2)",
      "jpn": "銀の匙2ndシーズン",
      "qro": "Gin no Saji 2nd Season"
    },
    "modified_at": "2020-03-31T19:04:31.558Z",
    "name": "Gin no Saji 2nd Season",
    "repository": "kara.moe",
    "tid": "de0c651c-ba1d-4d44-b244-db7ac8e2f2ab",
    "types": [
      "series",
      "1"
    ]
  }
}