{
  "header": {
    "description": "Karaoke Mugen Tag File",
    "version": 1
  },
  "tag": {
    "aliases": [
      "Agito Srebrzystowłosy",
      "Atsiradimas - Praeities Dvasios",
      "Gin-iro no Kami no Agito",
      "Giniro no Kami no Agito",
      "Origini - Spirite ale trecutului",
      "Silver-Haired Agito",
      "Spirit of the Past",
      "Серебряновласый Агито",
      "Серебряноволосый Агито",
      "Срібноволосий Аґіто",
      "الأصل: أرواح الماضي",
      "银发的阿基多"
    ],
    "external_database_ids": {
      "anilist": 1140,
      "myanimelist": 1140,
      "kitsu": 1021
    },
    "i18n": {
      "eng": "Origin: Spirits of the Past",
      "fre": "Origine",
      "ger": "Origin - Spirits of the past",
      "ita": "Origine",
      "jpn": "銀色の髪のアギト",
      "pol": "Origin: Spirits of the Past",
      "por": "Origem: Espíritos do passado",
      "rus": "Исток",
      "qro": "Gin'iro no Kami no Agito"
    },
    "modified_at": "2020-06-21T23:45:31.966Z",
    "name": "Gin'iro no Kami no Agito",
    "repository": "kara.moe",
    "tid": "3b1e4b2c-b030-4b9b-b9e0-a8cc15c30c7c",
    "types": [
      "series",
      "1"
    ]
  }
}