{
  "header": {
    "description": "Karaoke Mugen Tag File",
    "version": 1
  },
  "tag": {
    "aliases": [
      "Matsui Takafumi",
      "吟",
      "BUSTED ROSE"
    ],
    "i18n": {
      "eng": "Gin"
    },
    "name": "Gin",
    "tid": "b7175b44-1e2e-42fb-85be-b9be3e178b31",
    "types": [
      "songwriters",
      "8"
    ],
    "repository": "kara.moe",
    "modified_at": "2020-03-31T19:04:34.514Z"
  }
}