{
  "header": {
    "description": "Karaoke Mugen Tag File",
    "version": 1
  },
  "tag": {
    "aliases": [
      "Ginga Tetsudou Monogatari",
      "银河铁道物语",
      "GaRa",
      "GR",
      "Grail"
    ],
    "external_database_ids": {
      "anilist": 1490,
      "myanimelist": 1490,
      "kitsu": 1336
    },
    "i18n": {
      "eng": "The Galaxy Railways",
      "qro": "Ginga Tetsudô Monogatari",
      "jpn": "銀河鉄道物語"
    },
    "name": "Ginga Tetsudô Monogatari",
    "repository": "kara.moe",
    "tid": "3a899898-06b4-4634-ad08-451f8208c37f",
    "types": [
      "series",
      "1"
    ]
  }
}