{
  "header": {
    "description": "Karaoke Mugen Tag File",
    "version": 1
  },
  "tag": {
    "aliases": [
      "Legend of the Silver Fang: Weed",
      "Silver Fang Legend Weed",
      "gdw",
      "银牙传说"
    ],
    "external_database_ids": {
      "anilist": 915,
      "myanimelist": 915,
      "kitsu": 815
    },
    "i18n": {
      "dan": "Weed - Silver Fang's søn",
      "eng": "Ginga Legend Weed",
      "fin": "Weed - Hopeanuolen poika",
      "jpn": "銀牙伝説ウィード",
      "swe": "Weed - Silver Fangs Son",
      "qro": "Ginga Densetsu Weed"
    },
    "modified_at": "2020-06-21T23:45:31.966Z",
    "name": "Ginga Densetsu Weed",
    "repository": "kara.moe",
    "tid": "ad0c101e-e95e-41a1-8168-a987422ebc03",
    "types": [
      "series",
      "1"
    ]
  }
}