{
  "header": {
    "description": "Karaoke Mugen Tag File",
    "version": 1
  },
  "tag": {
    "aliases": [
      "Galactic Gale Sasuraiger",
      "shippuu"
    ],
    "external_database_ids": {
      "anilist": 4244,
      "myanimelist": 4244,
      "kitsu": 3536
    },
    "i18n": {
      "eng": "Ginga Shippû Sasuraiger",
      "jpn": "銀河疾風サスライガー",
      "qro": "Ginga Shippû Sasuraiger"
    },
    "modified_at": "2020-03-31T19:04:31.566Z",
    "name": "Ginga Shippû Sasuraiger",
    "repository": "kara.moe",
    "tid": "aa91080e-b6d1-4c0d-ba11-a3932bf86ca2",
    "types": [
      "series",
      "1"
    ]
  }
}