{
  "header": {
    "description": "Karaoke Mugen Tag File",
    "version": 1
  },
  "tag": {
    "aliases": [
      "Galactic Armored Fleet Majestic Prince",
      "Ginga Kikoutai Majestic Prince",
      "MJP",
      "kikoutai"
    ],
    "external_database_ids": {
      "anilist": 15863,
      "myanimelist": 15863,
      "kitsu": 7325
    },
    "i18n": {
      "eng": "Majestic Prince",
      "jpn": "銀河機攻隊 マジェスティックプリンス",
      "qro": "Ginga Kikôtai Majestic Prince"
    },
    "modified_at": "2020-03-31T19:04:31.563Z",
    "name": "Ginga Kikôtai Majestic Prince",
    "repository": "kara.moe",
    "tid": "08008836-fa55-437a-b39a-6abea15a3d4c",
    "types": [
      "series",
      "1"
    ]
  }
}