{
  "header": {
    "description": "Karaoke Mugen Tag File",
    "version": 1
  },
  "tag": {
    "aliases": [
      "Gintama.: Shirogane no Tamashii-hen - Kouhan-sen"
    ],
    "external_database_ids": {
      "anilist": 100784,
      "myanimelist": 36838,
      "kitsu": 14095
    },
    "i18n": {
      "eng": "Gintama Season 4 (2018)",
      "jpn": "銀魂. (2018)",
      "qro": "Gintama. (2018)"
    },
    "modified_at": "2020-03-31T19:04:31.571Z",
    "name": "Gintama. (2018)",
    "repository": "kara.moe",
    "tid": "835cb643-34f2-4a14-9b73-3b168b395334",
    "types": [
      "series",
      "1"
    ]
  }
}