{
  "header": {
    "description": "Karaoke Mugen Tag File",
    "version": 1
  },
  "tag": {
    "i18n": {
      "eng": "Giorgio Tuinfort"
    },
    "name": "Giorgio Tuinfort",
    "repository": "kara.moe",
    "tid": "b00b2a8c-0249-493b-857a-83f368de3231",
    "types": [
      "songwriters",
      "8"
    ]
  }
}