{
  "header": {
    "description": "Karaoke Mugen Tag File",
    "version": 1
  },
  "tag": {
    "external_database_ids": {
      "anilist": 19115,
      "myanimelist": 19115,
      "kitsu": 7801
    },
    "i18n": {
      "eng": "Giovanni's Island",
      "fre": "L'île de Giovanni",
      "ger": "Giovannis Insel",
      "jpn": "ジョバンニの島",
      "rus": "Остров Джованни",
      "spa": "La isla de Giovanni",
      "qro": "Giovanni no Shima"
    },
    "modified_at": "2020-03-31T19:04:31.574Z",
    "name": "Giovanni no Shima",
    "repository": "kara.moe",
    "tid": "41e15c52-3477-4cad-9508-6a9040324bfd",
    "types": [
      "series",
      "1"
    ]
  }
}