{
  "header": {
    "description": "Karaoke Mugen Tag File",
    "version": 1
  },
  "tag": {
    "i18n": {
      "eng": "GIRL NEXT DOOR"
    },
    "name": "GIRL NEXT DOOR",
    "tid": "43c6529f-f44f-491b-83e0-0b240e54199b",
    "types": [
      "singers",
      "2"
    ],
    "repository": "kara.moe",
    "modified_at": "2020-03-31T19:04:34.518Z"
  }
}