{
  "header": {
    "description": "Karaoke Mugen Tag File",
    "version": 1
  },
  "tag": {
    "aliases": [
      "Garupan",
      "Girls & Panzer",
      "Girls and Panzer",
      "GuP",
      "gekijouban"
    ],
    "external_database_ids": {
      "anilist": 18617,
      "myanimelist": 18617,
      "kitsu": 7904
    },
    "i18n": {
      "jpn": "ガールズ＆パンツァー 劇場版",
      "qro": "GIRLS und PANZER Gekijôban",
      "fre": "GIRLS und PANZER Der Film",
      "eng": "GIRLS und PANZER Der Film"
    },
    "modified_at": "2021-09-30T16:37:27.691Z",
    "name": "GIRLS und PANZER Gekijôban",
    "repository": "kara.moe",
    "tid": "88acbf08-0646-4588-92f3-6f5bb3fe89bb",
    "types": [
      "series",
      "1"
    ]
  }
}