{
  "header": {
    "description": "Karaoke Mugen Tag File",
    "version": 1
  },
  "tag": {
    "external_database_ids": {
      "anilist": 108241,
      "myanimelist": 39463,
      "kitsu": 42173
    },
    "i18n": {
      "eng": "Gleipnir"
    },
    "modified_at": "2020-06-16T21:03:59.228Z",
    "name": "Gleipnir",
    "repository": "kara.moe",
    "tid": "ee7ad736-a4f1-4077-9e34-671ef43f0597",
    "types": [
      "series",
      "1"
    ]
  }
}