{
  "header": {
    "description": "Karaoke Mugen Tag File",
    "version": 1
  },
  "tag": {
    "i18n": {
      "eng": "Glielmo Ko-ichi"
    },
    "name": "Glielmo Ko-ichi",
    "tid": "0f673f42-d6d3-4407-ab08-8b71e589907e",
    "types": [
      "songwriters",
      "8"
    ],
    "repository": "kara.moe",
    "modified_at": "2020-03-31T19:04:34.528Z"
  }
}