{
  "header": {
    "description": "Karaoke Mugen Tag File",
    "version": 1
  },
  "tag": {
    "aliases": [
      "Go Astro Boy Go!",
      "Astro le petit robot"
    ],
    "external_database_ids": {
      "myanimelist": 40367,
      "kitsu": 42538
    },
    "i18n": {
      "eng": "Go! Go! Atom",
      "jpn": "GO!GO!アトム"
    },
    "modified_at": "2021-11-29T19:53:38.207Z",
    "name": "Go! Go! Atom",
    "repository": "kara.moe",
    "tid": "727a3c49-8d8f-4577-a864-b857b0dd5aa3",
    "types": [
      "series",
      "1"
    ]
  }
}