{
  "header": {
    "description": "Karaoke Mugen Tag File",
    "version": 1
  },
  "tag": {
    "aliases": [
      "5-Toubun no Hanayome",
      "5-Tôbun no Hanayome",
      "Go-Toubun no Hanayome",
      "Gotobun no Hanayome",
      "The Five Wedded Brides",
      "go-toubun"
    ],
    "external_database_ids": {
      "anilist": 103572,
      "myanimelist": 38101,
      "kitsu": 41966
    },
    "i18n": {
      "eng": "The Quintessential Quintuplets",
      "jpn": "五等分の花嫁",
      "qro": "Go-Tôbun no Hanayome"
    },
    "modified_at": "2020-03-31T19:04:31.584Z",
    "name": "Go-Tôbun no Hanayome",
    "repository": "kara.moe",
    "tid": "78d84b11-1b68-4e09-bb1a-d0fceac5a679",
    "types": [
      "series",
      "1",
      "franchises",
      "18"
    ]
  }
}