{
  "header": {
    "description": "Karaoke Mugen Tag File",
    "version": 1
  },
  "tag": {
    "aliases": [
      "Godzilla Part 1: Planet of the Monsters",
      "Godzilla: Monster Planet",
      "ゴジラ -怪獣惑星- "
    ],
    "i18n": {
      "eng": "Godzilla: Planet of the Monsters",
      "ita": "Godzilla: Il pianeta dei mostri",
      "jpn": "GODZILLA -怪獣惑星- ",
      "qro": "Godzilla: Kaijuu Wakusei",
      "fre": "GODZILLA : La planète des monstres"
    },
    "modified_at": "2021-12-05T21:37:23.957Z",
    "name": "Godzilla: Kaijuu Wakusei",
    "repository": "kara.moe",
    "tid": "3d008dc1-7308-45c1-acb8-8cebffbe3516",
    "types": [
      "series",
      "1"
    ]
  }
}