{
  "header": {
    "description": "Karaoke Mugen Tag File",
    "version": 1
  },
  "tag": {
    "i18n": {
      "eng": "Goh"
    },
    "name": "Goh",
    "tid": "9c639b95-3500-4aca-93c6-b03735ffb1ff",
    "types": [
      "authors",
      "6"
    ],
    "repository": "kara.moe",
    "modified_at": "2020-03-31T19:04:34.534Z"
  }
}