{
  "header": {
    "description": "Karaoke Mugen Tag File",
    "version": 1
  },
  "tag": {
    "i18n": {
      "eng": "GOHGO"
    },
    "modified_at": "2021-02-14T17:58:13.536Z",
    "name": "GOHGO",
    "repository": "kara.moe",
    "tid": "fa102914-9f84-48cc-b4a9-6fe46376372f",
    "types": [
      "songwriters",
      "8"
    ]
  }
}