{
  "header": {
    "description": "Karaoke Mugen Tag File",
    "version": 1
  },
  "tag": {
    "i18n": {
      "eng": "Gokuaku Ganbo",
      "jpn": "極悪がんぼ",
      "qro": "Gokuaku Ganbo"
    },
    "modified_at": "2020-03-31T19:04:31.594Z",
    "name": "Gokuaku Ganbo",
    "repository": "kara.moe",
    "tid": "a6798fa9-dd23-4123-940d-14ac43f5ad23",
    "types": [
      "series",
      "1"
    ]
  }
}