{
  "header": {
    "description": "Karaoke Mugen Tag File",
    "version": 1
  },
  "tag": {
    "external_database_ids": {
      "anilist": 110355,
      "kitsu": 42435,
      "myanimelist": 40059
    },
    "i18n": {
      "eng": "Golden Kamuy 3rd Season",
      "jpn": "ゴールデンカムイ（3期）",
      "fre": "Golden Kamui (Saison 3)"
    },
    "name": "Golden Kamuy 3rd Season",
    "repository": "kara.moe",
    "tid": "1f77e50b-0fc9-49eb-8ecd-9226ccee0cf1",
    "types": [
      "series",
      "1"
    ]
  }
}