{
  "header": {
    "description": "Karaoke Mugen Tag File",
    "version": 1
  },
  "tag": {
    "i18n": {
      "eng": "Gothic x Luck"
    },
    "name": "Gothic x Luck",
    "tid": "36e9c22f-7003-4a93-85ca-9ce031ec81cd",
    "types": [
      "singers",
      "2"
    ],
    "repository": "kara.moe",
    "modified_at": "2020-03-31T19:04:34.547Z"
  }
}