{
  "header": {
    "description": "Karaoke Mugen Tag File",
    "version": 1
  },
  "tag": {
    "i18n": {
      "eng": "GoToon (Olivier Fallaix)"
    },
    "name": "GoToon (Olivier Fallaix)",
    "repository": "kara.moe",
    "tid": "d4d6c727-c901-4e45-becb-33c67bfe395b",
    "types": [
      "singers",
      "2",
      "songwriters",
      "8"
    ],
    "modified_at": "2020-03-31T19:04:34.548Z"
  }
}