{
  "header": {
    "description": "Karaoke Mugen Tag File",
    "version": 1
  },
  "tag": {
    "i18n": {
      "eng": "Gou Sakabe"
    },
    "modified_at": "2021-07-14T17:37:30.616Z",
    "name": "Gou Sakabe",
    "repository": "kara.moe",
    "tid": "2e171883-1e6c-446b-a6e7-7adebb2e94fe",
    "types": [
      "songwriters",
      "8"
    ]
  }
}