{
  "header": {
    "description": "Karaoke Mugen Tag File",
    "version": 1
  },
  "tag": {
    "i18n": {
      "eng": "Gôji Tsuno"
    },
    "name": "Gôji Tsuno",
    "tid": "73bd7db9-dafe-49c3-85b3-8c6da74c99a8",
    "types": [
      "songwriters",
      "8"
    ],
    "repository": "kara.moe",
    "modified_at": "2020-03-31T19:04:34.552Z"
  }
}