{
  "header": {
    "description": "Karaoke Mugen Tag File",
    "version": 1
  },
  "tag": {
    "i18n": {
      "eng": "gr8! Records"
    },
    "name": "gr8! Records",
    "tid": "dde803c3-3fa6-4864-9e8e-967866b0f335",
    "types": [
      "creators",
      "4"
    ],
    "repository": "kara.moe",
    "modified_at": "2020-03-31T19:04:34.554Z"
  }
}