{
  "header": {
    "description": "Karaoke Mugen Tag File",
    "version": 1
  },
  "tag": {
    "i18n": {
      "eng": "Graham Chapman"
    },
    "name": "Graham Chapman",
    "tid": "03e39035-140b-4d24-a508-bbcbcb004c22",
    "types": [
      "songwriters",
      "8"
    ],
    "repository": "kara.moe",
    "modified_at": "2020-03-31T19:04:34.556Z"
  }
}