{
  "header": {
    "description": "Karaoke Mugen Tag File",
    "version": 1
  },
  "tag": {
    "aliases": [
      "グランブルーファンタジー"
    ],
    "external_database_ids": {
      "anilist": 21361,
      "myanimelist": 31629,
      "kitsu": 11382
    },
    "i18n": {
      "chi": "碧蓝幻想",
      "eng": "Granblue Fantasy: The Animation",
      "jpn": "GRANBLUE FANTASY The Animation",
      "kor": "그랑블루 판타지 The Animation",
      "tur": "Gran'ın Gök Hayali",
      "qro": "GRANBLUE FANTASY The Animation"
    },
    "modified_at": "2020-03-31T19:04:31.601Z",
    "name": "GRANBLUE FANTASY The Animation",
    "repository": "kara.moe",
    "tid": "0fc68c89-0431-4b0c-a8bf-f1a7154bf6d9",
    "types": [
      "series",
      "1"
    ]
  }
}