{
  "header": {
    "description": "Karaoke Mugen Tag File",
    "version": 1
  },
  "tag": {
    "i18n": {
      "eng": "GRANRODEO"
    },
    "name": "GRANRODEO",
    "tid": "213ca674-9084-40ad-a7a8-c84d8108fce9",
    "types": [
      "singers",
      "2",
      "songwriters",
      "8"
    ],
    "repository": "kara.moe",
    "modified_at": "2020-03-31T19:04:34.557Z"
  }
}