{
  "header": {
    "description": "Karaoke Mugen Tag File",
    "version": 1
  },
  "tag": {
    "external_database_ids": {
      "anilist": 97768,
      "myanimelist": 34279,
      "kitsu": 12705
    },
    "i18n": {
      "eng": "Record of Grancrest War",
      "jpn": "グランクレスト戦記",
      "kor": "그랑크레스트 전기",
      "qro": "Grancrest Senki"
    },
    "modified_at": "2020-03-31T19:04:31.602Z",
    "name": "Grancrest Senki",
    "repository": "kara.moe",
    "tid": "1033817b-46e9-4ef0-8674-32304815abb1",
    "types": [
      "series",
      "1"
    ]
  }
}