{
  "header": {
    "description": "Karaoke Mugen Tag File",
    "version": 1
  },
  "tag": {
    "i18n": {
      "eng": "Graziella Caliandro"
    },
    "name": "Graziella Caliandro",
    "tid": "b7d452bf-d4dd-4090-bd97-05b5e0917be5",
    "types": [
      "songwriters",
      "8"
    ],
    "repository": "kara.moe",
    "modified_at": "2020-03-31T19:04:34.561Z"
  }
}