{
  "header": {
    "description": "Karaoke Mugen Tag File",
    "version": 1
  },
  "tag": {
    "aliases": [
      "グレートプリテンダー"
    ],
    "external_database_ids": {
      "anilist": 110349,
      "myanimelist": 40052,
      "kitsu": 42438
    },
    "i18n": {
      "eng": "Great Pretender",
      "jpn": "GREAT PRETENDER",
      "qro": "GREAT PRETENDER"
    },
    "modified_at": "2020-06-14T16:46:37.528Z",
    "name": "GREAT PRETENDER",
    "repository": "kara.moe",
    "tid": "2d6b637a-afe9-4a3d-a207-86ae69a75831",
    "types": [
      "series",
      "1"
    ]
  }
}