{
  "header": {
    "description": "Karaoke Mugen Tag File",
    "version": 1
  },
  "tag": {
    "i18n": {
      "eng": "Greek Fire"
    },
    "modified_at": "2021-04-04T12:30:46.767Z",
    "name": "Greek Fire",
    "repository": "kara.moe",
    "tid": "afc85d1c-096c-4da0-9aa1-eb9e962fd558",
    "types": [
      "songwriters",
      "8",
      "singers",
      "2"
    ]
  }
}