{
  "header": {
    "description": "Karaoke Mugen Tag File",
    "version": 1
  },
  "tag": {
    "i18n": {
      "eng": "GREEN LEAVES"
    },
    "name": "GREEN LEAVES",
    "tid": "d8cd9325-9e62-4b39-a68a-d025aa3b401c",
    "types": [
      "songwriters",
      "8"
    ],
    "repository": "kara.moe",
    "modified_at": "2020-03-31T19:04:34.564Z"
  }
}