{
  "header": {
    "description": "Karaoke Mugen Tag File",
    "version": 1
  },
  "tag": {
    "i18n": {
      "eng": "Green Day"
    },
    "modified_at": "2020-08-15T19:57:14.573Z",
    "name": "Green Day",
    "repository": "kara.moe",
    "tid": "04b91713-c543-4d66-950e-398219fb8cdd",
    "types": [
      "songwriters",
      "8",
      "singers",
      "2"
    ]
  }
}