{
  "header": {
    "description": "Karaoke Mugen Tag File",
    "version": 1
  },
  "tag": {
    "i18n": {
      "eng": "Greta Link"
    },
    "name": "Greta Link",
    "repository": "kara.moe",
    "tid": "b2e27b45-92b5-4337-9ba2-514063242a03",
    "types": [
      "singers",
      "2"
    ]
  }
}