{
  "header": {
    "description": "Karaoke Mugen Tag File",
    "version": 1
  },
  "tag": {
    "i18n": {
      "eng": "grind3h"
    },
    "modified_at": "2021-06-24T12:42:43.461Z",
    "name": "grind3h",
    "repository": "kara.moe",
    "tid": "061c6595-42fe-40bc-aaa1-a6c3e02dc292",
    "types": [
      "creators",
      "4"
    ]
  }
}