{
  "header": {
    "description": "Karaoke Mugen Tag File",
    "version": 1
  },
  "tag": {
    "aliases": [
      "GriKaji"
    ],
    "external_database_ids": {
      "anilist": 17729,
      "myanimelist": 17729,
      "kitsu": 7982
    },
    "i18n": {
      "eng": "The Fruit of Grisaia",
      "fre": "Le Fruit de la Grisaia",
      "jpn": "グリザイアの果実 -LE FRUIT DE LA GRISAIA-",
      "spa": "The Fruit of Grisaia",
      "qro": "Grisaia no Kajitsu"
    },
    "modified_at": "2020-06-21T23:45:31.966Z",
    "name": "Grisaia no Kajitsu",
    "repository": "kara.moe",
    "tid": "3414bad6-5491-4235-9bfd-545b632042fa",
    "types": [
      "series",
      "1"
    ]
  }
}