{
  "header": {
    "description": "Karaoke Mugen Tag File",
    "version": 1
  },
  "tag": {
    "external_database_ids": {
      "anilist": 21006,
      "myanimelist": 29095,
      "kitsu": 10155
    },
    "i18n": {
      "dut": "Het Paradijs van Grisaia",
      "eng": "The Eden of Grisaia",
      "fre": "Le Eden de la Grisaia",
      "jpn": "グリザイアの楽園 -LE EDEN DE LA GRISAIA-",
      "qro": "Grisaia no Rakuen"
    },
    "modified_at": "2020-03-31T19:04:31.610Z",
    "name": "Grisaia no Rakuen",
    "repository": "kara.moe",
    "tid": "cd308cb7-6ed4-4186-873f-789a5e1d2022",
    "types": [
      "series",
      "1"
    ]
  }
}