{
  "header": {
    "description": "Karaoke Mugen Tag File",
    "version": 1
  },
  "tag": {
    "aliases": [
      "Duo",
      "trio",
      "duet"
    ],
    "i18n": {
      "eng": "Group Singing",
      "fre": "Chant en groupe"
    },
    "name": "Group",
    "repository": "kara.moe",
    "short": "GROUP",
    "tid": "1d6ceadf-a885-47e5-b23b-c07bf668a424",
    "types": [
      "misc",
      "7"
    ]
  }
}