{
  "header": {
    "description": "Karaoke Mugen Tag File",
    "version": 1
  },
  "tag": {
    "i18n": {
      "eng": "grram"
    },
    "modified_at": "2020-08-20T14:58:01.929Z",
    "name": "grram",
    "repository": "kara.moe",
    "tid": "bccf5f4c-f10b-4872-a9d3-96968e9774f2",
    "types": [
      "singers",
      "2"
    ]
  }
}