{
  "header": {
    "description": "Karaoke Mugen Tag File",
    "version": 1
  },
  "tag": {
    "i18n": {
      "eng": "Grytzko Mascioni"
    },
    "modified_at": "2020-04-21T18:36:22.772Z",
    "name": "Grytzko Mascioni",
    "repository": "kara.moe",
    "tid": "25e4be1a-02be-4d70-b243-2a33306894f4",
    "types": [
      "songwriters",
      "8"
    ]
  }
}