{
  "header": {
    "description": "Karaoke Mugen Tag File",
    "version": 1
  },
  "tag": {
    "aliases": [
      "Google it! Kokkuri-san",
      "gugukoku"
    ],
    "external_database_ids": {
      "anilist": 20656,
      "myanimelist": 23251,
      "kitsu": 8333
    },
    "i18n": {
      "eng": "Gugure! Kokkuri-san",
      "jpn": "繰繰れ! コックリさん",
      "qro": "Gugure! Kokkuri-san"
    },
    "modified_at": "2020-03-31T19:04:31.612Z",
    "name": "Gugure! Kokkuri-san",
    "repository": "kara.moe",
    "tid": "1eb7b3be-9693-461b-a3ee-6dfef4bde714",
    "types": [
      "series",
      "1"
    ]
  }
}