{
  "header": {
    "description": "Karaoke Mugen Tag File",
    "version": 1
  },
  "tag": {
    "i18n": {
      "eng": "Guiano"
    },
    "modified_at": "2021-09-08T22:05:06.036Z",
    "name": "Guiano",
    "repository": "kara.moe",
    "tid": "cab84cf1-1f94-417f-bfb0-d81a397ec3dd",
    "types": [
      "songwriters",
      "8"
    ]
  }
}