{
  "header": {
    "description": "Karaoke Mugen Tag File",
    "version": 1
  },
  "tag": {
    "i18n": {
      "eng": "Guido Vianello"
    },
    "name": "Guido Vianello",
    "repository": "kara.moe",
    "tid": "1becbca6-bde6-423e-a0f2-969c6b6d1965",
    "types": [
      "songwriters",
      "8"
    ]
  }
}