{
  "header": {
    "description": "Karaoke Mugen Tag File",
    "version": 1
  },
  "tag": {
    "i18n": {
      "eng": "Guilty Gear"
    },
    "name": "Guilty Gear",
    "repository": "kara.moe",
    "tid": "3ddf630c-9673-49d9-8523-bfa5c7d3f74c",
    "types": [
      "franchises",
      "18"
    ]
  }
}