{
  "header": {
    "description": "Karaoke Mugen Tag File",
    "version": 1
  },
  "tag": {
    "aliases": [
      "GBF Try",
      "gbft"
    ],
    "external_database_ids": {
      "anilist": 20739,
      "myanimelist": 24625,
      "kitsu": 8637
    },
    "i18n": {
      "eng": "Gundam Build Fighters Try",
      "jpn": "ガンダムビルドファイターズトライ",
      "qro": "Gundam Build Fighters Try"
    },
    "modified_at": "2020-03-31T19:04:31.616Z",
    "name": "Gundam Build Fighters Try",
    "repository": "kara.moe",
    "tid": "dca12188-af73-4e80-8877-9a6ff32669fb",
    "types": [
      "series",
      "1"
    ]
  }
}