{
  "header": {
    "description": "Karaoke Mugen Tag File",
    "version": 1
  },
  "tag": {
    "aliases": [
      "GBF",
      "Gundam BF",
      "gbf"
    ],
    "external_database_ids": {
      "anilist": 19319,
      "myanimelist": 19319,
      "kitsu": 7852
    },
    "i18n": {
      "eng": "Gundam Build Fighters",
      "jpn": "ガンダムビルドファイターズ",
      "kor": "건담 빌드 파이터즈",
      "qro": "Gundam Build Fighters"
    },
    "modified_at": "2020-03-31T19:04:31.616Z",
    "name": "Gundam Build Fighters",
    "repository": "kara.moe",
    "tid": "d86f8122-4670-4f12-ae71-75c1502ac1d7",
    "types": [
      "series",
      "1"
    ]
  }
}