{
  "header": {
    "description": "Karaoke Mugen Tag File",
    "version": 1
  },
  "tag": {
    "aliases": [
      "Gundam True Odyssey Ushinawareshi G no Densetsu"
    ],
    "i18n": {
      "eng": "MS Saga: A New Dawn",
      "jpn": "Gundam True Odyssey, 失われしGの伝説",
      "qro": "Gundam True Odyssey"
    },
    "modified_at": "2020-03-31T19:04:31.617Z",
    "name": "Gundam True Odyssey",
    "repository": "kara.moe",
    "tid": "e17b2911-9f37-4efe-b93d-0a487b3a49c6",
    "types": [
      "series",
      "1"
    ]
  }
}