{
  "header": {
    "description": "Karaoke Mugen Tag File",
    "version": 1
  },
  "tag": {
    "aliases": [
      "GBD"
    ],
    "external_database_ids": {
      "anilist": 101036,
      "myanimelist": 37245,
      "kitsu": 40565
    },
    "i18n": {
      "eng": "Gundam Build Divers",
      "jpn": "ガンダムビルドダイバーズ",
      "kor": "건담 빌드 다이버즈",
      "qro": "Gundam Build Divers"
    },
    "modified_at": "2020-03-31T19:04:31.615Z",
    "name": "Gundam Build Divers",
    "repository": "kara.moe",
    "tid": "72de6470-2bed-43d8-9b1e-e51579c407e8",
    "types": [
      "series",
      "1"
    ]
  }
}