{
  "header": {
    "description": "Karaoke Mugen Tag File",
    "version": 1
  },
  "tag": {
    "i18n": {
      "eng": "Gura Gawr"
    },
    "modified_at": "2021-08-09T18:26:57.910Z",
    "name": "Gura Gawr",
    "repository": "kara.moe",
    "tid": "87f8830b-c3f6-413b-9551-515733ebac41",
    "types": [
      "singers",
      "2",
      "songwriters",
      "8"
    ]
  }
}