{
  "header": {
    "description": "Karaoke Mugen Tag File",
    "version": 1
  },
  "tag": {
    "i18n": {
      "eng": "Gus Lobban"
    },
    "modified_at": "2021-06-29T21:40:43.753Z",
    "name": "Gus Lobban",
    "repository": "kara.moe",
    "tid": "3e4ce8f5-45c5-4af3-ad05-72b9e19e40fc",
    "types": [
      "songwriters",
      "8"
    ]
  }
}