{
  "header": {
    "description": "Karaoke Mugen Tag File",
    "version": 1
  },
  "tag": {
    "i18n": {
      "eng": "Gust"
    },
    "name": "Gust",
    "tid": "f98c40bf-9da0-493c-a0e7-f5a07805092c",
    "types": [
      "creators",
      "4"
    ],
    "repository": "kara.moe",
    "modified_at": "2020-03-31T19:04:34.580Z"
  }
}