{
  "header": {
    "description": "Karaoke Mugen Tag File",
    "version": 1
  },
  "tag": {
    "i18n": {
      "eng": "Guy-Manuel de Homem-Christo"
    },
    "name": "Guy-Manuel de Homem-Christo",
    "tid": "e99f7697-b0d4-416b-a876-8616f02db788",
    "types": [
      "songwriters",
      "8"
    ],
    "repository": "kara.moe",
    "modified_at": "2020-03-31T19:04:34.582Z"
  }
}