{
  "header": {
    "description": "Karaoke Mugen Tag File",
    "version": 1
  },
  "tag": {
    "aliases": [
      "Kaiji 2",
      "Kaiji Season 2",
      "Suffering Outcast Kaiji: Maverick Arc",
      "The Suffering Pariah Kaiji: Backslide Arc",
      "The Suffering Pariah Kaiji: Maverick Arc",
      "kaiji s2",
      "kaiji2",
      "gyakkyou"
    ],
    "external_database_ids": {
      "anilist": 10271,
      "myanimelist": 10271,
      "kitsu": 6109
    },
    "i18n": {
      "eng": "Kaiji 2: Against All Rules",
      "jpn": "逆境無頼カイジ 破戒録篇",
      "spa": "Kaiji (segunda temporada)",
      "qro": "Gyakkyô Burai Kaiji: Hakairoku-hen"
    },
    "modified_at": "2020-03-31T19:04:31.621Z",
    "name": "Gyakkyô Burai Kaiji: Hakairoku-hen",
    "repository": "kara.moe",
    "tid": "8c56413a-fd48-4eed-bbbd-61fb87d1e714",
    "types": [
      "series",
      "1"
    ]
  }
}