{
  "header": {
    "description": "Karaoke Mugen Tag File",
    "version": 1
  },
  "tag": {
    "aliases": [
      "GyakuSai",
      "Turnabout Trial: I Object to That Truth!",
      "逆轉裁判"
    ],
    "external_database_ids": {
      "anilist": 21360,
      "myanimelist": 31630,
      "kitsu": 11375
    },
    "i18n": {
      "eng": "Phoenix Wright: Ace Attorney",
      "ger": "Ace Attorney",
      "jpn": "逆転裁判~その「真実」, 異議あり!~",
      "qro": "Gyakuten Saiban: Sono Shinjitsu Igi Ari!"
    },
    "modified_at": "2020-03-31T19:04:31.623Z",
    "name": "Gyakuten Saiban: Sono Shinjitsu Igi Ari!",
    "repository": "kara.moe",
    "tid": "68dae18c-977c-49fd-9a57-c9755ff39608",
    "types": [
      "series",
      "1"
    ]
  }
}