{
  "header": {
    "description": "Karaoke Mugen Tag File",
    "version": 1
  },
  "tag": {
    "aliases": [
      "ココアシガレットP"
    ],
    "i18n": {
      "eng": "GYARI"
    },
    "modified_at": "2020-09-16T21:42:12.244Z",
    "name": "GYARI",
    "repository": "kara.moe",
    "tid": "d5cdfe0b-6cf8-4674-a644-f413b7952536",
    "types": [
      "creators",
      "4",
      "songwriters",
      "8"
    ]
  }
}