{
  "header": {
    "description": "Karaoke Mugen Tag File",
    "version": 1
  },
  "tag": {
    "i18n": {
      "eng": "h's"
    },
    "name": "h's",
    "tid": "bff5259d-1498-4955-af44-bce33bd399b3",
    "types": [
      "songwriters",
      "8"
    ],
    "repository": "kara.moe",
    "modified_at": "2020-03-31T19:04:34.584Z"
  }
}