{
  "header": {
    "description": "Karaoke Mugen Tag File",
    "version": 1
  },
  "tag": {
    "aliases": [
      ".hack∕∕Liminality",
      ".хак//Лиминалити",
      "H/L",
      "HackLim",
      "HackOVA",
      "dotHack∕∕Liminality",
      "hack liminality"
    ],
    "external_database_ids": {
      "anilist": 299,
      "myanimelist": 299,
      "kitsu": 274
    },
    "i18n": {
      "eng": ".hack//Liminality",
      "fre": ".hack//Liminality",
      "jpn": ".hack//Liminality",
      "qro": ".hack//LIMINALITY"
    },
    "modified_at": "2020-03-31T19:04:31.627Z",
    "name": ".hack//LIMINALITY",
    "repository": "kara.moe",
    "tid": "4a584ffd-1305-4f01-abf2-780dc6efbf64",
    "types": [
      "series",
      "1"
    ]
  }
}