{
  "header": {
    "description": "Karaoke Mugen Tag File",
    "version": 1
  },
  "tag": {
    "i18n": {
      "eng": "Haggy Rock"
    },
    "name": "Haggy Rock",
    "tid": "42a72547-41cf-4090-9241-d47c6aa3c999",
    "types": [
      "songwriters",
      "8"
    ],
    "repository": "kara.moe",
    "modified_at": "2020-03-31T19:04:34.592Z"
  }
}