{
  "header": {
    "description": "Karaoke Mugen Tag File",
    "version": 1
  },
  "tag": {
    "external_database_ids": {
      "anilist": 15043,
      "kitsu": 7201,
      "myanimelist": 15043
    },
    "i18n": {
      "jpn": "はいたい七葉",
      "qro": "Haitai Nanafa",
      "chi": "你好七叶",
      "eng": "Haitai Nanafa"
    },
    "name": "Haitai Nanafa",
    "repository": "kara.moe",
    "tid": "873dfef7-639c-40aa-ac51-e0b5d20f8dde",
    "types": [
      "series",
      "1"
    ]
  }
}