{
  "header": {
    "description": "Karaoke Mugen Tag File",
    "version": 1
  },
  "tag": {
    "i18n": {
      "eng": "Hajime Watanabe"
    },
    "name": "Hajime Watanabe",
    "tid": "21e83458-1844-4401-bb32-7d1ef73183f8",
    "types": [
      "songwriters",
      "8"
    ],
    "repository": "kara.moe",
    "modified_at": "2020-03-31T19:04:34.596Z"
  }
}