{
  "header": {
    "description": "Karaoke Mugen Tag File",
    "version": 1
  },
  "tag": {
    "aliases": [
      "HNI"
    ],
    "external_database_ids": {},
    "i18n": {
      "eng": "Fighting Spirit",
      "jpn": "はじめの一歩",
      "kor": "더 파이팅",
      "qro": "Hajime no Ippo"
    },
    "name": "Hajime no Ippo",
    "repository": "kara.moe",
    "tid": "5220a5f1-d6e4-4341-b197-f36cec9bb9db",
    "types": [
      "franchises",
      "18"
    ]
  }
}