{
  "header": {
    "description": "Karaoke Mugen Tag File",
    "version": 1
  },
  "tag": {
    "external_database_ids": {
      "anilist": 99483,
      "myanimelist": 35889,
      "kitsu": 14024
    },
    "i18n": {
      "eng": "Hakata Tonkotsu Ramens",
      "jpn": "博多豚骨ラーメンズ",
      "kor": "하카타 돈코츠 라멘즈",
      "qro": "Hakata Tonkotsu Ramens"
    },
    "modified_at": "2020-03-31T19:04:31.642Z",
    "name": "Hakata Tonkotsu Ramens",
    "repository": "kara.moe",
    "tid": "e47c8183-b725-4784-99af-18188a856692",
    "types": [
      "series",
      "1"
    ]
  }
}