{
  "header": {
    "description": "Karaoke Mugen Tag File",
    "version": 1
  },
  "tag": {
    "i18n": {
      "eng": "Hakka Banzoin"
    },
    "name": "Hakka Banzoin",
    "repository": "kara.moe",
    "tid": "1064bfab-3f2f-4f97-822b-2dc91d6a630f",
    "types": [
      "singers",
      "2",
      "songwriters",
      "8"
    ]
  }
}