{
  "header": {
    "description": "Karaoke Mugen Tag File",
    "version": 1
  },
  "tag": {
    "aliases": [
      "Hakuouki: Shinkai Fuukaden",
      "hakuouki"
    ],
    "i18n": {
      "eng": "Hakuoki: Shinkai Fukaden",
      "fre": "Hakuôki: Shinkai Fûkaden",
      "jpn": "薄桜鬼 真改 風華伝",
      "qro": "Hakuôki: Shinkai Fuukaden"
    },
    "modified_at": "2020-03-31T19:04:31.644Z",
    "name": "Hakuôki: Shinkai Fuukaden",
    "repository": "kara.moe",
    "tid": "77ac89c2-dc2a-4f5a-b6fe-dcfb26993e93",
    "types": [
      "series",
      "1"
    ]
  }
}