{
  "header": {
    "description": "Karaoke Mugen Tag File",
    "version": 1
  },
  "tag": {
    "aliases": [
      "Hakuouki: Sekka-roku - Shinsengumi Kitan",
      "hakuouki"
    ],
    "external_database_ids": {
      "anilist": 10350,
      "myanimelist": 10350,
      "kitsu": 6141
    },
    "i18n": {
      "eng": "Hakuoki: Demon of the Fleeting Blossom - A Memory of Snow Flowers",
      "jpn": "薄桜鬼 雪華録 新選組奇譚",
      "qro": "Hakuôki: Sekka-roku - Shinsengumi Kitan"
    },
    "modified_at": "2020-08-18T22:53:56.314Z",
    "name": "Hakuôki: Sekka-roku - Shinsengumi Kitan",
    "repository": "kara.moe",
    "tid": "0d915db3-c5f3-4a31-839e-d93e7eb239fc",
    "types": [
      "series",
      "1"
    ]
  }
}