{
  "header": {
    "description": "Karaoke Mugen Tag File",
    "version": 1
  },
  "tag": {
    "i18n": {
      "eng": "Hallie Coggins"
    },
    "name": "Hallie Coggins",
    "repository": "kara.moe",
    "tid": "ac4c6f03-6b2a-4a0d-a06c-19a98cb0ebd1",
    "types": [
      "songwriters",
      "8"
    ]
  }
}