{
  "header": {
    "description": "Karaoke Mugen Tag File",
    "version": 1
  },
  "tag": {
    "i18n": {
      "eng": "Halozy"
    },
    "name": "Halozy",
    "repository": "kara.moe",
    "tid": "f32792be-82f3-4bba-ae48-bd1edbb4b090",
    "types": [
      "creators",
      "4"
    ]
  }
}