{
  "header": {
    "description": "Karaoke Mugen Tag File",
    "version": 1
  },
  "tag": {
    "aliases": [
      "Hanaukyo Maid Team: La Vérité",
      "Hanaukyo Maids La Verite",
      "Hanaukyou Hizmetçileri: La Verite",
      "Hanaukyou Maid Tai (2004)",
      "Hanaukyou Maid Tai: La Verité",
      "Hanaukyou Maid-tai La Verite",
      "hmtla",
      "hanaukyou"
    ],
    "external_database_ids": {
      "anilist": 649,
      "myanimelist": 649,
      "kitsu": 597
    },
    "i18n": {
      "eng": "Hanaukyo Maid Team: La Verite",
      "fre": "Monsieur est servi ! La vérité",
      "jpn": "花右京メイド隊 La Verite",
      "qro": "Hanaukyô Maid Tai La Verite"
    },
    "modified_at": "2020-03-31T19:04:31.649Z",
    "name": "Hanaukyô Maid Tai La Verite",
    "repository": "kara.moe",
    "tid": "5ea9ce4d-69ee-4f51-9c60-983e602138fb",
    "types": [
      "series",
      "1"
    ]
  }
}