{
  "header": {
    "description": "Karaoke Mugen Tag File",
    "version": 1
  },
  "tag": {
    "i18n": {
      "eng": "Hana Awase ~Karakurenai/Utsutsu Hen~",
      "jpn": "華アワセ ～唐紅/うつつ編～",
      "qro": "Hana Awase ~Karakurenai/Utsutsu Hen~"
    },
    "name": "Hana Awase ~Karakurenai/Utsutsu Hen~",
    "repository": "kara.moe",
    "tid": "219e4fd1-9a98-4cd7-9b4c-90212e5de65d",
    "types": [
      "series",
      "1"
    ]
  }
}