{
  "header": {
    "description": "Karaoke Mugen Tag File",
    "version": 1
  },
  "tag": {
    "i18n": {
      "eng": "Hana Chiba"
    },
    "name": "Hana Chiba",
    "tid": "ab290d53-858c-4e2c-852e-1e8af7c8028b",
    "types": [
      "songwriters",
      "8"
    ],
    "repository": "kara.moe",
    "modified_at": "2020-03-31T19:04:34.610Z"
  }
}