{
  "header": {
    "description": "Karaoke Mugen Tag File",
    "version": 1
  },
  "tag": {
    "aliases": [
      "Hanada Shounen-shi",
      "Малкият Ханада",
      "Ханада",
      "shounen-shi"
    ],
    "external_database_ids": {
      "anilist": 2004,
      "myanimelist": 2004,
      "kitsu": 1804
    },
    "i18n": {
      "eng": "Hanada Shonen-shi",
      "fre": "Hanada le garnement",
      "jpn": "花田少年史",
      "tha": "ผีซ่าส์กับฮานาดะ",
      "qro": "Hanada Shônen-shi"
    },
    "modified_at": "2020-06-21T23:45:31.966Z",
    "name": "Hanada Shônen-shi",
    "repository": "kara.moe",
    "tid": "f7d038f6-39cb-4e46-8553-6f22e7613604",
    "types": [
      "series",
      "1"
    ]
  }
}