{
  "header": {
    "description": "Karaoke Mugen Tag File",
    "version": 1
  },
  "tag": {
    "i18n": {
      "eng": "Hana*Hana"
    },
    "name": "Hana*Hana",
    "tid": "7609da09-8123-4f66-bcb3-3923859923ee",
    "types": [
      "singers",
      "2"
    ],
    "repository": "kara.moe",
    "modified_at": "2020-03-31T19:04:34.611Z"
  }
}