{
  "header": {
    "description": "Karaoke Mugen Tag File",
    "version": 1
  },
  "tag": {
    "aliases": [
      "Гостоприемните"
    ],
    "external_database_ids": {
      "anilist": 21731,
      "myanimelist": 32981,
      "kitsu": 11951
    },
    "i18n": {
      "chi": "握手者",
      "eng": "Hand Shakers",
      "fre": "Hand Shakers",
      "jpn": "ハンドシェイカー",
      "qro": "Hand Shakers"
    },
    "modified_at": "2020-03-31T19:04:31.654Z",
    "name": "Hand Shakers",
    "repository": "kara.moe",
    "tid": "50c93240-51e9-49be-93fe-bde7f8ae49e0",
    "types": [
      "series",
      "1"
    ]
  }
}