{
  "header": {
    "description": "Karaoke Mugen Tag File",
    "version": 1
  },
  "tag": {
    "external_database_ids": {
      "anilist": 118399,
      "kitsu": 43180,
      "myanimelist": 41911
    },
    "i18n": {
      "eng": "Yashahime: Princess Half-Demon",
      "qro": "Hanyo no Yashahime"
    },
    "name": "Hanyo no Yashahime",
    "repository": "kara.moe",
    "short": "Yashahime",
    "tid": "a3dfeb12-743e-409a-9434-98022b4c14e3",
    "types": [
      "series",
      "1"
    ]
  }
}