{
  "header": {
    "description": "Karaoke Mugen Tag File",
    "version": 1
  },
  "tag": {
    "i18n": {
      "eng": "Happinet"
    },
    "name": "Happinet",
    "repository": "kara.moe",
    "tid": "ba84dbcd-1719-4636-a093-5e54f8d173ff",
    "types": [
      "creators",
      "4"
    ]
  }
}