{
  "header": {
    "description": "Karaoke Mugen Tag File",
    "version": 1
  },
  "tag": {
    "i18n": {
      "eng": "Harajuku"
    },
    "name": "Harajuku",
    "repository": "kara.moe",
    "tid": "a7bd5af4-e84f-4c8f-80f5-ae6aa48786f2",
    "types": [
      "singers",
      "2"
    ]
  }
}