{
  "header": {
    "description": "Karaoke Mugen Tag File",
    "version": 1
  },
  "tag": {
    "aliases": [
      "Wakate Animator Ikusei Project 2014",
      "Young Animator Training Project 2014",
      "anime mirai 2014",
      "anime tamago 2014",
      "project A 2014",
      "若手アニメーター育成プロジェクト 2014"
    ],
    "external_database_ids": {
      "anilist": 20501,
      "myanimelist": 20903,
      "kitsu": 8105
    },
    "i18n": {
      "eng": "Harmonie",
      "jpn": "アルモニ",
      "qro": "Harmonie"
    },
    "modified_at": "2020-03-31T19:04:31.659Z",
    "name": "Harmonie",
    "repository": "kara.moe",
    "tid": "45115fdd-7692-4fb5-8e9a-d3f3dd3d84b7",
    "types": [
      "series",
      "1"
    ]
  }
}