{
  "header": {
    "description": "Karaoke Mugen Tag File",
    "version": 1
  },
  "tag": {
    "i18n": {
      "eng": "Harry Sommerdahl"
    },
    "name": "Harry Sommerdahl",
    "tid": "e0da3ac8-e41b-4191-a425-b88365f0d6ac",
    "types": [
      "songwriters",
      "8"
    ],
    "repository": "kara.moe",
    "modified_at": "2020-03-31T19:04:34.631Z"
  }
}