{
  "header": {
    "description": "Karaoke Mugen Tag File",
    "version": 1
  },
  "tag": {
    "i18n": {
      "eng": "Harry Karkland"
    },
    "name": "Harry Karkland",
    "tid": "145646fd-e580-4f61-af9d-da82f4303ed9",
    "types": [
      "songwriters",
      "8"
    ],
    "repository": "kara.moe",
    "modified_at": "2020-03-31T19:04:34.630Z"
  }
}