{
  "header": {
    "description": "Karaoke Mugen Tag File",
    "version": 1
  },
  "tag": {
    "aliases": [
      "Haruka",
      "Haruka 8",
      "Harukanaru Toki no Naka de: Hachiyou Shou",
      "In a Distant Time: A Tale of the Eight Guardians",
      "hachiyou",
      "shou"
    ],
    "external_database_ids": {
      "anilist": 247,
      "myanimelist": 247,
      "kitsu": 222
    },
    "i18n": {
      "eng": "Haruka -Beyond the Stream of Time-: A Tale of the Eight Guardians",
      "fre": "Haruka ~Dans une époque lointaine~ La légende des huit guerriers",
      "jpn": "遙かなる時空の中で~八葉抄~",
      "qro": "Harukanaru Toki no Naka de: Hachiyô Shô"
    },
    "modified_at": "2020-06-21T23:45:31.966Z",
    "name": "Harukanaru Toki no Naka de: Hachiyô Shô",
    "repository": "kara.moe",
    "tid": "93365765-2b5c-4350-905e-172d4542773e",
    "types": [
      "series",
      "1"
    ]
  }
}