{
  "header": {
    "description": "Karaoke Mugen Tag File",
    "version": 1
  },
  "tag": {
    "i18n": {
      "eng": "Haru (Raico)"
    },
    "name": "Haru (Raico)",
    "tid": "0b15839e-db1d-4674-8e69-089b396e84d2",
    "types": [
      "songwriters",
      "8"
    ],
    "repository": "kara.moe",
    "modified_at": "2020-03-31T19:04:34.633Z"
  }
}