{
  "header": {
    "description": "Karaoke Mugen Tag File",
    "version": 1
  },
  "tag": {
    "i18n": {
      "eng": "Haruka Terui"
    },
    "name": "Haruka Terui",
    "tid": "1f449de8-ba1a-4d99-9393-7589b72b68f0",
    "types": [
      "singers",
      "2"
    ],
    "repository": "kara.moe",
    "modified_at": "2020-03-31T19:04:34.641Z"
  }
}