{
  "header": {
    "description": "Karaoke Mugen Tag File",
    "version": 1
  },
  "tag": {
    "i18n": {
      "eng": "Haruko Nagaya"
    },
    "modified_at": "2021-09-20T19:38:41.107Z",
    "name": "Haruko Nagaya",
    "repository": "kara.moe",
    "tid": "a26942eb-c6ff-47b0-ae1e-6e510e7d3863",
    "types": [
      "songwriters",
      "8"
    ]
  }
}