{
  "header": {
    "description": "Karaoke Mugen Tag File",
    "version": 1
  },
  "tag": {
    "i18n": {
      "eng": "Haruki Iwata"
    },
    "name": "Haruki Iwata",
    "tid": "e3ec5558-2fa7-44e9-a4a4-59910a7a3370",
    "types": [
      "singers",
      "2"
    ],
    "repository": "kara.moe",
    "modified_at": "2020-03-31T19:04:34.647Z"
  }
}