{
  "header": {
    "description": "Karaoke Mugen Tag File",
    "version": 1
  },
  "tag": {
    "i18n": {
      "eng": "Haru Nemuri"
    },
    "modified_at": "2021-08-26T21:32:57.518Z",
    "name": "Haru Nemuri",
    "repository": "kara.moe",
    "tid": "d55b4ff1-45c4-496b-be92-7e823559209e",
    "types": [
      "songwriters",
      "8"
    ]
  }
}