{
  "header": {
    "description": "Karaoke Mugen Tag File",
    "version": 1
  },
  "tag": {
    "i18n": {
      "eng": "Haruna Ooshima"
    },
    "name": "Haruna Ooshima",
    "tid": "b042d329-45ad-4ae9-a5fc-0e30cd1a05ac",
    "types": [
      "singers",
      "2",
      "songwriters",
      "8"
    ],
    "repository": "kara.moe",
    "modified_at": "2020-03-31T19:04:34.651Z"
  }
}