{
  "header": {
    "description": "Karaoke Mugen Tag File",
    "version": 1
  },
  "tag": {
    "i18n": {
      "eng": "Harumi Kamo"
    },
    "name": "Harumi Kamo",
    "tid": "c8e8cb00-f50a-49d4-9966-81d4cc963d6a",
    "types": [
      "singers",
      "2"
    ],
    "repository": "kara.moe",
    "modified_at": "2020-03-31T19:04:34.650Z"
  }
}