{
  "header": {
    "description": "Karaoke Mugen Tag File",
    "version": 1
  },
  "tag": {
    "i18n": {
      "eng": "Haruka Tomatsu"
    },
    "name": "Haruka Tomatsu",
    "tid": "001a6966-3d4d-4897-975d-4e9e2e052732",
    "types": [
      "singers",
      "2"
    ],
    "repository": "kara.moe",
    "modified_at": "2020-03-31T19:04:34.643Z"
  }
}