{
  "header": {
    "description": "Karaoke Mugen Tag File",
    "version": 1
  },
  "tag": {
    "i18n": {
      "eng": "Hasu Daian"
    },
    "name": "Hasu Daian",
    "tid": "ade3624d-7c58-4017-84cd-b83be94504eb",
    "types": [
      "singers",
      "2"
    ],
    "repository": "kara.moe",
    "modified_at": "2020-03-31T19:04:34.656Z"
  }
}