{
  "header": {
    "description": "Karaoke Mugen Tag File",
    "version": 1
  },
  "tag": {
    "aliases": [
      "platelets",
      "Hataraku Saibou BLACK",
      "Células no Trabalho - Código Negro",
      "saibou"
    ],
    "external_database_ids": {
      "anilist": 117533,
      "myanimelist": 41694,
      "kitsu": 43167
    },
    "i18n": {
      "eng": "Cells at Work! Code Black",
      "jpn": "はたらく細胞BLACK",
      "fre": "Les Brigades Immunitaires Black",
      "qro": "Hataraku Saibô BLACK"
    },
    "modified_at": "2021-02-20T01:08:16.951Z",
    "name": "Hataraku Saibô BLACK",
    "priority": 10,
    "repository": "kara.moe",
    "tid": "b282217f-ee59-4138-9abf-2b493b72f8bc",
    "types": [
      "series",
      "1"
    ]
  }
}