{
  "header": {
    "description": "Karaoke Mugen Tag File",
    "version": 1
  },
  "tag": {
    "aliases": [
      "Rise Up! Animal Road"
    ],
    "external_database_ids": {
      "anilist": 107339,
      "myanimelist": 39030,
      "kitsu": 42127
    },
    "i18n": {
      "eng": "Kemono Michi: Rise Up",
      "jpn": "旗揚! けものみち",
      "qro": "Hataage! Kemono Michi"
    },
    "modified_at": "2020-03-31T19:04:31.663Z",
    "name": "Hataage! Kemono Michi",
    "repository": "kara.moe",
    "tid": "05ed8dba-fab3-4ce8-b3d8-b1139cbc854d",
    "types": [
      "series",
      "1"
    ]
  }
}