{
  "header": {
    "description": "Karaoke Mugen Tag File",
    "version": 1
  },
  "tag": {
    "aliases": [
      "Hatsune Miku: Project DIVA F"
    ],
    "i18n": {
      "eng": "Hatsune Miku: Project DIVA ƒ",
      "jpn": "初音ミク Project DIVA ƒ",
      "qro": "Hatsune Miku ~ Project DIVA F"
    },
    "name": "Hatsune Miku ~ Project DIVA F",
    "repository": "kara.moe",
    "tid": "d28af18d-d544-4d0f-b955-99e6914230f2",
    "types": [
      "series",
      "1"
    ]
  }
}