{
  "header": {
    "description": "Karaoke Mugen Tag File",
    "version": 1
  },
  "tag": {
    "i18n": {
      "eng": "Hatsune Miku Project Mirai",
      "jpn": "初音ミク Project Mirai",
      "qro": "Hatsune Miku Project Mirai"
    },
    "name": "Hatsune Miku Project Mirai",
    "repository": "kara.moe",
    "tid": "8bc18f21-9750-4f43-97d3-2dd9352bb8af",
    "types": [
      "series",
      "1",
      "franchises",
      "18"
    ]
  }
}