{
  "header": {
    "description": "Karaoke Mugen Tag File",
    "version": 1
  },
  "tag": {
    "i18n": {
      "eng": "Hatsune Miku: Project DIVA Extend",
      "jpn": "初音ミク -Project DIVA Extend-",
      "qro": "Hatsune Miku ~ Project DIVA Extend"
    },
    "modified_at": "2020-03-31T19:04:31.669Z",
    "name": "Hatsune Miku ~ Project DIVA Extend",
    "repository": "kara.moe",
    "tid": "66206a6b-bbf7-48d6-99a1-32af0c2e6ad0",
    "types": [
      "series",
      "1"
    ]
  }
}