{
  "header": {
    "description": "Karaoke Mugen Tag File",
    "version": 1
  },
  "tag": {
    "i18n": {
      "eng": "Hayato Matsuo"
    },
    "modified_at": "2020-11-27T22:33:52.080Z",
    "name": "Hayato Matsuo",
    "repository": "kara.moe",
    "tid": "53e6db76-b71d-41e8-a4d0-06c6ebb0ec5e",
    "types": [
      "songwriters",
      "8"
    ]
  }
}