{
  "header": {
    "description": "Karaoke Mugen Tag File",
    "version": 1
  },
  "tag": {
    "aliases": [
      "Chàng quản gia",
      "Hayate le majordome",
      "Hayate no Gotoku",
      "HnG!",
      "Kovinis liokajus Hajatė",
      "cbh",
      "Хаяте:Бойният прислужник",
      "Хаятэ боевой дворецкий",
      "הייטה גוטוקו!",
      "旋风管家"
    ],
    "external_database_ids": {
      "anilist": 2026,
      "myanimelist": 2026,
      "kitsu": 1825
    },
    "i18n": {
      "eng": "Hayate the Combat Butler!",
      "fre": "Hayate the Combat Butler!",
      "jpn": "ハヤテのごとく!",
      "kor": "하야테처럼",
      "tha": "ฮายาเตะ พ่อบ้านประจัญบาน!",
      "qro": "Hayate no Gotoku!"
    },
    "modified_at": "2020-06-21T23:45:31.966Z",
    "name": "Hayate no Gotoku!",
    "repository": "kara.moe",
    "tid": "b3c6a397-655a-4f4e-88d3-0d6f938e63b6",
    "types": [
      "series",
      "1",
      "franchises",
      "18"
    ]
  }
}