{
  "header": {
    "description": "Karaoke Mugen Tag File",
    "version": 1
  },
  "tag": {
    "i18n": {
      "eng": "HAZE"
    },
    "name": "HAZE",
    "tid": "d82f83d1-553e-42ed-b061-dab2ac96339e",
    "types": [
      "songwriters",
      "8"
    ],
    "repository": "kara.moe",
    "modified_at": "2020-03-31T19:04:34.666Z"
  }
}