{
  "header": {
    "description": "Karaoke Mugen Tag File",
    "version": 1
  },
  "tag": {
    "aliases": [
      "Ha-chan"
    ],
    "i18n": {
      "jpn": "反田葉月",
      "qro": "Hazuki Tanda"
    },
    "name": "Hazuki Tanda",
    "repository": "kara.moe",
    "tid": "c334f05e-70be-45f4-b133-2340b9bc85f3",
    "types": [
      "singers",
      "2"
    ]
  }
}