{
  "header": {
    "description": "Karaoke Mugen Tag File",
    "version": 1
  },
  "tag": {
    "i18n": {
      "eng": "Healer Girls"
    },
    "name": "Healer Girls",
    "repository": "kara.moe",
    "tid": "2bad0ed8-50ea-4d45-b632-6497c6e583f6",
    "types": [
      "singers",
      "2"
    ]
  }
}