{
  "header": {
    "description": "Karaoke Mugen Tag File",
    "version": 1
  },
  "tag": {
    "i18n": {
      "eng": "HeArt MakiArt"
    },
    "name": "HeArt MakiArt",
    "tid": "b9d7dd95-978c-4f41-a667-0a500552ec28",
    "types": [
      "songwriters",
      "8"
    ],
    "repository": "kara.moe",
    "modified_at": "2020-03-31T19:04:34.668Z"
  }
}