{
  "header": {
    "description": "Karaoke Mugen Tag File",
    "version": 1
  },
  "tag": {
    "i18n": {
      "eng": "Hélène Rollès"
    },
    "name": "Hélène Rollès",
    "repository": "kara.moe",
    "tid": "d3ee6d04-e979-4163-9dea-943c7cca8057",
    "types": [
      "singers",
      "2"
    ]
  }
}