{
  "header": {
    "description": "Karaoke Mugen Tag File",
    "version": 1
  },
  "tag": {
    "i18n": {
      "eng": "Hellayne"
    },
    "name": "Hellayne",
    "tid": "622e2a6d-e4e8-4ff5-b218-890e8d7a3abf",
    "types": [
      "authors",
      "6"
    ],
    "repository": "kara.moe",
    "modified_at": "2020-03-31T19:04:34.677Z"
  }
}