{
  "header": {
    "description": "Karaoke Mugen Tag File",
    "version": 1
  },
  "tag": {
    "i18n": {
      "eng": "Helluva Boss"
    },
    "name": "Helluva Boss",
    "repository": "kara.moe",
    "tid": "dde0f48d-ef4d-46a8-94c1-6015f656edeb",
    "types": [
      "series",
      "1"
    ]
  }
}