{
  "header": {
    "description": "Karaoke Mugen Tag File",
    "version": 1
  },
  "tag": {
    "aliases": [
      "HU",
      "Hellsing OVA",
      "Hellsing Ultimate Series",
      "Helsingas OVA",
      "Хеллсинг OVA",
      "Хелсинг (2006)",
      "ヘルシング (2006)",
      "皇家国教骑士团ova"
    ],
    "external_database_ids": {
      "anilist": 777,
      "myanimelist": 777,
      "kitsu": 695
    },
    "i18n": {
      "eng": "Hellsing Ultimate",
      "fre": "Hellsing Ultimate",
      "ger": "Hellsing Ultimate OVA",
      "ita": "Hellsing Ultimate",
      "jpn": "HELLSING (2006)",
      "rus": "Хеллсинг",
      "qro": "Hellsing Ultimate"
    },
    "modified_at": "2020-03-31T19:04:31.678Z",
    "name": "Hellsing Ultimate",
    "repository": "kara.moe",
    "tid": "7bfd861f-76c4-4215-986a-f83a8d94c617",
    "types": [
      "series",
      "1"
    ]
  }
}