{
  "header": {
    "description": "Karaoke Mugen Tag File",
    "version": 1
  },
  "tag": {
    "aliases": [
      "ハロー・ワールド"
    ],
    "i18n": {
      "eng": "Hellow World",
      "jpn": "HELLO WORLD",
      "qro": "Hellow World"
    },
    "modified_at": "2021-06-14T20:07:24.929Z",
    "name": "Hellow World",
    "repository": "kara.moe",
    "tid": "f8f6ab29-a7cb-4539-a81d-594e3444a560",
    "types": [
      "series",
      "1"
    ]
  }
}