{
  "header": {
    "description": "Karaoke Mugen Tag File",
    "version": 1
  },
  "tag": {
    "i18n": {
      "eng": "Hell's Center"
    },
    "name": "Hell's Center",
    "tid": "a0c1b80f-f54a-4bbb-8679-1620cd5a557e",
    "types": [
      "songwriters",
      "8"
    ],
    "repository": "kara.moe",
    "modified_at": "2020-03-31T19:04:34.677Z"
  }
}