{
  "header": {
    "description": "Karaoke Mugen Tag File",
    "version": 1
  },
  "tag": {
    "i18n": {
      "eng": "Heloise Tunstall-Behrens"
    },
    "name": "Heloise Tunstall-Behrens",
    "repository": "kara.moe",
    "tid": "b180d0f0-c13d-48e7-8fe2-9fc4b078f933",
    "types": [
      "songwriters",
      "8"
    ]
  }
}