{
  "header": {
    "description": "Karaoke Mugen Tag File",
    "version": 1
  },
  "tag": {
    "i18n": {
      "eng": "Help no Hito"
    },
    "name": "Help no Hito",
    "tid": "0d71aecf-1a81-412a-8f6b-ec094e1b9269",
    "types": [
      "creators",
      "4"
    ],
    "repository": "kara.moe",
    "modified_at": "2020-03-31T19:04:34.679Z"
  }
}