{
  "header": {
    "description": "Karaoke Mugen Tag File",
    "version": 1
  },
  "tag": {
    "i18n": {
      "eng": "Henry Clay Work"
    },
    "name": "Henry Clay Work",
    "tid": "83a62441-8953-4657-9126-3ead22290e63",
    "types": [
      "songwriters",
      "8"
    ],
    "repository": "kara.moe",
    "modified_at": "2020-03-31T19:04:34.682Z"
  }
}