{
  "header": {
    "description": "Karaoke Mugen Tag File",
    "version": 1
  },
  "tag": {
    "i18n": {
      "eng": "HERO"
    },
    "name": "HERO",
    "tid": "2135435d-ec08-449f-9eb2-e4bd10153fdd",
    "types": [
      "singers",
      "2"
    ],
    "repository": "kara.moe",
    "modified_at": "2020-03-31T19:04:34.687Z"
  }
}