{
  "header": {
    "description": "Karaoke Mugen Tag File",
    "version": 1
  },
  "tag": {
    "aliases": [
      "Хиромен",
      "Человек-герой",
      "الرجل البطل / هيرومان",
      "ヒーローマン"
    ],
    "external_database_ids": {
      "anilist": 4334,
      "myanimelist": 4334,
      "kitsu": 3559
    },
    "i18n": {
      "eng": "Heroman",
      "jpn": "HEROMAN",
      "qro": "Heroman"
    },
    "modified_at": "2020-03-31T19:04:31.684Z",
    "name": "Heroman",
    "repository": "kara.moe",
    "tid": "f7e6f8c6-5a78-4478-abad-93dda304e38b",
    "types": [
      "series",
      "1"
    ]
  }
}