{
  "header": {
    "description": "Karaoke Mugen Tag File",
    "version": 1
  },
  "tag": {
    "i18n": {
      "eng": "herolien"
    },
    "name": "herolien",
    "tid": "b7711191-2388-4035-b172-7d29ac69622b",
    "types": [
      "authors",
      "6"
    ],
    "repository": "kara.moe",
    "modified_at": "2020-03-31T19:04:34.689Z"
  }
}