{
  "header": {
    "description": "Karaoke Mugen Tag File",
    "version": 1
  },
  "tag": {
    "i18n": {
      "eng": "Heroes Phantasia",
      "jpn": "ヒーローズファンタジア",
      "qro": "Heroes Phantasia"
    },
    "modified_at": "2020-03-31T19:04:31.682Z",
    "name": "Heroes Phantasia",
    "repository": "kara.moe",
    "tid": "f4352e23-7677-4b22-a8b9-069f5ea0238d",
    "types": [
      "series",
      "1"
    ]
  }
}