{
  "header": {
    "description": "Karaoke Mugen Tag File",
    "version": 1
  },
  "tag": {
    "i18n": {
      "eng": "Hero Nakamura"
    },
    "name": "Hero Nakamura",
    "tid": "26a94fd7-eb77-4038-af37-3349b807550c",
    "types": [
      "songwriters",
      "8"
    ],
    "repository": "kara.moe",
    "modified_at": "2020-03-31T19:04:34.687Z"
  }
}