{
  "header": {
    "description": "Karaoke Mugen Tag File",
    "version": 1
  },
  "tag": {
    "i18n": {
      "eng": "Hex"
    },
    "modified_at": "2021-01-13T18:12:32.877Z",
    "name": "Hex",
    "repository": "kara.moe",
    "tid": "9ba0725b-e676-409e-9c01-1a2fd3b3d0bf",
    "types": [
      "creators",
      "4"
    ]
  }
}