{
  "header": {
    "description": "Karaoke Mugen Tag File",
    "version": 1
  },
  "tag": {
    "aliases": [
      "au grand air",
      "camp"
    ],
    "external_database_ids": {
      "anilist": 104461,
      "myanimelist": 38476,
      "kitsu": 41978
    },
    "i18n": {
      "eng": "Room Camp",
      "jpn": "へやキャン△",
      "qro": "Heya Camp△"
    },
    "modified_at": "2020-03-31T19:04:31.687Z",
    "name": "Heya Camp△",
    "repository": "kara.moe",
    "tid": "d5bc2788-da4d-4a33-9f46-2cb99c802f89",
    "types": [
      "series",
      "1"
    ]
  }
}