{
  "header": {
    "description": "Karaoke Mugen Tag File",
    "version": 1
  },
  "tag": {
    "external_database_ids": {
      "anilist": 21848,
      "myanimelist": 33434,
      "kitsu": 12346
    },
    "i18n": {
      "eng": "Heybot!",
      "jpn": "ヘボット!",
      "qro": "Heybot!"
    },
    "modified_at": "2020-03-31T19:04:31.687Z",
    "name": "Heybot!",
    "repository": "kara.moe",
    "tid": "61166073-e870-48f0-abf0-98c0cb227e79",
    "types": [
      "series",
      "1"
    ]
  }
}