{
  "header": {
    "description": "Karaoke Mugen Tag File",
    "version": 1
  },
  "tag": {
    "i18n": {
      "eng": "Hi-Fi Set"
    },
    "name": "Hi-Fi Set",
    "repository": "kara.moe",
    "tid": "a02873f2-1a47-4789-a5ca-936a32181cb3",
    "types": [
      "singers",
      "2"
    ]
  }
}