{
  "header": {
    "description": "Karaoke Mugen Tag File",
    "version": 1
  },
  "tag": {
    "external_database_ids": {
      "anilist": 20991,
      "myanimelist": 28883,
      "kitsu": 10077
    },
    "i18n": {
      "eng": "Aria the Scarlet Ammo AA",
      "fre": "Hidan no Aria AA",
      "jpn": "緋弾のアリアAA",
      "rus": "Ария по прозвищу Алая Пуля АА",
      "qro": "Hidan no Aria AA"
    },
    "modified_at": "2020-03-31T19:04:31.695Z",
    "name": "Hidan no Aria AA",
    "repository": "kara.moe",
    "tid": "afdec5c8-061b-441f-a80a-ff23f1da460d",
    "types": [
      "series",
      "1"
    ]
  }
}