{
  "header": {
    "description": "Karaoke Mugen Tag File",
    "version": 1
  },
  "tag": {
    "i18n": {
      "eng": "Hidenori Tokuyama"
    },
    "name": "Hidenori Tokuyama",
    "tid": "095f5f57-9734-405d-b97e-e08f5f3fee3d",
    "types": [
      "singers",
      "2"
    ],
    "repository": "kara.moe",
    "modified_at": "2020-03-31T19:04:34.718Z"
  }
}