{
  "header": {
    "description": "Karaoke Mugen Tag File",
    "version": 1
  },
  "tag": {
    "i18n": {
      "eng": "Hideyuki Gushimiyagi"
    },
    "modified_at": "2020-06-16T21:03:59.492Z",
    "name": "Hideyuki Gushimiyagi",
    "repository": "kara.moe",
    "tid": "21c5ede9-3f62-449b-a5fc-bfd1945929f6",
    "types": [
      "songwriters",
      "8"
    ]
  }
}