{
  "header": {
    "description": "Karaoke Mugen Tag File",
    "version": 1
  },
  "tag": {
    "i18n": {
      "eng": "Hideki Fujisawa"
    },
    "name": "Hideki Fujisawa",
    "tid": "cbd757d9-575b-4dd7-acd6-834f79043deb",
    "types": [
      "songwriters",
      "8"
    ],
    "repository": "kara.moe",
    "modified_at": "2020-03-31T19:04:34.705Z"
  }
}