{
  "header": {
    "description": "Karaoke Mugen Tag File",
    "version": 1
  },
  "tag": {
    "i18n": {
      "eng": "Hideki Kamiya"
    },
    "name": "Hideki Kamiya",
    "repository": "kara.moe",
    "tid": "409c2152-e778-407e-a326-8a9e8f429956",
    "types": [
      "songwriters",
      "8"
    ],
    "modified_at": "2020-03-31T19:04:34.706Z"
  }
}