{
  "header": {
    "description": "Karaoke Mugen Tag File",
    "version": 1
  },
  "tag": {
    "i18n": {
      "eng": "Hideyuki Nagashima"
    },
    "name": "Hideyuki Nagashima",
    "tid": "dee558cf-87a2-493f-a43a-67fdec23c03a",
    "types": [
      "singers",
      "2"
    ],
    "repository": "kara.moe",
    "modified_at": "2020-03-31T19:04:34.723Z"
  }
}