{
  "header": {
    "description": "Karaoke Mugen Tag File",
    "version": 1
  },
  "tag": {
    "i18n": {
      "eng": "Hidetoshi Satô"
    },
    "name": "Hidetoshi Satô",
    "tid": "b424ad69-c619-4537-bf0b-326737dda311",
    "types": [
      "songwriters",
      "8"
    ],
    "repository": "kara.moe",
    "modified_at": "2020-03-31T19:04:34.721Z"
  }
}