{
  "header": {
    "description": "Karaoke Mugen Tag File",
    "version": 1
  },
  "tag": {
    "i18n": {
      "eng": "Hideaki Yamano"
    },
    "name": "Hideaki Yamano",
    "tid": "58124101-7821-409b-bb10-fa87225ac4da",
    "types": [
      "songwriters",
      "8"
    ],
    "repository": "kara.moe",
    "modified_at": "2020-03-31T19:04:34.701Z"
  }
}