{
  "header": {
    "description": "Karaoke Mugen Tag File",
    "version": 1
  },
  "tag": {
    "i18n": {
      "eng": "Hideki Ayashi"
    },
    "name": "Hideki Ayashi",
    "tid": "56133b93-e9f0-4abc-86f6-dadf6779516c",
    "types": [
      "songwriters",
      "8"
    ],
    "repository": "kara.moe",
    "modified_at": "2020-03-31T19:04:34.704Z"
  }
}