{
  "header": {
    "description": "Karaoke Mugen Tag File",
    "version": 1
  },
  "tag": {
    "i18n": {
      "eng": "HIGH VOLTAGE"
    },
    "name": "HIGH VOLTAGE",
    "tid": "a2571cbd-4fa0-45e6-9ef6-a4e612596601",
    "types": [
      "singers",
      "2",
      "songwriters",
      "8"
    ],
    "repository": "kara.moe",
    "modified_at": "2020-03-31T19:04:34.727Z"
  }
}