{
  "header": {
    "description": "Karaoke Mugen Tag File",
    "version": 1
  },
  "tag": {
    "aliases": [
      "HSM"
    ],
    "i18n": {
      "eng": "High School Musical"
    },
    "modified_at": "2020-07-14T16:15:37.880Z",
    "name": "High School Musical",
    "repository": "kara.moe",
    "tid": "3d91b3cf-1935-44a3-ad9a-7b46f038a26e",
    "types": [
      "series",
      "1",
      "franchises",
      "18"
    ]
  }
}