{
  "header": {
    "description": "Karaoke Mugen Tag File",
    "version": 1
  },
  "tag": {
    "aliases": [
      "Hai-Furi",
      "HaiFuri",
      "Haifuri",
      "Highschool Fleet",
      "Морячки",
      "はいふり",
      "青春波紋"
    ],
    "external_database_ids": {
      "anilist": 21316,
      "myanimelist": 31500,
      "kitsu": 11346
    },
    "i18n": {
      "eng": "High School Fleet",
      "fre": "High School Fleet",
      "jpn": "ハイスクール・フリート",
      "ukr": "Дівчатка на Лінкорах",
      "qro": "High School Fleet"
    },
    "modified_at": "2020-03-31T19:04:31.699Z",
    "name": "High School Fleet",
    "repository": "kara.moe",
    "tid": "57ebf0f6-b58a-4f84-9869-e05af222cebb",
    "types": [
      "series",
      "1"
    ]
  }
}