{
  "header": {
    "description": "Karaoke Mugen Tag File",
    "version": 1
  },
  "tag": {
    "aliases": [
      "WTC",
      "When the Cicades Cry",
      "le sanglot des cigales",
      "HNNKN",
      "hinamisawa",
      "hinamizawa le village maudit"
    ],
    "external_database_ids": {
      "anilist": 131149,
      "myanimelist": 48488,
      "kitsu": 44184
    },
    "i18n": {
      "eng": "Higurashi: When They Cry – SOTSU",
      "fre": "Higurashi: When They Cry – Sotsu",
      "jpn": "ひぐらしのなく頃に卒",
      "qro": "Higurashi no Naku Koro ni Sotsu"
    },
    "modified_at": "2021-07-03T17:23:16.547Z",
    "name": "Higurashi no Naku Koro ni Sotsu",
    "repository": "kara.moe",
    "tid": "9931940b-5d52-42de-a33b-8af9b511be50",
    "types": [
      "series",
      "1"
    ]
  }
}