{
  "header": {
    "description": "Karaoke Mugen Tag File",
    "version": 1
  },
  "tag": {
    "i18n": {
      "eng": "Hikaru Koyama"
    },
    "modified_at": "2020-10-02T00:42:31.571Z",
    "name": "Hikaru Koyama",
    "repository": "kara.moe",
    "tid": "745bd748-a2f0-4d61-be67-eb09b426534a",
    "types": [
      "singers",
      "2"
    ]
  }
}