{
  "header": {
    "description": "Karaoke Mugen Tag File",
    "version": 1
  },
  "tag": {
    "i18n": {
      "eng": "Hikaru Nanase"
    },
    "name": "Hikaru Nanase",
    "tid": "11607b9a-15ff-48d2-ad0c-fecea7987880",
    "types": [
      "songwriters",
      "8"
    ],
    "repository": "kara.moe",
    "modified_at": "2020-03-31T19:04:34.738Z"
  }
}