{
  "header": {
    "description": "Karaoke Mugen Tag File",
    "version": 1
  },
  "tag": {
    "i18n": {
      "eng": "Hikura"
    },
    "name": "Hikura",
    "tid": "af3c7f21-61be-4d1e-af2a-d5ed4020e771",
    "types": [
      "songwriters",
      "8"
    ],
    "repository": "kara.moe",
    "modified_at": "2020-03-31T19:04:34.742Z"
  }
}