{
  "header": {
    "description": "Karaoke Mugen Tag File",
    "version": 1
  },
  "tag": {
    "i18n": {
      "eng": "Himi Izutsu"
    },
    "name": "Himi Izutsu",
    "tid": "4a9c485f-9bba-4239-a654-92e962008c7d",
    "types": [
      "songwriters",
      "8"
    ],
    "repository": "kara.moe",
    "modified_at": "2020-03-31T19:04:34.746Z"
  }
}