{
  "header": {
    "description": "Karaoke Mugen Tag File",
    "version": 1
  },
  "tag": {
    "aliases": [
      "Hina Matsuri"
    ],
    "external_database_ids": {
      "anilist": 100077,
      "myanimelist": 36296,
      "kitsu": 14018
    },
    "i18n": {
      "ara": "مهرجان هينا",
      "eng": "Hinamatsuri",
      "jpn": "ヒナまつり",
      "kor": "히나마츠리",
      "qro": "Hinamatsuri (2018)"
    },
    "modified_at": "2020-03-31T19:04:31.714Z",
    "name": "Hinamatsuri (2018)",
    "repository": "kara.moe",
    "tid": "d467a8d1-4b7d-4852-a917-6c5b943674d8",
    "types": [
      "series",
      "1"
    ]
  }
}