{
  "header": {
    "description": "Karaoke Mugen Tag File",
    "version": 1
  },
  "tag": {
    "i18n": {
      "eng": "Hinata Satô"
    },
    "name": "Hinata Satô",
    "tid": "bbf38c20-4ff8-46ca-8e23-55a71286f0ef",
    "types": [
      "singers",
      "2"
    ],
    "repository": "kara.moe",
    "modified_at": "2020-03-31T19:04:34.752Z"
  }
}