{
  "header": {
    "description": "Karaoke Mugen Tag File",
    "version": 1
  },
  "tag": {
    "i18n": {
      "eng": "Hinata Nekomiya"
    },
    "modified_at": "2020-04-04T15:49:42.179Z",
    "name": "Hinata Nekomiya",
    "repository": "kara.moe",
    "tid": "a9aee0d0-bd6c-4ea4-a3da-bd3691c4eac8",
    "types": [
      "singers",
      "2"
    ]
  }
}