{
  "header": {
    "description": "Karaoke Mugen Tag File",
    "version": 1
  },
  "tag": {
    "i18n": {
      "eng": "Hina"
    },
    "name": "Hina",
    "repository": "kara.moe",
    "tid": "fdfd22d2-7e17-4bcb-ae2d-2211063e3ac7",
    "types": [
      "songwriters",
      "8"
    ]
  }
}