{
  "header": {
    "description": "Karaoke Mugen Tag File",
    "version": 1
  },
  "tag": {
    "i18n": {
      "eng": "hirao"
    },
    "name": "hirao",
    "tid": "b63659c7-0e95-4a25-90e4-5dd5818b154e",
    "types": [
      "songwriters",
      "8"
    ],
    "repository": "kara.moe",
    "modified_at": "2020-03-31T19:04:34.754Z"
  }
}