{
  "header": {
    "description": "Karaoke Mugen Tag File",
    "version": 1
  },
  "tag": {
    "i18n": {
      "eng": "Hiroto Sasaki"
    },
    "name": "Hiroto Sasaki",
    "tid": "e7ec95c8-de28-4b12-a5c3-25dc13c2438e",
    "types": [
      "songwriters",
      "8"
    ],
    "repository": "kara.moe",
    "modified_at": "2020-03-31T19:04:34.823Z"
  }
}