{
  "header": {
    "description": "Karaoke Mugen Tag File",
    "version": 1
  },
  "tag": {
    "i18n": {
      "eng": "Hiro Nakajima"
    },
    "name": "Hiro Nakajima",
    "tid": "08791b4e-e11d-408f-9870-bbdea9a2d0c6",
    "types": [
      "singers",
      "2"
    ],
    "repository": "kara.moe",
    "modified_at": "2020-03-31T19:04:34.755Z"
  }
}