{
  "header": {
    "description": "Karaoke Mugen Tag File",
    "version": 1
  },
  "tag": {
    "i18n": {
      "eng": "Hirotaka Hayakawa"
    },
    "modified_at": "2020-09-16T02:27:42.799Z",
    "name": "Hirotaka Hayakawa",
    "repository": "kara.moe",
    "tid": "9485bb1c-6ade-4f32-9538-b0e687e8384d",
    "types": [
      "songwriters",
      "8"
    ]
  }
}