{
  "header": {
    "description": "Karaoke Mugen Tag File",
    "version": 1
  },
  "tag": {
    "i18n": {
      "eng": "Hiroaki Kagoshima"
    },
    "name": "Hiroaki Kagoshima",
    "repository": "kara.moe",
    "tid": "0ce4c0af-8590-4441-8f68-04cc634882f7",
    "types": [
      "songwriters",
      "8"
    ]
  }
}