{
  "header": {
    "description": "Karaoke Mugen Tag File",
    "version": 1
  },
  "tag": {
    "i18n": {
      "eng": "Hiroshi Ookubo"
    },
    "name": "Hiroshi Ookubo",
    "tid": "b4d39e95-8562-4354-bae8-07f2a83c4d74",
    "types": [
      "songwriters",
      "8"
    ],
    "repository": "kara.moe",
    "modified_at": "2020-03-31T19:04:34.813Z"
  }
}