{
  "header": {
    "description": "Karaoke Mugen Tag File",
    "version": 1
  },
  "tag": {
    "i18n": {
      "eng": "Hiromi Mizutani",
      "jpn": "水谷広実",
      "qro": "Hiromi Mizutani"
    },
    "name": "Hiromi Mizutani",
    "repository": "kara.moe",
    "tid": "3c90344c-6d6e-4ab1-95d0-b4c6e13f0ee1",
    "types": [
      "songwriters",
      "8"
    ]
  }
}