{
  "header": {
    "description": "Karaoke Mugen Tag File",
    "version": 1
  },
  "tag": {
    "i18n": {
      "eng": "Hiroko Yamasaki"
    },
    "name": "Hiroko Yamasaki",
    "tid": "f55fea58-b8e6-4059-b0de-f07b1b5d0cd8",
    "types": [
      "songwriters",
      "8"
    ],
    "repository": "kara.moe",
    "modified_at": "2020-03-31T19:04:34.785Z"
  }
}