{
  "header": {
    "description": "Karaoke Mugen Tag File",
    "version": 1
  },
  "tag": {
    "i18n": {
      "eng": "Hiroya Ishikawa"
    },
    "name": "Hiroya Ishikawa",
    "tid": "715e5225-2402-4077-96e8-100f4d319bd6",
    "types": [
      "songwriters",
      "8"
    ],
    "repository": "kara.moe",
    "modified_at": "2020-03-31T19:04:34.834Z"
  }
}