{
  "header": {
    "description": "Karaoke Mugen Tag File",
    "version": 1
  },
  "tag": {
    "i18n": {
      "eng": "Hiroko Taguchi"
    },
    "name": "Hiroko Taguchi",
    "tid": "cb188cd8-b358-4cba-b4eb-effb3af4e17e",
    "types": [
      "singers",
      "2"
    ],
    "repository": "kara.moe",
    "modified_at": "2020-03-31T19:04:34.783Z"
  }
}