{
  "header": {
    "description": "Karaoke Mugen Tag File",
    "version": 1
  },
  "tag": {
    "i18n": {
      "eng": "Hiromi Sakamoto"
    },
    "name": "Hiromi Sakamoto",
    "tid": "8fa2cf78-d837-4c97-9f83-f6c1c3606f8e",
    "types": [
      "songwriters",
      "8"
    ],
    "repository": "kara.moe",
    "modified_at": "2020-03-31T19:04:34.794Z"
  }
}