{
  "header": {
    "description": "Karaoke Mugen Tag File",
    "version": 1
  },
  "tag": {
    "i18n": {
      "eng": "Hiroko Kasahara"
    },
    "name": "Hiroko Kasahara",
    "tid": "6358a3fd-6a9b-43fc-a16c-7d90c44014a9",
    "types": [
      "singers",
      "2"
    ],
    "repository": "kara.moe",
    "modified_at": "2020-03-31T19:04:34.781Z"
  }
}