{
  "header": {
    "description": "Karaoke Mugen Tag File",
    "version": 1
  },
  "tag": {
    "i18n": {
      "eng": "Hiroshi Fujioka"
    },
    "name": "Hiroshi Fujioka",
    "tid": "10834757-440b-4908-b515-3dac4ba1aeef",
    "types": [
      "singers",
      "2"
    ],
    "repository": "kara.moe",
    "modified_at": "2020-03-31T19:04:34.804Z"
  }
}