{
  "header": {
    "description": "Karaoke Mugen Tag File",
    "version": 1
  },
  "tag": {
    "i18n": {
      "eng": "Hiroaki Yamashita"
    },
    "name": "Hiroaki Yamashita",
    "repository": "kara.moe",
    "tid": "4c88ac95-469e-44f5-90cd-d91b1a941741",
    "types": [
      "songwriters",
      "8"
    ]
  }
}