{
  "header": {
    "description": "Karaoke Mugen Tag File",
    "version": 1
  },
  "tag": {
    "i18n": {
      "eng": "Hiroko Asakawa"
    },
    "name": "Hiroko Asakawa",
    "tid": "41509295-bcc9-4028-9f34-8fe838ab143b",
    "types": [
      "singers",
      "2"
    ],
    "repository": "kara.moe",
    "modified_at": "2020-03-31T19:04:34.780Z"
  }
}