{
  "header": {
    "description": "Karaoke Mugen Tag File",
    "version": 1
  },
  "tag": {
    "i18n": {
      "eng": "Hiroki Yasumoto"
    },
    "name": "Hiroki Yasumoto",
    "tid": "8fc27710-e8d7-41b0-b1f4-8e2d1977f396",
    "types": [
      "singers",
      "2"
    ],
    "repository": "kara.moe",
    "modified_at": "2020-03-31T19:04:34.779Z"
  }
}