{
  "header": {
    "description": "Karaoke Mugen Tag File",
    "version": 1
  },
  "tag": {
    "i18n": {
      "eng": "Hiroko Taniyama"
    },
    "name": "Hiroko Taniyama",
    "tid": "0bd93d7b-8cbe-4ee5-9387-41c3c10e287b",
    "types": [
      "songwriters",
      "8"
    ],
    "repository": "kara.moe",
    "modified_at": "2020-03-31T19:04:34.783Z"
  }
}