{
  "header": {
    "description": "Karaoke Mugen Tag File",
    "version": 1
  },
  "tag": {
    "i18n": {
      "eng": "Hiroyuki Okita"
    },
    "name": "Hiroyuki Okita",
    "tid": "6375e8a9-b806-44b9-8060-96e41be0c398",
    "types": [
      "singers",
      "2"
    ],
    "repository": "kara.moe",
    "modified_at": "2020-03-31T19:04:34.842Z"
  }
}