{
  "header": {
    "description": "Karaoke Mugen Tag File",
    "version": 1
  },
  "tag": {
    "i18n": {
      "eng": "Hiroya Watanabe"
    },
    "name": "Hiroya Watanabe",
    "tid": "e08842e2-b741-4171-b228-e0c289acd9be",
    "types": [
      "songwriters",
      "8"
    ],
    "repository": "kara.moe",
    "modified_at": "2020-03-31T19:04:34.835Z"
  }
}