{
  "header": {
    "description": "Karaoke Mugen Tag File",
    "version": 1
  },
  "tag": {
    "i18n": {
      "eng": "Hirokazu Fujii",
      "jpn": "藤井宏一"
    },
    "modified_at": "2021-12-03T18:22:01.280Z",
    "name": "Hirokazu Fujii",
    "repository": "kara.moe",
    "tid": "f6753e44-7618-4da9-84fe-e4327d095ec5",
    "types": [
      "songwriters",
      "8"
    ]
  }
}