{
  "header": {
    "description": "Karaoke Mugen Tag File",
    "version": 1
  },
  "tag": {
    "i18n": {
      "eng": "hiroko"
    },
    "name": "hiroko",
    "tid": "18b06c3d-62b8-421b-8e51-f3a07a16487b",
    "types": [
      "songwriters",
      "8"
    ],
    "repository": "kara.moe",
    "modified_at": "2020-03-31T19:04:34.787Z"
  }
}