{
  "header": {
    "description": "Karaoke Mugen Tag File",
    "version": 1
  },
  "tag": {
    "i18n": {
      "eng": "Hiroya Ozaki"
    },
    "name": "Hiroya Ozaki",
    "tid": "ae0b48ee-80d4-4fec-b0ea-e6847f2d6c09",
    "types": [
      "singers",
      "2",
      "songwriters",
      "8"
    ],
    "repository": "kara.moe",
    "modified_at": "2020-03-31T19:04:34.835Z"
  }
}