{
  "header": {
    "description": "Karaoke Mugen Tag File",
    "version": 1
  },
  "tag": {
    "i18n": {
      "eng": "Hiro Shimono"
    },
    "name": "Hiro Shimono",
    "tid": "f19d7c44-48cb-4d7b-89f2-f85f332b8f02",
    "types": [
      "singers",
      "2"
    ],
    "repository": "kara.moe",
    "modified_at": "2020-03-31T19:04:34.758Z"
  }
}