{
  "header": {
    "description": "Karaoke Mugen Tag File",
    "version": 1
  },
  "tag": {
    "i18n": {
      "eng": "Hiromi Imakyûrei"
    },
    "name": "Hiromi Imakyûrei",
    "tid": "0ede7dd9-45f8-4b7d-b860-2882b14dc296",
    "types": [
      "songwriters",
      "8"
    ],
    "repository": "kara.moe",
    "modified_at": "2020-03-31T19:04:34.790Z"
  }
}