{
  "header": {
    "description": "Karaoke Mugen Tag File",
    "version": 1
  },
  "tag": {
    "i18n": {
      "eng": "Hiroaki Serizawa"
    },
    "name": "Hiroaki Serizawa",
    "repository": "kara.moe",
    "tid": "982a0ebd-a9c9-4731-aaff-735bc6b5bb83",
    "types": [
      "songwriters",
      "8",
      "singers",
      "2"
    ]
  }
}