{
  "header": {
    "description": "Karaoke Mugen Tag File",
    "version": 1
  },
  "tag": {
    "i18n": {
      "eng": "Hiroto Uyama"
    },
    "modified_at": "2020-09-27T12:05:13.322Z",
    "name": "Hiroto Uyama",
    "repository": "kara.moe",
    "tid": "6c834431-de81-4a6e-87d8-95f632a9267d",
    "types": [
      "songwriters",
      "8"
    ]
  }
}