{
  "header": {
    "description": "Karaoke Mugen Tag File",
    "version": 1
  },
  "tag": {
    "i18n": {
      "eng": "Hirofumi Asamoto"
    },
    "name": "Hirofumi Asamoto",
    "tid": "55cd560d-18e8-4f80-9106-cfe59d572456",
    "types": [
      "songwriters",
      "8"
    ],
    "repository": "kara.moe",
    "modified_at": "2020-03-31T19:04:34.769Z"
  }
}