{
  "header": {
    "description": "Karaoke Mugen Tag File",
    "version": 1
  },
  "tag": {
    "i18n": {
      "eng": "Hiromitsu Hosokawa"
    },
    "name": "Hiromitsu Hosokawa",
    "tid": "a50231a2-fb2c-4c7e-86f8-7d19dda59f73",
    "types": [
      "songwriters",
      "8"
    ],
    "repository": "kara.moe",
    "modified_at": "2020-03-31T19:04:34.796Z"
  }
}