{
  "header": {
    "description": "Karaoke Mugen Tag File",
    "version": 1
  },
  "tag": {
    "i18n": {
      "eng": "Hiroshi Takaki"
    },
    "name": "Hiroshi Takaki",
    "tid": "3c6f8d48-f577-4055-813a-6d962157f5c2",
    "types": [
      "songwriters",
      "8"
    ],
    "repository": "kara.moe",
    "modified_at": "2020-03-31T19:04:34.817Z"
  }
}