{
  "header": {
    "description": "Karaoke Mugen Tag File",
    "version": 1
  },
  "tag": {
    "i18n": {
      "eng": "Hiroo Yamaguchi"
    },
    "name": "Hiroo Yamaguchi",
    "tid": "d3b758f4-dc52-40d5-b672-121e3084d1b2",
    "types": [
      "songwriters",
      "8"
    ],
    "repository": "kara.moe",
    "modified_at": "2020-03-31T19:04:34.803Z"
  }
}