{
  "header": {
    "description": "Karaoke Mugen Tag File",
    "version": 1
  },
  "tag": {
    "i18n": {
      "eng": "Hiroshi Tada"
    },
    "modified_at": "2020-11-15T22:00:56.512Z",
    "name": "Hiroshi Tada",
    "repository": "kara.moe",
    "tid": "6f0b91f1-ea13-47d4-8e65-2a5c4af44f97",
    "types": [
      "songwriters",
      "8"
    ]
  }
}