{
  "header": {
    "description": "Karaoke Mugen Tag File",
    "version": 1
  },
  "tag": {
    "i18n": {
      "eng": "Hisashi Ikegami"
    },
    "name": "Hisashi Ikegami",
    "tid": "0a3b209f-3df7-4834-a4b8-dd7c2ba8ea1a",
    "types": [
      "songwriters",
      "8"
    ],
    "repository": "kara.moe",
    "modified_at": "2020-03-31T19:04:34.849Z"
  }
}