{
  "header": {
    "description": "Karaoke Mugen Tag File",
    "version": 1
  },
  "tag": {
    "i18n": {
      "eng": "Hisayo Mochizuki"
    },
    "name": "Hisayo Mochizuki",
    "tid": "1426de53-fe6d-4d77-ba5a-79f441006d27",
    "types": [
      "singers",
      "2"
    ],
    "repository": "kara.moe",
    "modified_at": "2020-03-31T19:04:34.852Z"
  }
}