{
  "header": {
    "description": "Karaoke Mugen Tag File",
    "version": 1
  },
  "tag": {
    "i18n": {
      "eng": "HISASHI (GLAY)"
    },
    "name": "HISASHI (GLAY)",
    "tid": "ec73e3ad-db7d-42f8-ab0f-1501f4579e7d",
    "types": [
      "songwriters",
      "8"
    ],
    "repository": "kara.moe",
    "modified_at": "2020-03-31T19:04:34.849Z"
  }
}