{
  "header": {
    "description": "Karaoke Mugen Tag File",
    "version": 1
  },
  "tag": {
    "i18n": {
      "eng": "Hisashi Koyama"
    },
    "name": "Hisashi Koyama",
    "tid": "dd79a5f5-bb54-4e7b-ba1a-ad3894d52bdc",
    "types": [
      "songwriters",
      "8"
    ],
    "repository": "kara.moe",
    "modified_at": "2020-03-31T19:04:34.851Z"
  }
}