{
  "header": {
    "description": "Karaoke Mugen Tag File",
    "version": 1
  },
  "tag": {
    "i18n": {
      "eng": "Hispa Vox"
    },
    "name": "Hispa Vox",
    "repository": "kara.moe",
    "tid": "b0c2158f-cf3e-46ac-8068-9bfe261fa16a",
    "types": [
      "creators",
      "4"
    ]
  }
}