{
  "header": {
    "description": "Karaoke Mugen Tag File",
    "version": 1
  },
  "tag": {
    "aliases": [
      "Hitomi Yuuki",
      "Hitomi Yûki",
      "又紀仁美",
      "つぶらや ひとみ"
    ],
    "i18n": {
      "eng": "Hitomi Tsuburaya",
      "jpn": "円谷 一美"
    },
    "modified_at": "2021-10-09T15:22:44.010Z",
    "name": "Hitomi Tsuburaya",
    "repository": "kara.moe",
    "tid": "14242d9f-8ad4-4277-b009-c0b294514f44",
    "types": [
      "songwriters",
      "8"
    ]
  }
}