{
  "header": {
    "description": "Karaoke Mugen Tag File",
    "version": 1
  },
  "tag": {
    "i18n": {
      "eng": "Hitoshizuku-P"
    },
    "name": "Hitoshizuku-P",
    "tid": "502f6283-cf5a-420c-bac4-a11e2c79f48c",
    "types": [
      "songwriters",
      "8"
    ],
    "repository": "kara.moe",
    "modified_at": "2020-03-31T19:04:34.869Z"
  }
}