{
  "header": {
    "description": "Karaoke Mugen Tag File",
    "version": 1
  },
  "tag": {
    "i18n": {
      "eng": "Hitomi Harada"
    },
    "name": "Hitomi Harada",
    "tid": "79976d07-c8b9-4cea-abef-3881b43ec97c",
    "types": [
      "singers",
      "2"
    ],
    "repository": "kara.moe",
    "modified_at": "2020-03-31T19:04:34.856Z"
  }
}