{
  "header": {
    "description": "Karaoke Mugen Tag File",
    "version": 1
  },
  "tag": {
    "aliases": [
      "Czajka: Księżniczka z trumną",
      "Гроб принцессы Чайки"
    ],
    "external_database_ids": {
      "anilist": 20462,
      "myanimelist": 20853,
      "kitsu": 8008
    },
    "i18n": {
      "chi": "棺姬嘉依卡",
      "eng": "Chaika: The Coffin Princess",
      "fre": "Chaika: The Coffin Princess",
      "ger": "Chaika, die Sargprinzessin",
      "jpn": "棺姫のチャイカ",
      "qro": "Hitsugi no Chaika"
    },
    "modified_at": "2020-03-31T19:04:31.720Z",
    "name": "Hitsugi no Chaika",
    "repository": "kara.moe",
    "tid": "4f23e9e3-c6b4-4085-afb7-2c4a78f8c5af",
    "types": [
      "series",
      "1",
      "franchises",
      "18"
    ]
  }
}