{
  "header": {
    "description": "Karaoke Mugen Tag File",
    "version": 1
  },
  "tag": {
    "i18n": {
      "eng": "Hiyoku wa Azami no Kanata e ~Kuon no Sou~",
      "jpn": "比翼は愛薊の彼方へ ～久遠の想～",
      "qro": "Hiyoku wa Azami no Kanata e ~Kuon no Sou~"
    },
    "modified_at": "2020-03-31T19:04:31.722Z",
    "name": "Hiyoku wa Azami no Kanata e ~Kuon no Sou~",
    "repository": "kara.moe",
    "tid": "2547ee11-2153-402b-9426-31cea1bc2506",
    "types": [
      "series",
      "1"
    ]
  }
}