{
  "header": {
    "description": "Karaoke Mugen Tag File",
    "version": 1
  },
  "tag": {
    "i18n": {
      "eng": "Hiyoku wa Azami no Kanata e -Renri no Yume-",
      "jpn": "比翼は愛薊の彼方へ ～連理の夢～",
      "qro": "Hiyoku wa Azami no Kanata e ～Renri no Yume～"
    },
    "modified_at": "2020-03-31T19:04:31.721Z",
    "name": "Hiyoku wa Azami no Kanata e ～Renri no Yume～",
    "repository": "kara.moe",
    "tid": "25610cda-a9c2-4a09-b775-0f5467ed1945",
    "types": [
      "series",
      "1"
    ]
  }
}