{
  "header": {
    "description": "Karaoke Mugen Tag File",
    "version": 1
  },
  "tag": {
    "i18n": {
      "eng": "Hiyoku wa Azami no Kanata e -Miryou no In-",
      "jpn": "比翼は愛薊の彼方へ ～未了の因～",
      "qro": "Hiyoku wa Azami no Kanata e ～Miryou no In～"
    },
    "modified_at": "2020-03-31T19:04:31.721Z",
    "name": "Hiyoku wa Azami no Kanata e ～Miryou no In～",
    "repository": "kara.moe",
    "tid": "40b775a5-dd45-4bb1-8455-954b7aa563c1",
    "types": [
      "series",
      "1"
    ]
  }
}