{
  "header": {
    "description": "Karaoke Mugen Tag File",
    "version": 1
  },
  "tag": {
    "i18n": {
      "eng": "Hololive Indonesia Generation 3"
    },
    "name": "Hololive Indonesia Generation 3",
    "repository": "kara.moe",
    "tid": "3b7034a4-7380-4af0-a137-b322a73f4592",
    "types": [
      "singergroups",
      "17"
    ]
  }
}