{
  "header": {
    "description": "Karaoke Mugen Tag File",
    "version": 1
  },
  "tag": {
    "aliases": [
      "holoMyth"
    ],
    "external_database_ids": {},
    "i18n": {
      "eng": "Hololive English -Myth-"
    },
    "name": "Hololive English -Myth-",
    "repository": "kara.moe",
    "tid": "5c83d7a6-79b4-414a-b8f2-58d1be9ff2a3",
    "types": [
      "singergroups",
      "17"
    ]
  }
}