{
  "header": {
    "description": "Karaoke Mugen Tag File",
    "version": 1
  },
  "tag": {
    "aliases": [
      "Adventurer's Guild",
      "冒険者ギルド"
    ],
    "external_database_ids": {},
    "i18n": {
      "eng": "HOLOSTARS English -TEMPUS-",
      "jpn": "HOLOSTARS English -テンパス-"
    },
    "name": "HOLOSTARS English -TEMPUS-",
    "repository": "kara.moe",
    "tid": "a252b05d-d343-4fba-ae2b-236d232b7bbb",
    "types": [
      "singergroups",
      "17"
    ]
  }
}