{
  "header": {
    "description": "Karaoke Mugen Tag File",
    "version": 1
  },
  "tag": {
    "i18n": {
      "eng": "Homard"
    },
    "modified_at": "2020-07-31T21:50:03.392Z",
    "name": "Homard",
    "repository": "kara.moe",
    "tid": "1b2f4ffc-ba49-4646-9eab-d19abe7e4081",
    "types": [
      "authors",
      "6"
    ]
  }
}