{
  "header": {
    "description": "Karaoke Mugen Tag File",
    "version": 1
  },
  "tag": {
    "external_database_ids": {
      "anilist": 21795,
      "myanimelist": 33241,
      "kitsu": 12197
    },
    "i18n": {
      "eng": "Honobono Log",
      "jpn": "ほのぼのログ",
      "qro": "Honobono Log"
    },
    "modified_at": "2020-04-18T20:45:49.534Z",
    "name": "Honobono Log",
    "repository": "kara.moe",
    "tid": "95eb5fce-9e7b-4e42-a22c-c5f962d8c883",
    "types": [
      "series",
      "1"
    ]
  }
}