{
  "header": {
    "description": "Karaoke Mugen Tag File",
    "version": 1
  },
  "tag": {
    "aliases": [
      "Honzuki no Gekokujô",
      "I'll do anything to become a librarian"
    ],
    "external_database_ids": {
      "anilist": 108268,
      "myanimelist": 39468,
      "kitsu": 42241
    },
    "i18n": {
      "eng": "Ascendance of a Bookworm",
      "jpn": "本好きの下剋上 司書になるためには手段を選んでいられません",
      "qro": "Honzuki no Gekokujou: Shisho ni Naru Tame ni wa Shudan o Erande Iraremasen"
    },
    "modified_at": "2020-03-31T19:04:31.725Z",
    "name": "Honzuki no Gekokujou: Shisho ni Naru Tame ni wa Shudan o Erande Iraremasen",
    "repository": "kara.moe",
    "tid": "ff98a446-4c9a-47a0-9b50-0798406de173",
    "types": [
      "series",
      "1"
    ]
  }
}