{
  "header": {
    "description": "Karaoke Mugen Tag File",
    "version": 1
  },
  "tag": {
    "i18n": {
      "eng": "Hoshino Yasuhiko"
    },
    "name": "Hoshino Yasuhiko",
    "tid": "528a1a29-73a6-4df8-b430-f08eb39bd447",
    "types": [
      "songwriters",
      "8"
    ],
    "repository": "kara.moe",
    "modified_at": "2020-03-31T19:04:34.884Z"
  }
}