{
  "header": {
    "description": "Karaoke Mugen Tag File",
    "version": 1
  },
  "tag": {
    "i18n": {
      "eng": "hotaru"
    },
    "name": "hotaru",
    "tid": "78fa17da-da22-49d1-bdd6-577a0ae659a6",
    "types": [
      "songwriters",
      "8",
      "creators",
      "4"
    ],
    "repository": "kara.moe",
    "modified_at": "2020-03-31T19:04:34.886Z"
  }
}