{
  "header": {
    "description": "Karaoke Mugen Tag File",
    "version": 1
  },
  "tag": {
    "i18n": {
      "afr": "Kroaties",
      "amh": "ክሮሽያንኛ",
      "ara": "الكرواتي",
      "aze": "Xorvat",
      "bak": "Хорват теле",
      "bel": "Харвацкая",
      "bul": "Хърватски",
      "ben": "ক্রোয়েশিয়ান",
      "bos": "Hrvatski",
      "cat": "Croàcia",
      "cze": "Chorvatština",
      "wel": "Kuna",
      "dan": "Kroatisk",
      "ger": "Kroatisch",
      "gre": "Κροατικά",
      "eng": "Croatian",
      "epo": "Kroata",
      "spa": "El croata",
      "est": "Horvaatia",
      "baq": "Kroaziako",
      "per": "کرواتی",
      "fin": "Kroatian",
      "fre": "Croate",
      "gle": "Cróitis",
      "gla": "Cròthaisis",
      "glg": "Croata",
      "guj": "Croatian",
      "heb": "הקרואטי",
      "hin": "क्रोएशियाई",
      "hrv": "Hrvatski",
      "hat": "Kwoasyen",
      "hun": "Horvát",
      "arm": "Խորվաթերեն",
      "ind": "Kroasia",
      "ice": "Króatisku",
      "ita": "Croato",
      "jpn": "クロアチア",
      "jav": "Kroasia",
      "geo": "ხორვატიის",
      "kaz": "Хорват",
      "kan": "ಕ್ರೊಯೇಶಿಯನ್",
      "kor": "크로아티아",
      "kir": "Хорватский",
      "lat": "Croatian",
      "lit": "Kroatų",
      "lav": "Horvātu",
      "mlg": "Tsy",
      "mao": "Croatian",
      "mac": "Хрватски",
      "mal": "ക്രൊയേഷ്യൻ",
      "mon": "Хорват",
      "mar": "Croatian",
      "may": "Croatia",
      "mlt": "Kroati",
      "nep": "क्रोएशियाई",
      "dut": "Het kroatisch",
      "nor": "Kroatiske",
      "pan": "ਕ੍ਰੋਏਸ਼ੀ",
      "pol": "Chorwacki",
      "por": "Croata",
      "rum": "Croată",
      "rus": "Хорватский",
      "sin": "ක්රොඒෂියානු",
      "slo": "Chorvátsky",
      "slv": "Hrvaški",
      "alb": "Kroate",
      "srp": "Хрватски",
      "sun": "Kroasia",
      "swe": "Kroatiska",
      "swa": "Croatian",
      "tam": "குரோஷியன்",
      "tel": "Croatian",
      "tgk": "Рақиби хорватия",
      "tha": "ภาษาโครเอเชีย name",
      "tgl": "Croatian",
      "tur": "Hırvat",
      "tat": "Хорват теле",
      "ukr": "Хорватська",
      "urd": "کراتی",
      "uzb": "Xorvatiya",
      "vie": "Croatia",
      "xho": "I-croatian",
      "yid": "קראָאַטיש",
      "chi": "克罗地亚"
    },
    "name": "hrv",
    "tid": "2a4c7e62-2f94-4d5e-befe-0075312c1122",
    "types": [
      "langs",
      "5"
    ],
    "repository": "kara.moe",
    "modified_at": "2020-03-31T19:04:34.892Z"
  }
}