{
  "header": {
    "description": "Karaoke Mugen Tag File",
    "version": 1
  },
  "tag": {
    "aliases": [
      "Huening Kai"
    ],
    "i18n": {
      "eng": "Kai Kamal Huening",
      "kor": "정카이",
      "qro": "Jung Kai",
      "chi": "休宁凯"
    },
    "name": "Huening Kai",
    "repository": "kara.moe",
    "tid": "0e7d9e0a-3bc4-4c44-ac1a-5f87db5876b5",
    "types": [
      "singers",
      "2"
    ]
  }
}