{
  "header": {
    "description": "Karaoke Mugen Tag File",
    "version": 1
  },
  "tag": {
    "i18n": {
      "eng": "Human Corporation"
    },
    "name": "Human Corporation",
    "tid": "c443758d-7d30-4e50-8b73-fb22bb5bbc1f",
    "types": [
      "creators",
      "4"
    ],
    "repository": "kara.moe",
    "modified_at": "2020-03-31T19:04:34.894Z"
  }
}