{
  "header": {
    "description": "Karaoke Mugen Tag File",
    "version": 1
  },
  "tag": {
    "aliases": [
      "قلب گشنه: استرایکر وحشی",
      "hhws"
    ],
    "external_database_ids": {
      "anilist": 17,
      "myanimelist": 17,
      "kitsu": 8
    },
    "i18n": {
      "eng": "Hungry Heart: Wild Striker",
      "fre": "Hungry Heart - Wild Striker",
      "ita": "La squadra del cuore",
      "jpn": "ハングリーハート Wild Striker",
      "per": "قلب تشنه: گلزن وحشی",
      "por": "Hungry Heart",
      "tur": "Şimşek Santrafor",
      "qro": "Hungry Heart: Wild Striker"
    },
    "modified_at": "2021-08-21T17:34:38.517Z",
    "name": "Hungry Heart: Wild Striker",
    "repository": "kara.moe",
    "tid": "38ecb7c7-8847-4e22-acc6-1c2615ce5d65",
    "types": [
      "series",
      "1"
    ]
  }
}