{
  "header": {
    "description": "Karaoke Mugen Tag File",
    "version": 1
  },
  "tag": {
    "aliases": [
      "ハンターｘハンター",
      "HxH",
      "HUNTER x HUNTER"
    ],
    "external_database_ids": {},
    "i18n": {
      "eng": "HUNTER×HUNTER"
    },
    "name": "Hunter X Hunter",
    "repository": "kara.moe",
    "tid": "8a811862-b8d8-4f58-a6b0-316fc3e6cf3a",
    "types": [
      "franchises",
      "18"
    ]
  }
}