{
  "header": {
    "description": "Karaoke Mugen Tag File",
    "version": 1
  },
  "tag": {
    "aliases": [
      "HxH 2011",
      "hunterxhunter",
      "hxh2",
      "Ловец по Ловец (2011)",
      "Ловец срещу Ловец (2011)",
      "Охотник х Охотник (2011)",
      "ハンター×ハンター (2011)"
    ],
    "external_database_ids": {
      "anilist": 11061,
      "myanimelist": 11061,
      "kitsu": 6448
    },
    "i18n": {
      "ara": "(القناص (2011",
      "eng": "Hunter × Hunter (2011)",
      "fre": "Hunter × Hunter (2011)",
      "jpn": "HUNTERxHUNTER (2011)",
      "qro": "Hunter X Hunter (2011)"
    },
    "modified_at": "2020-03-31T19:04:31.737Z",
    "name": "Hunter X Hunter (2011)",
    "repository": "kara.moe",
    "tid": "3a07157b-351d-48d0-820c-ab1c5cc49d87",
    "types": [
      "series",
      "1"
    ]
  }
}