{
  "header": {
    "description": "Karaoke Mugen Tag File",
    "version": 1
  },
  "tag": {
    "aliases": [
      "Hyouge Mono",
      "Чудные вещи",
      "hyouge"
    ],
    "external_database_ids": {
      "anilist": 9996,
      "myanimelist": 9996,
      "kitsu": 5985
    },
    "i18n": {
      "eng": "Hyoge Mono",
      "fre": "Hyôge Mono",
      "jpn": "へうげもの",
      "qro": "Hyôge Mono"
    },
    "modified_at": "2020-03-31T19:04:31.746Z",
    "name": "Hyôge Mono",
    "repository": "kara.moe",
    "tid": "ae822636-9ec8-4d1f-8c2b-6dbf2db129f5",
    "types": [
      "series",
      "1"
    ]
  }
}