{
  "header": {
    "description": "Karaoke Mugen Tag File",
    "version": 1
  },
  "tag": {
    "aliases": [
      "Choujijigen Game Neptune"
    ],
    "external_database_ids": {},
    "i18n": {
      "eng": "Hyperdimension Neptunia",
      "jpn": "超次元ゲイム ネプテューヌ",
      "qro": "Chôjijigen Game Neptune"
    },
    "name": "Hyperdimension Neptunia",
    "repository": "kara.moe",
    "tid": "5a46a354-d3bd-417b-98f2-0abd1ac1c7c0",
    "types": [
      "franchises",
      "18"
    ]
  }
}