{
  "header": {
    "description": "Karaoke Mugen Tag File",
    "version": 1
  },
  "tag": {
    "aliases": [
      "Hyun A",
      "Kim Hyuna",
      "김현아"
    ],
    "i18n": {
      "eng": "HyunA"
    },
    "name": "HyunA",
    "tid": "eab8b9ae-cf0b-4c8d-ad9e-bf9ecb5c29b6",
    "types": [
      "singers",
      "2"
    ],
    "repository": "kara.moe",
    "modified_at": "2020-03-31T19:04:34.904Z"
  }
}