{
  "header": {
    "description": "Karaoke Mugen Tag File",
    "version": 1
  },
  "tag": {
    "i18n": {
      "eng": "I★Chu Leaders"
    },
    "name": "I★Chu Leaders",
    "repository": "kara.moe",
    "tid": "29a2b2c6-030b-4f89-97ee-3d8019f5fa1d",
    "types": [
      "singers",
      "2"
    ]
  }
}