{
  "header": {
    "description": "Karaoke Mugen Tag File",
    "version": 1
  },
  "tag": {
    "aliases": [
      "AMMSE",
      "Ai Mai Mi ! Strawberry Egg",
      "IMMSE"
    ],
    "external_database_ids": {
      "anilist": 509,
      "myanimelist": 509,
      "kitsu": 468
    },
    "i18n": {
      "eng": "I My Me! Strawberry Eggs",
      "jpn": "あぃまぃみぃ! ストロベリー・エッグ",
      "rus": "Ну и ну! Земляничные яйца",
      "qro": "I My Me! Strawberry Eggs"
    },
    "modified_at": "2020-03-31T19:04:31.749Z",
    "name": "I My Me! Strawberry Eggs",
    "repository": "kara.moe",
    "tid": "754264fd-6f94-496b-96ff-0afc76df3472",
    "types": [
      "series",
      "1"
    ]
  }
}