{
  "header": {
    "description": "Karaoke Mugen Tag File",
    "version": 1
  },
  "tag": {
    "i18n": {
      "eng": "Ibiza Records"
    },
    "modified_at": "2021-10-10T19:04:23.861Z",
    "name": "Ibiza Records",
    "repository": "kara.moe",
    "tid": "edfb15d4-63c9-47c5-b646-7831fc1b7919",
    "types": [
      "creators",
      "4"
    ]
  }
}