{
  "header": {
    "description": "Karaoke Mugen Tag File",
    "version": 1
  },
  "tag": {
    "i18n": {
      "eng": "icemega5"
    },
    "name": "icemega5",
    "tid": "e9f908f1-b4c4-48b0-8273-73e2e4cf07fb",
    "types": [
      "creators",
      "4"
    ],
    "repository": "kara.moe",
    "modified_at": "2020-03-31T19:04:34.912Z"
  }
}