{
  "header": {
    "description": "Karaoke Mugen Tag File",
    "version": 1
  },
  "tag": {
    "i18n": {
      "eng": "Ichirô Hada"
    },
    "name": "Ichirô Hada",
    "tid": "54a0300f-07ac-410e-9472-414f4f5eefd3",
    "types": [
      "songwriters",
      "8"
    ],
    "repository": "kara.moe",
    "modified_at": "2020-03-31T19:04:34.921Z"
  }
}