{
  "header": {
    "description": "Karaoke Mugen Tag File",
    "version": 1
  },
  "tag": {
    "i18n": {
      "eng": "Ichinoki Yuki "
    },
    "name": "Ichinoki Yuki ",
    "repository": "kara.moe",
    "tid": "f1a11453-c7d1-434f-935e-139e3633691f",
    "types": [
      "singers",
      "2"
    ]
  }
}