{
  "header": {
    "description": "Karaoke Mugen Tag File",
    "version": 1
  },
  "tag": {
    "i18n": {
      "eng": "Ichigo Ushimi"
    },
    "name": "Ichigo Ushimi",
    "repository": "kara.moe",
    "tid": "6e370dc5-478c-4399-b9e9-e0b7ecffd949",
    "types": [
      "singers",
      "2"
    ]
  }
}