{
  "header": {
    "description": "Karaoke Mugen Tag File",
    "version": 1
  },
  "tag": {
    "i18n": {
      "eng": "Ichiro Yamamoto"
    },
    "name": "Ichiro Yamamoto",
    "tid": "ce79931e-1b84-43ca-9777-c8ad6b89a5b1",
    "types": [
      "singers",
      "2"
    ],
    "repository": "kara.moe",
    "modified_at": "2020-03-31T19:04:34.920Z"
  }
}