{
  "header": {
    "description": "Karaoke Mugen Tag File",
    "version": 1
  },
  "tag": {
    "i18n": {
      "eng": "Ichinen Miura"
    },
    "name": "Ichinen Miura",
    "tid": "936578a6-2733-468a-92be-8b7418cebbc6",
    "types": [
      "songwriters",
      "8"
    ],
    "repository": "kara.moe",
    "modified_at": "2020-03-31T19:04:34.918Z"
  }
}