{
  "header": {
    "description": "Karaoke Mugen Tag File",
    "version": 1
  },
  "tag": {
    "i18n": {
      "eng": "Ichi Column"
    },
    "name": "Ichi Column",
    "tid": "91a97d60-e2a9-4c01-8b27-c3300e59f30c",
    "types": [
      "creators",
      "4"
    ],
    "repository": "kara.moe",
    "modified_at": "2020-03-31T19:04:34.914Z"
  }
}