{
  "header": {
    "description": "Karaoke Mugen Tag File",
    "version": 1
  },
  "tag": {
    "i18n": {
      "eng": "Ichirô Mizuki"
    },
    "name": "Ichirô Mizuki",
    "tid": "59a38148-e0a8-43df-b149-a6118d9f2d4d",
    "types": [
      "singers",
      "2"
    ],
    "repository": "kara.moe",
    "modified_at": "2020-03-31T19:04:34.923Z"
  }
}