{
  "header": {
    "description": "Karaoke Mugen Tag File",
    "version": 1
  },
  "tag": {
    "i18n": {
      "eng": "Ichirô Tomita"
    },
    "name": "Ichirô Tomita",
    "tid": "839d75e8-94b4-4fdb-8701-f5e7a67acbd3",
    "types": [
      "singers",
      "2"
    ],
    "repository": "kara.moe",
    "modified_at": "2020-03-31T19:04:34.924Z"
  }
}