{
  "header": {
    "description": "Karaoke Mugen Tag File",
    "version": 1
  },
  "tag": {
    "i18n": {
      "eng": "Ichinoryu Uehara"
    },
    "name": "Ichinoryu Uehara",
    "tid": "7f62763f-2aa5-4a26-b3c2-27621b1582d3",
    "types": [
      "songwriters",
      "8"
    ],
    "repository": "kara.moe",
    "modified_at": "2020-03-31T19:04:34.918Z"
  }
}