{
  "header": {
    "description": "Karaoke Mugen Tag File",
    "version": 1
  },
  "tag": {
    "i18n": {
      "eng": "ICO",
      "jpn": "ICO",
      "qro": "ICO"
    },
    "modified_at": "2020-03-31T19:04:31.752Z",
    "name": "ICO",
    "repository": "kara.moe",
    "tid": "8f800776-e90c-4a6c-829f-6253c64cc3d8",
    "types": [
      "series",
      "1"
    ]
  }
}