{
  "header": {
    "description": "Karaoke Mugen Tag File",
    "version": 1
  },
  "tag": {
    "external_database_ids": {
      "anilist": 97618,
      "myanimelist": 34028,
      "kitsu": 12596
    },
    "i18n": {
      "chi": "偶像事变",
      "eng": "Idol Incidents",
      "fre": "Idol Jihen",
      "jpn": "アイドル事変",
      "qro": "Idol Jihen"
    },
    "modified_at": "2020-03-31T19:04:31.753Z",
    "name": "Idol Jihen",
    "repository": "kara.moe",
    "tid": "db847cd2-6bf7-4e2e-886d-3b86e1bbbfbd",
    "types": [
      "series",
      "1"
    ]
  }
}