{
  "header": {
    "description": "Karaoke Mugen Tag File",
    "version": 1
  },
  "tag": {
    "aliases": [
      "idol+college"
    ],
    "i18n": {
      "eng": "Idol College",
      "jpn": "アイドルカレッジ",
      "qro": "Idol College"
    },
    "name": "Idol College",
    "repository": "kara.moe",
    "tid": "3a1c20c6-6a50-4daa-94a1-b35f4a34fa54",
    "types": [
      "singers",
      "2"
    ]
  }
}