{
  "header": {
    "description": "Karaoke Mugen Tag File",
    "version": 1
  },
  "tag": {
    "aliases": [
      "III : Sound Create Unit"
    ],
    "i18n": {
      "eng": "III",
      "jpn": "III"
    },
    "modified_at": "2021-10-21T08:34:35.540Z",
    "name": "III",
    "repository": "kara.moe",
    "tid": "0c719a2d-9302-42ca-8be1-70bb1c5b56cf",
    "types": [
      "songwriters",
      "8",
      "creators",
      "4"
    ]
  }
}