{
  "header": {
    "description": "Karaoke Mugen Tag File",
    "version": 1
  },
  "tag": {
    "aliases": [
      "Please don't bully me, Nagatoro"
    ],
    "external_database_ids": {
      "anilist": 120697,
      "myanimelist": 42361,
      "kitsu": 43271
    },
    "i18n": {
      "eng": "Don't Toy with Me, Miss Nagatoro",
      "jpn": "イジらないで、長瀞さん",
      "fre": "Arrête de me chauffer, Nagatoro",
      "qro": "Ijiranaide, Nagatoro-san"
    },
    "modified_at": "2021-04-12T23:19:04.879Z",
    "name": "Ijiranaide, Nagatoro-san",
    "repository": "kara.moe",
    "tid": "5537c775-72f3-4f50-b66f-d6108bebd12b",
    "types": [
      "series",
      "1"
    ]
  }
}