{
  "header": {
    "description": "Karaoke Mugen Tag File",
    "version": 1
  },
  "tag": {
    "aliases": [
      "Ikkitousen 3",
      "Ikkitousen: Great Guardians",
      "igg",
      "ikki3",
      "ikkitousen"
    ],
    "external_database_ids": {
      "anilist": 4196,
      "myanimelist": 4196,
      "kitsu": 3516
    },
    "i18n": {
      "eng": "Ikki Tosen: Great Guardians",
      "fre": "Ikki Tôsen : Great Guardians",
      "ger": "Ikki Tousen: Great Guardians",
      "jpn": "一騎当千 Great Guardians",
      "qro": "Ikkitôsen: Great Guardians"
    },
    "modified_at": "2020-03-31T19:04:31.762Z",
    "name": "Ikkitôsen: Great Guardians",
    "repository": "kara.moe",
    "tid": "d09efdcf-72d9-41bd-8439-1f164fd58d6c",
    "types": [
      "series",
      "1"
    ]
  }
}