{
  "header": {
    "description": "Karaoke Mugen Tag File",
    "version": 1
  },
  "tag": {
    "aliases": [
      "Ikkyu the Little Monk",
      "Ikkyuu-san",
      "Mister Ikkyu",
      "The Cunning Monk",
      "機靈小和尚",
      "ikkyuu-san"
    ],
    "external_database_ids": {
      "anilist": 19947,
      "myanimelist": 19947,
      "kitsu": 9865
    },
    "i18n": {
      "ara": "إيكوسان",
      "chi": "一休和尚",
      "eng": "Ikkyu the Little Monk",
      "fre": "Ikkyû the Little Monk",
      "ita": "Il piccolo bonzo",
      "jpn": "一休さん",
      "tha": "อิคคิวซัง เณรน้อยเจ้าปัญญา",
      "qro": "Ikkyû-san"
    },
    "modified_at": "2020-03-31T19:04:31.764Z",
    "name": "Ikkyû-san",
    "repository": "kara.moe",
    "tid": "3992e096-89f6-4238-8582-90784e988ad0",
    "types": [
      "series",
      "1"
    ]
  }
}