{
  "header": {
    "description": "Karaoke Mugen Tag File",
    "version": 1
  },
  "tag": {
    "i18n": {
      "eng": " Ikumi Hasegawa"
    },
    "name": " Ikumi Hasegawa",
    "repository": "kara.moe",
    "tid": "3612666b-1c13-4d11-8211-718aff40d7ad",
    "types": [
      "singers",
      "2"
    ]
  }
}