{
  "header": {
    "description": "Karaoke Mugen Tag File",
    "version": 1
  },
  "tag": {
    "aliases": [
      "Inazuma 11",
      "Inazuma Eleven GO 2",
      "Inazuma Eleven GO 2: Chrono Stone",
      "inago cs"
    ],
    "external_database_ids": {
      "anilist": 13261,
      "myanimelist": 13261,
      "kitsu": 6927
    },
    "i18n": {
      "eng": "Inazuma Eleven GO! Chrono Stone",
      "jpn": "イナズマイレブンGO クロノ・ストーン",
      "por": "Inazuma Eleven GO! Chrono Stone",
      "qro": "Inazuma Eleven Go: Chrono Stone"
    },
    "modified_at": "2020-03-31T19:04:31.771Z",
    "name": "Inazuma Eleven Go: Chrono Stone",
    "repository": "kara.moe",
    "tid": "4296da6d-c736-4679-bc6c-6d73994feca0",
    "types": [
      "series",
      "1"
    ]
  }
}