{
  "header": {
    "description": "Karaoke Mugen Tag File",
    "version": 1
  },
  "tag": {
    "aliases": [
      "Bahasa Indonesia"
    ],
    "i18n": {
      "afr": "Indonesiese",
      "alb": "Indonezian",
      "amh": "ኢንዶኔዥያ",
      "ara": "الإندونيسية",
      "arm": "Ինդոնեզերեն",
      "aze": "İndoneziya",
      "bak": "Индонезия теле",
      "baq": "Indonesian",
      "bel": "Інданезійская",
      "ben": "ইন্দোনেশিয়ান",
      "bos": "Indonezijski",
      "bul": "На индонезийски",
      "cat": "Indonèsia",
      "chi": "印度尼西亚",
      "cze": "Indonéština",
      "dan": "Indonesiske",
      "dut": "Indonesisch",
      "eng": "Indonesian",
      "epo": "Indoneziaj",
      "est": "Indoneesia",
      "fin": "Indonesian",
      "fre": "Indonésien",
      "geo": "ინდონეზიის",
      "ger": "Indonesisch",
      "gla": "Innd-innsis",
      "gle": "Indinéisis",
      "glg": "Indonesio",
      "gre": "Ινδονησιακά",
      "guj": "ઇન્ડોનેશિયન",
      "hat": "Endonezyen",
      "heb": "אינדונזי",
      "hin": "इन्डोनेशियाई",
      "hrv": "Indonezijski",
      "hun": "Indonéz",
      "ice": "Indónesíu",
      "ind": "Indonesia",
      "ita": "Indonesiano",
      "jav": "Indonesia",
      "jpn": "インドネシア",
      "kan": "ಇಂಡೋನೇಶಿಯನ್",
      "kaz": "Индонезиялық",
      "kir": "Индонезийский",
      "kor": "인도네시아",
      "lat": "Dui",
      "lav": "Indonēzijas",
      "lit": "Indonezijos",
      "mac": "Индонезиски",
      "mal": "ഇന്തോനേഷ്യൻ",
      "mao": "Indonesian",
      "mar": "इंडोनेशियन",
      "may": "Indonesia",
      "mlg": "Indoneziana",
      "mlt": "Indoneżjan",
      "mon": "Индонезийн",
      "nep": "इन्डोनेसियाली",
      "nor": "Indonesisk",
      "pan": "ਇੰਡੋਨੇਸ਼ੀਆਈ",
      "per": "اندونزی",
      "pol": "Indonezyjski",
      "por": "Indonésia",
      "rum": "Indoneziană",
      "rus": "Индонезийский",
      "sin": "ඉන්දුනීසියානු",
      "slo": "Indonézsky",
      "slv": "Indonezijski",
      "spa": "Indonesia",
      "srp": "Мађарски",
      "sun": "Indonésia",
      "swa": "Indonesian",
      "swe": "Indonesiska",
      "tam": "இந்தோனேசிய",
      "tat": "Индонезия теле",
      "tel": "ఇండోనేషియన్",
      "tgk": "Индонезия",
      "tgl": "Indonesian",
      "tha": "ภาษาอินโดนีเซีย name",
      "tur": "Endonezya",
      "ukr": "Індонезійська",
      "urd": "انڈونیشیا",
      "uzb": "Indonez",
      "vie": "Indonesia",
      "wel": "Indonesia",
      "xho": "Isi-indonesian",
      "yid": "Indonesian"
    },
    "modified_at": "2020-09-19T09:43:02.428Z",
    "name": "ind",
    "repository": "kara.moe",
    "tid": "f7ec4ec8-e091-4f54-8f7c-ddf5d70fd458",
    "types": [
      "langs",
      "5"
    ]
  }
}