{
  "header": {
    "description": "Karaoke Mugen Tag File",
    "version": 1
  },
  "tag": {
    "external_database_ids": {
      "anilist": 19613,
      "myanimelist": 22507,
      "kitsu": 8482
    },
    "i18n": {
      "eng": "Initial D Final Stage",
      "jpn": "頭文字D Final Stage"
    },
    "name": "Initial D Final Stage",
    "repository": "kara.moe",
    "tid": "2e537945-adb5-4d53-9863-978a1146d60c",
    "types": [
      "series",
      "1"
    ]
  }
}