{
  "header": {
    "description": "Karaoke Mugen Tag File",
    "version": 1
  },
  "tag": {
    "i18n": {
      "eng": "Innocent Key"
    },
    "name": "Innocent Key",
    "tid": "7e1e37c1-466f-40a7-bc6c-ba05a54db9e1",
    "types": [
      "creators",
      "4",
      "singers",
      "2",
      "songwriters",
      "8"
    ],
    "repository": "kara.moe",
    "modified_at": "2020-03-31T19:04:34.966Z"
  }
}