{
  "header": {
    "description": "Karaoke Mugen Tag File",
    "version": 1
  },
  "tag": {
    "i18n": {
      "eng": "Innocent Bullet: the false world",
      "jpn": "イノセントバレット -the false world-",
      "qro": "Innocent Bullet -the false world-"
    },
    "modified_at": "2020-03-31T19:04:31.782Z",
    "name": "Innocent Bullet -the false world-",
    "repository": "kara.moe",
    "tid": "7ec20ecf-039a-4a30-b778-bdbe56975d0b",
    "types": [
      "series",
      "1"
    ]
  }
}