{
  "header": {
    "description": "Karaoke Mugen Tag File",
    "version": 1
  },
  "tag": {
    "aliases": [
      "inuboku",
      "سگ و من: سرویس مخفی",
      "いぬぼく"
    ],
    "external_database_ids": {
      "anilist": 11013,
      "myanimelist": 11013,
      "kitsu": 6439
    },
    "i18n": {
      "chi": "妖狐×仆SS",
      "eng": "Inu x Boku: Secret Service",
      "fre": "Secret Service : Maison de Ayakashi",
      "jpn": "妖狐×僕SS[いぬ×ぼく シークレットサービス]",
      "qro": "Inu x Boku SS"
    },
    "modified_at": "2020-06-21T23:45:31.966Z",
    "name": "Inu x Boku SS",
    "repository": "kara.moe",
    "tid": "62a25f28-f51d-496f-b350-c71d418776ad",
    "types": [
      "series",
      "1"
    ]
  }
}