{
  "header": {
    "description": "Karaoke Mugen Tag File",
    "version": 1
  },
  "tag": {
    "i18n": {
      "eng": "Iori Yamamoto"
    },
    "modified_at": "2021-03-18T22:29:22.871Z",
    "name": "Iori Yamamoto",
    "repository": "kara.moe",
    "tid": "4574ab5d-44e0-492b-8bbf-ebcf68e0074c",
    "types": [
      "songwriters",
      "8"
    ]
  }
}