{
  "header": {
    "description": "Karaoke Mugen Tag File",
    "version": 1
  },
  "tag": {
    "aliases": [
      "Kurogaki",
      "黒柿",
      "クロガキ",
      "カンザキイオリ",
      "かんざきいおり"
    ],
    "i18n": {
      "eng": "Iori Kanzaki"
    },
    "name": "Iori Kanzaki",
    "repository": "kara.moe",
    "tid": "babc6ded-0908-446f-b3a9-5066fea0e6dc",
    "types": [
      "songwriters",
      "8",
      "singers",
      "2"
    ]
  }
}