{
  "header": {
    "description": "Karaoke Mugen Tag File",
    "version": 1
  },
  "tag": {
    "i18n": {
      "eng": "Irene Vioni"
    },
    "name": "Irene Vioni",
    "repository": "kara.moe",
    "tid": "858dcd69-09e0-4435-81eb-606c239f03c2",
    "types": [
      "singers",
      "2"
    ]
  }
}