{
  "header": {
    "description": "Karaoke Mugen Tag File",
    "version": 1
  },
  "tag": {
    "i18n": {
      "eng": "Ironmouse"
    },
    "name": "Ironmouse",
    "repository": "kara.moe",
    "tid": "8e03f127-50d7-4cfb-8015-0c808369347a",
    "types": [
      "singers",
      "2"
    ]
  }
}