{
  "header": {
    "description": "Karaoke Mugen Tag File",
    "version": 1
  },
  "tag": {
    "i18n": {
      "eng": "Isabel"
    },
    "name": "Isabel",
    "repository": "kara.moe",
    "tid": "92cfca54-6864-4b38-8083-a81fdcfd7b15",
    "types": [
      "singers",
      "2"
    ]
  }
}