{
  "header": {
    "description": "Karaoke Mugen Tag File",
    "version": 1
  },
  "tag": {
    "i18n": {
      "eng": "Isako Saneyoshi"
    },
    "name": "Isako Saneyoshi",
    "tid": "df1c0128-f768-413a-bf50-bbc3a6a0cb3a",
    "types": [
      "singers",
      "2"
    ],
    "repository": "kara.moe",
    "modified_at": "2020-03-31T19:04:34.986Z"
  }
}