{
  "header": {
    "description": "Karaoke Mugen Tag File",
    "version": 1
  },
  "tag": {
    "i18n": {
      "eng": "Isao Taira"
    },
    "name": "Isao Taira",
    "tid": "85217a62-2a08-4dfa-b1fe-fb7a3a0d44bc",
    "types": [
      "singers",
      "2"
    ],
    "repository": "kara.moe",
    "modified_at": "2020-03-31T19:04:34.988Z"
  }
}