{
  "header": {
    "description": "Karaoke Mugen Tag File",
    "version": 1
  },
  "tag": {
    "i18n": {
      "eng": "Isazi"
    },
    "name": "Isazi",
    "tid": "317014e5-5def-465b-91ec-1d1b896c1b7a",
    "types": [
      "singers",
      "2"
    ],
    "repository": "kara.moe",
    "modified_at": "2020-03-31T19:04:34.989Z"
  }
}