{
  "header": {
    "description": "Karaoke Mugen Tag File",
    "version": 1
  },
  "tag": {
    "i18n": {
      "eng": "Isshiki Sora"
    },
    "modified_at": "1982-04-06",
    "name": "Isshiki Sora",
    "repository": "kara.moe",
    "tid": "0089e427-0daf-4a3d-b470-6ce5b6182378",
    "types": [
      "singers",
      "2"
    ]
  }
}