{
  "header": {
    "description": "Karaoke Mugen Tag File",
    "version": 1
  },
  "tag": {
    "i18n": {
      "eng": "Itai Naoki"
    },
    "modified_at": "2021-09-20T19:38:41.256Z",
    "name": "Itai Naoki",
    "repository": "kara.moe",
    "tid": "b3ada1f2-ca72-49c8-8a31-06df2a512285",
    "types": [
      "songwriters",
      "8"
    ]
  }
}