{
  "header": {
    "description": "Karaoke Mugen Tag File",
    "version": 1
  },
  "tag": {
    "i18n": {
      "eng": "iteachvader"
    },
    "name": "iteachvader",
    "repository": "kara.moe",
    "tid": "2ab83ea0-8f71-47a0-a54d-75bbb225b579",
    "types": [
      "creators",
      "4"
    ]
  }
}