{
  "header": {
    "description": "Karaoke Mugen Tag File",
    "version": 1
  },
  "tag": {
    "i18n": {
      "eng": "Itovero"
    },
    "name": "Itovero",
    "repository": "kara.moe",
    "tid": "1e2c606c-d09b-4bec-9b47-c8718a6e1833",
    "types": [
      "songwriters",
      "8"
    ]
  }
}