{
  "header": {
    "description": "Karaoke Mugen Tag File",
    "version": 1
  },
  "tag": {
    "i18n": {
      "eng": "Itsuki Natsume"
    },
    "name": "Itsuki Natsume",
    "repository": "kara.moe",
    "tid": "ee80c7a1-0c36-430e-a280-5eaed668d780",
    "types": [
      "songwriters",
      "8"
    ]
  }
}