{
  "header": {
    "description": "Karaoke Mugen Tag File",
    "version": 1
  },
  "tag": {
    "aliases": [
      "We Have Always Been 10 cm Apart.",
      "告白実行委員会シリーズ"
    ],
    "external_database_ids": {
      "anilist": 98977,
      "myanimelist": 36220,
      "kitsu": 13788
    },
    "i18n": {
      "eng": "Our Love Has Always Been 10 Centimeters Apart.",
      "jpn": "いつだって僕らの恋は10センチだった.",
      "kor": "언제나 우리의 사랑은 10cm였다.",
      "qro": "Itsudatte Bokura no Koi wa 10 Centi Datta."
    },
    "modified_at": "2020-03-31T19:04:31.800Z",
    "name": "Itsudatte Bokura no Koi wa 10 Centi Datta.",
    "repository": "kara.moe",
    "tid": "d2b19bd1-5e57-4a64-b269-213618dd8c46",
    "types": [
      "series",
      "1"
    ]
  }
}