{
  "header": {
    "description": "Karaoke Mugen Tag File",
    "version": 1
  },
  "tag": {
    "i18n": {
      "eng": "IU"
    },
    "name": "IU",
    "tid": "c44addd8-d391-48b7-880a-ad53a4f043c9",
    "types": [
      "singers",
      "2"
    ],
    "repository": "kara.moe",
    "modified_at": "2020-03-31T19:04:35.001Z"
  }
}