{
  "header": {
    "description": "Karaoke Mugen Tag File",
    "version": 1
  },
  "tag": {
    "i18n": {
      "eng": "Iyori Shimizu",
      "jpn": "清水 依与吏",
      "qro": "Iyori Shimizu"
    },
    "name": "Iyori Shimizu",
    "repository": "kara.moe",
    "tid": "ace37864-d9f8-4900-ad58-4c2964d0cdd4",
    "types": [
      "songwriters",
      "8"
    ]
  }
}