{
  "header": {
    "description": "Karaoke Mugen Tag File",
    "version": 1
  },
  "tag": {
    "i18n": {
      "eng": "Izumi Kato"
    },
    "modified_at": "2021-06-20T11:07:42.728Z",
    "name": "Izumi Kato",
    "repository": "kara.moe",
    "tid": "5e95f94c-20c6-458f-97fa-5d3d75609de5",
    "types": [
      "singers",
      "2"
    ]
  }
}