{
  "header": {
    "description": "Karaoke Mugen Tag File",
    "version": 1
  },
  "tag": {
    "i18n": {
      "eng": "Izumi Kobayashi"
    },
    "name": "Izumi Kobayashi",
    "tid": "0b676428-a995-4cb1-a58b-ad49c4082bb4",
    "types": [
      "songwriters",
      "8",
      "singers",
      "2"
    ],
    "repository": "kara.moe",
    "modified_at": "2020-03-31T19:04:35.006Z"
  }
}