{
  "header": {
    "description": "Karaoke Mugen Tag File",
    "version": 1
  },
  "tag": {
    "i18n": {
      "eng": "Izumi Mori",
      "jpn": "森 いづみ"
    },
    "name": "Izumi Mori",
    "repository": "kara.moe",
    "tid": "84e1d6be-7c40-4f84-afec-3a0b507af35a",
    "types": [
      "songwriters",
      "8"
    ]
  }
}