{
  "header": {
    "description": "Karaoke Mugen Tag File",
    "version": 1
  },
  "tag": {
    "i18n": {
      "eng": "J-Stars Victory VS",
      "jpn": "ジェイスターズ ビクトリーバーサス",
      "qro": "J-Stars Victory VS"
    },
    "modified_at": "2020-03-31T19:04:31.802Z",
    "name": "J-Stars Victory VS",
    "repository": "kara.moe",
    "tid": "b9f1bc14-d019-4c16-903f-a2dbf0600580",
    "types": [
      "series",
      "1"
    ]
  }
}