{
  "header": {
    "description": "Karaoke Mugen Tag File",
    "version": 1
  },
  "tag": {
    "aliases": [
      "J C STAFF"
    ],
    "i18n": {
      "eng": "J.C.STAFF"
    },
    "modified_at": "2021-03-07T13:07:59.098Z",
    "name": "J.C.STAFF",
    "repository": "kara.moe",
    "tid": "802a8ac8-b16f-40a4-944b-99956798c906",
    "types": [
      "creators",
      "4"
    ]
  }
}