{
  "header": {
    "description": "Karaoke Mugen Tag File",
    "version": 1
  },
  "tag": {
    "i18n": {
      "eng": "J.I.D"
    },
    "modified_at": "2021-11-13T12:57:40.910Z",
    "name": "J.I.D",
    "repository": "kara.moe",
    "tid": "502ac3c0-ce23-4f9a-9c06-16fae533498e",
    "types": [
      "singers",
      "2"
    ]
  }
}