{
  "header": {
    "description": "Karaoke Mugen Tag File",
    "version": 1
  },
  "tag": {
    "i18n": {
      "eng": "J.Prister"
    },
    "name": "J.Prister",
    "tid": "1ec178df-cfd3-43b2-a2a8-63efff602ca2",
    "types": [
      "singers",
      "2"
    ],
    "repository": "kara.moe",
    "modified_at": "2020-03-31T19:04:35.014Z"
  }
}