{
  "header": {
    "description": "Karaoke Mugen Tag File",
    "version": 1
  },
  "tag": {
    "external_database_ids": {
      "myanimelist": 33936,
      "kitsu": 13116
    },
    "i18n": {
      "jpn": "JA Kumamoto Keizairen",
      "qro": "JA Kumamoto Keizairen"
    },
    "modified_at": "2020-06-01T11:33:57.843Z",
    "name": "JA Kumamoto Keizairen",
    "repository": "kara.moe",
    "tid": "d1d298b6-da4a-40b5-a7a3-bd5a13850fef",
    "types": [
      "series",
      "1",
      "creators",
      "4"
    ]
  }
}