{
  "header": {
    "description": "Karaoke Mugen Tag File",
    "version": 1
  },
  "tag": {
    "i18n": {
      "eng": "Jack Harlow"
    },
    "name": "Jack Harlow",
    "repository": "kara.moe",
    "tid": "e2fa23ae-a077-4c6d-99b8-0897b5350385",
    "types": [
      "singers",
      "2"
    ]
  }
}