{
  "header": {
    "description": "Karaoke Mugen Tag File",
    "version": 1
  },
  "tag": {
    "i18n": {
      "eng": "Jack Antonoff"
    },
    "name": "Jack Antonoff",
    "repository": "kara.moe",
    "tid": "e5865e01-7e75-4fed-9051-86a8fd67783b",
    "types": [
      "songwriters",
      "8"
    ]
  }
}