{
  "header": {
    "description": "Karaoke Mugen Tag File",
    "version": 1
  },
  "tag": {
    "i18n": {
      "eng": "Jacknife Lee"
    },
    "name": "Jacknife Lee",
    "tid": "9d052e03-91a5-4012-a229-ba8e3c4854cd",
    "types": [
      "songwriters",
      "8"
    ],
    "repository": "kara.moe",
    "modified_at": "2020-03-31T19:04:35.018Z"
  }
}