{
  "header": {
    "description": "Karaoke Mugen Tag File",
    "version": 1
  },
  "tag": {
    "aliases": [
      "Seán William McLoughlin",
      "Seán McLoughlin"
    ],
    "i18n": {
      "eng": "Jacksepticeye"
    },
    "modified_at": "2021-02-08T22:12:13.986Z",
    "name": "Jacksepticeye",
    "repository": "kara.moe",
    "tid": "48bb9194-edba-4f41-8f59-df3b89f706a9",
    "types": [
      "singers",
      "2",
      "creators",
      "4"
    ]
  }
}