{
  "header": {
    "description": "Karaoke Mugen Tag File",
    "version": 1
  },
  "tag": {
    "i18n": {
      "eng": "Jacob Milan Taio Cruz"
    },
    "name": "Jacob Milan Taio Cruz",
    "repository": "kara.moe",
    "tid": "8944e452-0ced-4bcf-8316-70f3eff1bcf5",
    "types": [
      "songwriters",
      "8"
    ]
  }
}