{
  "header": {
    "description": "Karaoke Mugen Tag File",
    "version": 1
  },
  "tag": {
    "i18n": {
      "eng": "Jacques Revaux"
    },
    "name": "Jacques Revaux",
    "tid": "bebfe3dd-179c-4c99-a834-670f450bd853",
    "types": [
      "songwriters",
      "8"
    ],
    "repository": "kara.moe",
    "modified_at": "2020-03-31T19:04:35.024Z"
  }
}