{
  "header": {
    "description": "Karaoke Mugen Tag File",
    "version": 1
  },
  "tag": {
    "i18n": {
      "eng": "Jacques Morali"
    },
    "modified_at": "2020-07-11T23:25:21.671Z",
    "name": "Jacques Morali",
    "repository": "kara.moe",
    "tid": "50c926e2-acdf-40bb-bcd6-fc997ed342a2",
    "types": [
      "songwriters",
      "8"
    ]
  }
}