{
  "header": {
    "description": "Karaoke Mugen Tag File",
    "version": 1
  },
  "tag": {
    "i18n": {
      "eng": "Jacques Offenbach"
    },
    "modified_at": "2020-10-10T18:19:51.053Z",
    "name": "Jacques Offenbach",
    "repository": "kara.moe",
    "tid": "aa8d1487-bd69-4c48-afd9-fc9c87e15e76",
    "types": [
      "songwriters",
      "8"
    ]
  }
}