{
  "header": {
    "description": "Karaoke Mugen Tag File",
    "version": 1
  },
  "tag": {
    "i18n": {
      "eng": "Jacquart"
    },
    "name": "Jacquart",
    "tid": "0d4705bf-fca1-4788-a6f3-d376fafc4ffb",
    "types": [
      "songwriters",
      "8"
    ],
    "repository": "kara.moe",
    "modified_at": "2020-03-31T19:04:35.019Z"
  }
}