{
  "header": {
    "description": "Karaoke Mugen Tag File",
    "version": 1
  },
  "tag": {
    "i18n": {
      "eng": "Jacques Mercier"
    },
    "name": "Jacques Mercier",
    "repository": "kara.moe",
    "tid": "133dbddc-16eb-4fa0-9203-4cff9e577a4d",
    "types": [
      "singers",
      "2"
    ]
  }
}