{
  "header": {
    "description": "Karaoke Mugen Tag File",
    "version": 1
  },
  "tag": {
    "i18n": {
      "eng": "jam"
    },
    "name": "jam",
    "tid": "ed85d8c5-3cc7-4553-b17d-676ed88a50e2",
    "types": [
      "songwriters",
      "8"
    ],
    "repository": "kara.moe",
    "modified_at": "2020-03-31T19:04:35.027Z"
  }
}