{
  "header": {
    "description": "Karaoke Mugen Tag File",
    "version": 1
  },
  "tag": {
    "i18n": {
      "eng": "Jamahl Listenbee"
    },
    "modified_at": "2020-07-12T12:12:34.472Z",
    "name": "Jamahl Listenbee",
    "repository": "kara.moe",
    "tid": "a38f1809-300d-4686-86e4-d8ff9a547904",
    "types": [
      "songwriters",
      "8"
    ]
  }
}