{
  "header": {
    "description": "Karaoke Mugen Tag File",
    "version": 1
  },
  "tag": {
    "i18n": {
      "eng": "James Montagna"
    },
    "name": "James Montagna",
    "repository": "kara.moe",
    "tid": "1e135772-a9c0-4970-a70d-e3e38c0ef2a8",
    "types": [
      "singers",
      "2"
    ]
  }
}