{
  "header": {
    "description": "Karaoke Mugen Tag File",
    "version": 1
  },
  "tag": {
    "i18n": {
      "eng": "James Huth"
    },
    "name": "James Huth",
    "repository": "kara.moe",
    "tid": "5c994b5a-bc96-4c26-abc7-270a4efea665",
    "types": [
      "songwriters",
      "8",
      "creators",
      "4"
    ]
  }
}