{
  "header": {
    "description": "Karaoke Mugen Tag File",
    "version": 1
  },
  "tag": {
    "i18n": {
      "eng": "Jamie Bulled"
    },
    "modified_at": "2021-06-29T21:40:43.809Z",
    "name": "Jamie Bulled",
    "repository": "kara.moe",
    "tid": "1a0b5b34-45f4-44d6-8c36-8af13e5cd4ab",
    "types": [
      "songwriters",
      "8"
    ]
  }
}