{
  "header": {
    "description": "Karaoke Mugen Tag File",
    "version": 1
  },
  "tag": {
    "i18n": {
      "eng": "Jamie Christopherson"
    },
    "name": "Jamie Christopherson",
    "repository": "kara.moe",
    "tid": "6e125112-9417-4ca9-a0df-56b9569984a4",
    "types": [
      "songwriters",
      "8"
    ]
  }
}