{
  "header": {
    "description": "Karaoke Mugen Tag File",
    "version": 1
  },
  "tag": {
    "i18n": {
      "eng": "Jang Won-young"
    },
    "name": "Jang Won-young",
    "repository": "kara.moe",
    "tid": "7a098b55-e3c6-4134-8637-19fbe5407199",
    "types": [
      "singers",
      "2"
    ]
  }
}