{
  "header": {
    "description": "Karaoke Mugen Tag File",
    "version": 1
  },
  "tag": {
    "i18n": {
      "eng": "Jason Walsh"
    },
    "name": "Jason Walsh",
    "repository": "kara.moe",
    "tid": "d231b5af-2558-42a1-871f-493e9ee47ed0",
    "types": [
      "songwriters",
      "8"
    ]
  }
}