{
  "header": {
    "description": "Karaoke Mugen Tag File",
    "version": 1
  },
  "tag": {
    "i18n": {
      "eng": "Jason Charles Miller"
    },
    "name": "Jason Charles Miller",
    "repository": "kara.moe",
    "tid": "965016cc-052c-4ec1-b85e-45ca5b9d955a",
    "types": [
      "singers",
      "2",
      "songwriters",
      "8"
    ]
  }
}