{
  "header": {
    "description": "Karaoke Mugen Tag File",
    "version": 1
  },
  "tag": {
    "i18n": {
      "eng": "jealkb"
    },
    "name": "jealkb",
    "tid": "d2e800cd-d960-48b7-b5f3-1cd46a9ebb50",
    "types": [
      "singers",
      "2"
    ],
    "repository": "kara.moe",
    "modified_at": "2020-03-31T19:04:35.043Z"
  }
}