{
  "header": {
    "description": "Karaoke Mugen Tag File",
    "version": 1
  },
  "tag": {
    "i18n": {
      "eng": "Jean Fauque"
    },
    "name": "Jean Fauque",
    "repository": "kara.moe",
    "tid": "02a7ac95-d03c-4427-a85e-68ce9832e31d",
    "types": [
      "songwriters",
      "8"
    ]
  }
}