{
  "header": {
    "description": "Karaoke Mugen Tag File",
    "version": 1
  },
  "tag": {
    "i18n": {
      "eng": "Jean-Luc Azoulay"
    },
    "name": "Jean-Luc Azoulay",
    "tid": "cfa5e23e-29b5-4300-915f-2187c1331522",
    "types": [
      "songwriters",
      "8"
    ],
    "repository": "kara.moe",
    "modified_at": "2020-03-31T19:04:35.055Z"
  }
}