{
  "header": {
    "description": "Karaoke Mugen Tag File",
    "version": 1
  },
  "tag": {
    "i18n": {
      "eng": "Jean-François Porry"
    },
    "name": "Jean-François Porry",
    "tid": "dd8ecb07-8952-40ef-90ac-a8751a02a3f4",
    "types": [
      "songwriters",
      "8"
    ],
    "repository": "kara.moe",
    "modified_at": "2020-03-31T19:04:35.052Z"
  }
}