{
  "header": {
    "description": "Karaoke Mugen Tag File",
    "version": 1
  },
  "tag": {
    "i18n": {
      "eng": "Jean Monset"
    },
    "name": "Jean Monset",
    "tid": "80b8640d-8d6b-4681-b4f0-1749c80315aa",
    "types": [
      "songwriters",
      "8"
    ],
    "repository": "kara.moe",
    "modified_at": "2020-03-31T19:04:35.047Z"
  }
}