{
  "header": {
    "description": "Karaoke Mugen Tag File",
    "version": 1
  },
  "tag": {
    "i18n": {
      "eng": "Jean-Philippe Puymartin"
    },
    "name": "Jean-Philippe Puymartin",
    "tid": "a93d4ae8-f27b-4f9f-b243-39325deb25e1",
    "types": [
      "singers",
      "2"
    ],
    "repository": "kara.moe",
    "modified_at": "2020-03-31T19:04:35.058Z"
  }
}