{
  "header": {
    "description": "Karaoke Mugen Tag File",
    "version": 1
  },
  "tag": {
    "i18n": {
      "eng": "Jean Christophe Belval"
    },
    "name": "Jean Christophe Belval",
    "repository": "kara.moe",
    "tid": "663f81d9-a991-4d05-bdd2-780bfe22de52",
    "types": [
      "songwriters",
      "8"
    ]
  }
}