{
  "header": {
    "description": "Karaoke Mugen Tag File",
    "version": 1
  },
  "tag": {
    "i18n": {
      "eng": "Jeanette"
    },
    "name": "Jeanette",
    "repository": "kara.moe",
    "tid": "feb4fb89-27f6-429a-8c9b-df46c00d5075",
    "types": [
      "singers",
      "2"
    ]
  }
}