{
  "header": {
    "description": "Karaoke Mugen Tag File",
    "version": 1
  },
  "tag": {
    "aliases": [
      "鋼鉄",
      "Kôtetsu ",
      "Koutetsu "
    ],
    "i18n": {
      "eng": "Jeeg",
      "jpn": "ジーグ"
    },
    "name": "Jeeg",
    "repository": "kara.moe",
    "tid": "0911088c-7ab9-4d46-8880-1919904b127d",
    "types": [
      "franchises",
      "18"
    ]
  }
}