{
  "header": {
    "description": "Karaoke Mugen Tag File",
    "version": 1
  },
  "tag": {
    "i18n": {
      "eng": "Jeff Miyahara"
    },
    "name": "Jeff Miyahara",
    "tid": "552a02ae-fb5b-4933-bce5-eea0866ca944",
    "types": [
      "songwriters",
      "8"
    ],
    "repository": "kara.moe",
    "modified_at": "2020-03-31T19:04:35.065Z"
  }
}