{
  "header": {
    "description": "Karaoke Mugen Tag File",
    "version": 1
  },
  "tag": {
    "i18n": {
      "eng": "Jefferson Friedman"
    },
    "name": "Jefferson Friedman",
    "repository": "kara.moe",
    "tid": "0b475532-8e75-44d9-a566-ea512078eea4",
    "types": [
      "songwriters",
      "8"
    ]
  }
}