{
  "header": {
    "description": "Karaoke Mugen Tag File",
    "version": 1
  },
  "tag": {
    "i18n": {
      "eng": "Jell"
    },
    "name": "Jell",
    "repository": "kara.moe",
    "tid": "f178e87f-1a97-4328-96eb-b11f5fc9cff0",
    "types": [
      "songwriters",
      "8"
    ]
  }
}