{
  "header": {
    "description": "Karaoke Mugen Tag File",
    "version": 1
  },
  "tag": {
    "i18n": {
      "eng": "Jem and the Holograms",
      "fre": "Jem et les Hologrammes",
      "heb": "ג'ם וההולוגרמות",
      "pol": "Jem i Hologramy"
    },
    "modified_at": "2020-03-31T19:04:31.807Z",
    "name": "Jem and the Holograms",
    "repository": "kara.moe",
    "tid": "4d387036-92e0-4928-80a0-b072a5fdb643",
    "types": [
      "series",
      "1"
    ]
  }
}