{
  "header": {
    "description": "Karaoke Mugen Tag File",
    "version": 1
  },
  "tag": {
    "i18n": {
      "eng": "Jennifer Stigile"
    },
    "name": "Jennifer Stigile",
    "tid": "10c09ba3-5047-4a45-87d5-e5f010ccb9dc",
    "types": [
      "singers",
      "2"
    ],
    "repository": "kara.moe",
    "modified_at": "2020-03-31T19:04:35.067Z"
  }
}