{
  "header": {
    "description": "Karaoke Mugen Tag File",
    "version": 1
  },
  "tag": {
    "i18n": {
      "eng": "Jennifer McCann"
    },
    "name": "Jennifer McCann",
    "tid": "91728776-f93c-4b0f-ad30-c202cb8a593c",
    "types": [
      "songwriters",
      "8"
    ],
    "repository": "kara.moe",
    "modified_at": "2020-03-31T19:04:35.067Z"
  }
}