{
  "header": {
    "description": "Karaoke Mugen Tag File",
    "version": 1
  },
  "tag": {
    "i18n": {
      "eng": "Jeremy Zag"
    },
    "name": "Jeremy Zag",
    "tid": "cb0a2b96-6553-4a99-9add-e265dec3b5cb",
    "types": [
      "songwriters",
      "8"
    ],
    "repository": "kara.moe",
    "modified_at": "2020-03-31T19:04:35.071Z"
  }
}