{
  "header": {
    "description": "Karaoke Mugen Tag File",
    "version": 1
  },
  "tag": {
    "i18n": {
      "eng": "Jeremy Sweet"
    },
    "name": "Jeremy Sweet",
    "tid": "06e5cb5f-09ec-48ec-a8ff-4749148122a3",
    "types": [
      "songwriters",
      "8"
    ],
    "repository": "kara.moe",
    "modified_at": "2020-03-31T19:04:35.071Z"
  }
}