{
  "header": {
    "description": "Karaoke Mugen Tag File",
    "version": 1
  },
  "tag": {
    "aliases": [
      "Imani J",
      "Imani J. Dawson"
    ],
    "i18n": {
      "eng": "Jessica Imani Dawson"
    },
    "name": "Jessica Imani Dawson",
    "repository": "kara.moe",
    "tid": "0cdcf9b6-c58a-40f3-8f95-69cdfaa1d644",
    "types": [
      "singers",
      "2"
    ]
  }
}