{
  "header": {
    "description": "Karaoke Mugen Tag File",
    "version": 1
  },
  "tag": {
    "i18n": {
      "eng": "Jesse Carmichael"
    },
    "name": "Jesse Carmichael",
    "repository": "kara.moe",
    "tid": "390a0719-85d9-4918-8793-a50dad08be3e",
    "types": [
      "songwriters",
      "8"
    ]
  }
}