{
  "header": {
    "description": "Karaoke Mugen Tag File",
    "version": 1
  },
  "tag": {
    "i18n": {
      "eng": "Jessica Yumi Bae"
    },
    "name": "Jessica Yumi Bae",
    "tid": "1cad4ace-477f-4606-93e5-1f9e22c9a864",
    "types": [
      "singers",
      "2"
    ],
    "repository": "kara.moe",
    "modified_at": "2020-03-31T19:04:35.077Z"
  }
}