{
  "header": {
    "description": "Karaoke Mugen Tag File",
    "version": 1
  },
  "tag": {
    "i18n": {
      "eng": "Jessica Parker"
    },
    "name": "Jessica Parker",
    "tid": "f90298c3-8eac-4736-ac0b-d52b913d2c01",
    "types": [
      "singers",
      "2"
    ],
    "repository": "kara.moe",
    "modified_at": "2020-03-31T19:04:35.077Z"
  }
}