{
  "header": {
    "description": "Karaoke Mugen Tag File",
    "version": 1
  },
  "tag": {
    "i18n": {
      "eng": "Jesus-P"
    },
    "name": "Jesus-P",
    "tid": "c31584a2-4560-4213-a327-7089bfd97e1e",
    "types": [
      "songwriters",
      "8"
    ],
    "repository": "kara.moe",
    "modified_at": "2020-03-31T19:04:35.078Z"
  }
}