{
  "header": {
    "description": "Karaoke Mugen Tag File",
    "version": 1
  },
  "tag": {
    "i18n": {
      "eng": "Jiang Nan"
    },
    "name": "Jiang Nan",
    "repository": "kara.moe",
    "tid": "ddb10b31-808d-423e-bc3e-7e8582e42202",
    "types": [
      "songwriters",
      "8"
    ]
  }
}