{
  "header": {
    "description": "Karaoke Mugen Tag File",
    "version": 1
  },
  "tag": {
    "aliases": [
      "Hell Girl 3",
      "Jigoku Shoujo Mitsuganae",
      "hg3",
      "js3",
      "jsm",
      "Адская девочка 3",
      "Пекельна дівчинка - три судна",
      "فتاة الجحيم : ثلاثة أوعيه",
      "地狱少女 三鼎",
      "shoujo"
    ],
    "external_database_ids": {
      "anilist": 3713,
      "myanimelist": 3713,
      "kitsu": 3210
    },
    "i18n": {
      "chi": "地獄少女 三鼎",
      "cze": "Dívka z Pekla 3",
      "eng": "Hell Girl: Three Vessels",
      "fre": "La fille des enfers (saison 3)",
      "jpn": "地獄少女三鼎",
      "pol": "Piekielna Dziewczyna 3",
      "qro": "Jigoku Shôjo Mitsuganae"
    },
    "modified_at": "2020-03-31T19:04:31.809Z",
    "name": "Jigoku Shôjo Mitsuganae",
    "repository": "kara.moe",
    "tid": "3052fd81-c738-4e54-a327-2aeaddca7b03",
    "types": [
      "series",
      "1"
    ]
  }
}