{
  "header": {
    "description": "Karaoke Mugen Tag File",
    "version": 1
  },
  "tag": {
    "i18n": {
      "eng": "Jihaku",
      "jpn": "Jihaku",
      "qro": "Jihaku"
    },
    "modified_at": "2020-03-31T19:04:31.811Z",
    "name": "Jihaku",
    "repository": "kara.moe",
    "tid": "255cc7fd-8f4e-43f9-acfd-1facd6d6a2b1",
    "types": [
      "series",
      "1"
    ]
  }
}