{
  "header": {
    "description": "Karaoke Mugen Tag File",
    "version": 1
  },
  "tag": {
    "i18n": {
      "eng": "Jin Tanaka"
    },
    "name": "Jin Tanaka",
    "repository": "kara.moe",
    "tid": "a4578ed4-99ab-4593-9a85-ab2bcccfb670",
    "types": [
      "songwriters",
      "8"
    ],
    "modified_at": "2020-03-31T19:04:35.089Z"
  }
}