{
  "header": {
    "description": "Karaoke Mugen Tag File",
    "version": 1
  },
  "tag": {
    "i18n": {
      "eng": "Jin Katagiri"
    },
    "modified_at": "2020-05-03T15:40:12.675Z",
    "name": "Jin Katagiri",
    "repository": "kara.moe",
    "tid": "22f0cc55-48fa-403c-97d3-f810a5dd9617",
    "types": [
      "singers",
      "2"
    ]
  }
}