{
  "header": {
    "description": "Karaoke Mugen Tag File",
    "version": 1
  },
  "tag": {
    "i18n": {
      "eng": "Jinnai"
    },
    "name": "Jinnai",
    "tid": "729752b4-ce75-403f-aaf8-f3632fe66228",
    "types": [
      "songwriters",
      "8"
    ],
    "repository": "kara.moe",
    "modified_at": "2020-03-31T19:04:35.091Z"
  }
}