{
  "header": {
    "description": "Karaoke Mugen Tag File",
    "version": 1
  },
  "tag": {
    "i18n": {
      "eng": "Jiro Dan"
    },
    "modified_at": "2021-05-31T18:31:52.490Z",
    "name": "Jiro Dan",
    "repository": "kara.moe",
    "tid": "36abf4f4-7a18-4afb-8755-41ca33c8ba48",
    "types": [
      "singers",
      "2"
    ]
  }
}