{
  "header": {
    "description": "Karaoke Mugen Tag File",
    "version": 1
  },
  "tag": {
    "i18n": {
      "eng": "JO☆UNITED"
    },
    "modified_at": "2020-08-06T18:02:04.946Z",
    "name": "JO☆UNITED",
    "repository": "kara.moe",
    "tid": "7cc80cdb-7dad-41f2-b363-87fef37f8bae",
    "types": [
      "singers",
      "2"
    ]
  }
}