{
  "header": {
    "description": "Karaoke Mugen Tag File",
    "version": 1
  },
  "tag": {
    "i18n": {
      "eng": "JO1"
    },
    "name": "JO1",
    "repository": "kara.moe",
    "tid": "871d4039-5d7a-48fd-a73a-8ff97a7a845e",
    "types": [
      "singers",
      "2"
    ]
  }
}