{
  "header": {
    "description": "Karaoke Mugen Tag File",
    "version": 1
  },
  "tag": {
    "i18n": {
      "eng": "Joby Talbot"
    },
    "name": "Joby Talbot",
    "tid": "4bd58acb-ab14-4e3a-b10a-08e0b816afa1",
    "types": [
      "songwriters",
      "8"
    ],
    "repository": "kara.moe",
    "modified_at": "2020-03-31T19:04:35.102Z"
  }
}