{
  "header": {
    "description": "Karaoke Mugen Tag File",
    "version": 1
  },
  "tag": {
    "i18n": {
      "eng": "Joe Inoue"
    },
    "name": "Joe Inoue",
    "tid": "0ced1fd5-6ff1-404e-a408-5841771e6f5f",
    "types": [
      "songwriters",
      "8",
      "singers",
      "2"
    ],
    "repository": "kara.moe",
    "modified_at": "2020-03-31T19:04:35.104Z"
  }
}