{
  "header": {
    "description": "Karaoke Mugen Tag File",
    "version": 1
  },
  "tag": {
    "i18n": {
      "eng": "Joffrey_A"
    },
    "name": "Joffrey_A",
    "tid": "e292fa6c-bd1a-4130-9c12-4dd2cbc0bcf0",
    "types": [
      "authors",
      "6"
    ],
    "repository": "kara.moe",
    "modified_at": "2020-03-31T19:04:35.108Z"
  }
}