{
  "header": {
    "description": "Karaoke Mugen Tag File",
    "version": 1
  },
  "tag": {
    "i18n": {
      "eng": "John Major"
    },
    "name": "John Major",
    "tid": "ef9cb13a-772d-41f0-8dfa-201c50cbc74c",
    "types": [
      "songwriters",
      "8"
    ],
    "repository": "kara.moe",
    "modified_at": "2020-03-31T19:04:35.112Z"
  }
}