{
  "header": {
    "description": "Karaoke Mugen Tag File",
    "version": 1
  },
  "tag": {
    "i18n": {
      "eng": "Johnsson"
    },
    "name": "Johnsson",
    "tid": "a8c01ef9-8d77-4736-ab5d-b3cf664f1dca",
    "types": [
      "authors",
      "6"
    ],
    "repository": "kara.moe",
    "modified_at": "2020-03-31T19:04:35.116Z"
  }
}