{
  "header": {
    "description": "Karaoke Mugen Tag File",
    "version": 1
  },
  "tag": {
    "i18n": {
      "eng": "John Addison"
    },
    "modified_at": "2021-01-15T18:28:32.033Z",
    "name": "John Addison",
    "repository": "kara.moe",
    "tid": "804b8d65-e42a-4f1c-bf7a-83f3a446d900",
    "types": [
      "songwriters",
      "8"
    ]
  }
}