{
  "header": {
    "description": "Karaoke Mugen Tag File",
    "version": 1
  },
  "tag": {
    "i18n": {
      "eng": "John Williams"
    },
    "modified_at": "2021-01-15T19:38:53.663Z",
    "name": "John Williams",
    "repository": "kara.moe",
    "tid": "459f342d-87f9-49aa-a9ea-50022b532b60",
    "types": [
      "songwriters",
      "8"
    ]
  }
}