{
  "header": {
    "description": "Karaoke Mugen Tag File",
    "version": 1
  },
  "tag": {
    "i18n": {
      "eng": "John Nazir"
    },
    "name": "John Nazir",
    "tid": "5a4c2b89-a44f-49f5-bd0f-38afa9f77f88",
    "types": [
      "songwriters",
      "8"
    ],
    "repository": "kara.moe",
    "modified_at": "2020-03-31T19:04:35.112Z"
  }
}