{
  "header": {
    "description": "Karaoke Mugen Tag File",
    "version": 1
  },
  "tag": {
    "i18n": {
      "eng": "John Bush"
    },
    "name": "John Bush",
    "repository": "kara.moe",
    "tid": "fe7ea204-f9d4-440d-b58c-a0cef85c04e0",
    "types": [
      "singers",
      "2"
    ]
  }
}