{
  "header": {
    "description": "Karaoke Mugen Tag File",
    "version": 1
  },
  "tag": {
    "i18n": {
      "eng": "Jojo MIB"
    },
    "modified_at": "2021-05-16T16:20:10.286Z",
    "name": "Jojo MIB",
    "repository": "kara.moe",
    "tid": "bdcdd2c4-f4fb-40b7-a96c-8088c7a3dd68",
    "types": [
      "creators",
      "4"
    ]
  }
}