{
  "header": {
    "description": "Karaoke Mugen Tag File",
    "version": 1
  },
  "tag": {
    "aliases": [
      "JJBA 2015",
      "JJBA SC2",
      "JoJo 2015",
      "JoJo Part 3",
      "JoJo no Kimyou na Bouken: Stardust Crusaders 2nd Season",
      "JoJo's Bizarre Adventure: Stardust Crusaders - Battle in Egypt",
      "JoJo's Bizarre Adventure: Stardust Crusaders Egypt Arc",
      "Невероятните приключения на Джо-Джо и звездните кръстоносци: Египет",
      "kimyou",
      "bouken"
    ],
    "external_database_ids": {
      "anilist": 20799,
      "myanimelist": 26055,
      "kitsu": 8739
    },
    "i18n": {
      "chi": "JoJo的奇妙冒險 星塵鬥士 (2015)",
      "eng": "JoJo's Bizarre Adventure: Stardust Crusaders 2nd Season",
      "jpn": "ジョジョの奇妙な冒険 スターダストクルセイダース (2015)",
      "qro": "JoJo no Kimyô na Bôken: Stardust Crusaders 2nd Season"
    },
    "modified_at": "2020-03-31T19:04:31.818Z",
    "name": "JoJo no Kimyô na Bôken: Stardust Crusaders 2nd Season",
    "repository": "kara.moe",
    "tid": "e89290e6-5d8b-44c3-bc5d-bdc89286f215",
    "types": [
      "series",
      "1"
    ]
  }
}