{
  "header": {
    "description": "Karaoke Mugen Tag File",
    "version": 1
  },
  "tag": {
    "i18n": {
      "eng": "Joker AMVs"
    },
    "modified_at": "2020-12-19T21:48:48.784Z",
    "name": "Joker AMVs",
    "repository": "kara.moe",
    "tid": "fa92e8be-618a-4314-aff3-70ba1d4ae1fa",
    "types": [
      "creators",
      "4"
    ]
  }
}