{
  "header": {
    "description": "Karaoke Mugen Tag File",
    "version": 1
  },
  "tag": {
    "i18n": {
      "eng": "Jon"
    },
    "name": "Jon",
    "tid": "76d25f20-a431-4155-b420-0c59369dc08d",
    "types": [
      "songwriters",
      "8"
    ],
    "repository": "kara.moe",
    "modified_at": "2020-03-31T19:04:35.118Z"
  }
}