{
  "header": {
    "description": "Karaoke Mugen Tag File",
    "version": 1
  },
  "tag": {
    "i18n": {
      "eng": "Jonathan Lattif"
    },
    "name": "Jonathan Lattif",
    "tid": "a4641691-7025-460c-a77c-bd9253457e42",
    "types": [
      "songwriters",
      "8"
    ],
    "repository": "kara.moe",
    "modified_at": "2020-03-31T19:04:35.121Z"
  }
}