{
  "header": {
    "description": "Karaoke Mugen Tag File",
    "version": 1
  },
  "tag": {
    "aliases": [
      "Йормунґанд",
      "جورمونگاند",
      "军火女王"
    ],
    "external_database_ids": {
      "anilist": 12413,
      "myanimelist": 12413,
      "kitsu": 6726
    },
    "i18n": {
      "eng": "Jormungand",
      "jpn": "ヨルムンガンド",
      "qro": "Jormungand"
    },
    "modified_at": "2020-03-31T19:04:31.822Z",
    "name": "Jormungand",
    "repository": "kara.moe",
    "tid": "f4fa612b-1cf5-48e8-a79b-05dda928a573",
    "types": [
      "series",
      "1",
      "franchises",
      "18"
    ]
  }
}