{
  "header": {
    "description": "Karaoke Mugen Tag File",
    "version": 1
  },
  "tag": {
    "i18n": {
      "eng": "Josh Ramsay"
    },
    "modified_at": "2021-05-21T17:03:10.678Z",
    "name": "Josh Ramsay",
    "repository": "kara.moe",
    "tid": "e50ad475-c820-4403-a998-4a221f3ea9a2",
    "types": [
      "songwriters",
      "8"
    ]
  }
}