{
  "header": {
    "description": "Karaoke Mugen Tag File",
    "version": 1
  },
  "tag": {
    "i18n": {
      "eng": "Joshi Kamen"
    },
    "name": "Joshi Kamen",
    "tid": "53f392f6-1bd6-4531-98cb-af087b6931af",
    "types": [
      "singers",
      "2"
    ],
    "repository": "kara.moe",
    "modified_at": "2020-03-31T19:04:35.126Z"
  }
}