{
  "header": {
    "description": "Karaoke Mugen Tag File",
    "version": 1
  },
  "tag": {
    "aliases": [
      "Colegiais",
      "Girl's High School Students",
      "Girls High",
      "High School Girls",
      "Joshi Kosei",
      "Joshikosei",
      "Joshikousei: Girl's High",
      "hsg",
      "طالبات الثانوية",
      "女子高生",
      "여고생",
      "joshikousei"
    ],
    "external_database_ids": {
      "anilist": 863,
      "myanimelist": 863,
      "kitsu": 764
    },
    "i18n": {
      "eng": "Joshikosei: High School Girls",
      "fre": "Girl's High School",
      "jpn": "女子高生 GIRL'S HIGH",
      "rus": "Старшеклассницы",
      "qro": "Joshikôsei: Girl's High"
    },
    "modified_at": "2020-03-31T19:04:31.822Z",
    "name": "Joshikôsei: Girl's High",
    "repository": "kara.moe",
    "tid": "ddf96d4c-3505-4859-95ab-c7aebe8f4c89",
    "types": [
      "series",
      "1"
    ]
  }
}