{
  "header": {
    "description": "Karaoke Mugen Tag File",
    "version": 1
  },
  "tag": {
    "i18n": {
      "eng": "Josip On Deck"
    },
    "name": "Josip On Deck",
    "repository": "kara.moe",
    "tid": "5b759a1f-6786-4bf7-b6d1-001c0b4f723e",
    "types": [
      "singers",
      "2",
      "songwriters",
      "8"
    ]
  }
}