{
  "header": {
    "description": "Karaoke Mugen Tag File",
    "version": 1
  },
  "tag": {
    "aliases": [
      "JORAN"
    ],
    "external_database_ids": {
      "anilist": 129664,
      "myanimelist": 47250,
      "kitsu": 44091
    },
    "i18n": {
      "jpn": "擾乱　THE PRINCESS OF SNOW AND BLOOD",
      "eng": "Joran: The Princess of Snow and Blood",
      "qro": "Jouran : The Princess of Snow and Blood"
    },
    "modified_at": "2021-04-10T01:06:51.651Z",
    "name": "Jouran : The Princess of Snow and Blood",
    "repository": "kara.moe",
    "tid": "a12ba9fa-4195-40f5-97e7-094b5677ce55",
    "types": [
      "series",
      "1"
    ]
  }
}