{
  "header": {
    "description": "Karaoke Mugen Tag File",
    "version": 1
  },
  "tag": {
    "i18n": {
      "eng": "Journey Across Japan"
    },
    "name": "Journey Across Japan",
    "repository": "kara.moe",
    "tid": "3a6a9f24-3de6-4f65-a2c6-8be9e8a88d68",
    "types": [
      "series",
      "1"
    ]
  }
}