{
  "header": {
    "description": "Karaoke Mugen Tag File",
    "version": 1
  },
  "tag": {
    "i18n": {
      "eng": "Jôsei Nagatomo"
    },
    "name": "Jôsei Nagatomo",
    "tid": "acffd8df-8484-4bb1-af2a-b349fa8dc465",
    "types": [
      "songwriters",
      "8"
    ],
    "repository": "kara.moe",
    "modified_at": "2020-03-31T19:04:35.128Z"
  }
}