{
  "header": {
    "description": "Karaoke Mugen Tag File",
    "version": 1
  },
  "tag": {
    "i18n": {
      "eng": "juauke"
    },
    "name": "juauke",
    "repository": "kara.moe",
    "tid": "88f23133-8bb2-4ac5-a4ef-d6f06757c5fc",
    "types": [
      "authors",
      "6"
    ]
  }
}