{
  "header": {
    "description": "Karaoke Mugen Tag File",
    "version": 1
  },
  "tag": {
    "i18n": {
      "eng": "Juha Myllylä"
    },
    "modified_at": "2020-04-27T00:21:19.606Z",
    "name": "Juha Myllylä",
    "repository": "kara.moe",
    "tid": "ef483153-7185-4447-9d91-3b9ca453dc6f",
    "types": [
      "songwriters",
      "8"
    ]
  }
}