{
  "header": {
    "description": "Karaoke Mugen Tag File",
    "version": 1
  },
  "tag": {
    "i18n": {
      "eng": "Juichi Morichige"
    },
    "name": "Juichi Morichige",
    "tid": "f175b1ae-9664-4ff9-a54d-f1ec8f6d9b59",
    "types": [
      "songwriters",
      "8"
    ],
    "repository": "kara.moe",
    "modified_at": "2020-03-31T19:04:35.135Z"
  }
}