{
  "header": {
    "description": "Karaoke Mugen Tag File",
    "version": 1
  },
  "tag": {
    "i18n": {
      "eng": "Julie André"
    },
    "name": "Julie André",
    "tid": "216fbf62-f9ce-4f92-a9e7-1ea2ba6269b2",
    "types": [
      "singers",
      "2"
    ],
    "repository": "kara.moe",
    "modified_at": "2020-03-31T19:04:35.139Z"
  }
}