{
  "header": {
    "description": "Karaoke Mugen Tag File",
    "version": 1
  },
  "tag": {
    "i18n": {
      "eng": "Juliette Vigouroux"
    },
    "modified_at": "2020-12-18T18:48:18.069Z",
    "name": "Juliette Vigouroux",
    "repository": "kara.moe",
    "tid": "1d2ed369-0bd4-48ea-bb6a-c8474bf80d3f",
    "types": [
      "songwriters",
      "8"
    ]
  }
}