{
  "header": {
    "description": "Karaoke Mugen Tag File",
    "version": 1
  },
  "tag": {
    "i18n": {
      "eng": "Julien Neel"
    },
    "name": "Julien Neel",
    "tid": "d43c8f03-7958-4d53-a1bd-0c31d694dd37",
    "types": [
      "songwriters",
      "8"
    ],
    "repository": "kara.moe",
    "modified_at": "2020-03-31T19:04:35.140Z"
  }
}