{
  "header": {
    "description": "Karaoke Mugen Tag File",
    "version": 1
  },
  "tag": {
    "i18n": {
      "eng": "Julien Baptist"
    },
    "name": "Julien Baptist",
    "repository": "kara.moe",
    "tid": "100b09eb-08de-4e49-b0eb-0d5d8543cee4",
    "types": [
      "singers",
      "2"
    ]
  }
}