{
  "header": {
    "description": "Karaoke Mugen Tag File",
    "version": 1
  },
  "tag": {
    "i18n": {
      "jpn": "大須賀純",
      "qro": "Jun Oosuka"
    },
    "name": "Jun Oosuka",
    "repository": "kara.moe",
    "tid": "37553623-034c-4cfc-ae55-c936028f8e2d",
    "types": [
      "singers",
      "2"
    ]
  }
}