{
  "header": {
    "description": "Karaoke Mugen Tag File",
    "version": 1
  },
  "tag": {
    "i18n": {
      "eng": "Jun Hashimoto"
    },
    "name": "Jun Hashimoto",
    "tid": "57006b1a-f936-435f-844c-b5978f4d5ba7",
    "types": [
      "songwriters",
      "8"
    ],
    "repository": "kara.moe",
    "modified_at": "2020-03-31T19:04:35.152Z"
  }
}