{
  "header": {
    "description": "Karaoke Mugen Tag File",
    "version": 1
  },
  "tag": {
    "i18n": {
      "eng": "Jun Sasaki"
    },
    "name": "Jun Sasaki",
    "tid": "832bbda8-bb5b-4e9d-b7e6-460541a144d8",
    "types": [
      "songwriters",
      "8"
    ],
    "repository": "kara.moe",
    "modified_at": "2020-03-31T19:04:35.168Z"
  }
}