{
  "header": {
    "description": "Karaoke Mugen Tag File",
    "version": 1
  },
  "tag": {
    "i18n": {
      "eng": "Jun Maeda"
    },
    "name": "Jun Maeda",
    "tid": "6f9382dc-3b8f-4948-899c-23477cd9e23b",
    "types": [
      "songwriters",
      "8"
    ],
    "repository": "kara.moe",
    "modified_at": "2020-03-31T19:04:35.166Z"
  }
}