{
  "header": {
    "description": "Karaoke Mugen Tag File",
    "version": 1
  },
  "tag": {
    "i18n": {
      "eng": "Jun \"JxJx\" Saitô"
    },
    "name": "Jun \"JxJx\" Saitô",
    "tid": "3f550555-7618-4e28-ad1b-a62c6dbabd6f",
    "types": [
      "songwriters",
      "8"
    ],
    "repository": "kara.moe",
    "modified_at": "2020-03-31T19:04:35.164Z"
  }
}