{
  "header": {
    "description": "Karaoke Mugen Tag File",
    "version": 1
  },
  "tag": {
    "i18n": {
      "eng": "Jun'ichi Inoue"
    },
    "name": "Jun'ichi Inoue",
    "tid": "a88e8222-6d0a-4a9d-97a7-b5f8ce276ffb",
    "types": [
      "songwriters",
      "8"
    ],
    "repository": "kara.moe",
    "modified_at": "2020-03-31T19:04:35.175Z"
  }
}