{
  "header": {
    "description": "Karaoke Mugen Tag File",
    "version": 1
  },
  "tag": {
    "i18n": {
      "eng": "Jun'ya Tsugami"
    },
    "name": "Jun'ya Tsugami",
    "tid": "07251a12-4f05-42cf-a7ab-dec8ea38c4b6",
    "types": [
      "songwriters",
      "8"
    ],
    "repository": "kara.moe",
    "modified_at": "2020-03-31T19:04:35.181Z"
  }
}