{
  "header": {
    "description": "Karaoke Mugen Tag File",
    "version": 1
  },
  "tag": {
    "i18n": {
      "eng": "Jun'ya Urushino"
    },
    "modified_at": "2020-08-21T12:59:11.766Z",
    "name": "Jun'ya Urushino",
    "repository": "kara.moe",
    "tid": "234aa5b0-5696-40bc-81a6-8d7d0c30a907",
    "types": [
      "songwriters",
      "8"
    ]
  }
}