{
  "header": {
    "description": "Karaoke Mugen Tag File",
    "version": 1
  },
  "tag": {
    "i18n": {
      "eng": "Junko Miyajima"
    },
    "name": "Junko Miyajima",
    "tid": "f77f4be8-1af3-4bab-9411-759dbd5bb583",
    "types": [
      "songwriters",
      "8"
    ],
    "repository": "kara.moe",
    "modified_at": "2020-03-31T19:04:35.192Z"
  }
}