{
  "header": {
    "description": "Karaoke Mugen Tag File",
    "version": 1
  },
  "tag": {
    "i18n": {
      "eng": "Junko Hori"
    },
    "name": "Junko Hori",
    "tid": "53cf7828-7f9b-4989-acf3-e98f328b6c28",
    "types": [
      "singers",
      "2"
    ],
    "repository": "kara.moe",
    "modified_at": "2020-03-31T19:04:35.189Z"
  }
}