{
  "header": {
    "description": "Karaoke Mugen Tag File",
    "version": 1
  },
  "tag": {
    "i18n": {
      "eng": "Junko Hirotani"
    },
    "name": "Junko Hirotani",
    "tid": "27b1506e-8300-441e-ad76-303e947670c9",
    "types": [
      "singers",
      "2"
    ],
    "repository": "kara.moe",
    "modified_at": "2020-03-31T19:04:35.189Z"
  }
}