{
  "header": {
    "description": "Karaoke Mugen Tag File",
    "version": 1
  },
  "tag": {
    "i18n": {
      "eng": "Juno Reactor"
    },
    "name": "Juno Reactor",
    "repository": "kara.moe",
    "tid": "f8d6b23a-d597-42d6-b7b7-881afd763c2e",
    "types": [
      "singers",
      "2"
    ]
  }
}