{
  "header": {
    "description": "Karaoke Mugen Tag File",
    "version": 1
  },
  "tag": {
    "i18n": {
      "eng": "Junta Terashima"
    },
    "name": "Junta Terashima",
    "repository": "kara.moe",
    "tid": "681103a3-15ae-45d5-a0b8-3cc27be2be46",
    "types": [
      "singers",
      "2"
    ]
  }
}