{
  "header": {
    "description": "Karaoke Mugen Tag File",
    "version": 1
  },
  "tag": {
    "i18n": {
      "eng": "Jurik von Lichtenstein"
    },
    "name": "Jurik von Lichtenstein",
    "repository": "kara.moe",
    "tid": "2b8a32e8-5cdc-4c64-a571-01bd72df671c",
    "types": [
      "songwriters",
      "8"
    ]
  }
}