{
  "header": {
    "description": "Karaoke Mugen Tag File",
    "version": 1
  },
  "tag": {
    "i18n": {
      "eng": "Juri Nagatsuma"
    },
    "name": "Juri Nagatsuma",
    "tid": "6f8bb319-a9d0-4df2-a3d8-6fc3fe4c5c56",
    "types": [
      "singers",
      "2"
    ],
    "repository": "kara.moe",
    "modified_at": "2020-03-31T19:04:35.206Z"
  }
}