{
  "header": {
    "description": "Karaoke Mugen Tag File",
    "version": 1
  },
  "tag": {
    "i18n": {
      "eng": "Justine Dontaine"
    },
    "name": "Justine Dontaine",
    "tid": "03a6bd7e-7e77-40ff-93dd-9af7d88f3f53",
    "types": [
      "singers",
      "2"
    ],
    "repository": "kara.moe",
    "modified_at": "2020-03-31T19:04:35.211Z"
  }
}