{
  "header": {
    "description": "Karaoke Mugen Tag File",
    "version": 1
  },
  "tag": {
    "aliases": [
      "Jubei Chan",
      "Jubei-chan",
      "Juubei-chan: Lovely Gantai no Himitsu",
      "jc",
      "Дзюбэй-младшая [ТВ-1]",
      "Дзюбэй-тян - девушка-ниндзя: секрет милой повязки",
      "十兵卫: 爱心眼罩的秘密",
      "juubee-chan"
    ],
    "external_database_ids": {
      "anilist": 635,
      "myanimelist": 635,
      "kitsu": 589
    },
    "i18n": {
      "eng": "Jubei-chan the Ninja Girl: Secret of the Lovely Eyepatch",
      "fre": "Jubei-chan The Ninja Girl : Le secret du Lovely Bandeau",
      "jpn": "十兵衛ちゃん ーラブリー眼帯の秘密",
      "qro": "Jûbee-chan: Lovely Gantai no Himitsu"
    },
    "modified_at": "2020-03-31T19:04:31.832Z",
    "name": "Jûbee-chan: Lovely Gantai no Himitsu",
    "repository": "kara.moe",
    "tid": "fd143d3a-243f-4ea5-af92-296ea1176c60",
    "types": [
      "series",
      "1"
    ]
  }
}