{
  "header": {
    "description": "Karaoke Mugen Tag File",
    "version": 1
  },
  "tag": {
    "aliases": [
      "12 Karalysčių",
      "12 Kingdoms",
      "12 Kokuki",
      "12 Krallık",
      "12 królestw",
      "12 Împărăţii",
      "12 อาณาจักรเทพยุทธ์",
      "12K",
      "Doze Reinos",
      "Dvanáct království",
      "Dwanaście królestw",
      "JK",
      "Juuni",
      "Juuni Kokki",
      "Juuni Kokuki",
      "Kaksteist Kuningriiki",
      "Les Douze Royaumes",
      "Record of 12 countries",
      "Дванадесете Кралства",
      "Хроники Двенадцати Королевств",
      "Хроніки дванадцяти королівств",
      "الممالك الاثنى عشر",
      "juuni"
    ],
    "external_database_ids": {
      "anilist": 153,
      "myanimelist": 153,
      "kitsu": 131
    },
    "i18n": {
      "cat": "Els Dotze Regnes",
      "chi": "十二国记",
      "eng": "The Twelve Kingdoms",
      "fre": "Les 12 royaumes",
      "ger": "12 Kingdoms - Juuni Kokki",
      "heb": "שתים עשרה הממלכות",
      "jpn": "十二国記",
      "por": "The Twelve Kingdoms",
      "rus": "Двенадцать королевств",
      "spa": "Los Doce Reinos",
      "qro": "Jûni Kokuki"
    },
    "modified_at": "2020-03-31T19:04:31.833Z",
    "name": "Jûni Kokuki",
    "repository": "kara.moe",
    "tid": "d3cbaf1f-53e3-41ac-87c7-e148838f1829",
    "types": [
      "series",
      "1"
    ]
  }
}