{
  "header": {
    "description": "Karaoke Mugen Tag File",
    "version": 1
  },
  "tag": {
    "aliases": [
      "Juusenki Heavy Metal L Gaim",
      "L-Gaim",
      "juusenki"
    ],
    "external_database_ids": {
      "anilist": 2598,
      "myanimelist": 2598,
      "kitsu": 2362
    },
    "i18n": {
      "eng": "Heavy Metal L-Gaim",
      "jpn": "重戦機エルガイム",
      "qro": "Jûsenki Heavy Metal L Gaim"
    },
    "modified_at": "2020-03-31T19:04:31.835Z",
    "name": "Jûsenki Heavy Metal L Gaim",
    "repository": "kara.moe",
    "tid": "4ac7ac80-15f9-4beb-8812-cc7e2acc68e4",
    "types": [
      "series",
      "1"
    ]
  }
}