{
  "header": {
    "description": "Karaoke Mugen Tag File",
    "version": 1
  },
  "tag": {
    "aliases": [
      "Kenneth Nilsen"
    ],
    "i18n": {
      "eng": "K-391"
    },
    "modified_at": "2021-11-13T12:57:59.702Z",
    "name": "K-391",
    "repository": "kara.moe",
    "tid": "83317de3-d59a-430b-b9e0-83a78af802aa",
    "types": [
      "songwriters",
      "8"
    ]
  }
}