{
  "header": {
    "description": "Karaoke Mugen Tag File",
    "version": 1
  },
  "tag": {
    "i18n": {
      "eng": "K.INOJO"
    },
    "name": "K.INOJO",
    "tid": "016c92b5-35cf-4055-87e6-d73ce6245f90",
    "types": [
      "songwriters",
      "8"
    ],
    "repository": "kara.moe",
    "modified_at": "2020-03-31T19:04:35.217Z"
  }
}