{
  "header": {
    "description": "Karaoke Mugen Tag File",
    "version": 1
  },
  "tag": {
    "i18n": {
      "eng": "K2project"
    },
    "name": "K2project",
    "tid": "0478867c-4c5e-4288-b965-f95571ee38dc",
    "types": [
      "songwriters",
      "8"
    ],
    "repository": "kara.moe",
    "modified_at": "2020-03-31T19:04:35.219Z"
  }
}