{
  "header": {
    "description": "Karaoke Mugen Tag File",
    "version": 1
  },
  "tag": {
    "i18n": {
      "eng": "Kadokawa Shoten"
    },
    "name": "Kadokawa Shoten",
    "tid": "b070790a-427f-4ff7-aded-779dec5fe1f9",
    "types": [
      "creators",
      "4"
    ],
    "repository": "kara.moe",
    "modified_at": "2020-03-31T19:04:35.223Z"
  }
}