{
  "header": {
    "description": "Karaoke Mugen Tag File",
    "version": 1
  },
  "tag": {
    "aliases": [
      "KAMITSUBAKI",
      "花譜"
    ],
    "i18n": {
      "jpn": "可不",
      "qro": "KAFU"
    },
    "name": "KAFU",
    "repository": "kara.moe",
    "tid": "d71f2321-f26d-46bf-8f0d-932453888b62",
    "types": [
      "singers",
      "2"
    ]
  }
}