{
  "header": {
    "description": "Karaoke Mugen Tag File",
    "version": 1
  },
  "tag": {
    "external_database_ids": {
      "anilist": 151384,
      "kitsu": 46206,
      "myanimelist": 52198
    },
    "i18n": {
      "eng": "Kaguya-sama: Love is War -The First Kiss That Never Ends",
      "jpn": "かぐや様は告らせたいファーストキスは終わらない",
      "qro": "Kaguya-sama wa Kokurasetai: First Kiss wa Owaranai"
    },
    "name": "Kaguya-sama wa Kokurasetai: First Kiss wa Owaranai",
    "repository": "kara.moe",
    "tid": "7937c29a-4b57-48ed-a88e-af62a4daab55",
    "types": [
      "series",
      "1"
    ]
  }
}