{
  "header": {
    "description": "Karaoke Mugen Tag File",
    "version": 1
  },
  "tag": {
    "i18n": {
      "eng": "Kahara・S・Hôren"
    },
    "modified_at": "1982-04-06",
    "name": "Kahara・S・Hôren",
    "repository": "kara.moe",
    "tid": "484a3107-b0e9-4b7a-8d18-9a07daac93d9",
    "types": [
      "songwriters",
      "8"
    ]
  }
}