{
  "header": {
    "description": "Karaoke Mugen Tag File",
    "version": 1
  },
  "tag": {
    "i18n": {
      "eng": "Kaibuzetta"
    },
    "modified_at": "2020-04-26T00:13:18.355Z",
    "name": "Kaibuzetta",
    "repository": "kara.moe",
    "tid": "bebe6ff5-68f4-4e9b-845b-7d92d4740015",
    "types": [
      "creators",
      "4"
    ]
  }
}