{
  "header": {
    "description": "Karaoke Mugen Tag File",
    "version": 1
  },
  "tag": {
    "i18n": {
      "eng": "Kaito Sentai Lupinranger VS Keisatsu Sentai Patranger",
      "fre": "Kaitô Sentai Lupinranger VS Keisatsu Sentai Patranger",
      "jpn": "快盗戦隊ルパンレンジャー VS 警察戦隊パトレンジャー",
      "qro": "Kaitô Sentai Lupinranger VS Keisatsu Sentai Patranger"
    },
    "modified_at": "2020-03-31T19:04:31.853Z",
    "name": "Kaitô Sentai Lupinranger VS Keisatsu Sentai Patranger",
    "repository": "kara.moe",
    "tid": "905d6980-2868-4a71-9f98-d4e7e5383f51",
    "types": [
      "series",
      "1"
    ]
  }
}