{
  "header": {
    "description": "Karaoke Mugen Tag File",
    "version": 1
  },
  "tag": {
    "i18n": {
      "eng": "KAITO"
    },
    "name": "KAITO",
    "tid": "088ee286-73a1-4919-8503-68dbc81df761",
    "types": [
      "singers",
      "2"
    ],
    "repository": "kara.moe",
    "modified_at": "2020-03-31T19:04:35.234Z"
  }
}