{
  "header": {
    "description": "Karaoke Mugen Tag File",
    "version": 1
  },
  "tag": {
    "external_database_ids": {
      "anilist": 20818,
      "myanimelist": 24909
    },
    "i18n": {
      "eng": "Mysterious Joker",
      "jpn": "怪盗 ジョーカー",
      "qro": "Kaitou Joker"
    },
    "name": "Kaitou Joker",
    "repository": "kara.moe",
    "tid": "1c9f5038-c7d9-45f0-b970-4774aa6e0669",
    "types": [
      "series",
      "1",
      "franchises",
      "18"
    ]
  }
}