{
  "header": {
    "description": "Karaoke Mugen Tag File",
    "version": 1
  },
  "tag": {
    "aliases": [
      "Cuckoo's Fiancee"
    ],
    "external_database_ids": {
      "anilist": 132052,
      "kitsu": 44310,
      "myanimelist": 48675
    },
    "i18n": {
      "eng": "A Couple of Cuckoos",
      "qro": "Kakkou no Iinazuke",
      "jpn": "カッコウの許嫁"
    },
    "name": "Kakkou no Iinazuke",
    "repository": "kara.moe",
    "tid": "cd2f867f-7a32-40b4-9fa5-9b5e1df69ca4",
    "types": [
      "series",
      "1"
    ]
  }
}