{
  "header": {
    "description": "Karaoke Mugen Tag File",
    "version": 1
  },
  "tag": {
    "aliases": [
      "stellatram",
      "Ar Tonelico"
    ],
    "i18n": {
      "eng": "Kaleido Sphere ~Ten'en no Futatsuboshi~",
      "jpn": "Kaleido Sphere ～天淵の双つ星～"
    },
    "modified_at": "2021-11-20T18:07:17.468Z",
    "name": "Kaleido Sphere ~Ten'en no Futatsuboshi~",
    "repository": "kara.moe",
    "tid": "f190b058-ca70-4271-b907-c351aee5c1b2",
    "types": [
      "series",
      "1"
    ]
  }
}