{
  "header": {
    "description": "Karaoke Mugen Tag File",
    "version": 1
  },
  "tag": {
    "i18n": {
      "eng": "Kamaikaze Boy"
    },
    "name": "Kamaikaze Boy",
    "tid": "bd5ce1a0-423d-41cb-ad27-99b3c0e8e0d6",
    "types": [
      "songwriters",
      "8"
    ],
    "repository": "kara.moe",
    "modified_at": "2020-03-31T19:04:35.241Z"
  }
}