{
  "header": {
    "description": "Karaoke Mugen Tag File",
    "version": 1
  },
  "tag": {
    "i18n": {
      "eng": "Kamase-Tora",
      "jpn": "かませ虎"
    },
    "name": "Kamase-Tora",
    "repository": "kara.moe",
    "tid": "6539217d-b35c-4316-87b0-f25b3a86d289",
    "types": [
      "songwriters",
      "8"
    ]
  }
}