{
  "header": {
    "description": "Karaoke Mugen Tag File",
    "version": 1
  },
  "tag": {
    "i18n": {
      "eng": "Kamen Rider 555",
      "jpn": "仮面ライダー555（ファイズ）",
      "qro": "Kamen Rider 555"
    },
    "modified_at": "2020-03-31T19:04:31.862Z",
    "name": "Kamen Rider 555",
    "repository": "kara.moe",
    "tid": "79de56f2-6da1-478f-8200-e031cb366552",
    "types": [
      "series",
      "1"
    ]
  }
}