{
  "header": {
    "description": "Karaoke Mugen Tag File",
    "version": 1
  },
  "tag": {
    "i18n": {
      "eng": "Kamen Rider Skyrider",
      "jpn": "仮面ライダー / スカイライダー",
      "qro": "Kamen Rider Skyrider"
    },
    "modified_at": "2020-03-31T19:04:31.876Z",
    "name": "Kamen Rider Skyrider",
    "repository": "kara.moe",
    "tid": "207d788f-5620-4fe3-bad4-7670a9c688a0",
    "types": [
      "series",
      "1"
    ]
  }
}