{
  "header": {
    "description": "Karaoke Mugen Tag File",
    "version": 1
  },
  "tag": {
    "i18n": {
      "eng": "Kamen Rider Wizard",
      "jpn": "仮面ライダーウィザード",
      "qro": "Kamen Rider Wizard"
    },
    "modified_at": "2020-03-31T19:04:31.879Z",
    "name": "Kamen Rider Wizard",
    "repository": "kara.moe",
    "tid": "9a035e2a-b54d-44a9-9726-3df954659897",
    "types": [
      "series",
      "1"
    ]
  }
}