{
  "header": {
    "description": "Karaoke Mugen Tag File",
    "version": 1
  },
  "tag": {
    "i18n": {
      "eng": "Kamen Rider Agito",
      "jpn": "仮面ライダーアギト",
      "qro": "Kamen Rider Agito"
    },
    "modified_at": "2020-03-31T19:04:31.863Z",
    "name": "Kamen Rider Agito",
    "repository": "kara.moe",
    "tid": "3f2502fe-914b-45dc-bce2-f5d775fffbe5",
    "types": [
      "series",
      "1"
    ]
  }
}