{
  "header": {
    "description": "Karaoke Mugen Tag File",
    "version": 1
  },
  "tag": {
    "i18n": {
      "eng": "Kamen Rider W",
      "jpn": "仮面ライダーＷ（ダブル）",
      "qro": "Kamen Rider W"
    },
    "modified_at": "2020-03-31T19:04:31.879Z",
    "name": "Kamen Rider W",
    "repository": "kara.moe",
    "tid": "b72cb537-dbfc-402c-87e3-cbfecc70359c",
    "types": [
      "series",
      "1"
    ]
  }
}