{
  "header": {
    "description": "Karaoke Mugen Tag File",
    "version": 1
  },
  "tag": {
    "i18n": {
      "eng": "Kamen Rider Kiva",
      "jpn": "仮面ライダーキバ",
      "qro": "Kamen Rider Kiva"
    },
    "modified_at": "2020-03-31T19:04:31.873Z",
    "name": "Kamen Rider Kiva",
    "repository": "kara.moe",
    "tid": "93e421fc-490e-4414-bd38-37ff26d63e72",
    "types": [
      "series",
      "1"
    ]
  }
}