{
  "header": {
    "description": "Karaoke Mugen Tag File",
    "version": 1
  },
  "tag": {
    "aliases": [
      "Kamisama no Inai Nichiyoubi",
      "Tanrısız Pazar Günü",
      "The Sunday Without God",
      "kami-nai",
      "kaminai",
      "В неделя Господ няма",
      "神様のいない日曜日",
      "nichiyoubi"
    ],
    "external_database_ids": {
      "anilist": 16009,
      "myanimelist": 16009,
      "kitsu": 7358
    },
    "i18n": {
      "chi": "神不在的星期天",
      "eng": "Sunday Without God",
      "fre": "Kamisama no Inai Nichiyôbi",
      "jpn": "神さまのいない日曜日",
      "qro": "Kamisama no Inai Nichiyôbi"
    },
    "modified_at": "2020-03-31T19:04:31.890Z",
    "name": "Kamisama no Inai Nichiyôbi",
    "repository": "kara.moe",
    "tid": "b1282433-9112-4688-817c-e6ff352dab72",
    "types": [
      "series",
      "1"
    ]
  }
}