{
  "header": {
    "description": "Karaoke Mugen Tag File",
    "version": 1
  },
  "tag": {
    "aliases": [
      "Ludere deorum",
      "kamiaso",
      "Забавы богов"
    ],
    "external_database_ids": {
      "anilist": 20542,
      "myanimelist": 21563,
      "kitsu": 8160
    },
    "i18n": {
      "eng": "Kamigami no Asobi",
      "jpn": "神々の悪戯",
      "spa": "Kamigami no Asobi",
      "qro": "Kamigami no Asobi"
    },
    "modified_at": "2020-03-31T19:04:31.889Z",
    "name": "Kamigami no Asobi",
    "repository": "kara.moe",
    "tid": "b304a94d-2d54-47d3-8707-0979da3dddc3",
    "types": [
      "series",
      "1",
      "franchises",
      "18"
    ]
  }
}