{
  "header": {
    "description": "Karaoke Mugen Tag File",
    "version": 1
  },
  "tag": {
    "aliases": [
      "Kami-Chu",
      "Kami-chu! ~Kamisama wa Chuugakusei~",
      "Kami-sama wa Chuugakusei",
      "Teenage Goddess",
      "The Goddess is a Middle School Student",
      "kamichu",
      "Богиня-школьница",
      "Камічю! ~Богиня з середньої школи~",
      "神是中学生",
      "神是中學生"
    ],
    "external_database_ids": {
      "anilist": 489,
      "myanimelist": 489,
      "kitsu": 7763
    },
    "i18n": {
      "cze": "Kamichu",
      "eng": "Kamichu!",
      "hun": "Kamichu - Az iskolás istennő",
      "jpn": "かみちゅ!",
      "rum": "Kamichu - Zeiţa şcolăriţă",
      "qro": "Kamichu!"
    },
    "modified_at": "2020-03-31T19:04:31.886Z",
    "name": "Kamichu!",
    "repository": "kara.moe",
    "tid": "81be7b2a-496b-4306-a581-c7369f5debb3",
    "types": [
      "series",
      "1"
    ]
  }
}