{
  "header": {
    "description": "Karaoke Mugen Tag File",
    "version": 1
  },
  "tag": {
    "aliases": [
      "Kamisama no Memo-chou: It's the Only NEET Thing to Do.",
      "Kamisama no Memochou",
      "Notepad of God",
      "god's notebook",
      "kamimemo",
      "Бележникът на Бог",
      "Блокнот Бога",
      "Записная книжка Бога",
      "神的记事本",
      "memo-chou"
    ],
    "external_database_ids": {
      "anilist": 10568,
      "myanimelist": 10568,
      "kitsu": 6244
    },
    "i18n": {
      "eng": "Heaven's Memo Pad",
      "jpn": "神様のメモ帳 It's the only NEET thing to do.",
      "mon": "Бурханы тэмдэглэлийн дэвтэр",
      "qro": "Kamisama no Memo-chô: It's the Only NEET Thing to Do."
    },
    "modified_at": "2020-04-18T22:48:33.243Z",
    "name": "Kamisama no Memo-chô: It's the Only NEET Thing to Do.",
    "repository": "kara.moe",
    "tid": "c05d0fcd-ea1a-489d-8dbc-9a2d72fa5d41",
    "types": [
      "series",
      "1"
    ]
  }
}