{
  "header": {
    "description": "Karaoke Mugen Tag File",
    "version": 1
  },
  "tag": {
    "aliases": [
      "God Family",
      "KsK",
      "Божественная семейка",
      "神样家族"
    ],
    "external_database_ids": {
      "anilist": 990,
      "myanimelist": 990,
      "kitsu": 880
    },
    "i18n": {
      "eng": "Kamisama Kazoku",
      "jpn": "神様家族",
      "qro": "Kamisama Kazoku"
    },
    "modified_at": "2020-03-31T19:04:31.890Z",
    "name": "Kamisama Kazoku",
    "repository": "kara.moe",
    "tid": "8d398d81-ed2c-4bd8-8848-0eb0b654579c",
    "types": [
      "series",
      "1"
    ]
  }
}