{
  "header": {
    "description": "Karaoke Mugen Tag File",
    "version": 1
  },
  "tag": {
    "i18n": {
      "eng": "Kami-sama, boku wa kizuite shimatta"
    },
    "name": "Kami-sama, boku wa kizuite shimatta",
    "tid": "20e7627b-0a46-4d89-9499-77aa26cf1561",
    "types": [
      "singers",
      "2"
    ],
    "repository": "kara.moe",
    "modified_at": "2020-03-31T19:04:35.243Z"
  }
}