{
  "header": {
    "description": "Karaoke Mugen Tag File",
    "version": 1
  },
  "tag": {
    "i18n": {
      "eng": "Kan-chan"
    },
    "name": "Kan-chan",
    "tid": "011eb136-5e6c-4020-ad53-ddc309a17d8c",
    "types": [
      "songwriters",
      "8"
    ],
    "repository": "kara.moe",
    "modified_at": "2020-03-31T19:04:35.248Z"
  }
}