{
  "header": {
    "description": "Karaoke Mugen Tag File",
    "version": 1
  },
  "tag": {
    "i18n": {
      "eng": "KANATA"
    },
    "modified_at": "2020-07-03T16:57:48.114Z",
    "name": "KANATA",
    "repository": "kara.moe",
    "tid": "0b851103-3722-43dd-8dc4-2f6ff5a25f16",
    "types": [
      "songwriters",
      "8"
    ]
  }
}