{
  "header": {
    "description": "Karaoke Mugen Tag File",
    "version": 1
  },
  "tag": {
    "i18n": {
      "eng": "Kanako Wada"
    },
    "name": "Kanako Wada",
    "tid": "07aa3e69-ad4a-4d73-9893-b02b47f31661",
    "types": [
      "singers",
      "2"
    ],
    "repository": "kara.moe",
    "modified_at": "2020-03-31T19:04:35.267Z"
  }
}