{
  "header": {
    "description": "Karaoke Mugen Tag File",
    "version": 1
  },
  "tag": {
    "i18n": {
      "eng": "Kanako Oda"
    },
    "name": "Kanako Oda",
    "tid": "6bad2316-df4c-48f0-a6af-c313adad248e",
    "types": [
      "songwriters",
      "8"
    ],
    "repository": "kara.moe",
    "modified_at": "2020-03-31T19:04:35.266Z"
  }
}