{
  "header": {
    "description": "Karaoke Mugen Tag File",
    "version": 1
  },
  "tag": {
    "i18n": {
      "eng": "Kanako Mako"
    },
    "modified_at": "2021-07-27T22:18:36.492Z",
    "name": "Kanako Mako",
    "repository": "kara.moe",
    "tid": "33c292ee-2473-4dcf-9325-c762fcb5ea1a",
    "types": [
      "singers",
      "2"
    ]
  }
}