{
  "header": {
    "description": "Karaoke Mugen Tag File",
    "version": 1
  },
  "tag": {
    "aliases": [
      "Kaneyori Masaru",
      "Kane Yori"
    ],
    "i18n": {
      "jpn": "カネヨリマサル",
      "qro": "Kaneyorimasaru"
    },
    "name": "Kaneyorimasaru",
    "repository": "kara.moe",
    "tid": "ceb2da34-d41c-4976-9391-ecf4e37968d9",
    "types": [
      "singers",
      "2"
    ]
  }
}