{
  "header": {
    "description": "Karaoke Mugen Tag File",
    "version": 1
  },
  "tag": {
    "i18n": {
      "eng": "KANIKAPILA"
    },
    "modified_at": "2020-08-17T20:45:13.049Z",
    "name": "KANIKAPILA",
    "repository": "kara.moe",
    "tid": "62195456-6d1f-4577-ae85-94512cc47dd3",
    "types": [
      "singers",
      "2"
    ]
  }
}