{
  "header": {
    "description": "Karaoke Mugen Tag File",
    "version": 1
  },
  "tag": {
    "aliases": [
      "elle et son chat",
      "그녀와 그녀의 고양이: Everything Flows"
    ],
    "external_database_ids": {
      "anilist": 21577,
      "myanimelist": 32491,
      "kitsu": 11737
    },
    "i18n": {
      "eng": "She and Her Cat: Everything Flows",
      "jpn": "彼女と彼女の猫 -Everything Flows-",
      "qro": "Kanojo to Kanojo no Neko: Everything Flows"
    },
    "modified_at": "2020-03-31T19:04:31.900Z",
    "name": "Kanojo to Kanojo no Neko: Everything Flows",
    "repository": "kara.moe",
    "tid": "6280264f-0d30-4088-9bf2-52b55c390361",
    "types": [
      "series",
      "1"
    ]
  }
}