{
  "header": {
    "description": "Karaoke Mugen Tag File",
    "version": 1
  },
  "tag": {
    "i18n": {
      "eng": "Kanon Yamamoto"
    },
    "name": "Kanon Yamamoto",
    "tid": "1d1bea44-c397-4e4a-a3de-53fdae057608",
    "types": [
      "songwriters",
      "8"
    ],
    "repository": "kara.moe",
    "modified_at": "2020-03-31T19:04:35.283Z"
  }
}