{
  "header": {
    "description": "Karaoke Mugen Tag File",
    "version": 1
  },
  "tag": {
    "i18n": {
      "jpn": "カノン",
      "qro": "Kanon"
    },
    "modified_at": "2020-03-31T19:04:31.902Z",
    "name": "Kanon",
    "repository": "kara.moe",
    "tid": "e9a43ad9-eb15-446f-89eb-9f4faf745c45",
    "types": [
      "series",
      "1",
      "franchises",
      "18"
    ]
  }
}