{
  "header": {
    "description": "Karaoke Mugen Tag File",
    "version": 1
  },
  "tag": {
    "aliases": [
      "Kanokon OVA",
      "Kanokon: The Big Midsummer Carnival"
    ],
    "external_database_ids": {
      "anilist": 6791,
      "myanimelist": 6791,
      "kitsu": 4715
    },
    "i18n": {
      "eng": "Kanokon: Manatsu no Dai Shanikusai",
      "jpn": "かのこん ~真夏の大謝肉祭~",
      "qro": "Kanokon: Manatsu no Dai Shanikusai"
    },
    "modified_at": "2020-03-31T19:04:31.900Z",
    "name": "Kanokon: Manatsu no Dai Shanikusai",
    "repository": "kara.moe",
    "tid": "578f9337-f924-489c-89c3-7d56f9239b19",
    "types": [
      "series",
      "1"
    ]
  }
}