{
  "header": {
    "description": "Karaoke Mugen Tag File",
    "version": 1
  },
  "tag": {
    "i18n": {
      "eng": "Kanro Maeda"
    },
    "name": "Kanro Maeda",
    "tid": "b4c9a336-509d-4d14-a92d-b1f99bae8c14",
    "types": [
      "songwriters",
      "8"
    ],
    "repository": "kara.moe",
    "modified_at": "2020-03-31T19:04:35.285Z"
  }
}