{
  "header": {
    "description": "Karaoke Mugen Tag File",
    "version": 1
  },
  "tag": {
    "aliases": [
      "KanColle"
    ],
    "external_database_ids": {
      "anilist": 20553,
      "myanimelist": 21511,
      "kitsu": 8039
    },
    "i18n": {
      "eng": "Kantai Collection",
      "jpn": "艦隊これくしょん -艦これ-",
      "qro": "Kantai Collection"
    },
    "modified_at": "2020-03-31T19:04:31.903Z",
    "name": "Kantai Collection",
    "repository": "kara.moe",
    "tid": "4e9bd108-2602-4bc4-9943-e0081ec5aa84",
    "types": [
      "series",
      "1"
    ]
  }
}