{
  "header": {
    "description": "Karaoke Mugen Tag File",
    "version": 1
  },
  "tag": {
    "i18n": {
      "eng": "Kaori Hikita"
    },
    "name": "Kaori Hikita",
    "tid": "f49bed79-4bd4-416e-9e14-a13ac5121e8f",
    "types": [
      "singers",
      "2"
    ],
    "repository": "kara.moe",
    "modified_at": "2020-03-31T19:04:35.288Z"
  }
}