{
  "header": {
    "description": "Karaoke Mugen Tag File",
    "version": 1
  },
  "tag": {
    "i18n": {
      "eng": "Kaori Nishina"
    },
    "name": "Kaori Nishina",
    "tid": "622e9074-75e5-497b-a714-d98d85f5a79a",
    "types": [
      "singers",
      "2"
    ],
    "repository": "kara.moe",
    "modified_at": "2020-03-31T19:04:35.295Z"
  }
}