{
  "header": {
    "description": "Karaoke Mugen Tag File",
    "version": 1
  },
  "tag": {
    "i18n": {
      "eng": "Kaori Moriwaka"
    },
    "name": "Kaori Moriwaka",
    "tid": "9adaf9e3-8fa7-4942-9128-afc499f8ca54",
    "types": [
      "songwriters",
      "8"
    ],
    "repository": "kara.moe",
    "modified_at": "2020-03-31T19:04:35.293Z"
  }
}