{
  "header": {
    "description": "Karaoke Mugen Tag File",
    "version": 1
  },
  "tag": {
    "i18n": {
      "eng": "Kaori Moritani"
    },
    "name": "Kaori Moritani",
    "tid": "76eaa666-a018-404e-b920-fce1566ff748",
    "types": [
      "singers",
      "2"
    ],
    "repository": "kara.moe",
    "modified_at": "2020-03-31T19:04:35.293Z"
  }
}