{
  "header": {
    "description": "Karaoke Mugen Tag File",
    "version": 1
  },
  "tag": {
    "i18n": {
      "eng": "Kaori Mizuhashi"
    },
    "name": "Kaori Mizuhashi",
    "tid": "ca041666-2eab-4b1a-9e7f-46711ab89825",
    "types": [
      "singers",
      "2"
    ],
    "repository": "kara.moe",
    "modified_at": "2020-03-31T19:04:35.291Z"
  }
}