{
  "header": {
    "description": "Karaoke Mugen Tag File",
    "version": 1
  },
  "tag": {
    "i18n": {
      "eng": "Kappei Yamaguchi"
    },
    "name": "Kappei Yamaguchi",
    "tid": "86dd6c0a-96de-4125-b753-b8e23f5ed9df",
    "types": [
      "singers",
      "2"
    ],
    "repository": "kara.moe",
    "modified_at": "2020-03-31T19:04:35.304Z"
  }
}