{
  "header": {
    "description": "Karaoke Mugen Tag File",
    "version": 1
  },
  "tag": {
    "i18n": {
      "eng": "Karajam"
    },
    "modified_at": "2020-03-31T21:59:59.549Z",
    "name": "Karajam",
    "repository": "kara.moe",
    "tid": "f8490ceb-caf8-4fbf-aab5-79f3a35536cd",
    "types": [
      "authors",
      "6"
    ]
  }
}