{
  "header": {
    "description": "Karaoke Mugen Tag File",
    "version": 1
  },
  "tag": {
    "aliases": [
      "A Karate-Crazy Life",
      "Ichidai the Karate Fool"
    ],
    "external_database_ids": {
      "anilist": 7479,
      "myanimelist": 7479,
      "kitsu": 4994
    },
    "i18n": {
      "eng": "Karate Master",
      "jpn": "空手バカ一代",
      "qro": "Karate Baka Ichidai"
    },
    "modified_at": "2020-03-31T19:04:31.906Z",
    "name": "Karate Baka Ichidai",
    "repository": "kara.moe",
    "tid": "bc190dd6-8289-40c8-8b03-7f69b6b0a4c9",
    "types": [
      "series",
      "1"
    ]
  }
}