{
  "header": {
    "description": "Karaoke Mugen Tag File",
    "version": 1
  },
  "tag": {
    "i18n": {
      "eng": "Karen Mok"
    },
    "name": "Karen Mok",
    "tid": "31767043-419a-41ba-a44f-cddad911041d",
    "types": [
      "singers",
      "2",
      "songwriters",
      "8"
    ],
    "repository": "kara.moe",
    "modified_at": "2020-03-31T19:04:35.307Z"
  }
}