{
  "header": {
    "description": "Karaoke Mugen Tag File",
    "version": 1
  },
  "tag": {
    "i18n": {
      "eng": "Karen Miyama"
    },
    "name": "Karen Miyama",
    "tid": "874bdc14-6872-4da5-9817-ea85c47c060f",
    "types": [
      "singers",
      "2"
    ],
    "repository": "kara.moe",
    "modified_at": "2020-03-31T19:04:35.306Z"
  }
}