{
  "header": {
    "description": "Karaoke Mugen Tag File",
    "version": 1
  },
  "tag": {
    "i18n": {
      "eng": "Karen Orzolek"
    },
    "modified_at": "2020-07-12T14:49:12.417Z",
    "name": "Karen Orzolek",
    "repository": "kara.moe",
    "tid": "92c5b319-4775-4d26-a8a4-e31a45c4bef2",
    "types": [
      "songwriters",
      "8"
    ]
  }
}