{
  "header": {
    "description": "Karaoke Mugen Tag File",
    "version": 1
  },
  "tag": {
    "i18n": {
      "eng": "Karine Costa"
    },
    "name": "Karine Costa",
    "repository": "kara.moe",
    "tid": "09800cd1-c854-46a3-9d0c-b11907b44b89",
    "types": [
      "singers",
      "2"
    ]
  }
}