{
  "header": {
    "description": "Karaoke Mugen Tag File",
    "version": 1
  },
  "tag": {
    "aliases": [
      "Cheeky Vampire",
      "Chibi Vampire"
    ],
    "external_database_ids": {
      "anilist": 469,
      "myanimelist": 469,
      "kitsu": 431
    },
    "i18n": {
      "ara": "كارين",
      "chi": "增血鬼果林",
      "eng": "Karin",
      "jpn": "かりん",
      "pol": "Wampirzyca Karin",
      "rus": "Карин",
      "ukr": "Карін",
      "qro": "Karin"
    },
    "modified_at": "2020-03-31T19:04:31.910Z",
    "name": "Karin",
    "repository": "kara.moe",
    "tid": "79031b4e-9545-4be0-8bf0-95c202607401",
    "types": [
      "series",
      "1"
    ]
  }
}