{
  "header": {
    "description": "Karaoke Mugen Tag File",
    "version": 1
  },
  "tag": {
    "i18n": {
      "eng": "Karrot"
    },
    "name": "Karrot",
    "repository": "kara.moe",
    "tid": "c304accd-e9bf-40ac-a14e-d6cd04f190e2",
    "types": [
      "singers",
      "2"
    ]
  }
}