{
  "header": {
    "description": "Karaoke Mugen Tag File",
    "version": 1
  },
  "tag": {
    "i18n": {
      "afr": "Kasjmirse",
      "amh": "Kashmiri",
      "ara": "الكشميري",
      "aze": "Кашмири",
      "bak": "Кашмир",
      "bel": "Kashmiri",
      "bul": "Шматко",
      "ben": "কাশ্মীরী",
      "bos": "Dan",
      "cat": "Xilis",
      "cze": "Kašmírština",
      "wel": "Kashaya",
      "dan": "Kashmir",
      "ger": "Kashmiri",
      "gre": "Κασμίρ",
      "eng": "Kashmiri",
      "epo": "Kashmiri",
      "spa": "Kashmiri",
      "est": "Kashmiri",
      "baq": "Kashmirera",
      "per": "کشمیری",
      "fin": "Kašmirin",
      "fre": "Cachemire",
      "gle": "Caismíris",
      "gla": "Kashmiri",
      "glg": "Cachemir",
      "guj": "કશ્મીરી",
      "heb": "מקשמיר",
      "hin": "कश्मीरी",
      "hrv": "Кашмири",
      "hat": "Kashmir",
      "hun": "Kasmíri",
      "arm": "Кашмири",
      "ind": "Kashmir",
      "ice": "Kashmiri",
      "ita": "Kashmiri",
      "jpn": "Kashmiri",
      "jav": "Katrangan",
      "geo": "Kashmiri",
      "kaz": "Кашмири",
      "kan": "ಕಾಶ್ಮೀರಿ",
      "kor": "카슈미르",
      "kir": "Кашмири",
      "lat": "Kashmiri",
      "lit": "Kashmiri",
      "lav": "Kašmiras",
      "mlg": "Kashmiri",
      "mao": "Kahamiri",
      "mac": "Kashmiri",
      "mal": "കശ്മീരി",
      "mon": "Кашмир",
      "mar": "काश्मिरी",
      "may": "Kashmir",
      "mlt": "Kashmir",
      "nep": "कश्मीरी",
      "dut": "Kashmiri",
      "nor": "Kashmiri",
      "pan": "ਕਸ਼ਮੀਰੀ",
      "pol": "Кашмири",
      "por": "Kashmiri",
      "rum": "Kashmiri",
      "rus": "Кашмири",
      "sin": "කාශ්මීර",
      "slo": "Authorization",
      "slv": "Portugalščina",
      "alb": "Kashmiri",
      "srp": "Кашмири",
      "sun": "Kashmiri",
      "swe": "Kashmiri",
      "swa": "Kashmiri",
      "tam": "காஷ்மீரி",
      "tel": "కాశ్మీరీ",
      "tgk": "Кашмири",
      "tha": "ภาษากัศมิรี name",
      "tgl": "Kashmiri",
      "tur": "Keşmir",
      "tat": "Кашмири",
      "ukr": "Кашмірі",
      "urd": "کشمیری",
      "uzb": "Kashmirning qishloq",
      "vie": "Kashmir",
      "xho": "Kashmiriname",
      "yid": "קאַשמירי",
      "chi": "克什米尔"
    },
    "name": "kas",
    "tid": "f004392e-c2c8-422c-a249-a79306ead41c",
    "types": [
      "langs",
      "5"
    ],
    "repository": "kara.moe",
    "modified_at": "2020-03-31T19:04:35.312Z"
  }
}