{
  "header": {
    "description": "Karaoke Mugen Tag File",
    "version": 1
  },
  "tag": {
    "i18n": {
      "eng": "KasrkinSaser"
    },
    "name": "KasrkinSaser",
    "repository": "kara.moe",
    "tid": "56355915-6bc6-4282-acbb-dd1fdaf13d50",
    "types": [
      "authors",
      "6"
    ]
  }
}