{
  "header": {
    "description": "Karaoke Mugen Tag File",
    "version": 1
  },
  "tag": {
    "i18n": {
      "eng": "Katai Uji"
    },
    "name": "Katai Uji",
    "tid": "4a090d3a-435c-41ae-9dbb-f9924f813439",
    "types": [
      "creators",
      "4"
    ],
    "repository": "kara.moe",
    "modified_at": "2020-03-31T19:04:35.316Z"
  }
}