{
  "header": {
    "description": "Karaoke Mugen Tag File",
    "version": 1
  },
  "tag": {
    "i18n": {
      "eng": "Katamari Damacy",
      "jpn": "塊魂",
      "qro": "Katamari Damacy"
    },
    "modified_at": "2021-06-08T21:56:36.543Z",
    "name": "Katamari Damacy",
    "repository": "kara.moe",
    "tid": "26470d08-dea7-46f0-89f5-b08768cb0fa0",
    "types": [
      "series",
      "1"
    ]
  }
}