{
  "header": {
    "description": "Karaoke Mugen Tag File",
    "version": 1
  },
  "tag": {
    "i18n": {
      "eng": "Kate Higgins"
    },
    "name": "Kate Higgins",
    "tid": "e7acf3ad-df2f-4164-a065-e57f1d249a68",
    "types": [
      "singers",
      "2"
    ],
    "repository": "kara.moe",
    "modified_at": "2020-03-31T19:04:35.317Z"
  }
}