{
  "header": {
    "description": "Karaoke Mugen Tag File",
    "version": 1
  },
  "tag": {
    "i18n": {
      "eng": "KATE"
    },
    "name": "KATE",
    "tid": "3de2d5c4-21ec-4c68-bf7c-0b3afc172f1f",
    "types": [
      "songwriters",
      "8"
    ],
    "repository": "kara.moe",
    "modified_at": "2020-03-31T19:04:35.318Z"
  }
}