{
  "header": {
    "description": "Karaoke Mugen Tag File",
    "version": 1
  },
  "tag": {
    "i18n": {
      "eng": "Katerina Bramley"
    },
    "modified_at": "2020-08-17T22:45:41.348Z",
    "name": "Katerina Bramley",
    "repository": "kara.moe",
    "tid": "11433dd4-531a-4ee8-9db4-cab46be1d0f9",
    "types": [
      "songwriters",
      "8"
    ]
  }
}