{
  "header": {
    "description": "Karaoke Mugen Tag File",
    "version": 1
  },
  "tag": {
    "i18n": {
      "eng": "Katia Markosy"
    },
    "modified_at": "2020-07-03T22:59:30.923Z",
    "name": "Katia Markosy",
    "repository": "kara.moe",
    "tid": "165f394b-00e9-4f95-b010-f1b9f99fb581",
    "types": [
      "singers",
      "2"
    ]
  }
}