{
  "header": {
    "description": "Karaoke Mugen Tag File",
    "version": 1
  },
  "tag": {
    "i18n": {
      "eng": "Katsuhiko Sugiyama"
    },
    "name": "Katsuhiko Sugiyama",
    "tid": "fd027eba-068d-4055-b2da-a7ec8ab28803",
    "types": [
      "songwriters",
      "8"
    ],
    "repository": "kara.moe",
    "modified_at": "2020-03-31T19:04:35.322Z"
  }
}