{
  "header": {
    "description": "Karaoke Mugen Tag File",
    "version": 1
  },
  "tag": {
    "i18n": {
      "eng": "Katsumi Oonishi"
    },
    "name": "Katsumi Oonishi",
    "tid": "4bd83bc3-5247-47c6-9811-5d74fc5d5ac0",
    "types": [
      "songwriters",
      "8"
    ],
    "repository": "kara.moe",
    "modified_at": "2020-03-31T19:04:35.326Z"
  }
}