{
  "header": {
    "description": "Karaoke Mugen Tag File",
    "version": 1
  },
  "tag": {
    "i18n": {
      "eng": "Katsuhiko Kurosu"
    },
    "name": "Katsuhiko Kurosu",
    "tid": "28b975a1-0b59-49b7-aa1d-987c9b4fe7ae",
    "types": [
      "songwriters",
      "8"
    ],
    "repository": "kara.moe",
    "modified_at": "2020-03-31T19:04:35.321Z"
  }
}