{
  "header": {
    "description": "Karaoke Mugen Tag File",
    "version": 1
  },
  "tag": {
    "i18n": {
      "eng": "Katsutoshi Kitagawa"
    },
    "modified_at": "2021-06-11T13:07:48.320Z",
    "name": "Katsutoshi Kitagawa",
    "repository": "kara.moe",
    "tid": "2cc789c7-ab41-414f-a56c-0b758ca1e4e4",
    "types": [
      "songwriters",
      "8",
      "singers",
      "2"
    ]
  }
}