{
  "header": {
    "description": "Karaoke Mugen Tag File",
    "version": 1
  },
  "tag": {
    "aliases": [
      "Katte ni Kaizou",
      "Katteni Kaizou",
      "kaizou"
    ],
    "external_database_ids": {
      "anilist": 10191,
      "myanimelist": 10191,
      "kitsu": 6069
    },
    "i18n": {
      "eng": "Katte ni Kaizô",
      "jpn": "かってに改蔵",
      "qro": "Katte ni Kaizô"
    },
    "modified_at": "2020-04-19T21:50:43.698Z",
    "name": "Katte ni Kaizô",
    "repository": "kara.moe",
    "tid": "c6fb9976-be3e-4370-8a40-faa8348e6da2",
    "types": [
      "series",
      "1"
    ]
  }
}