{
  "header": {
    "description": "Karaoke Mugen Tag File",
    "version": 1
  },
  "tag": {
    "i18n": {
      "eng": "Katy Perry"
    },
    "name": "Katy Perry",
    "repository": "kara.moe",
    "tid": "ffdaaa9e-e549-40a1-92ca-912d7be85229",
    "types": [
      "songwriters",
      "8",
      "singers",
      "2"
    ]
  }
}