{
  "header": {
    "description": "Karaoke Mugen Tag File",
    "version": 1
  },
  "tag": {
    "i18n": {
      "afr": "Kanuri",
      "amh": "Kanuri",
      "ara": "Kanuri",
      "aze": "Канури",
      "bak": "Каури",
      "bel": "Канури",
      "bul": "Канури",
      "ben": "Kanuri",
      "bos": "Jaíka",
      "cat": "Kanuri",
      "cze": "Kanuri",
      "wel": "Kalabari",
      "dan": "Kanuri",
      "ger": "Kanuri",
      "gre": "Kanuri",
      "eng": "Kanuri",
      "epo": "Kanuri",
      "spa": "Kanuri",
      "est": "Kanuri",
      "baq": "Kanuri",
      "per": "Kanuri",
      "fin": "Kanuri",
      "fre": "Kanuri",
      "gle": "Kanuri",
      "gla": "Kanuri",
      "glg": "Kanuri",
      "guj": "Kanuri",
      "heb": "Kanuri",
      "hin": "Kanuri",
      "hrv": "Канури",
      "hat": "Kanuri",
      "hun": "Kanuri",
      "arm": "Канури",
      "ind": "Kanuri",
      "ice": "Kanuri",
      "ita": "Kanuri",
      "jpn": "Kanuri",
      "jav": "Kanuri",
      "geo": "Kanuri",
      "kaz": "Канури",
      "kan": "Kanuri",
      "kor": "한국어",
      "kir": "Канури",
      "lat": "Kanuri",
      "lit": "Kanuri",
      "lav": "Kanuri",
      "mlg": "Aramaic",
      "mao": "Kanuri",
      "mac": "Kanuri",
      "mal": "Kanuri",
      "mon": "Kanuri",
      "mar": "Kanuri",
      "may": "Kanuri",
      "mlt": "Kanuri",
      "nep": "Kanuri",
      "dut": "Kanuri",
      "nor": "Kanuri",
      "pan": "Kanuri",
      "pol": "Канури",
      "por": "Kanuri",
      "rum": "Kanuri",
      "rus": "Канури",
      "sin": "Kanuri",
      "slo": "Kanuri",
      "slv": "Kanuri",
      "alb": "Kanuri",
      "srp": "Канури",
      "sun": "Kanuri",
      "swe": "Kanuri",
      "swa": "Kanuri",
      "tam": "Kanuri",
      "tel": "Kanuri",
      "tgk": "Канури",
      "tha": "Kanuri",
      "tgl": "Kanuri",
      "tur": "Kanuri",
      "tat": "Канури",
      "ukr": "Канурі",
      "urd": "Kanuri",
      "uzb": "Kanuri",
      "vie": "Kanuri",
      "xho": "Kanuri",
      "yid": "Kanuri",
      "chi": "卡努里语"
    },
    "name": "kau",
    "tid": "8b478b66-8358-4bb1-aca3-796c3254438f",
    "types": [
      "langs",
      "5"
    ],
    "repository": "kara.moe",
    "modified_at": "2020-03-31T19:04:35.334Z"
  }
}