{
  "header": {
    "description": "Karaoke Mugen Tag File",
    "version": 1
  },
  "tag": {
    "i18n": {
      "eng": "Kay"
    },
    "modified_at": "2020-07-31T19:21:42.873Z",
    "name": "Kay",
    "repository": "kara.moe",
    "tid": "d4156daf-6c2d-4c25-a268-40bd38321e41",
    "types": [
      "authors",
      "6"
    ]
  }
}