{
  "header": {
    "description": "Karaoke Mugen Tag File",
    "version": 1
  },
  "tag": {
    "i18n": {
      "eng": "Kayoko Yoshizawa",
      "jpn": "吉澤嘉代子",
      "qro": "Kayoko Yoshizawa"
    },
    "name": "Kayoko Yoshizawa",
    "tid": "8cef5ee1-7632-4bda-8707-582e2506951e",
    "types": [
      "songwriters",
      "8"
    ],
    "repository": "kara.moe",
    "modified_at": "2020-03-31T19:04:35.342Z"
  }
}