{
  "header": {
    "description": "Karaoke Mugen Tag File",
    "version": 1
  },
  "tag": {
    "aliases": [
      "Kaze no Tani no Naushika",
      "La princesse des étoiles",
      "Nausicaä do Vale do Vento",
      "Nausicaä of the Valley of the Wind",
      "Nausika iš Vėjų slėnio",
      "Nausikaja iz doline Vjetra",
      "Sternenkrieger - Warriors of the Wind",
      "Vindens Krigare",
      "Warriors of the Wind",
      "Η Ναυσικά της Κοιλάδας των Ανέμων",
      "Οι μαχητές του ανέμου",
      "Навсікая Долини вітру",
      "Наусика от Долината на Вятъра",
      "Наусіка з долини вітрів",
      "Наушіка Долини Вітру",
      "ناوسيكا فتاة وادي الرياح"
    ],
    "external_database_ids": {
      "anilist": 572,
      "myanimelist": 572,
      "kitsu": 529
    },
    "i18n": {
      "chi": "风之谷",
      "cze": "Naušika z Větrného údolí",
      "eng": "Nausicaa of the Valley of the Wind",
      "est": "Tuulte oru Nausikaa",
      "fin": "Tuulen laakson Nausicaä",
      "fre": "Nausicaä de la vallée du vent",
      "ger": "Nausicaä aus dem Tal der Winde",
      "gre": "Η Ναυσικά της Κοιλάδας του Ανέμου",
      "heb": "נאוסיקה - נסיכת עמק הרוחות",
      "hun": "Nauszika - A szél harcosai",
      "ita": "Nausicaä della valle del vento",
      "jpn": "風の谷のナウシカ",
      "kor": "바람계곡의 나우시카",
      "lit": "Nausikaja iš Vėjų slėnio",
      "pol": "Nausicaä z Doliny Wiatru",
      "por": "Nausicaä do Vale do Vento",
      "rus": "Навсикая из Долины Ветров",
      "slv": "Nausicaä iz Dežele vetra",
      "spa": "Nausicaä del valle del viento",
      "srp": "Nausikaja iz doline Vetra",
      "swe": "Nausicaä från Vindarnas dal",
      "tur": "Rüzgarlı Vadi",
      "qro": "Kaze no Tani no Nausicaa"
    },
    "modified_at": "2020-03-31T19:04:31.916Z",
    "name": "Kaze no Tani no Nausicaa",
    "repository": "kara.moe",
    "tid": "1a0c67e7-2ad5-49fc-9283-fbfcaf522af9",
    "types": [
      "series",
      "1"
    ]
  }
}