{
  "header": {
    "description": "Karaoke Mugen Tag File",
    "version": 1
  },
  "tag": {
    "aliases": [
      "KNS",
      "Stigma of the Wind",
      "Петно на Вятъра",
      "Печать ветра",
      "风之圣痕"
    ],
    "external_database_ids": {
      "anilist": 1691,
      "myanimelist": 1691,
      "kitsu": 1519
    },
    "i18n": {
      "eng": "Kaze no Stigma",
      "jpn": "風のスティグマ",
      "kor": "바람의 스티그마",
      "qro": "Kaze No Stigma"
    },
    "modified_at": "2020-03-31T19:04:31.915Z",
    "name": "Kaze No Stigma",
    "repository": "kara.moe",
    "tid": "e9c9f31b-9bcb-4532-8ca9-c748ec66ff77",
    "types": [
      "series",
      "1"
    ]
  }
}