{
  "header": {
    "description": "Karaoke Mugen Tag File",
    "version": 1
  },
  "tag": {
    "aliases": [
      "Carried by the Wind",
      "KTR",
      "Ran The Samurai Girl",
      "Ran la chica samurai",
      "Перекати-поле Цукикагэ Ран",
      "随风飘的月影兰"
    ],
    "external_database_ids": {
      "anilist": 606,
      "myanimelist": 606,
      "kitsu": 561
    },
    "i18n": {
      "eng": "Kazemakase Tsukikage Ran",
      "jpn": "風まかせ月影蘭",
      "por": "Ran, The Samurai Girl",
      "qro": "Kazemakase Tsukikage Ran"
    },
    "modified_at": "2020-03-31T19:04:31.916Z",
    "name": "Kazemakase Tsukikage Ran",
    "repository": "kara.moe",
    "tid": "c8ceb6a2-5fb7-4ecf-ac1c-34ebf3aeaeb4",
    "types": [
      "series",
      "1"
    ]
  }
}