{
  "header": {
    "description": "Karaoke Mugen Tag File",
    "version": 1
  },
  "tag": {
    "i18n": {
      "eng": "Kazumi Nishida"
    },
    "name": "Kazumi Nishida",
    "tid": "f65eecdf-5f47-4011-b27b-812f784e0847",
    "types": [
      "singers",
      "2"
    ],
    "repository": "kara.moe",
    "modified_at": "2020-03-31T19:04:35.366Z"
  }
}