{
  "header": {
    "description": "Karaoke Mugen Tag File",
    "version": 1
  },
  "tag": {
    "i18n": {
      "eng": "Kazuki Tomita"
    },
    "name": "Kazuki Tomita",
    "repository": "kara.moe",
    "tid": "6ce43d43-b383-48dd-9f0c-a56176512172",
    "types": [
      "songwriters",
      "8"
    ]
  }
}