{
  "header": {
    "description": "Karaoke Mugen Tag File",
    "version": 1
  },
  "tag": {
    "i18n": {
      "eng": "Kazutoyo Maehiro"
    },
    "name": "Kazutoyo Maehiro",
    "tid": "40232cfb-0dd8-4ed3-8bb6-75851f8024ec",
    "types": [
      "songwriters",
      "8"
    ],
    "repository": "kara.moe",
    "modified_at": "2020-03-31T19:04:35.381Z"
  }
}