{
  "header": {
    "description": "Karaoke Mugen Tag File",
    "version": 1
  },
  "tag": {
    "i18n": {
      "eng": "Kazuko Ito"
    },
    "modified_at": "2021-01-19T01:18:37.619Z",
    "name": "Kazuko Ito",
    "repository": "kara.moe",
    "tid": "c44b1354-62ca-4b13-a323-c0480142a006",
    "types": [
      "singers",
      "2"
    ]
  }
}