{
  "header": {
    "description": "Karaoke Mugen Tag File",
    "version": 1
  },
  "tag": {
    "aliases": [
      "おとは",
      "Otsuha",
      "Otoha"
    ],
    "i18n": {
      "jpn": "藤井和代",
      "qro": "Kazuyo Fujii"
    },
    "name": "Kazuyo Fujii",
    "repository": "kara.moe",
    "tid": "b3075ca8-68c1-4a6b-b5d3-3c403a8a0746",
    "types": [
      "singers",
      "2",
      "songwriters",
      "8"
    ]
  }
}