{
  "header": {
    "description": "Karaoke Mugen Tag File",
    "version": 1
  },
  "tag": {
    "i18n": {
      "eng": "Kazuyoshi Baba"
    },
    "modified_at": "2020-08-21T18:42:05.611Z",
    "name": "Kazuyoshi Baba",
    "repository": "kara.moe",
    "tid": "dff1f1c9-b747-4a4c-8753-b68f4a8eceb8",
    "types": [
      "songwriters",
      "8"
    ]
  }
}