{
  "header": {
    "description": "Karaoke Mugen Tag File",
    "version": 1
  },
  "tag": {
    "i18n": {
      "eng": "Kazuo Koike"
    },
    "name": "Kazuo Koike",
    "tid": "7a145e98-4cde-48cb-85ed-d69ff0ae4b1a",
    "types": [
      "songwriters",
      "8"
    ],
    "repository": "kara.moe",
    "modified_at": "2020-03-31T19:04:35.373Z"
  }
}