{
  "header": {
    "description": "Karaoke Mugen Tag File",
    "version": 1
  },
  "tag": {
    "i18n": {
      "eng": "Kazuko Kobayashi"
    },
    "name": "Kazuko Kobayashi",
    "tid": "d5bedcd7-e6d0-4006-9ceb-45ad61103b0e",
    "types": [
      "songwriters",
      "8"
    ],
    "repository": "kara.moe",
    "modified_at": "2020-03-31T19:04:35.360Z"
  }
}