{
  "header": {
    "description": "Karaoke Mugen Tag File",
    "version": 1
  },
  "tag": {
    "i18n": {
      "eng": "Kazunori Ashizawa"
    },
    "name": "Kazunori Ashizawa",
    "tid": "70b81cf8-a8fc-4923-980c-638a74f805b5",
    "types": [
      "songwriters",
      "8"
    ],
    "repository": "kara.moe",
    "modified_at": "2020-03-31T19:04:35.369Z"
  }
}