{
  "header": {
    "description": "Karaoke Mugen Tag File",
    "version": 1
  },
  "tag": {
    "i18n": {
      "eng": "Kazuhiko Shimamoto"
    },
    "name": "Kazuhiko Shimamoto",
    "tid": "f33326ef-c238-4a81-913c-295b27804a5c",
    "types": [
      "songwriters",
      "8"
    ],
    "repository": "kara.moe",
    "modified_at": "2020-03-31T19:04:35.352Z"
  }
}