{
  "header": {
    "description": "Karaoke Mugen Tag File",
    "version": 1
  },
  "tag": {
    "i18n": {
      "eng": "Kazuma Kondô"
    },
    "name": "Kazuma Kondô",
    "tid": "1c90f3f9-555b-4708-9420-053c63446567",
    "types": [
      "songwriters",
      "8"
    ],
    "repository": "kara.moe",
    "modified_at": "2020-03-31T19:04:35.362Z"
  }
}