{
  "header": {
    "description": "Karaoke Mugen Tag File",
    "version": 1
  },
  "tag": {
    "i18n": {
      "eng": "KCET"
    },
    "name": "KCET",
    "tid": "e21c5926-204c-4f69-a8b7-98e840178695",
    "types": [
      "creators",
      "4"
    ],
    "repository": "kara.moe",
    "modified_at": "2020-03-31T19:04:35.392Z"
  }
}