{
  "header": {
    "description": "Karaoke Mugen Tag File",
    "version": 1
  },
  "tag": {
    "i18n": {
      "eng": "Kei Yoshikawa"
    },
    "name": "Kei Yoshikawa",
    "tid": "493b3fb3-e9e0-496a-9230-ab38051f13fd",
    "types": [
      "songwriters",
      "8"
    ],
    "repository": "kara.moe",
    "modified_at": "2020-03-31T19:04:35.399Z"
  }
}