{
  "header": {
    "description": "Karaoke Mugen Tag File",
    "version": 1
  },
  "tag": {
    "i18n": {
      "eng": "Kei'ichi Suzuki"
    },
    "name": "Kei'ichi Suzuki",
    "tid": "64224492-7ea9-41c3-a241-d36acb7256df",
    "types": [
      "songwriters",
      "8"
    ],
    "repository": "kara.moe",
    "modified_at": "2020-03-31T19:04:35.399Z"
  }
}