{
  "header": {
    "description": "Karaoke Mugen Tag File",
    "version": 1
  },
  "tag": {
    "i18n": {
      "eng": "Keigo You"
    },
    "name": "Keigo You",
    "tid": "9c9361d2-aaac-4a96-b3ae-cdeb98cc2849",
    "types": [
      "songwriters",
      "8"
    ],
    "repository": "kara.moe",
    "modified_at": "2020-03-31T19:04:35.401Z"
  }
}