{
  "header": {
    "description": "Karaoke Mugen Tag File",
    "version": 1
  },
  "tag": {
    "i18n": {
      "eng": "Keiichiro Toyama"
    },
    "name": "Keiichiro Toyama",
    "tid": "83076d66-601b-4f01-be60-04a44757a839",
    "types": [
      "songwriters",
      "8"
    ],
    "repository": "kara.moe",
    "modified_at": "2020-03-31T19:04:35.408Z"
  }
}