{
  "header": {
    "description": "Karaoke Mugen Tag File",
    "version": 1
  },
  "tag": {
    "i18n": {
      "eng": "Keiichi Suzuki"
    },
    "name": "Keiichi Suzuki",
    "tid": "0b687bb4-9b40-4499-b305-29cb5f4d3d1e",
    "types": [
      "songwriters",
      "8"
    ],
    "repository": "kara.moe",
    "modified_at": "2020-03-31T19:04:35.407Z"
  }
}