{
  "header": {
    "description": "Karaoke Mugen Tag File",
    "version": 1
  },
  "tag": {
    "i18n": {
      "eng": "Keisuke Kurose"
    },
    "name": "Keisuke Kurose",
    "tid": "733a577f-c05c-4aef-9c88-96d4e8887ae5",
    "types": [
      "songwriters",
      "8"
    ],
    "repository": "kara.moe",
    "modified_at": "2020-03-31T19:04:35.424Z"
  }
}