{
  "header": {
    "description": "Karaoke Mugen Tag File",
    "version": 1
  },
  "tag": {
    "i18n": {
      "eng": "keity.pop"
    },
    "name": "keity.pop",
    "tid": "91ae39b9-e8f5-48e7-bd96-3e6b422cecd8",
    "types": [
      "songwriters",
      "8"
    ],
    "repository": "kara.moe",
    "modified_at": "2020-03-31T19:04:35.431Z"
  }
}