{
  "header": {
    "description": "Karaoke Mugen Tag File",
    "version": 1
  },
  "tag": {
    "i18n": {
      "eng": "KEIT"
    },
    "name": "KEIT",
    "tid": "5e29d90a-3e30-47b2-87c8-9eb59a84d421",
    "types": [
      "songwriters",
      "8"
    ],
    "repository": "kara.moe",
    "modified_at": "2020-03-31T19:04:35.426Z"
  }
}