{
  "header": {
    "description": "Karaoke Mugen Tag File",
    "version": 1
  },
  "tag": {
    "i18n": {
      "eng": "Kemu Tsukamoto"
    },
    "name": "Kemu Tsukamoto",
    "tid": "e00bd24e-3f23-44f7-9d92-270e339ab75a",
    "types": [
      "songwriters",
      "8"
    ],
    "repository": "kara.moe",
    "modified_at": "2020-03-31T19:04:35.438Z"
  }
}