{
  "header": {
    "description": "Karaoke Mugen Tag File",
    "version": 1
  },
  "tag": {
    "i18n": {
      "eng": "Ken ga Kimi",
      "jpn": "剣が君",
      "qro": "Ken ga Kimi"
    },
    "name": "Ken ga Kimi",
    "repository": "kara.moe",
    "tid": "77fe4d4a-2893-4f5f-9ab0-912a7474f4f7",
    "types": [
      "franchises",
      "18"
    ]
  }
}