{
  "header": {
    "description": "Karaoke Mugen Tag File",
    "version": 1
  },
  "tag": {
    "i18n": {
      "eng": "Ken & Teru from Crossfaith"
    },
    "name": "Ken & Teru from Crossfaith",
    "tid": "3ddcf5a0-9e9b-4436-abd8-9c29a88a2a3d",
    "types": [
      "singers",
      "2"
    ],
    "repository": "kara.moe",
    "modified_at": "2020-03-31T19:04:35.439Z"
  }
}