{
  "header": {
    "description": "Karaoke Mugen Tag File",
    "version": 1
  },
  "tag": {
    "aliases": [
      "Xuan-Yuan Sword: Lights of the Bleak "
    ],
    "external_database_ids": {
      "anilist": 104103,
      "myanimelist": 38083,
      "kitsu": 41946
    },
    "i18n": {
      "chi": "軒轅劍·蒼之曜",
      "eng": "Xuan Yuan Sword Luminary",
      "jpn": "軒轅剣 蒼き曜",
      "qro": "Ken En Ken: Aoki Kagayaki"
    },
    "modified_at": "2020-03-31T19:04:31.924Z",
    "name": "Ken En Ken: Aoki Kagayaki",
    "repository": "kara.moe",
    "tid": "059bb223-443e-43ce-9dab-8cfb3acdfa00",
    "types": [
      "series",
      "1"
    ]
  }
}