{
  "header": {
    "description": "Karaoke Mugen Tag File",
    "version": 1
  },
  "tag": {
    "i18n": {
      "eng": "Ken'ichirô Suehiro"
    },
    "name": "Ken'ichirô Suehiro",
    "tid": "2ddfcca9-52b6-4635-ab0d-0ff550d9d9f3",
    "types": [
      "songwriters",
      "8"
    ],
    "repository": "kara.moe",
    "modified_at": "2020-03-31T19:04:35.455Z"
  }
}