{
  "header": {
    "description": "Karaoke Mugen Tag File",
    "version": 1
  },
  "tag": {
    "i18n": {
      "eng": "Ken'ichi Ogata"
    },
    "modified_at": "2020-11-21T15:51:05.995Z",
    "name": "Ken'ichi Ogata",
    "repository": "kara.moe",
    "tid": "e0e717ea-5f45-4d47-951f-d4ad65ef58db",
    "types": [
      "singers",
      "2"
    ]
  }
}