{
  "header": {
    "description": "Karaoke Mugen Tag File",
    "version": 1
  },
  "tag": {
    "aliases": [
      "Ken'ichi Itou",
      "K.ITO"
    ],
    "i18n": {
      "eng": "Ken'ichi Itô"
    },
    "modified_at": "2020-04-11T14:37:35.159Z",
    "name": "Ken'ichi Itô",
    "repository": "kara.moe",
    "tid": "953be39c-d0f1-497d-8e3c-58a05970d781",
    "types": [
      "singers",
      "2"
    ]
  }
}