{
  "header": {
    "description": "Karaoke Mugen Tag File",
    "version": 1
  },
  "tag": {
    "i18n": {
      "eng": "Ken'yû Horiuchi"
    },
    "name": "Ken'yû Horiuchi",
    "repository": "kara.moe",
    "tid": "80cdf1e3-538b-46de-b516-e09a76f899bc",
    "types": [
      "singers",
      "2"
    ],
    "modified_at": "2020-03-31T19:04:35.456Z"
  }
}