{
  "header": {
    "description": "Karaoke Mugen Tag File",
    "version": 1
  },
  "tag": {
    "i18n": {
      "eng": "Kengo Minamida"
    },
    "name": "Kengo Minamida",
    "tid": "ad73a27b-de24-4a08-99fc-a16caf59f60d",
    "types": [
      "songwriters",
      "8"
    ],
    "repository": "kara.moe",
    "modified_at": "2020-03-31T19:04:35.457Z"
  }
}