{
  "header": {
    "description": "Karaoke Mugen Tag File",
    "version": 1
  },
  "tag": {
    "i18n": {
      "eng": "Kenji Itô"
    },
    "name": "Kenji Itô",
    "tid": "b3938263-2ba3-41e8-b6ec-bbc15e09129b",
    "types": [
      "songwriters",
      "8"
    ],
    "repository": "kara.moe",
    "modified_at": "2020-03-31T19:04:35.467Z"
  }
}