{
  "header": {
    "description": "Karaoke Mugen Tag File",
    "version": 1
  },
  "tag": {
    "i18n": {
      "eng": "KENJI03"
    },
    "name": "KENJI03",
    "tid": "a2bda832-9e66-4829-a888-c5b7a5328a5a",
    "types": [
      "songwriters",
      "8"
    ],
    "repository": "kara.moe",
    "modified_at": "2020-03-31T19:04:35.478Z"
  }
}