{
  "header": {
    "description": "Karaoke Mugen Tag File",
    "version": 1
  },
  "tag": {
    "i18n": {
      "eng": "Kenjirô Sakiya"
    },
    "name": "Kenjirô Sakiya",
    "tid": "d24c01db-e754-4d57-a6ca-f857885183d0",
    "types": [
      "songwriters",
      "8"
    ],
    "repository": "kara.moe",
    "modified_at": "2020-03-31T19:04:35.480Z"
  }
}