{
  "header": {
    "description": "Karaoke Mugen Tag File",
    "version": 1
  },
  "tag": {
    "i18n": {
      "eng": "Kenji & Jane"
    },
    "name": "Kenji & Jane",
    "tid": "7852d8d3-e28f-45de-944f-3ac2272de8db",
    "types": [
      "songwriters",
      "8"
    ],
    "repository": "kara.moe",
    "modified_at": "2020-03-31T19:04:35.463Z"
  }
}