{
  "header": {
    "description": "Karaoke Mugen Tag File",
    "version": 1
  },
  "tag": {
    "i18n": {
      "eng": "Kenshiro Morii"
    },
    "modified_at": "2021-05-21T22:42:40.445Z",
    "name": "Kenshiro Morii",
    "repository": "kara.moe",
    "tid": "1c120c10-e33c-4b79-8c07-0760bb8e867a",
    "types": [
      "creators",
      "4"
    ]
  }
}