{
  "header": {
    "description": "Karaoke Mugen Tag File",
    "version": 1
  },
  "tag": {
    "i18n": {
      "eng": "Kentarô Suzuki"
    },
    "name": "Kentarô Suzuki",
    "tid": "42fdb554-1721-4c31-885b-770ac8656a2a",
    "types": [
      "songwriters",
      "8"
    ],
    "repository": "kara.moe",
    "modified_at": "2020-03-31T19:04:35.498Z"
  }
}