{
  "header": {
    "description": "Karaoke Mugen Tag File",
    "version": 1
  },
  "tag": {
    "i18n": {
      "eng": "Kento Nakamura"
    },
    "name": "Kento Nakamura",
    "tid": "c1adbd28-c725-4849-b05f-efc09967c792",
    "types": [
      "songwriters",
      "8"
    ],
    "repository": "kara.moe",
    "modified_at": "2020-03-31T19:04:35.502Z"
  }
}