{
  "header": {
    "description": "Karaoke Mugen Tag File",
    "version": 1
  },
  "tag": {
    "i18n": {
      "eng": "Kenta Higashiohji"
    },
    "modified_at": "2021-08-22T11:44:40.349Z",
    "name": "Kenta Higashiohji",
    "repository": "kara.moe",
    "tid": "67c524d8-95f1-4d01-9fa0-ab8b8c36cf63",
    "types": [
      "songwriters",
      "8"
    ]
  }
}