{
  "header": {
    "description": "Karaoke Mugen Tag File",
    "version": 1
  },
  "tag": {
    "i18n": {
      "eng": "Kentarō Mashiro"
    },
    "modified_at": "2021-10-16T21:03:56.179Z",
    "name": "Kentarō Mashiro",
    "repository": "kara.moe",
    "tid": "58ccec21-bd04-491f-adf1-55d02ff8e7bc",
    "types": [
      "singers",
      "2"
    ]
  }
}