{
  "header": {
    "description": "Karaoke Mugen Tag File",
    "version": 1
  },
  "tag": {
    "i18n": {
      "eng": "Kenz"
    },
    "name": "Kenz",
    "tid": "9806be2a-350c-4c62-b988-165d95fa0b97",
    "types": [
      "songwriters",
      "8"
    ],
    "repository": "kara.moe",
    "modified_at": "2020-03-31T19:04:35.503Z"
  }
}