{
  "header": {
    "description": "Karaoke Mugen Tag File",
    "version": 1
  },
  "tag": {
    "i18n": {
      "eng": "Kevin McAlea"
    },
    "name": "Kevin McAlea",
    "repository": "kara.moe",
    "tid": "424e5551-9b0a-4d13-a08c-d8ea71c338c9",
    "types": [
      "songwriters",
      "8"
    ]
  }
}