{
  "header": {
    "description": "Karaoke Mugen Tag File",
    "version": 1
  },
  "tag": {
    "i18n": {
      "eng": "Key"
    },
    "name": "Key",
    "tid": "4dd6987d-3036-4454-859b-ff18954541bf",
    "types": [
      "creators",
      "4"
    ],
    "repository": "kara.moe",
    "modified_at": "2020-03-31T19:04:35.509Z"
  }
}