{
  "header": {
    "description": "Karaoke Mugen Tag File",
    "version": 1
  },
  "tag": {
    "i18n": {
      "eng": "Khac Hung"
    },
    "name": "Khac Hung",
    "repository": "kara.moe",
    "tid": "1efbbe73-7b82-4a37-adf2-1566c6632187",
    "types": [
      "songwriters",
      "8"
    ],
    "modified_at": "2020-03-31T19:04:35.511Z"
  }
}