{
  "header": {
    "description": "Karaoke Mugen Tag File",
    "version": 1
  },
  "tag": {
    "i18n": {
      "eng": "Khaled Freak"
    },
    "modified_at": "2021-10-20T22:09:36.017Z",
    "name": "Khaled Freak",
    "repository": "kara.moe",
    "tid": "2cd0ab75-8b44-4092-ab59-1438a8176c6b",
    "types": [
      "songwriters",
      "8",
      "creators",
      "4"
    ]
  }
}