{
  "header": {
    "description": "Karaoke Mugen Tag File",
    "version": 1
  },
  "tag": {
    "i18n": {
      "eng": "Khanh Maï"
    },
    "name": "Khanh Maï",
    "repository": "kara.moe",
    "tid": "bff2c013-c962-41d3-acb0-475dc4f09102",
    "types": [
      "songwriters",
      "8"
    ]
  }
}