{
  "header": {
    "description": "Karaoke Mugen Tag File",
    "version": 1
  },
  "tag": {
    "i18n": {
      "eng": "Khent"
    },
    "name": "Khent",
    "tid": "ce98ef0f-0e51-4d2c-a8c2-5bd4cde35748",
    "types": [
      "creators",
      "4"
    ],
    "repository": "kara.moe",
    "modified_at": "2020-03-31T19:04:35.511Z"
  }
}