{
  "header": {
    "description": "Karaoke Mugen Tag File",
    "version": 1
  },
  "tag": {
    "aliases": [
      "Kidou Senkan Nadesico: The Prince of Darkness",
      "Nadesico Movie",
      "Космический крейсер Лютик: Черный принц",
      "机动战舰剧场版-黑暗王子",
      "kidou"
    ],
    "external_database_ids": {
      "anilist": 219,
      "myanimelist": 219,
      "kitsu": 195
    },
    "i18n": {
      "eng": "Martian Successor Nadesico: The Prince of Darkness",
      "fre": "Martian Successor Nadesico: The Prince of Darkness",
      "jpn": "機動戦艦ナデシコ The prince of darkness",
      "spa": "Martian Successor Nadesico: El Príncipe de la Obscuridad",
      "qro": "Kidô Senkan Nadesico: The Prince of Darkness"
    },
    "modified_at": "2020-06-21T23:45:31.966Z",
    "name": "Kidô Senkan Nadesico: The Prince of Darkness",
    "repository": "kara.moe",
    "tid": "1e4f2723-5966-422b-8b61-47fd3344707b",
    "types": [
      "series",
      "1"
    ]
  }
}