{
  "header": {
    "description": "Karaoke Mugen Tag File",
    "version": 1
  },
  "tag": {
    "aliases": [
      "Kidou Keisatsu Patlabor: New OVA (1990)",
      "Patlabor OAV",
      "Patlabor: The Mobile Police",
      "机动警察OVA (90)",
      "kidou"
    ],
    "external_database_ids": {
      "anilist": 1289,
      "myanimelist": 1289,
      "kitsu": 1163
    },
    "i18n": {
      "eng": "Mobile Police Patlabor: The New Files",
      "fre": "Patlabor (suite)",
      "heb": "OVA2 פאטלייבור",
      "jpn": "機動警察パトレイバー (1990)",
      "spa": "Patlabor, la policía móvil",
      "qro": "Kidô Keisatsu Patlabor: New OVA (1990)"
    },
    "modified_at": "2020-03-31T19:04:31.939Z",
    "name": "Kidô Keisatsu Patlabor: New OVA (1990)",
    "repository": "kara.moe",
    "tid": "9d80c602-0806-4fbe-a290-7921c47734af",
    "types": [
      "series",
      "1"
    ]
  }
}