{
  "header": {
    "description": "Karaoke Mugen Tag File",
    "version": 1
  },
  "tag": {
    "aliases": [
      "Gundam Wing OAV",
      "Kidô Shinsenki Gundam Wing Endless Waltz",
      "New Mobile Report Gundam Wing: Endless Waltz"
    ],
    "external_database_ids": {
      "anilist": 91,
      "myanimelist": 91,
      "kitsu": 7964
    },
    "i18n": {
      "eng": "Mobile Suit Gundam Wing: Endless Waltz",
      "jpn": "新機動戦記ガンダムW: ENDLESS WALTZ",
      "qro": "Kidou Shinsenki Gundam Wing Endless Waltz"
    },
    "modified_at": "2020-07-26T18:35:01.845Z",
    "name": "Kidou Shinsenki Gundam Wing Endless Waltz",
    "repository": "kara.moe",
    "tid": "0ee233f9-aea4-4a49-b6bc-2397f268d23c",
    "types": [
      "series",
      "1"
    ]
  }
}