{
  "header": {
    "description": "Karaoke Mugen Tag File",
    "version": 1
  },
  "tag": {
    "aliases": [
      "Kidou Senshi Gundam: Extreme Vs. Maxi Boost",
      "kidou"
    ],
    "i18n": {
      "eng": "Mobile Suit Gundam: Extreme Vs.",
      "jpn": "機動戦士ガンダム エクストリームバーサス",
      "qro": "Kidô Senshi Gundam: Extreme Vs. Maxi Boost"
    },
    "modified_at": "2020-03-31T19:04:31.947Z",
    "name": "Kidô Senshi Gundam: Extreme Vs. Maxi Boost",
    "repository": "kara.moe",
    "tid": "8c12a2fd-73a5-4796-8ebc-aa5c03589f47",
    "types": [
      "series",
      "1"
    ]
  }
}