{
  "header": {
    "description": "Karaoke Mugen Tag File",
    "version": 1
  },
  "tag": {
    "aliases": [
      "Kidou Senshi Zeta Gundam",
      "Kidou Senshi Zeta Gundam",
      "Mobile Suit Zeta Gundam",
      "Z Gundam",
      "机动战士Z高达",
      "kidou"
    ],
    "external_database_ids": {
      "anilist": 85,
      "myanimelist": 85,
      "kitsu": 64
    },
    "i18n": {
      "eng": "Mobile Suit Zeta Gundam",
      "ita": "Mobile Suit Z Gundam",
      "jpn": "機動戦士Zガンダム",
      "qro": "Kidô Senshi Zeta Gundam"
    },
    "modified_at": "2020-06-21T23:45:31.966Z",
    "name": "Kidô Senshi Zeta Gundam",
    "repository": "kara.moe",
    "tid": "3f95b3bd-5d69-4ec0-ad9d-e106654e1b1a",
    "types": [
      "series",
      "1"
    ]
  }
}