{
  "header": {
    "description": "Karaoke Mugen Tag File",
    "version": 1
  },
  "tag": {
    "external_database_ids": {
      "anilist": 88,
      "myanimelist": 88,
      "kitsu": 67
    },
    "i18n": {
      "eng": "Mobile Suit Gundam F91",
      "fre": "Mobile Suit Gundam F91",
      "jpn": "機動戦士ガンダムF91",
      "qro": "Kidô Senshi Gundam F91"
    },
    "modified_at": "2020-06-21T23:45:31.966Z",
    "name": "Kidô Senshi Gundam F91",
    "repository": "kara.moe",
    "tid": "ee1973e8-33e0-48c0-a788-2c88e6f1e504",
    "types": [
      "series",
      "1"
    ]
  }
}