{
  "header": {
    "description": "Karaoke Mugen Tag File",
    "version": 1
  },
  "tag": {
    "aliases": [
      "AL",
      "Battle Doll Angelic Layer",
      "KTEL",
      "Kidou Tenshi Angelic Layer",
      "Арената на Ангелите",
      "机动天使",
      "kidou"
    ],
    "external_database_ids": {
      "anilist": 52,
      "myanimelist": 52,
      "kitsu": 33
    },
    "i18n": {
      "eng": "Angelic Layer",
      "fre": "Angelic Layer",
      "ger": "Angelic Layer",
      "jpn": "機動天使エンジェリックレイヤー",
      "pol": "Angelic Layer",
      "por": "Angelic Layer",
      "rus": "Арена Ангелов",
      "qro": "Kidô Tenshi Angelic Layer"
    },
    "modified_at": "2020-03-31T19:04:31.961Z",
    "name": "Kidô Tenshi Angelic Layer",
    "repository": "kara.moe",
    "tid": "5966797b-6a37-4c81-b2b5-790c199c2aa0",
    "types": [
      "series",
      "1"
    ]
  }
}