{
  "header": {
    "description": "Karaoke Mugen Tag File",
    "version": 1
  },
  "tag": {
    "aliases": [
      "Gundam IBO",
      "Kidou Senshi Gundam: Tekketsu no Orphans 2",
      "iron blooded orphans 2",
      "Мобилни костюми Гъндам: Сираци от кръв и желязо",
      "机动战士高达 铁血的孤儿",
      "kidou"
    ],
    "external_database_ids": {
      "anilist": 21749,
      "myanimelist": 33051,
      "kitsu": 12005
    },
    "i18n": {
      "eng": "Mobile Suit Gundam: Iron-Blooded Orphans 2nd Season",
      "fre": "Mobile Suit Gundam: Iron-Blooded Orphans 2nd Season",
      "jpn": "機動戦士ガンダム 鉄血のオルフェンズ 第2期",
      "kor": "기동전사 건담: 철혈의 오펀스",
      "qro": "Kidô Senshi Gundam: Tekketsu no Orphans 2nd Season"
    },
    "modified_at": "2020-03-31T19:04:31.954Z",
    "name": "Kidô Senshi Gundam: Tekketsu no Orphans 2nd Season",
    "repository": "kara.moe",
    "tid": "9bd0b83b-53ca-444e-b54d-021feb5fb967",
    "types": [
      "series",
      "1"
    ]
  }
}