{
  "header": {
    "description": "Karaoke Mugen Tag File",
    "version": 1
  },
  "tag": {
    "aliases": [
      "Kidou Keisatsu Patlabor: On Television (1989)",
      "kidou"
    ],
    "external_database_ids": {
      "anilist": 324,
      "myanimelist": 324,
      "kitsu": 291
    },
    "i18n": {
      "eng": "Mobile Police Patlabor ‒ The TV Series (1989)",
      "jpn": "機動警察パトレイバー ON TELEVISION (1989)",
      "qro": "Kidô Keisatsu Patlabor: On Television (1989)"
    },
    "modified_at": "2020-03-31T19:04:31.939Z",
    "name": "Kidô Keisatsu Patlabor: On Television (1989)",
    "repository": "kara.moe",
    "tid": "34d08a8f-f41f-42e1-80e3-4a85526be0bc",
    "types": [
      "series",
      "1"
    ]
  }
}