{
  "header": {
    "description": "Karaoke Mugen Tag File",
    "version": 1
  },
  "tag": {
    "i18n": {
      "eng": "Kids Station"
    },
    "name": "Kids Station",
    "repository": "kara.moe",
    "tid": "a07a2b11-7ff0-4359-b9dd-db6066f7237b",
    "types": [
      "creators",
      "4"
    ]
  }
}