{
  "header": {
    "description": "Karaoke Mugen Tag File",
    "version": 1
  },
  "tag": {
    "i18n": {
      "eng": "Kikka"
    },
    "modified_at": "2020-05-01T19:53:57.804Z",
    "name": "Kikka",
    "repository": "kara.moe",
    "tid": "0820afce-eaeb-445c-97c3-a6300bf16d38",
    "types": [
      "creators",
      "4"
    ]
  }
}