{
  "header": {
    "description": "Karaoke Mugen Tag File",
    "version": 1
  },
  "tag": {
    "aliases": [
      "Kikou Shoujo wa Kizutsukanai",
      "Machine-Doll wa Kizutsukanai",
      "UMD",
      "Unbreakable Machine Doll",
      "kikou",
      "shoujo"
    ],
    "external_database_ids": {
      "anilist": 17247,
      "myanimelist": 17247,
      "kitsu": 7617
    },
    "i18n": {
      "chi": "机巧少女不会受伤",
      "eng": "Unbreakable Machine-Doll",
      "jpn": "機巧少女は傷つかない",
      "qro": "Kikô Shôjo wa Kizutsukanai"
    },
    "modified_at": "2020-03-31T19:04:31.963Z",
    "name": "Kikô Shôjo wa Kizutsukanai",
    "repository": "kara.moe",
    "tid": "7766791b-6168-4c5d-8a58-513d0e273210",
    "types": [
      "series",
      "1"
    ]
  }
}