{
  "header": {
    "description": "Karaoke Mugen Tag File",
    "version": 1
  },
  "tag": {
    "aliases": [
      "Armor Soldier Merrowlink",
      "Kikou Ryouhei Mellowlink",
      "Zırh Avcısı Mellowlink",
      "Бронебойщик Меллоулинк",
      "kikou",
      "ryouhei"
    ],
    "external_database_ids": {
      "anilist": 2048,
      "myanimelist": 2048,
      "kitsu": 1847
    },
    "i18n": {
      "eng": "Armor Hunter Mellowlink",
      "jpn": "機甲猟兵メロウリンク",
      "qro": "Kikô Ryôhei Mellowlink"
    },
    "modified_at": "2020-03-31T19:04:31.963Z",
    "name": "Kikô Ryôhei Mellowlink",
    "repository": "kara.moe",
    "tid": "384b87f3-f10c-42af-8a06-9946938a593a",
    "types": [
      "series",
      "1"
    ]
  }
}