{
  "header": {
    "description": "Karaoke Mugen Tag File",
    "version": 1
  },
  "tag": {
    "aliases": [
      "Dragonar l'Armatura Metallica",
      "Kikou Senki Dragonar",
      "kikou"
    ],
    "external_database_ids": {
      "anilist": 865,
      "myanimelist": 865,
      "kitsu": 766
    },
    "i18n": {
      "eng": "Metal Armor Dragonar",
      "jpn": "機甲戦記ドラグナー",
      "qro": "Kikô Senki Dragonar"
    },
    "modified_at": "2020-06-21T23:45:31.966Z",
    "name": "Kikô Senki Dragonar",
    "repository": "kara.moe",
    "tid": "9820ed03-7981-4995-9eb8-e5a18a72f06e",
    "types": [
      "series",
      "1"
    ]
  }
}