{
  "header": {
    "description": "Karaoke Mugen Tag File",
    "version": 1
  },
  "tag": {
    "i18n": {
      "qro": "Kikuko Inoue",
      "jpn": "井上 喜久子"
    },
    "name": "Kikuko Inôe",
    "repository": "kara.moe",
    "tid": "6fbd9a22-5015-4f6d-9d67-a81c2291ac55",
    "types": [
      "singers",
      "2"
    ]
  }
}