{
  "header": {
    "description": "Karaoke Mugen Tag File",
    "version": 1
  },
  "tag": {
    "i18n": {
      "eng": "kikyow"
    },
    "name": "kikyow",
    "tid": "1bed924e-dc63-4187-8c5e-a76a75b7bcde",
    "types": [
      "singers",
      "2"
    ],
    "repository": "kara.moe",
    "modified_at": "2020-03-31T19:04:35.521Z"
  }
}