{
  "header": {
    "description": "Karaoke Mugen Tag File",
    "version": 1
  },
  "tag": {
    "i18n": {
      "eng": "Kim Kibum"
    },
    "name": "Kim Kibum",
    "tid": "e7fe0886-1440-467f-a65f-589d4405d99c",
    "types": [
      "songwriters",
      "8"
    ],
    "repository": "kara.moe",
    "modified_at": "2020-03-31T19:04:35.525Z"
  }
}