{
  "header": {
    "description": "Karaoke Mugen Tag File",
    "version": 1
  },
  "tag": {
    "i18n": {
      "eng": "Kim Chang Wan"
    },
    "name": "Kim Chang Wan",
    "tid": "9ca4883c-cb2c-40d4-a486-d56e2b45d8e5",
    "types": [
      "songwriters",
      "8",
      "singers",
      "2"
    ],
    "repository": "kara.moe",
    "modified_at": "2020-03-31T19:04:35.521Z"
  }
}