{
  "header": {
    "description": "Karaoke Mugen Tag File",
    "version": 1
  },
  "tag": {
    "i18n": {
      "eng": "Kim Yu Min"
    },
    "name": "Kim Yu Min",
    "tid": "730088a7-634c-4421-b609-156fc96168a6",
    "types": [
      "songwriters",
      "8"
    ],
    "repository": "kara.moe",
    "modified_at": "2020-03-31T19:04:35.528Z"
  }
}