{
  "header": {
    "description": "Karaoke Mugen Tag File",
    "version": 1
  },
  "tag": {
    "i18n": {
      "eng": "Kimiiro Project",
      "jpn": "キミイロプロジェクト",
      "qro": "Kimiiro Project"
    },
    "name": "Kimiiro Project",
    "repository": "kara.moe",
    "tid": "d6d29e0e-d2e3-4316-ba7e-962f3333b944",
    "types": [
      "singergroups",
      "17"
    ]
  }
}