{
  "header": {
    "description": "Karaoke Mugen Tag File",
    "version": 1
  },
  "tag": {
    "aliases": [
      "Chegando Até Você 2",
      "Chegando Até Você: Segunda Temporada",
      "Kimi ni Todoke 2",
      "Kimi ni Todoke: From Me to You 2nd Season",
      "kimitodo 2",
      "knt2",
      "Достучаться до тебя 2 сезон",
      "Дотянуться до тебя [ТВ-2]",
      "به تو برسد",
      "君届2",
      "好想告诉你 2nd"
    ],
    "external_database_ids": {
      "anilist": 9656,
      "myanimelist": 9656,
      "kitsu": 5820
    },
    "i18n": {
      "chi": "好想告诉你 第二季",
      "eng": "Kimi ni Todoke: From Me to You 2",
      "fre": "Sawako (saison 2)",
      "jpn": "君に届け 2ND SEASON",
      "qro": "Kimi ni Todoke 2nd Season"
    },
    "modified_at": "2020-03-31T19:04:31.973Z",
    "name": "Kimi ni Todoke 2nd Season",
    "repository": "kara.moe",
    "tid": "5eea48e5-849c-45ca-b5d6-ff95da961f3b",
    "types": [
      "series",
      "1"
    ]
  }
}