{
  "header": {
    "description": "Karaoke Mugen Tag File",
    "version": 1
  },
  "tag": {
    "aliases": [
      "kiminami"
    ],
    "external_database_ids": {
      "anilist": 105018,
      "myanimelist": 38594,
      "kitsu": 42031
    },
    "i18n": {
      "eng": "Ride Your Wave",
      "jpn": "きみと, 波にのれたら",
      "qro": "Kimi to Nami ni Noretara"
    },
    "modified_at": "2020-03-31T19:04:31.977Z",
    "name": "Kimi to Nami ni Noretara",
    "repository": "kara.moe",
    "tid": "2fd7aba5-7ffd-4056-b402-077700a6a1e6",
    "types": [
      "series",
      "1"
    ]
  }
}