{
  "header": {
    "description": "Karaoke Mugen Tag File",
    "version": 1
  },
  "tag": {
    "aliases": [
      "Kimi no Na Wa",
      "Your Name",
      "twoje imię",
      "Твоє ім’я",
      "你的名字"
    ],
    "external_database_ids": {
      "anilist": 21519,
      "myanimelist": 32281,
      "kitsu": 11614
    },
    "i18n": {
      "chi": "你的名字.",
      "eng": "Your Name.",
      "fin": "your name.",
      "fre": "Your Name.",
      "jpn": "君の名は.",
      "kor": "너의 이름은.",
      "rum": "Numele tau e ...",
      "rus": "Твоё имя",
      "tgl": "your name.",
      "qro": "Kimi no Na wa."
    },
    "modified_at": "2020-03-31T19:04:31.975Z",
    "name": "Kimi no Na wa.",
    "repository": "kara.moe",
    "tid": "d6cd8791-8b21-4da2-89be-db3bffc0fc74",
    "types": [
      "series",
      "1"
    ]
  }
}