{
  "header": {
    "description": "Karaoke Mugen Tag File",
    "version": 1
  },
  "tag": {
    "aliases": [
      "Her and Her",
      "The Love Between You",
      "Totomo"
    ],
    "i18n": {
      "eng": "Kimi to Kanojo to Kanojo no Koi.",
      "jpn": "君と彼女と彼女の恋。",
      "qro": "Kimi to Kanojo to Kanojo no Koi"
    },
    "modified_at": "2020-03-31T19:04:31.977Z",
    "name": "Kimi to Kanojo to Kanojo no Koi",
    "repository": "kara.moe",
    "tid": "6ac806cd-eec4-4ad3-9bfe-b183a521cd33",
    "types": [
      "series",
      "1"
    ]
  }
}