{
  "header": {
    "description": "Karaoke Mugen Tag File",
    "version": 1
  },
  "tag": {
    "i18n": {
      "eng": "Kimotto"
    },
    "modified_at": "2020-11-22T16:13:22.616Z",
    "name": "Kimotto",
    "repository": "kara.moe",
    "tid": "d1343dae-b340-46c3-86b9-e41fb7e767b6",
    "types": [
      "songwriters",
      "8"
    ]
  }
}