{
  "header": {
    "description": "Karaoke Mugen Tag File",
    "version": 1
  },
  "tag": {
    "aliases": [
      "Kiniro Mosaic",
      "Kinmosa"
    ],
    "external_database_ids": {
      "anilist": 16732,
      "myanimelist": 16732,
      "kitsu": 7501
    },
    "i18n": {
      "eng": "Kinmoza!",
      "fre": "Kin'iro Mosaic",
      "jpn": "きんいろモザイク",
      "qro": "Kin'iro Mosaic"
    },
    "modified_at": "2020-03-31T19:04:31.980Z",
    "name": "Kin'iro Mosaic",
    "repository": "kara.moe",
    "tid": "f038ead6-0bf6-4dae-b921-e9cb165f15bf",
    "types": [
      "series",
      "1",
      "franchises",
      "18"
    ]
  }
}