{
  "header": {
    "description": "Karaoke Mugen Tag File",
    "version": 1
  },
  "tag": {
    "aliases": [
      "KH"
    ],
    "i18n": {
      "eng": "Kingdom Hearts",
      "jpn": "キングダム ハーツ",
      "qro": "Kingdom Hearts"
    },
    "modified_at": "2020-03-31T19:04:31.985Z",
    "name": "Kingdom Hearts",
    "repository": "kara.moe",
    "tid": "2fdcf090-923c-456c-b4bf-96449bcaecd0",
    "types": [
      "series",
      "1",
      "franchises",
      "18"
    ]
  }
}