{
  "header": {
    "description": "Karaoke Mugen Tag File",
    "version": 1
  },
  "tag": {
    "i18n": {
      "eng": "King Gnu"
    },
    "name": "King Gnu",
    "tid": "0a7237a8-5da5-4b94-9c57-c79f73435105",
    "types": [
      "singers",
      "2",
      "songwriters",
      "8"
    ],
    "repository": "kara.moe",
    "modified_at": "2020-03-31T19:04:35.536Z"
  }
}