{
  "header": {
    "description": "Karaoke Mugen Tag File",
    "version": 1
  },
  "tag": {
    "aliases": [
      "Kino no Tabi (2017)",
      "Kino's Journey (2017)"
    ],
    "external_database_ids": {
      "anilist": 98448,
      "myanimelist": 35079,
      "kitsu": 13467
    },
    "i18n": {
      "chi": "奇诺之旅 -the Beautiful World- the Animated Series",
      "eng": "Kino's Journey: The Beautiful World - The Animated Series",
      "fre": "Kino no Tabi: The Beautiful World - The Animated Series",
      "jpn": "キノの旅 -the Beautiful World- the Animated Series",
      "kor": "키노의 여행: The Beautiful World - The Animated Series",
      "qro": "Kino no Tabi: The Beautiful World - The Animated Series"
    },
    "modified_at": "2020-03-31T19:04:31.990Z",
    "name": "Kino no Tabi: The Beautiful World - The Animated Series",
    "repository": "kara.moe",
    "tid": "38a364db-81a8-4ebd-9c1d-b2f403d3fdeb",
    "types": [
      "series",
      "1"
    ]
  }
}