{
  "header": {
    "description": "Karaoke Mugen Tag File",
    "version": 1
  },
  "tag": {
    "i18n": {
      "eng": "Kino Yasushi"
    },
    "name": "Kino Yasushi",
    "tid": "2fcf5ede-5b61-4bca-bfa8-bee6f1bc3563",
    "types": [
      "singers",
      "2"
    ],
    "repository": "kara.moe",
    "modified_at": "2020-03-31T19:04:35.540Z"
  }
}