{
  "header": {
    "description": "Karaoke Mugen Tag File",
    "version": 1
  },
  "tag": {
    "i18n": {
      "eng": "Kio"
    },
    "modified_at": "2020-08-15T21:46:07.441Z",
    "name": "Kio",
    "repository": "kara.moe",
    "tid": "cb43e52a-1282-4282-8742-0e0c8bf0dce8",
    "types": [
      "creators",
      "4"
    ]
  }
}