{
  "header": {
    "description": "Karaoke Mugen Tag File",
    "version": 1
  },
  "tag": {
    "external_database_ids": {
      "anilist": 113990,
      "myanimelist": 40880,
      "kitsu": 43369
    },
    "i18n": {
      "eng": "Kiratto Pri☆Chan (3rd season)",
      "jpn": "キラッとプリ☆チャン シーズン3",
      "qro": "Kiratto Pri☆Chan season 3"
    },
    "modified_at": "2020-11-09T13:30:42.389Z",
    "name": "Kiratto Pri☆Chan season 3",
    "repository": "kara.moe",
    "tid": "8d9088f1-37e3-4d45-b2f1-3991591fb7f3",
    "types": [
      "series",
      "1"
    ]
  }
}