{
  "header": {
    "description": "Karaoke Mugen Tag File",
    "version": 1
  },
  "tag": {
    "i18n": {
      "eng": "Kira Kira Curtain Call",
      "jpn": "キラ☆キラ カーテンコール",
      "qro": "Kira Kira Curtain Call"
    },
    "modified_at": "2020-03-31T19:04:31.992Z",
    "name": "Kira Kira Curtain Call",
    "repository": "kara.moe",
    "tid": "fe67514d-0988-4207-aba8-ac6d8bb2f9d3",
    "types": [
      "series",
      "1"
    ]
  }
}