{
  "header": {
    "description": "Karaoke Mugen Tag File",
    "version": 1
  },
  "tag": {
    "i18n": {
      "eng": "Kisei"
    },
    "name": "Kisei",
    "tid": "81461f30-bea9-4857-8d0b-cf266587160a",
    "types": [
      "songwriters",
      "8"
    ],
    "repository": "kara.moe",
    "modified_at": "2020-03-31T19:04:35.550Z"
  }
}