{
  "header": {
    "description": "Karaoke Mugen Tag File",
    "version": 1
  },
  "tag": {
    "aliases": [
      "KSX OVA"
    ],
    "external_database_ids": {
      "anilist": 5042,
      "myanimelist": 5042,
      "kitsu": 3901
    },
    "i18n": {
      "eng": "Kiss x Sis OVA",
      "jpn": "キス×シス",
      "qro": "KissXSis"
    },
    "modified_at": "2020-03-31T19:04:31.999Z",
    "name": "KissXSis",
    "repository": "kara.moe",
    "tid": "9516c0f9-6a60-414c-a9b9-ce764de59db3",
    "types": [
      "series",
      "1"
    ]
  }
}