{
  "header": {
    "description": "Karaoke Mugen Tag File",
    "version": 1
  },
  "tag": {
    "i18n": {
      "eng": "Kitsunetsuki"
    },
    "name": "Kitsunetsuki",
    "tid": "3c49f9f7-5d0f-4075-9120-eee95f358bf6",
    "types": [
      "singers",
      "2"
    ],
    "repository": "kara.moe",
    "modified_at": "2020-03-31T19:04:35.559Z"
  }
}