{
  "header": {
    "description": "Karaoke Mugen Tag File",
    "version": 1
  },
  "tag": {
    "i18n": {
      "eng": "Kiyoshi Yoshida"
    },
    "name": "Kiyoshi Yoshida",
    "tid": "a788be07-8551-489f-93dd-8f9f64b624a8",
    "types": [
      "songwriters",
      "8"
    ],
    "repository": "kara.moe",
    "modified_at": "2020-03-31T19:04:35.567Z"
  }
}