{
  "header": {
    "description": "Karaoke Mugen Tag File",
    "version": 1
  },
  "tag": {
    "i18n": {
      "eng": "Kiyoharu"
    },
    "name": "Kiyoharu",
    "tid": "95aea2c7-2b6e-4246-9ea7-a6ca34d4d8f6",
    "types": [
      "singers",
      "2",
      "songwriters",
      "8"
    ],
    "repository": "kara.moe",
    "modified_at": "2020-03-31T19:04:35.561Z"
  }
}