{
  "header": {
    "description": "Karaoke Mugen Tag File",
    "version": 1
  },
  "tag": {
    "i18n": {
      "eng": "KMC"
    },
    "name": "KMC",
    "tid": "a3e69301-4f5a-43fd-96d4-0a51b23f34ac",
    "types": [
      "singers",
      "2",
      "songwriters",
      "8"
    ],
    "repository": "kara.moe",
    "modified_at": "2020-03-31T19:04:35.572Z"
  }
}