{
  "header": {
    "description": "Karaoke Mugen Tag File",
    "version": 1
  },
  "tag": {
    "i18n": {
      "eng": "KMM-dan"
    },
    "name": "KMM-dan",
    "tid": "97a5ec97-db03-4380-a368-1aa1d0c2c866",
    "types": [
      "singers",
      "2"
    ],
    "repository": "kara.moe",
    "modified_at": "2020-03-31T19:04:35.573Z"
  }
}