{
  "header": {
    "description": "Karaoke Mugen Tag File",
    "version": 1
  },
  "tag": {
    "i18n": {
      "eng": "Ko-saku"
    },
    "name": "Ko-saku",
    "tid": "016f15c2-4481-4d2f-97fc-72077b2f4a23",
    "types": [
      "singers",
      "2"
    ],
    "repository": "kara.moe",
    "modified_at": "2020-03-31T19:04:35.576Z"
  }
}