{
  "header": {
    "description": "Karaoke Mugen Tag File",
    "version": 1
  },
  "tag": {
    "aliases": [
      "Hifumi,inc."
    ],
    "i18n": {
      "eng": "KO3"
    },
    "name": "KO3",
    "repository": "kara.moe",
    "tid": "81feb085-6a5a-4785-abb7-d92c68cb1d5d",
    "types": [
      "songwriters",
      "8"
    ]
  }
}