{
  "header": {
    "description": "Karaoke Mugen Tag File",
    "version": 1
  },
  "tag": {
    "i18n": {
      "eng": "Kobayashi Onyx"
    },
    "modified_at": "2021-05-24T00:16:09.972Z",
    "name": "Kobayashi Onyx",
    "repository": "kara.moe",
    "tid": "46cb4577-1241-48a1-8f8a-92a11b82c014",
    "types": [
      "songwriters",
      "8"
    ]
  }
}