{
  "header": {
    "description": "Karaoke Mugen Tag File",
    "version": 1
  },
  "tag": {
    "i18n": {
      "eng": "Kobato"
    },
    "name": "Kobato",
    "repository": "kara.moe",
    "tid": "370800c1-2251-46d9-9b3c-632a3e1b5e13",
    "types": [
      "singers",
      "2",
      "songwriters",
      "8"
    ]
  }
}