{
  "header": {
    "description": "Karaoke Mugen Tag File",
    "version": 1
  },
  "tag": {
    "aliases": [
      "Kobayashi-san Chi no Maid Dragon S",
      "The maid dragon of Kobayashi-san 2nd Season"
    ],
    "external_database_ids": {
      "anilist": 107717,
      "myanimelist": 39247,
      "kitsu": 42149
    },
    "i18n": {
      "eng": "Miss Kobayashi's Dragon Maid S",
      "jpn": "小林さんちのメイドラゴンS",
      "qro": "Kobayashi-san Chi no Maidragon S"
    },
    "modified_at": "2021-03-03T02:21:00.533Z",
    "name": "Kobayashi-san Chi no Maidragon S",
    "repository": "kara.moe",
    "tid": "84bb8e1d-f343-43a8-9b48-64f985f11eec",
    "types": [
      "series",
      "1"
    ]
  }
}