{
  "header": {
    "description": "Karaoke Mugen Tag File",
    "version": 1
  },
  "tag": {
    "i18n": {
      "eng": "Kobukuro"
    },
    "name": "Kobukuro",
    "tid": "703484f9-d41d-4509-ba98-3bb120dc7420",
    "types": [
      "singers",
      "2"
    ],
    "repository": "kara.moe",
    "modified_at": "2020-03-31T19:04:35.579Z"
  }
}