{
  "header": {
    "description": "Karaoke Mugen Tag File",
    "version": 1
  },
  "tag": {
    "i18n": {
      "eng": "KOCHO"
    },
    "name": "KOCHO",
    "tid": "f23957de-0a4c-4f4b-ae44-92f9e625d25f",
    "types": [
      "songwriters",
      "8",
      "singers",
      "2"
    ],
    "repository": "kara.moe",
    "modified_at": "2020-03-31T19:04:35.580Z"
  }
}