{
  "header": {
    "description": "Karaoke Mugen Tag File",
    "version": 1
  },
  "tag": {
    "aliases": [
      "The Shape of Voice"
    ],
    "external_database_ids": {
      "anilist": 20954,
      "myanimelist": 28851,
      "kitsu": 10028
    },
    "i18n": {
      "eng": "A Silent Voice",
      "jpn": "聲の形",
      "qro": "Koe no Katachi"
    },
    "modified_at": "2020-03-31T19:04:32.010Z",
    "name": "Koe no Katachi",
    "repository": "kara.moe",
    "tid": "2a506326-985a-45fb-9df7-0bb2c8a56356",
    "types": [
      "series",
      "1"
    ]
  }
}