{
  "header": {
    "description": "Karaoke Mugen Tag File",
    "version": 1
  },
  "tag": {
    "i18n": {
      "eng": "Koge Donbo"
    },
    "name": "Koge Donbo",
    "tid": "76f3023b-3b5e-4b90-a659-30ac3e02c15a",
    "types": [
      "songwriters",
      "8"
    ],
    "repository": "kara.moe",
    "modified_at": "2020-03-31T19:04:35.584Z"
  }
}