{
  "header": {
    "description": "Karaoke Mugen Tag File",
    "version": 1
  },
  "tag": {
    "i18n": {
      "eng": "KOHTA YAMAMOTO"
    },
    "name": "KOHTA YAMAMOTO",
    "tid": "7bf5615f-1a4e-40e2-a650-61bc871c4789",
    "types": [
      "songwriters",
      "8"
    ],
    "repository": "kara.moe",
    "modified_at": "2020-03-31T19:04:35.590Z"
  }
}