{
  "header": {
    "description": "Karaoke Mugen Tag File",
    "version": 1
  },
  "tag": {
    "i18n": {
      "eng": "Koki Miyaka"
    },
    "name": "Koki Miyaka",
    "tid": "e3e9ae57-121f-4144-ac79-cb28de7533f6",
    "types": [
      "singers",
      "2"
    ],
    "repository": "kara.moe",
    "modified_at": "2020-03-31T19:04:35.597Z"
  }
}