{
  "header": {
    "description": "Karaoke Mugen Tag File",
    "version": 1
  },
  "tag": {
    "aliases": [
      "Coco"
    ],
    "i18n": {
      "eng": "Koko Hayashi",
      "qro": "Koko Hayashi",
      "jpn": "林鼓子"
    },
    "name": "Koko Hayashi",
    "repository": "kara.moe",
    "tid": "72bbbbbe-f187-453b-b896-61ebdad095e6",
    "types": [
      "singers",
      "2"
    ]
  }
}