{
  "header": {
    "description": "Karaoke Mugen Tag File",
    "version": 1
  },
  "tag": {
    "i18n": {
      "eng": "Kokonoka"
    },
    "name": "Kokonoka",
    "tid": "72f95a34-92a1-445e-bdbb-9789f9230344",
    "types": [
      "songwriters",
      "8"
    ],
    "repository": "kara.moe",
    "modified_at": "2020-03-31T19:04:35.600Z"
  }
}