{
  "header": {
    "description": "Karaoke Mugen Tag File",
    "version": 1
  },
  "tag": {
    "i18n": {
      "eng": "Koko",
      "jpn": "ココ"
    },
    "name": "Koko",
    "repository": "kara.moe",
    "tid": "87dbdf6d-c97e-45de-afd3-fe280a22fd4d",
    "types": [
      "singers",
      "2"
    ]
  }
}