{
  "header": {
    "description": "Karaoke Mugen Tag File",
    "version": 1
  },
  "tag": {
    "aliases": [
      "Kokuchou"
    ],
    "i18n": {
      "eng": "Psychedelica of the Black Butterfly",
      "qro": "Kokuchou no Psychedelica",
      "jpn": "黒蝶のサイケデリカ",
      "chi": "黑蝶幻境",
      "kor": "검은 나비의 사이키델리카"
    },
    "name": "Kokuchô no Psychedelica",
    "repository": "kara.moe",
    "tid": "9e9e553c-ec26-4eb0-9f5c-e3e26dc6a170",
    "types": [
      "series",
      "1"
    ]
  }
}