{
  "header": {
    "description": "Karaoke Mugen Tag File",
    "version": 1
  },
  "tag": {
    "i18n": {
      "eng": "Komainu"
    },
    "name": "Komainu",
    "repository": "kara.moe",
    "tid": "adc65e56-0135-4295-80a8-9902154b81f2",
    "types": [
      "creators",
      "4"
    ]
  }
}