{
  "header": {
    "description": "Karaoke Mugen Tag File",
    "version": 1
  },
  "tag": {
    "i18n": {
      "eng": "Komu"
    },
    "name": "Komu",
    "tid": "040091a5-2f27-4313-9c33-7ae7ea54a3e1",
    "types": [
      "songwriters",
      "8"
    ],
    "repository": "kara.moe",
    "modified_at": "2020-03-31T19:04:35.605Z"
  }
}