{
  "header": {
    "description": "Karaoke Mugen Tag File",
    "version": 1
  },
  "tag": {
    "aliases": [
      "konosuba 2",
      "Этот замечательный мир! ТВ2",
      "Konosuba : Soit béni, monde merveilleux !"
    ],
    "external_database_ids": {
      "anilist": 21699,
      "myanimelist": 32937,
      "kitsu": 11937
    },
    "i18n": {
      "eng": "Konosuba: God's Blessing on This Wonderful World! 2",
      "fre": "Kono Subarashii Sekai ni Shukufuku wo! 2",
      "jpn": "この素晴らしい世界に祝福を! 2",
      "kor": "이 멋진 세계에 축복을! 2",
      "qro": "Kono Subarashii Sekai ni Shukufuku wo! 2"
    },
    "modified_at": "2020-06-21T23:45:31.966Z",
    "name": "Kono Subarashii Sekai ni Shukufuku wo! 2",
    "repository": "kara.moe",
    "tid": "74b4a549-f5fb-4d6d-88ac-01bbaf265448",
    "types": [
      "series",
      "1"
    ]
  }
}