{
  "header": {
    "description": "Karaoke Mugen Tag File",
    "version": 1
  },
  "tag": {
    "aliases": [
      "Koihate",
      "Kono Yo no Hate de Koi wo Utau Shoujo Yu-no",
      "Kono Yo no Hate de Koi wo Utau Shôjo Yu-no",
      "yuno",
      "shoujo"
    ],
    "external_database_ids": {
      "anilist": 97995,
      "myanimelist": 34620,
      "kitsu": 13469
    },
    "i18n": {
      "eng": "YU-NO: A girl who chants love at the bound of this world.",
      "jpn": "この世の果てで恋を唄う少女YU-NO",
      "qro": "Kono Yo no Hate de Koi o Utau Shôjo Yu-no"
    },
    "modified_at": "2020-03-31T19:04:32.022Z",
    "name": "Kono Yo no Hate de Koi o Utau Shôjo Yu-no",
    "repository": "kara.moe",
    "tid": "70599801-51c0-4373-bf00-81a0ca5133b6",
    "types": [
      "series",
      "1"
    ]
  }
}