{
  "header": {
    "description": "Karaoke Mugen Tag File",
    "version": 1
  },
  "tag": {
    "aliases": [
      "Kono Naka ni Hitori Imouto ga Iru!",
      "NakaImo",
      "Who is Imouto",
      "imouto"
    ],
    "external_database_ids": {
      "anilist": 13367,
      "myanimelist": 13367,
      "kitsu": 6947
    },
    "i18n": {
      "chi": "其中一个是妹妹",
      "eng": "Nakaimo: My Little Sister Is Among Them!",
      "jpn": "この中に1人, 妹がいる!",
      "qro": "Kono Naka ni Hitori Imôto ga Iru!"
    },
    "modified_at": "2020-03-31T19:04:32.020Z",
    "name": "Kono Naka ni Hitori Imôto ga Iru!",
    "repository": "kara.moe",
    "tid": "9f047dea-1aec-49f4-9d70-8ce960109b93",
    "types": [
      "series",
      "1"
    ]
  }
}