{
  "header": {
    "description": "Karaoke Mugen Tag File",
    "version": 1
  },
  "tag": {
    "aliases": [
      "此花亭奇譚",
      "此花亭奇谭"
    ],
    "external_database_ids": {
      "anilist": 98506,
      "myanimelist": 35241,
      "kitsu": 13752
    },
    "i18n": {
      "chi": "此花绮谭",
      "eng": "Konohana Kitan",
      "fre": "Konohana Kitan",
      "jpn": "このはな綺譚",
      "kor": "코노하나 기담",
      "qro": "Konohana Kitan"
    },
    "modified_at": "2020-03-31T19:04:32.024Z",
    "name": "Konohana Kitan",
    "repository": "kara.moe",
    "tid": "0e58a59e-57f1-460b-b09b-b06a87a45eb1",
    "types": [
      "series",
      "1"
    ]
  }
}