{
  "header": {
    "description": "Karaoke Mugen Tag File",
    "version": 1
  },
  "tag": {
    "i18n": {
      "jpn": "稲垣 好",
      "qro": "Konomi Inagaki"
    },
    "name": "Konomi Inagaki",
    "repository": "kara.moe",
    "tid": "f7ae8206-c435-4a23-867a-fddffbe7b50a",
    "types": [
      "singers",
      "2"
    ]
  }
}