{
  "header": {
    "description": "Karaoke Mugen Tag File",
    "version": 1
  },
  "tag": {
    "i18n": {
      "eng": "Koshi"
    },
    "name": "Koshi",
    "repository": "kara.moe",
    "tid": "4564ec63-c8f2-448c-9e91-c9b0fc07c073",
    "types": [
      "songwriters",
      "8"
    ]
  }
}