{
  "header": {
    "description": "Karaoke Mugen Tag File",
    "version": 1
  },
  "tag": {
    "i18n": {
      "eng": "Kosuke Toriumi"
    },
    "name": "Kosuke Toriumi",
    "tid": "761ca049-8b17-4c99-8726-7b001774c700",
    "types": [
      "songwriters",
      "8"
    ],
    "repository": "kara.moe",
    "modified_at": "2020-03-31T19:04:35.616Z"
  }
}