{
  "header": {
    "description": "Karaoke Mugen Tag File",
    "version": 1
  },
  "tag": {
    "i18n": {
      "eng": "Kotonoha Aoi"
    },
    "name": "Kotonoha Aoi",
    "tid": "b24e0115-e1a2-4113-a6d4-78ab9f20ea2b",
    "types": [
      "singers",
      "2"
    ],
    "repository": "kara.moe",
    "modified_at": "2020-03-31T19:04:35.624Z"
  }
}