{
  "header": {
    "description": "Karaoke Mugen Tag File",
    "version": 1
  },
  "tag": {
    "i18n": {
      "eng": "Kotono Mitsuishi"
    },
    "name": "Kotono Mitsuishi",
    "tid": "512409c9-924b-4deb-a592-9b5860dd49e7",
    "types": [
      "singers",
      "2"
    ],
    "repository": "kara.moe",
    "modified_at": "2020-03-31T19:04:35.622Z"
  }
}