{
  "header": {
    "description": "Karaoke Mugen Tag File",
    "version": 1
  },
  "tag": {
    "i18n": {
      "eng": "Kotoha"
    },
    "modified_at": "2021-06-13T13:47:44.641Z",
    "name": "Kotoha",
    "repository": "kara.moe",
    "tid": "440fb90f-7d73-4b2e-82c5-ad7da4deaba9",
    "types": [
      "singers",
      "2"
    ]
  }
}