{
  "header": {
    "description": "Karaoke Mugen Tag File",
    "version": 1
  },
  "tag": {
    "i18n": {
      "eng": "Kotoe Kawasaki"
    },
    "name": "Kotoe Kawasaki",
    "tid": "f1448a36-923e-4478-b68e-ecc9010de343",
    "types": [
      "singers",
      "2"
    ],
    "repository": "kara.moe",
    "modified_at": "2020-03-31T19:04:35.619Z"
  }
}