{
  "header": {
    "description": "Karaoke Mugen Tag File",
    "version": 1
  },
  "tag": {
    "i18n": {
      "eng": "Kôchi Inaba"
    },
    "modified_at": "2021-12-06T23:54:53.051Z",
    "name": "Kôchi Inaba",
    "repository": "kara.moe",
    "tid": "260868ec-dd97-4cd9-96c0-2367f84f7c9f",
    "types": [
      "songwriters",
      "8"
    ]
  }
}