{
  "header": {
    "description": "Karaoke Mugen Tag File",
    "version": 1
  },
  "tag": {
    "i18n": {
      "eng": "Koudai Iwatsubo"
    },
    "name": "Koudai Iwatsubo",
    "repository": "kara.moe",
    "tid": "c1a5b6a7-a07b-49e0-881c-e2ccea5d4216",
    "types": [
      "songwriters",
      "8"
    ]
  }
}