{
  "header": {
    "description": "Karaoke Mugen Tag File",
    "version": 1
  },
  "tag": {
    "i18n": {
      "eng": "Kôhei Oikawa"
    },
    "name": "Kôhei Oikawa",
    "tid": "1725a6ee-7fe1-4701-b993-d3e353a9189a",
    "types": [
      "songwriters",
      "8"
    ],
    "repository": "kara.moe",
    "modified_at": "2020-03-31T19:04:35.634Z"
  }
}