{
  "header": {
    "description": "Karaoke Mugen Tag File",
    "version": 1
  },
  "tag": {
    "i18n": {
      "eng": "Kôhei Wada"
    },
    "name": "Kôhei Wada",
    "tid": "7a5573d7-4805-4c0b-9bfc-379581f5bd54",
    "types": [
      "songwriters",
      "8"
    ],
    "repository": "kara.moe",
    "modified_at": "2020-03-31T19:04:35.638Z"
  }
}