{
  "header": {
    "description": "Karaoke Mugen Tag File",
    "version": 1
  },
  "tag": {
    "i18n": {
      "eng": "Kôhei Koizumi"
    },
    "name": "Kôhei Koizumi",
    "tid": "448efa1a-3bc7-4e45-a4ca-558a94eab797",
    "types": [
      "singers",
      "2",
      "songwriters",
      "8"
    ],
    "repository": "kara.moe",
    "modified_at": "2020-03-31T19:04:35.633Z"
  }
}