{
  "header": {
    "description": "Karaoke Mugen Tag File",
    "version": 1
  },
  "tag": {
    "i18n": {
      "eng": "Kôhei Sakama"
    },
    "name": "Kôhei Sakama",
    "tid": "faabf981-f039-40f6-81da-2f1b55f5985f",
    "types": [
      "songwriters",
      "8"
    ],
    "repository": "kara.moe",
    "modified_at": "2020-03-31T19:04:35.635Z"
  }
}