{
  "header": {
    "description": "Karaoke Mugen Tag File",
    "version": 1
  },
  "tag": {
    "i18n": {
      "eng": "Kôichi Kawazu"
    },
    "name": "Kôichi Kawazu",
    "tid": "8c027945-601d-4ce3-960d-e5c89ead7830",
    "types": [
      "singers",
      "2"
    ],
    "repository": "kara.moe",
    "modified_at": "2020-03-31T19:04:35.641Z"
  }
}