{
  "header": {
    "description": "Karaoke Mugen Tag File",
    "version": 1
  },
  "tag": {
    "i18n": {
      "eng": "Kôichi Fujimoto"
    },
    "name": "Kôichi Fujimoto",
    "tid": "4d53aa8e-74f4-4673-adab-7d59ab35536c",
    "types": [
      "songwriters",
      "8"
    ],
    "repository": "kara.moe",
    "modified_at": "2020-03-31T19:04:35.638Z"
  }
}