{
  "header": {
    "description": "Karaoke Mugen Tag File",
    "version": 1
  },
  "tag": {
    "i18n": {
      "eng": "Kôichi Tabo"
    },
    "name": "Kôichi Tabo",
    "tid": "589c0f44-9902-4085-9aea-5fafcf224e72",
    "types": [
      "songwriters",
      "8"
    ],
    "repository": "kara.moe",
    "modified_at": "2020-03-31T19:04:35.646Z"
  }
}