{
  "header": {
    "description": "Karaoke Mugen Tag File",
    "version": 1
  },
  "tag": {
    "i18n": {
      "eng": "Kôichi Nagano"
    },
    "name": "Kôichi Nagano",
    "tid": "2f2a55f5-9b54-456c-94e3-1f8a6bdbb127",
    "types": [
      "singers",
      "2"
    ],
    "repository": "kara.moe",
    "modified_at": "2020-03-31T19:04:35.643Z"
  }
}