{
  "header": {
    "description": "Karaoke Mugen Tag File",
    "version": 1
  },
  "tag": {
    "i18n": {
      "eng": "Kôji Ueno"
    },
    "name": "Kôji Ueno",
    "tid": "305826fe-9529-4981-9584-8984910b798d",
    "types": [
      "songwriters",
      "8"
    ],
    "repository": "kara.moe",
    "modified_at": "2020-03-31T19:04:35.662Z"
  }
}