{
  "header": {
    "description": "Karaoke Mugen Tag File",
    "version": 1
  },
  "tag": {
    "i18n": {
      "eng": "Kôji Kumeta"
    },
    "name": "Kôji Kumeta",
    "tid": "1f7f9917-5a42-47a9-af68-8b4c60279df0",
    "types": [
      "songwriters",
      "8"
    ],
    "repository": "kara.moe",
    "modified_at": "2020-03-31T19:04:35.653Z"
  }
}