{
  "header": {
    "description": "Karaoke Mugen Tag File",
    "version": 1
  },
  "tag": {
    "i18n": {
      "eng": "Kôji Nakagawa"
    },
    "name": "Kôji Nakagawa",
    "tid": "454b2c83-3cde-4342-bdf4-b57d29a2c287",
    "types": [
      "songwriters",
      "8"
    ],
    "repository": "kara.moe",
    "modified_at": "2020-03-31T19:04:35.658Z"
  }
}