{
  "header": {
    "description": "Karaoke Mugen Tag File",
    "version": 1
  },
  "tag": {
    "i18n": {
      "eng": "Kôji Muraya"
    },
    "name": "Kôji Muraya",
    "tid": "bc81b6a6-3deb-4745-aea4-c19a975354ba",
    "types": [
      "songwriters",
      "8"
    ],
    "repository": "kara.moe",
    "modified_at": "2020-03-31T19:04:35.657Z"
  }
}