{
  "header": {
    "description": "Karaoke Mugen Tag File",
    "version": 1
  },
  "tag": {
    "i18n": {
      "eng": "Kôji Mihara"
    },
    "name": "Kôji Mihara",
    "tid": "e3ee7463-3bb3-4b7a-9ff3-82881517993f",
    "types": [
      "songwriters",
      "8"
    ],
    "repository": "kara.moe",
    "modified_at": "2020-03-31T19:04:35.656Z"
  }
}