{
  "header": {
    "description": "Karaoke Mugen Tag File",
    "version": 1
  },
  "tag": {
    "i18n": {
      "eng": "Kôki Uchiyama"
    },
    "name": "Kôki Uchiyama",
    "tid": "c7a67fd2-acba-4a7a-93ca-d22f6b6323a9",
    "types": [
      "singers",
      "2"
    ],
    "repository": "kara.moe",
    "modified_at": "2020-03-31T19:04:35.667Z"
  }
}