{
  "header": {
    "description": "Karaoke Mugen Tag File",
    "version": 1
  },
  "tag": {
    "i18n": {
      "eng": "Kôko Komine"
    },
    "name": "Kôko Komine",
    "tid": "1ac1b7a1-7f8d-44f1-9932-15f5ab745345",
    "types": [
      "songwriters",
      "8"
    ],
    "repository": "kara.moe",
    "modified_at": "2020-03-31T19:04:35.667Z"
  }
}