{
  "header": {
    "description": "Karaoke Mugen Tag File",
    "version": 1
  },
  "tag": {
    "i18n": {
      "eng": "Koumajo Densetsu Scarlet Symphony",
      "fre": "Koumajô Densetsu Scarlet Symphony",
      "jpn": "紅魔城伝説 緋色の交響曲",
      "qro": "Koumajou Densetsu Scarlet Symphony"
    },
    "modified_at": "2020-03-31T19:04:32.035Z",
    "name": "Koumajou Densetsu Scarlet Symphony",
    "repository": "kara.moe",
    "tid": "ad940a2f-69ee-4432-96f9-2d7f226c9b9d",
    "types": [
      "series",
      "1"
    ]
  }
}