{
  "header": {
    "description": "Karaoke Mugen Tag File",
    "version": 1
  },
  "tag": {
    "i18n": {
      "eng": "Kôsuke Atari"
    },
    "name": "Kôsuke Atari",
    "tid": "8bd3b546-1637-4202-a047-ea27782e6db6",
    "types": [
      "singers",
      "2"
    ],
    "repository": "kara.moe",
    "modified_at": "2020-03-31T19:04:35.674Z"
  }
}