{
  "header": {
    "description": "Karaoke Mugen Tag File",
    "version": 1
  },
  "tag": {
    "aliases": [
      "Kousoku Denjin Albegas",
      "Kousoku Denjin Albegus",
      "kousoku"
    ],
    "external_database_ids": {
      "anilist": 5891,
      "myanimelist": 5891,
      "kitsu": 4325
    },
    "i18n": {
      "eng": "Lightspeed Electroid Albegas",
      "jpn": "光速電神アルベガス",
      "qro": "Kôsoku Denjin Albegas"
    },
    "modified_at": "2020-03-31T19:04:32.037Z",
    "name": "Kôsoku Denjin Albegas",
    "repository": "kara.moe",
    "tid": "db277c3c-a620-4e48-a241-4449d0caaa09",
    "types": [
      "series",
      "1"
    ]
  }
}