{
  "header": {
    "description": "Karaoke Mugen Tag File",
    "version": 1
  },
  "tag": {
    "i18n": {
      "eng": "Kôtaro Nishimiya"
    },
    "name": "Kôtaro Nishimiya",
    "repository": "kara.moe",
    "tid": "62d5bb3a-941a-4df6-9cfb-43504d844d52",
    "types": [
      "singers",
      "2"
    ]
  }
}