{
  "header": {
    "description": "Karaoke Mugen Tag File",
    "version": 1
  },
  "tag": {
    "aliases": [
      "Koutetsujou no Kabaneri",
      "Желязната крепост на мъртвите",
      "Заклеймённые из «Стальной крепости»",
      "Кабанери от Желязната крепост",
      "koutetsujou"
    ],
    "external_database_ids": {
      "anilist": 21196,
      "myanimelist": 28623,
      "kitsu": 10036
    },
    "i18n": {
      "chi": "甲铁城的卡巴内瑞",
      "eng": "Kabaneri of the Iron Fortress",
      "jpn": "甲鉄城のカバネリ",
      "kor": "갑철성의 카바네리",
      "qro": "Kôtetsujô no Kabaneri"
    },
    "modified_at": "2020-06-21T23:45:31.966Z",
    "name": "Kôtetsujô no Kabaneri",
    "repository": "kara.moe",
    "tid": "04a4e1f1-e20b-4ce2-aefa-5afcd94caf2d",
    "types": [
      "series",
      "1",
      "franchises",
      "18"
    ]
  }
}