{
  "header": {
    "description": "Karaoke Mugen Tag File",
    "version": 1
  },
  "tag": {
    "i18n": {
      "eng": "Koyori Hakui"
    },
    "name": "Koyori Hakui",
    "repository": "kara.moe",
    "tid": "5a6d7b16-fb55-462e-ba32-28c16058188c",
    "types": [
      "singers",
      "2"
    ]
  }
}