{
  "header": {
    "description": "Karaoke Mugen Tag File",
    "version": 1
  },
  "tag": {
    "i18n": {
      "eng": "krage"
    },
    "name": "krage",
    "repository": "kara.moe",
    "tid": "d1397322-37bc-4723-9794-03f1e99ac4d3",
    "types": [
      "singers",
      "2",
      "songwriters",
      "8"
    ]
  }
}