{
  "header": {
    "description": "Karaoke Mugen Tag File",
    "version": 1
  },
  "tag": {
    "i18n": {
      "eng": "Krysta Youngs"
    },
    "name": "Krysta Youngs",
    "repository": "kara.moe",
    "tid": "0045a544-29b9-4e4d-8817-dd74f6ccdb3f",
    "types": [
      "songwriters",
      "8"
    ]
  }
}