{
  "header": {
    "description": "Karaoke Mugen Tag File",
    "version": 1
  },
  "tag": {
    "i18n": {
      "eng": "KSUKE"
    },
    "modified_at": "2020-11-25T00:11:28.566Z",
    "name": "KSUKE",
    "repository": "kara.moe",
    "tid": "f4aceafd-be3b-4210-aedf-b60ffd3d0c94",
    "types": [
      "songwriters",
      "8",
      "singers",
      "2"
    ]
  }
}