{
  "header": {
    "description": "Karaoke Mugen Tag File",
    "version": 1
  },
  "tag": {
    "i18n": {
      "eng": "KT Music"
    },
    "name": "KT Music",
    "repository": "kara.moe",
    "tid": "f46f992b-7b6e-43e2-a6e1-b445da5e69fd",
    "types": [
      "creators",
      "4"
    ]
  }
}