{
  "header": {
    "description": "Karaoke Mugen Tag File",
    "version": 1
  },
  "tag": {
    "i18n": {
      "eng": "KUBO-C"
    },
    "name": "KUBO-C",
    "repository": "kara.moe",
    "tid": "ed4de439-1db5-40fb-bcf9-a4d75fc5edc5",
    "types": [
      "singers",
      "2",
      "songwriters",
      "8"
    ]
  }
}