{
  "header": {
    "description": "Karaoke Mugen Tag File",
    "version": 1
  },
  "tag": {
    "i18n": {
      "eng": "kuma(alfred)"
    },
    "modified_at": "2020-07-12T17:42:35.440Z",
    "name": "kuma(alfred)",
    "repository": "kara.moe",
    "tid": "16340bea-8c8f-4d23-af7b-f03c8d47758b",
    "types": [
      "songwriters",
      "8"
    ]
  }
}