{
  "header": {
    "description": "Karaoke Mugen Tag File",
    "version": 1
  },
  "tag": {
    "i18n": {
      "eng": "Kumiko Oosugi"
    },
    "name": "Kumiko Oosugi",
    "tid": "3532b22d-4996-4279-85e6-07258406f831",
    "types": [
      "singers",
      "2"
    ],
    "repository": "kara.moe",
    "modified_at": "2020-03-31T19:04:35.708Z"
  }
}