{
  "header": {
    "description": "Karaoke Mugen Tag File",
    "version": 1
  },
  "tag": {
    "i18n": {
      "eng": "Kunimitsu Takahashi"
    },
    "name": "Kunimitsu Takahashi",
    "tid": "38f8dd98-0d4b-4370-abd2-409862c0cf8b",
    "types": [
      "songwriters",
      "8"
    ],
    "repository": "kara.moe",
    "modified_at": "2020-03-31T19:04:35.715Z"
  }
}