{
  "header": {
    "description": "Karaoke Mugen Tag File",
    "version": 1
  },
  "tag": {
    "i18n": {
      "eng": "Kunihiko Ryô"
    },
    "name": "Kunihiko Ryô",
    "tid": "a3ae6533-0ace-44ab-96b0-e12ded1e4e1d",
    "types": [
      "songwriters",
      "8"
    ],
    "repository": "kara.moe",
    "modified_at": "2020-03-31T19:04:35.714Z"
  }
}