{
  "header": {
    "description": "Karaoke Mugen Tag File",
    "version": 1
  },
  "tag": {
    "aliases": [
      "Kure-nai",
      "Куренай",
      "Курэнай",
      "كوريناي",
      "红",
      "쿠레나이"
    ],
    "external_database_ids": {
      "anilist": 3358,
      "myanimelist": 3358,
      "kitsu": 2954
    },
    "i18n": {
      "eng": "Kurenai",
      "jpn": "紅",
      "kor": "홍(紅)",
      "qro": "Kurenai"
    },
    "modified_at": "2020-06-21T23:45:31.966Z",
    "name": "Kurenai",
    "repository": "kara.moe",
    "tid": "5bb67340-5f69-475b-9c6e-17c9cbe92863",
    "types": [
      "series",
      "1"
    ]
  }
}