{
  "header": {
    "description": "Karaoke Mugen Tag File",
    "version": 1
  },
  "tag": {
    "aliases": [
      "Kurenai no Homura Sanada Ninpou Chou",
      "Sanada of the Crimson Flame",
      "Shinku no Homura",
      "ninpou",
      "chou"
    ],
    "i18n": {
      "eng": "Kurenai no Homura Sanada Ninpô Chô",
      "jpn": "真紅の焔 真田忍法帳",
      "qro": "Kurenai no Homura Sanada Ninpô Chô"
    },
    "modified_at": "2020-03-31T19:04:32.050Z",
    "name": "Kurenai no Homura Sanada Ninpô Chô",
    "repository": "kara.moe",
    "tid": "2a64c645-3336-4436-9758-7484a6e50144",
    "types": [
      "series",
      "1"
    ]
  }
}