{
  "header": {
    "description": "Karaoke Mugen Tag File",
    "version": 1
  },
  "tag": {
    "i18n": {
      "eng": "Kurosu+"
    },
    "name": "Kurosu+",
    "repository": "kara.moe",
    "tid": "9aca7565-a996-4231-b169-ad512d605908",
    "types": [
      "singers",
      "2"
    ]
  }
}