{
  "header": {
    "description": "Karaoke Mugen Tag File",
    "version": 1
  },
  "tag": {
    "aliases": [
      "WhiteFlame"
    ],
    "i18n": {
      "eng": "Kurousa-P"
    },
    "name": "Kurousa-P",
    "tid": "3983820b-bf9d-4263-bdf7-310753587ef8",
    "types": [
      "songwriters",
      "8"
    ],
    "repository": "kara.moe",
    "modified_at": "2020-03-31T19:04:35.723Z"
  }
}