{
  "header": {
    "description": "Karaoke Mugen Tag File",
    "version": 1
  },
  "tag": {
    "aliases": [
      "Black God",
      "Juodasis Dievas",
      "Kara Tanrı",
      "Чорна богиня",
      "黒神 The Animation"
    ],
    "external_database_ids": {
      "anilist": 5079,
      "myanimelist": 5079,
      "kitsu": 3917
    },
    "i18n": {
      "eng": "Kurokami The Animation",
      "fre": "Kurokami",
      "jpn": "黒神 The Animation",
      "rus": "Темная богиня",
      "qro": "Kurokami The Animation"
    },
    "modified_at": "2020-06-21T23:45:31.966Z",
    "name": "Kurokami The Animation",
    "repository": "kara.moe",
    "tid": "4c717cb7-4048-465f-9912-451411e2798c",
    "types": [
      "series",
      "1"
    ]
  }
}