{
  "header": {
    "description": "Karaoke Mugen Tag File",
    "version": 1
  },
  "tag": {
    "i18n": {
      "eng": "Kuroneko Chelsea"
    },
    "modified_at": "2020-08-17T20:54:40.753Z",
    "name": "Kuroneko Chelsea",
    "repository": "kara.moe",
    "tid": "6a03b8c4-84c6-4bc9-b3af-7400d4667680",
    "types": [
      "singers",
      "2"
    ]
  }
}