{
  "header": {
    "description": "Karaoke Mugen Tag File",
    "version": 1
  },
  "tag": {
    "i18n": {
      "eng": "Kururu Kurasaka"
    },
    "name": "Kururu Kurasaka",
    "repository": "kara.moe",
    "tid": "39735b50-1e37-4684-930b-a978a29fa751",
    "types": [
      "singers",
      "2"
    ]
  }
}