{
  "header": {
    "description": "Karaoke Mugen Tag File",
    "version": 1
  },
  "tag": {
    "i18n": {
      "eng": "Kurumi Mamiya"
    },
    "name": "Kurumi Mamiya",
    "tid": "4693b00a-08ec-4a8c-9df0-48684191cff6",
    "types": [
      "singers",
      "2"
    ],
    "repository": "kara.moe",
    "modified_at": "2020-03-31T19:04:35.724Z"
  }
}