{
  "header": {
    "description": "Karaoke Mugen Tag File",
    "version": 1
  },
  "tag": {
    "i18n": {
      "eng": "Kuso Iinkai"
    },
    "name": "Kuso Iinkai",
    "tid": "fb218793-7788-40e2-89c6-391eb9eb9026",
    "types": [
      "singers",
      "2"
    ],
    "repository": "kara.moe",
    "modified_at": "2020-03-31T19:04:35.726Z"
  }
}