{
  "header": {
    "description": "Karaoke Mugen Tag File",
    "version": 1
  },
  "tag": {
    "i18n": {
      "eng": "Kûko"
    },
    "modified_at": "2020-05-15T10:59:54.757Z",
    "name": "Kûko",
    "repository": "kara.moe",
    "tid": "7709d784-1652-49dc-beaa-784cb8ea5c10",
    "types": [
      "singers",
      "2"
    ]
  }
}