{
  "header": {
    "description": "Karaoke Mugen Tag File",
    "version": 1
  },
  "tag": {
    "i18n": {
      "eng": "Kûro-kun"
    },
    "name": "Kûro-kun",
    "tid": "5cc0285d-ba30-4727-8fc7-83ed292fef73",
    "types": [
      "singers",
      "2"
    ],
    "repository": "kara.moe",
    "modified_at": "2020-03-31T19:04:35.729Z"
  }
}