{
  "header": {
    "description": "Karaoke Mugen Tag File",
    "version": 1
  },
  "tag": {
    "i18n": {
      "eng": "Kvi Baba"
    },
    "name": "Kvi Baba",
    "repository": "kara.moe",
    "tid": "1c514d20-3e00-47f8-8140-6c52d6819247",
    "types": [
      "singers",
      "2"
    ]
  }
}