{
  "header": {
    "description": "Karaoke Mugen Tag File",
    "version": 1
  },
  "tag": {
    "i18n": {
      "eng": "Kwon Eun-bi"
    },
    "name": "Kwon Eun-bi",
    "repository": "kara.moe",
    "tid": "2a76d578-5c70-423d-b780-0e9667813b46",
    "types": [
      "singers",
      "2"
    ]
  }
}