{
  "header": {
    "description": "Karaoke Mugen Tag File",
    "version": 1
  },
  "tag": {
    "aliases": [
      "Kyokou Suiri",
      "kyokou"
    ],
    "external_database_ids": {
      "anilist": 107201,
      "myanimelist": 39017,
      "kitsu": 42117
    },
    "i18n": {
      "eng": "In/Spectre",
      "jpn": "虚構推理",
      "qro": "Kyokô Suiri"
    },
    "modified_at": "2020-03-31T19:04:32.063Z",
    "name": "Kyokô Suiri",
    "repository": "kara.moe",
    "tid": "06365860-3155-4d96-b3c9-ad1aa248db61",
    "types": [
      "series",
      "1"
    ]
  }
}