{
  "header": {
    "description": "Karaoke Mugen Tag File",
    "version": 1
  },
  "tag": {
    "i18n": {
      "eng": "Kyōka Moriya"
    },
    "name": "Kyōka Moriya",
    "repository": "kara.moe",
    "tid": "d2924490-da6c-4152-908d-61e6494c2642",
    "types": [
      "singers",
      "2"
    ]
  }
}