{
  "header": {
    "description": "Karaoke Mugen Tag File",
    "version": 1
  },
  "tag": {
    "i18n": {
      "eng": "Kyotoma"
    },
    "name": "Kyotoma",
    "tid": "b1fe4e79-fda5-4899-8102-2e15ecf058bf",
    "types": [
      "creators",
      "4"
    ],
    "repository": "kara.moe",
    "modified_at": "2020-03-31T19:04:35.735Z"
  }
}