{
  "header": {
    "description": "Karaoke Mugen Tag File",
    "version": 1
  },
  "tag": {
    "i18n": {
      "eng": "Kyôko Narumi"
    },
    "name": "Kyôko Narumi",
    "tid": "af421857-be22-467b-bc91-97bad8460aca",
    "types": [
      "singers",
      "2"
    ],
    "repository": "kara.moe",
    "modified_at": "2020-03-31T19:04:35.748Z"
  }
}