{
  "header": {
    "description": "Karaoke Mugen Tag File",
    "version": 1
  },
  "tag": {
    "aliases": [
      "From Today, It's My Turn!!",
      "Kyou kara Ore wa!!",
      "kyou"
    ],
    "i18n": {
      "eng": "Kyô Kara Ore Wa!!",
      "jpn": "今日から俺は!!",
      "qro": "Kyô Kara Ore Wa!!"
    },
    "modified_at": "2020-03-31T19:04:32.065Z",
    "name": "Kyô Kara Ore Wa!!",
    "repository": "kara.moe",
    "tid": "26aab52d-849c-4996-8689-9c2046d0fc4d",
    "types": [
      "series",
      "1"
    ]
  }
}