{
  "header": {
    "description": "Karaoke Mugen Tag File",
    "version": 1
  },
  "tag": {
    "i18n": {
      "eng": "Kyôko Fukuyama"
    },
    "name": "Kyôko Fukuyama",
    "tid": "f3781730-84d7-43f9-97d4-313291789164",
    "types": [
      "songwriters",
      "8"
    ],
    "repository": "kara.moe",
    "modified_at": "2020-03-31T19:04:35.745Z"
  }
}