{
  "header": {
    "description": "Karaoke Mugen Tag File",
    "version": 1
  },
  "tag": {
    "i18n": {
      "eng": "Kyôhei Arahata"
    },
    "modified_at": "2021-03-11T20:45:04.838Z",
    "name": "Kyôhei Arahata",
    "repository": "kara.moe",
    "tid": "e1436b2a-1054-42ed-bfd5-77d50e790eb2",
    "types": [
      "songwriters",
      "8"
    ]
  }
}