{
  "header": {
    "description": "Karaoke Mugen Tag File",
    "version": 1
  },
  "tag": {
    "i18n": {
      "eng": "Kyô Takada"
    },
    "name": "Kyô Takada",
    "tid": "95f2365a-8fbb-4fa9-a920-bba23c20f93b",
    "types": [
      "songwriters",
      "8"
    ],
    "repository": "kara.moe",
    "modified_at": "2020-03-31T19:04:35.737Z"
  }
}