{
  "header": {
    "description": "Karaoke Mugen Tag File",
    "version": 1
  },
  "tag": {
    "aliases": [
      "Capital Craze Comic (2011)",
      "Kyousogiga",
      "Kyousou Giga",
      "Kyousougiga",
      "kyousougiga"
    ],
    "external_database_ids": {
      "anilist": 19703,
      "myanimelist": 19703,
      "kitsu": 7870
    },
    "i18n": {
      "eng": "Kyosogiga",
      "fre": "Kyôsôgiga",
      "jpn": "京騒戯画",
      "qro": "Kyôsôgiga"
    },
    "modified_at": "2020-03-31T19:04:32.070Z",
    "name": "Kyôsôgiga",
    "repository": "kara.moe",
    "tid": "f673cba3-2c4c-480b-9c6e-77752e89bbe6",
    "types": [
      "series",
      "1"
    ]
  }
}