{
  "header": {
    "description": "Karaoke Mugen Tag File",
    "version": 1
  },
  "tag": {
    "i18n": {
      "eng": "Kyurosu"
    },
    "name": "Kyurosu",
    "repository": "kara.moe",
    "tid": "27fd468e-209d-491d-8d5b-afdd14dcfbe3",
    "types": [
      "creators",
      "4"
    ]
  }
}