{
  "header": {
    "description": "Karaoke Mugen Tag File",
    "version": 1
  },
  "tag": {
    "i18n": {
      "eng": "L!TH!UM"
    },
    "name": "L!TH!UM",
    "tid": "cdcb83c1-b979-4334-b5cd-17c0350ecd8a",
    "types": [
      "songwriters",
      "8"
    ],
    "repository": "kara.moe",
    "modified_at": "2020-03-31T19:04:35.752Z"
  }
}