{
  "header": {
    "description": "Karaoke Mugen Tag File",
    "version": 1
  },
  "tag": {
    "aliases": [
      "l'arc en ciel"
    ],
    "i18n": {
      "eng": "L'Arc~en~Ciel"
    },
    "name": "L'Arc~en~Ciel",
    "repository": "kara.moe",
    "tid": "4061a0fb-641d-4a33-9968-b26313bab59c",
    "types": [
      "singers",
      "2"
    ],
    "modified_at": "2020-03-31T19:04:35.753Z"
  }
}