{
  "header": {
    "description": "Karaoke Mugen Tag File",
    "version": 1
  },
  "tag": {
    "i18n": {
      "eng": "L(R)UCCA"
    },
    "modified_at": "2020-08-17T23:41:46.281Z",
    "name": "L(R)UCCA",
    "repository": "kara.moe",
    "tid": "2e3b4276-50f0-43fb-97f3-1b9823061f88",
    "types": [
      "songwriters",
      "8"
    ]
  }
}