{
  "header": {
    "description": "Karaoke Mugen Tag File",
    "version": 1
  },
  "tag": {
    "i18n": {
      "eng": "L-VOKAL"
    },
    "name": "L-VOKAL",
    "tid": "2b1671de-0460-4030-9d21-5649d297be65",
    "types": [
      "singers",
      "2"
    ],
    "repository": "kara.moe",
    "modified_at": "2020-03-31T19:04:35.754Z"
  }
}