{
  "header": {
    "description": "Karaoke Mugen Tag File",
    "version": 1
  },
  "tag": {
    "i18n": {
      "fre": "La Sorcière Camomille",
      "spa": "La Bruja Aburrida"
    },
    "name": "La Bruja Aburrida",
    "repository": "kara.moe",
    "tid": "34bd4c02-9d5a-4ec1-bae9-7a4b4564a7f2",
    "types": [
      "series",
      "1"
    ]
  }
}