{
  "header": {
    "description": "Karaoke Mugen Tag File",
    "version": 1
  },
  "tag": {
    "i18n": {
      "eng": "La-vie"
    },
    "name": "La-vie",
    "tid": "a133c4c6-6e33-4e68-bd8a-b4715ff47241",
    "types": [
      "singers",
      "2"
    ],
    "repository": "kara.moe",
    "modified_at": "2020-03-31T19:04:35.757Z"
  }
}