{
  "header": {
    "description": "Karaoke Mugen Tag File",
    "version": 1
  },
  "tag": {
    "i18n": {
      "eng": "LamazeP"
    },
    "name": "LamazeP",
    "tid": "f3ee8762-299d-41f3-9e93-11a829a8f49e",
    "types": [
      "creators",
      "4",
      "songwriters",
      "8"
    ],
    "repository": "kara.moe",
    "modified_at": "2020-03-31T19:04:35.761Z"
  }
}