{
  "header": {
    "description": "Karaoke Mugen Tag File",
    "version": 1
  },
  "tag": {
    "i18n": {
      "eng": "LAMA"
    },
    "name": "LAMA",
    "tid": "09adecf4-f5d1-472c-985f-b172927ecc69",
    "types": [
      "singers",
      "2",
      "songwriters",
      "8"
    ],
    "repository": "kara.moe",
    "modified_at": "2020-03-31T19:04:35.761Z"
  }
}