{
  "header": {
    "description": "Karaoke Mugen Tag File",
    "version": 1
  },
  "tag": {
    "external_database_ids": {
      "anilist": 20712,
      "myanimelist": 24011,
      "kitsu": 8666
    },
    "i18n": {
      "eng": "Lance N' Masques",
      "jpn": "ランス・アンド・マスクス",
      "qro": "Lance N' Masques"
    },
    "modified_at": "2020-03-31T19:04:32.075Z",
    "name": "Lance N' Masques",
    "repository": "kara.moe",
    "tid": "680be91c-5d8e-41fa-8a26-2a3c99227ae1",
    "types": [
      "series",
      "1"
    ]
  }
}