{
  "header": {
    "description": "Karaoke Mugen Tag File",
    "version": 1
  },
  "tag": {
    "i18n": {
      "eng": "Lapin Track"
    },
    "name": "Lapin Track",
    "tid": "762af05e-0380-48b7-a7e8-780c4d3d6c68",
    "types": [
      "creators",
      "4"
    ],
    "repository": "kara.moe",
    "modified_at": "2020-03-31T19:04:35.765Z"
  }
}