{
  "header": {
    "description": "Karaoke Mugen Tag File",
    "version": 1
  },
  "tag": {
    "i18n": {
      "eng": "Lastman",
      "fre": "Lastman"
    },
    "modified_at": "2021-02-08T23:27:04.322Z",
    "name": "Lastman",
    "repository": "kara.moe",
    "tid": "3f58e08c-c638-4644-b40d-abe948e5e707",
    "types": [
      "series",
      "1"
    ]
  }
}