{
  "header": {
    "description": "Karaoke Mugen Tag File",
    "version": 1
  },
  "tag": {
    "i18n": {
      "eng": "Laura Panzeri"
    },
    "name": "Laura Panzeri",
    "tid": "d2a8d25c-d4ac-40be-9a8c-a9e8f37834ca",
    "types": [
      "singers",
      "2"
    ],
    "repository": "kara.moe",
    "modified_at": "2020-03-31T19:04:35.774Z"
  }
}