{
  "header": {
    "description": "Karaoke Mugen Tag File",
    "version": 1
  },
  "tag": {
    "i18n": {
      "eng": "Laura Préjean"
    },
    "modified_at": "2021-02-19T11:01:53.267Z",
    "name": "Laura Préjean",
    "repository": "kara.moe",
    "tid": "43db1ce2-fa4b-492a-b2e6-af0574d9c5de",
    "types": [
      "singers",
      "2"
    ]
  }
}