{
  "header": {
    "description": "Karaoke Mugen Tag File",
    "version": 1
  },
  "tag": {
    "i18n": {
      "eng": "Lauren Aquilina"
    },
    "name": "Lauren Aquilina",
    "tid": "ae233b0f-9af2-42ea-ba86-adb778b6098c",
    "types": [
      "songwriters",
      "8",
      "singers",
      "2"
    ],
    "repository": "kara.moe",
    "modified_at": "2020-03-31T19:04:35.776Z"
  }
}