{
  "header": {
    "description": "Karaoke Mugen Tag File",
    "version": 1
  },
  "tag": {
    "i18n": {
      "eng": "Lay-duce"
    },
    "name": "Lay-duce",
    "tid": "4265e6a3-41bf-46ca-903a-b6e4551a901f",
    "types": [
      "creators",
      "4"
    ],
    "repository": "kara.moe",
    "modified_at": "2020-03-31T19:04:35.780Z"
  }
}