{
  "header": {
    "description": "Karaoke Mugen Tag File",
    "version": 1
  },
  "tag": {
    "i18n": {
      "eng": "LazuLight"
    },
    "modified_at": "2021-09-29T23:23:52.634Z",
    "name": "LazuLight",
    "repository": "kara.moe",
    "tid": "27d64e5c-55f9-4185-aa73-6beef1c73050",
    "types": [
      "series",
      "1"
    ]
  }
}