{
  "header": {
    "description": "Karaoke Mugen Tag File",
    "version": 1
  },
  "tag": {
    "i18n": {
      "fre": "Le Bonheur de la vie",
      "spa": "La alegría de la vida"
    },
    "modified_at": "2020-03-31T19:04:32.079Z",
    "name": "Le Bonheur de la vie",
    "repository": "kara.moe",
    "tid": "07ccb8e7-683e-4e75-acfd-a89a32386995",
    "types": [
      "series",
      "1"
    ]
  }
}