{
  "header": {
    "description": "Karaoke Mugen Tag File",
    "version": 1
  },
  "tag": {
    "i18n": {
      "eng": "Leaf_st"
    },
    "name": "Leaf_st",
    "repository": "kara.moe",
    "tid": "cc49c065-8f05-4b87-92e2-132fef8dc84c",
    "types": [
      "creators",
      "4"
    ]
  }
}