{
  "header": {
    "description": "Karaoke Mugen Tag File",
    "version": 1
  },
  "tag": {
    "i18n": {
      "eng": "Lee Seung Joo"
    },
    "name": "Lee Seung Joo",
    "tid": "cb1e6d41-5291-4934-a761-e93a7eff5f5a",
    "types": [
      "songwriters",
      "8"
    ],
    "repository": "kara.moe",
    "modified_at": "2020-03-31T19:04:35.788Z"
  }
}