{
  "header": {
    "description": "Karaoke Mugen Tag File",
    "version": 1
  },
  "tag": {
    "i18n": {
      "eng": "Lee Chae-yeon"
    },
    "name": "Lee Chae-yeon",
    "repository": "kara.moe",
    "tid": "fdccb166-f6c0-47e0-85d2-145314786c5d",
    "types": [
      "singers",
      "2"
    ]
  }
}