{
  "header": {
    "description": "Karaoke Mugen Tag File",
    "version": 1
  },
  "tag": {
    "i18n": {
      "eng": "LeetStreet Boys"
    },
    "name": "LeetStreet Boys",
    "repository": "kara.moe",
    "tid": "188d52d7-aef8-4acc-94cb-7b172f676367",
    "types": [
      "singers",
      "2",
      "songwriters",
      "8"
    ]
  }
}