{
  "header": {
    "description": "Karaoke Mugen Tag File",
    "version": 1
  },
  "tag": {
    "i18n": {
      "eng": "Legally Blonde The Musical"
    },
    "modified_at": "2021-07-08T18:26:10.977Z",
    "name": "Legally Blonde The Musical",
    "repository": "kara.moe",
    "tid": "54b6b6a9-538b-43ea-8c35-476c9612f1a6",
    "types": [
      "series",
      "1"
    ]
  }
}