{
  "header": {
    "description": "Karaoke Mugen Tag File",
    "version": 1
  },
  "tag": {
    "i18n": {
      "eng": "Légende Films"
    },
    "name": "Légende Films",
    "repository": "kara.moe",
    "tid": "76a7f00d-e0c8-4de1-9a4b-7a16515f9d7a",
    "types": [
      "creators",
      "4"
    ]
  }
}