{
  "header": {
    "description": "Karaoke Mugen Tag File",
    "version": 1
  },
  "tag": {
    "i18n": {
      "eng": "Lenard Skolnik"
    },
    "name": "Lenard Skolnik",
    "tid": "ea736e3c-fe6b-438b-8264-aa92f56526a9",
    "types": [
      "songwriters",
      "8"
    ],
    "repository": "kara.moe",
    "modified_at": "2020-03-31T19:04:35.796Z"
  }
}