{
  "header": {
    "description": "Karaoke Mugen Tag File",
    "version": 1
  },
  "tag": {
    "i18n": {
      "eng": "Lenny Macaluso"
    },
    "name": "Lenny Macaluso",
    "tid": "bf1703be-b725-41f0-8942-b94cca305f9a",
    "types": [
      "songwriters",
      "8"
    ],
    "repository": "kara.moe",
    "modified_at": "2020-03-31T19:04:35.798Z"
  }
}