{
  "header": {
    "description": "Karaoke Mugen Tag File",
    "version": 1
  },
  "tag": {
    "i18n": {
      "eng": "Lenny Skolnik"
    },
    "name": "Lenny Skolnik",
    "tid": "dc9faee2-bacd-4c0e-8266-8a5b963df2b8",
    "types": [
      "songwriters",
      "8"
    ],
    "repository": "kara.moe",
    "modified_at": "2020-03-31T19:04:35.798Z"
  }
}