{
  "header": {
    "description": "Karaoke Mugen Tag File",
    "version": 1
  },
  "tag": {
    "i18n": {
      "eng": "Lensei"
    },
    "name": "Lensei",
    "tid": "f028cee5-790e-46aa-b7f5-8a5dc9082770",
    "types": [
      "songwriters",
      "8"
    ],
    "repository": "kara.moe",
    "modified_at": "2020-03-31T19:04:35.799Z"
  }
}