{
  "header": {
    "description": "Karaoke Mugen Tag File",
    "version": 1
  },
  "tag": {
    "i18n": {
      "eng": "Leonn"
    },
    "name": "Leonn",
    "tid": "3af8f98f-8108-42b2-8834-bbbd3157519a",
    "types": [
      "songwriters",
      "8"
    ],
    "repository": "kara.moe",
    "modified_at": "2020-03-31T19:04:35.803Z"
  }
}