{
  "header": {
    "description": "Karaoke Mugen Tag File",
    "version": 1
  },
  "tag": {
    "i18n": {
      "eng": "leonekmi"
    },
    "name": "leonekmi",
    "repository": "kara.moe",
    "tid": "13ddf327-ecde-4c6c-9452-a43fb71db7ab",
    "types": [
      "authors",
      "6"
    ],
    "modified_at": "2020-03-31T19:04:35.803Z"
  }
}