{
  "header": {
    "description": "Karaoke Mugen Tag File",
    "version": 1
  },
  "tag": {
    "i18n": {
      "fre": "Les Guignols"
    },
    "modified_at": "2020-06-01T00:00:09.734Z",
    "name": "Les Guignols",
    "repository": "kara.moe",
    "tid": "1b8e5e82-e2e6-4481-bae4-2c2d65a437b3",
    "types": [
      "series",
      "1",
      "singers",
      "2"
    ]
  }
}