{
  "header": {
    "description": "Karaoke Mugen Tag File",
    "version": 1
  },
  "tag": {
    "i18n": {
      "eng": "Les Goldies"
    },
    "name": "Les Goldies",
    "tid": "4783cebe-f70a-4d39-b450-038eefad795f",
    "types": [
      "singers",
      "2"
    ],
    "repository": "kara.moe",
    "modified_at": "2020-03-31T19:04:35.806Z"
  }
}