{
  "header": {
    "description": "Karaoke Mugen Tag File",
    "version": 1
  },
  "tag": {
    "i18n": {
      "eng": "Les Rois de la Suède"
    },
    "name": "Les Rois de la Suède",
    "tid": "3cb2c6d6-df2b-40bd-a1b0-c720a6baecdf",
    "types": [
      "singers",
      "2"
    ],
    "repository": "kara.moe",
    "modified_at": "2020-03-31T19:04:35.811Z"
  }
}