{
  "header": {
    "description": "Karaoke Mugen Tag File",
    "version": 1
  },
  "tag": {
    "i18n": {
      "eng": "Les Coquettes"
    },
    "name": "Les Coquettes",
    "repository": "kara.moe",
    "tid": "743dac85-93a8-4d7f-8fd8-5f7c3ffee403",
    "types": [
      "singers",
      "2"
    ]
  }
}