{
  "header": {
    "description": "Karaoke Mugen Tag File",
    "version": 1
  },
  "tag": {
    "aliases": [
      "The Dorks"
    ],
    "i18n": {
      "eng": "The Wakos",
      "fre": "Les Kassos"
    },
    "modified_at": "2020-03-31T19:04:32.083Z",
    "name": "Les Kassos",
    "repository": "kara.moe",
    "tid": "8a8f4ef4-dd23-4c85-80e6-65a9a6f3c2b5",
    "types": [
      "series",
      "1"
    ]
  }
}