{
  "header": {
    "description": "Karaoke Mugen Tag File",
    "version": 1
  },
  "tag": {
    "i18n": {
      "eng": "Les vedettes"
    },
    "name": "Les vedettes",
    "repository": "kara.moe",
    "tid": "d681932e-c166-4913-843c-6e476ddcf44c",
    "types": [
      "series",
      "1"
    ]
  }
}