{
  "header": {
    "description": "Karaoke Mugen Tag File",
    "version": 1
  },
  "tag": {
    "aliases": [
      "Ниво Е"
    ],
    "external_database_ids": {
      "anilist": 9834,
      "myanimelist": 9834,
      "kitsu": 5895
    },
    "i18n": {
      "eng": "Level E",
      "jpn": "レベルE",
      "qro": "Level E"
    },
    "modified_at": "2020-03-31T19:04:32.089Z",
    "name": "Level E",
    "repository": "kara.moe",
    "tid": "39408222-41c7-4263-a268-bc05ae32a84e",
    "types": [
      "series",
      "1"
    ]
  }
}