{
  "header": {
    "description": "Karaoke Mugen Tag File",
    "version": 1
  },
  "tag": {
    "i18n": {
      "eng": "Liam Sternberg"
    },
    "name": "Liam Sternberg",
    "tid": "91830864-a020-4b33-8586-e072092bdef1",
    "types": [
      "songwriters",
      "8"
    ],
    "repository": "kara.moe",
    "modified_at": "2020-03-31T19:04:35.815Z"
  }
}