{
  "header": {
    "description": "Karaoke Mugen Tag File",
    "version": 1
  },
  "tag": {
    "i18n": {
      "eng": "Libman"
    },
    "name": "Libman",
    "tid": "ad4c50fc-4ffa-4579-8eb7-ec2fa80355a8",
    "types": [
      "singers",
      "2"
    ],
    "repository": "kara.moe",
    "modified_at": "2020-03-31T19:04:35.817Z"
  }
}