{
  "header": {
    "description": "Karaoke Mugen Tag File",
    "version": 1
  },
  "tag": {
    "i18n": {
      "eng": "Lide"
    },
    "name": "Lide",
    "tid": "8d7f5a1d-c350-4f93-9186-1809098c2545",
    "types": [
      "creators",
      "4"
    ],
    "repository": "kara.moe",
    "modified_at": "2020-03-31T19:04:35.818Z"
  }
}