{
  "header": {
    "description": "Karaoke Mugen Tag File",
    "version": 1
  },
  "tag": {
    "i18n": {
      "eng": "Lilith"
    },
    "name": "Lilith",
    "tid": "6c30feb6-939a-4fbc-8fea-2fa355806ffe",
    "types": [
      "singers",
      "2"
    ],
    "repository": "kara.moe",
    "modified_at": "2020-03-31T19:04:35.823Z"
  }
}