{
  "header": {
    "description": "Karaoke Mugen Tag File",
    "version": 1
  },
  "tag": {
    "i18n": {
      "eng": "Lilpri"
    },
    "name": "Lilpri",
    "tid": "0cbc9cb0-e858-44e5-90fa-e66936ff067b",
    "types": [
      "singers",
      "2"
    ],
    "repository": "kara.moe",
    "modified_at": "2020-03-31T19:04:35.823Z"
  }
}