{
  "header": {
    "description": "Karaoke Mugen Tag File",
    "version": 1
  },
  "tag": {
    "i18n": {
      "eng": "lily-an (Liz Triangle)"
    },
    "name": "lily-an (Liz Triangle)",
    "tid": "59878478-9ea3-41ce-8adb-43a28c20fefe",
    "types": [
      "singers",
      "2"
    ],
    "repository": "kara.moe",
    "modified_at": "2020-03-31T19:04:35.824Z"
  }
}