{
  "header": {
    "description": "Karaoke Mugen Tag File",
    "version": 1
  },
  "tag": {
    "i18n": {
      "eng": "lily white"
    },
    "name": "lily white",
    "repository": "kara.moe",
    "tid": "2e6e9d07-4386-4453-bccf-fbc1ede543ab",
    "types": [
      "singergroups",
      "17"
    ]
  }
}