{
  "header": {
    "description": "Karaoke Mugen Tag File",
    "version": 1
  },
  "tag": {
    "i18n": {
      "afr": "Afrikaans",
      "amh": "Lingala",
      "ara": "العربية",
      "aze": "İngilis dili",
      "bak": "Урыҫ теле",
      "bel": "Англійская",
      "bul": "Английски",
      "ben": "বাংলা",
      "bos": "Ganda",
      "cat": "Lingala",
      "cze": "Čeština",
      "wel": "Cymraeg",
      "dan": "Lingala",
      "ger": "Lingala",
      "gre": "Ελληνικά",
      "eng": "Lingala",
      "epo": "Japana",
      "spa": "Lingala",
      "est": "Lingala",
      "baq": "Euskara",
      "per": "فارسی",
      "fin": "Lingala",
      "fre": "Lingala",
      "gle": "Gaeilge",
      "gla": "Lingala",
      "glg": "Galego",
      "guj": "ગુજરાતી",
      "heb": "לינגלה",
      "hin": "हिन्दी",
      "hrv": "Engleski",
      "hat": "Malayalam",
      "hun": "Lingala",
      "arm": "Անգլերեն",
      "ind": "Lingala",
      "ice": "Enska",
      "ita": "Il Lingala",
      "jpn": "Lingala",
      "jav": "Lingala",
      "geo": "ქართული",
      "kaz": "Ағылшын",
      "kan": "ಕನ್ನಡ",
      "kor": "한국어",
      "kir": "Английский",
      "lat": "Lingala",
      "lit": "Lingala",
      "lav": "Lingala",
      "mlg": "Lingala",
      "mao": "Lingala",
      "mac": "Lingala",
      "mal": "Bassa",
      "mon": "Lingala",
      "mar": "Lingala",
      "may": "Bahasa melayu",
      "mlt": "Malti",
      "nep": "Lingala",
      "dut": "Lingala",
      "nor": "Lingala",
      "pan": "Lingala",
      "pol": "Angielski",
      "por": "Lingala",
      "rum": "Română",
      "rus": "Английский",
      "sin": "Lingala",
      "slo": "Lingala",
      "slv": "Lingala",
      "alb": "Lingala",
      "srp": "Енглески",
      "sun": "Lingala",
      "swe": "Lingala",
      "swa": "Kiswahili",
      "tam": "தமிழ்",
      "tel": "తెలుగు",
      "tgk": "English",
      "tha": "ภาษาลิงกาลา name",
      "tgl": "Tagalog",
      "tur": "Lingala",
      "tat": "Инглиз теле",
      "ukr": "Англійська",
      "urd": "اردو",
      "uzb": "Lingala",
      "vie": "Tiếng",
      "xho": "Lingala",
      "yid": "Lingala",
      "chi": "林加拉"
    },
    "name": "lin",
    "tid": "4ee6b7f4-3c9a-4650-b331-283055308fce",
    "types": [
      "langs",
      "5"
    ],
    "repository": "kara.moe",
    "modified_at": "2020-03-31T19:04:35.827Z"
  }
}