{
  "header": {
    "description": "Karaoke Mugen Tag File",
    "version": 1
  },
  "tag": {
    "i18n": {
      "eng": "LindaAI-CUE"
    },
    "name": "LindaAI-CUE",
    "tid": "fb6660d1-83ad-4dca-974e-fd7ba5a5744c",
    "types": [
      "songwriters",
      "8"
    ],
    "repository": "kara.moe",
    "modified_at": "2020-03-31T19:04:35.830Z"
  }
}