{
  "header": {
    "description": "Karaoke Mugen Tag File",
    "version": 1
  },
  "tag": {
    "i18n": {
      "eng": "Linda Hennrick"
    },
    "name": "Linda Hennrick",
    "tid": "d55830a0-26c1-4a5c-99d6-5813b3f041d0",
    "types": [
      "songwriters",
      "8"
    ],
    "repository": "kara.moe",
    "modified_at": "2020-03-31T19:04:35.829Z"
  }
}