{
  "header": {
    "description": "Karaoke Mugen Tag File",
    "version": 1
  },
  "tag": {
    "i18n": {
      "eng": "Linkin Park"
    },
    "modified_at": "2020-07-04T16:14:44.416Z",
    "name": "Linkin Park",
    "repository": "kara.moe",
    "tid": "3ca303db-483e-4b1e-b337-efcef04d9751",
    "types": [
      "songwriters",
      "8",
      "singers",
      "2"
    ]
  }
}