{
  "header": {
    "description": "Karaoke Mugen Tag File",
    "version": 1
  },
  "tag": {
    "i18n": {
      "eng": "Lionel Tua"
    },
    "name": "Lionel Tua",
    "tid": "79933d13-2351-46f6-8d94-05c4e11d284f",
    "types": [
      "singers",
      "2"
    ],
    "repository": "kara.moe",
    "modified_at": "2020-03-31T19:04:35.835Z"
  }
}