{
  "header": {
    "description": "Karaoke Mugen Tag File",
    "version": 1
  },
  "tag": {
    "i18n": {
      "eng": "LISA (Elizabeth Sakura Narita)"
    },
    "name": "LISA (Elizabeth Sakura Narita)",
    "repository": "kara.moe",
    "tid": "ee2155cc-98a0-48fc-81e7-9a7f502b508d",
    "types": [
      "songwriters",
      "8"
    ],
    "modified_at": "2020-03-31T19:04:35.838Z"
  }
}