{
  "header": {
    "description": "Karaoke Mugen Tag File",
    "version": 1
  },
  "tag": {
    "i18n": {
      "eng": "Little Blue boX"
    },
    "name": "Little Blue boX",
    "tid": "b306f331-3038-4814-8c9c-1de415bf0e1a",
    "types": [
      "singers",
      "2"
    ],
    "repository": "kara.moe",
    "modified_at": "2020-03-31T19:04:35.848Z"
  }
}