{
  "header": {
    "description": "Karaoke Mugen Tag File",
    "version": 1
  },
  "tag": {
    "i18n": {
      "eng": "Liu Yifei"
    },
    "name": "Liu Yifei",
    "tid": "b4fcd5fb-68fe-4052-be76-0b36185fc44d",
    "types": [
      "singers",
      "2"
    ],
    "repository": "kara.moe",
    "modified_at": "2020-03-31T19:04:35.857Z"
  }
}