{
  "header": {
    "description": "Karaoke Mugen Tag File",
    "version": 1
  },
  "tag": {
    "i18n": {
      "eng": "LocoRoco all-stars"
    },
    "name": "LocoRoco all-stars",
    "tid": "7a80ca93-9652-4887-88ee-1de30aa7c037",
    "types": [
      "singers",
      "2"
    ],
    "repository": "kara.moe",
    "modified_at": "2020-03-31T19:04:35.861Z"
  }
}