{
  "header": {
    "description": "Karaoke Mugen Tag File",
    "version": 1
  },
  "tag": {
    "i18n": {
      "eng": "Loliconics"
    },
    "name": "Loliconics",
    "repository": "kara.moe",
    "tid": "2b2e60f4-e93d-44bc-8061-0b139cd8a84d",
    "types": [
      "creators",
      "4"
    ]
  }
}