{
  "header": {
    "description": "Karaoke Mugen Tag File",
    "version": 1
  },
  "tag": {
    "i18n": {
      "eng": "Lori Fine"
    },
    "name": "Lori Fine",
    "tid": "83f92839-e8ef-4847-a840-9abe3b43e204",
    "types": [
      "songwriters",
      "8"
    ],
    "repository": "kara.moe",
    "modified_at": "2020-03-31T19:04:35.866Z"
  }
}