{
  "header": {
    "description": "Karaoke Mugen Tag File",
    "version": 1
  },
  "tag": {
    "external_database_ids": {
      "anilist": 98073,
      "myanimelist": 34338,
      "kitsu": 12722
    },
    "i18n": {
      "eng": "Lost Song",
      "jpn": "ロスト ソング",
      "kor": "로스트 송",
      "qro": "Lost Song"
    },
    "modified_at": "2020-03-31T19:04:32.101Z",
    "name": "Lost Song",
    "repository": "kara.moe",
    "tid": "0b94523f-5873-4abf-a62e-bb9cd6859b84",
    "types": [
      "series",
      "1"
    ]
  }
}