{
  "header": {
    "description": "Karaoke Mugen Tag File",
    "version": 1
  },
  "tag": {
    "i18n": {
      "eng": "Lou Albano"
    },
    "name": "Lou Albano",
    "tid": "040bda5e-0616-4aa2-8df2-1e4b666aa010",
    "types": [
      "singers",
      "2"
    ],
    "repository": "kara.moe",
    "modified_at": "2020-03-31T19:04:35.869Z"
  }
}