{
  "header": {
    "description": "Karaoke Mugen Tag File",
    "version": 1
  },
  "tag": {
    "i18n": {
      "eng": "Louis Bertignac"
    },
    "modified_at": "2020-06-01T16:12:09.306Z",
    "name": "Louis Bertignac",
    "repository": "kara.moe",
    "tid": "55060455-7df0-4cd8-92fe-67a29f2f13d8",
    "types": [
      "songwriters",
      "8"
    ]
  }
}