{
  "header": {
    "description": "Karaoke Mugen Tag File",
    "version": 1
  },
  "tag": {
    "aliases": [
      "LL",
      "PERFECT Dream Project"
    ],
    "i18n": {
      "eng": "Love Live! School Idol Festival ALL STARS",
      "jpn": "ラブライブ！スクールアイドルフェスティバル",
      "qro": "Love Live! School Idol Festival ALL STARS"
    },
    "name": "Love Live! School Idol Festival All Stars",
    "repository": "kara.moe",
    "tid": "5500bf95-b83f-46a7-a861-ecc415a137d4",
    "types": [
      "series",
      "1"
    ]
  }
}