{
  "header": {
    "description": "Karaoke Mugen Tag File",
    "version": 1
  },
  "tag": {
    "aliases": [
      "LL!",
      "러브라이브!"
    ],
    "external_database_ids": {
      "anilist": 15051,
      "myanimelist": 15051,
      "kitsu": 7203
    },
    "i18n": {
      "eng": "Love Live! School Idol Project",
      "jpn": "ラブライブ! School idol project",
      "qro": "Love Live! School Idol Project"
    },
    "modified_at": "2020-06-21T23:45:31.966Z",
    "name": "Love Live! School Idol Project",
    "repository": "kara.moe",
    "tid": "dd93f278-a55d-4040-aaab-d0c50b58b087",
    "types": [
      "series",
      "1"
    ]
  }
}