{
  "header": {
    "description": "Karaoke Mugen Tag File",
    "version": 1
  },
  "tag": {
    "aliases": [
      "lh christmas",
      "lhcs",
      "lhw",
      "Любовь и Хина - рождественский спецвыпуск",
      "С любовью Хина - рождественский спецвыпуск"
    ],
    "external_database_ids": {
      "anilist": 191,
      "myanimelist": 191,
      "kitsu": 168
    },
    "i18n": {
      "eng": "Love Hina Christmas Movie",
      "fin": "Love Hina Christmas Special",
      "fre": "Love Hina Spécial: Christmas",
      "ger": "Love Hina: Christmas Special",
      "jpn": "ラブひなクリスマススペシャル ~サイレント・イヴ~",
      "spa": "Love Hina: especial de Navidad",
      "qro": "Love Hina Christmas Special: Silent Eve"
    },
    "modified_at": "2020-03-31T19:04:32.103Z",
    "name": "Love Hina Christmas Special: Silent Eve",
    "repository": "kara.moe",
    "tid": "523f84ed-9841-439c-9414-f87a0e8b649d",
    "types": [
      "series",
      "1"
    ]
  }
}