{
  "header": {
    "description": "Karaoke Mugen Tag File",
    "version": 1
  },
  "tag": {
    "aliases": [
      "Ren'ai Lab"
    ],
    "external_database_ids": {
      "anilist": 16353,
      "myanimelist": 16353,
      "kitsu": 7410
    },
    "i18n": {
      "eng": "Love Lab",
      "fre": "Love Lab",
      "jpn": "恋愛ラボ",
      "qro": "Love Lab"
    },
    "modified_at": "2020-03-31T19:04:32.106Z",
    "name": "Love Lab",
    "repository": "kara.moe",
    "tid": "a48b50c3-4e71-4414-bcd3-b12708e18154",
    "types": [
      "series",
      "1"
    ]
  }
}