{
  "header": {
    "description": "Karaoke Mugen Tag File",
    "version": 1
  },
  "tag": {
    "i18n": {
      "eng": "LOVE+HATE"
    },
    "name": "LOVE+HATE",
    "tid": "74541ac3-c1d4-4770-b883-b843ed571933",
    "types": [
      "songwriters",
      "8"
    ],
    "repository": "kara.moe",
    "modified_at": "2020-03-31T19:04:35.873Z"
  }
}