{
  "header": {
    "description": "Karaoke Mugen Tag File",
    "version": 1
  },
  "tag": {
    "i18n": {
      "eng": "Low"
    },
    "name": "Low",
    "tid": "e3ea2624-3849-44bd-b43c-66d636b0a302",
    "types": [
      "singers",
      "2"
    ],
    "repository": "kara.moe",
    "modified_at": "2020-03-31T19:04:35.876Z"
  }
}