{
  "header": {
    "description": "Karaoke Mugen Tag File",
    "version": 1
  },
  "tag": {
    "i18n": {
      "eng": "LowFat"
    },
    "name": "LowFat",
    "repository": "kara.moe",
    "tid": "c6d4a3d3-01de-46d5-81d0-aa6001ead75f",
    "types": [
      "songwriters",
      "8",
      "singers",
      "2"
    ]
  }
}