{
  "header": {
    "description": "Karaoke Mugen Tag File",
    "version": 1
  },
  "tag": {
    "i18n": {
      "eng": "Lucas (TRYTONELABO)"
    },
    "name": "Lucas (TRYTONELABO)",
    "repository": "kara.moe",
    "tid": "d09eb571-76bb-4ef3-a7e9-4cf27229b88c",
    "types": [
      "songwriters",
      "8"
    ]
  }
}