{
  "header": {
    "description": "Karaoke Mugen Tag File",
    "version": 1
  },
  "tag": {
    "i18n": {
      "eng": "Luca"
    },
    "name": "Luca",
    "tid": "23f3529a-ba39-4e64-8ea3-9d3cd4031e81",
    "types": [
      "songwriters",
      "8"
    ],
    "repository": "kara.moe",
    "modified_at": "2020-03-31T19:04:35.880Z"
  }
}