{
  "header": {
    "description": "Karaoke Mugen Tag File",
    "version": 1
  },
  "tag": {
    "i18n": {
      "eng": "Ludacris"
    },
    "name": "Ludacris",
    "tid": "2f1425fc-ef1b-40df-bb33-5280d3421f43",
    "types": [
      "singers",
      "2"
    ],
    "repository": "kara.moe",
    "modified_at": "2020-03-31T19:04:35.885Z"
  }
}