{
  "header": {
    "description": "Karaoke Mugen Tag File",
    "version": 1
  },
  "tag": {
    "i18n": {
      "eng": "LuHan"
    },
    "name": "LuHan",
    "tid": "cef71f81-0f1d-4e6d-a380-e630a6b951c6",
    "types": [
      "singers",
      "2"
    ],
    "repository": "kara.moe",
    "modified_at": "2020-03-31T19:04:35.888Z"
  }
}