{
  "header": {
    "description": "Karaoke Mugen Tag File",
    "version": 1
  },
  "tag": {
    "i18n": {
      "eng": "Luigi Albertelli"
    },
    "name": "Luigi Albertelli",
    "tid": "8ffe06c9-c56e-4c11-bb61-c67689e1db2f",
    "types": [
      "songwriters",
      "8"
    ],
    "repository": "kara.moe",
    "modified_at": "2020-03-31T19:04:35.888Z"
  }
}