{
  "header": {
    "description": "Karaoke Mugen Tag File",
    "version": 1
  },
  "tag": {
    "i18n": {
      "eng": "Luigi Creatore"
    },
    "modified_at": "2020-12-30T01:37:45.086Z",
    "name": "Luigi Creatore",
    "repository": "kara.moe",
    "tid": "77f6b201-be1f-4101-bac0-853a61d8cad1",
    "types": [
      "songwriters",
      "8"
    ]
  }
}