{
  "header": {
    "description": "Karaoke Mugen Tag File",
    "version": 1
  },
  "tag": {
    "i18n": {
      "eng": "Luis Ogata"
    },
    "modified_at": "2021-02-17T23:11:21.231Z",
    "name": "Luis Ogata",
    "repository": "kara.moe",
    "tid": "7670470e-6784-4a4e-aa06-d012fcc23ccb",
    "types": [
      "songwriters",
      "8"
    ]
  }
}