{
  "header": {
    "description": "Karaoke Mugen Tag File",
    "version": 1
  },
  "tag": {
    "i18n": {
      "eng": "Lupintic Six"
    },
    "name": "Lupintic Six",
    "tid": "4ffc1359-fb52-4e76-9f31-a334d80ab021",
    "types": [
      "songwriters",
      "8"
    ],
    "repository": "kara.moe",
    "modified_at": "2020-03-31T19:04:35.893Z"
  }
}