{
  "header": {
    "description": "Karaoke Mugen Tag File",
    "version": 1
  },
  "tag": {
    "aliases": [
      "Edgar de la Cambriole",
      "Lupin trois",
      "Lupin Sansei Part 6",
      "Lupin the Third"
    ],
    "external_database_ids": {
      "anilist": 134623,
      "myanimelist": 49040,
      "kitsu": 44618
    },
    "i18n": {
      "eng": "Lupin III Part VI",
      "jpn": "ルパン三世 PART6",
      "qro": "Lupin III Part VI"
    },
    "modified_at": "2021-11-21T23:28:41.374Z",
    "name": "Lupin III Part VI",
    "repository": "kara.moe",
    "tid": "6dbfa874-7991-4da1-8913-e7a16a456af7",
    "types": [
      "series",
      "1"
    ]
  }
}