{
  "header": {
    "description": "Karaoke Mugen Tag File",
    "version": 1
  },
  "tag": {
    "i18n": {
      "eng": "LUTHFI"
    },
    "name": "LUTHFI",
    "repository": "kara.moe",
    "tid": "0c77cb74-a7d7-4289-b6ec-ec929503cc54",
    "types": [
      "songwriters",
      "8"
    ]
  }
}