{
  "header": {
    "description": "Karaoke Mugen Tag File",
    "version": 1
  },
  "tag": {
    "i18n": {
      "eng": "Luz"
    },
    "name": "Luz",
    "tid": "abdbcd9e-b504-45d7-acc0-3a0764075a09",
    "types": [
      "songwriters",
      "8"
    ],
    "repository": "kara.moe",
    "modified_at": "2020-03-31T19:04:35.894Z"
  }
}