{
  "header": {
    "description": "Karaoke Mugen Tag File",
    "version": 1
  },
  "tag": {
    "i18n": {
      "eng": "Lydia Paek"
    },
    "name": "Lydia Paek",
    "repository": "kara.moe",
    "tid": "daf6f3f7-d088-4a3f-b5be-8d6d570f1fe7",
    "types": [
      "songwriters",
      "8"
    ]
  }
}