{
  "header": {
    "description": "Karaoke Mugen Tag File",
    "version": 1
  },
  "tag": {
    "i18n": {
      "eng": "M.H."
    },
    "name": "M.H.",
    "tid": "d15efb95-bb49-4da2-bf74-12d0b55fb8c5",
    "types": [
      "singers",
      "2"
    ],
    "repository": "kara.moe",
    "modified_at": "2020-03-31T19:04:35.902Z"
  }
}