{
  "header": {
    "description": "Karaoke Mugen Tag File",
    "version": 1
  },
  "tag": {
    "i18n": {
      "eng": "Maakiii"
    },
    "modified_at": "2020-05-12T17:33:45.326Z",
    "name": "Maakiii",
    "repository": "kara.moe",
    "tid": "0a35f4f2-4bb2-4bff-8485-b89b3299d2df",
    "types": [
      "songwriters",
      "8"
    ]
  }
}