{
  "header": {
    "description": "Karaoke Mugen Tag File",
    "version": 1
  },
  "tag": {
    "aliases": [
      "Macross Dynamite Seven",
      "md7"
    ],
    "external_database_ids": {
      "anilist": 1398,
      "myanimelist": 1398,
      "kitsu": 1251
    },
    "i18n": {
      "eng": "Macross Dynamite 7",
      "jpn": "マクロスダイナマイト7",
      "kor": "마크로스 7 다이너마이트",
      "qro": "Macross Dynamite 7"
    },
    "modified_at": "2020-06-21T23:45:31.966Z",
    "name": "Macross Dynamite 7",
    "repository": "kara.moe",
    "tid": "c95513eb-6424-409c-878f-7e0d4db26d17",
    "types": [
      "series",
      "1"
    ]
  }
}