{
  "header": {
    "description": "Karaoke Mugen Tag File",
    "version": 1
  },
  "tag": {
    "external_database_ids": {
      "anilist": 20680,
      "myanimelist": 28013,
      "kitsu": 9992
    },
    "i18n": {
      "eng": "Macross Delta",
      "jpn": "Macross Δ",
      "qro": "Macross ∆"
    },
    "name": "Macross ∆",
    "repository": "kara.moe",
    "tid": "692f0be8-3920-4909-8bd3-dd493a0b2822",
    "types": [
      "series",
      "1"
    ]
  }
}