{
  "header": {
    "description": "Karaoke Mugen Tag File",
    "version": 1
  },
  "tag": {
    "aliases": [
      "Jo Dong Lim"
    ],
    "i18n": {
      "eng": "Mad Clown"
    },
    "name": "Mad Clown",
    "tid": "e60a1a95-b2c3-4759-bf8c-c6658cdd0847",
    "types": [
      "songwriters",
      "8",
      "singers",
      "2"
    ],
    "repository": "kara.moe",
    "modified_at": "2020-03-31T19:04:35.910Z"
  }
}