{
  "header": {
    "description": "Karaoke Mugen Tag File",
    "version": 1
  },
  "tag": {
    "i18n": {
      "eng": "Madeon"
    },
    "name": "Madeon",
    "tid": "35014bba-6f5c-4944-8a33-cea947ea6af8",
    "types": [
      "songwriters",
      "8",
      "creators",
      "4"
    ],
    "repository": "kara.moe",
    "modified_at": "2020-03-31T19:04:35.914Z"
  }
}