{
  "header": {
    "description": "Karaoke Mugen Tag File",
    "version": 1
  },
  "tag": {
    "aliases": [
      "메이드 인 어비스"
    ],
    "external_database_ids": {
      "anilist": 97986,
      "myanimelist": 34599,
      "kitsu": 13273
    },
    "i18n": {
      "eng": "Made in Abyss",
      "jpn": "メイドインアビス",
      "qro": "Made in Abyss"
    },
    "modified_at": "2020-03-31T19:04:32.130Z",
    "name": "Made in Abyss",
    "repository": "kara.moe",
    "tid": "7699ffb3-a368-4cc6-aa64-e17768741f47",
    "types": [
      "series",
      "1",
      "franchises",
      "18"
    ]
  }
}