{
  "header": {
    "description": "Karaoke Mugen Tag File",
    "version": 1
  },
  "tag": {
    "i18n": {
      "eng": "Maeva Méline"
    },
    "name": "Maeva Méline",
    "tid": "5f919105-ca8b-4789-b7b6-9dd55b7506e6",
    "types": [
      "singers",
      "2"
    ],
    "repository": "kara.moe",
    "modified_at": "2020-03-31T19:04:35.920Z"
  }
}