{
  "header": {
    "description": "Karaoke Mugen Tag File",
    "version": 1
  },
  "tag": {
    "i18n": {
      "eng": "Mafumafu"
    },
    "name": "Mafumafu",
    "tid": "aba75c5b-5a8d-4376-896d-740d8f8847d9",
    "types": [
      "songwriters",
      "8",
      "singers",
      "2"
    ],
    "repository": "kara.moe",
    "modified_at": "2020-03-31T19:04:35.921Z"
  }
}