{
  "header": {
    "description": "Karaoke Mugen Tag File",
    "version": 1
  },
  "tag": {
    "i18n": {
      "eng": "Magali Bonfils"
    },
    "modified_at": "2020-04-17T20:52:42.318Z",
    "name": "Magali Bonfils",
    "repository": "kara.moe",
    "tid": "8ae02ebe-22cf-4f44-9c9e-91df2bb2710b",
    "types": [
      "songwriters",
      "8"
    ]
  }
}