{
  "header": {
    "description": "Karaoke Mugen Tag File",
    "version": 1
  },
  "tag": {
    "aliases": [
      "Kid the Phantom Thief",
      "Kaitou Kid",
      "Волшебник Кайто",
      "魔术快斗"
    ],
    "external_database_ids": {
      "anilist": 8310,
      "myanimelist": 8310,
      "kitsu": 5287
    },
    "i18n": {
      "eng": "Magic Kaito",
      "jpn": "まじっく快斗",
      "qro": "Magic Kaito"
    },
    "modified_at": "2020-08-17T22:31:18.099Z",
    "name": "Magic Kaito",
    "repository": "kara.moe",
    "tid": "96a91190-9bee-413e-843c-0d2508b1e329",
    "types": [
      "series",
      "1",
      "franchises",
      "18"
    ]
  }
}