{
  "header": {
    "description": "Karaoke Mugen Tag File",
    "version": 1
  },
  "tag": {
    "aliases": [
      "MSMM",
      "Magia Record: Mahou Shoujo Madoka Magica Gaiden",
      "PMMM",
      "MagiReco",
      "mahou",
      "shoujo",
      "madoka magica"
    ],
    "external_database_ids": {
      "anilist": 104051,
      "myanimelist": 38256,
      "kitsu": 42016
    },
    "i18n": {
      "eng": "Magia Record: Puella Magi Madoka☆Magica Side Story",
      "jpn": "マギアレコード 魔法少女まどか☆マギカ外伝",
      "qro": "Magia Record: Mahô Shôjo Madoka☆Magica Gaiden"
    },
    "modified_at": "2021-08-10T14:26:16.813Z",
    "name": "Magia Record: Mahô Shôjo Madoka☆Magica Gaiden",
    "repository": "kara.moe",
    "tid": "bb08329a-f9ca-4e28-8b58-199bdc4cea06",
    "types": [
      "series",
      "1"
    ]
  }
}