{
  "header": {
    "description": "Karaoke Mugen Tag File",
    "version": 1
  },
  "tag": {
    "i18n": {
      "eng": "Magnolia"
    },
    "name": "Magnolia",
    "repository": "kara.moe",
    "tid": "79dfee77-0c9b-44e7-80fb-4f8397d34981",
    "types": [
      "series",
      "1"
    ]
  }
}