{
  "header": {
    "description": "Karaoke Mugen Tag File",
    "version": 1
  },
  "tag": {
    "i18n": {
      "eng": "Maguro Taniguchi"
    },
    "name": "Maguro Taniguchi",
    "tid": "80f6e1eb-0243-4027-8d98-8d255cadac4c",
    "types": [
      "songwriters",
      "8"
    ],
    "repository": "kara.moe",
    "modified_at": "2020-03-31T19:04:35.928Z"
  }
}