{
  "header": {
    "description": "Karaoke Mugen Tag File",
    "version": 1
  },
  "tag": {
    "i18n": {
      "eng": "Magyd Cherfi"
    },
    "modified_at": "2021-05-21T15:40:16.834Z",
    "name": "Magyd Cherfi",
    "repository": "kara.moe",
    "tid": "fd3ddb86-cea6-4ea9-a7f6-17c9778e0980",
    "types": [
      "songwriters",
      "8"
    ]
  }
}