{
  "header": {
    "description": "Karaoke Mugen Tag File",
    "version": 1
  },
  "tag": {
    "i18n": {
      "afr": "Marshallese",
      "amh": "Marshallese",
      "ara": "المارشالية",
      "aze": "Маршалльский",
      "bak": "Маршалл",
      "bel": "Marshallese",
      "bul": "Маршалльский",
      "ben": "ড্যানিশ",
      "bos": "Maršalski",
      "cat": "Marshallese",
      "cze": "Marshallese",
      "wel": "Mandobo atas",
      "dan": "Marshallesisk",
      "ger": "Marshallesisch",
      "gre": "Marshallese",
      "eng": "Marshallese",
      "epo": "Marŝalaname",
      "spa": "Marshalés",
      "est": "Maršalli",
      "baq": "Marshallese",
      "per": "Marshallese",
      "fin": "Marshallese",
      "fre": "Iles marshall",
      "gle": "Marascailisname",
      "gla": "Marshallese",
      "glg": "Uso noutras linguas",
      "guj": "માર્શલીઝ",
      "heb": "מרשליתname",
      "hin": "Marshallese",
      "hrv": "Маршалльский",
      "hat": "Marshallese",
      "hun": "Marshallese",
      "arm": "Маршалльский",
      "ind": "Marshall",
      "ice": "Marshallese",
      "ita": "Marshallese",
      "jpn": "Marshallese",
      "jav": "Marshallese",
      "geo": "Marshallese",
      "kaz": "Маршалльский",
      "kan": "Marshallese",
      "kor": "마셜",
      "kir": "Маршалльский",
      "lat": "Marshallese",
      "lit": "Maršaliečių",
      "lav": "Māršaliešu",
      "mlg": "Marshallese",
      "mao": "Marshallese",
      "mac": "Маршалски",
      "mal": "മാര്ഷാലീസ്name",
      "mon": "Marshallese",
      "mar": "मार्शलीजname",
      "may": "Marshallese",
      "mlt": "Marshallese",
      "nep": "मार्शलिजname",
      "dut": "Marshallees",
      "nor": "Marshallesisk",
      "pan": "Marshallese",
      "pol": "Маршалльский",
      "por": "Marshallês",
      "rum": "Marshalleză",
      "rus": "Маршалльский",
      "sin": "Marshallese",
      "slo": "Marshallese",
      "slv": "Marshallese",
      "alb": "Marshallese",
      "srp": "Маршалльский",
      "sun": "Marshallese",
      "swe": "Marshallesiska",
      "swa": "Marshallese",
      "tam": "மார்ஷெலிஷ்",
      "tel": "మార్షలీస్name",
      "tgk": "Маршалльский",
      "tha": "ภาษามาร์แชล name",
      "tgl": "Marshallese",
      "tur": "Marshall Adaları dili",
      "tat": "Маршалльский",
      "ukr": "Маршалльский",
      "urd": "Marshallese",
      "uzb": "Marshallese",
      "vie": "Marrucinian",
      "xho": "Marshallese",
      "yid": "Marshallese",
      "chi": "马绍尔"
    },
    "name": "mah",
    "tid": "abbfa0c8-8357-48b2-aee5-4b3044df2137",
    "types": [
      "langs",
      "5"
    ],
    "repository": "kara.moe",
    "modified_at": "2020-03-31T19:04:35.929Z"
  }
}