{
  "header": {
    "description": "Karaoke Mugen Tag File",
    "version": 1
  },
  "tag": {
    "i18n": {
      "eng": "Maho Film"
    },
    "modified_at": "2021-05-20T19:27:08.487Z",
    "name": "Maho Film",
    "repository": "kara.moe",
    "tid": "7c307a2b-0a58-48f4-8e72-af79743499ac",
    "types": [
      "creators",
      "4"
    ]
  }
}