{
  "header": {
    "description": "Karaoke Mugen Tag File",
    "version": 1
  },
  "tag": {
    "i18n": {
      "eng": "MAHO-Dô"
    },
    "name": "MAHO-Dô",
    "tid": "c95ee4be-5591-48a5-b79c-b69e5e5c9f0f",
    "types": [
      "singers",
      "2"
    ],
    "repository": "kara.moe",
    "modified_at": "2020-03-31T19:04:35.933Z"
  }
}