{
  "header": {
    "description": "Karaoke Mugen Tag File",
    "version": 1
  },
  "tag": {
    "aliases": [
      "Mahouka Koukou no Rettousei: Raihousha-hen",
      "mahouka",
      "koukou",
      "rettousei",
      "raihousha-hen"
    ],
    "external_database_ids": {
      "anilist": 112300,
      "myanimelist": 40497,
      "kitsu": 42608
    },
    "i18n": {
      "eng": "The Irregular at Magic High School: Visitor Arc",
      "jpn": "魔法科高校の劣等生 来訪者編",
      "chi": "魔法科高中的劣等生來訪者篇",
      "qro": "Mahôka Kôkô no Rettôsei: Raihôsha-hen"
    },
    "modified_at": "2020-11-02T18:02:38.633Z",
    "name": "Mahôka Kôkô no Rettôsei: Raihôsha-hen",
    "repository": "kara.moe",
    "tid": "e3c75af2-c84f-476a-934b-a1198fc7ba6a",
    "types": [
      "series",
      "1"
    ]
  }
}