{
  "header": {
    "description": "Karaoke Mugen Tag File",
    "version": 1
  },
  "tag": {
    "aliases": [
      "Magic Star Magical Emi",
      "Mahou no Star Magical Emi",
      "Звездата на магията Меджикъл Еми",
      "魔法のスターマジカルエミ",
      "mahou"
    ],
    "external_database_ids": {
      "anilist": 2038,
      "myanimelist": 2038,
      "kitsu": 1837
    },
    "i18n": {
      "eng": "Star Magician Magical Emi",
      "fre": "Émi Magique",
      "ita": "Magica Magica Emi",
      "jpn": "魔法のスター マジカルエミ",
      "spa": "La magia de Emi",
      "qro": "Mahô no Star Magical Emi"
    },
    "modified_at": "2020-03-31T19:04:32.145Z",
    "name": "Mahô no Star Magical Emi",
    "repository": "kara.moe",
    "tid": "044d738f-8cb0-4be7-a89d-8ae0e7d9f64e",
    "types": [
      "series",
      "1"
    ]
  }
}