{
  "header": {
    "description": "Karaoke Mugen Tag File",
    "version": 1
  },
  "tag": {
    "aliases": [
      "Magical Fairy Persia",
      "Magical Fairy Perusha",
      "Mahou no fairy Persia",
      "mahou"
    ],
    "external_database_ids": {
      "anilist": 2039,
      "myanimelist": 2039,
      "kitsu": 1838
    },
    "i18n": {
      "eng": "Persia the Magic Fairy",
      "fre": "Vanessa et la magie des rêves",
      "jpn": "魔法の妖精 ペルシャ",
      "qro": "Mahô no fairy Persia"
    },
    "modified_at": "2020-03-31T19:04:32.140Z",
    "name": "Mahô no fairy Persia",
    "repository": "kara.moe",
    "tid": "2c072f1a-b75a-41c3-90d9-1a72600d2da8",
    "types": [
      "series",
      "1"
    ]
  }
}