{
  "header": {
    "description": "Karaoke Mugen Tag File",
    "version": 1
  },
  "tag": {
    "aliases": [
      "Mahoujin Guru Guru",
      "Mahoujin Guruguru",
      "mahoujin"
    ],
    "external_database_ids": {
      "anilist": 331,
      "myanimelist": 331,
      "kitsu": 298
    },
    "i18n": {
      "eng": "Magical Circle Guru Guru (1994)",
      "jpn": "魔法陣グルグル",
      "qro": "Mahôjin Guru Guru"
    },
    "modified_at": "2020-03-31T19:04:32.161Z",
    "name": "Mahôjin Guru Guru",
    "repository": "kara.moe",
    "tid": "e9d14c8a-5b08-40a6-af3e-ec97a0a4a796",
    "types": [
      "series",
      "1"
    ]
  }
}