{
  "header": {
    "description": "Karaoke Mugen Tag File",
    "version": 1
  },
  "tag": {
    "aliases": [
      "MM",
      "Automatic Maiden"
    ],
    "i18n": {
      "jpn": "まほろまてぃっく",
      "qro": "Mahoromatic"
    },
    "name": "Mahoromatic",
    "repository": "kara.moe",
    "tid": "9e7635e4-22c3-48d2-b468-6670ee73aa52",
    "types": [
      "franchises",
      "18"
    ]
  }
}