{
  "header": {
    "description": "Karaoke Mugen Tag File",
    "version": 1
  },
  "tag": {
    "external_database_ids": {
      "anilist": 103222,
      "myanimelist": 37979,
      "kitsu": 41490
    },
    "i18n": {
      "eng": "Magical Girl Spec-Ops Asuka",
      "jpn": "魔法少女特殊戦あすか",
      "qro": "Mahou Shoujo Tokushusen Asuka"
    },
    "modified_at": "2020-03-31T19:04:32.159Z",
    "name": "Mahou Shoujo Tokushusen Asuka",
    "repository": "kara.moe",
    "tid": "6e9892a6-2356-437e-a9c8-02ff16ff9021",
    "types": [
      "series",
      "1"
    ]
  }
}