{
  "header": {
    "description": "Karaoke Mugen Tag File",
    "version": 1
  },
  "tag": {
    "i18n": {
      "eng": "Mai Ishihara"
    },
    "name": "Mai Ishihara",
    "tid": "e5b971b8-d19b-4254-8e74-210c6c5184a9",
    "types": [
      "singers",
      "2"
    ],
    "repository": "kara.moe",
    "modified_at": "2020-03-31T19:04:35.939Z"
  }
}