{
  "header": {
    "description": "Karaoke Mugen Tag File",
    "version": 1
  },
  "tag": {
    "i18n": {
      "eng": "Mai Kadowaki"
    },
    "name": "Mai Kadowaki",
    "tid": "ce73aeee-38d7-46e8-b83a-7cbb5c04973e",
    "types": [
      "singers",
      "2"
    ],
    "repository": "kara.moe",
    "modified_at": "2020-03-31T19:04:35.939Z"
  }
}