{
  "header": {
    "description": "Karaoke Mugen Tag File",
    "version": 1
  },
  "tag": {
    "i18n": {
      "eng": "Mai Fukuda"
    },
    "name": "Mai Fukuda",
    "tid": "e08996e6-9c3c-47f6-80a6-107febbdbabe",
    "types": [
      "singers",
      "2"
    ],
    "repository": "kara.moe",
    "modified_at": "2020-03-31T19:04:35.936Z"
  }
}