{
  "header": {
    "description": "Karaoke Mugen Tag File",
    "version": 1
  },
  "tag": {
    "i18n": {
      "eng": "Maid meets Cat"
    },
    "name": "Maid meets Cat",
    "tid": "698f283e-73f7-4d93-9ba3-bab16c6efa8b",
    "types": [
      "creators",
      "4"
    ],
    "repository": "kara.moe",
    "modified_at": "2020-03-31T19:04:35.947Z"
  }
}