{
  "header": {
    "description": "Karaoke Mugen Tag File",
    "version": 1
  },
  "tag": {
    "i18n": {
      "eng": "maidreamin"
    },
    "name": "maidreamin",
    "tid": "81fd4a92-7c31-4c94-ba9b-f02937999e47",
    "types": [
      "singers",
      "2"
    ],
    "repository": "kara.moe",
    "modified_at": "2020-03-31T19:04:35.948Z"
  }
}