{
  "header": {
    "description": "Karaoke Mugen Tag File",
    "version": 1
  },
  "tag": {
    "i18n": {
      "eng": "Maikaze"
    },
    "name": "Maikaze",
    "tid": "3fb874fd-8e24-40ab-ae45-1e122016fbb1",
    "types": [
      "creators",
      "4"
    ],
    "repository": "kara.moe",
    "modified_at": "2020-03-31T19:04:35.950Z"
  }
}