{
  "header": {
    "description": "Karaoke Mugen Tag File",
    "version": 1
  },
  "tag": {
    "i18n": {
      "eng": "Maiko"
    },
    "name": "Maiko",
    "tid": "d6ea860a-0a2d-4514-9e37-ea98981af406",
    "types": [
      "songwriters",
      "8",
      "singers",
      "2"
    ],
    "repository": "kara.moe",
    "modified_at": "2020-03-31T19:04:35.952Z"
  }
}