{
  "header": {
    "description": "Karaoke Mugen Tag File",
    "version": 1
  },
  "tag": {
    "i18n": {
      "eng": "Maiko Iuchi"
    },
    "name": "Maiko Iuchi",
    "tid": "e30cd693-c900-4272-9e2c-dd057f0265fe",
    "types": [
      "songwriters",
      "8"
    ],
    "repository": "kara.moe",
    "modified_at": "2020-03-31T19:04:35.951Z"
  }
}