{
  "header": {
    "description": "Karaoke Mugen Tag File",
    "version": 1
  },
  "tag": {
    "i18n": {
      "eng": "maimai"
    },
    "name": "maimai",
    "repository": "kara.moe",
    "tid": "ebe0a949-4922-4658-ad33-c2f1b5a7a70f",
    "types": [
      "series",
      "1"
    ]
  }
}