{
  "header": {
    "description": "Karaoke Mugen Tag File",
    "version": 1
  },
  "tag": {
    "aliases": [
      "Major 2nd Season",
      "Major S2",
      "m2",
      "major2",
      "Мейжър С2",
      "メジャー 第2シリーズ",
      "棒球大联盟 第二季"
    ],
    "external_database_ids": {
      "anilist": 558,
      "myanimelist": 558,
      "kitsu": 515
    },
    "i18n": {
      "eng": "Major (2nd serie)",
      "jpn": "メジャー (第2シリーズ)",
      "kor": "메이저 2기",
      "qro": "Major (2005)"
    },
    "modified_at": "2020-03-31T19:04:32.175Z",
    "name": "Major (2005)",
    "repository": "kara.moe",
    "tid": "f053ddce-87e4-43c3-9613-73af1c912117",
    "types": [
      "series",
      "1"
    ]
  }
}