{
  "header": {
    "description": "Karaoke Mugen Tag File",
    "version": 1
  },
  "tag": {
    "aliases": [
      "Witch's Express Delivery"
    ],
    "external_database_ids": {
      "anilist": 512,
      "myanimelist": 512,
      "kitsu": 471
    },
    "i18n": {
      "eng": "Kiki's Delivery Service",
      "fre": "Kiki la Petite Sorcière"
    },
    "modified_at": "2020-03-31T19:04:32.173Z",
    "name": "Majo no Takkyuubin",
    "repository": "kara.moe",
    "tid": "8bdda5b1-a24f-44a6-ac1c-d044c4edfc49",
    "types": [
      "series",
      "1"
    ]
  }
}