{
  "header": {
    "description": "Karaoke Mugen Tag File",
    "version": 1
  },
  "tag": {
    "aliases": [
      "Majokko Megu-chan",
      "Little Witch Meg",
      "Meg the Witch Girl",
      "Meg la petite sorcière"
    ],
    "external_database_ids": {
      "anilist": 3388,
      "kitsu": 2975,
      "myanimelist": 3388
    },
    "i18n": {
      "eng": "Majokko Meg-chan",
      "fre": "Meg la sorcière",
      "ita": "Bia, la sfida della magia",
      "jpn": "魔女っ子メグちゃん",
      "pol": "Bia - Czarodziejskie Wyzwanie",
      "por": "Bia, a pequena feiticeira",
      "qro": "Majokko Meg-chan"
    },
    "name": "Majokko Meg-chan",
    "repository": "kara.moe",
    "tid": "52223b30-c2ad-4346-beae-b0a493c1dcbb",
    "types": [
      "series",
      "1"
    ]
  }
}