{
  "header": {
    "description": "Karaoke Mugen Tag File",
    "version": 1
  },
  "tag": {
    "i18n": {
      "eng": "MAKE.UP"
    },
    "name": "MAKE.UP",
    "tid": "2fadf687-7866-41db-9bb3-80e8a33f2351",
    "types": [
      "singers",
      "2"
    ],
    "repository": "kara.moe",
    "modified_at": "2020-03-31T19:04:35.956Z"
  }
}