{
  "header": {
    "description": "Karaoke Mugen Tag File",
    "version": 1
  },
  "tag": {
    "i18n": {
      "eng": "Maki Kamiya"
    },
    "name": "Maki Kamiya",
    "tid": "ec6f013b-a129-4f6d-9c05-ab0413350818",
    "types": [
      "singers",
      "2"
    ],
    "repository": "kara.moe",
    "modified_at": "2020-03-31T19:04:35.959Z"
  }
}