{
  "header": {
    "description": "Karaoke Mugen Tag File",
    "version": 1
  },
  "tag": {
    "i18n": {
      "eng": "Maki Kirioka"
    },
    "name": "Maki Kirioka",
    "tid": "7683149c-3533-4625-b9df-83901f635ff8",
    "types": [
      "songwriters",
      "8"
    ],
    "repository": "kara.moe",
    "modified_at": "2020-03-31T19:04:35.961Z"
  }
}