{
  "header": {
    "description": "Karaoke Mugen Tag File",
    "version": 1
  },
  "tag": {
    "i18n": {
      "eng": "Maki Kimura"
    },
    "name": "Maki Kimura",
    "tid": "d5773eb0-9077-49b3-b171-d9e262dc77f4",
    "types": [
      "singers",
      "2"
    ],
    "repository": "kara.moe",
    "modified_at": "2020-03-31T19:04:35.961Z"
  }
}