{
  "header": {
    "description": "Karaoke Mugen Tag File",
    "version": 1
  },
  "tag": {
    "i18n": {
      "eng": "Maki Oogura"
    },
    "name": "Maki Oogura",
    "tid": "20bfb18b-3150-48e3-9f0b-978c85af8946",
    "types": [
      "songwriters",
      "8",
      "singers",
      "2"
    ],
    "repository": "kara.moe",
    "modified_at": "2020-03-31T19:04:35.964Z"
  }
}