{
  "header": {
    "description": "Karaoke Mugen Tag File",
    "version": 1
  },
  "tag": {
    "i18n": {
      "eng": "Makoto Asakura"
    },
    "name": "Makoto Asakura",
    "tid": "693e16af-2076-4185-9127-5a989cd9dc86",
    "types": [
      "songwriters",
      "8"
    ],
    "repository": "kara.moe",
    "modified_at": "2020-03-31T19:04:35.970Z"
  }
}