{
  "header": {
    "description": "Karaoke Mugen Tag File",
    "version": 1
  },
  "tag": {
    "i18n": {
      "eng": "Mako"
    },
    "modified_at": "2020-10-25T14:46:31.334Z",
    "name": "Mako",
    "repository": "kara.moe",
    "tid": "2c4e6f1f-89b9-48ee-a41b-5cbfe732b147",
    "types": [
      "singers",
      "2"
    ]
  }
}