{
  "header": {
    "description": "Karaoke Mugen Tag File",
    "version": 1
  },
  "tag": {
    "i18n": {
      "eng": "Makoto Saito"
    },
    "modified_at": "2020-05-17T12:14:23.164Z",
    "name": "Makoto Saito",
    "repository": "kara.moe",
    "tid": "196df89c-07be-426c-8825-8523254a7a88",
    "types": [
      "songwriters",
      "8"
    ]
  }
}