{
  "header": {
    "description": "Karaoke Mugen Tag File",
    "version": 1
  },
  "tag": {
    "i18n": {
      "eng": "Makoto Miyoshi"
    },
    "name": "Makoto Miyoshi",
    "tid": "eb051eb8-81d3-438d-ad13-206744853e99",
    "types": [
      "songwriters",
      "8"
    ],
    "repository": "kara.moe",
    "modified_at": "2020-03-31T19:04:35.974Z"
  }
}