{
  "header": {
    "description": "Karaoke Mugen Tag File",
    "version": 1
  },
  "tag": {
    "i18n": {
      "eng": "Makoto Sasaki"
    },
    "modified_at": "2021-04-10T02:44:59.763Z",
    "name": "Makoto Sasaki",
    "repository": "kara.moe",
    "tid": "7add8362-ccde-4ada-a68a-5f25c2a53fd1",
    "types": [
      "songwriters",
      "8"
    ]
  }
}