{
  "header": {
    "description": "Karaoke Mugen Tag File",
    "version": 1
  },
  "tag": {
    "aliases": [
      "Makura MAD",
      "makura731"
    ],
    "i18n": {
      "eng": "MakuraMAD",
      "jpn": "まくらMAD"
    },
    "modified_at": "2021-10-12T15:23:46.584Z",
    "name": "MakuraMAD",
    "repository": "kara.moe",
    "tid": "ab2348b4-72de-4e0c-8b7a-aa8928d716af",
    "types": [
      "creators",
      "4"
    ]
  }
}