{
  "header": {
    "description": "Karaoke Mugen Tag File",
    "version": 1
  },
  "tag": {
    "i18n": {
      "eng": "Makura"
    },
    "name": "Makura",
    "tid": "94326b43-04c2-4a96-9b95-a8440435033d",
    "types": [
      "creators",
      "4"
    ],
    "repository": "kara.moe",
    "modified_at": "2020-03-31T19:04:35.979Z"
  }
}