{
  "header": {
    "description": "Karaoke Mugen Tag File",
    "version": 1
  },
  "tag": {
    "i18n": {
      "eng": "mameden"
    },
    "modified_at": "2021-08-06T12:55:46.824Z",
    "name": "mameden",
    "repository": "kara.moe",
    "tid": "b031d77c-72b0-4604-ac26-862e43f03034",
    "types": [
      "creators",
      "4"
    ]
  }
}