{
  "header": {
    "description": "Karaoke Mugen Tag File",
    "version": 1
  },
  "tag": {
    "i18n": {
      "eng": "Mami Kosuge"
    },
    "name": "Mami Kosuge",
    "tid": "4a4bbf87-5655-41d8-99f7-425bf77683f9",
    "types": [
      "singers",
      "2"
    ],
    "repository": "kara.moe",
    "modified_at": "2020-03-31T19:04:35.986Z"
  }
}