{
  "header": {
    "description": "Karaoke Mugen Tag File",
    "version": 1
  },
  "tag": {
    "i18n": {
      "eng": "Mami Nakayama"
    },
    "name": "Mami Nakayama",
    "tid": "387716dd-d60e-4757-ab92-271425277482",
    "types": [
      "songwriters",
      "8"
    ],
    "repository": "kara.moe",
    "modified_at": "2020-03-31T19:04:35.988Z"
  }
}