{
  "header": {
    "description": "Karaoke Mugen Tag File",
    "version": 1
  },
  "tag": {
    "i18n": {
      "eng": "Mami Kingetsu"
    },
    "name": "Mami Kingetsu",
    "tid": "7c24b531-d282-44a3-9d4c-2d6a0ad6801c",
    "types": [
      "singers",
      "2"
    ],
    "repository": "kara.moe",
    "modified_at": "2020-03-31T19:04:35.986Z"
  }
}