{
  "header": {
    "description": "Karaoke Mugen Tag File",
    "version": 1
  },
  "tag": {
    "i18n": {
      "eng": "Manabu Deto"
    },
    "name": "Manabu Deto",
    "tid": "71e98be4-1d4b-4eef-bd01-397dbcd2a26a",
    "types": [
      "songwriters",
      "8"
    ],
    "repository": "kara.moe",
    "modified_at": "2020-03-31T19:04:36.002Z"
  }
}