{
  "header": {
    "description": "Karaoke Mugen Tag File",
    "version": 1
  },
  "tag": {
    "i18n": {
      "eng": "Mana Yoshinaga"
    },
    "name": "Mana Yoshinaga",
    "tid": "b888478a-ac1f-447d-a693-3d0c91a55b88",
    "types": [
      "songwriters",
      "8"
    ],
    "repository": "kara.moe",
    "modified_at": "2020-03-31T19:04:35.999Z"
  }
}