{
  "header": {
    "description": "Karaoke Mugen Tag File",
    "version": 1
  },
  "tag": {
    "i18n": {
      "eng": "maniyotsu"
    },
    "modified_at": "2021-06-13T22:22:52.577Z",
    "name": "maniyotsu",
    "repository": "kara.moe",
    "tid": "e13b9cee-4729-4537-900d-e2a3b4182211",
    "types": [
      "songwriters",
      "8"
    ]
  }
}