{
  "header": {
    "description": "Karaoke Mugen Tag File",
    "version": 1
  },
  "tag": {
    "i18n": {
      "eng": "Manuel Karamori"
    },
    "modified_at": "2021-08-21T18:10:15.230Z",
    "name": "Manuel Karamori",
    "repository": "kara.moe",
    "tid": "11207f1a-3e10-436f-87b0-d4b787e4bb82",
    "types": [
      "singers",
      "2",
      "songwriters",
      "8"
    ]
  }
}