{
  "header": {
    "description": "Karaoke Mugen Tag File",
    "version": 1
  },
  "tag": {
    "i18n": {
      "eng": "MANYO"
    },
    "name": "MANYO",
    "tid": "8ece8508-3609-4ec3-9b7f-08117b9cc2f0",
    "types": [
      "songwriters",
      "8"
    ],
    "repository": "kara.moe",
    "modified_at": "2020-03-31T19:04:36.016Z"
  }
}