{
  "header": {
    "description": "Karaoke Mugen Tag File",
    "version": 1
  },
  "tag": {
    "i18n": {
      "eng": "Mao Daichi"
    },
    "name": "Mao Daichi",
    "tid": "24d316b4-3e7b-433a-b611-bb8b67f84caf",
    "types": [
      "singers",
      "2"
    ],
    "repository": "kara.moe",
    "modified_at": "2020-03-31T19:04:36.019Z"
  }
}