{
  "header": {
    "description": "Karaoke Mugen Tag File",
    "version": 1
  },
  "tag": {
    "i18n": {
      "eng": "Maon Kurosaki"
    },
    "name": "Maon Kurosaki",
    "tid": "d5d04a4f-594b-4e7c-bf1f-546ea6c6aab4",
    "types": [
      "songwriters",
      "8",
      "singers",
      "2"
    ],
    "repository": "kara.moe",
    "modified_at": "2020-03-31T19:04:36.024Z"
  }
}