{
  "header": {
    "description": "Karaoke Mugen Tag File",
    "version": 1
  },
  "tag": {
    "aliases": [
      "Maou-jou de Oyasumi",
      "Maoujou de Oyasumi",
      "Sleeping in Devil's Castle",
      "maou-jou"
    ],
    "external_database_ids": {
      "anilist": 111428,
      "myanimelist": 40397,
      "kitsu": 42551
    },
    "i18n": {
      "eng": "Sleepy Princess in the Demon Castle",
      "jpn": "魔王城でおやすみ",
      "qro": "Maô-jô de Oyasumi"
    },
    "modified_at": "2021-04-20T20:58:46.305Z",
    "name": "Maô-jô de Oyasumi",
    "repository": "kara.moe",
    "tid": "5ad2ca74-9239-4a6d-a53c-e411be8a5646",
    "types": [
      "series",
      "1"
    ]
  }
}