{
  "header": {
    "description": "Karaoke Mugen Tag File",
    "version": 1
  },
  "tag": {
    "i18n": {
      "eng": "Marcello Marrocchi"
    },
    "modified_at": "2021-03-13T17:21:01.931Z",
    "name": "Marcello Marrocchi",
    "repository": "kara.moe",
    "tid": "cdd57de6-1394-4c38-9624-e7c6a89669c1",
    "types": [
      "songwriters",
      "8"
    ]
  }
}