{
  "header": {
    "description": "Karaoke Mugen Tag File",
    "version": 1
  },
  "tag": {
    "aliases": [
      "Maria Holic 2",
      "玛利亚狂热2"
    ],
    "external_database_ids": {
      "anilist": 9712,
      "myanimelist": 9712,
      "kitsu": 5832
    },
    "i18n": {
      "eng": "Maria†Holic Alive",
      "jpn": "まりあ†ほりっく あらいぶ",
      "qro": "Maria Holic Alive"
    },
    "modified_at": "2020-03-31T19:04:32.195Z",
    "name": "Maria Holic Alive",
    "repository": "kara.moe",
    "tid": "ef418523-72af-40f1-8d77-56f189f86a60",
    "types": [
      "series",
      "1"
    ]
  }
}