{
  "header": {
    "description": "Karaoke Mugen Tag File",
    "version": 1
  },
  "tag": {
    "i18n": {
      "eng": "Marie"
    },
    "name": "Marie",
    "tid": "a973c9f2-1fd4-45b0-bda5-119f7c931727",
    "types": [
      "singers",
      "2",
      "songwriters",
      "8"
    ],
    "repository": "kara.moe",
    "modified_at": "2020-03-31T19:04:36.051Z"
  }
}