{
  "header": {
    "description": "Karaoke Mugen Tag File",
    "version": 1
  },
  "tag": {
    "i18n": {
      "eng": "Marika Kôno"
    },
    "name": "Marika Kôno",
    "tid": "bd73ae2b-0f2b-4710-8e42-31d693606e57",
    "types": [
      "singers",
      "2"
    ],
    "repository": "kara.moe",
    "modified_at": "2020-03-31T19:04:36.052Z"
  }
}