{
  "header": {
    "description": "Karaoke Mugen Tag File",
    "version": 1
  },
  "tag": {
    "aliases": [
      "houshou"
    ],
    "i18n": {
      "eng": "Marine Hôshô",
      "jpn": "宝鐘マリン",
      "qro": "Marine Hôshô"
    },
    "modified_at": "2021-09-02T20:31:58.039Z",
    "name": "Marine Hôshô",
    "repository": "kara.moe",
    "tid": "77848990-54ab-4ef6-bba7-e1258fda78a5",
    "types": [
      "singers",
      "2"
    ]
  }
}