{
  "header": {
    "description": "Karaoke Mugen Tag File",
    "version": 1
  },
  "tag": {
    "i18n": {
      "eng": "Marie-Charlotte Leclaire"
    },
    "name": "Marie-Charlotte Leclaire",
    "repository": "kara.moe",
    "tid": "66702fc7-8d25-464b-b29f-bdc29ea5e997",
    "types": [
      "singers",
      "2"
    ],
    "modified_at": "2020-03-31T19:04:36.050Z"
  }
}