{
  "header": {
    "description": "Karaoke Mugen Tag File",
    "version": 1
  },
  "tag": {
    "i18n": {
      "eng": "Marie P."
    },
    "modified_at": "1982-04-06",
    "name": "Marie P.",
    "repository": "kara.moe",
    "tid": "4528732c-4e2b-421c-9094-ad373c9cc490",
    "types": [
      "singers",
      "2"
    ]
  }
}