{
  "header": {
    "description": "Karaoke Mugen Tag File",
    "version": 1
  },
  "tag": {
    "i18n": {
      "eng": "Mariya Ise"
    },
    "name": "Mariya Ise",
    "tid": "8e600f9f-acdb-4e9a-992f-058a1d005eb5",
    "types": [
      "singers",
      "2"
    ],
    "repository": "kara.moe",
    "modified_at": "2020-03-31T19:04:36.068Z"
  }
}