{
  "header": {
    "description": "Karaoke Mugen Tag File",
    "version": 1
  },
  "tag": {
    "i18n": {
      "eng": "Mario Balducci"
    },
    "name": "Mario Balducci",
    "tid": "881c76ff-7eda-46a4-92c6-a88ffb78a3a8",
    "types": [
      "singers",
      "2"
    ],
    "repository": "kara.moe",
    "modified_at": "2020-03-31T19:04:36.066Z"
  }
}