{
  "header": {
    "description": "Karaoke Mugen Tag File",
    "version": 1
  },
  "tag": {
    "i18n": {
      "eng": "Mariah Carey"
    },
    "name": "Mariah Carey",
    "repository": "kara.moe",
    "tid": "0bda68a2-245f-45a9-aa96-0bec7db7b806",
    "types": [
      "songwriters",
      "8"
    ]
  }
}