{
  "header": {
    "description": "Karaoke Mugen Tag File",
    "version": 1
  },
  "tag": {
    "i18n": {
      "eng": "Mariko Mizuno"
    },
    "name": "Mariko Mizuno",
    "tid": "4f13b6eb-6332-4d28-8051-679c9d89283a",
    "types": [
      "singers",
      "2"
    ],
    "repository": "kara.moe",
    "modified_at": "2020-03-31T19:04:36.056Z"
  }
}