{
  "header": {
    "description": "Karaoke Mugen Tag File",
    "version": 1
  },
  "tag": {
    "i18n": {
      "eng": "Mariko Nagai",
      "jpn": "永井真理子"
    },
    "modified_at": "2021-12-03T18:21:20.668Z",
    "name": "Mariko Nagai",
    "repository": "kara.moe",
    "tid": "0828e3bc-38cb-44d2-aede-e64ea9668029",
    "types": [
      "singers",
      "2"
    ]
  }
}