{
  "header": {
    "description": "Karaoke Mugen Tag File",
    "version": 1
  },
  "tag": {
    "i18n": {
      "eng": "Marie-Mai"
    },
    "name": "Marie-Mai",
    "repository": "kara.moe",
    "tid": "61630ef5-0a38-4cc1-91d4-9a9fc9fac24f",
    "types": [
      "singers",
      "2"
    ]
  }
}