{
  "header": {
    "description": "Karaoke Mugen Tag File",
    "version": 1
  },
  "tag": {
    "i18n": {
      "eng": "Mark Mothersbaugh"
    },
    "modified_at": "2021-10-15T22:07:52.315Z",
    "name": "Mark Mothersbaugh",
    "repository": "kara.moe",
    "tid": "b8239bbf-2581-4b4a-9a32-dace55237867",
    "types": [
      "songwriters",
      "8"
    ]
  }
}