{
  "header": {
    "description": "Karaoke Mugen Tag File",
    "version": 1
  },
  "tag": {
    "i18n": {
      "eng": "Mark LawX"
    },
    "name": "Mark LawX",
    "repository": "kara.moe",
    "tid": "20fdccb0-8fb7-4824-8842-1057f61b3625",
    "types": [
      "creators",
      "4"
    ]
  }
}