{
  "header": {
    "description": "Karaoke Mugen Tag File",
    "version": 1
  },
  "tag": {
    "i18n": {
      "eng": "Mark Forster"
    },
    "modified_at": "2021-04-04T12:58:30.621Z",
    "name": "Mark Forster",
    "repository": "kara.moe",
    "tid": "b77411a5-b5ce-4ad9-89b7-e40abc1221cf",
    "types": [
      "singers",
      "2"
    ]
  }
}