{
  "header": {
    "description": "Karaoke Mugen Tag File",
    "version": 1
  },
  "tag": {
    "i18n": {
      "eng": "marron"
    },
    "name": "marron",
    "tid": "c90ca728-e89e-4d04-b202-181217a20c32",
    "types": [
      "singers",
      "2"
    ],
    "repository": "kara.moe",
    "modified_at": "2020-03-31T19:04:36.075Z"
  }
}