{
  "header": {
    "description": "Karaoke Mugen Tag File",
    "version": 1
  },
  "tag": {
    "i18n": {
      "eng": "Martin Bragwell"
    },
    "name": "Martin Bragwell",
    "tid": "b0e376d9-315b-4ecb-a8fa-eb4532f0e893",
    "types": [
      "songwriters",
      "8",
      "singers",
      "2"
    ],
    "repository": "kara.moe",
    "modified_at": "2020-03-31T19:04:36.076Z"
  }
}