{
  "header": {
    "description": "Karaoke Mugen Tag File",
    "version": 1
  },
  "tag": {
    "i18n": {
      "eng": "Martial Coulon"
    },
    "modified_at": "2021-02-07T14:15:19.039Z",
    "name": "Martial Coulon",
    "repository": "kara.moe",
    "tid": "d6f62c39-b42b-454a-8000-c5be12894a5b",
    "types": [
      "songwriters",
      "8"
    ]
  }
}