{
  "header": {
    "description": "Karaoke Mugen Tag File",
    "version": 1
  },
  "tag": {
    "i18n": {
      "eng": "Maruko Hiyoshi"
    },
    "name": "Maruko Hiyoshi",
    "repository": "kara.moe",
    "tid": "b6bd6fef-6b24-4fce-817a-77d8d5fce3f6",
    "types": [
      "songwriters",
      "8"
    ]
  }
}