{
  "header": {
    "description": "Karaoke Mugen Tag File",
    "version": 1
  },
  "tag": {
    "i18n": {
      "eng": "Marvel Comics"
    },
    "name": "Marvel Comics",
    "tid": "e9e98845-c715-4009-81de-dcce743efe3c",
    "types": [
      "creators",
      "4"
    ],
    "repository": "kara.moe",
    "modified_at": "2020-03-31T19:04:36.081Z"
  }
}