{
  "header": {
    "description": "Karaoke Mugen Tag File",
    "version": 1
  },
  "tag": {
    "i18n": {
      "eng": "Mary Jane"
    },
    "name": "Mary Jane",
    "repository": "kara.moe",
    "tid": "0440d4dd-0a9c-4722-8398-abbdd28f4a71",
    "types": [
      "creators",
      "4"
    ],
    "modified_at": "2020-03-31T19:04:36.083Z"
  }
}