{
  "header": {
    "description": "Karaoke Mugen Tag File",
    "version": 1
  },
  "tag": {
    "i18n": {
      "eng": "Masayuki Hasuo"
    },
    "name": "Masayuki Hasuo",
    "tid": "e97a119f-7b5c-4c64-a967-c666d013ae37",
    "types": [
      "songwriters",
      "8"
    ],
    "repository": "kara.moe",
    "modified_at": "2020-03-31T19:04:36.160Z"
  }
}