{
  "header": {
    "description": "Karaoke Mugen Tag File",
    "version": 1
  },
  "tag": {
    "i18n": {
      "eng": "Masaki Nagata"
    },
    "name": "Masaki Nagata",
    "tid": "9da58f6a-4a29-4353-a743-9d6d5ae8df55",
    "types": [
      "songwriters",
      "8"
    ],
    "repository": "kara.moe",
    "modified_at": "2020-03-31T19:04:36.110Z"
  }
}