{
  "header": {
    "description": "Karaoke Mugen Tag File",
    "version": 1
  },
  "tag": {
    "i18n": {
      "eng": "MASAYA"
    },
    "name": "MASAYA",
    "tid": "2895076b-aac6-4efa-9b34-8db3f6a41161",
    "types": [
      "songwriters",
      "8"
    ],
    "repository": "kara.moe",
    "modified_at": "2020-03-31T19:04:36.155Z"
  }
}