{
  "header": {
    "description": "Karaoke Mugen Tag File",
    "version": 1
  },
  "tag": {
    "i18n": {
      "eng": "Masâki Ishihara"
    },
    "name": "Masâki Ishihara",
    "tid": "5280b58a-f2b3-4f4c-be89-d36db723cc01",
    "types": [
      "songwriters",
      "8"
    ],
    "repository": "kara.moe",
    "modified_at": "2020-03-31T19:04:36.108Z"
  }
}