{
  "header": {
    "description": "Karaoke Mugen Tag File",
    "version": 1
  },
  "tag": {
    "i18n": {
      "eng": "Masaru Tajima"
    },
    "name": "Masaru Tajima",
    "tid": "97869a89-2ce3-43ed-9dbf-c19653214a2d",
    "types": [
      "songwriters",
      "8"
    ],
    "repository": "kara.moe",
    "modified_at": "2020-03-31T19:04:36.132Z"
  }
}