{
  "header": {
    "description": "Karaoke Mugen Tag File",
    "version": 1
  },
  "tag": {
    "i18n": {
      "eng": "Masaya Matsûra"
    },
    "name": "Masaya Matsûra",
    "tid": "751233dd-f214-4456-b249-a7a27577abe0",
    "types": [
      "songwriters",
      "8"
    ],
    "repository": "kara.moe",
    "modified_at": "2020-03-31T19:04:36.153Z"
  }
}