{
  "header": {
    "description": "Karaoke Mugen Tag File",
    "version": 1
  },
  "tag": {
    "i18n": {
      "eng": "masasucks"
    },
    "name": "masasucks",
    "tid": "06241eb3-4432-4ad1-a8ef-39432a6a2526",
    "types": [
      "songwriters",
      "8"
    ],
    "repository": "kara.moe",
    "modified_at": "2020-03-31T19:04:36.135Z"
  }
}