{
  "header": {
    "description": "Karaoke Mugen Tag File",
    "version": 1
  },
  "tag": {
    "i18n": {
      "eng": "Masao Ishizaka"
    },
    "name": "Masao Ishizaka",
    "tid": "970f12c8-f06b-4bd0-9971-0daa77432dc5",
    "types": [
      "songwriters",
      "8"
    ],
    "repository": "kara.moe",
    "modified_at": "2020-03-31T19:04:36.126Z"
  }
}