{
  "header": {
    "description": "Karaoke Mugen Tag File",
    "version": 1
  },
  "tag": {
    "i18n": {
      "eng": "Masamune Kusano"
    },
    "name": "Masamune Kusano",
    "tid": "545a0a72-1cd7-4a09-82ee-94203f23dcbe",
    "types": [
      "songwriters",
      "8"
    ],
    "repository": "kara.moe",
    "modified_at": "2020-03-31T19:04:36.122Z"
  }
}