{
  "header": {
    "description": "Karaoke Mugen Tag File",
    "version": 1
  },
  "tag": {
    "i18n": {
      "eng": "Masami Tozawa"
    },
    "name": "Masami Tozawa",
    "tid": "48584ebb-c797-4a2b-a52a-49879c97642f",
    "types": [
      "songwriters",
      "8"
    ],
    "repository": "kara.moe",
    "modified_at": "2020-03-31T19:04:36.119Z"
  }
}