{
  "header": {
    "description": "Karaoke Mugen Tag File",
    "version": 1
  },
  "tag": {
    "i18n": {
      "eng": "Masahiko Kondô"
    },
    "name": "Masahiko Kondô",
    "tid": "537cb1b8-17f2-4c20-acfa-e6b14644aa40",
    "types": [
      "singers",
      "2"
    ],
    "repository": "kara.moe",
    "modified_at": "2020-03-31T19:04:36.096Z"
  }
}