{
  "header": {
    "description": "Karaoke Mugen Tag File",
    "version": 1
  },
  "tag": {
    "i18n": {
      "eng": "Masaki Suzukawa"
    },
    "modified_at": "2020-04-14T17:01:33.950Z",
    "name": "Masaki Suzukawa",
    "repository": "kara.moe",
    "tid": "bdb9e193-edf4-4085-af16-4ba28516a291",
    "types": [
      "songwriters",
      "8"
    ]
  }
}