{
  "header": {
    "description": "Karaoke Mugen Tag File",
    "version": 1
  },
  "tag": {
    "i18n": {
      "eng": "Masatoshi Nishimura"
    },
    "name": "Masatoshi Nishimura",
    "tid": "8a8cafe1-a13b-42d5-bfbf-41c536642799",
    "types": [
      "songwriters",
      "8"
    ],
    "repository": "kara.moe",
    "modified_at": "2020-03-31T19:04:36.149Z"
  }
}