{
  "header": {
    "description": "Karaoke Mugen Tag File",
    "version": 1
  },
  "tag": {
    "i18n": {
      "eng": "Masaaki Taniguchi"
    },
    "name": "Masaaki Taniguchi",
    "tid": "08d9ba18-c51b-4f9b-884e-b1be8e48801a",
    "types": [
      "songwriters",
      "8"
    ],
    "repository": "kara.moe",
    "modified_at": "2020-03-31T19:04:36.090Z"
  }
}