{
  "header": {
    "description": "Karaoke Mugen Tag File",
    "version": 1
  },
  "tag": {
    "i18n": {
      "eng": "Masashi Watarai"
    },
    "name": "Masashi Watarai",
    "tid": "34d86077-798c-4b4e-aa4b-34f6b5aa0127",
    "types": [
      "songwriters",
      "8"
    ],
    "repository": "kara.moe",
    "modified_at": "2020-03-31T19:04:36.133Z"
  }
}