{
  "header": {
    "description": "Karaoke Mugen Tag File",
    "version": 1
  },
  "tag": {
    "i18n": {
      "eng": "Masahiko Arimachi"
    },
    "name": "Masahiko Arimachi",
    "tid": "bb034ccc-dbc1-4ec5-84a4-3cbd0ed60a55",
    "types": [
      "singers",
      "2",
      "songwriters",
      "8"
    ],
    "repository": "kara.moe",
    "modified_at": "2020-03-31T19:04:36.095Z"
  }
}