{
  "header": {
    "description": "Karaoke Mugen Tag File",
    "version": 1
  },
  "tag": {
    "i18n": {
      "eng": "Masayuki Fukutomi"
    },
    "name": "Masayuki Fukutomi",
    "tid": "aaa2c9b8-50d0-40bc-bb9c-4f1849195d3d",
    "types": [
      "songwriters",
      "8"
    ],
    "repository": "kara.moe",
    "modified_at": "2020-03-31T19:04:36.160Z"
  }
}