{
  "header": {
    "description": "Karaoke Mugen Tag File",
    "version": 1
  },
  "tag": {
    "i18n": {
      "eng": "Masahiro",
      "jpn": "マサヒロ"
    },
    "name": "Masahiro",
    "repository": "kara.moe",
    "tid": "df416ab3-6b70-421d-b728-b21110cd7ec0",
    "types": [
      "creators",
      "4"
    ]
  }
}