{
  "header": {
    "description": "Karaoke Mugen Tag File",
    "version": 1
  },
  "tag": {
    "i18n": {
      "eng": "Masaki Kawano"
    },
    "modified_at": "2021-11-20T18:06:39.711Z",
    "name": "Masaki Kawano",
    "repository": "kara.moe",
    "tid": "260fdff7-240f-4a7f-ab7f-ad18888fdb09",
    "types": [
      "songwriters",
      "8"
    ]
  }
}