{
  "header": {
    "description": "Karaoke Mugen Tag File",
    "version": 1
  },
  "tag": {
    "i18n": {
      "eng": "Masatomi Waki"
    },
    "name": "Masatomi Waki",
    "tid": "0035326e-4eba-463d-899d-a154b6a2a744",
    "types": [
      "songwriters",
      "8"
    ],
    "repository": "kara.moe",
    "modified_at": "2020-03-31T19:04:36.144Z"
  }
}