{
  "header": {
    "description": "Karaoke Mugen Tag File",
    "version": 1
  },
  "tag": {
    "i18n": {
      "eng": "Masao Akashi"
    },
    "name": "Masao Akashi",
    "tid": "86867b0b-46c9-41e1-8b67-7bf49d2b725a",
    "types": [
      "songwriters",
      "8"
    ],
    "repository": "kara.moe",
    "modified_at": "2020-03-31T19:04:36.124Z"
  }
}