{
  "header": {
    "description": "Karaoke Mugen Tag File",
    "version": 1
  },
  "tag": {
    "i18n": {
      "eng": "Masahiro Kawaura"
    },
    "name": "Masahiro Kawaura",
    "tid": "43b91a62-9255-424b-8595-6b026ec0999a",
    "types": [
      "songwriters",
      "8"
    ],
    "repository": "kara.moe",
    "modified_at": "2020-03-31T19:04:36.099Z"
  }
}