{
  "header": {
    "description": "Karaoke Mugen Tag File",
    "version": 1
  },
  "tag": {
    "i18n": {
      "eng": "Mashiro Ayano"
    },
    "name": "Mashiro Ayano",
    "tid": "49ea35f1-4089-4ca5-8e6a-4f4187a2e731",
    "types": [
      "singers",
      "2",
      "songwriters",
      "8"
    ],
    "repository": "kara.moe",
    "modified_at": "2020-03-31T19:04:36.166Z"
  }
}