{
  "header": {
    "description": "Karaoke Mugen Tag File",
    "version": 1
  },
  "tag": {
    "aliases": [
      "Mashiroiro Symphony: The Color of Lovers"
    ],
    "external_database_ids": {
      "anilist": 10397,
      "myanimelist": 10397,
      "kitsu": 6165
    },
    "i18n": {
      "eng": "Mashiro-Iro Symphony: The Color of Lovers",
      "jpn": "ましろ色シンフォニー -The color of lovers-",
      "qro": "Mashiro-Iro Symphony ~ The color of lovers"
    },
    "modified_at": "2020-03-31T19:04:32.202Z",
    "name": "Mashiro-Iro Symphony ~ The color of lovers",
    "repository": "kara.moe",
    "tid": "b771c86a-303a-4abc-8850-a2a43ba0a2e9",
    "types": [
      "series",
      "1"
    ]
  }
}