{
  "header": {
    "description": "Karaoke Mugen Tag File",
    "version": 1
  },
  "tag": {
    "i18n": {
      "eng": "Massimo Luca"
    },
    "modified_at": "2021-09-18T22:05:47.110Z",
    "name": "Massimo Luca",
    "repository": "kara.moe",
    "tid": "09c1814c-e487-42e9-9ac0-cc484c2c9dbb",
    "types": [
      "singers",
      "2"
    ]
  }
}