{
  "header": {
    "description": "Karaoke Mugen Tag File",
    "version": 1
  },
  "tag": {
    "i18n": {
      "eng": "Masters of the Universe",
      "fre": "Les Maîtres de l'univers"
    },
    "modified_at": "2020-03-31T19:04:32.205Z",
    "name": "Masters of the Universe",
    "repository": "kara.moe",
    "tid": "ab6347ee-078f-4074-bdaf-f2bb9086d726",
    "types": [
      "series",
      "1"
    ]
  }
}