{
  "header": {
    "description": "Karaoke Mugen Tag File",
    "version": 1
  },
  "tag": {
    "i18n": {
      "eng": "Mathieu Sommet"
    },
    "modified_at": "2020-04-11T23:33:09.471Z",
    "name": "Mathieu Sommet",
    "repository": "kara.moe",
    "tid": "e44a3520-4501-4258-8bf4-48c3ed0b42a1",
    "types": [
      "creators",
      "4",
      "singers",
      "2",
      "songwriters",
      "8"
    ]
  }
}