{
  "header": {
    "description": "Karaoke Mugen Tag File",
    "version": 1
  },
  "tag": {
    "i18n": {
      "eng": "Matrix Software"
    },
    "name": "Matrix Software",
    "tid": "e6a29a07-59d7-4646-b722-032b4b3c85e9",
    "types": [
      "creators",
      "4"
    ],
    "repository": "kara.moe",
    "modified_at": "2020-03-31T19:04:36.179Z"
  }
}