{
  "header": {
    "description": "Karaoke Mugen Tag File",
    "version": 1
  },
  "tag": {
    "i18n": {
      "eng": "Matsumoto Tortoise"
    },
    "name": "Matsumoto Tortoise",
    "tid": "669fa5df-b429-4765-a22a-455ed9b7ecae",
    "types": [
      "songwriters",
      "8"
    ],
    "repository": "kara.moe",
    "modified_at": "2020-03-31T19:04:36.183Z"
  }
}