{
  "header": {
    "description": "Karaoke Mugen Tag File",
    "version": 1
  },
  "tag": {
    "i18n": {
      "eng": "Matsuri Ôse"
    },
    "name": "Matsuri Ôse",
    "tid": "24ff0eca-7513-4d1e-bc20-f9bef42e2189",
    "types": [
      "songwriters",
      "8"
    ],
    "repository": "kara.moe",
    "modified_at": "2020-03-31T19:04:36.185Z"
  }
}