{
  "header": {
    "description": "Karaoke Mugen Tag File",
    "version": 1
  },
  "tag": {
    "i18n": {
      "eng": "Mattman & Robin"
    },
    "modified_at": "2021-11-13T12:57:40.444Z",
    "name": "Mattman & Robin",
    "repository": "kara.moe",
    "tid": "c56dea5a-0bc8-45a8-b04c-dda155b9af1a",
    "types": [
      "songwriters",
      "8"
    ]
  }
}