{
  "header": {
    "description": "Karaoke Mugen Tag File",
    "version": 1
  },
  "tag": {
    "i18n": {
      "eng": "Matto Yamamoto"
    },
    "name": "Matto Yamamoto",
    "tid": "316f24c0-5a5a-4b84-9909-f8d450daea2b",
    "types": [
      "songwriters",
      "8"
    ],
    "repository": "kara.moe",
    "modified_at": "2020-03-31T19:04:36.191Z"
  }
}