{
  "header": {
    "description": "Karaoke Mugen Tag File",
    "version": 1
  },
  "tag": {
    "i18n": {
      "eng": "Matur Suksema"
    },
    "name": "Matur Suksema",
    "tid": "9c5915a7-845a-4d02-b581-287291eb01d1",
    "types": [
      "songwriters",
      "8"
    ],
    "repository": "kara.moe",
    "modified_at": "2020-03-31T19:04:36.191Z"
  }
}