{
  "header": {
    "description": "Karaoke Mugen Tag File",
    "version": 1
  },
  "tag": {
    "i18n": {
      "eng": "Maurizio Molella"
    },
    "name": "Maurizio Molella",
    "repository": "kara.moe",
    "tid": "2c240ef0-ede7-4b3b-bb27-e38dea456b64",
    "types": [
      "songwriters",
      "8"
    ]
  }
}