{
  "header": {
    "description": "Karaoke Mugen Tag File",
    "version": 1
  },
  "tag": {
    "i18n": {
      "eng": "Maurizio Lobina"
    },
    "modified_at": "2020-07-10T22:10:03.716Z",
    "name": "Maurizio Lobina",
    "repository": "kara.moe",
    "tid": "fbe71bb7-f33f-461a-b9b0-b814800a6ae0",
    "types": [
      "songwriters",
      "8"
    ]
  }
}