{
  "header": {
    "description": "Karaoke Mugen Tag File",
    "version": 1
  },
  "tag": {
    "aliases": [
      "Penguin Drum",
      "mawapen",
      "mpd",
      "Пінгвобарабан"
    ],
    "external_database_ids": {
      "anilist": 10721,
      "myanimelist": 10721,
      "kitsu": 6318
    },
    "i18n": {
      "eng": "Penguindrum",
      "fre": "Mawaru Penguindrum",
      "ita": "Mawaru Penguindrum",
      "jpn": "輪るピングドラム",
      "kor": "돌아가는 핑드럼",
      "qro": "Mawaru Penguindrum"
    },
    "modified_at": "2020-03-31T19:04:32.207Z",
    "name": "Mawaru Penguindrum",
    "repository": "kara.moe",
    "tid": "1b9ed73e-d0a9-4251-be35-76eec2210c83",
    "types": [
      "series",
      "1",
      "franchises",
      "18"
    ]
  }
}