{
  "header": {
    "description": "Karaoke Mugen Tag File",
    "version": 1
  },
  "tag": {
    "i18n": {
      "eng": "Max Gronenthal"
    },
    "name": "Max Gronenthal",
    "tid": "ec419e5b-b6db-406f-8c4d-f7f2307b08c5",
    "types": [
      "singers",
      "2"
    ],
    "repository": "kara.moe",
    "modified_at": "2020-03-31T19:04:36.196Z"
  }
}