{
  "header": {
    "description": "Karaoke Mugen Tag File",
    "version": 1
  },
  "tag": {
    "i18n": {
      "eng": "Max Coveri"
    },
    "name": "Max Coveri",
    "tid": "deb65e7f-425e-4ec7-880d-1e75b124245a",
    "types": [
      "singers",
      "2"
    ],
    "repository": "kara.moe",
    "modified_at": "2020-03-31T19:04:36.196Z"
  }
}