{
  "header": {
    "description": "Karaoke Mugen Tag File",
    "version": 1
  },
  "tag": {
    "i18n": {
      "eng": "Maximum the Hormone"
    },
    "name": "Maximum the Hormone",
    "tid": "38917d83-157a-49da-b928-a945ab272c44",
    "types": [
      "singers",
      "2"
    ],
    "repository": "kara.moe",
    "modified_at": "2020-03-31T19:04:36.199Z"
  }
}