{
  "header": {
    "description": "Karaoke Mugen Tag File",
    "version": 1
  },
  "tag": {
    "i18n": {
      "eng": "May'n"
    },
    "name": "May'n",
    "tid": "d538b18e-e59e-4cb1-85e8-d095c50cd3e1",
    "types": [
      "singers",
      "2"
    ],
    "repository": "kara.moe",
    "modified_at": "2020-03-31T19:04:36.202Z"
  }
}