{
  "header": {
    "description": "Karaoke Mugen Tag File",
    "version": 1
  },
  "tag": {
    "i18n": {
      "eng": "MAY'S"
    },
    "modified_at": "2020-08-27T22:15:26.693Z",
    "name": "MAY'S",
    "repository": "kara.moe",
    "tid": "8b7c50af-30e1-4165-948c-90d8dc1495c1",
    "types": [
      "singers",
      "2"
    ]
  }
}