{
  "header": {
    "description": "Karaoke Mugen Tag File",
    "version": 1
  },
  "tag": {
    "i18n": {
      "eng": "May"
    },
    "name": "May",
    "tid": "8f2f659f-483a-4f97-8102-34fab72aba25",
    "types": [
      "authors",
      "6"
    ],
    "repository": "kara.moe",
    "modified_at": "2020-03-31T19:04:36.203Z"
  }
}