{
  "header": {
    "description": "Karaoke Mugen Tag File",
    "version": 1
  },
  "tag": {
    "i18n": {
      "eng": "Mayumi Tanaka"
    },
    "name": "Mayumi Tanaka",
    "tid": "e704f28c-bf77-4dbe-9c68-1b2f9d8755a6",
    "types": [
      "singers",
      "2"
    ],
    "repository": "kara.moe",
    "modified_at": "2020-03-31T19:04:36.219Z"
  }
}