{
  "header": {
    "description": "Karaoke Mugen Tag File",
    "version": 1
  },
  "tag": {
    "i18n": {
      "eng": "Mayu Sagara"
    },
    "name": "Mayu Sagara",
    "repository": "kara.moe",
    "tid": "a76efdf9-3d65-488d-bc3b-9ab329d3fb7f",
    "types": [
      "singers",
      "2"
    ]
  }
}