{
  "header": {
    "description": "Karaoke Mugen Tag File",
    "version": 1
  },
  "tag": {
    "i18n": {
      "eng": "Mayumi Kon"
    },
    "name": "Mayumi Kon",
    "tid": "b4450147-cf88-490d-b318-29e1069be2be",
    "types": [
      "songwriters",
      "8"
    ],
    "repository": "kara.moe",
    "modified_at": "2020-03-31T19:04:36.217Z"
  }
}