{
  "header": {
    "description": "Karaoke Mugen Tag File",
    "version": 1
  },
  "tag": {
    "i18n": {
      "qro": "Mayumi Shindô",
      "jpn": "新堂 真弓"
    },
    "name": "Mayumi Shindô",
    "repository": "kara.moe",
    "tid": "955b4699-681f-45bc-b56f-2e741df1cb01",
    "types": [
      "singers",
      "2"
    ]
  }
}