{
  "header": {
    "description": "Karaoke Mugen Tag File",
    "version": 1
  },
  "tag": {
    "i18n": {
      "eng": "Mayumi Gojô"
    },
    "name": "Mayumi Gojô",
    "tid": "aee3363f-16df-40c6-9403-8e655f3d0b28",
    "types": [
      "singers",
      "2"
    ],
    "repository": "kara.moe",
    "modified_at": "2020-03-31T19:04:36.214Z"
  }
}