{
  "header": {
    "description": "Karaoke Mugen Tag File",
    "version": 1
  },
  "tag": {
    "i18n": {
      "eng": "Mayu Maeshima"
    },
    "modified_at": "2021-02-20T00:11:16.200Z",
    "name": "Mayu Maeshima",
    "repository": "kara.moe",
    "tid": "c250b430-d384-46da-a0bb-594ba061b8a6",
    "types": [
      "singers",
      "2"
    ]
  }
}