{
  "header": {
    "description": "Karaoke Mugen Tag File",
    "version": 1
  },
  "tag": {
    "i18n": {
      "eng": "MBLAQ"
    },
    "name": "MBLAQ",
    "tid": "6ca97d42-db35-4b3a-8f6b-8a14f7887454",
    "types": [
      "singers",
      "2"
    ],
    "repository": "kara.moe",
    "modified_at": "2020-03-31T19:04:36.220Z"
  }
}