{
  "header": {
    "description": "Karaoke Mugen Tag File",
    "version": 1
  },
  "tag": {
    "i18n": {
      "eng": "Media Factory"
    },
    "name": "Media Factory",
    "tid": "b60930ce-3418-4af7-be9c-c07390f50565",
    "types": [
      "creators",
      "4"
    ],
    "repository": "kara.moe",
    "modified_at": "2020-03-31T19:04:36.223Z"
  }
}