{
  "header": {
    "description": "Karaoke Mugen Tag File",
    "version": 1
  },
  "tag": {
    "i18n": {
      "eng": "MediaPro Music"
    },
    "modified_at": "2020-06-01T16:29:55.635Z",
    "name": "MediaPro Music",
    "repository": "kara.moe",
    "tid": "1d085ff7-46a8-4666-9e5e-e8a21205670e",
    "types": [
      "creators",
      "4"
    ]
  }
}