{
  "header": {
    "description": "Karaoke Mugen Tag File",
    "version": 1
  },
  "tag": {
    "i18n": {
      "eng": "Medoc"
    },
    "name": "Medoc",
    "tid": "7a238175-325e-4231-ae68-63ff7c64345e",
    "types": [
      "singers",
      "2"
    ],
    "repository": "kara.moe",
    "modified_at": "2020-03-31T19:04:36.224Z"
  }
}