{
  "header": {
    "description": "Karaoke Mugen Tag File",
    "version": 1
  },
  "tag": {
    "i18n": {
      "eng": "meg rock"
    },
    "name": "meg rock",
    "tid": "81d493c9-3353-40d4-b94d-7fa42d3b4229",
    "types": [
      "songwriters",
      "8",
      "singers",
      "2"
    ],
    "repository": "kara.moe",
    "modified_at": "2020-03-31T19:04:36.225Z"
  }
}