{
  "header": {
    "description": "Karaoke Mugen Tag File",
    "version": 1
  },
  "tag": {
    "i18n": {
      "eng": "Megaslap Records"
    },
    "name": "Megaslap Records",
    "repository": "kara.moe",
    "tid": "4cc67c30-1859-4ee6-9eea-814a6dbe8b66",
    "types": [
      "creators",
      "4"
    ]
  }
}