{
  "header": {
    "description": "Karaoke Mugen Tag File",
    "version": 1
  },
  "tag": {
    "i18n": {
      "eng": "Megamasso"
    },
    "name": "Megamasso",
    "tid": "a6743e74-c611-4052-9a9f-7798d0263e5c",
    "types": [
      "singers",
      "2"
    ],
    "repository": "kara.moe",
    "modified_at": "2020-03-31T19:04:36.227Z"
  }
}