{
  "header": {
    "description": "Karaoke Mugen Tag File",
    "version": 1
  },
  "tag": {
    "i18n": {
      "eng": "Megan Shipman"
    },
    "modified_at": "1982-04-06",
    "name": "Megan Shipman",
    "repository": "kara.moe",
    "tid": "7bfc8a5d-37cf-4f8e-b4af-b169f487296b",
    "types": [
      "songwriters",
      "8",
      "singers",
      "2"
    ]
  }
}