{
  "header": {
    "description": "Karaoke Mugen Tag File",
    "version": 1
  },
  "tag": {
    "i18n": {
      "eng": "Megumi Yamaguchi"
    },
    "name": "Megumi Yamaguchi",
    "tid": "444c3410-c2d8-47c5-be34-a0f7aec2f835",
    "types": [
      "singers",
      "2"
    ],
    "repository": "kara.moe",
    "modified_at": "2020-03-31T19:04:36.244Z"
  }
}