{
  "header": {
    "description": "Karaoke Mugen Tag File",
    "version": 1
  },
  "tag": {
    "i18n": {
      "eng": "Megumi Hayashibara"
    },
    "modified_at": "2020-09-01T21:47:51.751Z",
    "name": "Megumi Hayashibara",
    "repository": "kara.moe",
    "tid": "326621ef-f074-4b13-9921-9728c65a6dff",
    "types": [
      "singers",
      "2",
      "songwriters",
      "8"
    ]
  }
}