{
  "header": {
    "description": "Karaoke Mugen Tag File",
    "version": 1
  },
  "tag": {
    "i18n": {
      "eng": "Megumi Takeuchi"
    },
    "name": "Megumi Takeuchi",
    "tid": "f7ee0e9e-2f4d-460b-98e9-09e535d05adc",
    "types": [
      "songwriters",
      "8"
    ],
    "repository": "kara.moe",
    "modified_at": "2020-03-31T19:04:36.241Z"
  }
}