{
  "header": {
    "description": "Karaoke Mugen Tag File",
    "version": 1
  },
  "tag": {
    "i18n": {
      "eng": "Megumi Maruo"
    },
    "name": "Megumi Maruo",
    "tid": "3f2af771-da7c-46bf-bd92-d93a3791991b",
    "types": [
      "singers",
      "2"
    ],
    "repository": "kara.moe",
    "modified_at": "2020-03-31T19:04:36.234Z"
  }
}