{
  "header": {
    "description": "Karaoke Mugen Tag File",
    "version": 1
  },
  "tag": {
    "i18n": {
      "eng": "Meguro Yuuko"
    },
    "name": "Meguro Yuuko",
    "repository": "kara.moe",
    "tid": "03d98004-0a1d-4918-9edb-812185d62f44",
    "types": [
      "singers",
      "2"
    ]
  }
}