{
  "header": {
    "description": "Karaoke Mugen Tag File",
    "version": 1
  },
  "tag": {
    "i18n": {
      "eng": "Mei Ayakura",
      "jpn": "綾倉 盟"
    },
    "name": "Mei Ayakura",
    "repository": "kara.moe",
    "tid": "df95063b-32c9-4fd9-a725-d50d4cb24da0",
    "types": [
      "singers",
      "2",
      "songwriters",
      "8"
    ]
  }
}