{
  "header": {
    "description": "Karaoke Mugen Tag File",
    "version": 1
  },
  "tag": {
    "i18n": {
      "eng": "Mei Kleinman"
    },
    "modified_at": "2021-01-13T18:12:33.002Z",
    "name": "Mei Kleinman",
    "repository": "kara.moe",
    "tid": "96311483-fd83-4a65-8a69-b9b9d2bd9756",
    "types": [
      "creators",
      "4"
    ]
  }
}