{
  "header": {
    "description": "Karaoke Mugen Tag File",
    "version": 1
  },
  "tag": {
    "i18n": {
      "eng": "Meiko Nakamura"
    },
    "modified_at": "2021-10-17T16:21:36.625Z",
    "name": "Meiko Nakamura",
    "repository": "kara.moe",
    "tid": "13d39973-e625-44d9-bfc6-92b92d575aed",
    "types": [
      "songwriters",
      "8"
    ]
  }
}