{
  "header": {
    "description": "Karaoke Mugen Tag File",
    "version": 1
  },
  "tag": {
    "i18n": {
      "eng": "Meis Clauson"
    },
    "name": "Meis Clauson",
    "tid": "fa1a7021-bb74-4b14-9471-d03db46e460a",
    "types": [
      "songwriters",
      "8"
    ],
    "repository": "kara.moe",
    "modified_at": "2020-03-31T19:04:36.249Z"
  }
}