{
  "header": {
    "description": "Karaoke Mugen Tag File",
    "version": 1
  },
  "tag": {
    "external_database_ids": {
      "anilist": 106206,
      "myanimelist": 38770,
      "kitsu": 42313
    },
    "i18n": {
      "eng": "Detective Conan Movie 23: The Fist of Blue Sapphire",
      "fre": "Détective Conan Film 23 : Le Poing de saphir bleu",
      "jpn": " 名探偵コナン 紺青の拳",
      "qro": "Meitantei Conan: Konjô no Fist"
    },
    "name": "Meitantei Conan: Konjô no Fist",
    "repository": "kara.moe",
    "tid": "acc0d047-33e5-40d7-9470-c60a8869bfc9",
    "types": [
      "series",
      "1"
    ]
  }
}