{
  "header": {
    "description": "Karaoke Mugen Tag File",
    "version": 1
  },
  "tag": {
    "aliases": [
      "Mekaku City Actors",
      "Kagerou Project"
    ],
    "external_database_ids": {
      "anilist": 20541,
      "myanimelist": 21603,
      "kitsu": 8000
    },
    "i18n": {
      "chi": "目隐都市的演绎者",
      "eng": "Mekakucity Actors",
      "jpn": "メカクシティアクターズ",
      "qro": "Mekakucity Actors"
    },
    "modified_at": "2021-11-08T12:26:05.272Z",
    "name": "Mekakucity Actors",
    "repository": "kara.moe",
    "tid": "6d8b395b-a1c2-4eb0-bdd4-5a604be32ce2",
    "types": [
      "series",
      "1"
    ]
  }
}