{
  "header": {
    "description": "Karaoke Mugen Tag File",
    "version": 1
  },
  "tag": {
    "i18n": {
      "eng": "Mélissa Kandiyoti"
    },
    "name": "Mélissa Kandiyoti",
    "tid": "d62b0dae-860d-417d-99fa-8f828efc6524",
    "types": [
      "singers",
      "2"
    ],
    "repository": "kara.moe",
    "modified_at": "2020-03-31T19:04:36.254Z"
  }
}