{
  "header": {
    "description": "Karaoke Mugen Tag File",
    "version": 1
  },
  "tag": {
    "i18n": {
      "eng": "Melissa"
    },
    "modified_at": "2021-04-04T09:52:46.356Z",
    "name": "Melissa",
    "repository": "kara.moe",
    "tid": "9e83d9f0-779a-4579-b58f-71e69b5f2512",
    "types": [
      "songwriters",
      "8"
    ]
  }
}