{
  "header": {
    "description": "Karaoke Mugen Tag File",
    "version": 1
  },
  "tag": {
    "i18n": {
      "eng": "memo65"
    },
    "modified_at": "2020-08-21T18:26:19.371Z",
    "name": "memo65",
    "repository": "kara.moe",
    "tid": "18ff2361-7b48-4a95-97ae-8e13ff51b7e1",
    "types": [
      "authors",
      "6"
    ]
  }
}