{
  "header": {
    "description": "Karaoke Mugen Tag File",
    "version": 1
  },
  "tag": {
    "i18n": {
      "eng": "meOw_Tu"
    },
    "name": "meOw_Tu",
    "repository": "kara.moe",
    "tid": "f96f3735-7226-4f30-8238-8dcb23fdafcc",
    "types": [
      "creators",
      "4"
    ]
  }
}