{
  "header": {
    "description": "Karaoke Mugen Tag File",
    "version": 1
  },
  "tag": {
    "i18n": {
      "eng": "Meredith McCoy"
    },
    "name": "Meredith McCoy",
    "tid": "f2575e69-e369-473a-b6a5-55191088c80b",
    "types": [
      "singers",
      "2",
      "songwriters",
      "8"
    ],
    "repository": "kara.moe",
    "modified_at": "2020-03-31T19:04:36.261Z"
  }
}