{
  "header": {
    "description": "Karaoke Mugen Tag File",
    "version": 1
  },
  "tag": {
    "i18n": {
      "fre": "Message à caractère informatif Deux"
    },
    "modified_at": "2020-03-31T19:04:32.228Z",
    "name": "Message à caractère informatif Deux",
    "repository": "kara.moe",
    "tid": "656b6016-5aa3-406c-96f6-9c4a38edd07a",
    "types": [
      "series",
      "1"
    ]
  }
}