{
  "header": {
    "description": "Karaoke Mugen Tag File",
    "version": 1
  },
  "tag": {
    "i18n": {
      "fre": "Message à caractère informatif"
    },
    "modified_at": "2020-03-31T19:04:32.228Z",
    "name": "Message à caractère informatif",
    "repository": "kara.moe",
    "tid": "d6228d0e-f166-4342-8fc0-da50ac98c1d8",
    "types": [
      "series",
      "1",
      "franchises",
      "18"
    ]
  }
}