{
  "header": {
    "description": "Karaoke Mugen Tag File",
    "version": 1
  },
  "tag": {
    "i18n": {
      "eng": "\"Metal Gear Solid Peace Walker\" Sound Team"
    },
    "name": "\"Metal Gear Solid Peace Walker\" Sound Team",
    "tid": "064b332b-7925-4ddc-b32d-b29e45f37dac",
    "types": [
      "songwriters",
      "8"
    ],
    "repository": "kara.moe",
    "modified_at": "2020-03-31T19:04:36.265Z"
  }
}