{
  "header": {
    "description": "Karaoke Mugen Tag File",
    "version": 1
  },
  "tag": {
    "i18n": {
      "eng": "Metaphor"
    },
    "name": "Metaphor",
    "repository": "kara.moe",
    "tid": "4ae71126-a536-4f5c-bb81-71f57eff6855",
    "types": [
      "songwriters",
      "8"
    ]
  }
}