{
  "header": {
    "description": "Karaoke Mugen Tag File",
    "version": 1
  },
  "tag": {
    "external_database_ids": {},
    "i18n": {
      "eng": "Metal Hero Series",
      "jpn": "メタルヒーローシリーズ"
    },
    "name": "Metal Hero Series",
    "repository": "kara.moe",
    "tid": "dc364e7e-7b58-4721-b6cf-a19a1687dfbc",
    "types": [
      "franchises",
      "18"
    ]
  }
}