{
  "header": {
    "description": "Karaoke Mugen Tag File",
    "version": 1
  },
  "tag": {
    "i18n": {
      "eng": "Method Animation"
    },
    "name": "Method Animation",
    "tid": "9cf6ed33-3e74-4972-bc6e-509b77445212",
    "types": [
      "creators",
      "4"
    ],
    "repository": "kara.moe",
    "modified_at": "2020-03-31T19:04:36.267Z"
  }
}