{
  "header": {
    "description": "Karaoke Mugen Tag File",
    "version": 1
  },
  "tag": {
    "i18n": {
      "eng": "Meychan"
    },
    "name": "Meychan",
    "repository": "kara.moe",
    "tid": "7b9f63c9-f954-405e-a3b5-935aeec32d1a",
    "types": [
      "songwriters",
      "8"
    ]
  }
}