{
  "header": {
    "description": "Karaoke Mugen Tag File",
    "version": 1
  },
  "tag": {
    "i18n": {
      "eng": "MI-KO"
    },
    "name": "MI-KO",
    "tid": "59e84ca1-1826-4fc3-af25-cd28527713c0",
    "types": [
      "songwriters",
      "8"
    ],
    "repository": "kara.moe",
    "modified_at": "2020-03-31T19:04:36.271Z"
  }
}