{
  "header": {
    "description": "Karaoke Mugen Tag File",
    "version": 1
  },
  "tag": {
    "i18n": {
      "eng": "Michishita Momo"
    },
    "name": "Michishita Momo",
    "tid": "ba321e3d-6f79-4a78-b339-db999c418bd8",
    "types": [
      "songwriters",
      "8"
    ],
    "repository": "kara.moe",
    "modified_at": "2020-03-31T19:04:36.299Z"
  }
}