{
  "header": {
    "description": "Karaoke Mugen Tag File",
    "version": 1
  },
  "tag": {
    "i18n": {
      "eng": "Michiko Neya"
    },
    "name": "Michiko Neya",
    "tid": "ac1c8509-44df-4d1d-8d29-5327f32e133e",
    "types": [
      "singers",
      "2"
    ],
    "repository": "kara.moe",
    "modified_at": "2020-03-31T19:04:36.293Z"
  }
}