{
  "header": {
    "description": "Karaoke Mugen Tag File",
    "version": 1
  },
  "tag": {
    "i18n": {
      "eng": "Michihiro Kuroda"
    },
    "name": "Michihiro Kuroda",
    "tid": "5717de57-e7c9-4b3e-9503-6d1a98d175a7",
    "types": [
      "singers",
      "2",
      "songwriters",
      "8"
    ],
    "repository": "kara.moe",
    "modified_at": "2020-03-31T19:04:36.291Z"
  }
}