{
  "header": {
    "description": "Karaoke Mugen Tag File",
    "version": 1
  },
  "tag": {
    "i18n": {
      "eng": "Michael Guy Bowman"
    },
    "name": "Michael Guy Bowman",
    "tid": "27f72040-8e02-411d-a063-3cbd21ce11b7",
    "types": [
      "songwriters",
      "8",
      "singers",
      "2"
    ],
    "repository": "kara.moe",
    "modified_at": "2020-03-31T19:04:36.276Z"
  }
}