{
  "header": {
    "description": "Karaoke Mugen Tag File",
    "version": 1
  },
  "tag": {
    "i18n": {
      "eng": "Michèle Andrée"
    },
    "modified_at": "2021-06-05T20:46:28.228Z",
    "name": "Michèle Andrée",
    "repository": "kara.moe",
    "tid": "271fbd6c-67be-4483-ac6a-6c16a407a39a",
    "types": [
      "singers",
      "2"
    ]
  }
}