{
  "header": {
    "description": "Karaoke Mugen Tag File",
    "version": 1
  },
  "tag": {
    "i18n": {
      "eng": "Michael « Smidi » Smith"
    },
    "name": "Michael « Smidi » Smith",
    "repository": "kara.moe",
    "tid": "c0a5b81e-e270-42f7-8f84-fe5265ca163c",
    "types": [
      "songwriters",
      "8"
    ]
  }
}