{
  "header": {
    "description": "Karaoke Mugen Tag File",
    "version": 1
  },
  "tag": {
    "i18n": {
      "eng": "Michel Eli"
    },
    "name": "Michel Eli",
    "repository": "kara.moe",
    "tid": "a6604d44-5c36-438b-91d0-b0b0edc5fce3",
    "types": [
      "songwriters",
      "8"
    ]
  }
}