{
  "header": {
    "description": "Karaoke Mugen Tag File",
    "version": 1
  },
  "tag": {
    "i18n": {
      "eng": "Michael Whalen"
    },
    "name": "Michael Whalen",
    "tid": "a9ea6e8d-7911-4ee1-8dde-814946059b03",
    "types": [
      "songwriters",
      "8"
    ],
    "repository": "kara.moe",
    "modified_at": "2020-03-31T19:04:36.279Z"
  }
}