{
  "header": {
    "description": "Karaoke Mugen Tag File",
    "version": 1
  },
  "tag": {
    "i18n": {
      "eng": "Michel Salva"
    },
    "name": "Michel Salva",
    "repository": "kara.moe",
    "tid": "78ea0549-5c1a-4a27-9ba8-c7bd37d55ee1",
    "types": [
      "songwriters",
      "8"
    ]
  }
}