{
  "header": {
    "description": "Karaoke Mugen Tag File",
    "version": 1
  },
  "tag": {
    "i18n": {
      "eng": "Michele Monestiroli"
    },
    "name": "Michele Monestiroli",
    "tid": "397ca0a6-2fa3-4aef-bec9-79918200c9c3",
    "types": [
      "songwriters",
      "8"
    ],
    "repository": "kara.moe",
    "modified_at": "2020-03-31T19:04:36.287Z"
  }
}