{
  "header": {
    "description": "Karaoke Mugen Tag File",
    "version": 1
  },
  "tag": {
    "i18n": {
      "eng": "Michaël Youn"
    },
    "name": "Michaël Youn",
    "repository": "kara.moe",
    "tid": "ad13b3e2-d5a7-4dcd-8f44-d32a61a18615",
    "types": [
      "singers",
      "2",
      "songwriters",
      "8"
    ]
  }
}