{
  "header": {
    "description": "Karaoke Mugen Tag File",
    "version": 1
  },
  "tag": {
    "i18n": {
      "eng": "Michie Tomizawa"
    },
    "name": "Michie Tomizawa",
    "tid": "10ce8b6a-4a81-4aef-afc5-e4e4a742d225",
    "types": [
      "singers",
      "2"
    ],
    "repository": "kara.moe",
    "modified_at": "2020-03-31T19:04:36.290Z"
  }
}