{
  "header": {
    "description": "Karaoke Mugen Tag File",
    "version": 1
  },
  "tag": {
    "i18n": {
      "eng": "Michel Lagardère"
    },
    "name": "Michel Lagardère",
    "tid": "c103c08f-a164-4d4f-ab17-db1b761ba5d1",
    "types": [
      "songwriters",
      "8"
    ],
    "repository": "kara.moe",
    "modified_at": "2020-03-31T19:04:36.283Z"
  }
}