{
  "header": {
    "description": "Karaoke Mugen Tag File",
    "version": 1
  },
  "tag": {
    "aliases": [
      "Midara na Ao-chan wa Benkyou ga Dekinai",
      "benkyou"
    ],
    "external_database_ids": {
      "anilist": 105989,
      "myanimelist": 38778,
      "kitsu": 42024
    },
    "i18n": {
      "chi": "淫乱的青酱不能学习",
      "eng": "Ao-chan Can't Study!",
      "jpn": "みだらな青ちゃんは勉強ができない",
      "qro": "Midara na Ao-chan wa Benkyô ga Dekinai"
    },
    "modified_at": "2020-03-31T19:04:32.235Z",
    "name": "Midara na Ao-chan wa Benkyô ga Dekinai",
    "repository": "kara.moe",
    "tid": "4950029e-74f9-4c06-8b3d-f2f208898617",
    "types": [
      "series",
      "1"
    ]
  }
}