{
  "header": {
    "description": "Karaoke Mugen Tag File",
    "version": 1
  },
  "tag": {
    "i18n": {
      "eng": "Miho Tsujibayashi",
      "jpn": "辻林美穂",
      "qro": "Miho Tsujibayashi"
    },
    "name": "Miho Tsujibayashi",
    "tid": "921a2ca7-bf36-4562-b9bc-a1511fb5dbd2",
    "types": [
      "songwriters",
      "8"
    ],
    "repository": "kara.moe",
    "modified_at": "2020-03-31T19:04:36.317Z"
  }
}