{
  "header": {
    "description": "Karaoke Mugen Tag File",
    "version": 1
  },
  "tag": {
    "i18n": {
      "eng": "Miho Sakuma"
    },
    "name": "Miho Sakuma",
    "repository": "kara.moe",
    "tid": "92d2d8dd-3c58-4a65-b28b-a6a3cb707bba",
    "types": [
      "songwriters",
      "8"
    ]
  }
}