{
  "header": {
    "description": "Karaoke Mugen Tag File",
    "version": 1
  },
  "tag": {
    "i18n": {
      "eng": "Mike Sugiyama"
    },
    "name": "Mike Sugiyama",
    "tid": "1c7f0b50-d145-4bc1-8c3c-0e07af80b13c",
    "types": [
      "songwriters",
      "8"
    ],
    "repository": "kara.moe",
    "modified_at": "2020-03-31T19:04:36.330Z"
  }
}