{
  "header": {
    "description": "Karaoke Mugen Tag File",
    "version": 1
  },
  "tag": {
    "i18n": {
      "eng": "Mike Batt"
    },
    "name": "Mike Batt",
    "repository": "kara.moe",
    "tid": "dec2ffb8-fcbf-485c-973d-53ce43a4ad0d",
    "types": [
      "songwriters",
      "8"
    ]
  }
}