{
  "header": {
    "description": "Karaoke Mugen Tag File",
    "version": 1
  },
  "tag": {
    "i18n": {
      "eng": "Miki Fujisue"
    },
    "name": "Miki Fujisue",
    "tid": "e9be2db6-089a-4748-bb7c-e5054c58af19",
    "types": [
      "songwriters",
      "8"
    ],
    "repository": "kara.moe",
    "modified_at": "2020-03-31T19:04:36.333Z"
  }
}