{
  "header": {
    "description": "Karaoke Mugen Tag File",
    "version": 1
  },
  "tag": {
    "i18n": {
      "eng": "Miki Mirai"
    },
    "name": "Miki Mirai",
    "tid": "fa3e9d22-8be4-4e5d-8ee5-d2f681c6397e",
    "types": [
      "singers",
      "2"
    ],
    "repository": "kara.moe",
    "modified_at": "2020-03-31T19:04:36.337Z"
  }
}