{
  "header": {
    "description": "Karaoke Mugen Tag File",
    "version": 1
  },
  "tag": {
    "i18n": {
      "eng": "Miki Natsuyama"
    },
    "name": "Miki Natsuyama",
    "repository": "kara.moe",
    "tid": "d9bbf070-faf7-4d8a-b601-41ce1e5bd02d",
    "types": [
      "singers",
      "2"
    ]
  }
}