{
  "header": {
    "description": "Karaoke Mugen Tag File",
    "version": 1
  },
  "tag": {
    "i18n": {
      "eng": "Miles Luna"
    },
    "modified_at": "2021-11-21T19:49:15.689Z",
    "name": "Miles Luna",
    "repository": "kara.moe",
    "tid": "07bd88e9-746f-4c12-90e1-63f20a7621f4",
    "types": [
      "songwriters",
      "8",
      "singers",
      "2"
    ]
  }
}