{
  "header": {
    "description": "Karaoke Mugen Tag File",
    "version": 1
  },
  "tag": {
    "aliases": [
      "ミルグラム",
      "Milgram Prison"
    ],
    "external_database_ids": {
      "anilist": 128862,
      "myanimelist": 47794,
      "kitsu": 45306
    },
    "i18n": {
      "eng": "MILGRAM",
      "jpn": "MILGRAM -ミルグラム-"
    },
    "modified_at": "2021-11-07T19:58:53.765Z",
    "name": "MILGRAM",
    "repository": "kara.moe",
    "tid": "c0e3120a-d593-4051-87dd-0bc28a803a5f",
    "types": [
      "series",
      "1"
    ]
  }
}