{
  "header": {
    "description": "Karaoke Mugen Tag File",
    "version": 1
  },
  "tag": {
    "i18n": {
      "eng": "MILGRAM The Second Trial"
    },
    "name": "MILGRAM The Second Trial",
    "repository": "kara.moe",
    "tid": "e3dfd83d-8c6d-4037-88d0-358daaf51c54",
    "types": [
      "series",
      "1"
    ]
  }
}