{
  "header": {
    "description": "Karaoke Mugen Tag File",
    "version": 1
  },
  "tag": {
    "i18n": {
      "eng": "Milk Factory"
    },
    "modified_at": "2020-10-10T21:59:06.253Z",
    "name": "Milk Factory",
    "repository": "kara.moe",
    "tid": "1d94c58f-c05c-4f17-9f13-360d32818fb1",
    "types": [
      "creators",
      "4"
    ]
  }
}