{
  "header": {
    "description": "Karaoke Mugen Tag File",
    "version": 1
  },
  "tag": {
    "aliases": [
      "Minakoi",
      "Minami Jûjisei Renka",
      "Nankoi"
    ],
    "i18n": {
      "eng": "Minamijûjisei Renka",
      "jpn": "南十字星恋歌",
      "qro": "Minamijuujisei Renka ~ Southern Cross Love Song"
    },
    "modified_at": "2020-06-21T23:45:31.966Z",
    "name": "Minamijuujisei Renka ~ Southern Cross Love Song",
    "repository": "kara.moe",
    "tid": "70547f53-23f7-48b7-b5d2-b7a3c394ae04",
    "types": [
      "series",
      "1"
    ]
  }
}