{
  "header": {
    "description": "Karaoke Mugen Tag File",
    "version": 1
  },
  "tag": {
    "aliases": [
      "Minamike",
      "mke",
      "mke1",
      "Сёстры Минами",
      "南家三姐妹",
      "미나미家 세자매"
    ],
    "external_database_ids": {
      "anilist": 2963,
      "myanimelist": 2963,
      "kitsu": 2681
    },
    "i18n": {
      "eng": "Minami-ke",
      "jpn": "みなみけ",
      "kor": "미나미가",
      "qro": "Minami-ke"
    },
    "modified_at": "2020-03-31T19:04:32.242Z",
    "name": "Minami-ke",
    "repository": "kara.moe",
    "tid": "91bc1d28-9608-48ef-8b98-c52116a547fe",
    "types": [
      "series",
      "1",
      "franchises",
      "18"
    ]
  }
}