{
  "header": {
    "description": "Karaoke Mugen Tag File",
    "version": 1
  },
  "tag": {
    "i18n": {
      "eng": "Mina"
    },
    "name": "Mina",
    "tid": "10da54fa-1084-441b-8138-e86a71ae50e0",
    "types": [
      "singers",
      "2"
    ],
    "repository": "kara.moe",
    "modified_at": "2020-03-31T19:04:36.362Z"
  }
}