{
  "header": {
    "description": "Karaoke Mugen Tag File",
    "version": 1
  },
  "tag": {
    "i18n": {
      "eng": "MindaRyn"
    },
    "name": "MindaRyn",
    "tid": "d0f301c9-4920-4669-8771-02908cf93d89",
    "types": [
      "creators",
      "4",
      "singers",
      "2"
    ],
    "repository": "kara.moe",
    "modified_at": "2020-03-31T19:04:36.375Z"
  }
}