{
  "header": {
    "description": "Karaoke Mugen Tag File",
    "version": 1
  },
  "tag": {
    "i18n": {
      "eng": "MINEHAHA"
    },
    "name": "MINEHAHA",
    "tid": "c17ecfc4-bb67-488b-bd03-256c5ee046db",
    "types": [
      "singers",
      "2"
    ],
    "repository": "kara.moe",
    "modified_at": "2020-03-31T19:04:36.377Z"
  }
}