{
  "header": {
    "description": "Karaoke Mugen Tag File",
    "version": 1
  },
  "tag": {
    "aliases": [
      "Macross SD",
      "The Super Dimension Fortress Macross SD"
    ],
    "external_database_ids": {
      "myanimelist": 31494,
      "kitsu": 11441
    },
    "i18n": {
      "eng": "Mini-Chara Macross",
      "jpn": "ミニキャラマクロス",
      "qro": "Mini-Chara Macross"
    },
    "modified_at": "2020-03-31T19:04:32.243Z",
    "name": "Mini-Chara Macross",
    "repository": "kara.moe",
    "tid": "6e99e1a8-0f29-4dd0-8333-c2bf92a642ad",
    "types": [
      "series",
      "1"
    ]
  }
}