{
  "header": {
    "description": "Karaoke Mugen Tag File",
    "version": 1
  },
  "tag": {
    "aliases": [
      "Mahou no Princess Minky Momo: Yume wo Dakishimete"
    ],
    "external_database_ids": {
      "anilist": 5953,
      "myanimelist": 5953,
      "kitsu": 4359
    },
    "i18n": {
      "eng": "Magical Princess Minky Momo: Hold on to Your Dreams",
      "fre": "Gigi : Yume wo Dakishimete",
      "jpn": "魔法のプリンセス ミンキーモモ 夢を抱きしめて",
      "qro": "Minky Momo Yume wo dakishimete"
    },
    "modified_at": "2020-03-31T19:04:32.244Z",
    "name": "Minky Momo Yume wo dakishimete",
    "repository": "kara.moe",
    "tid": "320dd0e9-36be-4bec-a917-9aac530d0efc",
    "types": [
      "series",
      "1"
    ]
  }
}