{
  "header": {
    "description": "Karaoke Mugen Tag File",
    "version": 1
  },
  "tag": {
    "i18n": {
      "eng": "mino"
    },
    "name": "mino",
    "tid": "9aec5d08-b177-4973-a19e-d79bcee51865",
    "types": [
      "authors",
      "6"
    ],
    "repository": "kara.moe",
    "modified_at": "2020-03-31T19:04:36.380Z"
  }
}