{
  "header": {
    "description": "Karaoke Mugen Tag File",
    "version": 1
  },
  "tag": {
    "i18n": {
      "eng": "Minori Chihara"
    },
    "name": "Minori Chihara",
    "tid": "8c3ef7dd-5265-4527-ac49-c604ab822add",
    "types": [
      "singers",
      "2",
      "songwriters",
      "8"
    ],
    "repository": "kara.moe",
    "modified_at": "2020-03-31T19:04:36.381Z"
  }
}