{
  "header": {
    "description": "Karaoke Mugen Tag File",
    "version": 1
  },
  "tag": {
    "i18n": {
      "eng": "Minoru Komorita"
    },
    "name": "Minoru Komorita",
    "tid": "2db36ede-f2ef-4e0c-8400-fa1e43453d49",
    "types": [
      "songwriters",
      "8"
    ],
    "repository": "kara.moe",
    "modified_at": "2020-03-31T19:04:36.386Z"
  }
}