{
  "header": {
    "description": "Karaoke Mugen Tag File",
    "version": 1
  },
  "tag": {
    "i18n": {
      "eng": "Minoru Yakohne"
    },
    "modified_at": "2020-08-28T16:41:45.161Z",
    "name": "Minoru Yakohne",
    "repository": "kara.moe",
    "tid": "fffb068d-5eee-4662-99c2-5e62c321b235",
    "types": [
      "songwriters",
      "8"
    ]
  }
}