{
  "header": {
    "description": "Karaoke Mugen Tag File",
    "version": 1
  },
  "tag": {
    "i18n": {
      "eng": "Minori Kojima"
    },
    "name": "Minori Kojima",
    "tid": "37a57ea6-88a5-4a4f-8dd2-e6295424b46e",
    "types": [
      "songwriters",
      "8"
    ],
    "repository": "kara.moe",
    "modified_at": "2020-03-31T19:04:36.382Z"
  }
}