{
  "header": {
    "description": "Karaoke Mugen Tag File",
    "version": 1
  },
  "tag": {
    "i18n": {
      "eng": "MintJam"
    },
    "name": "MintJam",
    "tid": "c1729905-5c2e-4d65-91f0-47543e8978af",
    "types": [
      "songwriters",
      "8"
    ],
    "repository": "kara.moe",
    "modified_at": "2020-03-31T19:04:36.388Z"
  }
}