{
  "header": {
    "description": "Karaoke Mugen Tag File",
    "version": 1
  },
  "tag": {
    "i18n": {
      "eng": "Mio Aoyama"
    },
    "name": "Mio Aoyama",
    "tid": "090c3694-79c4-4cac-a29d-00e2fc3ed6b8",
    "types": [
      "songwriters",
      "8"
    ],
    "repository": "kara.moe",
    "modified_at": "2020-03-31T19:04:36.389Z"
  }
}