{
  "header": {
    "description": "Karaoke Mugen Tag File",
    "version": 1
  },
  "tag": {
    "aliases": [
      "Mirai Koushi Harima SACLA",
      "koushi"
    ],
    "external_database_ids": {
      "anilist": 137895,
      "myanimelist": 21471,
      "kitsu": 8435
    },
    "i18n": {
      "eng": "Mirai Koshi Harima SACLA",
      "fre": "Mirai Kôshi Harima SACLA",
      "jpn": "未来光子 播磨サクラ",
      "qro": "Mirai Kôshi Harima SACLA"
    },
    "modified_at": "2020-03-31T19:04:32.247Z",
    "name": "Mirai Kôshi Harima SACLA",
    "repository": "kara.moe",
    "tid": "d41cabef-5f9e-4b76-977a-07a4d6c21be7",
    "types": [
      "series",
      "1"
    ]
  }
}