{
  "header": {
    "description": "Karaoke Mugen Tag File",
    "version": 1
  },
  "tag": {
    "aliases": [
      "Future Diary (2011)",
      "Gelecek Günlüğü",
      "MN",
      "Щоденник майбутнього",
      "未来日记",
      "The Future Diary"
    ],
    "external_database_ids": {
      "anilist": 10620,
      "myanimelist": 10620,
      "kitsu": 6266
    },
    "i18n": {
      "bul": "Дневник на бъдещето",
      "chi": "未來日記",
      "eng": "Future Diary",
      "fre": "Mirai Nikki",
      "jpn": "未来日記 (2011)",
      "mon": "Ирээдүйн Тэмдэглэл",
      "qro": "Mirai Nikki (2011)",
      "rus": "Дневник будущего"
    },
    "name": "Mirai Nikki (2011)",
    "repository": "kara.moe",
    "tid": "53866872-1671-41b7-8446-bbbfedd14c57",
    "types": [
      "series",
      "1"
    ]
  }
}