{
  "header": {
    "description": "Karaoke Mugen Tag File",
    "version": 1
  },
  "tag": {
    "aliases": [
      "Conan The Boy in Future",
      "FBC",
      "MSC",
      "Mirai Shounen Conan",
      "Конан - мальчик из будущего",
      "عدنان ولينا",
      "shounen"
    ],
    "external_database_ids": {
      "anilist": 302,
      "myanimelist": 302,
      "kitsu": 276
    },
    "i18n": {
      "ara": "مغامرات عدنان",
      "cat": "Conan, el nen del futur",
      "eng": "Future Boy Conan",
      "fre": "Conan le fils du futur",
      "ita": "Conan, il ragazzo del futuro",
      "jpn": "未来少年コナン",
      "por": "Conan, o Rapaz do Futuro",
      "spa": "Conan, el niño del futuro",
      "tur": "Conan",
      "qro": "Mirai Shônen Conan"
    },
    "modified_at": "2020-03-31T19:04:32.250Z",
    "name": "Mirai Shônen Conan",
    "repository": "kara.moe",
    "tid": "d44e9be3-08cd-4873-a006-7b817381f535",
    "types": [
      "series",
      "1"
    ]
  }
}