{
  "header": {
    "description": "Karaoke Mugen Tag File",
    "version": 1
  },
  "tag": {
    "i18n": {
      "eng": "Miranda Cooper"
    },
    "name": "Miranda Cooper",
    "tid": "195e18be-62b1-4339-9be1-5ebec516861a",
    "types": [
      "songwriters",
      "8"
    ],
    "repository": "kara.moe",
    "modified_at": "2020-03-31T19:04:36.394Z"
  }
}