{
  "header": {
    "description": "Karaoke Mugen Tag File",
    "version": 1
  },
  "tag": {
    "i18n": {
      "eng": "Miriam Schell"
    },
    "name": "Miriam Schell",
    "tid": "239bd96d-cb7a-47d2-9a62-fac9d3389a79",
    "types": [
      "singers",
      "2"
    ],
    "repository": "kara.moe",
    "modified_at": "2020-03-31T19:04:36.395Z"
  }
}