{
  "header": {
    "description": "Karaoke Mugen Tag File",
    "version": 1
  },
  "tag": {
    "i18n": {
      "eng": "Mirwais Ahmadzaï"
    },
    "name": "Mirwais Ahmadzaï",
    "repository": "kara.moe",
    "tid": "4b673765-d406-46d2-be6e-d18f460fd66c",
    "types": [
      "songwriters",
      "8"
    ]
  }
}