{
  "header": {
    "description": "Karaoke Mugen Tag File",
    "version": 1
  },
  "tag": {
    "i18n": {
      "eng": "Miryuni"
    },
    "name": "Miryuni",
    "tid": "769d217c-f442-4747-a17c-02340b5edb89",
    "types": [
      "authors",
      "6"
    ],
    "repository": "kara.moe",
    "modified_at": "2020-03-31T19:04:36.397Z"
  }
}