{
  "header": {
    "description": "Karaoke Mugen Tag File",
    "version": 1
  },
  "tag": {
    "i18n": {
      "eng": "Misato"
    },
    "name": "Misato",
    "tid": "6c0658fe-c849-4b32-a261-ddeb98e14109",
    "types": [
      "singers",
      "2"
    ],
    "repository": "kara.moe",
    "modified_at": "2020-03-31T19:04:36.400Z"
  }
}