{
  "header": {
    "description": "Karaoke Mugen Tag File",
    "version": 1
  },
  "tag": {
    "i18n": {
      "eng": "Misato (Alstroemeria Records)"
    },
    "name": "Misato (Alstroemeria Records)",
    "repository": "kara.moe",
    "tid": "b366e7d4-9905-4e54-a97f-dcb26c354210",
    "types": [
      "singers",
      "2"
    ]
  }
}