{
  "header": {
    "description": "Karaoke Mugen Tag File",
    "version": 1
  },
  "tag": {
    "i18n": {
      "eng": "Misa Kobayashi"
    },
    "name": "Misa Kobayashi",
    "repository": "kara.moe",
    "tid": "2a94c68b-0af7-43d8-be43-71d6dacb889e",
    "types": [
      "singers",
      "2"
    ]
  }
}