{
  "header": {
    "description": "Karaoke Mugen Tag File",
    "version": 1
  },
  "tag": {
    "i18n": {
      "qro": "MISA"
    },
    "name": "MISA",
    "repository": "kara.moe",
    "tid": "8d1ac6fa-c5d1-4849-92f8-114eecff79f5",
    "types": [
      "singers",
      "2"
    ]
  }
}