{
  "header": {
    "description": "Karaoke Mugen Tag File",
    "version": 1
  },
  "tag": {
    "i18n": {
      "eng": "Misfit"
    },
    "name": "Misfit",
    "tid": "77182087-7842-4d59-8aa1-d28c430f69c4",
    "types": [
      "songwriters",
      "8"
    ],
    "repository": "kara.moe",
    "modified_at": "2020-03-31T19:04:36.401Z"
  }
}