{
  "header": {
    "description": "Karaoke Mugen Tag File",
    "version": 1
  },
  "tag": {
    "i18n": {
      "eng": "MISIA"
    },
    "name": "MISIA",
    "tid": "1fd001ee-32e0-466f-8c03-056e5a659910",
    "types": [
      "singers",
      "2",
      "songwriters",
      "8"
    ],
    "repository": "kara.moe",
    "modified_at": "2020-03-31T19:04:36.403Z"
  }
}