{
  "header": {
    "description": "Karaoke Mugen Tag File",
    "version": 1
  },
  "tag": {
    "i18n": {
      "eng": "Missing Heart"
    },
    "name": "Missing Heart",
    "repository": "kara.moe",
    "tid": "0c02a9f8-9b0c-4968-a1c4-865d252c4ef5",
    "types": [
      "songwriters",
      "8"
    ],
    "modified_at": "2020-03-31T19:04:36.406Z"
  }
}