{
  "header": {
    "description": "Karaoke Mugen Tag File",
    "version": 1
  },
  "tag": {
    "aliases": [
      "ms monochrome",
      "Пані Монохром"
    ],
    "external_database_ids": {
      "anilist": 20033,
      "myanimelist": 20033,
      "kitsu": 7911
    },
    "i18n": {
      "chi": "黑白小姐",
      "eng": "Miss Monochrome: The Animation",
      "jpn": "ミス・モノクローム -The Animation-",
      "qro": "Miss Monochrome The Animation"
    },
    "modified_at": "2020-06-21T23:45:31.966Z",
    "name": "Miss Monochrome The Animation",
    "repository": "kara.moe",
    "tid": "8001b3cb-c752-4244-86da-f3e2973ff12a",
    "types": [
      "series",
      "1"
    ]
  }
}