{
  "header": {
    "description": "Karaoke Mugen Tag File",
    "version": 1
  },
  "tag": {
    "i18n": {
      "eng": "Mito Tsukino"
    },
    "modified_at": "2021-01-29T01:02:29.165Z",
    "name": "Mito Tsukino",
    "repository": "kara.moe",
    "tid": "0eb4f4c6-6efa-4056-9c2c-c954f168cbc1",
    "types": [
      "singers",
      "2"
    ]
  }
}