{
  "header": {
    "description": "Karaoke Mugen Tag File",
    "version": 1
  },
  "tag": {
    "i18n": {
      "eng": "Mitsuo Hagida"
    },
    "name": "Mitsuo Hagida",
    "repository": "kara.moe",
    "tid": "46cf192e-0902-4d29-bb1b-66ce2097e0ac",
    "types": [
      "songwriters",
      "8"
    ],
    "modified_at": "2020-03-31T19:04:36.421Z"
  }
}