{
  "header": {
    "description": "Karaoke Mugen Tag File",
    "version": 1
  },
  "tag": {
    "i18n": {
      "eng": "Mitsuki Shiokawa"
    },
    "modified_at": "2021-04-17T20:34:33.332Z",
    "name": "Mitsuki Shiokawa",
    "repository": "kara.moe",
    "tid": "89e6f2e5-edba-4b31-82b6-8e83830a5a62",
    "types": [
      "songwriters",
      "8"
    ]
  }
}