{
  "header": {
    "description": "Karaoke Mugen Tag File",
    "version": 1
  },
  "tag": {
    "i18n": {
      "eng": "Miwako Okuda"
    },
    "name": "Miwako Okuda",
    "tid": "85f6c103-4a60-4368-8753-fdfabd694bc7",
    "types": [
      "singers",
      "2"
    ],
    "repository": "kara.moe",
    "modified_at": "2020-03-31T19:04:36.428Z"
  }
}