{
  "header": {
    "description": "Karaoke Mugen Tag File",
    "version": 1
  },
  "tag": {
    "i18n": {
      "eng": "Miwashiba"
    },
    "modified_at": "2020-04-30T22:11:02.719Z",
    "name": "Miwashiba",
    "repository": "kara.moe",
    "tid": "4d85a915-a265-4387-a24e-9fc3af5f2a76",
    "types": [
      "creators",
      "4"
    ]
  }
}