{
  "header": {
    "description": "Karaoke Mugen Tag File",
    "version": 1
  },
  "tag": {
    "i18n": {
      "eng": "Miyabi"
    },
    "name": "Miyabi",
    "tid": "0c2df8d7-f3af-46ec-9fbe-2f4814208e55",
    "types": [
      "songwriters",
      "8"
    ],
    "repository": "kara.moe",
    "modified_at": "2020-03-31T19:04:36.431Z"
  }
}