{
  "header": {
    "description": "Karaoke Mugen Tag File",
    "version": 1
  },
  "tag": {
    "i18n": {
      "eng": "Miyamoto Shunichi"
    },
    "name": "Miyamoto Shunichi",
    "tid": "3bf2ab7e-e29e-4d0c-9c0f-6bb4beafff98",
    "types": [
      "singers",
      "2"
    ],
    "repository": "kara.moe",
    "modified_at": "2020-03-31T19:04:36.432Z"
  }
}