{
  "header": {
    "description": "Karaoke Mugen Tag File",
    "version": 1
  },
  "tag": {
    "i18n": {
      "eng": "Miyu Inoue"
    },
    "name": "Miyu Inoue",
    "tid": "36782856-d932-422d-b25b-aab64c024731",
    "types": [
      "singers",
      "2",
      "songwriters",
      "8"
    ],
    "repository": "kara.moe",
    "modified_at": "2020-03-31T19:04:36.436Z"
  }
}