{
  "header": {
    "description": "Karaoke Mugen Tag File",
    "version": 1
  },
  "tag": {
    "i18n": {
      "jpn": "柚木 美祐",
      "qro": "Miyu Yuzuki"
    },
    "name": "Miyu Yuzuki",
    "repository": "kara.moe",
    "tid": "48f5aa59-56a3-4cec-a403-db5a61b68b9e",
    "types": [
      "songwriters",
      "8"
    ]
  }
}