{
  "header": {
    "description": "Karaoke Mugen Tag File",
    "version": 1
  },
  "tag": {
    "aliases": [
      "Meu"
    ],
    "i18n": {
      "eng": "Miyuki Kajitani"
    },
    "modified_at": "2020-08-18T18:09:32.625Z",
    "name": "Miyuki Kajitani",
    "repository": "kara.moe",
    "tid": "eb97eb73-d6ff-4c0f-8d83-3071e94a9a97",
    "types": [
      "singers",
      "2"
    ]
  }
}