{
  "header": {
    "description": "Karaoke Mugen Tag File",
    "version": 1
  },
  "tag": {
    "i18n": {
      "eng": "Miyu Komaki"
    },
    "name": "Miyu Komaki",
    "tid": "0ba02549-5e19-430c-bc5e-c9c24b63f2ab",
    "types": [
      "singers",
      "2"
    ],
    "repository": "kara.moe",
    "modified_at": "2020-03-31T19:04:36.437Z"
  }
}