{
  "header": {
    "description": "Karaoke Mugen Tag File",
    "version": 1
  },
  "tag": {
    "i18n": {
      "eng": "Miyu Matsuki"
    },
    "name": "Miyu Matsuki",
    "tid": "3fe54d58-95cd-40ce-b636-b9bc093c5714",
    "types": [
      "singers",
      "2"
    ],
    "repository": "kara.moe",
    "modified_at": "2020-03-31T19:04:36.439Z"
  }
}