{
  "header": {
    "description": "Karaoke Mugen Tag File",
    "version": 1
  },
  "tag": {
    "i18n": {
      "eng": "Mizuki Akimoto"
    },
    "name": "Mizuki Akimoto",
    "tid": "fb421dbb-c2d0-49fc-b5af-4270da09e931",
    "types": [
      "songwriters",
      "8"
    ],
    "repository": "kara.moe",
    "modified_at": "2020-03-31T19:04:36.449Z"
  }
}