{
  "header": {
    "description": "Karaoke Mugen Tag File",
    "version": 1
  },
  "tag": {
    "i18n": {
      "eng": "Mizuki Iida"
    },
    "name": "Mizuki Iida",
    "tid": "3e0df342-08f6-4c9e-93b3-72a206576967",
    "types": [
      "singers",
      "2"
    ],
    "repository": "kara.moe",
    "modified_at": "2020-03-31T19:04:36.450Z"
  }
}