{
  "header": {
    "description": "Karaoke Mugen Tag File",
    "version": 1
  },
  "tag": {
    "i18n": {
      "eng": "MIZUE"
    },
    "name": "MIZUE",
    "tid": "8a9830d2-54cf-4180-b436-4a1df748176e",
    "types": [
      "songwriters",
      "8"
    ],
    "repository": "kara.moe",
    "modified_at": "2020-03-31T19:04:36.447Z"
  }
}