{
  "header": {
    "description": "Karaoke Mugen Tag File",
    "version": 1
  },
  "tag": {
    "i18n": {
      "eng": "MOB CHOIR"
    },
    "name": "MOB CHOIR",
    "tid": "a63bd875-79a2-459d-90e8-0651dabd1cfb",
    "types": [
      "singers",
      "2"
    ],
    "repository": "kara.moe",
    "modified_at": "2020-03-31T19:04:36.458Z"
  }
}