{
  "header": {
    "description": "Karaoke Mugen Tag File",
    "version": 1
  },
  "tag": {
    "i18n": {
      "eng": "mobo"
    },
    "modified_at": "2020-12-30T12:23:30.031Z",
    "name": "mobo",
    "repository": "kara.moe",
    "tid": "de740ed8-2737-45e7-8dba-71b7d9d441d4",
    "types": [
      "songwriters",
      "8"
    ]
  }
}