{
  "header": {
    "description": "Karaoke Mugen Tag File",
    "version": 1
  },
  "tag": {
    "i18n": {
      "eng": "Moe Igarashi"
    },
    "modified_at": "2021-08-22T11:44:40.404Z",
    "name": "Moe Igarashi",
    "repository": "kara.moe",
    "tid": "945bf76e-986a-440f-84d0-3a4db9425f46",
    "types": [
      "songwriters",
      "8"
    ]
  }
}