{
  "header": {
    "description": "Karaoke Mugen Tag File",
    "version": 1
  },
  "tag": {
    "aliases": [
      "STAR☆ANIS",
      "STAR ANIS"
    ],
    "i18n": {
      "eng": "Moe Yamazaki"
    },
    "modified_at": "2020-11-22T18:01:58.394Z",
    "name": "Moe Yamazaki",
    "repository": "kara.moe",
    "tid": "18bf5624-6bc6-45ad-8827-d89104ce2368",
    "types": [
      "singers",
      "2"
    ]
  }
}