{
  "header": {
    "description": "Karaoke Mugen Tag File",
    "version": 1
  },
  "tag": {
    "i18n": {
      "eng": "Moguri"
    },
    "name": "Moguri",
    "tid": "dd83cef4-1bf0-48eb-aa27-7a5f720603ee",
    "types": [
      "singers",
      "2"
    ],
    "repository": "kara.moe",
    "modified_at": "2020-03-31T19:04:36.464Z"
  }
}