{
  "header": {
    "description": "Karaoke Mugen Tag File",
    "version": 1
  },
  "tag": {
    "i18n": {
      "eng": "Moi Renart"
    },
    "modified_at": "2020-03-31T19:04:32.264Z",
    "name": "Moi Renart",
    "repository": "kara.moe",
    "tid": "dc8ee0b9-0d54-4414-9961-3f21315c094d",
    "types": [
      "series",
      "1"
    ]
  }
}