{
  "header": {
    "description": "Karaoke Mugen Tag File",
    "version": 1
  },
  "tag": {
    "i18n": {
      "eng": "mol-74"
    },
    "name": "mol-74",
    "repository": "kara.moe",
    "tid": "4ba43c06-058b-4ca9-82ed-86ac6b8dafc4",
    "types": [
      "singers",
      "2",
      "songwriters",
      "8"
    ]
  }
}