{
  "header": {
    "description": "Karaoke Mugen Tag File",
    "version": 1
  },
  "tag": {
    "external_database_ids": {
      "anilist": 21050,
      "myanimelist": 30014,
      "kitsu": 10466
    },
    "i18n": {
      "eng": "Momokuri",
      "qro": "Momokuri",
      "jpn": "ももくり"
    },
    "name": "Momokuri",
    "repository": "kara.moe",
    "tid": "1da1477c-721c-40ce-9145-6bff3f5af3e3",
    "types": [
      "series",
      "1"
    ]
  }
}