{
  "header": {
    "description": "Karaoke Mugen Tag File",
    "version": 1
  },
  "tag": {
    "i18n": {
      "eng": "Mona"
    },
    "name": "Mona",
    "repository": "kara.moe",
    "tid": "df1bed11-964e-439c-a4dc-79c2cc9373e1",
    "types": [
      "songwriters",
      "8"
    ]
  }
}