{
  "header": {
    "description": "Karaoke Mugen Tag File",
    "version": 1
  },
  "tag": {
    "i18n": {
      "eng": "Monica Ward"
    },
    "name": "Monica Ward",
    "repository": "kara.moe",
    "tid": "4baed7cf-b326-467f-ba28-ea4e3ef8c85e",
    "types": [
      "singers",
      "2"
    ]
  }
}