{
  "header": {
    "description": "Karaoke Mugen Tag File",
    "version": 1
  },
  "tag": {
    "i18n": {
      "eng": "monkey113"
    },
    "modified_at": "2021-05-21T21:30:29.398Z",
    "name": "monkey113",
    "repository": "kara.moe",
    "tid": "16099de5-685a-45c8-b9e3-519ed3518b04",
    "types": [
      "authors",
      "6"
    ]
  }
}