{
  "header": {
    "description": "Karaoke Mugen Tag File",
    "version": 1
  },
  "tag": {
    "i18n": {
      "eng": "monk d vframeze"
    },
    "name": "monk d vframeze",
    "repository": "kara.moe",
    "tid": "4b87442a-2e7a-49a0-961d-5596f08e1a14",
    "types": [
      "authors",
      "6"
    ]
  }
}