{
  "header": {
    "description": "Karaoke Mugen Tag File",
    "version": 1
  },
  "tag": {
    "aliases": [
      "MONONO怪",
      "bakeneko",
      "Мононоке"
    ],
    "external_database_ids": {
      "anilist": 2246,
      "myanimelist": 2246,
      "kitsu": 2035
    },
    "i18n": {
      "eng": "Mononoke",
      "jpn": "モノノ怪",
      "kor": "모노노케",
      "qro": "Mononoke"
    },
    "modified_at": "2021-01-18T21:22:56.118Z",
    "name": "Mononoke",
    "repository": "kara.moe",
    "tid": "d462d303-80bd-4398-b5a3-855ed47bf82d",
    "types": [
      "series",
      "1"
    ]
  }
}