{
  "header": {
    "description": "Karaoke Mugen Tag File",
    "version": 1
  },
  "tag": {
    "aliases": [
      "MH 3",
      "MH3"
    ],
    "i18n": {
      "eng": "Monster Hunter Tri",
      "jpn": "Monster Hunter Tri",
      "qro": "Monster Hunter Tri"
    },
    "modified_at": "2020-03-31T19:04:32.273Z",
    "name": "Monster Hunter Tri",
    "repository": "kara.moe",
    "tid": "52cd1dd3-c591-467e-bf10-da2577634850",
    "types": [
      "series",
      "1"
    ]
  }
}