{
  "header": {
    "description": "Karaoke Mugen Tag File",
    "version": 1
  },
  "tag": {
    "i18n": {
      "eng": "Monta"
    },
    "name": "Monta",
    "tid": "8f4fc6c1-290b-4de7-bc9a-be95107bc976",
    "types": [
      "songwriters",
      "8"
    ],
    "repository": "kara.moe",
    "modified_at": "2020-03-31T19:04:36.488Z"
  }
}