{
  "header": {
    "description": "Karaoke Mugen Tag File",
    "version": 1
  },
  "tag": {
    "i18n": {
      "eng": "Montaigne"
    },
    "name": "Montaigne",
    "repository": "kara.moe",
    "tid": "ca5cf5a0-ff75-4025-b6ef-ddec95b79fef",
    "types": [
      "singers",
      "2"
    ]
  }
}