{
  "header": {
    "description": "Karaoke Mugen Tag File",
    "version": 1
  },
  "tag": {
    "i18n": {
      "eng": "Moreno Grossi Pometti"
    },
    "name": "Moreno Grossi Pometti",
    "tid": "9b6a437d-8979-44ff-962e-dbcccb03d42e",
    "types": [
      "songwriters",
      "8"
    ],
    "repository": "kara.moe",
    "modified_at": "2020-03-31T19:04:36.492Z"
  }
}