{
  "header": {
    "description": "Karaoke Mugen Tag File",
    "version": 1
  },
  "tag": {
    "i18n": {
      "eng": "Morihisa Yamamoto"
    },
    "name": "Morihisa Yamamoto",
    "tid": "7bc34a31-621f-43d3-a61e-d319f8db5c82",
    "types": [
      "songwriters",
      "8"
    ],
    "repository": "kara.moe",
    "modified_at": "2020-03-31T19:04:36.495Z"
  }
}