{
  "header": {
    "description": "Karaoke Mugen Tag File",
    "version": 1
  },
  "tag": {
    "i18n": {
      "eng": "MORONI"
    },
    "name": "MORONI",
    "tid": "3fcb74c1-d3e9-4086-91e4-dfe9ae6bd0c1",
    "types": [
      "songwriters",
      "8"
    ],
    "repository": "kara.moe",
    "modified_at": "2020-03-31T19:04:36.498Z"
  }
}