{
  "header": {
    "description": "Karaoke Mugen Tag File",
    "version": 1
  },
  "tag": {
    "i18n": {
      "eng": "Morrigan"
    },
    "name": "Morrigan",
    "tid": "c079f0cf-2da4-414e-9b6c-0bb55a914ddd",
    "types": [
      "songwriters",
      "8"
    ],
    "repository": "kara.moe",
    "modified_at": "2020-03-31T19:04:36.498Z"
  }
}