{
  "header": {
    "description": "Karaoke Mugen Tag File",
    "version": 1
  },
  "tag": {
    "aliases": [
      "Drucker in the Dug-Out",
      "Moshi Koukou Yakyuu no Joshi Manager ga Drucker no Management o Yondara",
      "Moshi Kôkô Yakyû no Joshi Manager ga Drucker no Management o Yondara",
      "What if a Female Manager of a High School Baseball Team Read Drucker's 'Management'?",
      "Какво ако мениджърката на един гимназиален бейзболен отбор прочете Мениджмънт на Дръкър?",
      "もし高校野球の女子マネージャーがドラッカーの『マネジメント』を読んだら",
      "如果杜拉"
    ],
    "external_database_ids": {
      "anilist": 9693,
      "myanimelist": 9693,
      "kitsu": 5829
    },
    "i18n": {
      "eng": "Moshidora",
      "jpn": "もしドラ",
      "qro": "Moshidora"
    },
    "modified_at": "2020-03-31T19:04:32.276Z",
    "name": "Moshidora",
    "repository": "kara.moe",
    "tid": "fbec4971-c064-4825-bd49-6c7981a98155",
    "types": [
      "series",
      "1"
    ]
  }
}