{
  "header": {
    "description": "Karaoke Mugen Tag File",
    "version": 1
  },
  "tag": {
    "i18n": {
      "eng": "Earthbound"
    },
    "modified_at": "2020-03-31T19:04:32.276Z",
    "name": "Mother",
    "repository": "kara.moe",
    "tid": "8ad26343-1d44-4c23-92f6-b6302404a697",
    "types": [
      "series",
      "1"
    ]
  }
}