{
  "header": {
    "description": "Karaoke Mugen Tag File",
    "version": 1
  },
  "tag": {
    "aliases": [
      "Akuno-P"
    ],
    "i18n": {
      "eng": "mothy"
    },
    "name": "mothy",
    "tid": "37c8a285-0ba5-4b66-8e07-fd17e0b0f235",
    "types": [
      "songwriters",
      "8"
    ],
    "repository": "kara.moe",
    "modified_at": "2020-03-31T19:04:36.500Z"
  }
}