{
  "header": {
    "description": "Karaoke Mugen Tag File",
    "version": 1
  },
  "tag": {
    "aliases": [
      ""
    ],
    "i18n": {
      "eng": "Motto! Haramase! Honoo no Oppai Chô Ero ♥ Appli Gakuen",
      "jpn": "もっと！孕ませ！炎のおっぱい超エロ♥アプリ学園！",
      "qro": "Motto! Haramase! Honoo no Oppai Chô Ero ♥ Appli Gakuen"
    },
    "modified_at": "2020-10-10T22:01:22.582Z",
    "name": "Motto! Haramase! Honoo no Oppai Chô Ero ♥ Appli Gakuen",
    "repository": "kara.moe",
    "tid": "da3a972d-6189-495c-aab5-593707d83090",
    "types": [
      "series",
      "1"
    ]
  }
}