{
  "header": {
    "description": "Karaoke Mugen Tag File",
    "version": 1
  },
  "tag": {
    "i18n": {
      "eng": "motto"
    },
    "name": "motto",
    "repository": "kara.moe",
    "tid": "21963342-2c22-4e16-b471-b28f494fb72f",
    "types": [
      "creators",
      "4"
    ]
  }
}