{
  "header": {
    "description": "Karaoke Mugen Tag File",
    "version": 1
  },
  "tag": {
    "aliases": [
      "Mustafa Gündoğdu"
    ],
    "i18n": {
      "eng": "Mousse T."
    },
    "name": "Mousse T.",
    "repository": "kara.moe",
    "tid": "27d440fd-7b19-4f3e-8715-bd65feb87ce0",
    "types": [
      "songwriters",
      "8"
    ]
  }
}