{
  "header": {
    "description": "Karaoke Mugen Tag File",
    "version": 1
  },
  "tag": {
    "aliases": [
      "Mousou Dairinin",
      "PAG",
      "Para Agent",
      "Paranojos Agentas",
      "Paranoya Etmeni",
      "Агент Паранойя",
      "mousou"
    ],
    "external_database_ids": {
      "anilist": 323,
      "myanimelist": 323,
      "kitsu": 290
    },
    "i18n": {
      "bul": "Щамът Параноя",
      "eng": "Paranoia Agent",
      "fin": "Paranoia Agent",
      "fre": "Paranoia Agent",
      "ger": "Paranoia Agent",
      "ita": "Paranoia Agent",
      "jpn": "妄想代理人",
      "pol": "Paranoia Agent",
      "rus": "Агент паранойи",
      "spa": "Paranoia Agent",
      "swe": "Paranoia Agent",
      "qro": "Môsô Dairinin"
    },
    "modified_at": "2020-03-31T19:04:32.280Z",
    "name": "Môsô Dairinin",
    "repository": "kara.moe",
    "tid": "98b78721-45e3-4bb1-8956-6b3a571b78e6",
    "types": [
      "series",
      "1"
    ]
  }
}