{
  "header": {
    "description": "Karaoke Mugen Tag File",
    "version": 1
  },
  "tag": {
    "i18n": {},
    "name": "mrn",
    "repository": "kara.moe",
    "tid": "6897ee65-ff51-4492-8604-ea9795789c2a",
    "types": [
      "creators",
      "4"
    ]
  }
}