{
  "header": {
    "description": "Karaoke Mugen Tag File",
    "version": 1
  },
  "tag": {
    "aliases": [
      "Смертоносная принцесса",
      "マーダー プリンセス",
      "杀戮公主",
      "虐杀姬"
    ],
    "external_database_ids": {
      "anilist": 1696,
      "myanimelist": 1696,
      "kitsu": 1524
    },
    "i18n": {
      "eng": "Murder Princess",
      "fre": "Murder Princess",
      "ger": "Murder Princess",
      "jpn": "MURDER PRINCESS",
      "pol": "Murder Princess",
      "qro": "Murder Princess"
    },
    "modified_at": "2020-03-31T19:04:32.285Z",
    "name": "Murder Princess",
    "repository": "kara.moe",
    "tid": "397be4e2-da0a-4fe0-82fd-bf0a876f159d",
    "types": [
      "series",
      "1"
    ]
  }
}