{
  "header": {
    "description": "Karaoke Mugen Tag File",
    "version": 1
  },
  "tag": {
    "i18n": {
      "eng": "Muroi Miki"
    },
    "name": "Muroi Miki",
    "tid": "538e8e8d-bca6-4291-b708-fdfc008ce9c2",
    "types": [
      "songwriters",
      "8"
    ],
    "repository": "kara.moe",
    "modified_at": "2020-03-31T19:04:36.521Z"
  }
}