{
  "header": {
    "description": "Karaoke Mugen Tag File",
    "version": 1
  },
  "tag": {
    "i18n": {
      "eng": "Murray Foster"
    },
    "name": "Murray Foster",
    "repository": "kara.moe",
    "tid": "9d1e7f70-73c0-4d84-8f55-a3f456c6abf5",
    "types": [
      "singers",
      "2"
    ]
  }
}