{
  "header": {
    "description": "Karaoke Mugen Tag File",
    "version": 1
  },
  "tag": {
    "external_database_ids": {
      "anilist": 108465,
      "myanimelist": 39535,
      "kitsu": 42323
    },
    "i18n": {
      "eng": "Mushoku Tensei: Jobless Reincarnation",
      "jpn": "無職転生~異世界行ったら本気だす~",
      "qro": "Mushoku Tensei: Isekai Ittara Honki Dasu"
    },
    "modified_at": "2021-02-07T20:52:50.506Z",
    "name": "Mushoku Tensei: Isekai Ittara Honki Dasu",
    "repository": "kara.moe",
    "tid": "4005ebb8-68ea-4891-9f24-98effbb70e08",
    "types": [
      "series",
      "1"
    ]
  }
}