{
  "header": {
    "description": "Karaoke Mugen Tag File",
    "version": 1
  },
  "tag": {
    "i18n": {
      "eng": "Mute"
    },
    "modified_at": "2020-07-03T20:55:39.692Z",
    "name": "Mute",
    "repository": "kara.moe",
    "tid": "b4e4e74d-dbca-45d2-ae81-8ed6932295d7",
    "types": [
      "creators",
      "4"
    ]
  }
}