{
  "header": {
    "description": "Karaoke Mugen Tag File",
    "version": 1
  },
  "tag": {
    "i18n": {
      "eng": "Mutsumi Tamura"
    },
    "name": "Mutsumi Tamura",
    "tid": "fd6f28bb-7848-4948-a5db-685a4e5e98e1",
    "types": [
      "singers",
      "2"
    ],
    "repository": "kara.moe",
    "modified_at": "2020-03-31T19:04:36.525Z"
  }
}