{
  "header": {
    "description": "Karaoke Mugen Tag File",
    "version": 1
  },
  "tag": {
    "external_database_ids": {
      "anilist": 142985,
      "kitsu": 45656,
      "myanimelist": 50638
    },
    "i18n": {
      "eng": "Muv-Luv Alternative Season 2",
      "jpn": "マブラヴ オルタネイティヴ (2022)",
      "qro": "Muv-Luv Alternative (2022)"
    },
    "name": "Muv-Luv Alternative S2",
    "repository": "kara.moe",
    "tid": "8323db5a-2905-461c-9023-02d8e74344c4",
    "types": [
      "series",
      "1"
    ]
  }
}