{
  "header": {
    "description": "Karaoke Mugen Tag File",
    "version": 1
  },
  "tag": {
    "i18n": {
      "eng": "N's"
    },
    "name": "N's",
    "tid": "723bede0-ee94-4f79-823b-05ff6b0b79a9",
    "types": [
      "singers",
      "2"
    ],
    "repository": "kara.moe",
    "modified_at": "2020-03-31T19:04:36.532Z"
  }
}