{
  "header": {
    "description": "Karaoke Mugen Tag File",
    "version": 1
  },
  "tag": {
    "i18n": {
      "eng": "nachi"
    },
    "modified_at": "2021-08-01T23:10:27.516Z",
    "name": "nachi",
    "repository": "kara.moe",
    "tid": "2144df86-8e54-4b61-9c59-e5cfa6c60a05",
    "types": [
      "singers",
      "2"
    ]
  }
}