{
  "header": {
    "description": "Karaoke Mugen Tag File",
    "version": 1
  },
  "tag": {
    "i18n": {
      "eng": "Nagae Kuwahara"
    },
    "name": "Nagae Kuwahara",
    "tid": "dc5f7439-43f5-4182-839c-0c18fba93f75",
    "types": [
      "songwriters",
      "8"
    ],
    "repository": "kara.moe",
    "modified_at": "2020-03-31T19:04:36.537Z"
  }
}