{
  "header": {
    "description": "Karaoke Mugen Tag File",
    "version": 1
  },
  "tag": {
    "aliases": [
      "nagi"
    ],
    "i18n": {
      "eng": "Nagi Yanagi"
    },
    "modified_at": "2020-08-22T19:09:30.022Z",
    "name": "Nagi Yanagi",
    "repository": "kara.moe",
    "tid": "1d4bf64f-1fc5-4e97-a6cf-a15ab7517229",
    "types": [
      "singers",
      "2",
      "songwriters",
      "8"
    ]
  }
}