{
  "header": {
    "description": "Karaoke Mugen Tag File",
    "version": 1
  },
  "tag": {
    "i18n": {
      "eng": "Naho"
    },
    "name": "Naho",
    "tid": "110c26e0-5f97-4c74-bfd2-53c586ab9e59",
    "types": [
      "songwriters",
      "8"
    ],
    "repository": "kara.moe",
    "modified_at": "2020-03-31T19:04:36.543Z"
  }
}