{
  "header": {
    "description": "Karaoke Mugen Tag File",
    "version": 1
  },
  "tag": {
    "i18n": {
      "eng": "Naitô Duran Haruhisa"
    },
    "name": "Naitô Duran Haruhisa",
    "tid": "7f750cb0-03a8-4acf-974e-72b3d16a9a05",
    "types": [
      "songwriters",
      "8"
    ],
    "repository": "kara.moe",
    "modified_at": "2020-03-31T19:04:36.544Z"
  }
}