{
  "header": {
    "description": "Karaoke Mugen Tag File",
    "version": 1
  },
  "tag": {
    "i18n": {
      "eng": "Nakahata Kiyoshi"
    },
    "modified_at": "2020-06-11T11:27:53.813Z",
    "name": "Nakahata Kiyoshi",
    "repository": "kara.moe",
    "tid": "dbd8cd89-31bd-4093-ac8c-7a73fd15ba67",
    "types": [
      "songwriters",
      "8"
    ]
  }
}