{
  "header": {
    "description": "Karaoke Mugen Tag File",
    "version": 1
  },
  "tag": {
    "i18n": {
      "eng": "Nakata Caos"
    },
    "name": "Nakata Caos",
    "tid": "e6987b07-1a99-4b8b-a7d4-98243d324c82",
    "types": [
      "songwriters",
      "8"
    ],
    "repository": "kara.moe",
    "modified_at": "2020-03-31T19:04:36.548Z"
  }
}