{
  "header": {
    "description": "Karaoke Mugen Tag File",
    "version": 1
  },
  "tag": {
    "i18n": {
      "eng": "Nami Kurokawa"
    },
    "name": "Nami Kurokawa",
    "tid": "e07b123a-4b7e-439b-bab6-19265494f5aa",
    "types": [
      "singers",
      "2"
    ],
    "repository": "kara.moe",
    "modified_at": "2020-03-31T19:04:36.552Z"
  }
}