{
  "header": {
    "description": "Karaoke Mugen Tag File",
    "version": 1
  },
  "tag": {
    "external_database_ids": {
      "anilist": 112353,
      "myanimelist": 40513,
      "kitsu": 42614
    },
    "i18n": {
      "eng": "Waves, listen to me!",
      "fre": "Born to be on air!",
      "jpn": "波よ聞いてくれ",
      "qro": "Nami yo kiite kure"
    },
    "modified_at": "2020-04-03T21:52:47.322Z",
    "name": "Nami yo kiite kure",
    "repository": "kara.moe",
    "tid": "d2006f62-99ea-4d74-ab9e-fe8367016b26",
    "types": [
      "series",
      "1"
    ]
  }
}