{
  "header": {
    "description": "Karaoke Mugen Tag File",
    "version": 1
  },
  "tag": {
    "i18n": {
      "eng": "*namirin"
    },
    "modified_at": "2020-07-14T20:53:58.491Z",
    "name": "*namirin",
    "repository": "kara.moe",
    "tid": "928fec09-66a8-4c0b-b89b-6a35361b764c",
    "types": [
      "singers",
      "2"
    ]
  }
}