{
  "header": {
    "description": "Karaoke Mugen Tag File",
    "version": 1
  },
  "tag": {
    "i18n": {
      "eng": "Nana Mitani "
    },
    "name": "Nana Mitani",
    "repository": "kara.moe",
    "tid": "2ea32222-5d77-453f-a3e4-de5e117e1880",
    "types": [
      "singers",
      "2"
    ]
  }
}