{
  "header": {
    "description": "Karaoke Mugen Tag File",
    "version": 1
  },
  "tag": {
    "i18n": {
      "eng": "Nanoka Hara"
    },
    "name": "Nanoka Hara",
    "repository": "kara.moe",
    "tid": "d732c322-2c1c-4a53-b14b-a417e96c21e6",
    "types": [
      "singers",
      "2"
    ]
  }
}