{
  "header": {
    "description": "Karaoke Mugen Tag File",
    "version": 1
  },
  "tag": {
    "i18n": {
      "eng": "Nao Tamura"
    },
    "name": "Nao Tamura",
    "tid": "5300a329-f9a9-406f-9c61-b57e38fd208d",
    "types": [
      "singers",
      "2"
    ],
    "repository": "kara.moe",
    "modified_at": "2020-03-31T19:04:36.573Z"
  }
}