{
  "header": {
    "description": "Karaoke Mugen Tag File",
    "version": 1
  },
  "tag": {
    "i18n": {
      "eng": "Nao Watanabe"
    },
    "name": "Nao Watanabe",
    "repository": "kara.moe",
    "tid": "83750683-7d56-47e6-8fad-f15c650dccd4",
    "types": [
      "creators",
      "4"
    ]
  }
}