{
  "header": {
    "description": "Karaoke Mugen Tag File",
    "version": 1
  },
  "tag": {
    "i18n": {
      "eng": "Naoki Echizen'ya"
    },
    "name": "Naoki Echizen'ya",
    "repository": "kara.moe",
    "tid": "06d41188-1634-40f2-babc-72bdc94b7c86",
    "types": [
      "songwriters",
      "8"
    ],
    "modified_at": "2020-03-31T19:04:36.579Z"
  }
}