{
  "header": {
    "description": "Karaoke Mugen Tag File",
    "version": 1
  },
  "tag": {
    "i18n": {
      "eng": "N∀OKI"
    },
    "name": "N∀OKI",
    "tid": "72b56bc0-2dc2-4391-881f-39f57920e4c1",
    "types": [
      "songwriters",
      "8"
    ],
    "repository": "kara.moe",
    "modified_at": "2020-03-31T19:04:36.586Z"
  }
}