{
  "header": {
    "description": "Karaoke Mugen Tag File",
    "version": 1
  },
  "tag": {
    "i18n": {
      "eng": "Naoki Kobayashi"
    },
    "name": "Naoki Kobayashi",
    "tid": "91670300-54f4-4162-93f9-b9cb69a54169",
    "types": [
      "songwriters",
      "8"
    ],
    "repository": "kara.moe",
    "modified_at": "2020-03-31T19:04:36.581Z"
  }
}