{
  "header": {
    "description": "Karaoke Mugen Tag File",
    "version": 1
  },
  "tag": {
    "i18n": {
      "eng": "Naomi Guren"
    },
    "name": "Naomi Guren",
    "repository": "kara.moe",
    "tid": "e22f5800-35f4-4341-aaea-1861abf45c4b",
    "types": [
      "songwriters",
      "8"
    ]
  }
}