{
  "header": {
    "description": "Karaoke Mugen Tag File",
    "version": 1
  },
  "tag": {
    "i18n": {
      "eng": "Naoshi Tsuda"
    },
    "name": "Naoshi Tsuda",
    "tid": "0bc259cb-a928-4632-9cb0-a94f8407d593",
    "types": [
      "songwriters",
      "8"
    ],
    "repository": "kara.moe",
    "modified_at": "2020-03-31T19:04:36.597Z"
  }
}