{
  "header": {
    "description": "Karaoke Mugen Tag File",
    "version": 1
  },
  "tag": {
    "i18n": {
      "eng": "Naoto Fûga"
    },
    "name": "Naoto Fûga",
    "tid": "39c8ccca-c14e-44ca-975d-9410e1a6279c",
    "types": [
      "singers",
      "2"
    ],
    "repository": "kara.moe",
    "modified_at": "2020-03-31T19:04:36.598Z"
  }
}