{
  "header": {
    "description": "Karaoke Mugen Tag File",
    "version": 1
  },
  "tag": {
    "i18n": {
      "eng": "Naruyoshi Kikuchi"
    },
    "name": "Naruyoshi Kikuchi",
    "tid": "4d6f4bf4-1b62-49de-9ba2-2c16f9eb1933",
    "types": [
      "songwriters",
      "8"
    ],
    "repository": "kara.moe",
    "modified_at": "2020-03-31T19:04:36.613Z"
  }
}