{
  "header": {
    "description": "Karaoke Mugen Tag File",
    "version": 1
  },
  "tag": {
    "i18n": {
      "eng": "Naruya Ihashi"
    },
    "name": "Naruya Ihashi",
    "tid": "4a63fef3-5dc0-4c80-b829-59b5df8b451b",
    "types": [
      "songwriters",
      "8"
    ],
    "repository": "kara.moe",
    "modified_at": "2020-03-31T19:04:36.613Z"
  }
}