{
  "header": {
    "description": "Karaoke Mugen Tag File",
    "version": 1
  },
  "tag": {
    "i18n": {
      "eng": "Nathanaël de Rincquesen"
    },
    "name": "Nathanaël de Rincquesen",
    "tid": "a39d109c-6517-40d2-ba88-323744532888",
    "types": [
      "singers",
      "2"
    ],
    "repository": "kara.moe",
    "modified_at": "2020-03-31T19:04:36.620Z"
  }
}