{
  "header": {
    "description": "Karaoke Mugen Tag File",
    "version": 1
  },
  "tag": {
    "i18n": {
      "eng": "Natsuko Kondô"
    },
    "name": "Natsuko Kondô",
    "tid": "998e4103-d98d-493d-9b42-439a415a8ef1",
    "types": [
      "songwriters",
      "8"
    ],
    "repository": "kara.moe",
    "modified_at": "2020-03-31T19:04:36.626Z"
  }
}