{
  "header": {
    "description": "Karaoke Mugen Tag File",
    "version": 1
  },
  "tag": {
    "i18n": {
      "eng": "Natsuo"
    },
    "name": "Natsuo",
    "repository": "kara.moe",
    "tid": "765362b9-9186-4719-8e46-db386289fd86",
    "types": [
      "singers",
      "2",
      "songwriters",
      "8",
      "creators",
      "4"
    ]
  }
}