{
  "header": {
    "description": "Karaoke Mugen Tag File",
    "version": 1
  },
  "tag": {
    "i18n": {
      "eng": "Natsumi Watanabe",
      "jpn": "渡辺 なつみ"
    },
    "name": "Natsumi Watanabe",
    "repository": "kara.moe",
    "tid": "8c67056d-d624-4a36-a2d6-1de8e015fdea",
    "types": [
      "songwriters",
      "8"
    ]
  }
}