{
  "header": {
    "description": "Karaoke Mugen Tag File",
    "version": 1
  },
  "tag": {
    "i18n": {
      "eng": "Natsuko Karedô"
    },
    "name": "Natsuko Karedô",
    "tid": "91a5c422-8b93-4309-9a71-554ce4b2d2be",
    "types": [
      "songwriters",
      "8"
    ],
    "repository": "kara.moe",
    "modified_at": "2020-03-31T19:04:36.625Z"
  }
}