{
  "header": {
    "description": "Karaoke Mugen Tag File",
    "version": 1
  },
  "tag": {
    "i18n": {
      "eng": "Natsumi Kiyôra"
    },
    "name": "Natsumi Kiyôra",
    "tid": "50586cd0-4bc1-410c-bfcb-f99fdd705a9d",
    "types": [
      "singers",
      "2",
      "songwriters",
      "8"
    ],
    "repository": "kara.moe",
    "modified_at": "2020-03-31T19:04:36.630Z"
  }
}