{
  "header": {
    "description": "Karaoke Mugen Tag File",
    "version": 1
  },
  "tag": {
    "aliases": [
      "Le Pacte des Yokaï",
      "Le Pacte des Yôkai",
      "Natsume 1",
      "Natsume Yuujinchou",
      "Natsume's Friend Book",
      "Pakt der Yokai",
      "Quyển sổ người bạn",
      "ny",
      "ny1",
      "nyc",
      "Το βιβλίο των φίλων του Νατσούμε",
      "Тетрадь дружбы Нацумэ",
      "کتابِ دوستان ناتسومه",
      "yuujinchou"
    ],
    "external_database_ids": {
      "anilist": 4081,
      "myanimelist": 4081,
      "kitsu": 3453
    },
    "i18n": {
      "chi": "夏目友人帐",
      "eng": "Natsume's Book of Friends",
      "fre": "Natsume Yûjinchô",
      "jpn": "夏目友人帳",
      "tha": "นัตสึเมะกับบันทึกพิศวง",
      "qro": "Natsume Yûjinchô"
    },
    "modified_at": "2020-06-21T23:45:31.966Z",
    "name": "Natsume Yûjinchô",
    "repository": "kara.moe",
    "tid": "3e71c48d-12c2-498b-93e8-c4bf42010bbe",
    "types": [
      "series",
      "1",
      "franchises",
      "18"
    ]
  }
}