{
  "header": {
    "description": "Karaoke Mugen Tag File",
    "version": 1
  },
  "tag": {
    "i18n": {
      "eng": "Natural High"
    },
    "name": "Natural High",
    "tid": "8dd626fd-44ff-4cde-9630-84bb22de481d",
    "types": [
      "singers",
      "2",
      "creators",
      "4"
    ],
    "repository": "kara.moe",
    "modified_at": "2020-03-31T19:04:36.637Z"
  }
}