{
  "header": {
    "description": "Karaoke Mugen Tag File",
    "version": 1
  },
  "tag": {
    "i18n": {
      "eng": "Needless★Girls+"
    },
    "name": "Needless★Girls+",
    "tid": "1c5d1d5c-38a7-4fe4-be65-35b04dd6bdf1",
    "types": [
      "singers",
      "2"
    ],
    "repository": "kara.moe",
    "modified_at": "2020-03-31T19:04:36.649Z"
  }
}