{
  "header": {
    "description": "Karaoke Mugen Tag File",
    "version": 1
  },
  "tag": {
    "aliases": [
      "Изгои",
      "超能力大战/死刑判决"
    ],
    "external_database_ids": {
      "anilist": 6030,
      "myanimelist": 6030,
      "kitsu": 4391
    },
    "i18n": {
      "eng": "Needless",
      "jpn": "ニードレス",
      "qro": "Needless"
    },
    "modified_at": "2020-03-31T19:04:32.321Z",
    "name": "Needless",
    "repository": "kara.moe",
    "tid": "e83593a4-8a1d-4530-b846-c32d1d511dce",
    "types": [
      "series",
      "1"
    ]
  }
}