{
  "header": {
    "description": "Karaoke Mugen Tag File",
    "version": 1
  },
  "tag": {
    "i18n": {
      "eng": "NEGI☆U"
    },
    "name": "NEGI☆U",
    "repository": "kara.moe",
    "tid": "040767f5-6445-45e0-84ab-8f17611e66bb",
    "types": [
      "singergroups",
      "17"
    ]
  }
}