{
  "header": {
    "description": "Karaoke Mugen Tag File",
    "version": 1
  },
  "tag": {
    "i18n": {
      "eng": "Neichel"
    },
    "name": "Neichel",
    "repository": "kara.moe",
    "tid": "8e1b2975-53ea-4719-b5c6-26ce02ed0903",
    "types": [
      "singers",
      "2"
    ]
  }
}