{
  "header": {
    "description": "Karaoke Mugen Tag File",
    "version": 1
  },
  "tag": {
    "i18n": {
      "eng": "Nekono Razu"
    },
    "name": "Nekono Razu",
    "repository": "kara.moe",
    "tid": "1a16c913-14a4-421d-bf9c-f3549fc1d7f0",
    "types": [
      "songwriters",
      "8"
    ]
  }
}