{
  "header": {
    "description": "Karaoke Mugen Tag File",
    "version": 1
  },
  "tag": {
    "i18n": {
      "eng": "Neku"
    },
    "name": "Neku",
    "repository": "kara.moe",
    "tid": "2a77a649-ac2b-4c81-a460-326634ce5bef",
    "types": [
      "singers",
      "2",
      "songwriters",
      "8"
    ]
  }
}