{
  "header": {
    "description": "Karaoke Mugen Tag File",
    "version": 1
  },
  "tag": {
    "i18n": {
      "eng": "Nemureru Hana wa Haru o Matsu. ‒spring come‒",
      "jpn": "眠れる花は春をまつ。 -spring come-",
      "qro": "Nemureru Hana wa Haru wo Matsu"
    },
    "modified_at": "2020-03-31T19:04:32.327Z",
    "name": "Nemureru Hana wa Haru wo Matsu",
    "repository": "kara.moe",
    "tid": "31cf16d8-eaf6-423e-a069-4d5cfbfb6bae",
    "types": [
      "series",
      "1"
    ]
  }
}