{
  "header": {
    "description": "Karaoke Mugen Tag File",
    "version": 1
  },
  "tag": {
    "external_database_ids": {
      "anilist": 19653,
      "myanimelist": 19653,
      "kitsu": 7874
    },
    "i18n": {
      "eng": "Neppu Kairiku Bushi Road",
      "jpn": "熱風海陸ブシロード",
      "qro": "Neppu Kairiku Bushi Road"
    },
    "modified_at": "2020-03-31T19:04:32.327Z",
    "name": "Neppu Kairiku Bushi Road",
    "repository": "kara.moe",
    "tid": "927086f7-b14f-4f09-a8a9-566cbca2a9a7",
    "types": [
      "series",
      "1"
    ]
  }
}