{
  "header": {
    "description": "Karaoke Mugen Tag File",
    "version": 1
  },
  "tag": {
    "aliases": [
      "And You Thought There Are No Girls On the Internet?",
      "Netgame no Yome wa Onnanoko ja Nai to Omotta?",
      "NetoYome"
    ],
    "external_database_ids": {
      "anilist": 21290,
      "myanimelist": 31404,
      "kitsu": 11319
    },
    "i18n": {
      "eng": "And You Thought There Is Never a Girl Online?",
      "jpn": "ネトゲの嫁は女の子じゃないと思った?",
      "qro": "Netoge no Yome wa Onnanoko ja Nai to Omotta?"
    },
    "modified_at": "2020-03-31T19:04:32.329Z",
    "name": "Netoge no Yome wa Onnanoko ja Nai to Omotta?",
    "repository": "kara.moe",
    "tid": "645eee94-fe5b-4818-8237-0e45b87e57e3",
    "types": [
      "series",
      "1"
    ]
  }
}