{
  "header": {
    "description": "Karaoke Mugen Tag File",
    "version": 1
  },
  "tag": {
    "i18n": {
      "eng": "Nickelodeon Animation Studio"
    },
    "modified_at": "2021-02-19T11:01:53.339Z",
    "name": "Nickelodeon Animation Studio",
    "repository": "kara.moe",
    "tid": "3327d5ec-3cf0-417c-963f-759343684ccc",
    "types": [
      "creators",
      "4"
    ]
  }
}