{
  "header": {
    "description": "Karaoke Mugen Tag File",
    "version": 1
  },
  "tag": {
    "i18n": {
      "eng": "NICO Touches the Walls"
    },
    "name": "NICO Touches the Walls",
    "tid": "a276e267-16f4-4e42-b7db-4c6a5fe5ce16",
    "types": [
      "singers",
      "2"
    ],
    "repository": "kara.moe",
    "modified_at": "2020-03-31T19:04:36.676Z"
  }
}