{
  "header": {
    "description": "Karaoke Mugen Tag File",
    "version": 1
  },
  "tag": {
    "i18n": {
      "eng": "Nicolas et Bruno"
    },
    "name": "Nicolas et Bruno",
    "tid": "818b95a7-2441-4360-990b-a829cf170246",
    "types": [
      "creators",
      "4"
    ],
    "repository": "kara.moe",
    "modified_at": "2020-03-31T19:04:36.679Z"
  }
}