{
  "header": {
    "description": "Karaoke Mugen Tag File",
    "version": 1
  },
  "tag": {
    "i18n": {
      "eng": "Nicolas Luciani"
    },
    "name": "Nicolas Luciani",
    "repository": "kara.moe",
    "tid": "676d66d2-0374-4b5b-9c50-718e1fad17f2",
    "types": [
      "songwriters",
      "8"
    ]
  }
}