{
  "header": {
    "description": "Karaoke Mugen Tag File",
    "version": 1
  },
  "tag": {
    "i18n": {
      "eng": "Nicsuhi"
    },
    "name": "Nicsuhi",
    "tid": "4f4bc85b-cf80-419b-b441-9c7d0168b949",
    "types": [
      "creators",
      "4"
    ],
    "repository": "kara.moe",
    "modified_at": "2020-03-31T19:04:36.680Z"
  }
}