{
  "header": {
    "description": "Karaoke Mugen Tag File",
    "version": 1
  },
  "tag": {
    "i18n": {
      "eng": "Nidaime Dai-ni Bungei-bu"
    },
    "name": "Nidaime Dai-ni Bungei-bu",
    "tid": "475ed33e-aefc-4601-a97f-160e7a022be9",
    "types": [
      "singers",
      "2"
    ],
    "repository": "kara.moe",
    "modified_at": "2020-03-31T19:04:36.680Z"
  }
}