{
  "header": {
    "description": "Karaoke Mugen Tag File",
    "version": 1
  },
  "tag": {
    "i18n": {
      "eng": "Nier: Automata Ver1.1a"
    },
    "name": "Nier: Automata Ver1.1a",
    "repository": "kara.moe",
    "tid": "87893f5f-8bcb-45d6-b9cf-a5482c529990",
    "types": [
      "series",
      "1"
    ]
  }
}