{
  "header": {
    "description": "Karaoke Mugen Tag File",
    "version": 1
  },
  "tag": {
    "i18n": {
      "eng": "Nightcore"
    },
    "modified_at": "2021-01-07T09:48:39.949Z",
    "name": "Nightcore",
    "repository": "kara.moe",
    "tid": "2f3cff62-04a1-42e9-acad-09b11fc94d6c",
    "types": [
      "versions",
      "14"
    ]
  }
}