{
  "header": {
    "description": "Karaoke Mugen Tag File",
    "version": 1
  },
  "tag": {
    "i18n": {
      "eng": "Nightmare"
    },
    "name": "Nightmare",
    "tid": "978e3cf8-407b-49c7-a1b9-414c00a11c5b",
    "types": [
      "singers",
      "2"
    ],
    "repository": "kara.moe",
    "modified_at": "2020-03-31T19:04:36.684Z"
  }
}