{
  "header": {
    "description": "Karaoke Mugen Tag File",
    "version": 1
  },
  "tag": {
    "i18n": {
      "eng": "Nihon Sunrise Kikaku-shitsu"
    },
    "name": "Nihon Sunrise Kikaku-shitsu",
    "tid": "2543b37e-3ea0-4564-b327-83f518187d0e",
    "types": [
      "songwriters",
      "8"
    ],
    "repository": "kara.moe",
    "modified_at": "2020-03-31T19:04:36.688Z"
  }
}