{
  "header": {
    "description": "Karaoke Mugen Tag File",
    "version": 1
  },
  "tag": {
    "i18n": {
      "eng": "Nina Persson"
    },
    "name": "Nina Persson",
    "repository": "kara.moe",
    "tid": "65e81f3f-1189-4bf0-a9f4-573ad141ffcf",
    "types": [
      "songwriters",
      "8"
    ]
  }
}