{
  "header": {
    "description": "Karaoke Mugen Tag File",
    "version": 1
  },
  "tag": {
    "aliases": [
      "Rumiko Takahashi"
    ],
    "external_database_ids": {
      "anilist": 2016,
      "myanimelist": 2016,
      "kitsu": 1815
    },
    "i18n": {
      "eng": "Mermaid Forest",
      "jpn": "人魚の森",
      "qro": "Ningyou no mori"
    },
    "modified_at": "2020-03-31T19:04:32.338Z",
    "name": "Ningyou no mori",
    "repository": "kara.moe",
    "tid": "32056631-7bd4-4748-aa70-b5ae143e44a9",
    "types": [
      "series",
      "1"
    ]
  }
}