{
  "header": {
    "description": "Karaoke Mugen Tag File",
    "version": 1
  },
  "tag": {
    "i18n": {
      "eng": "Ninni Carucci"
    },
    "modified_at": "2020-07-12T23:10:06.759Z",
    "name": "Ninni Carucci",
    "repository": "kara.moe",
    "tid": "351383e6-0b4c-4508-9457-55b92a670767",
    "types": [
      "songwriters",
      "8"
    ]
  }
}