{
  "header": {
    "description": "Karaoke Mugen Tag File",
    "version": 1
  },
  "tag": {
    "i18n": {
      "eng": "ninomae"
    },
    "modified_at": "2020-05-01T20:36:17.375Z",
    "name": "ninomae",
    "repository": "kara.moe",
    "tid": "ea795c61-6f79-4037-b3b1-1e377b4f62e4",
    "types": [
      "creators",
      "4"
    ]
  }
}