{
  "header": {
    "description": "Karaoke Mugen Tag File",
    "version": 1
  },
  "tag": {
    "aliases": [
      "Enduring Wind Squadron Hurricaneger",
      "Ninpuu Sentai Hurricaneger",
      "ninpuu"
    ],
    "i18n": {
      "eng": "Ninpû Sentai Hurricaneger",
      "jpn": "忍風戦隊ハリケンジャー",
      "qro": "Ninpû Sentai Hurricaneger"
    },
    "modified_at": "2020-03-31T19:04:32.344Z",
    "name": "Ninpû Sentai Hurricaneger",
    "repository": "kara.moe",
    "tid": "28846809-0ed2-4c80-a9db-9e721f3c678f",
    "types": [
      "series",
      "1"
    ]
  }
}