{
  "header": {
    "description": "Karaoke Mugen Tag File",
    "version": 1
  },
  "tag": {
    "i18n": {
      "eng": "Nippon Gendai"
    },
    "name": "Nippon Gendai",
    "tid": "e4c8f402-253e-4c7a-97d8-1fb6141eaf60",
    "types": [
      "creators",
      "4"
    ],
    "repository": "kara.moe",
    "modified_at": "2020-03-31T19:04:36.699Z"
  }
}