{
  "header": {
    "description": "Karaoke Mugen Tag File",
    "version": 1
  },
  "tag": {
    "i18n": {
      "eng": "Nippon TV"
    },
    "name": "Nippon TV",
    "tid": "3f387258-40e6-4581-bd02-7090d052ee4f",
    "types": [
      "creators",
      "4"
    ],
    "repository": "kara.moe",
    "modified_at": "2020-03-31T19:04:36.700Z"
  }
}