{
  "header": {
    "description": "Karaoke Mugen Tag File",
    "version": 1
  },
  "tag": {
    "aliases": [
      "False Love"
    ],
    "external_database_ids": {
      "anilist": 18897,
      "myanimelist": 18897,
      "kitsu": 7821
    },
    "i18n": {
      "eng": "Nisekoi",
      "jpn": "ニセコイ",
      "qro": "Nisekoi"
    },
    "modified_at": "2020-03-31T19:04:32.345Z",
    "name": "Nisekoi",
    "repository": "kara.moe",
    "tid": "648dcd60-220b-4211-a8ce-23086723374b",
    "types": [
      "series",
      "1",
      "franchises",
      "18"
    ]
  }
}