{
  "header": {
    "description": "Karaoke Mugen Tag File",
    "version": 1
  },
  "tag": {
    "aliases": [
      "Bogustory",
      "Impostory",
      "Monogatari Series",
      "NMG",
      "가짜 이야기"
    ],
    "external_database_ids": {
      "anilist": 11597,
      "myanimelist": 11597,
      "kitsu": 6546
    },
    "i18n": {
      "chi": "伪物语",
      "eng": "Nisemonogatari",
      "jpn": "偽物語",
      "kor": "니세모노가타리",
      "qro": "Nisemonogatari"
    },
    "modified_at": "2020-03-31T19:04:32.345Z",
    "name": "Nisemonogatari",
    "repository": "kara.moe",
    "tid": "62309243-9578-4358-a71b-719983813476",
    "types": [
      "series",
      "1"
    ]
  }
}