{
  "header": {
    "description": "Karaoke Mugen Tag File",
    "version": 1
  },
  "tag": {
    "i18n": {
      "eng": "Nissy"
    },
    "name": "Nissy",
    "tid": "3e82edbd-a252-480f-b6d4-469a11943418",
    "types": [
      "songwriters",
      "8"
    ],
    "repository": "kara.moe",
    "modified_at": "2020-03-31T19:04:36.706Z"
  }
}