{
  "header": {
    "description": "Karaoke Mugen Tag File",
    "version": 1
  },
  "tag": {
    "i18n": {
      "eng": "Nittayasutto Gesshirirakku"
    },
    "name": "Nittayasutto Gesshirirakku",
    "tid": "ee366e80-b534-4fee-b4f4-443463ad53c1",
    "types": [
      "songwriters",
      "8"
    ],
    "repository": "kara.moe",
    "modified_at": "2020-03-31T19:04:36.708Z"
  }
}