{
  "header": {
    "description": "Karaoke Mugen Tag File",
    "version": 1
  },
  "tag": {
    "aliases": [
      "NGL",
      "SF hard-boiled the gun smoke frifts muzzle talks"
    ],
    "external_database_ids": {
      "anilist": 112803,
      "kitsu": 42880,
      "myanimelist": 40529
    },
    "i18n": {
      "eng": "No Guns Life (2nd season)",
      "fre": "No Guns Life (saison 2)",
      "jpn": "ノー・ガンズ・ライフ (2020)"
    },
    "name": "No Guns Life (2020)",
    "repository": "kara.moe",
    "tid": "13387f40-a120-4bad-ae82-20f75c11d693",
    "types": [
      "series",
      "1"
    ]
  }
}