{
  "header": {
    "description": "Karaoke Mugen Tag File",
    "version": 1
  },
  "tag": {
    "i18n": {
      "eng": "NO NAME"
    },
    "name": "NO NAME",
    "tid": "5bbc56f1-c25e-4ba8-b95c-e8af0fb69ffe",
    "types": [
      "singers",
      "2"
    ],
    "repository": "kara.moe",
    "modified_at": "2020-03-31T19:04:36.710Z"
  }
}