{
  "header": {
    "description": "Karaoke Mugen Tag File",
    "version": 1
  },
  "tag": {
    "i18n": {
      "eng": "NOBODY"
    },
    "name": "NOBODY",
    "tid": "758fcdfb-b389-4031-b343-06c4df2a98b8",
    "types": [
      "songwriters",
      "8"
    ],
    "repository": "kara.moe",
    "modified_at": "2020-03-31T19:04:36.717Z"
  }
}