{
  "header": {
    "description": "Karaoke Mugen Tag File",
    "version": 1
  },
  "tag": {
    "i18n": {
      "eng": "Nobuhiko Kashiwara"
    },
    "name": "Nobuhiko Kashiwara",
    "tid": "768d401d-9c98-4149-877c-b12c75d8664a",
    "types": [
      "singers",
      "2",
      "songwriters",
      "8"
    ],
    "repository": "kara.moe",
    "modified_at": "2020-03-31T19:04:36.721Z"
  }
}