{
  "header": {
    "description": "Karaoke Mugen Tag File",
    "version": 1
  },
  "tag": {
    "aliases": [
      "Mr. Nobunaga's Young Bride"
    ],
    "external_database_ids": {
      "anilist": 106239,
      "myanimelist": 38814,
      "kitsu": 42093
    },
    "i18n": {
      "eng": "Nobunaga teacher's young bride",
      "chi": "信长老师的幼妻",
      "kor": "노부나가 선생님의 어린 아내",
      "jpn": "ノブナガ先生の幼な妻",
      "qro": "Nobunaga-sensei no Osanazuma"
    },
    "modified_at": "2020-05-24T16:40:41.232Z",
    "name": "Nobunaga-sensei no Osanazuma",
    "repository": "kara.moe",
    "tid": "4a431854-d610-4565-9ff5-9e9abf9dbf18",
    "types": [
      "series",
      "1"
    ]
  }
}