{
  "header": {
    "description": "Karaoke Mugen Tag File",
    "version": 1
  },
  "tag": {
    "i18n": {
      "eng": "Nobuhiko Satô"
    },
    "name": "Nobuhiko Satô",
    "tid": "feb0f2b5-0d3a-4885-8324-77e167809f93",
    "types": [
      "songwriters",
      "8"
    ],
    "repository": "kara.moe",
    "modified_at": "2020-03-31T19:04:36.722Z"
  }
}