{
  "header": {
    "description": "Karaoke Mugen Tag File",
    "version": 1
  },
  "tag": {
    "i18n": {
      "eng": "Nobuyuki Ishida"
    },
    "name": "Nobuyuki Ishida",
    "tid": "37efcb7e-699c-4785-a83c-d487979ed716",
    "types": [
      "singers",
      "2"
    ],
    "repository": "kara.moe",
    "modified_at": "2020-03-31T19:04:36.732Z"
  }
}