{
  "header": {
    "description": "Karaoke Mugen Tag File",
    "version": 1
  },
  "tag": {
    "i18n": {
      "eng": "nobuko"
    },
    "name": "nobuko",
    "tid": "e8f493b9-ff8d-49e5-ba79-ffd6470c5654",
    "types": [
      "singers",
      "2"
    ],
    "repository": "kara.moe",
    "modified_at": "2020-03-31T19:04:36.725Z"
  }
}