{
  "header": {
    "description": "Karaoke Mugen Tag File",
    "version": 1
  },
  "tag": {
    "i18n": {
      "eng": "Nodame Cantabile",
      "jpn": "のだめカンタービレ",
      "qro": "Nodame Cantabile (Drama)"
    },
    "modified_at": "2020-03-31T19:04:32.353Z",
    "name": "Nodame Cantabile (Drama)",
    "repository": "kara.moe",
    "tid": "1b1658bd-a757-4731-858b-49fc710668a9",
    "types": [
      "series",
      "1"
    ]
  }
}