{
  "header": {
    "description": "Karaoke Mugen Tag File",
    "version": 1
  },
  "tag": {
    "i18n": {
      "eng": "noire"
    },
    "name": "noire",
    "repository": "kara.moe",
    "tid": "c73c3c1a-3b60-49f0-a943-bbf84559fa6d",
    "types": [
      "songwriters",
      "8"
    ]
  }
}