{
  "header": {
    "description": "Karaoke Mugen Tag File",
    "version": 1
  },
  "tag": {
    "i18n": {
      "eng": "Noir Désir"
    },
    "modified_at": "2020-07-11T21:42:49.322Z",
    "name": "Noir Désir",
    "repository": "kara.moe",
    "tid": "7566720a-7aec-4add-a474-30cb96901b72",
    "types": [
      "songwriters",
      "8",
      "singers",
      "2"
    ]
  }
}