{
  "header": {
    "description": "Karaoke Mugen Tag File",
    "version": 1
  },
  "tag": {
    "i18n": {
      "eng": "Noise Factory"
    },
    "modified_at": "2021-10-04T00:18:03.062Z",
    "name": "Noise Factory",
    "repository": "kara.moe",
    "tid": "d3c429b7-fdd8-4445-a5ed-e79530153210",
    "types": [
      "creators",
      "4"
    ]
  }
}