{
  "header": {
    "description": "Karaoke Mugen Tag File",
    "version": 1
  },
  "tag": {
    "i18n": {
      "fre": "Nolife"
    },
    "modified_at": "2020-06-01T11:59:07.860Z",
    "name": "Nolife",
    "repository": "kara.moe",
    "tid": "ccb4b4e8-4a7b-47ef-9b1b-2f98dd8196d7",
    "types": [
      "series",
      "1",
      "creators",
      "4"
    ]
  }
}