{
  "header": {
    "description": "Karaoke Mugen Tag File",
    "version": 1
  },
  "tag": {
    "i18n": {
      "eng": "nonoc"
    },
    "name": "nonoc",
    "tid": "b9a32dcb-b60b-4f51-8687-6f45d1224d88",
    "types": [
      "singers",
      "2"
    ],
    "repository": "kara.moe",
    "modified_at": "2020-03-31T19:04:36.747Z"
  }
}