{
  "header": {
    "description": "Karaoke Mugen Tag File",
    "version": 1
  },
  "tag": {
    "i18n": {
      "eng": "Nori Shiraishi"
    },
    "modified_at": "2020-08-19T16:54:32.347Z",
    "name": "Nori Shiraishi",
    "repository": "kara.moe",
    "tid": "41079a7a-bc7e-4c7c-8de0-94b831476142",
    "types": [
      "songwriters",
      "8"
    ]
  }
}