{
  "header": {
    "description": "Karaoke Mugen Tag File",
    "version": 1
  },
  "tag": {
    "i18n": {
      "eng": "Norio Sakai"
    },
    "name": "Norio Sakai",
    "tid": "e1210b51-a94f-4974-9c15-d7e9d981b4c5",
    "types": [
      "singers",
      "2",
      "songwriters",
      "8"
    ],
    "repository": "kara.moe",
    "modified_at": "2020-03-31T19:04:36.763Z"
  }
}