{
  "header": {
    "description": "Karaoke Mugen Tag File",
    "version": 1
  },
  "tag": {
    "i18n": {
      "eng": "Noriyuki Kamikura"
    },
    "name": "Noriyuki Kamikura",
    "tid": "609d4bf4-143b-451d-a99d-c3e761dd16e2",
    "types": [
      "songwriters",
      "8"
    ],
    "repository": "kara.moe",
    "modified_at": "2020-03-31T19:04:36.766Z"
  }
}