{
  "header": {
    "description": "Karaoke Mugen Tag File",
    "version": 1
  },
  "tag": {
    "i18n": {
      "eng": "Norio Wakamoto"
    },
    "modified_at": "2021-02-28T00:21:48.608Z",
    "name": "Norio Wakamoto",
    "repository": "kara.moe",
    "tid": "cd0dcb40-78b1-49f3-8750-eaa2d3794e77",
    "types": [
      "singers",
      "2"
    ]
  }
}