{
  "header": {
    "description": "Karaoke Mugen Tag File",
    "version": 1
  },
  "tag": {
    "i18n": {
      "eng": "Noriko Watanabe"
    },
    "name": "Noriko Watanabe",
    "tid": "2e266443-c04b-4433-a873-a668fc2cff0c",
    "types": [
      "singers",
      "2"
    ],
    "repository": "kara.moe",
    "modified_at": "2020-03-31T19:04:36.762Z"
  }
}