{
  "header": {
    "description": "Karaoke Mugen Tag File",
    "version": 1
  },
  "tag": {
    "i18n": {
      "eng": "Noria Shiraishi"
    },
    "name": "Noria Shiraishi",
    "tid": "be112775-8516-4f2b-bdb7-9819be0de81e",
    "types": [
      "singers",
      "2",
      "songwriters",
      "8"
    ],
    "repository": "kara.moe",
    "modified_at": "2020-03-31T19:04:36.752Z"
  }
}