{
  "header": {
    "description": "Karaoke Mugen Tag File",
    "version": 1
  },
  "tag": {
    "i18n": {
      "eng": "Noriko Kawahara"
    },
    "name": "Noriko Kawahara",
    "tid": "80d9b7c9-fec3-4c42-ab9d-c432167ba216",
    "types": [
      "singers",
      "2"
    ],
    "repository": "kara.moe",
    "modified_at": "2020-03-31T19:04:36.759Z"
  }
}