{
  "header": {
    "description": "Karaoke Mugen Tag File",
    "version": 1
  },
  "tag": {
    "i18n": {
      "eng": "Noriko Ogawa"
    },
    "name": "Noriko Ogawa",
    "tid": "9f4c4c1b-d313-491e-869e-8edc9ae035a7",
    "types": [
      "singers",
      "2"
    ],
    "repository": "kara.moe",
    "modified_at": "2020-03-31T19:04:36.761Z"
  }
}