{
  "header": {
    "description": "Karaoke Mugen Tag File",
    "version": 1
  },
  "tag": {
    "i18n": {
      "eng": "Nou"
    },
    "modified_at": "2020-12-12T21:56:40.559Z",
    "name": "Nou",
    "repository": "kara.moe",
    "tid": "46744cce-633b-4788-931c-12f6e86e25d8",
    "types": [
      "creators",
      "4"
    ]
  }
}