{
  "header": {
    "description": "Karaoke Mugen Tag File",
    "version": 1
  },
  "tag": {
    "i18n": {
      "eng": "Nozomi Yamamoto"
    },
    "name": "Nozomi Yamamoto",
    "tid": "4c6501f8-16c1-48e0-8156-dc541f1dc099",
    "types": [
      "singers",
      "2"
    ],
    "repository": "kara.moe",
    "modified_at": "2020-03-31T19:04:36.778Z"
  }
}