{
  "header": {
    "description": "Karaoke Mugen Tag File",
    "version": 1
  },
  "tag": {
    "aliases": [
      "Nozomi Inoue"
    ],
    "i18n": {
      "eng": "Nozomi Inôe"
    },
    "modified_at": "2020-08-18T21:33:49.656Z",
    "name": "Nozomi Inôe",
    "repository": "kara.moe",
    "tid": "49cd38d3-df6a-451d-8ca6-eb2489c318a2",
    "types": [
      "singers",
      "2",
      "songwriters",
      "8"
    ]
  }
}