{
  "header": {
    "description": "Karaoke Mugen Tag File",
    "version": 1
  },
  "tag": {
    "i18n": {
      "eng": "NTT Solmare Corporation"
    },
    "name": "NTT Solmare Corporation",
    "repository": "kara.moe",
    "tid": "b316cdd3-1409-44de-9e23-9372bfdad020",
    "types": [
      "creators",
      "4"
    ],
    "modified_at": "2020-03-31T19:04:36.782Z"
  }
}