{
  "header": {
    "description": "Karaoke Mugen Tag File",
    "version": 1
  },
  "tag": {
    "i18n": {
      "eng": "Nuclear Blast"
    },
    "modified_at": "2021-10-23T21:20:39.602Z",
    "name": "Nuclear Blast",
    "repository": "kara.moe",
    "tid": "e5cd87bc-3182-410d-86de-c224576dfc06",
    "types": [
      "creators",
      "4"
    ]
  }
}