{
  "header": {
    "description": "Karaoke Mugen Tag File",
    "version": 1
  },
  "tag": {
    "i18n": {
      "eng": "Nulbarich"
    },
    "name": "Nulbarich",
    "tid": "af37b21e-f8ac-47d8-95e6-018c6d58f047",
    "types": [
      "songwriters",
      "8"
    ],
    "repository": "kara.moe",
    "modified_at": "2020-03-31T19:04:36.783Z"
  }
}