{
  "header": {
    "description": "Karaoke Mugen Tag File",
    "version": 1
  },
  "tag": {
    "aliases": [
      "Nura saison 2",
      "Nurarihyon 2"
    ],
    "external_database_ids": {
      "anilist": 10049,
      "myanimelist": 10049,
      "kitsu": 7728
    },
    "i18n": {
      "eng": "Nura: Rise of the Yokai Clan ‒ Demon Capital",
      "fre": "Nura : Le Seigneur des Yôkai ‒ La cité des démons",
      "jpn": "ぬらりひょんの孫 千年魔京",
      "qro": "Nurarihyon no Mago ~ Sennen Makyou"
    },
    "modified_at": "2020-03-31T19:04:32.362Z",
    "name": "Nurarihyon no Mago ~ Sennen Makyou",
    "repository": "kara.moe",
    "tid": "be951835-7a2b-4697-a3a8-b35879c82095",
    "types": [
      "series",
      "1"
    ]
  }
}