{
  "header": {
    "description": "Karaoke Mugen Tag File",
    "version": 1
  },
  "tag": {
    "aliases": [
      "なーさりぃ☆らいむ",
      "ナーサリィ ライム",
      "ナーサリィ☆ライム"
    ],
    "i18n": {
      "eng": "Nursery☆Rhyme",
      "jpn": "Nursery☆Rhyme",
      "qro": "Nursery Rhyme"
    },
    "modified_at": "2020-03-31T19:04:32.366Z",
    "name": "Nursery Rhyme",
    "repository": "kara.moe",
    "tid": "a53fc27e-bcd8-4ab3-8e5b-4509469ddb32",
    "types": [
      "series",
      "1"
    ]
  }
}