{
  "header": {
    "description": "Karaoke Mugen Tag File",
    "version": 1
  },
  "tag": {
    "i18n": {
      "eng": "Nyohoho"
    },
    "name": "Nyohoho",
    "tid": "2c42c7b8-55e4-4db2-8246-851d302ee00a",
    "types": [
      "creators",
      "4"
    ],
    "repository": "kara.moe",
    "modified_at": "2020-03-31T19:04:36.788Z"
  }
}