{
  "header": {
    "description": "Karaoke Mugen Tag File",
    "version": 1
  },
  "tag": {
    "i18n": {
      "fre": "Instrumentale"
    },
    "modified_at": "2021-02-14T16:38:37.727Z",
    "name": "Off Vocal",
    "priority": 1,
    "repository": "kara.moe",
    "tid": "c0cc87b9-55b9-40f0-878a-fbb9e34c151e",
    "types": [
      "versions",
      "14"
    ]
  }
}