{
  "header": {
    "description": "Karaoke Mugen Tag File",
    "version": 1
  },
  "tag": {
    "i18n": {
      "eng": "Oga Aragami"
    },
    "name": "Oga Aragami",
    "repository": "kara.moe",
    "tid": "fc7dd05e-8f33-4380-8666-adc6164cc1e0",
    "types": [
      "singers",
      "2"
    ]
  }
}