{
  "header": {
    "description": "Karaoke Mugen Tag File",
    "version": 1
  },
  "tag": {
    "i18n": {
      "eng": "Oh Yeah Wow"
    },
    "modified_at": "2020-10-21T19:00:13.688Z",
    "name": "Oh Yeah Wow",
    "repository": "kara.moe",
    "tid": "1f284c30-94e4-4a46-8f55-ab4efa7cd7f4",
    "types": [
      "creators",
      "4"
    ]
  }
}