{
  "header": {
    "description": "Karaoke Mugen Tag File",
    "version": 1
  },
  "tag": {
    "i18n": {
      "eng": "ohhopi"
    },
    "modified_at": "1982-04-06",
    "name": "ohhopi",
    "repository": "kara.moe",
    "tid": "67e591c2-a99c-4633-bc70-3f248ded1788",
    "types": [
      "authors",
      "6"
    ]
  }
}