{
  "header": {
    "description": "Karaoke Mugen Tag File",
    "version": 1
  },
  "tag": {
    "i18n": {
      "eng": "Okami"
    },
    "modified_at": "2021-05-26T00:17:52.512Z",
    "name": "Okami",
    "repository": "kara.moe",
    "tid": "3dac9715-1a0d-47ad-9b31-9a4973afc68e",
    "types": [
      "creators",
      "4"
    ]
  }
}