{
  "header": {
    "description": "Karaoke Mugen Tag File",
    "version": 1
  },
  "tag": {
    "i18n": {
      "eng": "Okusama wa Miko?",
      "jpn": "奥さまは巫女？",
      "qro": "Okusama wa Miko?"
    },
    "modified_at": "2021-04-14T23:34:55.847Z",
    "name": "Okusama wa Miko?",
    "repository": "kara.moe",
    "tid": "a9e4a333-1270-4b68-a576-b2f5c9efd12c",
    "types": [
      "series",
      "1"
    ]
  }
}