{
  "header": {
    "description": "Karaoke Mugen Tag File",
    "version": 1
  },
  "tag": {
    "i18n": {
      "eng": "ΦKushiΦ",
      "jpn": "Φ串Φ"
    },
    "name": "ΦKushiΦ",
    "repository": "kara.moe",
    "tid": "2b1c51c0-fb2f-431c-9eb1-453ff6d4b8ec",
    "types": [
      "singers",
      "2"
    ]
  }
}