{
  "header": {
    "description": "Karaoke Mugen Tag File",
    "version": 1
  },
  "tag": {
    "i18n": {
      "eng": "Olivier Schultheis"
    },
    "name": "Olivier Schultheis",
    "repository": "kara.moe",
    "tid": "3608b6c7-8b3b-4672-bf5c-46583a7b58ee",
    "types": [
      "songwriters",
      "8"
    ]
  }
}