{
  "header": {
    "description": "Karaoke Mugen Tag File",
    "version": 1
  },
  "tag": {
    "i18n": {
      "eng": "olivi55"
    },
    "name": "olivi55",
    "repository": "kara.moe",
    "tid": "604b9132-005f-414a-82b8-e5858e586448",
    "types": [
      "authors",
      "6"
    ],
    "modified_at": "2020-03-31T19:04:36.805Z"
  }
}