{
  "header": {
    "description": "Karaoke Mugen Tag File",
    "version": 1
  },
  "tag": {
    "i18n": {
      "eng": "Omi Oruha"
    },
    "name": "Omi Oruha",
    "tid": "d3bd97f2-3a4e-4394-868e-0068a804fc9d",
    "types": [
      "songwriters",
      "8"
    ],
    "repository": "kara.moe",
    "modified_at": "2020-03-31T19:04:36.810Z"
  }
}