{
  "header": {
    "description": "Karaoke Mugen Tag File",
    "version": 1
  },
  "tag": {
    "i18n": {
      "eng": "Omoi"
    },
    "name": "Omoi",
    "tid": "35cdb341-81e0-47d2-802a-3b932cda5e60",
    "types": [
      "songwriters",
      "8"
    ],
    "repository": "kara.moe",
    "modified_at": "2020-03-31T19:04:36.810Z"
  }
}