{
  "header": {
    "description": "Karaoke Mugen Tag File",
    "version": 1
  },
  "tag": {
    "i18n": {
      "eng": "Omoinotake"
    },
    "name": "Omoinotake",
    "repository": "kara.moe",
    "tid": "b5ce2a22-0018-4c87-9d72-cb476e2980bc",
    "types": [
      "songwriters",
      "8"
    ]
  }
}