{
  "header": {
    "description": "Karaoke Mugen Tag File",
    "version": 1
  },
  "tag": {
    "i18n": {
      "eng": "omuzushi"
    },
    "name": "omuzushi",
    "repository": "kara.moe",
    "tid": "687bfed8-1de4-48cf-9c19-3ac87298dd1b",
    "types": [
      "creators",
      "4"
    ]
  }
}