{
  "header": {
    "description": "Karaoke Mugen Tag File",
    "version": 1
  },
  "tag": {
    "i18n": {
      "eng": "ON/OFF"
    },
    "name": "ON/OFF",
    "tid": "df0a2449-b17e-4e01-98ec-f097a265b67d",
    "types": [
      "singers",
      "2"
    ],
    "repository": "kara.moe",
    "modified_at": "2020-03-31T19:04:36.812Z"
  }
}