{
  "header": {
    "description": "Karaoke Mugen Tag File",
    "version": 1
  },
  "tag": {
    "aliases": [
      "My Sister Came",
      "My big sister arrived"
    ],
    "external_database_ids": {
      "anilist": 20473,
      "myanimelist": 20931,
      "kitsu": 8083
    },
    "i18n": {
      "chi": "姐姐来了",
      "eng": "Oneechan ga Kita",
      "jpn": "お姉ちゃんが来た",
      "qro": "Oneechan ga Kita"
    },
    "modified_at": "2020-03-31T19:04:32.384Z",
    "name": "Oneechan ga Kita",
    "repository": "kara.moe",
    "tid": "6d1e3d0d-967a-4a2f-a85e-ec4605fc0063",
    "types": [
      "series",
      "1"
    ]
  }
}