{
  "header": {
    "description": "Karaoke Mugen Tag File",
    "version": 1
  },
  "tag": {
    "aliases": [
      "Chris O'Neill"
    ],
    "i18n": {
      "eng": "OneyNG"
    },
    "modified_at": "2021-01-26T14:50:15.910Z",
    "name": "OneyNG",
    "repository": "kara.moe",
    "tid": "758bbdc0-daac-412a-9667-ead1f0cd9a62",
    "types": [
      "creators",
      "4"
    ]
  }
}