{
  "header": {
    "description": "Karaoke Mugen Tag File",
    "version": 1
  },
  "tag": {
    "aliases": [
      "Оризова топка"
    ],
    "external_database_ids": {
      "anilist": 21612,
      "myanimelist": 32606,
      "kitsu": 11785
    },
    "i18n": {
      "eng": "Onigiri",
      "jpn": "鬼斬[おにぎり]",
      "qro": "Onigiri"
    },
    "modified_at": "2020-03-31T19:04:32.387Z",
    "name": "Onigiri",
    "repository": "kara.moe",
    "tid": "58737ee7-9a0d-4ff7-8492-8d1a4330e3c7",
    "types": [
      "series",
      "1"
    ]
  }
}