{
  "header": {
    "description": "Karaoke Mugen Tag File",
    "version": 1
  },
  "tag": {
    "i18n": {
      "eng": "ONIMAI SISTERS"
    },
    "name": "ONIMAI SISTERS",
    "repository": "kara.moe",
    "tid": "1408c08a-ff85-4de6-b024-e9b6a5723e1d",
    "types": [
      "singergroups",
      "17"
    ]
  }
}