{
  "header": {
    "description": "Karaoke Mugen Tag File",
    "version": 1
  },
  "tag": {
    "external_database_ids": {
      "anilist": 144676,
      "myanimelist": 50955,
      "kitsu": 45835
    },
    "i18n": {
      "eng": "Onipan!"
    },
    "name": "Onipan!",
    "repository": "kara.moe",
    "tid": "f1e8163d-b24d-4cac-a27e-760cc18100da",
    "types": [
      "series",
      "1"
    ]
  }
}