{
  "header": {
    "description": "Karaoke Mugen Tag File",
    "version": 1
  },
  "tag": {
    "i18n": {
      "eng": "Oniro"
    },
    "name": "Oniro",
    "tid": "65fe71b2-4379-42f6-a505-64183b01cc1c",
    "types": [
      "creators",
      "4"
    ],
    "repository": "kara.moe",
    "modified_at": "2020-03-31T19:04:36.817Z"
  }
}