{
  "header": {
    "description": "Karaoke Mugen Tag File",
    "version": 1
  },
  "tag": {
    "aliases": [
      "Aktar ve Kurt",
      "Kurt ve Baharat",
      "Okami to Kôshinryô",
      "Ookami to Koushinryou",
      "S&W",
      "SW",
      "SaW",
      "Spice and Wolf",
      "Spicy Wolf",
      "Vilkė ir Prieskoniai",
      "Wilk i Przyprawa",
      "Wolf and Spice",
      "otk",
      "spice&wolf",
      "spice+wolf",
      "Вовчиця та спеції",
      "Вовчиця і спеції",
      "תבלין וזאב",
      "狼与香辛料",
      "koushinryou"
    ],
    "external_database_ids": {
      "anilist": 2966,
      "myanimelist": 2966,
      "kitsu": 2684
    },
    "i18n": {
      "eng": "Spice & Wolf",
      "fre": "Spice & Wolf",
      "jpn": "狼と香辛料",
      "rus": "Волчица и пряности",
      "qro": "Ookami to Kôshinryô"
    },
    "modified_at": "2020-03-31T19:04:32.394Z",
    "name": "Ookami to Kôshinryô",
    "repository": "kara.moe",
    "tid": "95925674-a1b6-44d2-8710-c64961f5d700",
    "types": [
      "series",
      "1",
      "franchises",
      "18"
    ]
  }
}