{
  "header": {
    "description": "Karaoke Mugen Tag File",
    "version": 1
  },
  "tag": {
    "aliases": [
      "Okami Shounen Ken",
      "shounen"
    ],
    "external_database_ids": {
      "anilist": 17521,
      "myanimelist": 17521,
      "kitsu": 9916
    },
    "i18n": {
      "eng": "Wolf Boy Ken",
      "fre": "Ken l'enfant-loup",
      "jpn": "狼少年ケン",
      "qro": "Ookami Shônen Ken"
    },
    "modified_at": "2020-03-31T19:04:32.392Z",
    "name": "Ookami Shônen Ken",
    "repository": "kara.moe",
    "tid": "c01cd39f-cc0e-4641-8b9d-2a8751afcfd9",
    "types": [
      "series",
      "1"
    ]
  }
}