{
  "header": {
    "description": "Karaoke Mugen Tag File",
    "version": 1
  },
  "tag": {
    "i18n": {
      "eng": "Oozora Iraha",
      "jpn": "伊良波大空"
    },
    "name": "Oozora Iraha",
    "repository": "kara.moe",
    "tid": "7ca874b5-f17c-4229-b4ff-3d131e809d86",
    "types": [
      "songwriters",
      "8"
    ]
  }
}