{
  "header": {
    "description": "Karaoke Mugen Tag File",
    "version": 1
  },
  "tag": {
    "i18n": {
      "eng": "Orange Caramel"
    },
    "modified_at": "2021-10-05T20:30:16.475Z",
    "name": "Orange Caramel",
    "repository": "kara.moe",
    "tid": "d521a381-9b09-4094-bd5a-a8e483b0dbf0",
    "types": [
      "singers",
      "2"
    ]
  }
}