{
  "header": {
    "description": "Karaoke Mugen Tag File",
    "version": 1
  },
  "tag": {
    "i18n": {
      "eng": "Oranges&Lemons"
    },
    "name": "Oranges&Lemons",
    "tid": "bd8431ad-0ea3-4d9c-9835-9fb31bbf84a4",
    "types": [
      "singers",
      "2"
    ],
    "repository": "kara.moe",
    "modified_at": "2020-03-31T19:04:36.823Z"
  }
}