{
  "header": {
    "description": "Karaoke Mugen Tag File",
    "version": 1
  },
  "tag": {
    "i18n": {
      "eng": "Orange"
    },
    "name": "Orange",
    "tid": "7d0aa18d-25ee-4f9d-9df1-dccc3d805f1d",
    "types": [
      "creators",
      "4"
    ],
    "repository": "kara.moe",
    "modified_at": "2020-03-31T19:04:36.823Z"
  }
}