{
  "header": {
    "description": "Karaoke Mugen Tag File",
    "version": 1
  },
  "tag": {
    "i18n": {
      "eng": "Ordet"
    },
    "name": "Ordet",
    "tid": "5f071b2c-440f-42ce-9680-6b9067a22009",
    "types": [
      "creators",
      "4"
    ],
    "repository": "kara.moe",
    "modified_at": "2020-03-31T19:04:36.825Z"
  }
}