{
  "header": {
    "description": "Karaoke Mugen Tag File",
    "version": 1
  },
  "tag": {
    "aliases": [
      "My Little Sister Can't Be This Cute",
      "Ore no Imouto ga Konna ni Kawaii Wake ga Nai",
      "OreImo",
      "oreimo",
      "oreimo1",
      "Не може моя сестра бути такою милою",
      "Няма как по-малката ми сестра да е такава сладурана",
      "おれいも",
      "俺妹",
      "我的妹妹才不会这么可爱",
      "imouto"
    ],
    "external_database_ids": {
      "anilist": 8769,
      "myanimelist": 8769,
      "kitsu": 5487
    },
    "i18n": {
      "chi": "我的妹妹哪有这么可爱",
      "eng": "Oreimo",
      "fre": "Ore no Imôto ga Konna ni Kawaii Wake ga Nai (saison 1)",
      "jpn": "俺の妹がこんなに可愛いわけがない",
      "kor": "내 여동생이 이렇게 귀여울 리가 없어",
      "qro": "Ore no Imôto ga Konna ni Kawaii Wake ga Nai"
    },
    "modified_at": "2020-03-31T19:04:32.400Z",
    "name": "Ore no Imôto ga Konna ni Kawaii Wake ga Nai",
    "repository": "kara.moe",
    "tid": "cb627837-d44e-4474-b165-0de71e159e39",
    "types": [
      "series",
      "1"
    ]
  }
}