{
  "header": {
    "description": "Karaoke Mugen Tag File",
    "version": 1
  },
  "tag": {
    "aliases": [
      "My Little Sister Can't Be This Cute 2",
      "Ore no Imouto ga Konna ni Kawaii Wake ga Nai 2",
      "Ore no Imouto ga Konna ni Kawaii Wake ga Nai.",
      "OreImo 2",
      "Oreimo.",
      "oreimo2",
      "Моята сестричка не може да е толкова сладка",
      "我的妹妹哪有这么可爱 2",
      "imouto"
    ],
    "external_database_ids": {
      "anilist": 13659,
      "myanimelist": 13659,
      "kitsu": 7006
    },
    "i18n": {
      "chi": "我的妹妹哪有这么可爱.",
      "dut": "Mijn Zusje kan Onmogelijk zo Schattig zijn.",
      "eng": "Oreimo 2",
      "fre": "Ore no Imôto ga Konna ni Kawaii Wake ga Nai. (saison 2)",
      "jpn": "俺の妹がこんなに可愛いわけがない.",
      "kor": "내 여동생이 이렇게 귀여울 리가 없어.",
      "rus": "Ну не может сестренка быть такой милой",
      "qro": "Ore no Imôto ga Konna ni Kawaii Wake ga Nai 2"
    },
    "modified_at": "2020-03-31T19:04:32.399Z",
    "name": "Ore no Imôto ga Konna ni Kawaii Wake ga Nai 2",
    "repository": "kara.moe",
    "tid": "b984c6d9-fa96-40d4-9ef1-9d8d23740ac0",
    "types": [
      "series",
      "1"
    ]
  }
}