{
  "header": {
    "description": "Karaoke Mugen Tag File",
    "version": 1
  },
  "tag": {
    "aliases": [
      "My Girlfriend and Childhood Friend Have Too Much Relationship Difficulties",
      "OreShura",
      "Oreshura",
      "俺修羅",
      "내 여자친구와 소꿉친구가 너무 아수라장"
    ],
    "external_database_ids": {
      "anilist": 14749,
      "myanimelist": 14749,
      "kitsu": 7162
    },
    "i18n": {
      "eng": "OreShura",
      "fre": "Ore no Kanojo to Osananajimi ga Shuraba Sugiru",
      "jpn": "俺の彼女と幼なじみが修羅場すぎる",
      "qro": "Ore no Kanojo to Osananajimi ga Shuraba Sugiru"
    },
    "modified_at": "2020-03-31T19:04:32.401Z",
    "name": "Ore no Kanojo to Osananajimi ga Shuraba Sugiru",
    "repository": "kara.moe",
    "tid": "864d4b91-f379-42f8-b1b5-5b48b1499444",
    "types": [
      "series",
      "1"
    ]
  }
}