{
  "header": {
    "description": "Karaoke Mugen Tag File",
    "version": 1
  },
  "tag": {
    "i18n": {
      "eng": "Origin"
    },
    "name": "Origin",
    "repository": "kara.moe",
    "tid": "54be7939-f991-4c8c-b247-e0ac40f0162b",
    "types": [
      "singers",
      "2"
    ]
  }
}