{
  "header": {
    "description": "Karaoke Mugen Tag File",
    "version": 1
  },
  "tag": {
    "i18n": {
      "eng": "os.nishi"
    },
    "name": "os.nishi",
    "repository": "kara.moe",
    "tid": "f49b9c11-c867-4d72-ad6a-5e136a760c12",
    "types": [
      "songwriters",
      "8"
    ]
  }
}