{
  "header": {
    "description": "Karaoke Mugen Tag File",
    "version": 1
  },
  "tag": {
    "i18n": {
      "eng": "Osaka☆Shunkashûtô"
    },
    "name": "Osaka☆Shunkashûtô",
    "repository": "kara.moe",
    "tid": "fcc31dd6-6b10-4acb-bad8-bc2c5be85471",
    "types": [
      "singers",
      "2"
    ],
    "modified_at": "2020-03-31T19:04:36.834Z"
  }
}