{
  "header": {
    "description": "Karaoke Mugen Tag File",
    "version": 1
  },
  "tag": {
    "aliases": [
      "Osake wa Fuufu ni Natte kara",
      "fuufu"
    ],
    "external_database_ids": {
      "anilist": 98657,
      "myanimelist": 35484,
      "kitsu": 13719
    },
    "i18n": {
      "chi": "品酒要在成为夫妻后",
      "eng": "Love Is Like a Cocktail",
      "jpn": "お酒は夫婦になってから",
      "kor": "술은 부부가 된 후에",
      "qro": "Osake wa Fûfu ni Natte kara"
    },
    "modified_at": "2020-03-31T19:04:32.405Z",
    "name": "Osake wa Fûfu ni Natte kara",
    "repository": "kara.moe",
    "tid": "731192d6-a024-47b4-9100-4fb7f79a8346",
    "types": [
      "series",
      "1"
    ]
  }
}