{
  "header": {
    "description": "Karaoke Mugen Tag File",
    "version": 1
  },
  "tag": {
    "i18n": {
      "eng": "Osamu Kitayama"
    },
    "name": "Osamu Kitayama",
    "tid": "0fec782e-8445-48b7-9cbc-4a4671dbef47",
    "types": [
      "songwriters",
      "8"
    ],
    "repository": "kara.moe",
    "modified_at": "2020-03-31T19:04:36.835Z"
  }
}