{
  "header": {
    "description": "Karaoke Mugen Tag File",
    "version": 1
  },
  "tag": {
    "aliases": [
      "OSAMAKE"
    ],
    "external_database_ids": {
      "anilist": 124675,
      "myanimelist": 43007,
      "kitsu": 43966
    },
    "i18n": {
      "eng": "Osamake: Romcom Where The Childhood Friend Won't Lose",
      "qro": "Osananajimi ga Zettai ni Makenai Love Comedy",
      "jpn": "幼なじみが絶対に負けないラブコメ "
    },
    "modified_at": "2021-09-29T22:25:00.259Z",
    "name": "Osananajimi ga Zettai ni Makenai Love Comedy",
    "repository": "kara.moe",
    "tid": "d2847924-6319-4d16-a038-3834ba472cfc",
    "types": [
      "series",
      "1"
    ]
  }
}