{
  "header": {
    "description": "Karaoke Mugen Tag File",
    "version": 1
  },
  "tag": {
    "aliases": [
      "onv",
      "Фильм об отаку 1982 & 1985"
    ],
    "external_database_ids": {
      "anilist": 785,
      "myanimelist": 785,
      "kitsu": 701
    },
    "i18n": {
      "dut": "Otaku no Video",
      "eng": "Otaku no Video",
      "fre": "Otaku no Video",
      "ger": "Otaku No Video",
      "ita": "Otaku no Video",
      "jpn": "おたくのビデオ",
      "qro": "Otaku no Video"
    },
    "modified_at": "2020-03-31T19:04:32.409Z",
    "name": "Otaku no Video",
    "repository": "kara.moe",
    "tid": "6e51779a-4523-41e3-a504-0f036e6fe459",
    "types": [
      "series",
      "1"
    ]
  }
}