{
  "header": {
    "description": "Karaoke Mugen Tag File",
    "version": 1
  },
  "tag": {
    "i18n": {
      "eng": "Otoboke Beaver"
    },
    "name": "Otoboke Beaver",
    "repository": "kara.moe",
    "tid": "3142f842-3266-4f89-a3ee-014a754da779",
    "types": [
      "singers",
      "2"
    ]
  }
}