{
  "header": {
    "description": "Karaoke Mugen Tag File",
    "version": 1
  },
  "tag": {
    "i18n": {
      "eng": "Ôbayashi Ryôzô"
    },
    "name": "Ôbayashi Ryôzô",
    "tid": "4f39f43e-5120-42b2-973b-f429d7fec146",
    "types": [
      "songwriters",
      "8"
    ],
    "repository": "kara.moe",
    "modified_at": "2020-03-31T19:04:36.849Z"
  }
}