{
  "header": {
    "description": "Karaoke Mugen Tag File",
    "version": 1
  },
  "tag": {
    "i18n": {
      "eng": "Orai no Gahkthun ~What a Shining Braves~",
      "fre": "Ôrai no Gahkthun ~What a Shining Braves~",
      "jpn": "黄雷のガクトゥーン～What a shining braves～",
      "qro": "Ourai no Gahkthun"
    },
    "modified_at": "2020-03-31T19:04:32.416Z",
    "name": "Ourai no Gahkthun",
    "repository": "kara.moe",
    "tid": "4f2568cb-3974-4bae-ae1a-03e696a44a86",
    "types": [
      "series",
      "1"
    ]
  }
}