{
  "header": {
    "description": "Karaoke Mugen Tag File",
    "version": 1
  },
  "tag": {
    "aliases": [
      "Ou-sama Game ",
      "Ousama Game: The Animation",
      "Ô-sama Game ",
      "Королевская игра",
      "ousama"
    ],
    "external_database_ids": {
      "anilist": 99698,
      "myanimelist": 36027,
      "kitsu": 13727
    },
    "i18n": {
      "chi": "国王游戏 The Animation",
      "eng": "King's Game",
      "fre": "King's Game \"The Animation\"",
      "jpn": "王様ゲーム The Animation",
      "kor": "왕 게임: The Animation",
      "qro": "Ôsama Game: The Animation"
    },
    "modified_at": "2020-03-31T19:04:32.419Z",
    "name": "Ôsama Game: The Animation",
    "repository": "kara.moe",
    "tid": "fd935121-fbb7-4c57-aeeb-ac0218fd96c7",
    "types": [
      "series",
      "1"
    ]
  }
}