{
  "header": {
    "description": "Karaoke Mugen Tag File",
    "version": 1
  },
  "tag": {
    "aliases": [
      "okg"
    ],
    "external_database_ids": {
      "anilist": 1792,
      "myanimelist": 1792,
      "kitsu": 1612
    },
    "i18n": {
      "chi": "帝皇戰紀",
      "eng": "Overman King Gainer",
      "jpn": "オーバーマン キングゲイナー",
      "qro": "Overman King Gainer"
    },
    "modified_at": "2020-03-31T19:04:32.423Z",
    "name": "Overman King Gainer",
    "repository": "kara.moe",
    "tid": "7c170a6f-717e-4bfa-aadd-7a57f4c5d265",
    "types": [
      "series",
      "1"
    ]
  }
}