{
  "header": {
    "description": "Karaoke Mugen Tag File",
    "version": 1
  },
  "tag": {
    "aliases": [
      "Owari no Seraph 2",
      "Seraph of the End 2",
      "Seraph of the End S2"
    ],
    "external_database_ids": {
      "anilist": 20993,
      "myanimelist": 28927,
      "kitsu": 10082
    },
    "i18n": {
      "eng": "Seraph of the End: Battle in Nagoya",
      "fre": "Seraph of the End (arc 2)",
      "jpn": "終わりのセラフ Seraph of the end 名古屋決戦編",
      "qro": "Owari no Seraph Nagoya Kessen hen"
    },
    "modified_at": "2020-03-31T19:04:32.424Z",
    "name": "Owari no Seraph Nagoya Kessen hen",
    "repository": "kara.moe",
    "tid": "170f168e-75b4-4ca9-8fec-3c3453980ae4",
    "types": [
      "series",
      "1"
    ]
  }
}