{
  "header": {
    "description": "Karaoke Mugen Tag File",
    "version": 1
  },
  "tag": {
    "i18n": {
      "eng": "OZ"
    },
    "name": "OZ",
    "repository": "kara.moe",
    "tid": "ca5ab453-229a-426e-a17a-097b2e19f1b2",
    "types": [
      "creators",
      "4"
    ]
  }
}