{
  "header": {
    "description": "Karaoke Mugen Tag File",
    "version": 1
  },
  "tag": {
    "i18n": {
      "eng": "P. Production"
    },
    "name": "P. Production",
    "tid": "d3250c84-51d4-432e-a281-f062f9e731cc",
    "types": [
      "creators",
      "4"
    ],
    "repository": "kara.moe",
    "modified_at": "2020-03-31T19:04:36.857Z"
  }
}