{
  "header": {
    "description": "Karaoke Mugen Tag File",
    "version": 1
  },
  "tag": {
    "i18n": {
      "eng": "PA-NON"
    },
    "name": "PA-NON",
    "tid": "bfeec776-8f0c-470b-a57b-fae35fe0a3a6",
    "types": [
      "songwriters",
      "8"
    ],
    "repository": "kara.moe",
    "modified_at": "2020-03-31T19:04:36.858Z"
  }
}