{
  "header": {
    "description": "Karaoke Mugen Tag File",
    "version": 1
  },
  "tag": {
    "i18n": {
      "eng": "PABLO a.k.a. WTF!?"
    },
    "modified_at": "2020-10-24T23:55:46.623Z",
    "name": "PABLO a.k.a. WTF!?",
    "repository": "kara.moe",
    "tid": "6b0ccb2d-7660-4330-b02d-483317214f2c",
    "types": [
      "songwriters",
      "8"
    ]
  }
}