{
  "header": {
    "description": "Karaoke Mugen Tag File",
    "version": 1
  },
  "tag": {
    "i18n": {
      "eng": "Pål Waaktaar-Savoy"
    },
    "modified_at": "2020-06-01T15:24:33.311Z",
    "name": "Pål Waaktaar-Savoy",
    "repository": "kara.moe",
    "tid": "a0016ad7-83b7-4e8b-815e-0306b5e559e8",
    "types": [
      "songwriters",
      "8"
    ]
  }
}