{
  "header": {
    "description": "Karaoke Mugen Tag File",
    "version": 1
  },
  "tag": {
    "i18n": {
      "eng": "Pal"
    },
    "name": "Pal",
    "tid": "d27991e7-a501-4640-8f12-cd2cd844ac49",
    "types": [
      "singers",
      "2"
    ],
    "repository": "kara.moe",
    "modified_at": "2020-03-31T19:04:36.860Z"
  }
}