{
  "header": {
    "description": "Karaoke Mugen Tag File",
    "version": 1
  },
  "tag": {
    "i18n": {
      "eng": "Panic! At The Disco"
    },
    "name": "Panic! At The Disco",
    "tid": "930579ff-3dc8-48a0-88a5-45ef3ec4f2a1",
    "types": [
      "singers",
      "2"
    ],
    "repository": "kara.moe",
    "modified_at": "2020-03-31T19:04:36.865Z"
  }
}