{
  "header": {
    "description": "Karaoke Mugen Tag File",
    "version": 1
  },
  "tag": {
    "external_database_ids": {
      "anilist": 1943,
      "myanimelist": 1943,
      "kitsu": 1752
    },
    "i18n": {
      "und": "Paprika"
    },
    "modified_at": "2020-03-31T19:04:32.433Z",
    "name": "Paprika",
    "repository": "kara.moe",
    "tid": "2c37fa9e-5540-48b8-b0bd-e3e5d5eb6b3f",
    "types": [
      "series",
      "1"
    ]
  }
}