{
  "header": {
    "description": "Karaoke Mugen Tag File",
    "version": 1
  },
  "tag": {
    "i18n": {
      "eng": "Parmy"
    },
    "name": "Parmy",
    "repository": "kara.moe",
    "tid": "c8317b70-9e8e-4ae6-a91a-ca48e10546da",
    "types": [
      "creators",
      "4"
    ]
  }
}