{
  "header": {
    "description": "Karaoke Mugen Tag File",
    "version": 1
  },
  "tag": {
    "i18n": {
      "eng": "Pascal Obispo"
    },
    "modified_at": "2020-04-11T14:48:57.527Z",
    "name": "Pascal Obispo",
    "repository": "kara.moe",
    "tid": "9cf9bfe9-9af8-4839-877e-2cb58176700e",
    "types": [
      "songwriters",
      "8"
    ]
  }
}