{
  "header": {
    "description": "Karaoke Mugen Tag File",
    "version": 1
  },
  "tag": {
    "i18n": {
      "eng": "Pasocom Music Club"
    },
    "name": "Pasocom Music Club",
    "tid": "e8bf35df-72e7-40c9-a506-ca85f6284799",
    "types": [
      "songwriters",
      "8"
    ],
    "repository": "kara.moe",
    "modified_at": "2020-03-31T19:04:36.877Z"
  }
}