{
  "header": {
    "description": "Karaoke Mugen Tag File",
    "version": 1
  },
  "tag": {
    "i18n": {
      "eng": "Passage Piéton"
    },
    "name": "Passage Piéton",
    "repository": "kara.moe",
    "tid": "f4e1c665-1cfc-4186-8a57-fa01e9807c70",
    "types": [
      "creators",
      "4"
    ]
  }
}