{
  "header": {
    "description": "Karaoke Mugen Tag File",
    "version": 1
  },
  "tag": {
    "i18n": {
      "eng": "Passion Animation Studios"
    },
    "name": "Passion Animation Studios",
    "tid": "6836b96e-f0ba-4e7a-b421-f64d5c7a8387",
    "types": [
      "creators",
      "4"
    ],
    "repository": "kara.moe",
    "modified_at": "2020-03-31T19:04:36.878Z"
  }
}