{
  "header": {
    "description": "Karaoke Mugen Tag File",
    "version": 1
  },
  "tag": {
    "i18n": {
      "eng": "Patrice Gall"
    },
    "name": "Patrice Gall",
    "tid": "bedf20de-0472-47d8-8f81-e0c4b963c639",
    "types": [
      "songwriters",
      "8"
    ],
    "repository": "kara.moe",
    "modified_at": "2020-03-31T19:04:36.881Z"
  }
}