{
  "header": {
    "description": "Karaoke Mugen Tag File",
    "version": 1
  },
  "tag": {
    "i18n": {
      "eng": "Patricia Taxxon"
    },
    "modified_at": "2021-06-01T17:02:07.564Z",
    "name": "Patricia Taxxon",
    "repository": "kara.moe",
    "tid": "8ad7ba80-ce53-40f7-abfe-fe004643349e",
    "types": [
      "songwriters",
      "8"
    ]
  }
}