{
  "header": {
    "description": "Karaoke Mugen Tag File",
    "version": 1
  },
  "tag": {
    "i18n": {
      "eng": "Patrik Berger"
    },
    "name": "Patrik Berger",
    "tid": "fa4a98ce-69b5-4b3f-b110-dd7f6e4a7846",
    "types": [
      "songwriters",
      "8"
    ],
    "repository": "kara.moe",
    "modified_at": "2020-03-31T19:04:36.886Z"
  }
}