{
  "header": {
    "description": "Karaoke Mugen Tag File",
    "version": 1
  },
  "tag": {
    "i18n": {
      "eng": "Paul Van Haver"
    },
    "modified_at": "2020-07-12T13:24:00.319Z",
    "name": "Paul Van Haver",
    "repository": "kara.moe",
    "tid": "8ad6b487-f173-45c2-bf98-3bfe19a20061",
    "types": [
      "songwriters",
      "8"
    ]
  }
}