{
  "header": {
    "description": "Karaoke Mugen Tag File",
    "version": 1
  },
  "tag": {
    "i18n": {
      "eng": "pauldiddy"
    },
    "name": "pauldiddy",
    "repository": "kara.moe",
    "tid": "63ab3b66-4d55-4b47-8e33-b99531d94cae",
    "types": [
      "authors",
      "6"
    ]
  }
}