{
  "header": {
    "description": "Karaoke Mugen Tag File",
    "version": 1
  },
  "tag": {
    "i18n": {
      "eng": "Paul Glaeser"
    },
    "name": "Paul Glaeser",
    "repository": "kara.moe",
    "tid": "19f9cbfa-5492-4bdb-80c6-211bac95fe50",
    "types": [
      "songwriters",
      "8"
    ]
  }
}