{
  "header": {
    "description": "Karaoke Mugen Tag File",
    "version": 1
  },
  "tag": {
    "i18n": {
      "eng": "Paul Ada"
    },
    "name": "Paul Ada",
    "tid": "73a269d3-c8c0-4c3e-aacd-869fb05a0482",
    "types": [
      "singers",
      "2"
    ],
    "repository": "kara.moe",
    "modified_at": "2020-03-31T19:04:36.887Z"
  }
}