{
  "header": {
    "description": "Karaoke Mugen Tag File",
    "version": 1
  },
  "tag": {
    "i18n": {
      "eng": "Pawa"
    },
    "name": "Pawa",
    "repository": "kara.moe",
    "tid": "0a4e6b24-773f-42be-b2f7-5cee10ad3b07",
    "types": [
      "singers",
      "2"
    ]
  }
}