{
  "header": {
    "description": "Karaoke Mugen Tag File",
    "version": 1
  },
  "tag": {
    "i18n": {
      "eng": "PBS Digital Studios"
    },
    "name": "PBS Digital Studios",
    "tid": "c62e8c1b-517e-48f6-8757-a2982ca877cb",
    "types": [
      "creators",
      "4"
    ],
    "repository": "kara.moe",
    "modified_at": "2020-03-31T19:04:36.891Z"
  }
}