{
  "header": {
    "description": "Karaoke Mugen Tag File",
    "version": 1
  },
  "tag": {
    "i18n": {
      "eng": "Peach"
    },
    "name": "Peach",
    "repository": "kara.moe",
    "tid": "de4e0582-41bc-4369-bd2e-c71f5fad4021",
    "types": [
      "songwriters",
      "8"
    ]
  }
}