{
  "header": {
    "description": "Karaoke Mugen Tag File",
    "version": 1
  },
  "tag": {
    "external_database_ids": {
      "anilist": 12359,
      "myanimelist": 12359,
      "kitsu": 6712
    },
    "i18n": {
      "eng": "Pecola",
      "hun": "Pecola",
      "jpn": "ペコラ",
      "qro": "Pecola"
    },
    "modified_at": "2020-03-31T19:04:32.438Z",
    "name": "Pecola",
    "repository": "kara.moe",
    "tid": "3baa78c3-6026-4078-b2cb-5622998986b0",
    "types": [
      "series",
      "1"
    ]
  }
}