{
  "header": {
    "description": "Karaoke Mugen Tag File",
    "version": 1
  },
  "tag": {
    "i18n": {
      "eng": "Pekora Usada",
      "jpn": "兎田ぺこら",
      "qro": "Pekora Usada"
    },
    "modified_at": "2021-09-02T20:32:43.487Z",
    "name": "Pekora Usada",
    "repository": "kara.moe",
    "tid": "1631fe7d-daba-4c55-addf-eb500c847fe2",
    "types": [
      "singers",
      "2"
    ]
  }
}