{
  "header": {
    "description": "Karaoke Mugen Tag File",
    "version": 1
  },
  "tag": {
    "i18n": {
      "eng": "Pendulum☆Cute"
    },
    "name": "Pendulum☆Cute",
    "tid": "cadeca8a-f810-4d0e-8ba0-539563153837",
    "types": [
      "singers",
      "2"
    ],
    "repository": "kara.moe",
    "modified_at": "2020-03-31T19:04:36.898Z"
  }
}