{
  "header": {
    "description": "Karaoke Mugen Tag File",
    "version": 1
  },
  "tag": {
    "i18n": {
      "eng": "PENGUIN RESEARCH"
    },
    "name": "PENGUIN RESEARCH",
    "tid": "8ac6f334-db9f-4669-9352-2045cac01b30",
    "types": [
      "singers",
      "2"
    ],
    "repository": "kara.moe",
    "modified_at": "2020-03-31T19:04:36.899Z"
  }
}