{
  "header": {
    "description": "Karaoke Mugen Tag File",
    "version": 1
  },
  "tag": {
    "i18n": {
      "eng": "Peniel"
    },
    "name": "Peniel",
    "tid": "3c0c5405-c669-4daa-8a2b-28db305d1a49",
    "types": [
      "songwriters",
      "8"
    ],
    "repository": "kara.moe",
    "modified_at": "2020-03-31T19:04:36.901Z"
  }
}