{
  "header": {
    "description": "Karaoke Mugen Tag File",
    "version": 1
  },
  "tag": {
    "i18n": {
      "eng": "Penpals"
    },
    "name": "Penpals",
    "tid": "f034dac5-5b82-4a90-8d94-3406702395d0",
    "types": [
      "singers",
      "2",
      "songwriters",
      "8"
    ],
    "repository": "kara.moe",
    "modified_at": "2020-03-31T19:04:36.901Z"
  }
}