{
  "header": {
    "description": "Karaoke Mugen Tag File",
    "version": 1
  },
  "tag": {
    "i18n": {
      "eng": "PENTACLE★"
    },
    "name": "PENTACLE★",
    "repository": "kara.moe",
    "tid": "b99c765f-424a-4f89-8169-8427c63165a3",
    "types": [
      "singers",
      "2"
    ]
  }
}