{
  "header": {
    "description": "Karaoke Mugen Tag File",
    "version": 1
  },
  "tag": {
    "i18n": {
      "eng": "PerLKS"
    },
    "name": "PerLKS",
    "tid": "a4f14384-e66e-4825-9250-83360ec73561",
    "types": [
      "songwriters",
      "8"
    ],
    "repository": "kara.moe",
    "modified_at": "2020-03-31T19:04:36.906Z"
  }
}