{
  "header": {
    "description": "Karaoke Mugen Tag File",
    "version": 1
  },
  "tag": {
    "aliases": [
      "P5R"
    ],
    "i18n": {
      "eng": "Persona 5 Royal",
      "jpn": "ペルソナ5 ザ・ロイヤル",
      "qro": "Persona 5: The Royal"
    },
    "modified_at": "2020-03-31T19:04:32.450Z",
    "name": "Persona 5: The Royal",
    "repository": "kara.moe",
    "tid": "17a507aa-8ac6-45b3-93fd-0208bed3c623",
    "types": [
      "series",
      "1"
    ]
  }
}