{
  "header": {
    "description": "Karaoke Mugen Tag File",
    "version": 1
  },
  "tag": {
    "i18n": {
      "eng": "Shin Megami Tensei: Persona",
      "jpn": "ペルソナ",
      "qro": "Persona"
    },
    "modified_at": "2020-03-31T19:04:32.452Z",
    "name": "Persona",
    "repository": "kara.moe",
    "tid": "d8030743-4563-41b9-a3e3-30a0b2fb2edb",
    "types": [
      "series",
      "1",
      "franchises",
      "18"
    ]
  }
}