{
  "header": {
    "description": "Karaoke Mugen Tag File",
    "version": 1
  },
  "tag": {
    "i18n": {
      "eng": "Perturbator"
    },
    "name": "Perturbator",
    "repository": "kara.moe",
    "tid": "02e66710-3347-46bf-845b-c483190d64b3",
    "types": [
      "songwriters",
      "8",
      "singergroups",
      "17"
    ]
  }
}