{
  "header": {
    "description": "Karaoke Mugen Tag File",
    "version": 1
  },
  "tag": {
    "aliases": [
      "彼得・格里爾的賢者時間 Super Extra",
      "Piotr Grzała i Czas Filozofa: Super Ekstra"
    ],
    "external_database_ids": {
      "anilist": 141400,
      "kitsu": 45490,
      "myanimelist": 50348
    },
    "i18n": {
      "chi": "彼得·格里尔的贤者时间 Super Extra",
      "eng": "Peter Grill and the Philosopher's Time: Super Extra",
      "jpn": "ピーター・グリルと賢者の時間 Super Extra",
      "kor": "피터 그릴과 현자의 시간: Super Extra",
      "qro": "Peter Grill to Kenja no Jikan: Super Extra"
    },
    "name": "Peter Grill to Kenja no Jikan: Super Extra",
    "repository": "kara.moe",
    "tid": "13b05d48-dd38-4ff0-abaf-fbcc16aead90",
    "types": [
      "series",
      "1"
    ]
  }
}