{
  "header": {
    "description": "Karaoke Mugen Tag File",
    "version": 1
  },
  "tag": {
    "i18n": {
      "eng": "Peter Anders Svensson"
    },
    "name": "Peter Anders Svensson",
    "repository": "kara.moe",
    "tid": "e0a7373b-295d-4bef-bfb9-f78c60456ea2",
    "types": [
      "songwriters",
      "8"
    ]
  }
}