{
  "header": {
    "description": "Karaoke Mugen Tag File",
    "version": 1
  },
  "tag": {
    "i18n": {
      "eng": "Peter Mansson"
    },
    "name": "Peter Mansson",
    "tid": "badf03c2-a404-4b75-a8a8-e56f1267cf83",
    "types": [
      "songwriters",
      "8"
    ],
    "repository": "kara.moe",
    "modified_at": "2020-03-31T19:04:36.910Z"
  }
}