{
  "header": {
    "description": "Karaoke Mugen Tag File",
    "version": 1
  },
  "tag": {
    "aliases": [
      "Fantomas: Fantomo Rekviem",
      "Phantom ~Requiem of Phantom~",
      "phantom tv",
      "Фантом: Реквием по Призраку",
      "ファントム -PHANTOM OF INFERNO-"
    ],
    "external_database_ids": {
      "anilist": 5682,
      "myanimelist": 5682,
      "kitsu": 4242
    },
    "i18n": {
      "eng": "Phantom: Requiem for the Phantom",
      "jpn": "ファントム Requiem for the Phantom",
      "qro": "Phantom: Requiem for the phantom"
    },
    "modified_at": "2020-03-31T19:04:32.453Z",
    "name": "Phantom: Requiem for the phantom",
    "repository": "kara.moe",
    "tid": "cdc5ff85-e4bd-4a3f-b31b-7822a03bcc50",
    "types": [
      "series",
      "1"
    ]
  }
}