{
  "header": {
    "description": "Karaoke Mugen Tag File",
    "version": 1
  },
  "tag": {
    "i18n": {
      "eng": "Phero☆Men"
    },
    "name": "Phero☆Men",
    "tid": "9921a8d9-02d3-4d77-9091-276ebca017d0",
    "types": [
      "singers",
      "2"
    ],
    "repository": "kara.moe",
    "modified_at": "2020-03-31T19:04:36.913Z"
  }
}