{
  "header": {
    "description": "Karaoke Mugen Tag File",
    "version": 1
  },
  "tag": {
    "external_database_ids": {
      "anilist": 12753,
      "myanimelist": 12753,
      "kitsu": 6803
    },
    "i18n": {
      "eng": "Phi-Brain: Puzzle of God ‒ The Orpheus Order",
      "jpn": "ファイ・ブレイン ～神のパズル オルペウス・オーダー編",
      "qro": "Phi Brain Kami no Puzzle Orpheus Order Hen"
    },
    "modified_at": "2020-03-31T19:04:32.455Z",
    "name": "Phi Brain Kami no Puzzle Orpheus Order Hen",
    "repository": "kara.moe",
    "tid": "42fbfae4-56c3-44a7-9d22-f7d80d08b199",
    "types": [
      "series",
      "1"
    ]
  }
}