{
  "header": {
    "description": "Karaoke Mugen Tag File",
    "version": 1
  },
  "tag": {
    "i18n": {
      "eng": "Philippe Almosnino"
    },
    "name": "Philippe Almosnino",
    "tid": "885dc47c-5c3e-4c4f-a202-82918186788b",
    "types": [
      "songwriters",
      "8"
    ],
    "repository": "kara.moe",
    "modified_at": "2020-03-31T19:04:36.916Z"
  }
}