{
  "header": {
    "description": "Karaoke Mugen Tag File",
    "version": 1
  },
  "tag": {
    "i18n": {
      "eng": "Philippe Etchebest"
    },
    "modified_at": "2020-07-22T17:04:41.732Z",
    "name": "Philippe Etchebest",
    "repository": "kara.moe",
    "tid": "4579fef5-afa0-43c2-a4ec-48865db02abd",
    "types": [
      "singers",
      "2"
    ]
  }
}