{
  "header": {
    "description": "Karaoke Mugen Tag File",
    "version": 1
  },
  "tag": {
    "i18n": {
      "eng": "Phil Rhodes"
    },
    "modified_at": "2020-08-22T19:02:09.769Z",
    "name": "Phil Rhodes",
    "repository": "kara.moe",
    "tid": "bd8c2243-0d38-4489-a234-ca09b96572ee",
    "types": [
      "songwriters",
      "8"
    ]
  }
}