{
  "header": {
    "description": "Karaoke Mugen Tag File",
    "version": 1
  },
  "tag": {
    "i18n": {
      "eng": "Philips"
    },
    "modified_at": "2020-04-11T14:48:57.530Z",
    "name": "Philips",
    "repository": "kara.moe",
    "tid": "f5ac7140-7e00-4537-ae0e-4db66f157b9b",
    "types": [
      "creators",
      "4"
    ]
  }
}