{
  "header": {
    "description": "Karaoke Mugen Tag File",
    "version": 1
  },
  "tag": {
    "aliases": [
      "Piano Forest 2",
      "Piano no Mori S2"
    ],
    "external_database_ids": {
      "anilist": 103049,
      "myanimelist": 37975,
      "kitsu": 41461
    },
    "i18n": {
      "eng": "Piano Forest (TV) 2nd Season",
      "fre": "Le Piano dans la forêt (saison 2)",
      "jpn": "ピアノの森 (2019)",
      "qro": "Piano no Mori TV (2019)"
    },
    "modified_at": "2020-03-31T19:04:32.456Z",
    "name": "Piano no Mori TV (2019)",
    "repository": "kara.moe",
    "tid": "413160d8-2bac-43f6-aad5-62889d39044f",
    "types": [
      "series",
      "1"
    ]
  }
}