{
  "header": {
    "description": "Karaoke Mugen Tag File",
    "version": 1
  },
  "tag": {
    "i18n": {
      "eng": "PICG"
    },
    "name": "PICG",
    "repository": "kara.moe",
    "tid": "1cba0c83-cb60-49e8-982d-3cc40e7d3c1a",
    "types": [
      "singergroups",
      "17"
    ]
  }
}