{
  "header": {
    "description": "Karaoke Mugen Tag File",
    "version": 1
  },
  "tag": {
    "i18n": {
      "eng": "Picon"
    },
    "modified_at": "2020-04-13T20:18:48.202Z",
    "name": "Picon",
    "repository": "kara.moe",
    "tid": "f868c86f-8964-491c-a481-0143e8d3093e",
    "types": [
      "songwriters",
      "8",
      "creators",
      "4"
    ]
  }
}