{
  "header": {
    "description": "Karaoke Mugen Tag File",
    "version": 1
  },
  "tag": {
    "i18n": {
      "eng": "Pico"
    },
    "name": "Pico",
    "tid": "2e537525-6d80-4474-8b1f-1535a448d133",
    "types": [
      "authors",
      "6"
    ],
    "repository": "kara.moe",
    "modified_at": "2020-03-31T19:04:36.920Z"
  }
}