{
  "header": {
    "description": "Karaoke Mugen Tag File",
    "version": 1
  },
  "tag": {
    "i18n": {
      "eng": "Pierre Laurent"
    },
    "modified_at": "2020-12-18T18:48:17.942Z",
    "name": "Pierre Laurent",
    "repository": "kara.moe",
    "tid": "f059af99-5f8b-4dac-809b-e9ff6306caba",
    "types": [
      "singers",
      "2"
    ]
  }
}