{
  "header": {
    "description": "Karaoke Mugen Tag File",
    "version": 1
  },
  "tag": {
    "i18n": {
      "eng": "Pierrot"
    },
    "name": "Pierrot",
    "repository": "kara.moe",
    "tid": "c46efdf6-2ab6-4dd2-a12f-c6222482c71e",
    "types": [
      "songwriters",
      "8",
      "singers",
      "2"
    ]
  }
}