{
  "header": {
    "description": "Karaoke Mugen Tag File",
    "version": 1
  },
  "tag": {
    "aliases": [
      "Daimaou Kosaka",
      "Kazuhito",
      "古坂和仁",
      "古坂大魔王"
    ],
    "i18n": {
      "eng": "Pikotaro",
      "jpn": "ピコ太郎",
      "qro": "Pikotaro"
    },
    "name": "Pikotaro",
    "repository": "kara.moe",
    "tid": "0927cb80-5404-4440-9c14-86ea5d2d300e",
    "types": [
      "singers",
      "2",
      "songwriters",
      "8"
    ]
  }
}