{
  "header": {
    "description": "Karaoke Mugen Tag File",
    "version": 1
  },
  "tag": {
    "aliases": [
      "pingpong"
    ],
    "external_database_ids": {
      "anilist": 20607,
      "myanimelist": 22135,
      "kitsu": 8262
    },
    "i18n": {
      "bul": "Пинг-понг анимацията",
      "chi": "乒乓 THE ANIMATION",
      "eng": "Ping Pong the Animation",
      "jpn": "ピンポン THE ANIMATION",
      "qro": "Ping Pong The Animation"
    },
    "name": "Ping Pong The Animation",
    "repository": "kara.moe",
    "tid": "706ebe5e-1c90-4d18-8f36-902eb8865bf9",
    "types": [
      "series",
      "1"
    ]
  }
}