{
  "header": {
    "description": "Karaoke Mugen Tag File",
    "version": 1
  },
  "tag": {
    "i18n": {
      "eng": "Pinocchio-P"
    },
    "name": "Pinocchio-P",
    "repository": "kara.moe",
    "tid": "1fbbae0a-e960-4869-aae1-512a064e94ca",
    "types": [
      "songwriters",
      "8",
      "creators",
      "4"
    ]
  }
}