{
  "header": {
    "description": "Karaoke Mugen Tag File",
    "version": 1
  },
  "tag": {
    "aliases": [
      "La Note parfaite"
    ],
    "i18n": {
      "eng": "Pitch Perfect",
      "fre": "The Hit Girls"
    },
    "name": "Pitch Perfect",
    "repository": "kara.moe",
    "tid": "a0aee879-9a6f-4256-b6e5-c4877c559268",
    "types": [
      "series",
      "1"
    ]
  }
}