{
  "header": {
    "description": "Karaoke Mugen Tag File",
    "version": 1
  },
  "tag": {
    "i18n": {
      "eng": "PizaCG"
    },
    "name": "PizaCG",
    "repository": "kara.moe",
    "tid": "2b643e69-1165-4009-814c-b31933a361c4",
    "types": [
      "creators",
      "4"
    ]
  }
}