{
  "header": {
    "description": "Karaoke Mugen Tag File",
    "version": 1
  },
  "tag": {
    "i18n": {
      "eng": "Planet Nemo Animation"
    },
    "modified_at": "2021-11-29T19:52:49.342Z",
    "name": "Planet Nemo Animation",
    "repository": "kara.moe",
    "tid": "52117b1a-55b4-41e7-83ad-55fd20615906",
    "types": [
      "creators",
      "4"
    ]
  }
}