{
  "header": {
    "description": "Karaoke Mugen Tag File",
    "version": 1
  },
  "tag": {
    "external_database_ids": {
      "anilist": 101368,
      "myanimelist": 37578,
      "kitsu": 41093
    },
    "i18n": {
      "eng": "Planet With",
      "jpn": "プラネット・ウィズ",
      "qro": "Planet With"
    },
    "modified_at": "2020-03-31T19:04:32.462Z",
    "name": "Planet With",
    "repository": "kara.moe",
    "tid": "f207d35f-c45c-4341-9f96-5b30fd92e274",
    "types": [
      "series",
      "1"
    ]
  }
}