{
  "header": {
    "description": "Karaoke Mugen Tag File",
    "version": 1
  },
  "tag": {
    "aliases": [
      "Plamemo",
      "Пластикові спогади",
      "プラスティック・メモリーズ"
    ],
    "external_database_ids": {
      "anilist": 20872,
      "myanimelist": 27775,
      "kitsu": 9538
    },
    "i18n": {
      "eng": "Plastic Memories",
      "jpn": "プラスティック･メモリーズ",
      "qro": "Plastic Memories"
    },
    "modified_at": "2020-06-21T23:45:31.966Z",
    "name": "Plastic Memories",
    "repository": "kara.moe",
    "tid": "a4f60a45-4ffe-4b78-8972-986546656699",
    "types": [
      "series",
      "1"
    ]
  }
}