{
  "header": {
    "description": "Karaoke Mugen Tag File",
    "version": 1
  },
  "tag": {
    "i18n": {
      "eng": "Plastic Bertrand"
    },
    "modified_at": "2020-07-29T17:42:13.348Z",
    "name": "Plastic Bertrand",
    "repository": "kara.moe",
    "tid": "70007bdc-540c-42ae-9b8a-478dcb0ebca1",
    "types": [
      "songwriters",
      "8",
      "singers",
      "2"
    ]
  }
}