{
  "header": {
    "description": "Karaoke Mugen Tag File",
    "version": 1
  },
  "tag": {
    "i18n": {
      "eng": "Platinum Vision"
    },
    "name": "Platinum Vision",
    "tid": "120465bd-82b3-4a23-b7e9-cb57b707d896",
    "types": [
      "creators",
      "4"
    ],
    "repository": "kara.moe",
    "modified_at": "2020-03-31T19:04:36.943Z"
  }
}