{
  "header": {
    "description": "Karaoke Mugen Tag File",
    "version": 1
  },
  "tag": {
    "i18n": {
      "eng": "PlayStation"
    },
    "karafile_tag": "PSX",
    "name": "Playstation",
    "tid": "f84b68ac-943a-495a-9c6e-d90ec959b19e",
    "types": [
      "platforms",
      "13"
    ],
    "short": "PSX",
    "repository": "kara.moe",
    "modified_at": "2020-03-31T19:04:36.948Z"
  }
}