{
  "header": {
    "description": "Karaoke Mugen Tag File",
    "version": 1
  },
  "tag": {
    "i18n": {
      "eng": "+DN"
    },
    "modified_at": "2020-08-19T17:27:10.254Z",
    "name": "+DN",
    "repository": "kara.moe",
    "tid": "296fa984-aac4-454c-8718-7d8d9dbd92d1",
    "types": [
      "songwriters",
      "8"
    ]
  }
}