{
  "header": {
    "description": "Karaoke Mugen Tag File",
    "version": 1
  },
  "tag": {
    "i18n": {
      "eng": "Poirier"
    },
    "name": "Poirier",
    "tid": "ca31dee1-9141-4c05-8f3f-dc9ec65d4a40",
    "types": [
      "authors",
      "6"
    ],
    "repository": "kara.moe",
    "modified_at": "2020-03-31T19:04:36.956Z"
  }
}