{
  "header": {
    "description": "Karaoke Mugen Tag File",
    "version": 1
  },
  "tag": {
    "aliases": [
      "-PKG-"
    ],
    "i18n": {
      "qro": "Pokakge",
      "jpn": "ぽかげ"
    },
    "name": "Pokakge",
    "repository": "kara.moe",
    "tid": "78f0de45-1dac-41ee-8a61-a28c52c59b7b",
    "types": [
      "creators",
      "4"
    ]
  }
}