{
  "header": {
    "description": "Karaoke Mugen Tag File",
    "version": 1
  },
  "tag": {
    "aliases": [
      "Pkmn",
      "Pocket Monsters"
    ],
    "external_database_ids": {
      "anilist": 6178,
      "myanimelist": 6178,
      "kitsu": 4460
    },
    "i18n": {
      "eng": "Pokémon the Movie 12: Arceus and the Jewel of Life",
      "fre": "Pokémon le film 12 : Arceus et le Joyau de Vie",
      "jpn": "ポケットモンスター ダイヤモンド&パール アルセウス 超克の時空へ",
      "qro": "Pokemon Diamond & Pearl: Arceus Choukoku no Jikuu e"
    },
    "modified_at": "2020-03-31T19:04:32.478Z",
    "name": "Pokemon Diamond & Pearl: Arceus Choukoku no Jikuu e",
    "repository": "kara.moe",
    "tid": "0d0ea2c6-6a9b-451a-8433-88893e7f126c",
    "types": [
      "series",
      "1"
    ]
  }
}