{
  "header": {
    "description": "Karaoke Mugen Tag File",
    "version": 1
  },
  "tag": {
    "i18n": {
      "eng": "Polar Music"
    },
    "name": "Polar Music",
    "repository": "kara.moe",
    "tid": "0d2bd039-464b-4967-bde4-2c26873ae41f",
    "types": [
      "creators",
      "4"
    ]
  }
}