{
  "header": {
    "description": "Karaoke Mugen Tag File",
    "version": 1
  },
  "tag": {
    "i18n": {
      "eng": "Polkadot Stingray"
    },
    "name": "Polkadot Stingray",
    "tid": "da73df46-f67f-4b9b-af6d-7933c26b1066",
    "types": [
      "singers",
      "2"
    ],
    "repository": "kara.moe",
    "modified_at": "2020-03-31T19:04:36.959Z"
  }
}