{
  "header": {
    "description": "Karaoke Mugen Tag File",
    "version": 1
  },
  "tag": {
    "i18n": {
      "eng": "Polydor"
    },
    "modified_at": "2020-05-23T21:33:53.943Z",
    "name": "Polydor",
    "repository": "kara.moe",
    "tid": "ee954a78-2b37-4071-b094-f9945d846d63",
    "types": [
      "creators",
      "4"
    ]
  }
}