{
  "header": {
    "description": "Karaoke Mugen Tag File",
    "version": 1
  },
  "tag": {
    "i18n": {
      "eng": "Popushi"
    },
    "name": "Popushi",
    "repository": "kara.moe",
    "tid": "931d0d6c-2e6f-453b-8258-6230573a78eb",
    "types": [
      "singers",
      "2"
    ],
    "modified_at": "2020-03-31T19:04:36.966Z"
  }
}