{
  "header": {
    "description": "Karaoke Mugen Tag File",
    "version": 1
  },
  "tag": {
    "i18n": {
      "eng": "Portal A"
    },
    "name": "Portal A",
    "repository": "kara.moe",
    "tid": "d6834309-9d9f-4bfc-bf64-06272aca1ad0",
    "types": [
      "creators",
      "4"
    ],
    "modified_at": "2020-03-31T19:04:36.968Z"
  }
}