{
  "header": {
    "description": "Karaoke Mugen Tag File",
    "version": 1
  },
  "tag": {
    "i18n": {
      "eng": "PPP"
    },
    "modified_at": "2021-10-03T12:05:48.352Z",
    "name": "PPP",
    "repository": "kara.moe",
    "tid": "d96d7c15-2629-4bc6-9716-fad93c0a4435",
    "types": [
      "creators",
      "4"
    ]
  }
}