{
  "header": {
    "description": "Karaoke Mugen Tag File",
    "version": 1
  },
  "tag": {
    "i18n": {
      "eng": "PPP"
    },
    "name": "PPP",
    "tid": "3123af14-cfe1-4831-9f38-8a98612c003c",
    "types": [
      "singers",
      "2"
    ],
    "repository": "kara.moe",
    "modified_at": "2020-03-31T19:04:36.972Z"
  }
}