{
  "header": {
    "description": "Karaoke Mugen Tag File",
    "version": 1
  },
  "tag": {
    "i18n": {
      "eng": "PRANDONI"
    },
    "name": "PRANDONI",
    "tid": "20c163fa-b07c-4d61-9961-85be7d14d921",
    "types": [
      "songwriters",
      "8"
    ],
    "repository": "kara.moe",
    "modified_at": "2020-03-31T19:04:36.973Z"
  }
}