{
  "header": {
    "description": "Karaoke Mugen Tag File",
    "version": 1
  },
  "tag": {
    "external_database_ids": {
      "anilist": 17249,
      "myanimelist": 17249,
      "kitsu": 7618
    },
    "i18n": {
      "eng": "Pretty Rhythm Rainbow Live",
      "jpn": "プリティーリズム レインボーライブ",
      "chi": "星光少女 彩虹舞台",
      "qro": "Pretty Rhythm Rainbow Live"
    },
    "modified_at": "2021-02-12T20:27:02.221Z",
    "name": "Pretty Rhythm Rainbow Live",
    "repository": "kara.moe",
    "tid": "f9fc2c4e-cc85-4ba0-b802-0d0944ae4803",
    "types": [
      "series",
      "1"
    ]
  }
}