{
  "header": {
    "description": "Karaoke Mugen Tag File",
    "version": 1
  },
  "tag": {
    "i18n": {
      "eng": "Primitive Link",
      "jpn": "プリミティブ リンク",
      "qro": "Primitive Link"
    },
    "modified_at": "2020-03-31T19:04:32.502Z",
    "name": "Primitive Link",
    "repository": "kara.moe",
    "tid": "b764628b-5701-451e-b5ed-88d54ba53445",
    "types": [
      "series",
      "1"
    ]
  }
}