{
  "header": {
    "description": "Karaoke Mugen Tag File",
    "version": 1
  },
  "tag": {
    "external_database_ids": {
      "anilist": 101595,
      "myanimelist": 37807,
      "kitsu": 41254
    },
    "i18n": {
      "eng": "Princess Principal Crown Handler",
      "jpn": "プリンセス・プリンシパル Crown Handler",
      "qro": "Princess Principal Crown Handler"
    },
    "modified_at": "2021-06-25T21:31:18.881Z",
    "name": "Princess Principal Crown Handler",
    "repository": "kara.moe",
    "tid": "66b8c9a0-79d6-4a79-9576-c708ca1834c8",
    "types": [
      "series",
      "1"
    ]
  }
}