{
  "header": {
    "description": "Karaoke Mugen Tag File",
    "version": 1
  },
  "tag": {
    "external_database_ids": {
      "anilist": 98228,
      "kitsu": 13434,
      "myanimelist": 34799
    },
    "i18n": {
      "eng": "PriPri Chii-chan!!",
      "jpn": "プリプリちぃちゃん!!",
      "qro": "Puripuri Chii-chan!!",
      "chi": "噗利噗利奇!!"
    },
    "name": "PriPri Chii-chan!!",
    "repository": "kara.moe",
    "tid": "d56de058-3c33-4618-95dc-5202a308fc7c",
    "types": [
      "series",
      "1"
    ]
  }
}