{
  "header": {
    "description": "Karaoke Mugen Tag File",
    "version": 1
  },
  "tag": {
    "i18n": {
      "eng": "Prisca Demarez"
    },
    "name": "Prisca Demarez",
    "repository": "kara.moe",
    "tid": "6b06a1b7-6e6c-4f2c-a516-8f8975b09564",
    "types": [
      "singers",
      "2"
    ]
  }
}