{
  "header": {
    "description": "Karaoke Mugen Tag File",
    "version": 1
  },
  "tag": {
    "aliases": [
      "Prism Ark LoveLove Maximum!"
    ],
    "i18n": {
      "eng": "Prism Ark Love² Maximum!",
      "jpn": "プリズム・アーク らぶらぶマキシマム！",
      "qro": "Prism Ark ~love2 maximum!"
    },
    "modified_at": "2020-03-31T19:04:32.509Z",
    "name": "Prism Ark ~love2 maximum!",
    "repository": "kara.moe",
    "tid": "fcffe7b8-fe96-4791-9702-b82930694f6f",
    "types": [
      "series",
      "1"
    ]
  }
}