{
  "header": {
    "description": "Karaoke Mugen Tag File",
    "version": 1
  },
  "tag": {
    "aliases": [
      "PxZ"
    ],
    "i18n": {
      "eng": "Project X Zone",
      "jpn": "プロジェクト クロスゾーン",
      "qro": "Project X Zone"
    },
    "modified_at": "2020-03-31T19:04:32.513Z",
    "name": "Project X Zone",
    "repository": "kara.moe",
    "tid": "1111a2a0-5857-4c95-ae0c-ee2390b7acac",
    "types": [
      "series",
      "1",
      "franchises",
      "18"
    ]
  }
}