{
  "header": {
    "description": "Karaoke Mugen Tag File",
    "version": 1
  },
  "tag": {
    "i18n": {
      "eng": "Project M (4)"
    },
    "name": "Project M (4)",
    "repository": "kara.moe",
    "tid": "1d1f5fb0-2a77-491d-bebc-efb4cb26c434",
    "types": [
      "songwriters",
      "8"
    ]
  }
}