{
  "header": {
    "description": "Karaoke Mugen Tag File",
    "version": 1
  },
  "tag": {
    "i18n": {
      "eng": "PSY・S"
    },
    "name": "PSY・S",
    "tid": "05379231-046e-4eeb-a834-adb8438d3e67",
    "types": [
      "singers",
      "2"
    ],
    "repository": "kara.moe",
    "modified_at": "2020-03-31T19:04:36.983Z"
  }
}