{
  "header": {
    "description": "Karaoke Mugen Tag File",
    "version": 1
  },
  "tag": {
    "i18n": {
      "eng": "Purple Software"
    },
    "name": "Purple Software",
    "tid": "d701acb7-cbdb-4835-ba8b-1379549ff200",
    "types": [
      "creators",
      "4"
    ],
    "repository": "kara.moe",
    "modified_at": "2020-03-31T19:04:36.990Z"
  }
}