{
  "header": {
    "description": "Karaoke Mugen Tag File",
    "version": 1
  },
  "tag": {
    "i18n": {
      "eng": "Promotional Video",
      "fre": "Vidéo Promotionnelle"
    },
    "karafile_tag": "PV",
    "modified_at": "2021-02-14T16:03:07.940Z",
    "name": "PV",
    "priority": 15,
    "repository": "kara.moe",
    "tid": "66e195b9-64ea-432d-a917-2e2c88d26052",
    "types": [
      "songtypes",
      "3"
    ]
  }
}