{
  "header": {
    "description": "Karaoke Mugen Tag File",
    "version": 1
  },
  "tag": {
    "i18n": {
      "eng": "pw.a"
    },
    "modified_at": "2021-02-18T10:54:31.073Z",
    "name": "pw.a",
    "repository": "kara.moe",
    "tid": "236a5b15-fc97-4075-baab-537494d9b271",
    "types": [
      "songwriters",
      "8"
    ]
  }
}