{
  "header": {
    "description": "Karaoke Mugen Tag File",
    "version": 1
  },
  "tag": {
    "i18n": {
      "eng": "PWL"
    },
    "name": "PWL",
    "tid": "66be91d0-347b-4ab5-bbf8-ca0aa7603123",
    "types": [
      "creators",
      "4"
    ],
    "repository": "kara.moe",
    "modified_at": "2020-03-31T19:04:36.992Z"
  }
}