{
  "header": {
    "description": "Karaoke Mugen Tag File",
    "version": 1
  },
  "tag": {
    "i18n": {
      "eng": "Qaijff"
    },
    "name": "Qaijff",
    "tid": "08b12223-db85-44c7-b3a0-4f01f775ac94",
    "types": [
      "singers",
      "2"
    ],
    "repository": "kara.moe",
    "modified_at": "2020-03-31T19:04:36.997Z"
  }
}