{
  "header": {
    "description": "Karaoke Mugen Tag File",
    "version": 1
  },
  "tag": {
    "aliases": [
      "Juu Musume"
    ],
    "external_database_ids": {
      "anilist": 100812,
      "myanimelist": 36164,
      "kitsu": 13963
    },
    "i18n": {
      "eng": "Gun Girls",
      "chi": "枪娘",
      "jpn": "銃娘[ガンガール]",
      "qro": "Qiang Niang"
    },
    "modified_at": "2020-07-13T23:39:00.840Z",
    "name": "Qiang Niang",
    "repository": "kara.moe",
    "tid": "aee30c56-e6f1-44b9-ab9d-7b16100dd905",
    "types": [
      "series",
      "1"
    ]
  }
}