{
  "header": {
    "description": "Karaoke Mugen Tag File",
    "version": 1
  },
  "tag": {
    "external_database_ids": {
      "anilist": 21557,
      "kitsu": 11653,
      "myanimelist": 32360
    },
    "i18n": {
      "eng": "Qualidea Code",
      "jpn": "クオリディア・コード"
    },
    "name": "Qualidea Code",
    "repository": "kara.moe",
    "tid": "9d11f25e-71b4-4f49-97c4-9507241f2b18",
    "types": [
      "series",
      "1"
    ]
  }
}