{
  "header": {
    "description": "Karaoke Mugen Tag File",
    "version": 1
  },
  "tag": {
    "i18n": {
      "eng": "R-Note"
    },
    "name": "R-Note",
    "repository": "kara.moe",
    "tid": "60e0c4de-7903-4029-9fa0-48b7f0679a9c",
    "types": [
      "creators",
      "4"
    ]
  }
}