{
  "header": {
    "description": "Karaoke Mugen Tag File",
    "version": 1
  },
  "tag": {
    "external_database_ids": {
      "anilist": 208,
      "myanimelist": 208,
      "kitsu": 184
    },
    "i18n": {
      "eng": "R.O.D",
      "jpn": "R.O.D: Read or Die",
      "qro": "R.O.D: Read or Die"
    },
    "modified_at": "2020-03-31T19:04:32.530Z",
    "name": "R.O.D: Read or Die",
    "repository": "kara.moe",
    "tid": "b1bd29ac-1f2b-49b6-a36a-582fc87955fa",
    "types": [
      "series",
      "1"
    ]
  }
}