{
  "header": {
    "description": "Karaoke Mugen Tag File",
    "version": 1
  },
  "tag": {
    "i18n": {
      "eng": "//R3"
    },
    "modified_at": "2021-01-07T14:30:20.566Z",
    "name": "//R3",
    "repository": "kara.moe",
    "tid": "1ad5943e-64aa-44ca-a246-80103630c0e3",
    "types": [
      "creators",
      "4"
    ]
  }
}