{
  "header": {
    "description": "Karaoke Mugen Tag File",
    "version": 1
  },
  "tag": {
    "i18n": {
      "eng": "Radfeenix"
    },
    "modified_at": "2021-01-03T23:47:34.015Z",
    "name": "Radfeenix",
    "repository": "kara.moe",
    "tid": "7da086ee-f2a7-4a4d-ae29-e385e2f13aa5",
    "types": [
      "creators",
      "4"
    ]
  }
}