{
  "header": {
    "description": "Karaoke Mugen Tag File",
    "version": 1
  },
  "tag": {
    "external_database_ids": {
      "anilist": 101024,
      "myanimelist": 37202,
      "kitsu": 41099
    },
    "i18n": {
      "eng": "Radiant",
      "jpn": "ラディアン",
      "qro": "Radiant"
    },
    "modified_at": "2020-03-31T19:04:32.532Z",
    "name": "Radiant",
    "repository": "kara.moe",
    "tid": "6e99e75c-0f3a-4df5-9d42-f97af515deb9",
    "types": [
      "series",
      "1",
      "franchises",
      "18"
    ]
  }
}