{
  "header": {
    "description": "Karaoke Mugen Tag File",
    "version": 1
  },
  "tag": {
    "aliases": [
      "راجناروك"
    ],
    "external_database_ids": {
      "anilist": 417,
      "myanimelist": 417,
      "kitsu": 381
    },
    "i18n": {
      "eng": "Ragnarok the Animation",
      "jpn": "RAGNAROK THE ANIMATION",
      "fin": "Ragnarok",
      "fre": "Ragnarok the Animation",
      "swe": "Ragnarök",
      "rus": "Рагнарёк The Animation",
      "ger": "Ragnarök the Animation",
      "kor": "마법신화 라그나로크",
      "qro": "Ragnarok The Animation"
    },
    "modified_at": "2020-08-26T21:52:06.885Z",
    "name": "Ragnarok The Animation",
    "repository": "kara.moe",
    "tid": "3a57c2f8-0125-4b89-843f-61fab6d3e20f",
    "types": [
      "series",
      "1"
    ]
  }
}