{
  "header": {
    "description": "Karaoke Mugen Tag File",
    "version": 1
  },
  "tag": {
    "i18n": {
      "eng": "Rakuten Point"
    },
    "modified_at": "2021-02-14T14:17:47.327Z",
    "name": "Rakuten Point",
    "repository": "kara.moe",
    "tid": "5aa71b4c-a306-46f4-a145-76d8bb8792b2",
    "types": [
      "series",
      "1"
    ]
  }
}