{
  "header": {
    "description": "Karaoke Mugen Tag File",
    "version": 1
  },
  "tag": {
    "i18n": {
      "eng": "Rakuten"
    },
    "modified_at": "2021-02-14T14:17:47.508Z",
    "name": "Rakuten",
    "repository": "kara.moe",
    "tid": "745b25bf-5faa-4e32-ae3e-540befb8433c",
    "types": [
      "creators",
      "4"
    ]
  }
}