{
  "header": {
    "description": "Karaoke Mugen Tag File",
    "version": 1
  },
  "tag": {
    "i18n": {
      "eng": "ralph mccarthy"
    },
    "name": "ralph mccarthy",
    "tid": "b7a03387-83c7-41fe-ae00-2fa17fa7748e",
    "types": [
      "songwriters",
      "8"
    ],
    "repository": "kara.moe",
    "modified_at": "2020-03-31T19:04:37.014Z"
  }
}