{
  "header": {
    "description": "Karaoke Mugen Tag File",
    "version": 1
  },
  "tag": {
    "i18n": {
      "eng": "Rambow Minami"
    },
    "name": "Rambow Minami",
    "tid": "abd1f71b-8cdd-4e76-ab0f-0fe01706b5b9",
    "types": [
      "songwriters",
      "8"
    ],
    "repository": "kara.moe",
    "modified_at": "2020-03-31T19:04:37.016Z"
  }
}