{
  "header": {
    "description": "Karaoke Mugen Tag File",
    "version": 1
  },
  "tag": {
    "i18n": {
      "eng": "Random Encounters"
    },
    "name": "Random Encounters",
    "tid": "e7a5db9d-f6ac-47d7-a0c4-b87b757921ea",
    "types": [
      "creators",
      "4",
      "singers",
      "2",
      "songwriters",
      "8"
    ],
    "repository": "kara.moe",
    "modified_at": "2020-03-31T19:04:37.019Z"
  }
}