{
  "header": {
    "description": "Karaoke Mugen Tag File",
    "version": 1
  },
  "tag": {
    "i18n": {
      "eng": "Randy Sparks"
    },
    "name": "Randy Sparks",
    "tid": "11f43bf7-3df4-455d-ba59-6f74e6bf51ea",
    "types": [
      "songwriters",
      "8"
    ],
    "repository": "kara.moe",
    "modified_at": "2020-03-31T19:04:37.021Z"
  }
}