{
  "header": {
    "description": "Karaoke Mugen Tag File",
    "version": 1
  },
  "tag": {
    "i18n": {
      "eng": "Randy Edelman"
    },
    "modified_at": "2021-01-15T18:37:22.343Z",
    "name": "Randy Edelman",
    "repository": "kara.moe",
    "tid": "ff48baab-37fe-4d79-b23b-7eb9af984cad",
    "types": [
      "songwriters",
      "8"
    ]
  }
}