{
  "header": {
    "description": "Karaoke Mugen Tag File",
    "version": 1
  },
  "tag": {
    "aliases": [
      "12",
      "1/2",
      "un demi"
    ],
    "external_database_ids": {
      "anilist": 1007,
      "kitsu": 897,
      "myanimelist": 1007
    },
    "i18n": {
      "eng": "Ranma ½ (1993)",
      "jpn": "らんま1/2 (1993)",
      "qro": "Ranma ½ (1993)"
    },
    "name": "Ranma ½ (1993)",
    "repository": "kara.moe",
    "tid": "89b1c01d-d36a-46df-a63d-92e28a19a904",
    "types": [
      "series",
      "1"
    ]
  }
}