{
  "header": {
    "description": "Karaoke Mugen Tag File",
    "version": 1
  },
  "tag": {
    "i18n": {
      "eng": "Rapbit"
    },
    "name": "Rapbit",
    "tid": "0860e3f7-5a3d-467f-89ec-7e37e3b09bb2",
    "types": [
      "singers",
      "2",
      "songwriters",
      "8"
    ],
    "repository": "kara.moe",
    "modified_at": "2020-03-31T19:04:37.022Z"
  }
}