{
  "header": {
    "description": "Karaoke Mugen Tag File",
    "version": 1
  },
  "tag": {
    "i18n": {
      "eng": "Ratchet & Clank: Up Your Arsenal"
    },
    "modified_at": "2020-03-31T19:04:32.539Z",
    "name": "Ratchet & Clank: Up Your Arsenal",
    "repository": "kara.moe",
    "tid": "cc3ac90c-07f4-46bc-8878-58c838dd9f89",
    "types": [
      "series",
      "1"
    ]
  }
}