{
  "header": {
    "description": "Karaoke Mugen Tag File",
    "version": 1
  },
  "tag": {
    "i18n": {
      "eng": "Raven-Symoné"
    },
    "name": "Raven-Symoné",
    "tid": "afda81cf-a15f-489e-9f14-0ee6bb96cd7b",
    "types": [
      "singers",
      "2"
    ],
    "repository": "kara.moe",
    "modified_at": "2020-03-31T19:04:37.026Z"
  }
}