{
  "header": {
    "description": "Karaoke Mugen Tag File",
    "version": 1
  },
  "tag": {
    "i18n": {
      "eng": "Ray Charles"
    },
    "modified_at": "2021-09-15T11:30:32.854Z",
    "name": "Ray Charles",
    "repository": "kara.moe",
    "tid": "60d2eed1-33e9-46e4-ad99-bbc5af3b9f17",
    "types": [
      "songwriters",
      "8"
    ]
  }
}