{
  "header": {
    "description": "Karaoke Mugen Tag File",
    "version": 1
  },
  "tag": {
    "i18n": {
      "eng": "Ray Toro"
    },
    "name": "Ray Toro",
    "repository": "kara.moe",
    "tid": "45f6b53f-a897-4d0d-a01b-5a8c856206d6",
    "types": [
      "songwriters",
      "8"
    ]
  }
}