{
  "header": {
    "description": "Karaoke Mugen Tag File",
    "version": 1
  },
  "tag": {
    "i18n": {
      "eng": "RCA Records"
    },
    "name": "RCA Records",
    "tid": "011b3ef8-7a64-4816-b94c-1c21bc24e833",
    "types": [
      "creators",
      "4"
    ],
    "repository": "kara.moe",
    "modified_at": "2020-03-31T19:04:37.029Z"
  }
}