{
  "header": {
    "description": "Karaoke Mugen Tag File",
    "version": 1
  },
  "tag": {
    "aliases": [
      "リゼロ",
      "rezero",
      "re zero"
    ],
    "external_database_ids": {
      "anilist": 108632,
      "myanimelist": 39587,
      "kitsu": 42198
    },
    "i18n": {
      "eng": "Re:Zero ‒ Starting Life in Another World 2nd Season",
      "jpn": "Re:ゼロから始める異世界生活 2nd season",
      "chi": "Re：從零開始的異世界生活 第二季",
      "rus": "Re:Zero — жизнь с нуля в другом мире. Второй сезон",
      "qro": "Re:Zero kara Hajimeru Isekai Seikatsu 2nd Season"
    },
    "modified_at": "2020-07-15T16:51:21.009Z",
    "name": "Re:Zero kara Hajimeru Isekai Seikatsu 2nd Season",
    "repository": "kara.moe",
    "tid": "df22ce24-409a-424a-9fe4-c3add973462b",
    "types": [
      "series",
      "1"
    ]
  }
}