{
  "header": {
    "description": "Karaoke Mugen Tag File",
    "version": 1
  },
  "tag": {
    "i18n": {
      "eng": "Red Company"
    },
    "name": "Red Company",
    "tid": "500e2283-ec1c-46cf-a559-8e11e3e86d99",
    "types": [
      "creators",
      "4"
    ],
    "repository": "kara.moe",
    "modified_at": "2020-03-31T19:04:37.036Z"
  }
}