{
  "header": {
    "description": "Karaoke Mugen Tag File",
    "version": 1
  },
  "tag": {
    "aliases": [
      "redshadow"
    ],
    "i18n": {
      "eng": "red5h4d0w"
    },
    "name": "red5h4d0w",
    "repository": "kara.moe",
    "tid": "7848b5dc-a5df-4577-b640-147be5288cec",
    "types": [
      "authors",
      "6"
    ]
  }
}