{
  "header": {
    "description": "Karaoke Mugen Tag File",
    "version": 1
  },
  "tag": {
    "i18n": {
      "eng": "redballoon"
    },
    "name": "redballoon",
    "tid": "d23046fc-00c2-49f2-9491-d7625cf6de6e",
    "types": [
      "singers",
      "2"
    ],
    "repository": "kara.moe",
    "modified_at": "2020-03-31T19:04:37.038Z"
  }
}