{
  "header": {
    "description": "Karaoke Mugen Tag File",
    "version": 1
  },
  "tag": {
    "i18n": {
      "eng": "Redman",
      "jpn": "レッドマン",
      "qro": "Redman"
    },
    "modified_at": "2020-03-31T19:04:32.546Z",
    "name": "Redman",
    "repository": "kara.moe",
    "tid": "a8305f68-f862-4cbd-a2cf-693598227ed6",
    "types": [
      "series",
      "1"
    ]
  }
}