{
  "header": {
    "description": "Karaoke Mugen Tag File",
    "version": 1
  },
  "tag": {
    "i18n": {
      "eng": "Regis Altare",
      "jpn": "リージス・アルテア"
    },
    "name": "Regis Altare",
    "repository": "kara.moe",
    "tid": "de16f62a-13e8-4d2b-ba56-75be7aa29134",
    "types": [
      "singers",
      "2"
    ]
  }
}