{
  "header": {
    "description": "Karaoke Mugen Tag File",
    "version": 1
  },
  "tag": {
    "i18n": {
      "eng": "Rei Nakanishi"
    },
    "name": "Rei Nakanishi",
    "tid": "4a06c6e3-a32a-43ee-9faa-fe80d1c07b1c",
    "types": [
      "songwriters",
      "8"
    ],
    "repository": "kara.moe",
    "modified_at": "2020-03-31T19:04:37.043Z"
  }
}