{
  "header": {
    "description": "Karaoke Mugen Tag File",
    "version": 1
  },
  "tag": {
    "i18n": {
      "eng": "Reiko Takagi"
    },
    "name": "Reiko Takagi",
    "tid": "44bb822c-27da-4c9c-ac48-9856c05eee3c",
    "types": [
      "singers",
      "2"
    ],
    "repository": "kara.moe",
    "modified_at": "2020-03-31T19:04:37.049Z"
  }
}