{
  "header": {
    "description": "Karaoke Mugen Tag File",
    "version": 1
  },
  "tag": {
    "i18n": {
      "eng": "Reiko Yukawa"
    },
    "name": "Reiko Yukawa",
    "tid": "7c3e54fa-3085-4981-9904-2510fa36aa55",
    "types": [
      "songwriters",
      "8"
    ],
    "repository": "kara.moe",
    "modified_at": "2020-03-31T19:04:37.051Z"
  }
}