{
  "header": {
    "description": "Karaoke Mugen Tag File",
    "version": 1
  },
  "tag": {
    "i18n": {
      "eng": "Reimu Endou"
    },
    "name": "Reimu Endou",
    "repository": "kara.moe",
    "tid": "9d34f63f-ecde-4f4c-b0e2-2e8065d6e1da",
    "types": [
      "singers",
      "2"
    ]
  }
}