{
  "header": {
    "description": "Karaoke Mugen Tag File",
    "version": 1
  },
  "tag": {
    "i18n": {
      "eng": "Reina Kondô"
    },
    "name": "Reina Kondô",
    "tid": "8c152b0e-69d0-4a7a-a134-eff7451c731f",
    "types": [
      "singers",
      "2"
    ],
    "repository": "kara.moe",
    "modified_at": "2020-03-31T19:04:37.052Z"
  }
}