{
  "header": {
    "description": "Karaoke Mugen Tag File",
    "version": 1
  },
  "tag": {
    "i18n": {
      "eng": "Reine Pavolia"
    },
    "modified_at": "1982-04-06",
    "name": "Reine Pavolia",
    "repository": "kara.moe",
    "tid": "0c70150b-cccd-4f24-b684-041f1163bede",
    "types": [
      "singers",
      "2",
      "songwriters",
      "8"
    ]
  }
}