{
  "header": {
    "description": "Karaoke Mugen Tag File",
    "version": 1
  },
  "tag": {
    "i18n": {
      "eng": "Rella"
    },
    "name": "Rella",
    "repository": "kara.moe",
    "tid": "f1f74278-a356-4cb7-8590-fd79940b6f97",
    "types": [
      "creators",
      "4"
    ]
  }
}