{
  "header": {
    "description": "Karaoke Mugen Tag File",
    "version": 1
  },
  "tag": {
    "i18n": {
      "eng": "REM"
    },
    "name": "REM",
    "tid": "d1b776a9-2bab-41fa-b6d0-9300da56124c",
    "types": [
      "singers",
      "2",
      "songwriters",
      "8"
    ],
    "repository": "kara.moe",
    "modified_at": "2020-03-31T19:04:37.056Z"
  }
}