{
  "header": {
    "description": "Karaoke Mugen Tag File",
    "version": 1
  },
  "tag": {
    "i18n": {
      "eng": "Rémi Lacroix"
    },
    "name": "Rémi Lacroix",
    "repository": "kara.moe",
    "tid": "0435be21-92aa-4592-a4fd-b4fcf01fe2eb",
    "types": [
      "songwriters",
      "8"
    ]
  }
}