{
  "header": {
    "description": "Karaoke Mugen Tag File",
    "version": 1
  },
  "tag": {
    "i18n": {
      "eng": "Rémy Sarrazin"
    },
    "name": "Rémy Sarrazin",
    "tid": "16745d25-6f34-47e1-8e74-a45f7b07491f",
    "types": [
      "singers",
      "2"
    ],
    "repository": "kara.moe",
    "modified_at": "2020-03-31T19:04:37.059Z"
  }
}