{
  "header": {
    "description": "Karaoke Mugen Tag File",
    "version": 1
  },
  "tag": {
    "aliases": [
      "Renai Boukun",
      "The very lovely tyrant of love ♥",
      "boukun"
    ],
    "external_database_ids": {
      "anilist": 21517,
      "myanimelist": 32262,
      "kitsu": 11610
    },
    "i18n": {
      "eng": "Love Tyrant",
      "fre": "Love Tyrant",
      "jpn": "恋愛暴君",
      "kor": "연애폭군",
      "qro": "Ren'ai Bôkun"
    },
    "modified_at": "2020-03-31T19:04:32.550Z",
    "name": "Ren'ai Bôkun",
    "repository": "kara.moe",
    "tid": "ec2a3a46-2cd4-4877-9c70-89027343dda0",
    "types": [
      "series",
      "1"
    ]
  }
}