{
  "header": {
    "description": "Karaoke Mugen Tag File",
    "version": 1
  },
  "tag": {
    "i18n": {
      "eng": "Ren"
    },
    "name": "Ren",
    "repository": "kara.moe",
    "tid": "89ba8e15-5ddd-4844-8a1a-21eb67c970c4",
    "types": [
      "songwriters",
      "8"
    ]
  }
}