{
  "header": {
    "description": "Karaoke Mugen Tag File",
    "version": 1
  },
  "tag": {
    "i18n": {
      "eng": "René Goscinny"
    },
    "name": "René Goscinny",
    "tid": "b0e11afe-e371-42a6-b77a-1ab7209a77d3",
    "types": [
      "creators",
      "4"
    ],
    "repository": "kara.moe",
    "modified_at": "2020-03-31T19:04:37.065Z"
  }
}