{
  "header": {
    "description": "Karaoke Mugen Tag File",
    "version": 1
  },
  "tag": {
    "external_database_ids": {
      "anilist": 941,
      "myanimelist": 941,
      "kitsu": 837
    },
    "i18n": {
      "eng": "Renkin San-kyu Magical? Pokan",
      "fre": "Renkin San-kyû Magical? Pokân",
      "jpn": "錬金3級 まじかる?ぽか〜ん",
      "qro": "Renkin San-Kyuu Magical Pokaan"
    },
    "modified_at": "2020-03-31T19:04:32.551Z",
    "name": "Renkin San-Kyuu Magical Pokaan",
    "repository": "kara.moe",
    "tid": "dde1c137-9c8c-4f5e-b251-73ade5b3e690",
    "types": [
      "series",
      "1"
    ]
  }
}