{
  "header": {
    "description": "Karaoke Mugen Tag File",
    "version": 1
  },
  "tag": {
    "i18n": {
      "eng": "rerulili"
    },
    "name": "rerulili",
    "tid": "da3c407d-2525-4118-be1e-295ffe2cc4d9",
    "types": [
      "songwriters",
      "8"
    ],
    "repository": "kara.moe",
    "modified_at": "2020-03-31T19:04:37.072Z"
  }
}