{
  "header": {
    "description": "Karaoke Mugen Tag File",
    "version": 1
  },
  "tag": {
    "i18n": {
      "eng": "Ricet Barrier"
    },
    "name": "Ricet Barrier",
    "tid": "beaea379-f08b-484c-9b61-29531bdf99ec",
    "types": [
      "singers",
      "2",
      "songwriters",
      "8"
    ],
    "repository": "kara.moe",
    "modified_at": "2020-03-31T19:04:37.081Z"
  }
}