{
  "header": {
    "description": "Karaoke Mugen Tag File",
    "version": 1
  },
  "tag": {
    "i18n": {
      "eng": "Rico Shioya"
    },
    "name": "Rico Shioya",
    "tid": "e9482ecc-7316-4d71-a2f3-2aa1f5fb199b",
    "types": [
      "songwriters",
      "8"
    ],
    "repository": "kara.moe",
    "modified_at": "2020-03-31T19:04:37.087Z"
  }
}