{
  "header": {
    "description": "Karaoke Mugen Tag File",
    "version": 1
  },
  "tag": {
    "i18n": {
      "eng": "Rie Kugimiya"
    },
    "name": "Rie Kugimiya",
    "tid": "4d3d3977-6aa4-47ee-b216-a2955a5f60b9",
    "types": [
      "singers",
      "2"
    ],
    "repository": "kara.moe",
    "modified_at": "2020-03-31T19:04:37.092Z"
  }
}