{
  "header": {
    "description": "Karaoke Mugen Tag File",
    "version": 1
  },
  "tag": {
    "i18n": {
      "eng": "Rieko Nakagawa"
    },
    "name": "Rieko Nakagawa",
    "tid": "3528ddd3-1ac0-4c50-a249-fe6f760a46d5",
    "types": [
      "songwriters",
      "8"
    ],
    "repository": "kara.moe",
    "modified_at": "2020-03-31T19:04:37.099Z"
  }
}