{
  "header": {
    "description": "Karaoke Mugen Tag File",
    "version": 1
  },
  "tag": {
    "i18n": {
      "eng": "Rihanna"
    },
    "name": "Rihanna",
    "repository": "kara.moe",
    "tid": "68de36fc-eee6-43fb-b66b-68a7530e77ec",
    "types": [
      "singers",
      "2"
    ]
  }
}