{
  "header": {
    "description": "Karaoke Mugen Tag File",
    "version": 1
  },
  "tag": {
    "i18n": {
      "eng": "Rika Muranaka"
    },
    "name": "Rika Muranaka",
    "tid": "67bd01f3-f805-4c14-911f-a2bc646a3563",
    "types": [
      "songwriters",
      "8"
    ],
    "repository": "kara.moe",
    "modified_at": "2020-03-31T19:04:37.104Z"
  }
}