{
  "header": {
    "description": "Karaoke Mugen Tag File",
    "version": 1
  },
  "tag": {
    "i18n": {
      "eng": "Rika Sudô"
    },
    "name": "Rika Sudô",
    "tid": "3e35059c-b1e3-415f-86ca-7d342e77e884",
    "types": [
      "singers",
      "2"
    ],
    "repository": "kara.moe",
    "modified_at": "2020-03-31T19:04:37.105Z"
  }
}