{
  "header": {
    "description": "Karaoke Mugen Tag File",
    "version": 1
  },
  "tag": {
    "i18n": {
      "eng": "Rike Schmalz"
    },
    "name": "Rike Schmalz",
    "tid": "7475a675-14e6-40e6-be6b-7008902a3f17",
    "types": [
      "songwriters",
      "8"
    ],
    "repository": "kara.moe",
    "modified_at": "2020-03-31T19:04:37.107Z"
  }
}