{
  "header": {
    "description": "Karaoke Mugen Tag File",
    "version": 1
  },
  "tag": {
    "i18n": {
      "eng": "Riki Arai"
    },
    "name": "Riki Arai",
    "tid": "00893235-7d8a-43dc-a4d8-6fb9d40e20be",
    "types": [
      "songwriters",
      "8"
    ],
    "repository": "kara.moe",
    "modified_at": "2020-03-31T19:04:37.108Z"
  }
}