{
  "header": {
    "description": "Karaoke Mugen Tag File",
    "version": 1
  },
  "tag": {
    "i18n": {
      "eng": "Rikka",
      "jpn": "六花",
      "qro": "Rikka"
    },
    "modified_at": "2021-09-05T15:49:03.791Z",
    "name": "Rikka",
    "repository": "kara.moe",
    "tid": "4eeec1e0-428f-4bb7-b538-64f5d1cdbb9e",
    "types": [
      "singers",
      "2"
    ]
  }
}