{
  "header": {
    "description": "Karaoke Mugen Tag File",
    "version": 1
  },
  "tag": {
    "i18n": {
      "eng": "Riko Shimizu "
    },
    "name": "Riko Shimizu ",
    "repository": "kara.moe",
    "tid": "0771116e-f2d9-49c1-a7b2-76ff316fb7e5",
    "types": [
      "singers",
      "2"
    ]
  }
}