{
  "header": {
    "description": "Karaoke Mugen Tag File",
    "version": 1
  },
  "tag": {
    "i18n": {
      "eng": "Rin Kagamine",
      "jpn": "鏡音リン"
    },
    "name": "Rin Kagamine",
    "repository": "kara.moe",
    "tid": "dbb8d613-a120-46c7-bb42-bc6c1efb61f7",
    "types": [
      "singers",
      "2"
    ]
  }
}