{
  "header": {
    "description": "Karaoke Mugen Tag File",
    "version": 1
  },
  "tag": {
    "i18n": {
      "eng": "Rina Kurosawa"
    },
    "name": "Rina Kurosawa",
    "repository": "kara.moe",
    "tid": "12a23211-74c6-49e2-90e3-30b640ff814d",
    "types": [
      "singers",
      "2"
    ]
  }
}