{
  "header": {
    "description": "Karaoke Mugen Tag File",
    "version": 1
  },
  "tag": {
    "i18n": {
      "eng": "Rina Chinen"
    },
    "modified_at": "2021-10-15T21:04:53.686Z",
    "name": "Rina Chinen",
    "repository": "kara.moe",
    "tid": "23b81452-2054-44e0-89d0-7e446ffd204d",
    "types": [
      "singers",
      "2"
    ]
  }
}