{
  "header": {
    "description": "Karaoke Mugen Tag File",
    "version": 1
  },
  "tag": {
    "external_database_ids": {
      "anilist": 23,
      "kitsu": 14,
      "myanimelist": 23
    },
    "i18n": {
      "qro": "Ring ni Kakero 1"
    },
    "name": "Ring Ni Kakero 1",
    "repository": "kara.moe",
    "tid": "5de588ca-8ff5-4bf8-ad6e-5bb610621454",
    "types": [
      "series",
      "1",
      "franchises",
      "18"
    ]
  }
}