{
  "header": {
    "description": "Karaoke Mugen Tag File",
    "version": 1
  },
  "tag": {
    "i18n": {
      "eng": "Rio Hanamoto"
    },
    "name": "Rio Hanamoto",
    "tid": "14ba8bda-a019-46dd-82e7-93a4c029f469",
    "types": [
      "songwriters",
      "8"
    ],
    "repository": "kara.moe",
    "modified_at": "2020-03-31T19:04:37.127Z"
  }
}