{
  "header": {
    "description": "Karaoke Mugen Tag File",
    "version": 1
  },
  "tag": {
    "i18n": {
      "eng": "RIRIKO"
    },
    "name": "RIRIKO",
    "tid": "95457296-ab49-4006-8798-ede805570d28",
    "types": [
      "singers",
      "2",
      "songwriters",
      "8"
    ],
    "repository": "kara.moe",
    "modified_at": "2020-03-31T19:04:37.134Z"
  }
}