{
  "header": {
    "description": "Karaoke Mugen Tag File",
    "version": 1
  },
  "tag": {
    "i18n": {
      "eng": "Ririka Kodama"
    },
    "name": "Ririka Kodama",
    "repository": "kara.moe",
    "tid": "c0c914ed-5ea9-471a-8a51-a2a614a0b503",
    "types": [
      "singers",
      "2"
    ]
  }
}