{
  "header": {
    "description": "Karaoke Mugen Tag File",
    "version": 1
  },
  "tag": {
    "aliases": [
      "STAR☆ANIS",
      "STAR ANIS"
    ],
    "i18n": {
      "eng": "Risa Aizawa"
    },
    "modified_at": "2020-11-22T20:01:27.558Z",
    "name": "Risa Aizawa",
    "repository": "kara.moe",
    "tid": "0dca2aed-94e3-4cee-abe6-e0923781fac7",
    "types": [
      "singers",
      "2"
    ]
  }
}