{
  "header": {
    "description": "Karaoke Mugen Tag File",
    "version": 1
  },
  "tag": {
    "i18n": {
      "eng": "Risako Sugaya"
    },
    "name": "Risako Sugaya",
    "tid": "b70e94a7-b75b-466e-96d3-6a768e1942f9",
    "types": [
      "singers",
      "2"
    ],
    "repository": "kara.moe",
    "modified_at": "2020-03-31T19:04:37.142Z"
  }
}