{
  "header": {
    "description": "Karaoke Mugen Tag File",
    "version": 1
  },
  "tag": {
    "i18n": {
      "eng": "Risa Yûki"
    },
    "name": "Risa Yûki",
    "tid": "d75fac6c-8b2b-4fd3-baa8-a6abab8456d0",
    "types": [
      "singers",
      "2"
    ],
    "repository": "kara.moe",
    "modified_at": "2020-03-31T19:04:37.140Z"
  }
}