{
  "header": {
    "description": "Karaoke Mugen Tag File",
    "version": 1
  },
  "tag": {
    "i18n": {
      "eng": "Ritchie Kotzen"
    },
    "name": "Ritchie Kotzen",
    "tid": "dd00a7c7-0080-4a1b-9f39-a62b972b73e3",
    "types": [
      "songwriters",
      "8"
    ],
    "repository": "kara.moe",
    "modified_at": "2020-03-31T19:04:37.145Z"
  }
}