{
  "header": {
    "description": "Karaoke Mugen Tag File",
    "version": 1
  },
  "tag": {
    "i18n": {
      "eng": "Ritsuko Kawai"
    },
    "name": "Ritsuko Kawai",
    "tid": "c172cc48-6087-43b7-9a62-219fda054ef0",
    "types": [
      "songwriters",
      "8"
    ],
    "repository": "kara.moe",
    "modified_at": "2020-03-31T19:04:37.146Z"
  }
}