{
  "header": {
    "description": "Karaoke Mugen Tag File",
    "version": 1
  },
  "tag": {
    "i18n": {
      "eng": "Ritsuyukai Choir"
    },
    "name": "Ritsuyukai Choir",
    "tid": "e1eb1cff-77ed-4ad7-aff3-3ba5266c1b74",
    "types": [
      "singers",
      "2"
    ],
    "repository": "kara.moe",
    "modified_at": "2020-03-31T19:04:37.149Z"
  }
}