{
  "header": {
    "description": "Karaoke Mugen Tag File",
    "version": 1
  },
  "tag": {
    "i18n": {
      "eng": "Ritsuo Mitsui",
      "jpn": "三井律郎",
      "qro": "Ritsuo Mitsui"
    },
    "name": "Ritsuo Mitsui",
    "repository": "kara.moe",
    "tid": "07f58bb3-8690-4baf-be52-0c37a7e691ac",
    "types": [
      "songwriters",
      "8"
    ]
  }
}