{
  "header": {
    "description": "Karaoke Mugen Tag File",
    "version": 1
  },
  "tag": {
    "i18n": {
      "eng": "Riyu Kosaka"
    },
    "name": "Riyu Kosaka",
    "tid": "41a30c16-f510-4dd9-80de-a148e011d595",
    "types": [
      "singers",
      "2",
      "songwriters",
      "8"
    ],
    "repository": "kara.moe",
    "modified_at": "2020-03-31T19:04:37.151Z"
  }
}