{
  "header": {
    "description": "Karaoke Mugen Tag File",
    "version": 1
  },
  "tag": {
    "aliases": [
      "RKB"
    ],
    "external_database_ids": {
      "anilist": 10572,
      "myanimelist": 10572,
      "kitsu": 6246
    },
    "i18n": {
      "eng": "Ro-Kyu-Bu!",
      "jpn": "ロウきゅーぶ!",
      "kor": "로큐브!",
      "qro": "Ro-Kyu-Bu!"
    },
    "modified_at": "2020-03-31T19:04:32.560Z",
    "name": "Ro-Kyu-Bu!",
    "repository": "kara.moe",
    "tid": "3e17b5c9-9004-4ee9-bcf5-8bcd331e308e",
    "types": [
      "series",
      "1",
      "franchises",
      "18"
    ]
  }
}