{
  "header": {
    "description": "Karaoke Mugen Tag File",
    "version": 1
  },
  "tag": {
    "i18n": {
      "eng": "RO-KYU-BU!"
    },
    "name": "RO-KYU-BU!",
    "tid": "8323c467-ac36-47aa-a7b3-252ce3192694",
    "types": [
      "singers",
      "2"
    ],
    "repository": "kara.moe",
    "modified_at": "2020-03-31T19:04:37.155Z"
  }
}