{
  "header": {
    "description": "Karaoke Mugen Tag File",
    "version": 1
  },
  "tag": {
    "i18n": {
      "eng": "Rob Paulsen"
    },
    "modified_at": "2021-05-15T01:24:11.136Z",
    "name": "Rob Paulsen",
    "repository": "kara.moe",
    "tid": "e4dd273f-43bd-4c01-98f8-0ede8a0aa4c4",
    "types": [
      "singers",
      "2"
    ]
  }
}