{
  "header": {
    "description": "Karaoke Mugen Tag File",
    "version": 1
  },
  "tag": {
    "i18n": {
      "eng": "Robbie Rotten (Stefán Karl Stefánsson)"
    },
    "name": "Robbie Rotten (Stefán Karl Stefánsson)",
    "tid": "f12bbd51-a411-450c-8ccf-5d7128c6de63",
    "types": [
      "singers",
      "2"
    ],
    "repository": "kara.moe",
    "modified_at": "2020-03-31T19:04:37.157Z"
  }
}