{
  "header": {
    "description": "Karaoke Mugen Tag File",
    "version": 1
  },
  "tag": {
    "i18n": {
      "eng": "Robert Schneider"
    },
    "modified_at": "2020-09-27T12:05:13.457Z",
    "name": "Robert Schneider",
    "repository": "kara.moe",
    "tid": "d8a3f964-5583-4c36-8385-807cb68a9dc8",
    "types": [
      "songwriters",
      "8"
    ]
  }
}