{
  "header": {
    "description": "Karaoke Mugen Tag File",
    "version": 1
  },
  "tag": {
    "i18n": {
      "eng": "Roberto Festari"
    },
    "name": "Roberto Festari",
    "tid": "a4ac16dd-2b74-4dbc-8b39-b23425c80ee8",
    "types": [
      "songwriters",
      "8"
    ],
    "repository": "kara.moe",
    "modified_at": "2020-03-31T19:04:37.161Z"
  }
}