{
  "header": {
    "description": "Karaoke Mugen Tag File",
    "version": 1
  },
  "tag": {
    "i18n": {
      "eng": "Roby Arduini"
    },
    "name": "Roby Arduini",
    "tid": "620ebe30-8862-4ccc-a8ab-2ce40fe4c535",
    "types": [
      "songwriters",
      "8"
    ],
    "repository": "kara.moe",
    "modified_at": "2020-03-31T19:04:37.164Z"
  }
}