{
  "header": {
    "description": "Karaoke Mugen Tag File",
    "version": 1
  },
  "tag": {
    "description": {},
    "i18n": {
      "eng": "Roce",
      "jpn": "ロス"
    },
    "name": "Roce",
    "repository": "kara.moe",
    "tid": "28ab4df1-5c69-4733-a97f-9ac587278a2a",
    "types": [
      "singers",
      "2",
      "songwriters",
      "8"
    ]
  }
}