{
  "header": {
    "description": "Karaoke Mugen Tag File",
    "version": 1
  },
  "tag": {
    "i18n": {
      "eng": "Rock Field"
    },
    "name": "Rock Field",
    "repository": "kara.moe",
    "tid": "7ae081d5-be97-4da0-806d-9a24a7d565ec",
    "types": [
      "creators",
      "4"
    ]
  }
}