{
  "header": {
    "description": "Karaoke Mugen Tag File",
    "version": 1
  },
  "tag": {
    "external_database_ids": {
      "anilist": 2109,
      "myanimelist": 2109,
      "kitsu": 1908
    },
    "i18n": {
      "eng": "Rockman.EXE Stream"
    },
    "modified_at": "2021-04-08T13:07:17.643Z",
    "name": "Rockman.EXE Stream",
    "repository": "kara.moe",
    "tid": "4279d6f2-cda1-4e75-a204-89b62367c633",
    "types": [
      "series",
      "1"
    ]
  }
}