{
  "header": {
    "description": "Karaoke Mugen Tag File",
    "version": 1
  },
  "tag": {
    "i18n": {
      "eng": "Roel van Helden"
    },
    "modified_at": "2020-10-25T18:20:35.949Z",
    "name": "Roel van Helden",
    "repository": "kara.moe",
    "tid": "ea4aaa2e-7d8f-43fc-a50f-4ea0e2a8786d",
    "types": [
      "songwriters",
      "8"
    ]
  }
}