{
  "header": {
    "description": "Karaoke Mugen Tag File",
    "version": 1
  },
  "tag": {
    "i18n": {
      "eng": "Roger Storm"
    },
    "name": "Roger Storm",
    "tid": "e92ffab8-2023-428e-8909-e3c609f6d47b",
    "types": [
      "singers",
      "2"
    ],
    "repository": "kara.moe",
    "modified_at": "2020-03-31T19:04:37.171Z"
  }
}