{
  "header": {
    "description": "Karaoke Mugen Tag File",
    "version": 1
  },
  "tag": {
    "i18n": {
      "eng": "Roger Pouly"
    },
    "name": "Roger Pouly",
    "tid": "061bade5-da23-48b0-a8b4-baafe3ad50a3",
    "types": [
      "songwriters",
      "8"
    ],
    "repository": "kara.moe",
    "modified_at": "2020-03-31T19:04:37.170Z"
  }
}