{
  "header": {
    "description": "Karaoke Mugen Tag File",
    "version": 1
  },
  "tag": {
    "i18n": {
      "afr": "Romaans",
      "amh": "Romansh",
      "ara": "الرومانشية",
      "aze": "Ретороманский",
      "bak": "Реформатский",
      "bel": "Сардынская мова",
      "bul": "Romansh",
      "ben": "রোমান্স",
      "bos": "Reto",
      "cat": "Romansh",
      "cze": "Rétorománština",
      "wel": "Romaunsch",
      "dan": "Rætoromansk",
      "ger": "Rätoromanisch",
      "gre": "Ρομανικά",
      "eng": "Romansh",
      "epo": "Romanĉa lingvo",
      "spa": "Romanche",
      "est": "Romanši",
      "baq": "Romansh",
      "per": "رومانش",
      "fin": "Retoromaani",
      "fre": "Le romanche",
      "gle": "Romansh",
      "gla": "Romansh",
      "glg": "Romanche",
      "guj": "રોમાન્સ",
      "heb": "Romansh",
      "hin": "रहेय्टो रोमान्स",
      "hrv": "Retroromanski jezik",
      "hat": "Romansh",
      "hun": "Romansh",
      "arm": "Ретороманский",
      "ind": "Romansh",
      "ice": "Rómanska",
      "ita": "Romancio",
      "jpn": "Romansh",
      "jav": "Romanian",
      "geo": "რუმინული",
      "kaz": "Ретороманский",
      "kan": "ರೋಮ್ಯಾನ್ಸ್",
      "kor": "레토로만",
      "kir": "Ретороманский",
      "lat": "Romansh",
      "lit": "Retoromanų",
      "lav": "Retoromāņu",
      "mlg": "Romansh",
      "mao": "Romanian",
      "mac": "Romansh",
      "mal": "Romansh",
      "mon": "Romansh",
      "mar": "Romansh",
      "may": "Romansh",
      "mlt": "}",
      "nep": "Romansh",
      "dut": "Reto-romaans",
      "nor": "Romansh",
      "pan": "Romansh",
      "pol": "Ретороманский",
      "por": "Romanche",
      "rum": "Romanșă",
      "rus": "Ретороманский",
      "sin": "Romansh",
      "slo": "Romanši",
      "slv": "Retoromanščina",
      "alb": "Romansh",
      "srp": "Пољски",
      "sun": "Pampanga",
      "swe": "Rätoromanska",
      "swa": "Kiromanshi",
      "tam": "ரோமென்ஸ்",
      "tel": "రోమన్ష్",
      "tgk": "Ретороманский",
      "tha": "Romansh",
      "tgl": "Romansh",
      "tur": "Romansh",
      "tat": "Ретороманский",
      "ukr": "Ретороманська",
      "urd": "رومانش",
      "uzb": "Romansh",
      "vie": "Tiếng anh",
      "xho": "Romansh",
      "yid": "Romansh",
      "chi": "罗曼什语"
    },
    "name": "roh",
    "tid": "29304b5d-357d-4e45-bf8d-916f9a031db5",
    "types": [
      "langs",
      "5"
    ],
    "repository": "kara.moe",
    "modified_at": "2020-03-31T19:04:37.171Z"
  }
}