{
  "header": {
    "description": "Karaoke Mugen Tag File",
    "version": 1
  },
  "tag": {
    "i18n": {
      "eng": "Roly"
    },
    "modified_at": "2021-08-16T22:57:42.623Z",
    "name": "Roly",
    "repository": "kara.moe",
    "tid": "869978dc-995b-49f6-9f39-6d6f2776e497",
    "types": [
      "creators",
      "4"
    ]
  }
}