{
  "header": {
    "description": "Karaoke Mugen Tag File",
    "version": 1
  },
  "tag": {
    "i18n": {
      "eng": "Roman Campolo"
    },
    "modified_at": "2021-09-12T12:00:37.629Z",
    "name": "Roman Campolo",
    "repository": "kara.moe",
    "tid": "f8b5f602-7d48-4dcd-9a1c-2cc6ab765f55",
    "types": [
      "songwriters",
      "8"
    ]
  }
}