{
  "header": {
    "description": "Karaoke Mugen Tag File",
    "version": 1
  },
  "tag": {
    "i18n": {
      "eng": "Atelier Rorona: The Alchemist of Arland",
      "jpn": "ロロナのアトリエ　～アーランドの錬金術師～",
      "qro": "Rorona no Atelier: Arland no Renkinjutsushi"
    },
    "modified_at": "2020-03-31T19:04:32.571Z",
    "name": "Rorona no Atelier: Arland no Renkinjutsushi",
    "repository": "kara.moe",
    "tid": "5c664598-2c22-47fb-bddb-c0ae36875c07",
    "types": [
      "series",
      "1"
    ]
  }
}