{
  "header": {
    "description": "Karaoke Mugen Tag File",
    "version": 1
  },
  "tag": {
    "aliases": [
      "Rosario + Vampire Capu2",
      "Rosario + Vampire capu 2",
      "r+v2",
      "rtv capu2",
      "rtv2",
      "Крестик + Вампир Чмок 2"
    ],
    "external_database_ids": {
      "anilist": 4214,
      "myanimelist": 4214,
      "kitsu": 3529
    },
    "i18n": {
      "eng": "Rosario + Vampire: Capu2",
      "jpn": "ロザリオとバンパイア Capu2",
      "qro": "Rosario to Vampire Capu2"
    },
    "modified_at": "2020-03-31T19:04:32.571Z",
    "name": "Rosario to Vampire Capu2",
    "repository": "kara.moe",
    "tid": "646b8fc6-79a2-4f8e-8a36-2fd7dab4de68",
    "types": [
      "series",
      "1"
    ]
  }
}