{
  "header": {
    "description": "Karaoke Mugen Tag File",
    "version": 1
  },
  "tag": {
    "i18n": {
      "eng": "Royal Scandal"
    },
    "modified_at": "2021-05-10T13:52:06.556Z",
    "name": "Royal Scandal",
    "repository": "kara.moe",
    "tid": "1a0a3479-8a66-444b-9d5c-d22d9c8326c4",
    "types": [
      "series",
      "1"
    ]
  }
}