{
  "header": {
    "description": "Karaoke Mugen Tag File",
    "version": 1
  },
  "tag": {
    "i18n": {
      "eng": "Rozuki"
    },
    "name": "Rozuki",
    "repository": "kara.moe",
    "tid": "4e82237e-73b3-4b5f-b291-51de3b3d14f6",
    "types": [
      "creators",
      "4"
    ]
  }
}