{
  "header": {
    "description": "Karaoke Mugen Tag File",
    "version": 1
  },
  "tag": {
    "i18n": {
      "eng": "Ruby Party"
    },
    "name": "Ruby Party",
    "tid": "34f1d1ed-9d07-446d-acdc-1979d2a37fd1",
    "types": [
      "creators",
      "4"
    ],
    "repository": "kara.moe",
    "modified_at": "2020-03-31T19:04:37.187Z"
  }
}