{
  "header": {
    "description": "Karaoke Mugen Tag File",
    "version": 1
  },
  "tag": {
    "i18n": {
      "eng": "RUCCA"
    },
    "name": "RUCCA",
    "tid": "4cc2a8d4-2898-419a-8959-9b4fe89c89e0",
    "types": [
      "songwriters",
      "8"
    ],
    "repository": "kara.moe",
    "modified_at": "2020-03-31T19:04:37.187Z"
  }
}