{
  "header": {
    "description": "Karaoke Mugen Tag File",
    "version": 1
  },
  "tag": {
    "i18n": {
      "eng": "Rui Minase"
    },
    "modified_at": "2021-01-29T01:02:29.254Z",
    "name": "Rui Minase",
    "repository": "kara.moe",
    "tid": "21193eab-218e-473b-b0e1-5fae9928cd29",
    "types": [
      "singers",
      "2"
    ]
  }
}