{
  "header": {
    "description": "Karaoke Mugen Tag File",
    "version": 1
  },
  "tag": {
    "i18n": {
      "eng": "Ruka Kawada"
    },
    "name": "Ruka Kawada",
    "tid": "2a8b7012-d873-45a1-a22d-492c913811a0",
    "types": [
      "songwriters",
      "8",
      "singers",
      "2"
    ],
    "repository": "kara.moe",
    "modified_at": "2020-03-31T19:04:37.191Z"
  }
}