{
  "header": {
    "description": "Karaoke Mugen Tag File",
    "version": 1
  },
  "tag": {
    "i18n": {
      "eng": "RUKA"
    },
    "name": "RUKA",
    "tid": "a4056391-82e6-478f-af68-554f5c8d2fec",
    "types": [
      "songwriters",
      "8"
    ],
    "repository": "kara.moe",
    "modified_at": "2020-03-31T19:04:37.193Z"
  }
}