{
  "header": {
    "description": "Karaoke Mugen Tag File",
    "version": 1
  },
  "tag": {
    "i18n": {
      "eng": "Ruki (the GazettE)"
    },
    "name": "Ruki (the GazettE)",
    "tid": "fc389c0c-9fa2-448b-90da-6ebd31ef2a4c",
    "types": [
      "songwriters",
      "8"
    ],
    "repository": "kara.moe",
    "modified_at": "2020-03-31T19:04:37.194Z"
  }
}