{
  "header": {
    "description": "Karaoke Mugen Tag File",
    "version": 1
  },
  "tag": {
    "i18n": {
      "eng": "Runa Mizutani",
      "jpn": "水谷瑠奈",
      "qro": "Runa Mizutani"
    },
    "name": "Runa Mizutani",
    "repository": "kara.moe",
    "tid": "a2927b84-a2b3-4bbb-81fe-7a18016b9aad",
    "types": [
      "songwriters",
      "8",
      "singers",
      "2"
    ]
  }
}