{
  "header": {
    "description": "Karaoke Mugen Tag File",
    "version": 1
  },
  "tag": {
    "i18n": {
      "eng": "rurisis"
    },
    "name": "rurisis",
    "tid": "61abb1e8-95a0-4362-b83b-087f7f691058",
    "types": [
      "creators",
      "4"
    ],
    "repository": "kara.moe",
    "modified_at": "2020-03-31T19:04:37.202Z"
  }
}