{
  "header": {
    "description": "Karaoke Mugen Tag File",
    "version": 1
  },
  "tag": {
    "aliases": [
      "Rurouni Kenshin",
      "Samurai X",
      "RK",
      "RuroKen"
    ],
    "i18n": {
      "fre": "Kenshin le vagabond",
      "jpn": "るろうに剣心",
      "qro": "Rurôni Kenshin"
    },
    "name": "Rurôni Kenshin",
    "repository": "kara.moe",
    "tid": "49303ca9-7e49-459b-b115-6f3e067d0c11",
    "types": [
      "franchises",
      "18"
    ]
  }
}