{
  "header": {
    "description": "Karaoke Mugen Tag File",
    "version": 1
  },
  "tag": {
    "aliases": [
      "Rurouni Kenshin (film)",
      "rurouni"
    ],
    "i18n": {
      "eng": "Rurôni Kenshin (film)",
      "fre": "Kenshin le vagabond (film)",
      "jpn": "るろうに剣心",
      "qro": "Rurôni Kenshin (film)"
    },
    "modified_at": "2020-07-07T21:52:19.928Z",
    "name": "Rurôni Kenshin (film)",
    "repository": "kara.moe",
    "tid": "cdc57566-fc4a-484b-8010-330c97be72da",
    "types": [
      "series",
      "1"
    ]
  }
}