{
  "header": {
    "description": "Karaoke Mugen Tag File",
    "version": 1
  },
  "tag": {
    "i18n": {
      "eng": "Ryne Sanborn"
    },
    "modified_at": "2020-07-07T16:48:33.055Z",
    "name": "Ryne Sanborn",
    "repository": "kara.moe",
    "tid": "4b64adb0-4676-4f31-82e1-517df8a38c3b",
    "types": [
      "singers",
      "2"
    ]
  }
}