{
  "header": {
    "description": "Karaoke Mugen Tag File",
    "version": 1
  },
  "tag": {
    "i18n": {
      "eng": "Ryo Horikawa"
    },
    "name": "Ryo Horikawa",
    "tid": "08a790b7-a484-4226-aeb5-040403989e75",
    "types": [
      "singers",
      "2"
    ],
    "repository": "kara.moe",
    "modified_at": "2020-03-31T19:04:37.208Z"
  }
}