{
  "header": {
    "description": "Karaoke Mugen Tag File",
    "version": 1
  },
  "tag": {
    "i18n": {
      "eng": "Ryohei Arahata"
    },
    "modified_at": "2020-04-12T16:18:27.723Z",
    "name": "Ryohei Arahata",
    "repository": "kara.moe",
    "tid": "33c859f6-91a5-4a2e-a94a-27b13fa21516",
    "types": [
      "songwriters",
      "8"
    ]
  }
}