{
  "header": {
    "description": "Karaoke Mugen Tag File",
    "version": 1
  },
  "tag": {
    "i18n": {
      "eng": "Ryosuke“Dr.R”Sakai"
    },
    "name": "Ryosuke“Dr.R”Sakai",
    "tid": "ba4fd910-2feb-4ce8-912b-4728c5f08a60",
    "types": [
      "songwriters",
      "8"
    ],
    "repository": "kara.moe",
    "modified_at": "2020-03-31T19:04:37.215Z"
  }
}