{
  "header": {
    "description": "Karaoke Mugen Tag File",
    "version": 1
  },
  "tag": {
    "i18n": {
      "eng": "Ryôka Shima"
    },
    "name": "Ryôka Shima",
    "tid": "3a1da3ab-9f30-49c4-9bbe-54bea246ef41",
    "types": [
      "singers",
      "2"
    ],
    "repository": "kara.moe",
    "modified_at": "2020-03-31T19:04:37.229Z"
  }
}