{
  "header": {
    "description": "Karaoke Mugen Tag File",
    "version": 1
  },
  "tag": {
    "i18n": {
      "eng": "Ryôhei Sataka",
      "jpn": "佐高 陵平",
      "qro": "Sataka Ryôhei"
    },
    "name": "Ryôhei Sataka",
    "repository": "kara.moe",
    "tid": "72735eaa-bf34-441e-87fa-e99904e93ba7",
    "types": [
      "songwriters",
      "8"
    ]
  }
}