{
  "header": {
    "description": "Karaoke Mugen Tag File",
    "version": 1
  },
  "tag": {
    "i18n": {
      "eng": "Ryôji Sonoda"
    },
    "name": "Ryôji Sonoda",
    "tid": "76f01426-3965-4b7b-bc57-314381e06807",
    "types": [
      "songwriters",
      "8"
    ],
    "repository": "kara.moe",
    "modified_at": "2020-03-31T19:04:37.228Z"
  }
}