{
  "header": {
    "description": "Karaoke Mugen Tag File",
    "version": 1
  },
  "tag": {
    "i18n": {
      "eng": "Ryôsuke Shimohata"
    },
    "name": "Ryôsuke Shimohata",
    "tid": "cfc4d392-20b9-48fc-abe9-9004fc76178b",
    "types": [
      "songwriters",
      "8"
    ],
    "repository": "kara.moe",
    "modified_at": "2020-03-31T19:04:37.235Z"
  }
}