{
  "header": {
    "description": "Karaoke Mugen Tag File",
    "version": 1
  },
  "tag": {
    "i18n": {
      "eng": "Ryushi"
    },
    "name": "Ryushi",
    "repository": "kara.moe",
    "tid": "b7e39f46-bd29-4493-afd7-d935f55db0a8",
    "types": [
      "singers",
      "2"
    ]
  }
}