{
  "header": {
    "description": "Karaoke Mugen Tag File",
    "version": 1
  },
  "tag": {
    "i18n": {
      "eng": "Ryushen"
    },
    "modified_at": "2021-09-03T21:21:09.270Z",
    "name": "Ryushen",
    "repository": "kara.moe",
    "tid": "73270df0-3e15-47bf-98c9-9eb74c61a66b",
    "types": [
      "singers",
      "2"
    ]
  }
}