{
  "header": {
    "description": "Karaoke Mugen Tag File",
    "version": 1
  },
  "tag": {
    "i18n": {
      "eng": "Ryûji Akiyama"
    },
    "modified_at": "2020-07-21T20:20:15.675Z",
    "name": "Ryûji Akiyama",
    "repository": "kara.moe",
    "tid": "59d9f0a9-4cbc-4eb7-a2c4-45e095cbac66",
    "types": [
      "singers",
      "2"
    ]
  }
}