{
  "header": {
    "description": "Karaoke Mugen Tag File",
    "version": 1
  },
  "tag": {
    "aliases": [
      "smj to x",
      "smj2x",
      "smjtox"
    ],
    "external_database_ids": {
      "anilist": 1231,
      "myanimelist": 1231,
      "kitsu": 1107
    },
    "i18n": {
      "eng": "Saber Marionette J to X",
      "jpn": "セイバーマリオネットJ to X",
      "por": "Saber Marionette J to X",
      "qro": "Saber Marionette J to X"
    },
    "modified_at": "2020-03-31T19:04:32.582Z",
    "name": "Saber Marionette J to X",
    "repository": "kara.moe",
    "tid": "a553815e-43f7-479c-aa6e-6b74f0235dbe",
    "types": [
      "series",
      "1"
    ]
  }
}