{
  "header": {
    "description": "Karaoke Mugen Tag File",
    "version": 1
  },
  "tag": {
    "i18n": {
      "eng": "Saburô Hatte"
    },
    "name": "Saburô Hatte",
    "tid": "5095c16a-d2f0-4b95-afa2-5f205da52141",
    "types": [
      "songwriters",
      "8"
    ],
    "repository": "kara.moe",
    "modified_at": "2020-03-31T19:04:37.259Z"
  }
}