{
  "header": {
    "description": "Karaoke Mugen Tag File",
    "version": 1
  },
  "tag": {
    "i18n": {
      "eng": "saburo"
    },
    "name": "saburo",
    "repository": "kara.moe",
    "tid": "3f5005c4-1e96-4f88-9162-23f8dad51e32",
    "types": [
      "creators",
      "4"
    ]
  }
}