{
  "header": {
    "description": "Karaoke Mugen Tag File",
    "version": 1
  },
  "tag": {
    "i18n": {
      "eng": "Sachiko Aoyama"
    },
    "name": "Sachiko Aoyama",
    "tid": "7ccbb39c-3559-476a-a9d9-886309dac57d",
    "types": [
      "songwriters",
      "8"
    ],
    "repository": "kara.moe",
    "modified_at": "2020-03-31T19:04:37.263Z"
  }
}