{
  "header": {
    "description": "Karaoke Mugen Tag File",
    "version": 1
  },
  "tag": {
    "i18n": {
      "eng": "Sachio Kubota"
    },
    "name": "Sachio Kubota",
    "repository": "kara.moe",
    "tid": "5b1f2803-07ef-414c-9f6b-8917aea549d8",
    "types": [
      "songwriters",
      "8"
    ]
  }
}