{
  "header": {
    "description": "Karaoke Mugen Tag File",
    "version": 1
  },
  "tag": {
    "i18n": {
      "eng": "Sae"
    },
    "name": "Sae",
    "tid": "b5928f12-cc6c-4edd-90a3-b79dd1a16068",
    "types": [
      "songwriters",
      "8"
    ],
    "repository": "kara.moe",
    "modified_at": "2020-03-31T19:04:37.266Z"
  }
}