{
  "header": {
    "description": "Karaoke Mugen Tag File",
    "version": 1
  },
  "tag": {
    "i18n": {
      "eng": "Saeko Zôgô"
    },
    "name": "Saeko Zôgô",
    "tid": "f180bceb-7081-4234-afd3-fdeefd8e98de",
    "types": [
      "singers",
      "2"
    ],
    "repository": "kara.moe",
    "modified_at": "2020-03-31T19:04:37.270Z"
  }
}