{
  "header": {
    "description": "Karaoke Mugen Tag File",
    "version": 1
  },
  "tag": {
    "aliases": [
      "Saekano S2",
      "Saenai Heroine no Sodatekata Flat",
      "冴えない彼女の育てかた♭",
      "flat"
    ],
    "external_database_ids": {
      "anilist": 21180,
      "myanimelist": 30727,
      "kitsu": 10909
    },
    "i18n": {
      "eng": "Saekano ♭: How to Raise a Boring Girlfriend Flat",
      "jpn": "冴えない彼女[ヒロイン]の育てかた♭",
      "kor": "시원찮은 그녀를 위한 육성방법♭",
      "qro": "Saenai Heroine no Sodatekata ♭"
    },
    "modified_at": "2020-03-31T19:04:32.584Z",
    "name": "Saenai Heroine no Sodatekata ♭",
    "repository": "kara.moe",
    "tid": "8e88c08a-f7ef-4248-a55f-6c1ba8d6668c",
    "types": [
      "series",
      "1"
    ]
  }
}