{
  "header": {
    "description": "Karaoke Mugen Tag File",
    "version": 1
  },
  "tag": {
    "i18n": {
      "eng": "saetta inc."
    },
    "name": "saetta inc.",
    "tid": "56fef8ac-3c2b-4c7f-8cc3-4daf4a201eb5",
    "types": [
      "creators",
      "4"
    ],
    "repository": "kara.moe",
    "modified_at": "2020-03-31T19:04:37.271Z"
  }
}