{
  "header": {
    "description": "Karaoke Mugen Tag File",
    "version": 1
  },
  "tag": {
    "aliases": [
      "Sakurada Reset"
    ],
    "external_database_ids": {
      "anilist": 97660,
      "myanimelist": 34102,
      "kitsu": 12599
    },
    "i18n": {
      "eng": "Sagrada Reset",
      "fre": "Sagrada Reset",
      "jpn": "サクラダリセット",
      "kor": "사쿠라다 리셋",
      "qro": "Sagrada Reset"
    },
    "modified_at": "2020-03-31T19:04:32.586Z",
    "name": "Sagrada Reset",
    "repository": "kara.moe",
    "tid": "966572b2-8748-4780-abad-f7d01f805bce",
    "types": [
      "series",
      "1"
    ]
  }
}