{
  "header": {
    "description": "Karaoke Mugen Tag File",
    "version": 1
  },
  "tag": {
    "i18n": {
      "eng": "Saho Aono"
    },
    "name": "Saho Aono",
    "repository": "kara.moe",
    "tid": "4b85532a-1603-46db-b562-e80d144e3305",
    "types": [
      "singers",
      "2"
    ]
  }
}