{
  "header": {
    "description": "Karaoke Mugen Tag File",
    "version": 1
  },
  "tag": {
    "aliases": [
      "My Recently Hired Maid is Suspicious"
    ],
    "external_database_ids": {
      "anilist": 136707,
      "kitsu": 44900,
      "myanimelist": 49438
    },
    "i18n": {
      "eng": "The Maid I Hired Recently Is Mysterious",
      "jpn": "最近雇ったメイドが怪しい",
      "qro": "Saikin Yatotta Maid ga Ayashii"
    },
    "name": "Saikin Yatotta Maid ga Ayashii",
    "repository": "kara.moe",
    "tid": "0b71dcbe-e784-4825-b7c6-071af66747af",
    "types": [
      "series",
      "1"
    ]
  }
}