{
  "header": {
    "description": "Karaoke Mugen Tag File",
    "version": 1
  },
  "tag": {
    "aliases": [
      "Sailor Fuku Hangyaku Doumei",
      "doumei"
    ],
    "i18n": {
      "eng": "Rebellion League of Girls in Sailor Uniform",
      "fre": "Sailor Fuku Hangyaku Dômei",
      "jpn": "セーラー服反逆同盟",
      "qro": "Sailor Fuku Hangyaku Dômei"
    },
    "modified_at": "2020-03-31T19:04:32.590Z",
    "name": "Sailor Fuku Hangyaku Dômei",
    "repository": "kara.moe",
    "tid": "5bfd21f7-700a-412b-8f5a-6b6355d5015d",
    "types": [
      "series",
      "1"
    ]
  }
}