{
  "header": {
    "description": "Karaoke Mugen Tag File",
    "version": 1
  },
  "tag": {
    "aliases": [
      "Má dívka superzbraň",
      "SaiKano",
      "Saishuu Heiki Kanojo",
      "Saishuu Heiki Kanojo",
      "She ~ the ultimate weapon ~",
      "The last love song on this little planet",
      "Моя девушка - совершенное оружие",
      "Моя дівчина - суперзброя",
      "Сайкано",
      "Саікаку",
      "סאיקאנו",
      "سايكانو",
      "ไซดาโนะ",
      "サイカノ",
      "saishuuheiki"
    ],
    "external_database_ids": {
      "anilist": 529,
      "myanimelist": 529,
      "kitsu": 488
    },
    "i18n": {
      "eng": "She, The Ultimate Weapon",
      "fre": "L'arme ultime",
      "ger": "Saikano",
      "ita": "Lei, l'arma finale",
      "jpn": "最終兵器彼女",
      "por": "Saikano",
      "tha": "อาวุธสุดท้ายคือเธอ-ไซดาโนะ",
      "qro": "Saishûheiki Kanojo"
    },
    "modified_at": "2020-03-31T19:04:32.597Z",
    "name": "Saishûheiki Kanojo",
    "repository": "kara.moe",
    "tid": "b4a28248-e7ad-4f53-a301-c64117c2547e",
    "types": [
      "series",
      "1"
    ]
  }
}