{
  "header": {
    "description": "Karaoke Mugen Tag File",
    "version": 1
  },
  "tag": {
    "i18n": {
      "eng": "Saiyûki"
    },
    "name": "Saiyûki",
    "repository": "kara.moe",
    "tid": "05efe7b3-205e-408a-be35-589e51501f8d",
    "types": [
      "franchises",
      "18"
    ]
  }
}