{
  "header": {
    "description": "Karaoke Mugen Tag File",
    "version": 1
  },
  "tag": {
    "i18n": {
      "eng": "saji (Hifumi,inc.)"
    },
    "name": "saji (Hifumi,inc.)",
    "repository": "kara.moe",
    "tid": "d0d6f2bf-8186-40b1-a826-e50572417c5c",
    "types": [
      "songwriters",
      "8"
    ]
  }
}