{
  "header": {
    "description": "Karaoke Mugen Tag File",
    "version": 1
  },
  "tag": {
    "i18n": {
      "eng": "Sakakida Wataru"
    },
    "name": "Sakakida Wataru",
    "tid": "c809f19f-2e1a-441a-9f75-fe9973254a25",
    "types": [
      "songwriters",
      "8"
    ],
    "repository": "kara.moe",
    "modified_at": "2020-03-31T19:04:37.280Z"
  }
}