{
  "header": {
    "description": "Karaoke Mugen Tag File",
    "version": 1
  },
  "tag": {
    "aliases": [
      "Аполлон зі схилу"
    ],
    "external_database_ids": {
      "anilist": 12531,
      "myanimelist": 12531,
      "kitsu": 6760
    },
    "i18n": {
      "eng": "Kids on the Slope",
      "fre": "Kids on the Slope",
      "jpn": "坂道のアポロン KIDS ON THE SLOPE",
      "pol": "Wzgórze Apolla",
      "qro": "Sakamichi no Apollon: Kids on the Slope"
    },
    "modified_at": "2020-03-31T19:04:32.600Z",
    "name": "Sakamichi no Apollon: Kids on the Slope",
    "repository": "kara.moe",
    "tid": "94f0df34-b2d0-4797-a822-f23797285c22",
    "types": [
      "series",
      "1"
    ]
  }
}