{
  "header": {
    "description": "Karaoke Mugen Tag File",
    "version": 1
  },
  "tag": {
    "i18n": {
      "eng": "Sakai Kanako"
    },
    "name": "Sakai Kanako",
    "tid": "7fd41e6a-ff39-4d3d-a6f4-06016b0088bf",
    "types": [
      "singers",
      "2"
    ],
    "repository": "kara.moe",
    "modified_at": "2020-03-31T19:04:37.279Z"
  }
}