{
  "header": {
    "description": "Karaoke Mugen Tag File",
    "version": 1
  },
  "tag": {
    "i18n": {
      "eng": "Sakanaction"
    },
    "modified_at": "2020-04-11T17:23:33.266Z",
    "name": "Sakanaction",
    "repository": "kara.moe",
    "tid": "6cbe79c2-994b-4f11-a7fd-0ed785d9c1e0",
    "types": [
      "singers",
      "2"
    ]
  }
}