{
  "header": {
    "description": "Karaoke Mugen Tag File",
    "version": 1
  },
  "tag": {
    "aliases": [
      "Charge!! Men's School",
      "Sakigake!! Otokojuku",
      "Valiantly Forge Ahead!! Men's Cram School",
      "Valiantly Forge Ahead!! Men's Private School",
      "Valiantly Forge Ahead!! Men's School"
    ],
    "external_database_ids": {
      "anilist": 2903,
      "myanimelist": 2903,
      "kitsu": 7777
    },
    "i18n": {
      "eng": "Charge!! Men's Private School",
      "jpn": "魁!!男塾",
      "qro": "Sakigake!! Otoko Juku"
    },
    "modified_at": "2020-03-31T19:04:32.606Z",
    "name": "Sakigake!! Otoko Juku",
    "repository": "kara.moe",
    "tid": "d0ef37ed-1fdc-45d7-9ca4-056306df994d",
    "types": [
      "series",
      "1"
    ]
  }
}