{
  "header": {
    "description": "Karaoke Mugen Tag File",
    "version": 1
  },
  "tag": {
    "i18n": {
      "eng": "Saku Sasaki"
    },
    "modified_at": "2021-10-28T20:25:00.575Z",
    "name": "Saku Sasaki",
    "repository": "kara.moe",
    "tid": "408a9805-5bb3-492a-b4ea-9b342e6230f2",
    "types": [
      "songwriters",
      "8",
      "singers",
      "2"
    ]
  }
}