{
  "header": {
    "description": "Karaoke Mugen Tag File",
    "version": 1
  },
  "tag": {
    "i18n": {
      "eng": "Sakurachiru"
    },
    "name": "Sakurachiru",
    "tid": "6dff9198-29f1-470b-bac6-8a60032ca8b8",
    "types": [
      "authors",
      "6"
    ],
    "repository": "kara.moe",
    "modified_at": "2020-03-31T19:04:37.292Z"
  }
}