{
  "header": {
    "description": "Karaoke Mugen Tag File",
    "version": 1
  },
  "tag": {
    "aliases": [
      "A Corpse Is Buried Under Sakurako's Feet",
      "Кости под ногами Сакурако",
      "Трупът в краката на Сакурако"
    ],
    "external_database_ids": {
      "anilist": 21066,
      "myanimelist": 30187,
      "kitsu": 10706
    },
    "i18n": {
      "eng": "Beautiful Bones: Sakurako's Investigation",
      "fre": "Beautiful Bones: Sakurako's Investigation",
      "jpn": "櫻子さんの足下には死体が埋まっている",
      "kor": "사쿠라코 씨의 발 밑에는 시체가 묻혀 있다",
      "qro": "Sakurako-san no Ashimoto ni wa Shitai ga Umatteiru"
    },
    "modified_at": "2020-06-21T23:45:31.966Z",
    "name": "Sakurako-san no Ashimoto ni wa Shitai ga Umatteiru",
    "repository": "kara.moe",
    "tid": "3f15362d-6330-4073-b3c2-5778dcd0be3b",
    "types": [
      "series",
      "1"
    ]
  }
}