{
  "header": {
    "description": "Karaoke Mugen Tag File",
    "version": 1
  },
  "tag": {
    "i18n": {
      "eng": "Salixor"
    },
    "name": "Salixor",
    "tid": "b62bd925-89e4-4ee4-ba4c-80de93e831b8",
    "types": [
      "authors",
      "6"
    ],
    "repository": "kara.moe",
    "modified_at": "2020-03-31T19:04:37.297Z"
  }
}