{
  "header": {
    "description": "Karaoke Mugen Tag File",
    "version": 1
  },
  "tag": {
    "i18n": {
      "eng": "Sally Amaki"
    },
    "name": "Sally Amaki",
    "repository": "kara.moe",
    "tid": "a3ed390e-96a8-445f-9da0-71b2a19d647d",
    "types": [
      "singers",
      "2"
    ],
    "modified_at": "2020-03-31T19:04:37.298Z"
  }
}