{
  "header": {
    "description": "Karaoke Mugen Tag File",
    "version": 1
  },
  "tag": {
    "i18n": {
      "eng": "Sam Lewis"
    },
    "name": "Sam Lewis",
    "repository": "kara.moe",
    "tid": "6e177b9a-ba33-4373-ba4a-f44fd8e35b03",
    "types": [
      "songwriters",
      "8"
    ]
  }
}