{
  "header": {
    "description": "Karaoke Mugen Tag File",
    "version": 1
  },
  "tag": {
    "i18n": {
      "eng": "Sammy Cahn"
    },
    "name": "Sammy Cahn",
    "repository": "kara.moe",
    "tid": "6c7f593f-7a05-4a47-8053-51be6ebaf8bb",
    "types": [
      "songwriters",
      "8"
    ]
  }
}