{
  "header": {
    "description": "Karaoke Mugen Tag File",
    "version": 1
  },
  "tag": {
    "i18n": {
      "eng": "Samuel Ramogo"
    },
    "name": "Samuel Ramogo",
    "repository": "kara.moe",
    "tid": "16399d70-9526-4d85-ac3c-3146f269df96",
    "types": [
      "creators",
      "4"
    ]
  }
}