{
  "header": {
    "description": "Karaoke Mugen Tag File",
    "version": 1
  },
  "tag": {
    "external_database_ids": {
      "anilist": 9916,
      "myanimelist": 9916,
      "kitsu": 5938
    },
    "i18n": {
      "eng": "Samurai Giants",
      "jpn": "侍ジャイアンツ",
      "qro": "Samurai Giants"
    },
    "modified_at": "2020-03-31T19:04:32.619Z",
    "name": "Samurai Giants",
    "repository": "kara.moe",
    "tid": "e9d67c29-a382-4ecf-9651-cfe97ae3fe79",
    "types": [
      "series",
      "1"
    ]
  }
}