{
  "header": {
    "description": "Karaoke Mugen Tag File",
    "version": 1
  },
  "tag": {
    "i18n": {
      "eng": "Sanae Kobayashi"
    },
    "name": "Sanae Kobayashi",
    "tid": "a9cdab3f-14ef-4ddf-9163-1c2f5cac2f56",
    "types": [
      "singers",
      "2"
    ],
    "repository": "kara.moe",
    "modified_at": "2020-03-31T19:04:37.307Z"
  }
}