{
  "header": {
    "description": "Karaoke Mugen Tag File",
    "version": 1
  },
  "tag": {
    "i18n": {
      "eng": "Sandrine Fougère"
    },
    "modified_at": "2020-10-11T00:03:22.338Z",
    "name": "Sandrine Fougère",
    "repository": "kara.moe",
    "tid": "cc6e18d2-6470-4b81-add1-812f03925614",
    "types": [
      "singers",
      "2"
    ]
  }
}