{
  "header": {
    "description": "Karaoke Mugen Tag File",
    "version": 1
  },
  "tag": {
    "i18n": {
      "eng": "SANKYO"
    },
    "name": "SANKYO",
    "tid": "1567e76e-3062-414f-a127-2427e8dd5171",
    "types": [
      "creators",
      "4"
    ],
    "repository": "kara.moe",
    "modified_at": "2020-03-31T19:04:37.314Z"
  }
}