{
  "header": {
    "description": "Karaoke Mugen Tag File",
    "version": 1
  },
  "tag": {
    "i18n": {
      "eng": "Santei Nishina"
    },
    "name": "Santei Nishina",
    "tid": "48990a00-a3de-4f4b-9b5f-692a79b25f9f",
    "types": [
      "songwriters",
      "8"
    ],
    "repository": "kara.moe",
    "modified_at": "2020-03-31T19:04:37.316Z"
  }
}