{
  "header": {
    "description": "Karaoke Mugen Tag File",
    "version": 1
  },
  "tag": {
    "aliases": [
      "Saori Ōnishi"
    ],
    "i18n": {
      "eng": "Saori Oonishi"
    },
    "modified_at": "2021-11-27T20:20:47.004Z",
    "name": "Saori Oonishi",
    "repository": "kara.moe",
    "tid": "471fa3a9-f473-4c5b-a0bc-66ae8cd1072c",
    "types": [
      "singers",
      "2"
    ]
  }
}