{
  "header": {
    "description": "Karaoke Mugen Tag File",
    "version": 1
  },
  "tag": {
    "i18n": {
      "eng": "Sapphire"
    },
    "name": "Sapphire",
    "tid": "406408e8-a5fb-476d-b417-b9d3b4dda687",
    "types": [
      "singers",
      "2",
      "songwriters",
      "8"
    ],
    "repository": "kara.moe",
    "modified_at": "2020-03-31T19:04:37.322Z"
  }
}