{
  "header": {
    "description": "Karaoke Mugen Tag File",
    "version": 1
  },
  "tag": {
    "aliases": [
      "Nine universe"
    ],
    "i18n": {
      "eng": "Sarah"
    },
    "modified_at": "2020-12-15T21:51:37.956Z",
    "name": "Sarah",
    "repository": "kara.moe",
    "tid": "73b92520-c476-4291-89ee-7278d2b45834",
    "types": [
      "singers",
      "2"
    ]
  }
}