{
  "header": {
    "description": "Karaoke Mugen Tag File",
    "version": 1
  },
  "tag": {
    "i18n": {
      "eng": "Sarah Brightman"
    },
    "name": "Sarah Brightman",
    "repository": "kara.moe",
    "tid": "3ef3d67d-8de7-423b-b56f-b1b29e9a9394",
    "types": [
      "singers",
      "2"
    ]
  }
}