{
  "header": {
    "description": "Karaoke Mugen Tag File",
    "version": 1
  },
  "tag": {
    "i18n": {
      "eng": "Sarah Lundbäck Bell"
    },
    "name": "Sarah Lundbäck Bell",
    "repository": "kara.moe",
    "tid": "4a748765-1717-446b-9e52-f229b9818f33",
    "types": [
      "songwriters",
      "8"
    ]
  }
}