{
  "header": {
    "description": "Karaoke Mugen Tag File",
    "version": 1
  },
  "tag": {
    "external_database_ids": {
      "anilist": 101261,
      "myanimelist": 37426,
      "kitsu": 41017
    },
    "i18n": {
      "eng": "Sarazanmai",
      "jpn": "さらざんまい",
      "qro": "Sarazanmai"
    },
    "modified_at": "2020-03-31T19:04:32.623Z",
    "name": "Sarazanmai",
    "repository": "kara.moe",
    "tid": "3187798d-b2ed-4fce-94a7-54992183d01f",
    "types": [
      "series",
      "1"
    ]
  }
}