{
  "header": {
    "description": "Karaoke Mugen Tag File",
    "version": 1
  },
  "tag": {
    "i18n": {
      "eng": "Sarah Midori Perry"
    },
    "modified_at": "2021-06-29T21:40:43.647Z",
    "name": "Sarah Midori Perry",
    "repository": "kara.moe",
    "tid": "7efb5edb-776f-403c-b68b-287e4657c2a4",
    "types": [
      "singers",
      "2"
    ]
  }
}