{
  "header": {
    "description": "Karaoke Mugen Tag File",
    "version": 1
  },
  "tag": {
    "i18n": {
      "eng": "sasakure.UK"
    },
    "name": "sasakure.UK",
    "tid": "94fe32fb-525a-47a6-a97c-4cf3bb0f963c",
    "types": [
      "creators",
      "4",
      "songwriters",
      "8"
    ],
    "repository": "kara.moe",
    "modified_at": "2020-03-31T19:04:37.330Z"
  }
}