{
  "header": {
    "description": "Karaoke Mugen Tag File",
    "version": 1
  },
  "tag": {
    "aliases": [
      "Pretty Sammy Magical Girl Club",
      "Sasami -Mahou Shoujo Club- 1",
      "Sasami Magical Girl Club",
      "Tenchi Muyo: Sasami Magical Girl Club",
      "sasami",
      "砂沙美☆魔法少女クラブ",
      "mahou",
      "shoujo"
    ],
    "external_database_ids": {
      "anilist": 1881,
      "myanimelist": 1881,
      "kitsu": 7760
    },
    "i18n": {
      "eng": "Sasami: Magical Girls Club",
      "jpn": "砂沙美 -魔法少女クラブ-",
      "qro": "Sasami: Mahô Shôjo Club"
    },
    "modified_at": "2020-03-31T19:04:32.625Z",
    "name": "Sasami: Mahô Shôjo Club",
    "repository": "kara.moe",
    "tid": "a7e7b4dd-393e-459e-8e49-706ad73bf0c1",
    "types": [
      "series",
      "1"
    ]
  }
}