{
  "header": {
    "description": "Karaoke Mugen Tag File",
    "version": 1
  },
  "tag": {
    "aliases": [
      "Whispered Words",
      "轻声密语"
    ],
    "external_database_ids": {
      "anilist": 6203,
      "myanimelist": 6203,
      "kitsu": 4473
    },
    "i18n": {
      "eng": "Sasameki Koto ‒ Whispered Words",
      "fre": "Sasameki Koto",
      "jpn": "ささめきこと",
      "qro": "Sasameki Koto"
    },
    "modified_at": "2020-06-21T23:45:31.966Z",
    "name": "Sasameki Koto",
    "repository": "kara.moe",
    "tid": "b22180b2-61c9-457d-a6be-78b4102c8880",
    "types": [
      "series",
      "1"
    ]
  }
}