{
  "header": {
    "description": "Karaoke Mugen Tag File",
    "version": 1
  },
  "tag": {
    "aliases": [
      "Academy of Ninjas",
      "Amazing Sarutobi",
      "Chubby Ninja",
      "Clever Sarutobi",
      "Le collège des Ninjas"
    ],
    "external_database_ids": {
      "anilist": 3806,
      "myanimelist": 3806,
      "kitsu": 3262
    },
    "i18n": {
      "ara": "كما هو متوقع من ساروتوبي",
      "eng": "Clever Sarutobi",
      "fre": "L'académie des Ninjas",
      "jpn": "さすがの猿飛",
      "qro": "Sasuga no Sarutobi"
    },
    "modified_at": "2020-03-31T19:04:32.626Z",
    "name": "Sasuga no Sarutobi",
    "repository": "kara.moe",
    "tid": "50225fa1-586c-4ce5-bcb8-8da6917e25d0",
    "types": [
      "series",
      "1"
    ]
  }
}