{
  "header": {
    "description": "Karaoke Mugen Tag File",
    "version": 1
  },
  "tag": {
    "i18n": {
      "eng": "Satoru Hiraide"
    },
    "name": "Satoru Hiraide",
    "tid": "ab323c12-ad1e-4ef2-abf2-07db17c82c43",
    "types": [
      "songwriters",
      "8"
    ],
    "repository": "kara.moe",
    "modified_at": "2020-03-31T19:04:37.342Z"
  }
}