{
  "header": {
    "description": "Karaoke Mugen Tag File",
    "version": 1
  },
  "tag": {
    "i18n": {
      "eng": "Satomi"
    },
    "name": "Satomi",
    "tid": "ce347a86-3099-4789-9550-8cbedf4a67be",
    "types": [
      "songwriters",
      "8"
    ],
    "repository": "kara.moe",
    "modified_at": "2020-03-31T19:04:37.341Z"
  }
}