{
  "header": {
    "description": "Karaoke Mugen Tag File",
    "version": 1
  },
  "tag": {
    "aliases": [
      "あけさか さとみ"
    ],
    "i18n": {
      "eng": "Satomi Akesaka",
      "jpn": "明坂聡美",
      "qro": "Satomi Akesaka"
    },
    "name": "Satomi Akesaka",
    "repository": "kara.moe",
    "tid": "44df6a86-d2e8-471a-b15f-ab3e4fc8b683",
    "types": [
      "singers",
      "2"
    ]
  }
}