{
  "header": {
    "description": "Karaoke Mugen Tag File",
    "version": 1
  },
  "tag": {
    "i18n": {
      "eng": "Satoru Miwa"
    },
    "modified_at": "2020-04-17T22:09:49.122Z",
    "name": "Satoru Miwa",
    "repository": "kara.moe",
    "tid": "c532ec64-8a31-41da-87c7-d3547e706072",
    "types": [
      "songwriters",
      "8"
    ]
  }
}