{
  "header": {
    "description": "Karaoke Mugen Tag File",
    "version": 1
  },
  "tag": {
    "i18n": {
      "eng": "Sato Yaeko"
    },
    "name": "Sato Yaeko",
    "tid": "763249a2-8c3e-4844-a1f3-e8420b715878",
    "types": [
      "songwriters",
      "8"
    ],
    "repository": "kara.moe",
    "modified_at": "2020-03-31T19:04:37.334Z"
  }
}