{
  "header": {
    "description": "Karaoke Mugen Tag File",
    "version": 1
  },
  "tag": {
    "i18n": {
      "eng": "Satoshi Sakabe"
    },
    "name": "Satoshi Sakabe",
    "tid": "a67c0533-adee-4df8-9340-03bf0be44534",
    "types": [
      "singers",
      "2"
    ],
    "repository": "kara.moe",
    "modified_at": "2020-03-31T19:04:37.350Z"
  }
}