{
  "header": {
    "description": "Karaoke Mugen Tag File",
    "version": 1
  },
  "tag": {
    "i18n": {
      "eng": "Satsuki ga Tenkomori"
    },
    "name": "Satsuki ga Tenkomori",
    "tid": "964f080e-6170-463e-ad34-9cdbf0330dff",
    "types": [
      "songwriters",
      "8"
    ],
    "repository": "kara.moe",
    "modified_at": "2020-03-31T19:04:37.353Z"
  }
}