{
  "header": {
    "description": "Karaoke Mugen Tag File",
    "version": 1
  },
  "tag": {
    "i18n": {
      "eng": "savage genius"
    },
    "name": "savage genius",
    "tid": "17e88527-90f3-452d-b45e-9caadf9a364e",
    "types": [
      "singers",
      "2"
    ],
    "repository": "kara.moe",
    "modified_at": "2020-03-31T19:04:37.358Z"
  }
}