{
  "header": {
    "description": "Karaoke Mugen Tag File",
    "version": 1
  },
  "tag": {
    "i18n": {
      "eng": "SAW"
    },
    "name": "SAW",
    "repository": "kara.moe",
    "tid": "ac7e9b2d-20b6-4bc0-8c41-d8c95338410f",
    "types": [
      "creators",
      "4"
    ]
  }
}