{
  "header": {
    "description": "Karaoke Mugen Tag File",
    "version": 1
  },
  "tag": {
    "aliases": [
      "Saya's Song",
      "Song of Saya"
    ],
    "i18n": {
      "eng": "Saya no Uta",
      "jpn": "沙耶の唄",
      "qro": "Saya no Uta"
    },
    "modified_at": "2020-03-31T19:04:32.627Z",
    "name": "Saya no Uta",
    "repository": "kara.moe",
    "tid": "ca87df11-4c13-4246-880e-216ca6f8a373",
    "types": [
      "series",
      "1"
    ]
  }
}