{
  "header": {
    "description": "Karaoke Mugen Tag File",
    "version": 1
  },
  "tag": {
    "i18n": {
      "eng": "Sayaka Harada"
    },
    "name": "Sayaka Harada",
    "tid": "c8bd78e5-2808-4660-a8cc-65a7e6e95671",
    "types": [
      "singers",
      "2"
    ],
    "repository": "kara.moe",
    "modified_at": "2020-03-31T19:04:37.363Z"
  }
}