{
  "header": {
    "description": "Karaoke Mugen Tag File",
    "version": 1
  },
  "tag": {
    "i18n": {
      "eng": "Sayuri Yahagi"
    },
    "name": "Sayuri Yahagi",
    "tid": "f187afd1-5dac-4f23-95d6-a04799e84cc2",
    "types": [
      "singers",
      "2"
    ],
    "repository": "kara.moe",
    "modified_at": "2020-03-31T19:04:37.372Z"
  }
}