{
  "header": {
    "description": "Karaoke Mugen Tag File",
    "version": 1
  },
  "tag": {
    "i18n": {
      "eng": "schmoyoho"
    },
    "name": "schmoyoho",
    "repository": "kara.moe",
    "tid": "998d085e-23a6-40c2-a536-e6ebb0c5aee9",
    "types": [
      "creators",
      "4",
      "songwriters",
      "8"
    ]
  }
}