{
  "header": {
    "description": "Karaoke Mugen Tag File",
    "version": 1
  },
  "tag": {
    "i18n": {
      "eng": "Schoolboy Records"
    },
    "modified_at": "2021-05-21T17:03:10.623Z",
    "name": "Schoolboy Records",
    "repository": "kara.moe",
    "tid": "13f34ec8-2cd8-4e34-8000-c0d57b23111a",
    "types": [
      "creators",
      "4"
    ]
  }
}