{
  "header": {
    "description": "Karaoke Mugen Tag File",
    "version": 1
  },
  "tag": {
    "i18n": {
      "eng": "Scholastic Entertainment"
    },
    "name": "Scholastic Entertainment",
    "tid": "a48f9d1d-7d66-4a95-bd75-051cf1d643c2",
    "types": [
      "creators",
      "4"
    ],
    "repository": "kara.moe",
    "modified_at": "2020-03-31T19:04:37.377Z"
  }
}