{
  "header": {
    "description": "Karaoke Mugen Tag File",
    "version": 1
  },
  "tag": {
    "aliases": [
      "Dias Escolares",
      "Dias de Escola",
      "Okul Günleri",
      "Szkolne dni",
      "Zilele Şcolii",
      "Училищни дни",
      "Школьные дни",
      "Шкільні дні",
      "أيام المدرسة",
      "日在校园"
    ],
    "external_database_ids": {
      "anilist": 756,
      "myanimelist": 756,
      "kitsu": 678
    },
    "i18n": {
      "eng": "School Days",
      "fre": "School Days",
      "jpn": "スクールデイズ",
      "qro": "School Days"
    },
    "modified_at": "2020-03-31T19:04:32.631Z",
    "name": "School Days",
    "repository": "kara.moe",
    "tid": "5e24d673-e788-45a0-8699-333fe43453ee",
    "types": [
      "series",
      "1",
      "franchises",
      "18"
    ]
  }
}