{
  "header": {
    "description": "Karaoke Mugen Tag File",
    "version": 1
  },
  "tag": {
    "i18n": {
      "eng": "Scop",
      "jpn": "すこっぷ"
    },
    "name": "Scop",
    "repository": "kara.moe",
    "tid": "05eb8bfc-3a27-44f1-816e-cc248dd302a9",
    "types": [
      "songwriters",
      "8"
    ]
  }
}