{
  "header": {
    "description": "Karaoke Mugen Tag File",
    "version": 1
  },
  "tag": {
    "i18n": {
      "eng": "SCRAMBLES"
    },
    "name": "SCRAMBLES",
    "repository": "kara.moe",
    "tid": "7aca7073-3852-4772-b069-87c3c1dbc75d",
    "types": [
      "songwriters",
      "8"
    ],
    "modified_at": "2020-03-31T19:04:37.381Z"
  }
}