{
  "header": {
    "description": "Karaoke Mugen Tag File",
    "version": 1
  },
  "tag": {
    "i18n": {
      "eng": "SCSC-ZIPS"
    },
    "name": "SCSC-ZIPS",
    "tid": "72654e40-c3f1-421e-a2be-117818ff1dfc",
    "types": [
      "singers",
      "2"
    ],
    "repository": "kara.moe",
    "modified_at": "2020-03-31T19:04:37.382Z"
  }
}