{
  "header": {
    "description": "Karaoke Mugen Tag File",
    "version": 1
  },
  "tag": {
    "i18n": {
      "eng": "Se MAD"
    },
    "modified_at": "2020-12-09T21:14:54.273Z",
    "name": "Se MAD",
    "repository": "kara.moe",
    "tid": "f95d834e-c0b6-4fa5-b4f7-749fe67016e7",
    "types": [
      "creators",
      "4"
    ]
  }
}