{
  "header": {
    "description": "Karaoke Mugen Tag File",
    "version": 1
  },
  "tag": {
    "i18n": {
      "eng": "Seatbelts"
    },
    "name": "Seatbelts",
    "tid": "e9121986-84f7-4726-86c2-522605793c07",
    "types": [
      "singers",
      "2"
    ],
    "repository": "kara.moe",
    "modified_at": "2020-03-31T19:04:37.384Z"
  }
}