{
  "header": {
    "description": "Karaoke Mugen Tag File",
    "version": 1
  },
  "tag": {
    "i18n": {
      "eng": "Secret"
    },
    "name": "Secret",
    "tid": "5b8bff33-152d-4916-aa53-8206ec8ab65c",
    "types": [
      "singers",
      "2"
    ],
    "repository": "kara.moe",
    "modified_at": "2020-03-31T19:04:37.386Z"
  }
}