{
  "header": {
    "description": "Karaoke Mugen Tag File",
    "version": 1
  },
  "tag": {
    "i18n": {
      "eng": "seek (Mix Speaker's Inc.)"
    },
    "name": "seek (Mix Speaker's Inc.)",
    "tid": "2d8ffcab-05c4-4419-96b9-989b4dda1816",
    "types": [
      "songwriters",
      "8"
    ],
    "repository": "kara.moe",
    "modified_at": "2020-03-31T19:04:37.387Z"
  }
}