{
  "header": {
    "description": "Karaoke Mugen Tag File",
    "version": 1
  },
  "tag": {
    "i18n": {
      "eng": "Seiichirô Kuribayashi"
    },
    "name": "Seiichirô Kuribayashi",
    "tid": "b877b8cb-f2dd-4a1f-b30a-4d2b6595b18f",
    "types": [
      "songwriters",
      "8"
    ],
    "repository": "kara.moe",
    "modified_at": "2020-03-31T19:04:37.391Z"
  }
}