{
  "header": {
    "description": "Karaoke Mugen Tag File",
    "version": 1
  },
  "tag": {
    "external_database_ids": {
      "anilist": 136150,
      "kitsu": 44822,
      "myanimelist": 49304
    },
    "i18n": {
      "chi": "圣剑传说 玛娜传奇 -泪珠水晶-",
      "eng": "Legend of Mana: The Teardrop Crystal",
      "jpn": "聖剣伝説 Legend of Mana -The Teardrop Crystal-",
      "qro": "Seiken Densetsu: Legend of Mana - The Teardrop Crystal"
    },
    "name": "Seiken Densetsu: Legend of Mana - The Teardrop Crystal",
    "repository": "kara.moe",
    "tid": "b6193d3b-6dbd-4c0c-b618-83d682b46dfc",
    "types": [
      "series",
      "1"
    ]
  }
}