{
  "header": {
    "description": "Karaoke Mugen Tag File",
    "version": 1
  },
  "tag": {
    "i18n": {
      "eng": "Seikima II"
    },
    "name": "Seikima II",
    "tid": "5281923c-c14e-45a3-a1bc-333ae4505bed",
    "types": [
      "singers",
      "2"
    ],
    "repository": "kara.moe",
    "modified_at": "2020-03-31T19:04:37.398Z"
  }
}