{
  "header": {
    "description": "Karaoke Mugen Tag File",
    "version": 1
  },
  "tag": {
    "i18n": {
      "eng": "Seiko Niizuma"
    },
    "modified_at": "2020-07-21T20:20:15.821Z",
    "name": "Seiko Niizuma",
    "repository": "kara.moe",
    "tid": "424e5530-4a6b-4beb-a884-1efe70763d02",
    "types": [
      "singers",
      "2"
    ]
  }
}