{
  "header": {
    "description": "Karaoke Mugen Tag File",
    "version": 1
  },
  "tag": {
    "aliases": [
      "Holy Warrior Dunbine",
      "Sei Senshi Dunbine"
    ],
    "external_database_ids": {
      "anilist": 929,
      "myanimelist": 929,
      "kitsu": 827
    },
    "i18n": {
      "eng": "Aura Battler Dunbine",
      "jpn": "聖戦士ダンバイン",
      "qro": "Seisenshi Dunbine"
    },
    "modified_at": "2020-03-31T19:04:32.649Z",
    "name": "Seisenshi Dunbine",
    "repository": "kara.moe",
    "tid": "453ca220-7d96-400a-9f31-ea7790dcee28",
    "types": [
      "series",
      "1"
    ]
  }
}