{
  "header": {
    "description": "Karaoke Mugen Tag File",
    "version": 1
  },
  "tag": {
    "aliases": [
      "AoButa",
      "Rascal Does Not Dream of Bunny Girl Senpas"
    ],
    "external_database_ids": {
      "anilist": 101291,
      "myanimelist": 37450,
      "kitsu": 41056
    },
    "i18n": {
      "eng": "Rascal Does Not Dream of Bunny Girl Senpai",
      "jpn": "青春ブタ野郎はバーニガール先輩の夢を見ない",
      "qro": "Seishun Buta Yarou wa Bunny Girl Senpai no Yume wo Minai"
    },
    "modified_at": "2020-03-31T19:04:32.649Z",
    "name": "Seishun Buta Yarou wa Bunny Girl Senpai no Yume wo Minai",
    "repository": "kara.moe",
    "tid": "6328ab0d-f9ab-4cac-b3a2-758ad39d2c1e",
    "types": [
      "series",
      "1"
    ]
  }
}