{
  "header": {
    "description": "Karaoke Mugen Tag File",
    "version": 1
  },
  "tag": {
    "i18n": {
      "eng": "Seiya Nagatomo"
    },
    "name": "Seiya Nagatomo",
    "tid": "16d02cc0-9a6b-405b-a29f-94e5f816f5db",
    "types": [
      "songwriters",
      "8"
    ],
    "repository": "kara.moe",
    "modified_at": "2020-03-31T19:04:37.404Z"
  }
}