{
  "header": {
    "description": "Karaoke Mugen Tag File",
    "version": 1
  },
  "tag": {
    "i18n": {
      "eng": "Sekai no Owari"
    },
    "name": "Sekai no Owari",
    "tid": "968fa5f3-52a4-4845-a11e-f21d7a2ce708",
    "types": [
      "singers",
      "2",
      "songwriters",
      "8"
    ],
    "repository": "kara.moe",
    "modified_at": "2020-03-31T19:04:37.404Z"
  }
}