{
  "header": {
    "description": "Karaoke Mugen Tag File",
    "version": 1
  },
  "tag": {
    "i18n": {
      "eng": "Sekkô Boys"
    },
    "name": "Sekkô Boys",
    "tid": "88d456b7-0a37-47c3-a56b-1c772d548881",
    "types": [
      "singers",
      "2"
    ],
    "repository": "kara.moe",
    "modified_at": "2020-03-31T19:04:37.406Z"
  }
}