{
  "header": {
    "description": "Karaoke Mugen Tag File",
    "version": 1
  },
  "tag": {
    "aliases": [
      "Sekkenya"
    ],
    "i18n": {
      "eng": "Sekken'ya",
      "jpn": "石鹸屋",
      "qro": "Sekken'ya"
    },
    "modified_at": "2021-09-04T23:18:29.003Z",
    "name": "Sekken'ya",
    "repository": "kara.moe",
    "tid": "ad4c9a45-6385-48ff-9468-1a056c486239",
    "types": [
      "songwriters",
      "8",
      "singers",
      "2",
      "creators",
      "4"
    ]
  }
}