{
  "header": {
    "description": "Karaoke Mugen Tag File",
    "version": 1
  },
  "tag": {
    "external_database_ids": {
      "anilist": 20714,
      "myanimelist": 24037,
      "kitsu": 8468
    },
    "i18n": {
      "eng": "Selector Spread WIXOSS",
      "fre": "Selector Spread WIXOSS",
      "ger": "Selector Spread WIXOSS",
      "jpn": "selector spread WIXOSS",
      "qro": "Selector Spread WIXOSS"
    },
    "modified_at": "2020-03-31T19:04:32.657Z",
    "name": "Selector Spread WIXOSS",
    "repository": "kara.moe",
    "tid": "df982293-0638-4cf4-978a-19c8ee9d2199",
    "types": [
      "series",
      "1"
    ]
  }
}