{
  "header": {
    "description": "Karaoke Mugen Tag File",
    "version": 1
  },
  "tag": {
    "aliases": [
      "Sengoku Musou",
      "musou"
    ],
    "external_database_ids": {
      "anilist": 20944,
      "myanimelist": 28283,
      "kitsu": 10013
    },
    "i18n": {
      "chi": "战国无双",
      "eng": "Samurai Warriors",
      "jpn": "戦国無双",
      "qro": "Sengoku Musô"
    },
    "modified_at": "2020-03-31T19:04:32.664Z",
    "name": "Sengoku Musô",
    "repository": "kara.moe",
    "tid": "34dae8f0-a4ad-4219-837b-c49f1dbf58db",
    "types": [
      "series",
      "1"
    ]
  }
}