{
  "header": {
    "description": "Karaoke Mugen Tag File",
    "version": 1
  },
  "tag": {
    "external_database_ids": {
      "anilist": 20612,
      "myanimelist": 23201,
      "kitsu": 8272
    },
    "i18n": {
      "eng": "Sengoku Basara: End of Judgement",
      "jpn": "戦国BASARA Judge End",
      "qro": "Sengoku BASARA Judge End"
    },
    "modified_at": "2020-03-31T19:04:32.660Z",
    "name": "Sengoku BASARA Judge End",
    "repository": "kara.moe",
    "tid": "e2d23927-c480-48e4-81a1-1a655447daf8",
    "types": [
      "series",
      "1"
    ]
  }
}