{
  "header": {
    "description": "Karaoke Mugen Tag File",
    "version": 1
  },
  "tag": {
    "external_database_ids": {
      "anilist": 9745,
      "myanimelist": 9745,
      "kitsu": 5847
    },
    "i18n": {
      "eng": "Sengoku Basara: Samurai Kings ‒ The Movie",
      "jpn": "劇場版 戦国BASARA The Last Party",
      "qro": "Sengoku BASARA The Last Party"
    },
    "modified_at": "2020-03-31T19:04:32.661Z",
    "name": "Sengoku BASARA The Last Party",
    "repository": "kara.moe",
    "tid": "186f7d97-4337-41a1-b719-1c0da5b10d47",
    "types": [
      "series",
      "1"
    ]
  }
}