{
  "header": {
    "description": "Karaoke Mugen Tag File",
    "version": 1
  },
  "tag": {
    "aliases": [
      "Sennen Joyuu",
      "joyuu"
    ],
    "external_database_ids": {
      "anilist": 1033,
      "myanimelist": 1033,
      "kitsu": 923
    },
    "i18n": {
      "eng": "Millennium Actress",
      "jpn": "千年女優",
      "est": "Aastatuhande näitlejatar",
      "por": "Atriz Milenar",
      "lit": "Tūkstantmečio aktorė",
      "rus": "Актриса тысячелетия",
      "cze": "Herečka tisíciletí",
      "ukr": "Акторка Тисячоліття",
      "chi": "千年女优",
      "kor": "천년여우",
      "qro": "Sennen Joyû"
    },
    "modified_at": "2020-09-25T22:58:18.039Z",
    "name": "Sennen Joyû",
    "repository": "kara.moe",
    "tid": "27c25ad4-3155-45c7-a23a-9d691cd89ded",
    "types": [
      "series",
      "1"
    ]
  }
}