{
  "header": {
    "description": "Karaoke Mugen Tag File",
    "version": 1
  },
  "tag": {
    "aliases": [
      "Doki Doki School Hours"
    ],
    "external_database_ids": {
      "anilist": 533,
      "myanimelist": 533,
      "kitsu": 492
    },
    "i18n": {
      "eng": "Teacher's Time",
      "fre": "Sensei no Ojikan",
      "jpn": "せんせいのお時間",
      "qro": "Sensei no ojikan"
    },
    "modified_at": "2020-03-31T19:04:32.676Z",
    "name": "Sensei no ojikan",
    "repository": "kara.moe",
    "tid": "44dd5529-9d2a-49b8-bed1-d646a8b3ebd7",
    "types": [
      "series",
      "1"
    ]
  }
}