{
  "header": {
    "description": "Karaoke Mugen Tag File",
    "version": 1
  },
  "tag": {
    "i18n": {
      "eng": "senzawa"
    },
    "modified_at": "2020-11-02T15:04:52.637Z",
    "name": "senzawa",
    "repository": "kara.moe",
    "tid": "46270cc7-3540-4d75-91b6-93ff8cfc245e",
    "types": [
      "songwriters",
      "8",
      "singers",
      "2",
      "creators",
      "4"
    ]
  }
}