{
  "header": {
    "description": "Karaoke Mugen Tag File",
    "version": 1
  },
  "tag": {
    "i18n": {
      "eng": "Seo Hyun il"
    },
    "name": "Seo Hyun il",
    "tid": "2410c26c-f140-4ee8-aaeb-4ddf0423a935",
    "types": [
      "songwriters",
      "8"
    ],
    "repository": "kara.moe",
    "modified_at": "2020-03-31T19:04:37.413Z"
  }
}