{
  "header": {
    "description": "Karaoke Mugen Tag File",
    "version": 1
  },
  "tag": {
    "i18n": {
      "eng": "seriy"
    },
    "name": "seriy",
    "tid": "286f3427-166f-407b-954f-db517c48653a",
    "types": [
      "creators",
      "4"
    ],
    "repository": "kara.moe",
    "modified_at": "2020-03-31T19:04:37.418Z"
  }
}