{
  "header": {
    "description": "Karaoke Mugen Tag File",
    "version": 1
  },
  "tag": {
    "i18n": {
      "eng": "serial TV drama"
    },
    "name": "serial TV drama",
    "tid": "7e947487-1043-4fa4-8800-e3b123186247",
    "types": [
      "singers",
      "2"
    ],
    "repository": "kara.moe",
    "modified_at": "2020-03-31T19:04:37.417Z"
  }
}