{
  "header": {
    "description": "Karaoke Mugen Tag File",
    "version": 1
  },
  "tag": {
    "i18n": {
      "eng": "Seriko Natsuno"
    },
    "name": "Seriko Natsuno",
    "tid": "db757b76-8af1-4f9a-b3be-fde242925ad4",
    "types": [
      "songwriters",
      "8"
    ],
    "repository": "kara.moe",
    "modified_at": "2020-03-31T19:04:37.418Z"
  }
}