{
  "header": {
    "description": "Karaoke Mugen Tag File",
    "version": 1
  },
  "tag": {
    "i18n": {
      "eng": "Seth MacFarlane"
    },
    "name": "Seth MacFarlane",
    "repository": "kara.moe",
    "tid": "b1bd98db-41e3-4c25-abd7-7375c5740fcf",
    "types": [
      "singers",
      "2"
    ]
  }
}