{
  "header": {
    "description": "Karaoke Mugen Tag File",
    "version": 1
  },
  "tag": {
    "i18n": {
      "eng": "SEVEN ARCS"
    },
    "name": "SEVEN ARCS",
    "tid": "2c2ecf1e-16c1-4768-aedc-3d79f54321da",
    "types": [
      "creators",
      "4"
    ],
    "repository": "kara.moe",
    "modified_at": "2020-03-31T19:04:37.420Z"
  }
}