{
  "header": {
    "description": "Karaoke Mugen Tag File",
    "version": 1
  },
  "tag": {
    "aliases": [
      "Yuang Chen"
    ],
    "i18n": {
      "eng": "Seycara"
    },
    "modified_at": "2021-06-20T16:05:05.680Z",
    "name": "Seycara",
    "repository": "kara.moe",
    "tid": "a5ba4f5d-4d20-40a0-89f4-4b65ce4716fe",
    "types": [
      "songwriters",
      "8",
      "creators",
      "4"
    ]
  }
}