{
  "header": {
    "description": "Karaoke Mugen Tag File",
    "version": 1
  },
  "tag": {
    "i18n": {
      "eng": "sgandtg"
    },
    "modified_at": "2020-07-04T14:08:28.987Z",
    "name": "sgandtg",
    "repository": "kara.moe",
    "tid": "cf579318-3480-4b5b-a953-befa472acb37",
    "types": [
      "authors",
      "6"
    ]
  }
}