{
  "header": {
    "description": "Karaoke Mugen Tag File",
    "version": 1
  },
  "tag": {
    "i18n": {
      "eng": "Shadow the Hedgehog"
    },
    "modified_at": "2020-03-31T19:04:32.682Z",
    "name": "Shadow the Hedgehog",
    "repository": "kara.moe",
    "tid": "88c83fb8-7216-4519-b2c4-bcd0874f2f7e",
    "types": [
      "series",
      "1"
    ]
  }
}