{
  "header": {
    "description": "Karaoke Mugen Tag File",
    "version": 1
  },
  "tag": {
    "i18n": {
      "eng": "Shade Siam"
    },
    "name": "Shade Siam",
    "tid": "ef03de76-2f20-4c31-9b74-c475ddde41f1",
    "types": [
      "singers",
      "2",
      "songwriters",
      "8"
    ],
    "repository": "kara.moe",
    "modified_at": "2020-03-31T19:04:37.424Z"
  }
}