{
  "header": {
    "description": "Karaoke Mugen Tag File",
    "version": 1
  },
  "tag": {
    "i18n": {
      "eng": "Shaffer Smith"
    },
    "name": "Shaffer Smith",
    "repository": "kara.moe",
    "tid": "fa2390e6-386a-446a-bb60-8ea95721b181",
    "types": [
      "songwriters",
      "8"
    ]
  }
}