{
  "header": {
    "description": "Karaoke Mugen Tag File",
    "version": 1
  },
  "tag": {
    "i18n": {
      "eng": "SHAFT"
    },
    "name": "SHAFT",
    "tid": "c3bd80ef-d1fe-427f-913f-a2ba2fe66114",
    "types": [
      "creators",
      "4"
    ],
    "repository": "kara.moe",
    "modified_at": "2020-03-31T19:04:37.425Z"
  }
}