{
  "header": {
    "description": "Karaoke Mugen Tag File",
    "version": 1
  },
  "tag": {
    "external_database_ids": {
      "anilist": 6773,
      "myanimelist": 6773,
      "kitsu": 4709
    },
    "i18n": {
      "eng": "Shakugan no Shana III",
      "fre": "Shakugan no Shana III (Final)",
      "jpn": "灼眼のシャナIII[Final]",
      "qro": "Shakugan no Shana III Final"
    },
    "modified_at": "2020-03-31T19:04:32.684Z",
    "name": "Shakugan no Shana III Final",
    "repository": "kara.moe",
    "tid": "e294d85e-ea53-4307-9ec8-25eae6815087",
    "types": [
      "series",
      "1"
    ]
  }
}