{
  "header": {
    "description": "Karaoke Mugen Tag File",
    "version": 1
  },
  "tag": {
    "i18n": {
      "eng": "sham"
    },
    "name": "sham",
    "tid": "c247e45d-d0e3-461a-9bbc-6ccfe6135a23",
    "types": [
      "songwriters",
      "8"
    ],
    "repository": "kara.moe",
    "modified_at": "2020-03-31T19:04:37.426Z"
  }
}