{
  "header": {
    "description": "Karaoke Mugen Tag File",
    "version": 1
  },
  "tag": {
    "i18n": {
      "eng": "Shanti Snyder"
    },
    "modified_at": "2020-06-01T01:36:48.951Z",
    "name": "Shanti Snyder",
    "repository": "kara.moe",
    "tid": "c600f528-b713-4434-8a0a-955a065499f3",
    "types": [
      "songwriters",
      "8",
      "singers",
      "2"
    ]
  }
}