{
  "header": {
    "description": "Karaoke Mugen Tag File",
    "version": 1
  },
  "tag": {
    "i18n": {
      "eng": "Shanchii"
    },
    "name": "Shanchii",
    "tid": "d8343d68-cf6e-4984-afca-6dd094ef3c39",
    "types": [
      "singers",
      "2"
    ],
    "repository": "kara.moe",
    "modified_at": "2020-03-31T19:04:37.427Z"
  }
}