{
  "header": {
    "description": "Karaoke Mugen Tag File",
    "version": 1
  },
  "tag": {
    "i18n": {
      "eng": "SHEEP"
    },
    "modified_at": "2020-08-23T16:43:59.406Z",
    "name": "SHEEP",
    "repository": "kara.moe",
    "tid": "909f9e38-6477-42c4-97a8-47fae95605b8",
    "types": [
      "songwriters",
      "8",
      "singers",
      "2"
    ]
  }
}