{
  "header": {
    "description": "Karaoke Mugen Tag File",
    "version": 1
  },
  "tag": {
    "i18n": {
      "eng": "Sherry"
    },
    "name": "Sherry",
    "tid": "1d178438-f5f1-42c0-b740-8d54b146a034",
    "types": [
      "singers",
      "2"
    ],
    "repository": "kara.moe",
    "modified_at": "2020-03-31T19:04:37.432Z"
  }
}