{
  "header": {
    "description": "Karaoke Mugen Tag File",
    "version": 1
  },
  "tag": {
    "i18n": {
      "eng": "Shien Kageyama"
    },
    "modified_at": "2021-05-06T19:10:06.176Z",
    "name": "Shien Kageyama",
    "repository": "kara.moe",
    "tid": "d2673351-5f10-4efa-957e-6364ad35189d",
    "types": [
      "singers",
      "2"
    ]
  }
}