{
  "header": {
    "description": "Karaoke Mugen Tag File",
    "version": 1
  },
  "tag": {
    "i18n": {
      "eng": "Shifo"
    },
    "name": "Shifo",
    "repository": "kara.moe",
    "tid": "d333281f-ec6a-4c0e-ae26-fd5c97fa10ff",
    "types": [
      "songwriters",
      "8"
    ]
  }
}