{
  "header": {
    "description": "Karaoke Mugen Tag File",
    "version": 1
  },
  "tag": {
    "aliases": [
      "Shíguāng Dàilǐrén"
    ],
    "external_database_ids": {
      "anilist": 126403,
      "myanimelist": 44074,
      "kitsu": 44503
    },
    "i18n": {
      "eng": "Link Click",
      "chi": "时光代理人"
    },
    "modified_at": "2021-10-24T17:18:52.818Z",
    "name": "Shiguang Dailiren",
    "repository": "kara.moe",
    "tid": "78de8471-7c1a-4ba9-b10b-10c022e08a8c",
    "types": [
      "series",
      "1"
    ]
  }
}