{
  "header": {
    "description": "Karaoke Mugen Tag File",
    "version": 1
  },
  "tag": {
    "i18n": {
      "eng": "Shigloo"
    },
    "modified_at": "2021-01-13T18:12:32.748Z",
    "name": "Shigloo",
    "repository": "kara.moe",
    "tid": "66d0ba22-2ece-43dc-8e09-5c7a49544dc2",
    "types": [
      "creators",
      "4"
    ]
  }
}