{
  "header": {
    "description": "Karaoke Mugen Tag File",
    "version": 1
  },
  "tag": {
    "aliases": [
      "Shigofumi: Stories of Last Letter",
      "Stories of Last Letter",
      "Листи від померлих",
      "Сигофуми: Письма с того света",
      "Шигофуми",
      "Шіґофумі: Листи з того світу",
      "シゴフミ ~Stories of Last Letter~",
      "亡者之信",
      "死后文"
    ],
    "external_database_ids": {
      "anilist": 3420,
      "myanimelist": 3420,
      "kitsu": 2996
    },
    "i18n": {
      "eng": "Shigofumi: Letters from the Departed",
      "fre": "Shigofumi",
      "jpn": "シゴフミ",
      "qro": "Shigofumi"
    },
    "modified_at": "2020-03-31T19:04:32.691Z",
    "name": "Shigofumi",
    "repository": "kara.moe",
    "tid": "96ff16b0-2b95-4b03-b85b-cae212f157bd",
    "types": [
      "series",
      "1"
    ]
  }
}