{
  "header": {
    "description": "Karaoke Mugen Tag File",
    "version": 1
  },
  "tag": {
    "i18n": {
      "eng": "Shigeru Katsumi"
    },
    "name": "Shigeru Katsumi",
    "tid": "a8e6ce9a-32b1-4817-b368-3c5533c74ad6",
    "types": [
      "singers",
      "2"
    ],
    "repository": "kara.moe",
    "modified_at": "2020-03-31T19:04:37.439Z"
  }
}