{
  "header": {
    "description": "Karaoke Mugen Tag File",
    "version": 1
  },
  "tag": {
    "i18n": {
      "eng": "Shigeaki Saegusa"
    },
    "name": "Shigeaki Saegusa",
    "tid": "48c9bbcf-94d6-472d-a1be-37604f0277cb",
    "types": [
      "songwriters",
      "8"
    ],
    "repository": "kara.moe",
    "modified_at": "2020-03-31T19:04:37.435Z"
  }
}