{
  "header": {
    "description": "Karaoke Mugen Tag File",
    "version": 1
  },
  "tag": {
    "i18n": {
      "eng": "Shiho Fujii"
    },
    "name": "Shiho Fujii",
    "tid": "9a9ab878-62de-44aa-94b5-c32bb4fba77e",
    "types": [
      "songwriters",
      "8"
    ],
    "repository": "kara.moe",
    "modified_at": "2020-03-31T19:04:37.444Z"
  }
}