{
  "header": {
    "description": "Karaoke Mugen Tag File",
    "version": 1
  },
  "tag": {
    "aliases": [
      "Corpse Demons",
      "Necrodemon",
      "Shi-Ki",
      "Некродемон",
      "Трупный демон",
      "Труподемони",
      "Усопшие",
      "Шики",
      "Шікі",
      "尸鬼"
    ],
    "external_database_ids": {
      "anilist": 7724,
      "myanimelist": 7724,
      "kitsu": 5098
    },
    "i18n": {
      "eng": "Shiki",
      "fre": "Shi-ki",
      "jpn": "屍鬼",
      "qro": "Shiki"
    },
    "modified_at": "2020-03-31T19:04:32.692Z",
    "name": "Shiki",
    "repository": "kara.moe",
    "tid": "2f9bfd84-5495-478e-9c8b-9df8074b0e2c",
    "types": [
      "series",
      "1"
    ]
  }
}