{
  "header": {
    "description": "Karaoke Mugen Tag File",
    "version": 1
  },
  "tag": {
    "i18n": {
      "eng": "Shimo"
    },
    "name": "Shimo",
    "tid": "8f5cb5f7-7ec4-4016-9997-82fbd16c2528",
    "types": [
      "songwriters",
      "8"
    ],
    "repository": "kara.moe",
    "modified_at": "2020-03-31T19:04:37.453Z"
  }
}