{
  "header": {
    "description": "Karaoke Mugen Tag File",
    "version": 1
  },
  "tag": {
    "aliases": [
      "New Snow White's Legend Pretear",
      "Prétear",
      "Shin Shirayuki-hime Densetsu Prétear",
      "Легенда о Новой Белоснежке Притиар"
    ],
    "external_database_ids": {
      "anilist": 100,
      "myanimelist": 100,
      "kitsu": 79
    },
    "i18n": {
      "eng": "Pretear: The New Legend of Snow White",
      "fre": "Pretear",
      "jpn": "新白雪姫伝説プリーティア",
      "qro": "Shin Shirayuki Hime Densetsu Pretear"
    },
    "modified_at": "2020-03-31T19:04:32.708Z",
    "name": "Shin Shirayuki Hime Densetsu Pretear",
    "repository": "kara.moe",
    "tid": "18d99f0e-f9ca-4d42-81f2-9e69e7f1566c",
    "types": [
      "series",
      "1"
    ]
  }
}