{
  "header": {
    "description": "Karaoke Mugen Tag File",
    "version": 1
  },
  "tag": {
    "i18n": {
      "eng": "Shinsadong Tiger"
    },
    "name": "Shinsadong Tiger",
    "tid": "8dfe5b2d-bc27-40b2-852e-a801e1dc0250",
    "types": [
      "songwriters",
      "8"
    ],
    "repository": "kara.moe",
    "modified_at": "2020-03-31T19:04:37.503Z"
  }
}