{
  "header": {
    "description": "Karaoke Mugen Tag File",
    "version": 1
  },
  "tag": {
    "i18n": {
      "eng": "Shinjirô Inoue"
    },
    "name": "Shinjirô Inoue",
    "tid": "10d2a00a-97a0-4ae4-8176-27207d6e9ac6",
    "types": [
      "songwriters",
      "8"
    ],
    "repository": "kara.moe",
    "modified_at": "2020-03-31T19:04:37.494Z"
  }
}