{
  "header": {
    "description": "Karaoke Mugen Tag File",
    "version": 1
  },
  "tag": {
    "aliases": [
      "SnK 4",
      "Shingeki no Kyojin Season 4",
      "AoT S4"
    ],
    "external_database_ids": {
      "anilist": 110277,
      "myanimelist": 40028,
      "kitsu": 42422
    },
    "i18n": {
      "eng": "Attack on Titan: Final Season",
      "jpn": "進撃の巨人 attack on titan The Final Season",
      "fre": "L'Attaque des Titans : Saison finale",
      "chi": "進擊的巨人 The Final Season",
      "qro": "Shingeki no Kyojin: The Final Season"
    },
    "modified_at": "2020-12-07T01:20:32.129Z",
    "name": "Shingeki no Kyojin: The Final Season",
    "repository": "kara.moe",
    "tid": "796ce6e2-bdc2-4751-bf90-da181b276d38",
    "types": [
      "series",
      "1"
    ]
  }
}