{
  "header": {
    "description": "Karaoke Mugen Tag File",
    "version": 1
  },
  "tag": {
    "aliases": [
      "SnB Genesis",
      "Гневът на Бахамут: Началото"
    ],
    "external_database_ids": {
      "anilist": 20590,
      "myanimelist": 21843,
      "kitsu": 8195
    },
    "i18n": {
      "chi": "巴哈姆特之怒 GENESIS",
      "eng": "Rage of Bahamut: Genesis",
      "fre": "Rage of Bahamut: Genesis",
      "jpn": "神撃のバハムート GENESIS",
      "qro": "Shingeki no Bahamut: Genesis"
    },
    "modified_at": "2020-03-31T19:04:32.713Z",
    "name": "Shingeki no Bahamut: Genesis",
    "repository": "kara.moe",
    "tid": "abf9255b-13a8-46ed-89ca-3a339a5ca483",
    "types": [
      "series",
      "1"
    ]
  }
}