{
  "header": {
    "description": "Karaoke Mugen Tag File",
    "version": 1
  },
  "tag": {
    "aliases": [
      "New Captain Tsubasa",
      "新キャプテン翼",
      "Holly & Benjii"
    ],
    "external_database_ids": {
      "anilist": 2117,
      "myanimelist": 2117,
      "kitsu": 1914
    },
    "i18n": {
      "eng": "New Captain Tsubasa",
      "ita": "Holly e Benji: Sfida al mondo",
      "jpn": "新・キャプテン翼",
      "qro": "Shin Captain Tsubasa"
    },
    "modified_at": "2021-10-10T21:37:05.834Z",
    "name": "Shin Captain Tsubasa",
    "repository": "kara.moe",
    "tid": "2caf5226-a0f1-40d0-ab3d-272ac7a076d7",
    "types": [
      "series",
      "1"
    ]
  }
}