{
  "header": {
    "description": "Karaoke Mugen Tag File",
    "version": 1
  },
  "tag": {
    "aliases": [
      "Shining Hearts -幸せのパン-",
      "Shining Hearts: Bread of Happiness",
      "Shiny Bread"
    ],
    "external_database_ids": {
      "anilist": 12367,
      "myanimelist": 12367,
      "kitsu": 6715
    },
    "i18n": {
      "eng": "Shining Hearts: Bread of Happiness",
      "jpn": "Shining Hearts -幸せのパン-",
      "qro": "Shining Hearts ~ Shiawase no Pan"
    },
    "modified_at": "2020-03-31T19:04:32.720Z",
    "name": "Shining Hearts ~ Shiawase no Pan",
    "repository": "kara.moe",
    "tid": "4050ce62-f527-4146-acb4-1f3f6e299735",
    "types": [
      "series",
      "1"
    ]
  }
}