{
  "header": {
    "description": "Karaoke Mugen Tag File",
    "version": 1
  },
  "tag": {
    "i18n": {
      "eng": "Shinji Harada"
    },
    "name": "Shinji Harada",
    "tid": "bd22d019-89fc-4dd9-9f5e-8fe8129f5854",
    "types": [
      "songwriters",
      "8"
    ],
    "repository": "kara.moe",
    "modified_at": "2020-03-31T19:04:37.489Z"
  }
}