{
  "header": {
    "description": "Karaoke Mugen Tag File",
    "version": 1
  },
  "tag": {
    "aliases": [
      "EVA",
      "Evangelion TV",
      "NGE",
      "Neon Genesis Evangelion Platinum",
      "Neon Genesis Evangelion Renewal",
      "eva tv",
      "nge tv",
      "sse",
      "Євангеліон",
      "Євангеліон нового покоління",
      "Евангелион",
      "Нова ера: Євангеліон",
      "ева",
      "єва"
    ],
    "external_database_ids": {
      "anilist": 30,
      "myanimelist": 30,
      "kitsu": 21
    },
    "i18n": {
      "chi": "新世纪福音战士",
      "eng": "Neon Genesis Evangelion",
      "fin": "Neon Genesis Evangelion",
      "fre": "Neon Genesis Evangelion",
      "ger": "Neon Genesis Evangelion",
      "glg": "Evangelion",
      "heb": "ניאון ג'נסיס אוונג'ליון",
      "ita": "Neon Genesis Evangelion",
      "jpn": "新世紀エヴァンゲリオン",
      "kor": "신세기 에반게리온",
      "pol": "Neon Genesis Evangelion",
      "por": "Neon Genesis Evangelion",
      "rus": "Евангелион",
      "spa": "Neon Genesis Evangelion",
      "swe": "Neon Genesis Evangelion",
      "tha": "อีวานเกเลี่ยน: มหาสงครามวันพิพากษา",
      "qro": "Shin Seiki Evangelion"
    },
    "modified_at": "2020-06-21T23:45:31.966Z",
    "name": "Shin Seiki Evangelion",
    "repository": "kara.moe",
    "tid": "af74c4e9-b42d-42c6-9fe0-0365aa8d8ffc",
    "types": [
      "series",
      "1"
    ]
  }
}