{
  "header": {
    "description": "Karaoke Mugen Tag File",
    "version": 1
  },
  "tag": {
    "aliases": [
      "Shinmai Maou no Keiyakusha",
      "Shinmai Maou no Testament",
      "maou"
    ],
    "external_database_ids": {
      "anilist": 20678,
      "myanimelist": 23233,
      "kitsu": 8652
    },
    "i18n": {
      "chi": "新妹魔王的契约者",
      "eng": "The Testament of Sister New Devil",
      "ger": "The Testament of Sister New Devil",
      "jpn": "新妹魔王の契約者[テスタメント]",
      "kor": "새 여동생 마왕의 계약자",
      "qro": "Shinmai Maô no Testament"
    },
    "modified_at": "2020-08-21T14:36:03.556Z",
    "name": "Shinmai Maô no Testament",
    "repository": "kara.moe",
    "tid": "14edc055-3c1a-4f6b-b613-55b9f6cca706",
    "types": [
      "series",
      "1",
      "franchises",
      "18"
    ]
  }
}