{
  "header": {
    "description": "Karaoke Mugen Tag File",
    "version": 1
  },
  "tag": {
    "i18n": {
      "eng": "Shinoda Tomoko"
    },
    "name": "Shinoda Tomoko",
    "tid": "591c0826-722a-4928-97e3-ecf59dee7865",
    "types": [
      "songwriters",
      "8"
    ],
    "repository": "kara.moe",
    "modified_at": "2020-03-31T19:04:37.501Z"
  }
}