{
  "header": {
    "description": "Karaoke Mugen Tag File",
    "version": 1
  },
  "tag": {
    "i18n": {
      "eng": "Shin'ya Ishikawa"
    },
    "name": "Shin'ya Ishikawa",
    "tid": "b279afa5-e819-4b2c-b3f9-5fd5ba014be8",
    "types": [
      "songwriters",
      "8"
    ],
    "repository": "kara.moe",
    "modified_at": "2020-03-31T19:04:37.476Z"
  }
}