{
  "header": {
    "description": "Karaoke Mugen Tag File",
    "version": 1
  },
  "tag": {
    "aliases": [
      "ShinRa Banshou"
    ],
    "i18n": {
      "eng": "ShinRa-Banshô",
      "jpn": "森羅万象",
      "qro": "ShinRa-Banshô"
    },
    "name": "ShinRa-Banshô",
    "repository": "kara.moe",
    "tid": "e079fece-a1e3-4d31-adcb-07a9adf01df6",
    "types": [
      "creators",
      "4"
    ]
  }
}