{
  "header": {
    "description": "Karaoke Mugen Tag File",
    "version": 1
  },
  "tag": {
    "i18n": {
      "eng": "Shin"
    },
    "name": "Shin",
    "repository": "kara.moe",
    "tid": "5e9c8351-725a-4f6f-89a9-62bf852dc107",
    "types": [
      "creators",
      "4"
    ]
  }
}