{
  "header": {
    "description": "Karaoke Mugen Tag File",
    "version": 1
  },
  "tag": {
    "external_database_ids": {
      "anilist": 7662,
      "myanimelist": 7662,
      "kitsu": 5073
    },
    "i18n": {
      "eng": "Psychic Detective Yakumo",
      "jpn": "心霊探偵 八雲",
      "ukr": "Містичний детектив Якумо",
      "qro": "Shinrei Tantei Yakumo"
    },
    "modified_at": "2020-03-31T19:04:32.730Z",
    "name": "Shinrei Tantei Yakumo",
    "repository": "kara.moe",
    "tid": "8f939bc8-ff93-488d-aa9c-03da165e51fe",
    "types": [
      "series",
      "1"
    ]
  }
}