{
  "header": {
    "description": "Karaoke Mugen Tag File",
    "version": 1
  },
  "tag": {
    "i18n": {
      "eng": "Shin Megami Tensei: Devil Survivor 2",
      "jpn": "デビルサバイバー2",
      "qro": "Shin Megami Tensei ~ Devil Survivor 2"
    },
    "modified_at": "2020-03-31T19:04:32.702Z",
    "name": "Shin Megami Tensei ~ Devil Survivor 2",
    "repository": "kara.moe",
    "tid": "fe6acde1-9ccd-468d-bbb5-7c899b24dde7",
    "types": [
      "series",
      "1"
    ]
  }
}