{
  "header": {
    "description": "Karaoke Mugen Tag File",
    "version": 1
  },
  "tag": {
    "aliases": [
      "The Invader Comes From the Bottom of the Sea!",
      "ikamusume",
      "Вторжение кальмарки",
      "Нашествие девочки Кальмарки!",
      "侵略! イカ娘",
      "侵略! 乌贼娘"
    ],
    "external_database_ids": {
      "anilist": 8557,
      "myanimelist": 8557,
      "kitsu": 5389
    },
    "i18n": {
      "cze": "Sépijka",
      "eng": "Squid Girl",
      "fre": "Shinryaku! Ika Musume",
      "jpn": "侵略!! イカ娘",
      "qro": "Shinryaku! Ika Musume"
    },
    "modified_at": "2020-06-21T23:45:31.966Z",
    "name": "Shinryaku! Ika Musume",
    "repository": "kara.moe",
    "tid": "9c050f56-c66a-4da6-9ad9-daf942ab5934",
    "types": [
      "series",
      "1",
      "franchises",
      "18"
    ]
  }
}