{
  "header": {
    "description": "Karaoke Mugen Tag File",
    "version": 1
  },
  "tag": {
    "i18n": {
      "eng": "Shinji Orito"
    },
    "name": "Shinji Orito",
    "tid": "0259ea3f-ee5c-4906-991e-ca3c8dbb3221",
    "types": [
      "songwriters",
      "8"
    ],
    "repository": "kara.moe",
    "modified_at": "2020-03-31T19:04:37.492Z"
  }
}