{
  "header": {
    "description": "Karaoke Mugen Tag File",
    "version": 1
  },
  "tag": {
    "aliases": [
      "Mighty Atom 1980",
      "Robotukas Marsas"
    ],
    "external_database_ids": {
      "anilist": 3044,
      "myanimelist": 3044,
      "kitsu": 2748
    },
    "i18n": {
      "eng": "Astro Boy (1980)",
      "fre": "Astro le petit robot (1980)",
      "ger": "Astroboy",
      "ita": "Astroboy",
      "jpn": "新鉄腕アトム (1980)",
      "qro": "Shin Tetsuwan Atom (1980)"
    },
    "modified_at": "2020-06-21T23:45:31.966Z",
    "name": "Shin Tetsuwan Atom (1980)",
    "repository": "kara.moe",
    "tid": "534949db-9868-4617-b58f-a228c078db56",
    "types": [
      "series",
      "1"
    ]
  }
}