{
  "header": {
    "description": "Karaoke Mugen Tag File",
    "version": 1
  },
  "tag": {
    "i18n": {
      "eng": "Shing02"
    },
    "modified_at": "2020-04-26T21:09:03.413Z",
    "name": "Shing02",
    "repository": "kara.moe",
    "tid": "3c996cf3-c0d4-411e-b237-77cfa3fbc965",
    "types": [
      "songwriters",
      "8",
      "singers",
      "2"
    ]
  }
}