{
  "header": {
    "description": "Karaoke Mugen Tag File",
    "version": 1
  },
  "tag": {
    "aliases": [
      "El Hazard TV 1",
      "elhaz tv",
      "Эль-Хазард: Странники"
    ],
    "external_database_ids": {
      "anilist": 116,
      "myanimelist": 116,
      "kitsu": 95
    },
    "i18n": {
      "eng": "El-Hazard: The Wanderers",
      "fre": "El Hazard ‒ Le monde alternatif",
      "jpn": "神秘の世界エルハザード TV",
      "por": "El Hazard",
      "rus": "El-Hazard: Странники",
      "qro": "Shinpi no Sekai El-Hazard TV"
    },
    "modified_at": "2020-03-31T19:04:32.729Z",
    "name": "Shinpi no Sekai El-Hazard TV",
    "repository": "kara.moe",
    "tid": "a3550ce8-e6c4-4369-875d-72038c7ff18e",
    "types": [
      "series",
      "1"
    ]
  }
}