{
  "header": {
    "description": "Karaoke Mugen Tag File",
    "version": 1
  },
  "tag": {
    "aliases": [
      "Cherry Miel",
      "NCH",
      "New Cutey Honey Dark Group",
      "Re: Cutie Honey",
      "Shin Cutey Honey Yami no Gundan-Hen",
      "Новая Милашка Хани"
    ],
    "external_database_ids": {
      "anilist": 2497,
      "kitsu": 2266,
      "myanimelist": 2497
    },
    "i18n": {
      "eng": "New Cutie Honey",
      "jpn": "新・キューティーハニー",
      "qro": "Shin Cutie Honey"
    },
    "name": "Shin Cutie Honey",
    "repository": "kara.moe",
    "tid": "1ba8ff18-6884-46d1-b153-0c34ccf768e3",
    "types": [
      "series",
      "1"
    ]
  }
}