{
  "header": {
    "description": "Karaoke Mugen Tag File",
    "version": 1
  },
  "tag": {
    "aliases": [
      "Gundam Wing le film",
      "Shin Kidou Senki Gundam Wing: Endless Waltz -Tokubetsu-hen-",
      "kidou"
    ],
    "external_database_ids": {
      "anilist": 2273,
      "myanimelist": 2273,
      "kitsu": 70
    },
    "i18n": {
      "eng": "Mobile Suit Gundam Wing: Endless Waltz - The Movie",
      "jpn": "新機動戦記ガンダムW Endless Waltz -特別篇-",
      "tha": "กันดั้มวิง เอนเลสวอลซ์",
      "qro": "Shin Kidô Senki Gundam Wing: Endless Waltz -Tokubetsu-hen-"
    },
    "modified_at": "2020-07-26T18:34:33.503Z",
    "name": "Shin Kidô Senki Gundam Wing: Endless Waltz -Tokubetsu-hen-",
    "repository": "kara.moe",
    "tid": "8180f8af-03bf-4135-9f89-920d1290e181",
    "types": [
      "series",
      "1"
    ]
  }
}