{
  "header": {
    "description": "Karaoke Mugen Tag File",
    "version": 1
  },
  "tag": {
    "i18n": {
      "eng": "Shinobu Urakawa"
    },
    "name": "Shinobu Urakawa",
    "tid": "62b98155-2a54-47fd-8da3-f601b3c63eb2",
    "types": [
      "songwriters",
      "8"
    ],
    "repository": "kara.moe",
    "modified_at": "2020-03-31T19:04:37.500Z"
  }
}