{
  "header": {
    "description": "Karaoke Mugen Tag File",
    "version": 1
  },
  "tag": {
    "aliases": [
      "Shin Koihime†Musou: Otome Tairan",
      "koihime musou"
    ],
    "external_database_ids": {
      "anilist": 8057,
      "myanimelist": 8057,
      "kitsu": 5181
    },
    "i18n": {
      "eng": "Shin Koihime†Musô: Otome Tairan",
      "jpn": "真・恋姫†無双 ~乙女大乱~n",
      "qro": "Shin Koihime†Musô: Otome Tairan"
    },
    "modified_at": "2020-03-31T19:04:32.700Z",
    "name": "Shin Koihime†Musô: Otome Tairan",
    "repository": "kara.moe",
    "tid": "c402bb5b-4710-4046-b086-4eac59641083",
    "types": [
      "series",
      "1"
    ]
  }
}