{
  "header": {
    "description": "Karaoke Mugen Tag File",
    "version": 1
  },
  "tag": {
    "aliases": [
      "PoT 2",
      "Shin Tennis no Ôjisama"
    ],
    "external_database_ids": {
      "anilist": 11371,
      "myanimelist": 11371,
      "kitsu": 6501
    },
    "i18n": {
      "eng": "Prince of Tennis II",
      "jpn": "新テニスの王子様",
      "fre": "Prince du Tennis II",
      "qro": "Shin Tennis no Oujisama"
    },
    "modified_at": "2020-08-06T14:24:43.608Z",
    "name": "Shin Tennis no Oujisama",
    "repository": "kara.moe",
    "tid": "b897e9da-3c85-48f3-b4b0-9a0c20bf8aa9",
    "types": [
      "series",
      "1"
    ]
  }
}