{
  "header": {
    "description": "Karaoke Mugen Tag File",
    "version": 1
  },
  "tag": {
    "aliases": [
      "Shinkyoku Soukai Polyphonica Crimson S",
      "神曲奏界POLYPHONICA crimson S",
      "神曲奏界ポリフォニカ クリムゾンS",
      "soukai"
    ],
    "external_database_ids": {
      "anilist": 5504,
      "myanimelist": 5504,
      "kitsu": 4128
    },
    "i18n": {
      "eng": "Polyphonica Crimson S",
      "jpn": "神曲奏界ポリフォニカ crimson S",
      "qro": "Shinkyoku Sôkai Polyphonica Crimson S"
    },
    "modified_at": "2020-03-31T19:04:32.726Z",
    "name": "Shinkyoku Sôkai Polyphonica Crimson S",
    "repository": "kara.moe",
    "tid": "c80b7595-7625-443f-aa97-c6d7667f4054",
    "types": [
      "series",
      "1"
    ]
  }
}