{
  "header": {
    "description": "Karaoke Mugen Tag File",
    "version": 1
  },
  "tag": {
    "i18n": {
      "eng": "Shinobi, Koi Utsutsu -Banka Aya Emaki-",
      "jpn": "忍び、恋うつつ ― 万花彩絵巻 ―",
      "qro": "Shinobi Koi Utsutsu -Banka Aya Emaki-"
    },
    "modified_at": "2020-03-31T19:04:32.727Z",
    "name": "Shinobi Koi Utsutsu -Banka Aya Emaki-",
    "repository": "kara.moe",
    "tid": "4c62f834-3bb6-4f6f-b2fc-8a5e679c4d5f",
    "types": [
      "series",
      "1"
    ]
  }
}