{
  "header": {
    "description": "Karaoke Mugen Tag File",
    "version": 1
  },
  "tag": {
    "i18n": {
      "eng": "Shintarô Tokita"
    },
    "name": "Shintarô Tokita",
    "tid": "725dd2e4-13c1-463d-9eeb-6a7d91040824",
    "types": [
      "songwriters",
      "8"
    ],
    "repository": "kara.moe",
    "modified_at": "2020-03-31T19:04:37.509Z"
  }
}