{
  "header": {
    "description": "Karaoke Mugen Tag File",
    "version": 1
  },
  "tag": {
    "i18n": {
      "eng": "Shinsuke Amada"
    },
    "modified_at": "2020-12-17T17:43:43.880Z",
    "name": "Shinsuke Amada",
    "repository": "kara.moe",
    "tid": "db0cc226-2e26-49d2-9a63-2c9acc4bb2cd",
    "types": [
      "songwriters",
      "8"
    ]
  }
}