{
  "header": {
    "description": "Karaoke Mugen Tag File",
    "version": 1
  },
  "tag": {
    "i18n": {
      "eng": "Shintarô Tanabe"
    },
    "name": "Shintarô Tanabe",
    "tid": "0d97afe3-9f00-416b-b0a7-1130f83b529b",
    "types": [
      "songwriters",
      "8"
    ],
    "repository": "kara.moe",
    "modified_at": "2020-03-31T19:04:37.509Z"
  }
}