{
  "header": {
    "description": "Karaoke Mugen Tag File",
    "version": 1
  },
  "tag": {
    "i18n": {
      "eng": "Shion Itsuki",
      "jpn": "樹 詩音",
      "qro": "Shion Itsuki"
    },
    "name": "Shion Itsuki",
    "repository": "kara.moe",
    "tid": "bf321660-9124-4677-af9b-42ef4476f139",
    "types": [
      "singers",
      "2"
    ]
  }
}