{
  "header": {
    "description": "Karaoke Mugen Tag File",
    "version": 1
  },
  "tag": {
    "i18n": {
      "eng": "Shio Watanabe"
    },
    "name": "Shio Watanabe",
    "tid": "cc390c0c-07fd-474a-91c7-c980cc6ca3b1",
    "types": [
      "songwriters",
      "8"
    ],
    "repository": "kara.moe",
    "modified_at": "2020-03-31T19:04:37.511Z"
  }
}