{
  "header": {
    "description": "Karaoke Mugen Tag File",
    "version": 1
  },
  "tag": {
    "i18n": {
      "eng": "Shiori Mikami"
    },
    "name": "Shiori Mikami",
    "tid": "6772362c-ddcd-4055-be1b-6912e2be01c9",
    "types": [
      "singers",
      "2"
    ],
    "repository": "kara.moe",
    "modified_at": "2020-03-31T19:04:37.516Z"
  }
}