{
  "header": {
    "description": "Karaoke Mugen Tag File",
    "version": 1
  },
  "tag": {
    "aliases": [
      "Shippuu! Iron Leaguer"
    ],
    "external_database_ids": {
      "anilist": 2758,
      "myanimelist": 2758,
      "kitsu": 2518
    },
    "i18n": {
      "eng": "Hurricane! Iron Leaguer",
      "jpn": "疾風！アイアンリーガー",
      "qro": "Shippu! Iron Leaguer"
    },
    "modified_at": "2020-03-31T19:04:32.736Z",
    "name": "Shippu! Iron Leaguer",
    "repository": "kara.moe",
    "tid": "e28fc220-8535-4251-845b-e0fc46409e80",
    "types": [
      "series",
      "1"
    ]
  }
}