{
  "header": {
    "description": "Karaoke Mugen Tag File",
    "version": 1
  },
  "tag": {
    "i18n": {
      "ara": "ريفيل سكولز: يونيتد باي فايت",
      "eng": "Rival Schools: United by Fate",
      "jpn": "私立ジャスティス学園 LEGION OF HEROES",
      "qro": "Shiritsu Justice Gakuen: Legion of Heroes"
    },
    "modified_at": "2020-03-31T19:04:32.737Z",
    "name": "Shiritsu Justice Gakuen: Legion of Heroes",
    "repository": "kara.moe",
    "tid": "8566a156-49cc-4811-9178-346c952dfdd4",
    "types": [
      "series",
      "1"
    ]
  }
}