{
  "header": {
    "description": "Karaoke Mugen Tag File",
    "version": 1
  },
  "tag": {
    "i18n": {
      "eng": "SHIROGUMI"
    },
    "name": "SHIROGUMI",
    "tid": "507d1560-3ad9-4140-a2f1-5675eece7ec0",
    "types": [
      "creators",
      "4"
    ],
    "repository": "kara.moe",
    "modified_at": "2020-03-31T19:04:37.519Z"
  }
}