{
  "header": {
    "description": "Karaoke Mugen Tag File",
    "version": 1
  },
  "tag": {
    "aliases": [
      "White Box",
      "Белая коробка",
      "白箱"
    ],
    "external_database_ids": {
      "anilist": 20812,
      "myanimelist": 25835,
      "kitsu": 8698
    },
    "i18n": {
      "eng": "Shirobako",
      "fre": "Shirobako",
      "jpn": "SHIROBAKO",
      "qro": "Shirobako"
    },
    "modified_at": "2020-03-31T19:04:32.739Z",
    "name": "Shirobako",
    "repository": "kara.moe",
    "tid": "342abf1f-4f61-4747-8bf5-96176a37cab1",
    "types": [
      "series",
      "1",
      "franchises",
      "18"
    ]
  }
}