{
  "header": {
    "description": "Karaoke Mugen Tag File",
    "version": 1
  },
  "tag": {
    "i18n": {
      "eng": "ShishiShishi"
    },
    "modified_at": "1982-04-06",
    "name": "ShishiShishi",
    "repository": "kara.moe",
    "tid": "ee27a51d-3101-4e94-b849-e37c12ee723b",
    "types": [
      "songwriters",
      "8",
      "singers",
      "2"
    ]
  }
}