{
  "header": {
    "description": "Karaoke Mugen Tag File",
    "version": 1
  },
  "tag": {
    "i18n": {
      "eng": "Shishido Kavka"
    },
    "name": "Shishido Kavka",
    "tid": "0bbe5aa0-4156-4852-86a6-9dbbcb35dfc1",
    "types": [
      "singers",
      "2",
      "songwriters",
      "8"
    ],
    "repository": "kara.moe",
    "modified_at": "2020-03-31T19:04:37.522Z"
  }
}