{
  "header": {
    "description": "Karaoke Mugen Tag File",
    "version": 1
  },
  "tag": {
    "i18n": {
      "eng": "Shizuka Kudô"
    },
    "name": "Shizuka Kudô",
    "tid": "a6901975-c208-41e3-89ec-d5ff09fb2c18",
    "types": [
      "singers",
      "2"
    ],
    "repository": "kara.moe",
    "modified_at": "2020-03-31T19:04:37.524Z"
  }
}