{
  "header": {
    "description": "Karaoke Mugen Tag File",
    "version": 1
  },
  "tag": {
    "i18n": {
      "eng": "Shizuka Furuya"
    },
    "name": "Shizuka Furuya",
    "tid": "a2fbb1f9-200a-45b2-b74e-3cbb2b8470c4",
    "types": [
      "singers",
      "2"
    ],
    "repository": "kara.moe",
    "modified_at": "2020-03-31T19:04:37.523Z"
  }
}