{
  "header": {
    "description": "Karaoke Mugen Tag File",
    "version": 1
  },
  "tag": {
    "aliases": [
      "Food Wars 3",
      "Food Wars The Third Plate",
      "Shokugeki no Soma S3",
      "Shokugeki no Souma 3",
      "souma"
    ],
    "external_database_ids": {
      "anilist": 99255,
      "myanimelist": 35788,
      "kitsu": 13581
    },
    "i18n": {
      "chi": "食戟之灵: 餐之皿",
      "eng": "Food Wars! The Third Plate",
      "fre": "Food Wars! Troisième Service",
      "jpn": "食戟のソーマ 餐ノ皿",
      "kor": "식극의 소마 세 번째 접시",
      "qro": "Shokugeki no Sôma San no Sara"
    },
    "modified_at": "2020-03-31T19:04:32.741Z",
    "name": "Shokugeki no Sôma San no Sara",
    "repository": "kara.moe",
    "tid": "20465614-2408-4b39-be57-d2ae3f89f096",
    "types": [
      "series",
      "1"
    ]
  }
}