{
  "header": {
    "description": "Karaoke Mugen Tag File",
    "version": 1
  },
  "tag": {
    "aliases": [
      "Food Wars",
      "Shokugeki no Soma",
      "Shokugeki no Souma",
      "Повар-боец Сома",
      "souma"
    ],
    "external_database_ids": {
      "anilist": 20923,
      "myanimelist": 28171,
      "kitsu": 9967
    },
    "i18n": {
      "chi": "食戟之灵",
      "dut": "Voedselgevecht!",
      "eng": "Food Wars!",
      "jpn": "食戟のソーマ",
      "qro": "Shokugeki no Sôma"
    },
    "modified_at": "2020-03-31T19:04:32.743Z",
    "name": "Shokugeki no Sôma",
    "repository": "kara.moe",
    "tid": "e1a94b71-a932-43e4-a0db-7e702c59b99c",
    "types": [
      "series",
      "1",
      "franchises",
      "18"
    ]
  }
}