{
  "header": {
    "description": "Karaoke Mugen Tag File",
    "version": 1
  },
  "tag": {
    "i18n": {
      "eng": "Shoko Omori"
    },
    "name": "Shoko Omori",
    "tid": "4276d301-2e4f-4cc9-b9f5-69559b52643e",
    "types": [
      "songwriters",
      "8"
    ],
    "repository": "kara.moe",
    "modified_at": "2020-03-31T19:04:37.530Z"
  }
}