{
  "header": {
    "description": "Karaoke Mugen Tag File",
    "version": 1
  },
  "tag": {
    "i18n": {
      "eng": "SHORT LEG SUMMER"
    },
    "name": "SHORT LEG SUMMER",
    "tid": "74b7a833-7987-4c45-a535-735ed5630a34",
    "types": [
      "singers",
      "2",
      "songwriters",
      "8"
    ],
    "repository": "kara.moe",
    "modified_at": "2020-03-31T19:04:37.532Z"
  }
}