{
  "header": {
    "description": "Karaoke Mugen Tag File",
    "version": 1
  },
  "tag": {
    "i18n": {
      "eng": "Shô Kiryûin"
    },
    "modified_at": "2020-07-24T14:48:51.513Z",
    "name": "Shô Kiryûin",
    "repository": "kara.moe",
    "tid": "cf5e40ca-9c3d-43de-915c-ab4d4468d3ff",
    "types": [
      "songwriters",
      "8",
      "creators",
      "4"
    ]
  }
}