{
  "header": {
    "description": "Karaoke Mugen Tag File",
    "version": 1
  },
  "tag": {
    "aliases": [
      "Ceddie",
      "Der kleine Lord",
      "Little Lord Fauntleroy",
      "Shoukoushi Cedie",
      "shoukoushi"
    ],
    "external_database_ids": {
      "anilist": 2555,
      "myanimelist": 2555,
      "kitsu": 2320
    },
    "i18n": {
      "ara": "الفتى النبيل",
      "eng": "Little Prince Cedie",
      "fre": "Le petit lord",
      "ita": "Il piccolo lord",
      "jpn": "小公子セディ",
      "pol": "Mały lord",
      "spa": "El pequeño lord",
      "qro": "Shôkôshi Cedie"
    },
    "modified_at": "2020-06-21T23:45:31.966Z",
    "name": "Shôkôshi Cedie",
    "repository": "kara.moe",
    "tid": "13c6b81e-2360-43b6-92c4-9d35200ec731",
    "types": [
      "series",
      "1"
    ]
  }
}