{
  "header": {
    "description": "Karaoke Mugen Tag File",
    "version": 1
  },
  "tag": {
    "i18n": {
      "eng": "Shô Nogami"
    },
    "name": "Shô Nogami",
    "tid": "ee6dbf3d-98f8-4be8-99b2-2e26dc03085f",
    "types": [
      "singers",
      "2"
    ],
    "repository": "kara.moe",
    "modified_at": "2020-03-31T19:04:37.535Z"
  }
}