{
  "header": {
    "description": "Karaoke Mugen Tag File",
    "version": 1
  },
  "tag": {
    "i18n": {
      "eng": "Shônan no Kaze"
    },
    "name": "Shônan no Kaze",
    "tid": "acc2f259-a670-4500-b80c-25c07c14ee64",
    "types": [
      "singers",
      "2",
      "songwriters",
      "8"
    ],
    "repository": "kara.moe",
    "modified_at": "2020-03-31T19:04:37.551Z"
  }
}