{
  "header": {
    "description": "Karaoke Mugen Tag File",
    "version": 1
  },
  "tag": {
    "aliases": [
      "shouta"
    ],
    "i18n": {
      "eng": "Shôta Aoi"
    },
    "name": "Shôta Aoi",
    "repository": "kara.moe",
    "tid": "9c414b4c-422b-4857-b8fd-4556895a745c",
    "types": [
      "singers",
      "2",
      "songwriters",
      "8"
    ]
  }
}