{
  "header": {
    "description": "Karaoke Mugen Tag File",
    "version": 1
  },
  "tag": {
    "aliases": [
      "Shounen Ninja Kaze No Fujimaru",
      "Young Ninja Fujimaru of the Wind",
      "shounen"
    ],
    "external_database_ids": {
      "anilist": 13307,
      "myanimelist": 13307,
      "kitsu": 6936
    },
    "i18n": {
      "eng": "Samurai Kid",
      "jpn": "少年忍者風のフジ丸",
      "qro": "Shônen Ninja Kaze no Fujimaru"
    },
    "modified_at": "2020-03-31T19:04:32.754Z",
    "name": "Shônen Ninja Kaze no Fujimaru",
    "repository": "kara.moe",
    "tid": "33ea4705-f036-4000-a9df-06b9df55984b",
    "types": [
      "series",
      "1"
    ]
  }
}