{
  "header": {
    "description": "Karaoke Mugen Tag File",
    "version": 1
  },
  "tag": {
    "i18n": {
      "eng": "Shôkichi Ishida"
    },
    "name": "Shôkichi Ishida",
    "tid": "723416a0-2f26-4d8b-908a-adc651b84f7c",
    "types": [
      "songwriters",
      "8"
    ],
    "repository": "kara.moe",
    "modified_at": "2020-03-31T19:04:37.545Z"
  }
}