{
  "header": {
    "description": "Karaoke Mugen Tag File",
    "version": 1
  },
  "tag": {
    "i18n": {
      "eng": "Shôko Nakagawa"
    },
    "name": "Shôko Nakagawa",
    "tid": "f569a1bf-160b-42ba-98e7-ac9f61514f2f",
    "types": [
      "singers",
      "2",
      "songwriters",
      "8"
    ],
    "repository": "kara.moe",
    "modified_at": "2020-03-31T19:04:37.547Z"
  }
}