{
  "header": {
    "description": "Karaoke Mugen Tag File",
    "version": 1
  },
  "tag": {
    "i18n": {
      "eng": "Shô Watanabe"
    },
    "name": "Shô Watanabe",
    "tid": "b4279339-b1d8-4da7-8bf9-1f6d5b69be11",
    "types": [
      "songwriters",
      "8"
    ],
    "repository": "kara.moe",
    "modified_at": "2020-03-31T19:04:37.538Z"
  }
}