{
  "header": {
    "description": "Karaoke Mugen Tag File",
    "version": 1
  },
  "tag": {
    "i18n": {
      "eng": "Shôko Suda"
    },
    "name": "Shôko Suda",
    "tid": "4ab38a48-3324-45b9-8bb2-851c45eb59d1",
    "types": [
      "singers",
      "2"
    ],
    "repository": "kara.moe",
    "modified_at": "2020-03-31T19:04:37.550Z"
  }
}