{
  "header": {
    "description": "Karaoke Mugen Tag File",
    "version": 1
  },
  "tag": {
    "aliases": [
      "シャッフル!"
    ],
    "external_database_ids": {
      "anilist": 79,
      "myanimelist": 79,
      "kitsu": 58
    },
    "i18n": {
      "eng": "Shuffle!",
      "jpn": "SHUFFLE!",
      "qro": "SHUFFLE!"
    },
    "modified_at": "2020-03-31T19:04:32.760Z",
    "name": "SHUFFLE!",
    "repository": "kara.moe",
    "tid": "200a3ff3-13b0-44de-92c0-175b5a2de19f",
    "types": [
      "series",
      "1",
      "franchises",
      "18"
    ]
  }
}