{
  "header": {
    "description": "Karaoke Mugen Tag File",
    "version": 1
  },
  "tag": {
    "i18n": {
      "eng": "Shuffle! On the Stage",
      "jpn": "シャッフル！オン・ザ・ステージ ",
      "qro": "SHUFFLE! On The Stage"
    },
    "modified_at": "2020-03-31T19:04:32.759Z",
    "name": "SHUFFLE! On The Stage",
    "repository": "kara.moe",
    "tid": "c7914747-48d8-4953-b852-d26d2fffadad",
    "types": [
      "series",
      "1"
    ]
  }
}