{
  "header": {
    "description": "Karaoke Mugen Tag File",
    "version": 1
  },
  "tag": {
    "aliases": [
      "SC3",
      "Shugo Chara ! Dokki Doki",
      "Shugo Chara! Party!",
      "Shugo Chara!!! Dokki Doki",
      "Чара-хранители! (сезон третий)",
      "しゅごキャラ! パーティー!",
      "しゅごキャラ!!!どっきどきっ"
    ],
    "external_database_ids": {
      "anilist": 7082,
      "myanimelist": 7082,
      "kitsu": 4861
    },
    "i18n": {
      "eng": "Shugo Chara! Party!",
      "jpn": "しゅごキャラパーティー!",
      "qro": "Shugo Chara Party!"
    },
    "modified_at": "2020-03-31T19:04:32.760Z",
    "name": "Shugo Chara Party!",
    "repository": "kara.moe",
    "tid": "48484806-84c6-4cc1-887f-d055e2a1a817",
    "types": [
      "series",
      "1"
    ]
  }
}