{
  "header": {
    "description": "Karaoke Mugen Tag File",
    "version": 1
  },
  "tag": {
    "i18n": {
      "eng": "Shun'ya Itô"
    },
    "name": "Shun'ya Itô",
    "tid": "a613040b-ff22-42f8-bceb-5a4093dbe71a",
    "types": [
      "songwriters",
      "8"
    ],
    "repository": "kara.moe",
    "modified_at": "2020-03-31T19:04:37.575Z"
  }
}