{
  "header": {
    "description": "Karaoke Mugen Tag File",
    "version": 1
  },
  "tag": {
    "i18n": {
      "eng": "Shunsuke Kikuchi"
    },
    "name": "Shunsuke Kikuchi",
    "tid": "243e8e37-f06b-4260-bc77-07b341904562",
    "types": [
      "songwriters",
      "8"
    ],
    "repository": "kara.moe",
    "modified_at": "2020-03-31T19:04:37.579Z"
  }
}