{
  "header": {
    "description": "Karaoke Mugen Tag File",
    "version": 1
  },
  "tag": {
    "i18n": {
      "eng": "Shunji Inoue"
    },
    "name": "Shunji Inoue",
    "tid": "1411b126-c1e5-4299-abb6-a22ae8eb27e3",
    "types": [
      "songwriters",
      "8"
    ],
    "repository": "kara.moe",
    "modified_at": "2020-03-31T19:04:37.577Z"
  }
}