{
  "header": {
    "description": "Karaoke Mugen Tag File",
    "version": 1
  },
  "tag": {
    "aliases": [
      "HANO"
    ],
    "i18n": {
      "eng": "Shun Aratame",
      "jpn": "新田目 駿",
      "qro": "Shun Aratame"
    },
    "name": "Shun Aratame",
    "repository": "kara.moe",
    "tid": "c461caa6-f236-4e9d-89b9-359c644fddd5",
    "types": [
      "songwriters",
      "8"
    ]
  }
}