{
  "header": {
    "description": "Karaoke Mugen Tag File",
    "version": 1
  },
  "tag": {
    "i18n": {
      "eng": "Shusaku Yanagita",
      "jpn": "柳田 周作"
    },
    "name": "Shusaku Yanagita",
    "repository": "kara.moe",
    "tid": "52b928b7-27ef-4f63-ab7a-12adad85b594",
    "types": [
      "songwriters",
      "8"
    ]
  }
}