{
  "header": {
    "description": "Karaoke Mugen Tag File",
    "version": 1
  },
  "tag": {
    "i18n": {
      "eng": "Shuta Sueyoshi"
    },
    "modified_at": "2021-05-18T16:22:19.026Z",
    "name": "Shuta Sueyoshi",
    "repository": "kara.moe",
    "tid": "919bd366-9b8f-4d23-b6ca-fd216a4f61d0",
    "types": [
      "songwriters",
      "8",
      "singers",
      "2"
    ]
  }
}