{
  "header": {
    "description": "Karaoke Mugen Tag File",
    "version": 1
  },
  "tag": {
    "aliases": [
      "Shuumatsu no Izetta",
      "Изетта последняя из ведьм",
      "shuumatsu"
    ],
    "external_database_ids": {
      "anilist": 21838,
      "myanimelist": 33433,
      "kitsu": 12260
    },
    "i18n": {
      "eng": "Izetta: The Last Witch",
      "fre": "Shûmatsu no Izetta",
      "ger": "Izetta, Die Letzte Hexe",
      "jpn": "終末のイゼッタ Izetta, Die Letzte Hexe",
      "qro": "Shûmatsu no Izetta"
    },
    "modified_at": "2020-03-31T19:04:32.765Z",
    "name": "Shûmatsu no Izetta",
    "repository": "kara.moe",
    "tid": "1ee45a39-0a92-40e2-8211-a35ee62c787f",
    "types": [
      "series",
      "1"
    ]
  }
}