{
  "header": {
    "description": "Karaoke Mugen Tag File",
    "version": 1
  },
  "tag": {
    "i18n": {
      "eng": "Shûhei Kita"
    },
    "name": "Shûhei Kita",
    "tid": "37f5341e-43f5-4578-93e5-c3fbc07d18c3",
    "types": [
      "singers",
      "2"
    ],
    "repository": "kara.moe",
    "modified_at": "2020-03-31T19:04:37.593Z"
  }
}