{
  "header": {
    "description": "Karaoke Mugen Tag File",
    "version": 1
  },
  "tag": {
    "i18n": {
      "eng": "Shûichi Ikemori"
    },
    "name": "Shûichi Ikemori",
    "tid": "a34a187c-13cd-4154-a2a4-3b71d91232c0",
    "types": [
      "songwriters",
      "8"
    ],
    "repository": "kara.moe",
    "modified_at": "2020-03-31T19:04:37.596Z"
  }
}