{
  "header": {
    "description": "Karaoke Mugen Tag File",
    "version": 1
  },
  "tag": {
    "i18n": {
      "eng": "Shûhei Mutsuki"
    },
    "name": "Shûhei Mutsuki",
    "tid": "1900b35d-bd27-4a89-9b27-6e3e2af731fc",
    "types": [
      "songwriters",
      "8"
    ],
    "repository": "kara.moe",
    "modified_at": "2020-03-31T19:04:37.594Z"
  }
}