{
  "header": {
    "description": "Karaoke Mugen Tag File",
    "version": 1
  },
  "tag": {
    "aliases": [
      "I cavalieri di Sidonia",
      "Лицарі Сідонії",
      "Рицарите на Сидония"
    ],
    "external_database_ids": {
      "anilist": 19775,
      "myanimelist": 19775,
      "kitsu": 7768
    },
    "i18n": {
      "bul": "Рицарите на Сидония",
      "chi": "希德尼娅的骑士",
      "eng": "Knights of Sidonia",
      "jpn": "シドニアの騎士",
      "spa": "Knights of Sidonia",
      "qro": "Sidonia no Kishi"
    },
    "modified_at": "2020-03-31T19:04:32.767Z",
    "name": "Sidonia no Kishi",
    "repository": "kara.moe",
    "tid": "ec4052c5-79e6-4cc9-881d-f0db908ae347",
    "types": [
      "series",
      "1",
      "franchises",
      "18"
    ]
  }
}