{
  "header": {
    "description": "Karaoke Mugen Tag File",
    "version": 1
  },
  "tag": {
    "i18n": {
      "eng": "Simon Franglen"
    },
    "name": "Simon Franglen",
    "repository": "kara.moe",
    "tid": "c13e8444-9d99-465a-bdf4-2944857b15ef",
    "types": [
      "songwriters",
      "8"
    ]
  }
}