{
  "header": {
    "description": "Karaoke Mugen Tag File",
    "version": 1
  },
  "tag": {
    "i18n": {
      "eng": "Simsala Grimm"
    },
    "modified_at": "2021-02-14T16:36:28.056Z",
    "name": "Simsala Grimm",
    "repository": "kara.moe",
    "tid": "037bb354-a99e-4892-9116-8b042566ea38",
    "types": [
      "series",
      "1"
    ]
  }
}