{
  "header": {
    "description": "Karaoke Mugen Tag File",
    "version": 1
  },
  "tag": {
    "i18n": {
      "afr": "Singalees, Sio",
      "amh": "Sinhalese, Sinhala",
      "ara": "السنهالية, السنهالية",
      "aze": "Сингалы, Qırğız",
      "bak": "Синглы, Синалицкий",
      "bel": "Сингалы, Сінгальская",
      "bul": "Сингалы, Sinhalese",
      "ben": "সিংহলি, সিংহলী",
      "bos": "Sinhalijanski, Singaleski",
      "cat": "Cingalès, Sinhala",
      "cze": "Sinhalese, Tamil",
      "wel": "Sinhalese, Sindhi",
      "dan": "Singaleserne, Sinhala",
      "ger": "Singhalesisch, Sinhala",
      "gre": "Sinhalese, Σινχαλεζικά",
      "eng": "Sinhalese, Sinhala",
      "epo": "Antaŭaj Kunlaboraĵoj, Sinhala",
      "spa": "Los Cingaleses, Sinhala",
      "est": "Sinhalese, Singali",
      "baq": "Sinhalese, Sinhala",
      "per": "Sinhalese Sinhala",
      "fin": "Singaleesi, Sinhala",
      "fre": "Le Cinghalais, Le Cinghalais",
      "gle": "Siolóinis, Siolóinis",
      "gla": "Sinhalese, Kannada",
      "glg": "Cingalesas, Cingalés",
      "guj": "સિંહાલી, સિંહલી",
      "heb": "סינהאלי, סינהלה",
      "hin": "सिंहली, सिंहली",
      "hrv": "Сингалы, Sinhaleški",
      "hat": "Sinhalese, Sinhala",
      "hun": "Sinhalese, Szingaléz",
      "arm": "Сингалы, Սինհալերեն",
      "ind": "Sinhala, Sinhala",
      "ice": "Sinhaleska, Íslenska",
      "ita": "Singalesi, Singalese",
      "jpn": "シンハラは、シンハラ語",
      "jav": "Sinhalese, Sinhala",
      "geo": "სინჰალური, სინჰალური",
      "kaz": "Сингалы, Сингальский",
      "kan": "ಸಿಂಹಳೀಯ, ಸಿಂಹಳ",
      "kor": "싱할라어,스리랑카",
      "kir": "Сингалы, Сингальский",
      "lat": "Singhalica, Sinhala",
      "lit": "Sinhalų, Sinhala",
      "lav": "Singāļu, Sinhalas",
      "mlg": "Sady Teratany Cinghalais Sinhala",
      "mao": "Sinhalese, Sicilian",
      "mac": "Sinhalese, Sinhala",
      "mal": "Sinhalese, സംസ്കൃതം",
      "mon": "Sinhalese, Sinhala",
      "mar": "सिंहली, उड्मुर्त",
      "may": "Bengali, Melayu",
      "mlt": "Sinhaliża, }",
      "nep": "Sinhalese, सिंहली",
      "dut": "Singalees, Sinhala",
      "nor": "Sinhalese, Sinhala",
      "pan": "ਸਿੰਨਹਾਲਾ, Sinhala",
      "pol": "Сингалы, Syngaleski",
      "por": "Cingalês, Cingalês",
      "rum": "Sinhaleză, Sinhala",
      "rus": "Сингалы, Сингальский",
      "sin": "සිංහල, සිංහල",
      "slo": "Preprocessor, Sinhala",
      "slv": "Nynorsk, Slovaški",
      "alb": "Sinhalese, Sinhala",
      "srp": "Сингалы, Синхала",
      "sun": "Sinhalese, Sinhala",
      "swe": "Singalesiska, Singalesiska",
      "swa": "Kisinhali, Sinhala",
      "tam": "சிங்களம், சிங்கள",
      "tel": "సింహళీయ, సింహళం",
      "tgk": "Сингалы, Сингальский",
      "tha": "Sinhalese นภาษาสิงหล Name",
      "tgl": "Sinhalese, Sinhala",
      "tur": "Türkçe, Fransızca.",
      "tat": "Сингалы, Сингальский",
      "ukr": "Сингали, Сингальська",
      "urd": "سنھالی, سنہالا",
      "uzb": "Sinhalese, Sinhala",
      "vie": "Ra Tiếng",
      "xho": "Sinhalese, I-Sinhala",
      "yid": "סינהאַלעזיש, Sinhala",
      "chi": "僧伽罗语，僧伽罗语"
    },
    "name": "sin",
    "tid": "538eede1-3bfa-485e-af56-416e12c2f3f8",
    "types": [
      "langs",
      "5"
    ],
    "repository": "kara.moe",
    "modified_at": "2020-03-31T19:04:37.615Z"
  }
}