{
  "header": {
    "description": "Karaoke Mugen Tag File",
    "version": 1
  },
  "tag": {
    "i18n": {
      "eng": "SINBYI"
    },
    "name": "SINBYI",
    "tid": "51384036-019d-416f-b226-d7e2eaef6b22",
    "types": [
      "songwriters",
      "8"
    ],
    "repository": "kara.moe",
    "modified_at": "2020-03-31T19:04:37.616Z"
  }
}