{
  "header": {
    "description": "Karaoke Mugen Tag File",
    "version": 1
  },
  "tag": {
    "i18n": {
      "eng": "skankfunk"
    },
    "name": "skankfunk",
    "tid": "12c9307c-827a-44d5-b60a-06649534b626",
    "types": [
      "singers",
      "2",
      "songwriters",
      "8"
    ],
    "repository": "kara.moe",
    "modified_at": "2020-03-31T19:04:37.624Z"
  }
}