{
  "header": {
    "description": "Karaoke Mugen Tag File",
    "version": 1
  },
  "tag": {
    "i18n": {
      "eng": "Sky Peace"
    },
    "name": "Sky Peace",
    "tid": "cca1ac16-c389-4889-b8c7-d5591e5345ad",
    "types": [
      "singers",
      "2",
      "songwriters",
      "8"
    ],
    "repository": "kara.moe",
    "modified_at": "2020-03-31T19:04:37.628Z"
  }
}