{
  "header": {
    "description": "Karaoke Mugen Tag File",
    "version": 1
  },
  "tag": {
    "i18n": {
      "eng": "skyjack7"
    },
    "name": "skyjack7",
    "repository": "kara.moe",
    "tid": "2a117873-6faa-4421-8101-8f7f89f52426",
    "types": [
      "creators",
      "4"
    ],
    "modified_at": "2020-03-31T19:04:37.631Z"
  }
}