{
  "header": {
    "description": "Karaoke Mugen Tag File",
    "version": 1
  },
  "tag": {
    "aliases": [
      "Slayers Movie 2"
    ],
    "external_database_ids": {
      "anilist": 869,
      "myanimelist": 869,
      "kitsu": 770
    },
    "i18n": {
      "eng": "Slayers The Movie 2: Return",
      "fre": "Slayers le Film 2 : Return",
      "ger": "Slayers Return -The Movie-",
      "jpn": "スレイヤーズRETURN",
      "kor": "슬레이어즈 리턴",
      "qro": "Slayers Return"
    },
    "modified_at": "2020-03-31T19:04:32.774Z",
    "name": "Slayers Return",
    "repository": "kara.moe",
    "tid": "3a6fc03e-950a-49c1-b311-c69eaf0c6b53",
    "types": [
      "series",
      "1"
    ]
  }
}