{
  "header": {
    "description": "Karaoke Mugen Tag File",
    "version": 1
  },
  "tag": {
    "aliases": [
      "Slay Rev",
      "Slayers 4",
      "Рубаки Revolution",
      "秀逗魔导士REVOLUTION"
    ],
    "external_database_ids": {
      "anilist": 4028,
      "myanimelist": 4028,
      "kitsu": 3421
    },
    "i18n": {
      "bul": "Непобедимите (сезон 4)",
      "cze": "Slayers Revolution",
      "eng": "Slayers Revolution",
      "hun": "Slayers -A kis boszorkány",
      "jpn": "スレイヤーズ REVOLUTION",
      "qro": "Slayers Revolution"
    },
    "modified_at": "2020-03-31T19:04:32.775Z",
    "name": "Slayers Revolution",
    "repository": "kara.moe",
    "tid": "b500eed2-84e4-4116-af28-98cc63f54c66",
    "types": [
      "series",
      "1"
    ]
  }
}