{
  "header": {
    "description": "Karaoke Mugen Tag File",
    "version": 1
  },
  "tag": {
    "i18n": {
      "eng": "Slipknot"
    },
    "modified_at": "2021-01-07T14:30:20.461Z",
    "name": "Slipknot",
    "repository": "kara.moe",
    "tid": "b0e7d559-ef4d-4559-b24a-5721261330bf",
    "types": [
      "songwriters",
      "8",
      "singers",
      "2"
    ]
  }
}