{
  "header": {
    "description": "Karaoke Mugen Tag File",
    "version": 1
  },
  "tag": {
    "i18n": {
      "eng": "Slipkid"
    },
    "name": "Slipkid",
    "repository": "kara.moe",
    "tid": "f2f0eb4f-3f64-4343-a135-5dd37aab2411",
    "types": [
      "songwriters",
      "8"
    ]
  }
}