{
  "header": {
    "description": "Karaoke Mugen Tag File",
    "version": 1
  },
  "tag": {
    "i18n": {
      "afr": "Slowaakse",
      "amh": "ስሎቫክኛ",
      "ara": "السلوفاكية",
      "aze": "Slovak",
      "bak": "Словак теле",
      "bel": "Славацкая",
      "bul": "Словашки",
      "ben": "স্লোভাক",
      "bos": "Slovački",
      "cat": "Eslovac",
      "cze": "Slovenské",
      "wel": "Slofacia",
      "dan": "Slovakisk",
      "ger": "Slowakische",
      "gre": "Σλοβακικά",
      "eng": "Slovak",
      "epo": "La slovaka",
      "spa": "Eslovaca",
      "est": "Slovaki keel",
      "baq": "Eslovakiako",
      "per": "اسلواکیایی",
      "fin": "Slovakian",
      "fre": "Slovaque",
      "gle": "Slóvaice",
      "gla": "Slòbhacais",
      "glg": "Coroa",
      "guj": "સ્લોવૅક",
      "heb": "סלובקית",
      "hin": "स्लोवाक",
      "hrv": "Slovački",
      "hat": "Slovak",
      "hun": "Szlovák",
      "arm": "Սլովակերեն",
      "ind": "Slovakia",
      "ice": "Slóvakíu",
      "ita": "Slovacca",
      "jpn": "スロバキア",
      "jav": "Slovak",
      "geo": "სლოვაკეთის",
      "kaz": "Словак",
      "kan": "ಸ್ಲೋವಾಕ್",
      "kor": "슬로바키아",
      "kir": "Словацкий",
      "lat": "Sinensi",
      "lit": "Slovakijos",
      "lav": "Slovāku",
      "mlg": "Slovaky",
      "mao": "Slovak",
      "mac": "Словачка",
      "mal": "സ്ലോവാക്",
      "mon": "Словак",
      "mar": "Slovak",
      "may": "Slovakia",
      "mlt": "Slovakka",
      "nep": "स्लोभाक",
      "dut": "Slowaaks",
      "nor": "Slovakisk",
      "pan": "ਸਲੋਵਾਕੀ",
      "pol": "Słowacki",
      "por": "Eslovaca",
      "rum": "Slovacă",
      "rus": "Словацкий",
      "sin": "ස්ලෝවැක්",
      "slo": "Slovenskej",
      "slv": "Slovaška",
      "alb": "Sllovake",
      "srp": "Словачки",
      "sun": "Slowakia",
      "swe": "Slovakiska",
      "swa": "Kislovakia",
      "tam": "ஸ்லோவாக்",
      "tel": "స్లోవాక్",
      "tgk": "Словацкий",
      "tha": "ภาษาสโลวัค name",
      "tgl": "Eslobako",
      "tur": "Slovak",
      "tat": "Словак теле",
      "ukr": "Словацька",
      "urd": "سلوواک",
      "uzb": "Slovak",
      "vie": "Slovak",
      "xho": "Isislovak",
      "yid": "סלאָוואַקיש",
      "chi": "斯洛伐克"
    },
    "name": "slo",
    "tid": "042337ff-bf5c-4529-868b-779851d5e892",
    "types": [
      "langs",
      "5"
    ],
    "repository": "kara.moe",
    "modified_at": "2020-03-31T19:04:37.638Z"
  }
}