{
  "header": {
    "description": "Karaoke Mugen Tag File",
    "version": 1
  },
  "tag": {
    "i18n": {
      "afr": "Shona",
      "amh": "ቅድሚያ",
      "ara": "شونا",
      "aze": "Sean",
      "bak": "Шона теле",
      "bel": "Шона",
      "bul": "Шон",
      "ben": "Shona",
      "bos": "Šona",
      "cat": "Shona",
      "cze": "Shona",
      "wel": "Shona",
      "dan": "Shona",
      "ger": "Shona",
      "gre": "Σχόνα",
      "eng": "Shona",
      "epo": "Shona",
      "spa": "Shona",
      "est": "Shona",
      "baq": "Shona",
      "per": "شونا",
      "fin": "Shona",
      "fre": "Shona",
      "gle": "Shona",
      "gla": "Shona",
      "glg": "Inglés",
      "guj": "શોના",
      "heb": "שונה",
      "hin": "Shona",
      "hrv": "Shauna",
      "hat": "Shona",
      "hun": "Shona",
      "arm": "Shona",
      "ind": "Shona",
      "ice": "Íslenska",
      "ita": "Shona",
      "jpn": "湘",
      "jav": "Shona",
      "geo": "Shona",
      "kaz": "Шона",
      "kan": "ಶೋನಾ",
      "kor": "쇼나",
      "kir": "Шона",
      "lat": "Shona",
      "lit": "Shona",
      "lav": "Shona",
      "mlg": "Shona",
      "mao": "Serbian",
      "mac": "Shona",
      "mal": "ഷോണ",
      "mon": "Шона хэл",
      "mar": "शोनाname",
      "may": "Shona",
      "mlt": "Shona",
      "nep": "शोनाname",
      "dut": "Shona",
      "nor": "Shona",
      "pan": "Shona",
      "pol": "Seana",
      "por": "Xona",
      "rum": "Shona",
      "rus": "Шона",
      "sin": "Shona",
      "slo": "Shona",
      "slv": "Shona",
      "alb": "Shona",
      "srp": "Сеан",
      "sun": "Shona",
      "swe": "Shona",
      "swa": "Kishona",
      "tam": "ஷோனா",
      "tel": "Iraqw",
      "tgk": "Шон",
      "tha": "ภาษาโชนา name",
      "tgl": "Shona",
      "tur": "Shona",
      "tat": "Шона теле",
      "ukr": "Шона",
      "urd": "شونا",
      "uzb": "Shona",
      "vie": "Shona",
      "xho": "Isishonaname",
      "yid": "שאָנאַ",
      "chi": "绍纳语"
    },
    "name": "sna",
    "tid": "ebb54fe8-6c15-484f-bfb6-414d28ce20af",
    "types": [
      "langs",
      "5"
    ],
    "repository": "kara.moe",
    "modified_at": "2020-03-31T19:04:37.646Z"
  }
}