{
  "header": {
    "description": "Karaoke Mugen Tag File",
    "version": 1
  },
  "tag": {
    "i18n": {
      "eng": "Snackers"
    },
    "modified_at": "2021-01-13T18:12:32.251Z",
    "name": "Snackers",
    "repository": "kara.moe",
    "tid": "ed9be95e-5612-4a52-9b63-7dcff368c74e",
    "types": [
      "creators",
      "4"
    ]
  }
}