{
  "header": {
    "description": "Karaoke Mugen Tag File",
    "version": 1
  },
  "tag": {
    "i18n": {
      "eng": "SNK Corporation"
    },
    "name": "SNK Corporation",
    "tid": "8b395dde-7a72-40bd-96e7-cbf3578c3df8",
    "types": [
      "creators",
      "4"
    ],
    "repository": "kara.moe",
    "modified_at": "2020-03-31T19:04:37.647Z"
  }
}