{
  "header": {
    "description": "Karaoke Mugen Tag File",
    "version": 1
  },
  "tag": {
    "i18n": {
      "eng": "Snowkel"
    },
    "name": "Snowkel",
    "tid": "8ff56415-efe1-454e-8f4d-7f7907ca3747",
    "types": [
      "singers",
      "2"
    ],
    "repository": "kara.moe",
    "modified_at": "2020-03-31T19:04:37.650Z"
  }
}