{
  "header": {
    "description": "Karaoke Mugen Tag File",
    "version": 1
  },
  "tag": {
    "i18n": {
      "eng": "Soichiro Otsuka"
    },
    "modified_at": "2020-08-27T18:33:12.557Z",
    "name": "Soichiro Otsuka",
    "repository": "kara.moe",
    "tid": "5553755a-867b-4f4e-b554-e80db93daa19",
    "types": [
      "singers",
      "2"
    ]
  }
}