{
  "header": {
    "description": "Karaoke Mugen Tag File",
    "version": 1
  },
  "tag": {
    "i18n": {
      "eng": "Soiyataro Sonoda"
    },
    "name": "Soiyataro Sonoda",
    "tid": "36e8b01d-549b-426f-a3ec-9f425a83f938",
    "types": [
      "songwriters",
      "8"
    ],
    "repository": "kara.moe",
    "modified_at": "2020-03-31T19:04:37.653Z"
  }
}