{
  "header": {
    "description": "Karaoke Mugen Tag File",
    "version": 1
  },
  "tag": {
    "i18n": {
      "eng": "SOLIDEMO"
    },
    "name": "SOLIDEMO",
    "tid": "049bca7c-3f68-46c9-8b3a-9ff069101ede",
    "types": [
      "singers",
      "2"
    ],
    "repository": "kara.moe",
    "modified_at": "2020-03-31T19:04:37.655Z"
  }
}