{
  "header": {
    "description": "Karaoke Mugen Tag File",
    "version": 1
  },
  "tag": {
    "i18n": {
      "eng": "SOLITA"
    },
    "modified_at": "2021-02-28T22:53:47.175Z",
    "name": "SOLITA",
    "repository": "kara.moe",
    "tid": "91430c77-1820-4272-a4c7-276ba0c1036c",
    "types": [
      "singers",
      "2"
    ]
  }
}