{
  "header": {
    "description": "Karaoke Mugen Tag File",
    "version": 1
  },
  "tag": {
    "i18n": {
      "eng": "Sonic CD",
      "jpn": "Sonic the Hedgehog CD",
      "qro": "Sonic CD"
    },
    "modified_at": "2020-03-31T19:04:32.784Z",
    "name": "Sonic CD",
    "repository": "kara.moe",
    "tid": "c0da16bc-4cd1-4f04-aab8-e1d73233cab9",
    "types": [
      "series",
      "1"
    ]
  }
}