{
  "header": {
    "description": "Karaoke Mugen Tag File",
    "version": 1
  },
  "tag": {
    "i18n": {
      "eng": "Sonic Heroes",
      "jpn": "ソニック ヒーローズ",
      "qro": "Sonic Heroes"
    },
    "modified_at": "2020-03-31T19:04:32.786Z",
    "name": "Sonic Heroes",
    "repository": "kara.moe",
    "tid": "bdfaf4dd-bb76-457f-b7ad-3ab8f6985a5f",
    "types": [
      "series",
      "1"
    ]
  }
}