{
  "header": {
    "description": "Karaoke Mugen Tag File",
    "version": 1
  },
  "tag": {
    "aliases": [
      "sonicx"
    ],
    "external_database_ids": {
      "anilist": 1816,
      "myanimelist": 1816,
      "kitsu": 1633
    },
    "i18n": {
      "cze": "Sonic X",
      "eng": "Sonic X",
      "fre": "Sonic X",
      "ger": "Sonic X",
      "heb": "X סוניק",
      "hun": "Sonic X",
      "jpn": "ソニック X",
      "lit": "Sonikas X",
      "pol": "Sonic X",
      "por": "Sonic X",
      "rus": "Соник X",
      "spa": "Sonic X",
      "swe": "Sonic X",
      "qro": "Sonic X"
    },
    "modified_at": "2020-06-21T23:45:31.966Z",
    "name": "Sonic X",
    "repository": "kara.moe",
    "tid": "060eb0b6-59bd-4d44-a8f1-15fd8131ce03",
    "types": [
      "series",
      "1"
    ]
  }
}