{
  "header": {
    "description": "Karaoke Mugen Tag File",
    "version": 1
  },
  "tag": {
    "i18n": {
      "eng": "Sonic Adventure 2"
    },
    "name": "Sonic Adventure 2",
    "repository": "kara.moe",
    "tid": "37e7f53f-e957-4745-9d7b-5965f658050f",
    "types": [
      "series",
      "1"
    ]
  }
}