{
  "header": {
    "description": "Karaoke Mugen Tag File",
    "version": 1
  },
  "tag": {
    "i18n": {
      "eng": "Sonic The Hedgehog"
    },
    "name": "Sonic The Hedgehog",
    "repository": "kara.moe",
    "tid": "7ea913cb-a1d7-420c-acba-ea96c965c87f",
    "types": [
      "series",
      "1"
    ]
  }
}