{
  "header": {
    "description": "Karaoke Mugen Tag File",
    "version": 1
  },
  "tag": {
    "i18n": {
      "eng": "Sony"
    },
    "name": "Sony",
    "tid": "41d9c90b-c5d4-41a7-bcad-814e61790842",
    "types": [
      "creators",
      "4"
    ],
    "repository": "kara.moe",
    "modified_at": "2020-03-31T19:04:37.664Z"
  }
}