{
  "header": {
    "description": "Karaoke Mugen Tag File",
    "version": 1
  },
  "tag": {
    "i18n": {
      "eng": "SORAHANE"
    },
    "name": "SORAHANE",
    "tid": "377d9522-306a-49c2-8f43-081f913b1c06",
    "types": [
      "creators",
      "4"
    ],
    "repository": "kara.moe",
    "modified_at": "2020-03-31T19:04:37.669Z"
  }
}