{
  "header": {
    "description": "Karaoke Mugen Tag File",
    "version": 1
  },
  "tag": {
    "aliases": [
      "Sora Yori mo Tooi Basho: A Story That Leads to the Antarctica",
      "Uchuu Yori mo Tooi Basho",
      "Yorimoi",
      "そらよりもとおいばしょ"
    ],
    "external_database_ids": {
      "anilist": 99426,
      "myanimelist": 35839,
      "kitsu": 13615
    },
    "i18n": {
      "chi": "比宇宙更远的地方",
      "cze": "Vzdálenější než vesmír",
      "eng": "A Place Further Than the Universe",
      "jpn": "宇宙よりも遠い場所",
      "kor": "우주보다 먼 곳",
      "qro": "Sora Yori mo Tooi Basho"
    },
    "modified_at": "2020-03-31T19:04:32.792Z",
    "name": "Sora Yori mo Tooi Basho",
    "repository": "kara.moe",
    "tid": "1c075562-6644-4be7-aec4-acae4ee6ed5e",
    "types": [
      "series",
      "1"
    ]
  }
}