{
  "header": {
    "description": "Karaoke Mugen Tag File",
    "version": 1
  },
  "tag": {
    "external_database_ids": {
      "anilist": 1960,
      "myanimelist": 1960,
      "kitsu": 1766
    },
    "i18n": {
      "ara": "الرغيف العجيب",
      "eng": "Sore Ike! Anpanman",
      "gre": "Ο Ψωμάνθρωπος",
      "jpn": "それいけ! アンパンマン",
      "qro": "Sore Ike! Anpanman"
    },
    "modified_at": "2020-03-31T19:04:32.793Z",
    "name": "Sore Ike! Anpanman",
    "repository": "kara.moe",
    "tid": "f0618cc1-cbcf-402c-8a37-7ed0d870dcdf",
    "types": [
      "series",
      "1"
    ]
  }
}