{
  "header": {
    "description": "Karaoke Mugen Tag File",
    "version": 1
  },
  "tag": {
    "aliases": [
      "SStrain",
      "Soukou no Strain",
      "s-strain",
      "Мерцающий Стрэйн",
      "奏光的strain",
      "주광의 스트레인",
      "soukou"
    ],
    "external_database_ids": {
      "anilist": 1602,
      "myanimelist": 1602,
      "kitsu": 1442
    },
    "i18n": {
      "eng": "Strain: Strategic Armored Infantry",
      "jpn": "奏光のストレイン",
      "qro": "Sôkô no Strain"
    },
    "modified_at": "2020-04-29T21:59:37.927Z",
    "name": "Sôkô no Strain",
    "repository": "kara.moe",
    "tid": "57d580c8-3e2d-494e-ae83-18f8654b050d",
    "types": [
      "series",
      "1"
    ]
  }
}