{
  "header": {
    "description": "Karaoke Mugen Tag File",
    "version": 1
  },
  "tag": {
    "aliases": [
      "Armored Trooper Votoms: Pailsen Files",
      "Soukou Kihei VOTOMS Pailsen Files",
      "Zırhlı Piyade Votoms: Pailsen Dosyaları",
      "装甲骑兵波多姆兹PAILSEN FILES",
      "soukou"
    ],
    "external_database_ids": {
      "anilist": 3256,
      "myanimelist": 3256,
      "kitsu": 2887
    },
    "i18n": {
      "eng": "Armored Trooper VOTOMS: Pailsen Files",
      "jpn": "装甲騎兵ボトムズ ペールゼン・ファイルズ",
      "qro": "Sôkô Kihei Votoms Pailsen Files"
    },
    "modified_at": "2020-03-31T19:04:32.797Z",
    "name": "Sôkô Kihei Votoms Pailsen Files",
    "repository": "kara.moe",
    "tid": "05eeadcf-f503-4a3c-b1c4-a721aa4c7606",
    "types": [
      "series",
      "1"
    ]
  }
}