{
  "header": {
    "description": "Karaoke Mugen Tag File",
    "version": 1
  },
  "tag": {
    "i18n": {
      "eng": "Soul Sacrifice",
      "jpn": "ソウル・サクリファイス",
      "qro": "Soul Sacrifice"
    },
    "modified_at": "2020-03-31T19:04:32.803Z",
    "name": "Soul Sacrifice",
    "repository": "kara.moe",
    "tid": "42ac26b5-703a-4e87-b0dd-31dd593fffa3",
    "types": [
      "series",
      "1"
    ]
  }
}