{
  "header": {
    "description": "Karaoke Mugen Tag File",
    "version": 1
  },
  "tag": {
    "external_database_ids": {
      "anilist": 21687,
      "myanimelist": 21195,
      "kitsu": 8597
    },
    "i18n": {
      "eng": "Soul Eater: Repeat Show",
      "jpn": "ソウルイーター リピートショー",
      "qro": "Soul Eater Repeat Show"
    },
    "modified_at": "2020-03-31T19:04:32.800Z",
    "name": "Soul Eater Repeat Show",
    "repository": "kara.moe",
    "tid": "ee8628c0-62d6-477c-aa62-6f3bfe06a6ee",
    "types": [
      "series",
      "1"
    ]
  }
}