{
  "header": {
    "description": "Karaoke Mugen Tag File",
    "version": 1
  },
  "tag": {
    "i18n": {
      "eng": "SOUND HOLIC"
    },
    "name": "SOUND HOLIC",
    "tid": "ca654b25-30b5-4054-a2c0-35028fdcae22",
    "types": [
      "creators",
      "4"
    ],
    "repository": "kara.moe",
    "modified_at": "2020-03-31T19:04:37.679Z"
  }
}