{
  "header": {
    "description": "Karaoke Mugen Tag File",
    "version": 1
  },
  "tag": {
    "i18n": {
      "eng": "Sônosuke Takao"
    },
    "name": "Sônosuke Takao",
    "tid": "7013779a-ff9c-49d5-989c-b3c468c580e8",
    "types": [
      "songwriters",
      "8"
    ],
    "repository": "kara.moe",
    "modified_at": "2020-03-31T19:04:37.681Z"
  }
}