{
  "header": {
    "description": "Karaoke Mugen Tag File",
    "version": 1
  },
  "tag": {
    "i18n": {
      "eng": "Sôsuke Ikematsu"
    },
    "modified_at": "2021-10-08T18:39:16.629Z",
    "name": "Sôsuke Ikematsu",
    "repository": "kara.moe",
    "tid": "bfe1e446-f55b-41af-b6e6-e32de9a2bbb8",
    "types": [
      "singers",
      "2"
    ]
  }
}