{
  "header": {
    "description": "Karaoke Mugen Tag File",
    "version": 1
  },
  "tag": {
    "i18n": {
      "eng": "Soushi Sakiyama"
    },
    "modified_at": "2021-02-12T17:52:06.455Z",
    "name": "Soushi Sakiyama",
    "repository": "kara.moe",
    "tid": "85a023fa-8ead-4105-b676-ecf62ab2be37",
    "types": [
      "songwriters",
      "8",
      "singers",
      "2"
    ]
  }
}