{
  "header": {
    "description": "Karaoke Mugen Tag File",
    "version": 1
  },
  "tag": {
    "i18n": {
      "eng": "Souwer"
    },
    "name": "Souwer",
    "tid": "4fa78694-573c-4ca3-89e2-f2d6b4b9281b",
    "types": [
      "singers",
      "2"
    ],
    "repository": "kara.moe",
    "modified_at": "2020-03-31T19:04:37.684Z"
  }
}