{
  "header": {
    "description": "Karaoke Mugen Tag File",
    "version": 1
  },
  "tag": {
    "i18n": {
      "eng": "Sparkles*"
    },
    "modified_at": "2020-07-10T22:39:00.503Z",
    "name": "Sparkles*",
    "repository": "kara.moe",
    "tid": "877d8cd6-aa2a-43f4-97ea-dd659be0fbd5",
    "types": [
      "songwriters",
      "8"
    ]
  }
}