{
  "header": {
    "description": "Karaoke Mugen Tag File",
    "version": 1
  },
  "tag": {
    "i18n": {
      "eng": "SPEED"
    },
    "name": "SPEED",
    "tid": "99c91268-f652-4d4b-9349-0d9b9cf96ab8",
    "types": [
      "singers",
      "2"
    ],
    "repository": "kara.moe",
    "modified_at": "2020-03-31T19:04:37.688Z"
  }
}