{
  "header": {
    "description": "Karaoke Mugen Tag File",
    "version": 1
  },
  "tag": {
    "i18n": {
      "eng": "Spirit Garden"
    },
    "modified_at": "2020-10-07T18:33:05.958Z",
    "name": "Spirit Garden",
    "repository": "kara.moe",
    "tid": "55b5abfd-b2be-46be-9e41-9e23ab6f1b24",
    "types": [
      "songwriters",
      "8"
    ]
  }
}