{
  "header": {
    "description": "Karaoke Mugen Tag File",
    "version": 1
  },
  "tag": {
    "i18n": {
      "eng": "SPYAIR"
    },
    "name": "SPYAIR",
    "tid": "27a41af1-3aa1-4e1e-b747-8c06ed4fa4ef",
    "types": [
      "singers",
      "2"
    ],
    "repository": "kara.moe",
    "modified_at": "2020-03-31T19:04:37.696Z"
  }
}