{
  "header": {
    "description": "Karaoke Mugen Tag File",
    "version": 1
  },
  "tag": {
    "i18n": {
      "eng": "Spyglass Entertainment"
    },
    "name": "Spyglass Entertainment",
    "tid": "058e882c-0e15-4fd3-969a-f2608db313c7",
    "types": [
      "creators",
      "4"
    ],
    "repository": "kara.moe",
    "modified_at": "2020-03-31T19:04:37.697Z"
  }
}