{
  "header": {
    "description": "Karaoke Mugen Tag File",
    "version": 1
  },
  "tag": {
    "i18n": {
      "eng": "Spys4Darwin"
    },
    "modified_at": "2021-05-21T16:29:09.739Z",
    "name": "Spys4Darwin",
    "repository": "kara.moe",
    "tid": "71ddde56-54fd-41cd-abc1-3275de868e3a",
    "types": [
      "authors",
      "6"
    ]
  }
}