{
  "header": {
    "description": "Karaoke Mugen Tag File",
    "version": 1
  },
  "tag": {
    "aliases": [
      "The Lonely and Great God – Goblin"
    ],
    "i18n": {
      "eng": "Guardian: The Lonely and Great God",
      "kor": "쓸쓸하고 찬란하神 – 도깨비"
    },
    "modified_at": "2020-03-31T19:04:32.816Z",
    "name": "Sseulsseulhago Chanlanhasin – Dokkaebi",
    "repository": "kara.moe",
    "tid": "361a5867-8a81-4543-8d36-f003fa73a85b",
    "types": [
      "series",
      "1"
    ]
  }
}