{
  "header": {
    "description": "Karaoke Mugen Tag File",
    "version": 1
  },
  "tag": {
    "aliases": [
      "Starish"
    ],
    "i18n": {
      "eng": "ST☆RISH"
    },
    "modified_at": "2021-03-07T19:06:46.569Z",
    "name": "ST☆RISH",
    "repository": "kara.moe",
    "tid": "035d6c0d-0cbe-409a-a41a-262d732f7e20",
    "types": [
      "singers",
      "2"
    ]
  }
}