{
  "header": {
    "description": "Karaoke Mugen Tag File",
    "version": 1
  },
  "tag": {
    "i18n": {
      "eng": "Stack Bros."
    },
    "name": "Stack Bros.",
    "repository": "kara.moe",
    "tid": "3059eca0-7b9f-41e0-a5a6-2e7e3be5d025",
    "types": [
      "songwriters",
      "8"
    ]
  }
}