{
  "header": {
    "description": "Karaoke Mugen Tag File",
    "version": 1
  },
  "tag": {
    "i18n": {
      "eng": "STACK software"
    },
    "name": "STACK software",
    "tid": "176bf7e5-a1ef-494a-a392-815860d3b69b",
    "types": [
      "creators",
      "4"
    ],
    "repository": "kara.moe",
    "modified_at": "2020-03-31T19:04:37.702Z"
  }
}