{
  "header": {
    "description": "Karaoke Mugen Tag File",
    "version": 1
  },
  "tag": {
    "i18n": {
      "eng": "Stalker128"
    },
    "name": "Stalker128",
    "repository": "kara.moe",
    "tid": "495a5216-5e79-4672-a5f4-b89d040236cc",
    "types": [
      "authors",
      "6"
    ]
  }
}