{
  "header": {
    "description": "Karaoke Mugen Tag File",
    "version": 1
  },
  "tag": {
    "i18n": {
      "eng": "STANCE PUNKS"
    },
    "name": "STANCE PUNKS",
    "tid": "9b27e696-e8c4-4e3c-9b10-a01403ea3e59",
    "types": [
      "singers",
      "2"
    ],
    "repository": "kara.moe",
    "modified_at": "2020-03-31T19:04:37.705Z"
  }
}