{
  "header": {
    "description": "Karaoke Mugen Tag File",
    "version": 1
  },
  "tag": {
    "aliases": [
      "High School Star Musical",
      "Koukou Hoshi Kageki",
      "スタミュ",
      "ハイスクールスター・ミュージカル"
    ],
    "external_database_ids": {
      "anilist": 21118,
      "myanimelist": 30375,
      "kitsu": 10783
    },
    "i18n": {
      "eng": "Starmyu",
      "jpn": "高校星歌劇[スタミュ]",
      "qro": "Starmyu"
    },
    "modified_at": "2020-03-31T19:04:32.822Z",
    "name": "Starmyu",
    "repository": "kara.moe",
    "tid": "6b674f22-b894-4029-a20a-3faddfd124eb",
    "types": [
      "series",
      "1"
    ]
  }
}