{
  "header": {
    "description": "Karaoke Mugen Tag File",
    "version": 1
  },
  "tag": {
    "i18n": {
      "eng": "Star Ocean: First Departure",
      "jpn": "スターオーシャン1 ファーストディパーチャー",
      "qro": "Star Ocean First Departure"
    },
    "modified_at": "2020-03-31T19:04:32.819Z",
    "name": "Star Ocean First Departure",
    "repository": "kara.moe",
    "tid": "1b753828-c756-4122-94c8-e5a7ad37ea4a",
    "types": [
      "series",
      "1"
    ]
  }
}