{
  "header": {
    "description": "Karaoke Mugen Tag File",
    "version": 1
  },
  "tag": {
    "i18n": {
      "jpn": "Starry☆Sky ～in Winter～",
      "qro": "Starry☆Sky ～in Winter～"
    },
    "modified_at": "2020-03-31T19:04:32.827Z",
    "name": "Starry☆Sky ～in Winter～",
    "repository": "kara.moe",
    "tid": "819cfd6c-5f05-4f11-bafd-c4b253a8f46b",
    "types": [
      "series",
      "1"
    ]
  }
}