{
  "header": {
    "description": "Karaoke Mugen Tag File",
    "version": 1
  },
  "tag": {
    "aliases": [
      "s;g",
      "sg",
      "シュタインズ・ゲート",
      "steins gate"
    ],
    "i18n": {
      "eng": "Steins;Gate: Darling of Loving Vows",
      "jpn": "STEINS;GATE 比翼恋理のだーりん",
      "qro": "Steins;Gate Hiyoku Renri no Darling"
    },
    "modified_at": "2020-03-31T19:04:32.834Z",
    "name": "Steins;Gate Hiyoku Renri no Darling",
    "repository": "kara.moe",
    "tid": "d1fea6a6-5006-4385-8d37-135793f883d9",
    "types": [
      "series",
      "1"
    ]
  }
}