{
  "header": {
    "description": "Karaoke Mugen Tag File",
    "version": 1
  },
  "tag": {
    "i18n": {
      "eng": "stellatram"
    },
    "modified_at": "2020-08-28T16:41:45.029Z",
    "name": "stellatram",
    "repository": "kara.moe",
    "tid": "07f4c770-ac19-4273-92fc-91359d56f344",
    "types": [
      "creators",
      "4"
    ]
  }
}