{
  "header": {
    "description": "Karaoke Mugen Tag File",
    "version": 1
  },
  "tag": {
    "i18n": {
      "eng": "Stephanie"
    },
    "name": "Stephanie",
    "tid": "b6093800-9266-4241-a02e-b37a600cd1da",
    "types": [
      "singers",
      "2",
      "songwriters",
      "8"
    ],
    "repository": "kara.moe",
    "modified_at": "2020-03-31T19:04:37.717Z"
  }
}