{
  "header": {
    "description": "Karaoke Mugen Tag File",
    "version": 1
  },
  "tag": {
    "i18n": {
      "eng": "Stephanie D'Abruzzo"
    },
    "name": "Stephanie D'Abruzzo",
    "tid": "d8ddd655-f5e7-4ee8-853d-6c72ecc28612",
    "types": [
      "singers",
      "2"
    ],
    "repository": "kara.moe",
    "modified_at": "2020-03-31T19:04:37.716Z"
  }
}