{
  "header": {
    "description": "Karaoke Mugen Tag File",
    "version": 1
  },
  "tag": {
    "i18n": {
      "eng": "Stéphane Després"
    },
    "modified_at": "2021-09-05T21:11:52.343Z",
    "name": "Stéphane Després",
    "repository": "kara.moe",
    "tid": "7e202257-acbc-4bbe-a545-8cd7553f8e25",
    "types": [
      "songwriters",
      "8"
    ]
  }
}