{
  "header": {
    "description": "Karaoke Mugen Tag File",
    "version": 1
  },
  "tag": {
    "i18n": {
      "eng": "Stereopony"
    },
    "name": "Stereopony",
    "tid": "672d1fe1-9d5d-4ae7-a43d-c859da5a110f",
    "types": [
      "singers",
      "2"
    ],
    "repository": "kara.moe",
    "modified_at": "2020-03-31T19:04:37.720Z"
  }
}