{
  "header": {
    "description": "Karaoke Mugen Tag File",
    "version": 1
  },
  "tag": {
    "i18n": {
      "eng": "Steve Rucker"
    },
    "name": "Steve Rucker",
    "repository": "kara.moe",
    "tid": "ac8cfc10-3e20-4867-adce-385ba0d7be76",
    "types": [
      "songwriters",
      "8"
    ]
  }
}