{
  "header": {
    "description": "Karaoke Mugen Tag File",
    "version": 1
  },
  "tag": {
    "aliases": [
      "Gordon Matthew Thomas Sumner"
    ],
    "i18n": {
      "eng": "Sting"
    },
    "modified_at": "2021-12-04T20:49:16.764Z",
    "name": "Sting",
    "repository": "kara.moe",
    "tid": "815dac99-3634-483f-832f-e69a2c45fce9",
    "types": [
      "songwriters",
      "8",
      "singers",
      "2"
    ]
  }
}