{
  "header": {
    "description": "Karaoke Mugen Tag File",
    "version": 1
  },
  "tag": {
    "i18n": {
      "eng": "STRiPES"
    },
    "modified_at": "2021-08-06T12:46:02.224Z",
    "name": "STRiPES",
    "repository": "kara.moe",
    "tid": "e8a8d1c7-dac3-400e-b782-a3d3b51b3a7c",
    "types": [
      "songwriters",
      "8",
      "singers",
      "2"
    ]
  }
}