{
  "header": {
    "description": "Karaoke Mugen Tag File",
    "version": 1
  },
  "tag": {
    "i18n": {
      "eng": "Stuart McKillop"
    },
    "modified_at": "2021-05-23T23:22:13.544Z",
    "name": "Stuart McKillop",
    "repository": "kara.moe",
    "tid": "6b70ee41-133c-4089-84ce-77e5938af25d",
    "types": [
      "songwriters",
      "8"
    ]
  }
}