{
  "header": {
    "description": "Karaoke Mugen Tag File",
    "version": 1
  },
  "tag": {
    "i18n": {
      "eng": "Stuart Price"
    },
    "name": "Stuart Price",
    "repository": "kara.moe",
    "tid": "48ec6a3a-5adb-4af7-bda5-dc6421d87592",
    "types": [
      "songwriters",
      "8"
    ]
  }
}