{
  "header": {
    "description": "Karaoke Mugen Tag File",
    "version": 1
  },
  "tag": {
    "i18n": {
      "eng": "Studio Red Bear"
    },
    "name": "Studio Red Bear",
    "repository": "kara.moe",
    "tid": "a172fd47-9790-4a78-9b4c-5b9956f5f0aa",
    "types": [
      "creators",
      "4"
    ]
  }
}