{
  "header": {
    "description": "Karaoke Mugen Tag File",
    "version": 1
  },
  "tag": {
    "i18n": {
      "eng": "STUDIO MASSKET"
    },
    "name": "STUDIO MASSKET",
    "repository": "kara.moe",
    "tid": "acbc1744-fab5-476c-b320-28e3409cc38e",
    "types": [
      "creators",
      "4"
    ]
  }
}