{
  "header": {
    "description": "Karaoke Mugen Tag File",
    "version": 1
  },
  "tag": {
    "i18n": {
      "eng": "Study"
    },
    "name": "Study",
    "tid": "68fbccb6-e025-406e-b3fb-443f6d978927",
    "types": [
      "singers",
      "2"
    ],
    "repository": "kara.moe",
    "modified_at": "2020-03-31T19:04:37.754Z"
  }
}