{
  "header": {
    "description": "Karaoke Mugen Tag File",
    "version": 1
  },
  "tag": {
    "i18n": {
      "eng": "Studio \"Syrup Comfiture\""
    },
    "name": "Studio \"Syrup Comfiture\"",
    "repository": "kara.moe",
    "tid": "2e3bbfa1-57f1-46fa-9469-d5e5d49effde",
    "types": [
      "creators",
      "4"
    ]
  }
}