{
  "header": {
    "description": "Karaoke Mugen Tag File",
    "version": 1
  },
  "tag": {
    "i18n": {
      "eng": "Studio Pixibox"
    },
    "name": "Studio Pixibox",
    "tid": "9c26396b-4418-4d78-bba7-c79433644676",
    "types": [
      "creators",
      "4"
    ],
    "repository": "kara.moe",
    "modified_at": "2020-03-31T19:04:37.745Z"
  }
}