{
  "header": {
    "description": "Karaoke Mugen Tag File",
    "version": 1
  },
  "tag": {
    "i18n": {
      "eng": "STUDIO TRAM"
    },
    "name": "STUDIO TRAM",
    "repository": "kara.moe",
    "tid": "a50a248a-468f-4389-9058-7f67a573072e",
    "types": [
      "singers",
      "2"
    ],
    "modified_at": "2020-03-31T19:04:37.751Z"
  }
}