{
  "header": {
    "description": "Karaoke Mugen Tag File",
    "version": 1
  },
  "tag": {
    "i18n": {
      "eng": "Studio KAI"
    },
    "modified_at": "2021-01-12T19:48:43.760Z",
    "name": "Studio KAI",
    "repository": "kara.moe",
    "tid": "e7a5481a-0159-4801-abcb-238fad1ff17a",
    "types": [
      "creators",
      "4"
    ]
  }
}