{
  "header": {
    "description": "Karaoke Mugen Tag File",
    "version": 1
  },
  "tag": {
    "i18n": {
      "eng": "Suda Keina"
    },
    "name": "Suda Keina",
    "tid": "c8b196d3-923c-48f9-b56a-5b7d7af42049",
    "types": [
      "songwriters",
      "8",
      "singers",
      "2"
    ],
    "repository": "kara.moe",
    "modified_at": "2020-03-31T19:04:37.759Z"
  }
}