{
  "header": {
    "description": "Karaoke Mugen Tag File",
    "version": 1
  },
  "tag": {
    "i18n": {
      "eng": "SUEMITSU & THE SUEMITH"
    },
    "name": "SUEMITSU & THE SUEMITH",
    "tid": "68dfa415-cfb4-44d5-8900-59be5bd755d6",
    "types": [
      "singers",
      "2"
    ],
    "repository": "kara.moe",
    "modified_at": "2020-03-31T19:04:37.760Z"
  }
}