{
  "header": {
    "description": "Karaoke Mugen Tag File",
    "version": 1
  },
  "tag": {
    "aliases": [
      "Suga",
      "Yoongi"
    ],
    "i18n": {
      "eng": "Yoon Gi Min",
      "kor": "민윤기",
      "qro": "Min Yoon Gi"
    },
    "name": "Suga",
    "repository": "kara.moe",
    "tid": "e9efcafa-9697-4b56-9f10-c220c95be784",
    "types": [
      "singers",
      "2",
      "songwriters",
      "8"
    ]
  }
}