{
  "header": {
    "description": "Karaoke Mugen Tag File",
    "version": 1
  },
  "tag": {
    "i18n": {
      "eng": "Suginami Jidô Gasshôdan"
    },
    "name": "Suginami Jidô Gasshôdan",
    "tid": "a6053c8f-e34f-4e63-a315-8c397c31e1fc",
    "types": [
      "singers",
      "2"
    ],
    "repository": "kara.moe",
    "modified_at": "2020-03-31T19:04:37.764Z"
  }
}