{
  "header": {
    "description": "Karaoke Mugen Tag File",
    "version": 1
  },
  "tag": {
    "i18n": {
      "eng": "Suguru Asakura"
    },
    "name": "Suguru Asakura",
    "repository": "kara.moe",
    "tid": "3187bc6b-de7d-46bc-8bbf-bff5dc3e88d8",
    "types": [
      "creators",
      "4"
    ]
  }
}