{
  "header": {
    "description": "Karaoke Mugen Tag File",
    "version": 1
  },
  "tag": {
    "aliases": [
      "Suite Pretty Cure!",
      "precure8"
    ],
    "external_database_ids": {
      "anilist": 9893,
      "myanimelist": 9893,
      "kitsu": 5927
    },
    "i18n": {
      "eng": "Suite PreCure♪",
      "jpn": "スイートプリキュア♪",
      "qro": "Suite Precure"
    },
    "modified_at": "2020-03-31T19:04:32.845Z",
    "name": "Suite Precure",
    "repository": "kara.moe",
    "tid": "416c8606-11ec-4c59-b8da-495e4f3a3568",
    "types": [
      "series",
      "1"
    ]
  }
}