{
  "header": {
    "description": "Karaoke Mugen Tag File",
    "version": 1
  },
  "tag": {
    "i18n": {
      "eng": "Sumire Morohoshi"
    },
    "name": "Sumire Morohoshi",
    "tid": "fbec3d65-9d71-41aa-a880-94a64c341d4b",
    "types": [
      "singers",
      "2"
    ],
    "repository": "kara.moe",
    "modified_at": "2020-03-31T19:04:37.770Z"
  }
}