{
  "header": {
    "description": "Karaoke Mugen Tag File",
    "version": 1
  },
  "tag": {
    "i18n": {
      "eng": "Sumi Shimamoto"
    },
    "modified_at": "2021-04-12T00:15:28.376Z",
    "name": "Sumi Shimamoto",
    "repository": "kara.moe",
    "tid": "5eface70-55ca-496f-8735-5988371205d0",
    "types": [
      "singers",
      "2"
    ]
  }
}