{
  "header": {
    "description": "Karaoke Mugen Tag File",
    "version": 1
  },
  "tag": {
    "i18n": {
      "eng": "Suneohair"
    },
    "name": "Suneohair",
    "tid": "2921ca66-4d8d-4005-8db2-24210a17681a",
    "types": [
      "singers",
      "2"
    ],
    "repository": "kara.moe",
    "modified_at": "2020-03-31T19:04:37.776Z"
  }
}