{
  "header": {
    "description": "Karaoke Mugen Tag File",
    "version": 1
  },
  "tag": {
    "aliases": [
      "Hirotaka Nakano",
      "Sunplaza Nakano-kun"
    ],
    "i18n": {
      "eng": "sunplaza Nakano"
    },
    "modified_at": "2020-06-11T11:31:52.096Z",
    "name": "sunplaza Nakano",
    "repository": "kara.moe",
    "tid": "df1c17f8-7c2c-42fd-ae66-48a46b892e7d",
    "types": [
      "songwriters",
      "8",
      "singers",
      "2"
    ]
  }
}