{
  "header": {
    "description": "Karaoke Mugen Tag File",
    "version": 1
  },
  "tag": {
    "i18n": {
      "eng": "Super Robot Wars Alpha Gaiden",
      "jpn": "スーパーロボット大戦α外伝",
      "qro": "Super Robot Wars Alpha Gaiden"
    },
    "modified_at": "2020-03-31T19:04:32.861Z",
    "name": "Super Robot Wars Alpha Gaiden",
    "repository": "kara.moe",
    "tid": "7e57294b-26bf-44fa-a6be-73f4458c8a2b",
    "types": [
      "series",
      "1"
    ]
  }
}