{
  "header": {
    "description": "Karaoke Mugen Tag File",
    "version": 1
  },
  "tag": {
    "aliases": [
      "Great Fray Smash Brothers Deluxe",
      "SSBM",
      "Super Smash Brothers Melee"
    ],
    "i18n": {
      "eng": "Super Smash Bros. Melee",
      "jpn": "大乱闘 スマッシュ ブラザーズ ＤＸ",
      "qro": "Super Smash Bros. Melee"
    },
    "modified_at": "2020-03-31T19:04:32.863Z",
    "name": "Super Smash Bros. Melee",
    "repository": "kara.moe",
    "tid": "9259c4d6-5da9-4fcc-aa50-9b4201c90614",
    "types": [
      "series",
      "1"
    ]
  }
}