{
  "header": {
    "description": "Karaoke Mugen Tag File",
    "version": 1
  },
  "tag": {
    "aliases": [
      "Super Lovers Second Season",
      "スーパーラヴァーズ  2 "
    ],
    "external_database_ids": {
      "anilist": 21836,
      "myanimelist": 33417,
      "kitsu": 12245
    },
    "i18n": {
      "eng": "Super Lovers 2",
      "jpn": "SUPER LOVERS 2",
      "qro": "Super Lovers 2"
    },
    "modified_at": "2020-03-31T19:04:32.854Z",
    "name": "Super Lovers 2",
    "repository": "kara.moe",
    "tid": "e5b92312-375f-4147-afe3-1f31bac12712",
    "types": [
      "series",
      "1"
    ]
  }
}