{
  "header": {
    "description": "Karaoke Mugen Tag File",
    "version": 1
  },
  "tag": {
    "i18n": {
      "eng": "Superfly"
    },
    "name": "Superfly",
    "tid": "e18ed180-8ab1-42a4-88a9-67da61c1bc4c",
    "types": [
      "singers",
      "2"
    ],
    "repository": "kara.moe",
    "modified_at": "2020-03-31T19:04:37.784Z"
  }
}