{
  "header": {
    "description": "Karaoke Mugen Tag File",
    "version": 1
  },
  "tag": {
    "i18n": {
      "eng": "Super Pro Waffles"
    },
    "modified_at": "2021-01-03T23:47:33.400Z",
    "name": "Super Pro Waffles",
    "repository": "kara.moe",
    "tid": "96e804d6-52fd-4797-a05c-5b849f02773a",
    "types": [
      "creators",
      "4"
    ]
  }
}