{
  "header": {
    "description": "Karaoke Mugen Tag File",
    "version": 1
  },
  "tag": {
    "aliases": [
      "3"
    ],
    "i18n": {
      "eng": "Three",
      "jpn": "すりぃ",
      "qro": "Surii"
    },
    "name": "Surii",
    "repository": "kara.moe",
    "tid": "73871a7b-3a4e-45bc-9e70-ff0a7c784c16",
    "types": [
      "songwriters",
      "8",
      "singers",
      "2"
    ]
  }
}