{
  "header": {
    "description": "Karaoke Mugen Tag File",
    "version": 1
  },
  "tag": {
    "i18n": {
      "eng": "Susumu Ôya"
    },
    "name": "Susumu Ôya",
    "tid": "e8e01967-437f-4837-99f8-856204adbef0",
    "types": [
      "singers",
      "2"
    ],
    "repository": "kara.moe",
    "modified_at": "2020-03-31T19:04:37.794Z"
  }
}