{
  "header": {
    "description": "Karaoke Mugen Tag File",
    "version": 1
  },
  "tag": {
    "i18n": {
      "eng": "Susumu Ishikawa"
    },
    "name": "Susumu Ishikawa",
    "tid": "757bc610-f13f-487a-a643-99aa11554357",
    "types": [
      "singers",
      "2"
    ],
    "repository": "kara.moe",
    "modified_at": "2020-03-31T19:04:37.790Z"
  }
}