{
  "header": {
    "description": "Karaoke Mugen Tag File",
    "version": 1
  },
  "tag": {
    "i18n": {
      "eng": "Sû Minazuki"
    },
    "name": "Sû Minazuki",
    "tid": "80806ffe-4808-45e3-ab93-678546839975",
    "types": [
      "songwriters",
      "8"
    ],
    "repository": "kara.moe",
    "modified_at": "2020-03-31T19:04:37.794Z"
  }
}