{
  "header": {
    "description": "Karaoke Mugen Tag File",
    "version": 1
  },
  "tag": {
    "i18n": {
      "eng": "suyo"
    },
    "modified_at": "2020-08-20T22:13:49.951Z",
    "name": "suyo",
    "repository": "kara.moe",
    "tid": "bb17967b-8a42-44f3-9d59-7eaabda53c39",
    "types": [
      "authors",
      "6"
    ]
  }
}