{
  "header": {
    "description": "Karaoke Mugen Tag File",
    "version": 1
  },
  "tag": {
    "i18n": {
      "eng": "Suzi Kim"
    },
    "name": "Suzi Kim",
    "tid": "57402f7d-5697-4a92-8730-fafbedfa8a9a",
    "types": [
      "songwriters",
      "8"
    ],
    "repository": "kara.moe",
    "modified_at": "2020-03-31T19:04:37.795Z"
  }
}