{
  "header": {
    "description": "Karaoke Mugen Tag File",
    "version": 1
  },
  "tag": {
    "i18n": {
      "eng": "Suzuko Mimori"
    },
    "name": "Suzuko Mimori",
    "tid": "4fc68333-b1f6-44ce-b2be-ac4866b78932",
    "types": [
      "singers",
      "2"
    ],
    "repository": "kara.moe",
    "modified_at": "2020-03-31T19:04:37.798Z"
  }
}