{
  "header": {
    "description": "Karaoke Mugen Tag File",
    "version": 1
  },
  "tag": {
    "i18n": {
      "eng": "Suzuhara Nozomi"
    },
    "name": "Suzuhara Nozomi",
    "repository": "kara.moe",
    "tid": "ac31fbd5-633b-4b85-8e6b-33976419c240",
    "types": [
      "singers",
      "2"
    ]
  }
}