{
  "header": {
    "description": "Karaoke Mugen Tag File",
    "version": 1
  },
  "tag": {
    "aliases": [
      "The Bewilderment of Haruhi Suzumiya",
      "The Rage of Haruhi Suzumiya"
    ],
    "i18n": {
      "eng": "The Perplexity of Haruhi Suzumiya",
      "jpn": "涼宮ハルヒの戸惑",
      "qro": "Suzumiya Haruhi no Tomadoi"
    },
    "modified_at": "2020-03-31T19:04:32.867Z",
    "name": "Suzumiya Haruhi no Tomadoi",
    "repository": "kara.moe",
    "tid": "77adaa38-56a2-4460-8f80-80686158446e",
    "types": [
      "series",
      "1"
    ]
  }
}