{
  "header": {
    "description": "Karaoke Mugen Tag File",
    "version": 1
  },
  "tag": {
    "i18n": {
      "eng": "Suzuka Nakahara"
    },
    "name": "Suzuka Nakahara",
    "tid": "8853a680-dcc6-42b3-96b8-47b194bef70a",
    "types": [
      "singers",
      "2",
      "songwriters",
      "8"
    ],
    "repository": "kara.moe",
    "modified_at": "2020-03-31T19:04:37.795Z"
  }
}