{
  "header": {
    "description": "Karaoke Mugen Tag File",
    "version": 1
  },
  "tag": {
    "i18n": {
      "eng": "SV Tribe"
    },
    "name": "SV Tribe",
    "tid": "6f1b8841-7f7a-4e03-9d49-4172a566f7fb",
    "types": [
      "singers",
      "2"
    ],
    "repository": "kara.moe",
    "modified_at": "2020-03-31T19:04:37.802Z"
  }
}