{
  "header": {
    "description": "Karaoke Mugen Tag File",
    "version": 1
  },
  "tag": {
    "aliases": [
      ""
    ],
    "external_database_ids": {
      "anilist": 114308,
      "myanimelist": 40540,
      "kitsu": 42927
    },
    "i18n": {
      "eng": "Sword Art Online: Alicization ‒ War of Underworld (2nd season)",
      "fre": "Sword Art Online: Alicization ‒ War of Underworld (saison 2)",
      "jpn": "ソードアート・オンライン アリシゼーション War of Underworld (2020)",
      "chi": "刀劍神域 Alicization War of Underworld -THE LAST SEASON-",
      "qro": "Sword Art Online: Alicization ‒ War of Underworld 2nd season"
    },
    "modified_at": "2020-07-26T15:32:23.207Z",
    "name": "Sword Art Online: Alicization ‒ War of Underworld 2nd season",
    "repository": "kara.moe",
    "tid": "10e3fca1-4dc9-4d07-bfd1-853c434f7958",
    "types": [
      "series",
      "1"
    ]
  }
}