{
  "header": {
    "description": "Karaoke Mugen Tag File",
    "version": 1
  },
  "tag": {
    "i18n": {
      "eng": "SxOxU"
    },
    "name": "SxOxU",
    "tid": "ed019532-92a0-4cfc-bc9e-88c5ddffe208",
    "types": [
      "singers",
      "2",
      "songwriters",
      "8"
    ],
    "repository": "kara.moe",
    "modified_at": "2020-03-31T19:04:37.808Z"
  }
}