{
  "header": {
    "description": "Karaoke Mugen Tag File",
    "version": 1
  },
  "tag": {
    "i18n": {
      "eng": "Syanthis"
    },
    "name": "Syanthis",
    "tid": "80f1cd63-9897-4497-9bf7-c4b2190f60e9",
    "types": [
      "singers",
      "2"
    ],
    "repository": "kara.moe",
    "modified_at": "2020-03-31T19:04:37.809Z"
  }
}