{
  "header": {
    "description": "Karaoke Mugen Tag File",
    "version": 1
  },
  "tag": {
    "i18n": {
      "eng": "SynergySP"
    },
    "name": "SynergySP",
    "tid": "89712d07-0095-46b2-8399-dfcd8c837884",
    "types": [
      "creators",
      "4"
    ],
    "repository": "kara.moe",
    "modified_at": "2020-03-31T19:04:37.810Z"
  }
}