{
  "header": {
    "description": "Karaoke Mugen Tag File",
    "version": 1
  },
  "tag": {
    "i18n": {
      "eng": "syudou"
    },
    "modified_at": "2021-07-07T23:00:27.615Z",
    "name": "syudou",
    "repository": "kara.moe",
    "tid": "13c686dd-4df8-4056-a46a-39ba871cba8b",
    "types": [
      "songwriters",
      "8",
      "singers",
      "2"
    ]
  }
}