{
  "header": {
    "description": "Karaoke Mugen Tag File",
    "version": 1
  },
  "tag": {
    "i18n": {
      "eng": "T-POCKET"
    },
    "name": "T-POCKET",
    "repository": "kara.moe",
    "tid": "9eb3e969-0618-4118-b20f-3ee63b15c448",
    "types": [
      "songwriters",
      "8"
    ]
  }
}