{
  "header": {
    "description": "Karaoke Mugen Tag File",
    "version": 1
  },
  "tag": {
    "i18n": {
      "eng": "T.L. Signal"
    },
    "name": "T.L. Signal",
    "tid": "5af53f85-f12a-41b0-851e-f180d54d0308",
    "types": [
      "singers",
      "2"
    ],
    "repository": "kara.moe",
    "modified_at": "2020-03-31T19:04:37.815Z"
  }
}