{
  "header": {
    "description": "Karaoke Mugen Tag File",
    "version": 1
  },
  "tag": {
    "i18n": {
      "eng": "T_T"
    },
    "name": "T_T",
    "tid": "06eaacfb-df6e-45e7-b899-a0773bcd5b53",
    "types": [
      "songwriters",
      "8"
    ],
    "repository": "kara.moe",
    "modified_at": "2020-03-31T19:04:38.339Z"
  }
}