{
  "header": {
    "description": "Karaoke Mugen Tag File",
    "version": 1
  },
  "tag": {
    "aliases": [
      "Tada Doesn't Fall in Love",
      "Tadakoi"
    ],
    "external_database_ids": {
      "anilist": 100179,
      "myanimelist": 36470,
      "kitsu": 13888
    },
    "i18n": {
      "eng": "Tada Never Falls in Love",
      "jpn": "多田くんは恋をしない",
      "kor": "타다군은 사랑을 모른다",
      "qro": "Tada-kun wa Koi wo Shinai"
    },
    "modified_at": "2020-03-31T19:04:32.873Z",
    "name": "Tada-kun wa Koi wo Shinai",
    "repository": "kara.moe",
    "tid": "f4475026-6e6b-4826-8e14-2c885506f82d",
    "types": [
      "series",
      "1"
    ]
  }
}