{
  "header": {
    "description": "Karaoke Mugen Tag File",
    "version": 1
  },
  "tag": {
    "i18n": {
      "eng": "Tae-san"
    },
    "name": "Tae-san",
    "tid": "1372d188-e7ed-49b5-9b8a-3503aad27433",
    "types": [
      "songwriters",
      "8"
    ],
    "repository": "kara.moe",
    "modified_at": "2020-03-31T19:04:37.827Z"
  }
}