{
  "header": {
    "description": "Karaoke Mugen Tag File",
    "version": 1
  },
  "tag": {
    "i18n": {
      "eng": "Taeko Kitamura"
    },
    "name": "Taeko Kitamura",
    "tid": "dd15abd7-8032-48e4-b19b-8044475b613a",
    "types": [
      "singers",
      "2"
    ],
    "repository": "kara.moe",
    "modified_at": "2020-03-31T19:04:37.829Z"
  }
}