{
  "header": {
    "description": "Karaoke Mugen Tag File",
    "version": 1
  },
  "tag": {
    "i18n": {
      "eng": "Taffy Nivert"
    },
    "name": "Taffy Nivert",
    "tid": "96b68dd5-11dd-49c6-b6a3-447f7d415abb",
    "types": [
      "songwriters",
      "8"
    ],
    "repository": "kara.moe",
    "modified_at": "2020-03-31T19:04:37.830Z"
  }
}