{
  "header": {
    "description": "Karaoke Mugen Tag File",
    "version": 1
  },
  "tag": {
    "aliases": [
      "Baseballistki ery Taishō",
      "Taisho Era Baseball Daughters",
      "Taisho Era Baseball Girls",
      "Taisho Yakyu Musume",
      "Бейзболистките от епохата Тайшьо",
      "Бейсболистки эпохи Тайсё",
      "大正棒球娘",
      "大正野球娘"
    ],
    "external_database_ids": {
      "anilist": 5141,
      "myanimelist": 5141,
      "kitsu": 3946
    },
    "i18n": {
      "eng": "Taisho Baseball Girls",
      "jpn": "大正野球娘.",
      "qro": "Taishou Yakyuu Musume"
    },
    "modified_at": "2020-03-31T19:04:32.879Z",
    "name": "Taishou Yakyuu Musume",
    "repository": "kara.moe",
    "tid": "cafcdfba-9f49-4430-9402-5e8fb49861eb",
    "types": [
      "series",
      "1"
    ]
  }
}