{
  "header": {
    "description": "Karaoke Mugen Tag File",
    "version": 1
  },
  "tag": {
    "i18n": {
      "eng": "Taishi"
    },
    "name": "Taishi",
    "tid": "e2da8ec2-787f-4361-a1a5-0b0c623a7499",
    "types": [
      "songwriters",
      "8"
    ],
    "repository": "kara.moe",
    "modified_at": "2020-03-31T19:04:37.840Z"
  }
}