{
  "header": {
    "description": "Karaoke Mugen Tag File",
    "version": 1
  },
  "tag": {
    "i18n": {
      "eng": "Taja"
    },
    "modified_at": "2021-03-07T18:28:07.808Z",
    "name": "Taja",
    "repository": "kara.moe",
    "tid": "c52870d4-895f-40fb-8e89-8ff4c84590de",
    "types": [
      "songwriters",
      "8",
      "singers",
      "2"
    ]
  }
}