{
  "header": {
    "description": "Karaoke Mugen Tag File",
    "version": 1
  },
  "tag": {
    "i18n": {
      "eng": "Takako Shirai"
    },
    "name": "Takako Shirai",
    "tid": "c978f8cf-dbef-46fe-b34d-3777a27015a5",
    "types": [
      "songwriters",
      "8"
    ],
    "repository": "kara.moe",
    "modified_at": "2020-03-31T19:04:37.868Z"
  }
}