{
  "header": {
    "description": "Karaoke Mugen Tag File",
    "version": 1
  },
  "tag": {
    "i18n": {
      "eng": "Takahiro Mizushima"
    },
    "name": "Takahiro Mizushima",
    "repository": "kara.moe",
    "tid": "6aed1974-6603-4c5c-a2f2-06e4402da79f",
    "types": [
      "songwriters",
      "8"
    ]
  }
}