{
  "header": {
    "description": "Karaoke Mugen Tag File",
    "version": 1
  },
  "tag": {
    "i18n": {
      "eng": "Takaaki Shingyôji"
    },
    "name": "Takaaki Shingyôji",
    "tid": "e1cb1994-00a9-4fa6-b2fc-f828e8b0b3fb",
    "types": [
      "songwriters",
      "8"
    ],
    "repository": "kara.moe",
    "modified_at": "2020-03-31T19:04:37.845Z"
  }
}