{
  "header": {
    "description": "Karaoke Mugen Tag File",
    "version": 1
  },
  "tag": {
    "i18n": {
      "eng": "Takanori Fujimoto"
    },
    "name": "Takanori Fujimoto",
    "tid": "1ea27a0d-8ed0-4651-89b6-bd043f724a2a",
    "types": [
      "songwriters",
      "8"
    ],
    "repository": "kara.moe",
    "modified_at": "2020-03-31T19:04:37.873Z"
  }
}