{
  "header": {
    "description": "Karaoke Mugen Tag File",
    "version": 1
  },
  "tag": {
    "i18n": {
      "eng": "Takao Konishi"
    },
    "name": "Takao Konishi",
    "tid": "a469bd67-d23d-4a0b-bcbc-beb282935c94",
    "types": [
      "songwriters",
      "8"
    ],
    "repository": "kara.moe",
    "modified_at": "2020-03-31T19:04:37.879Z"
  }
}