{
  "header": {
    "description": "Karaoke Mugen Tag File",
    "version": 1
  },
  "tag": {
    "i18n": {
      "eng": "TAKA (camino)"
    },
    "name": "TAKA (camino)",
    "tid": "59779d84-2394-42e2-ae7d-83d061920099",
    "types": [
      "songwriters",
      "8"
    ],
    "repository": "kara.moe",
    "modified_at": "2020-03-31T19:04:37.842Z"
  }
}