{
  "header": {
    "description": "Karaoke Mugen Tag File",
    "version": 1
  },
  "tag": {
    "i18n": {
      "eng": "Takahiro Shibata"
    },
    "name": "Takahiro Shibata",
    "tid": "54a54fb5-5a43-41e4-a4b7-595a2e079696",
    "types": [
      "songwriters",
      "8"
    ],
    "repository": "kara.moe",
    "modified_at": "2020-03-31T19:04:37.859Z"
  }
}