{
  "header": {
    "description": "Karaoke Mugen Tag File",
    "version": 1
  },
  "tag": {
    "i18n": {
      "eng": "Takayuki Sakamoto"
    },
    "name": "Takayuki Sakamoto",
    "tid": "470b52fc-cd31-4a54-b47f-872196d7d001",
    "types": [
      "songwriters",
      "8"
    ],
    "repository": "kara.moe",
    "modified_at": "2020-03-31T19:04:37.908Z"
  }
}