{
  "header": {
    "description": "Karaoke Mugen Tag File",
    "version": 1
  },
  "tag": {
    "i18n": {
      "eng": "Takako Oota"
    },
    "name": "Takako Oota",
    "tid": "eb40dc1c-b569-4f2d-a8a6-8d3ad681f4e3",
    "types": [
      "singers",
      "2"
    ],
    "repository": "kara.moe",
    "modified_at": "2020-03-31T19:04:37.867Z"
  }
}