{
  "header": {
    "description": "Karaoke Mugen Tag File",
    "version": 1
  },
  "tag": {
    "i18n": {
      "eng": "TAKA"
    },
    "modified_at": "2020-08-17T23:41:46.412Z",
    "name": "TAKA",
    "repository": "kara.moe",
    "tid": "b8aef6e2-6e45-4795-b38c-46721a38ca0d",
    "types": [
      "songwriters",
      "8"
    ]
  }
}