{
  "header": {
    "description": "Karaoke Mugen Tag File",
    "version": 1
  },
  "tag": {
    "i18n": {
      "eng": "Takanori Jinnai"
    },
    "name": "Takanori Jinnai",
    "tid": "0d9505db-5b1f-45a5-bb87-4e582f328bcb",
    "types": [
      "singers",
      "2"
    ],
    "repository": "kara.moe",
    "modified_at": "2020-03-31T19:04:37.874Z"
  }
}