{
  "header": {
    "description": "Karaoke Mugen Tag File",
    "version": 1
  },
  "tag": {
    "i18n": {
      "eng": "Takashi Tateishi"
    },
    "name": "Takashi Tateishi",
    "tid": "aac71bf7-a0a3-4bc2-ade9-3cc8b5c60bfe",
    "types": [
      "songwriters",
      "8"
    ],
    "repository": "kara.moe",
    "modified_at": "2020-03-31T19:04:37.896Z"
  }
}