{
  "header": {
    "description": "Karaoke Mugen Tag File",
    "version": 1
  },
  "tag": {
    "i18n": {
      "eng": "Takayuki Ishikawa"
    },
    "name": "Takayuki Ishikawa",
    "tid": "37ef3a99-b7ba-4e51-8928-2911cd41406b",
    "types": [
      "songwriters",
      "8"
    ],
    "repository": "kara.moe",
    "modified_at": "2020-03-31T19:04:37.904Z"
  }
}