{
  "header": {
    "description": "Karaoke Mugen Tag File",
    "version": 1
  },
  "tag": {
    "i18n": {
      "eng": "takao"
    },
    "name": "takao",
    "tid": "0aa36cc8-3393-4eb8-bff6-258d13095615",
    "types": [
      "songwriters",
      "8"
    ],
    "repository": "kara.moe",
    "modified_at": "2020-03-31T19:04:37.882Z"
  }
}