{
  "header": {
    "description": "Karaoke Mugen Tag File",
    "version": 1
  },
  "tag": {
    "i18n": {
      "eng": "Takahiro Minato"
    },
    "name": "Takahiro Minato",
    "tid": "be1f08e9-0326-4692-8721-c1db14f6488c",
    "types": [
      "songwriters",
      "8"
    ],
    "repository": "kara.moe",
    "modified_at": "2020-03-31T19:04:37.857Z"
  }
}