{
  "header": {
    "description": "Karaoke Mugen Tag File",
    "version": 1
  },
  "tag": {
    "i18n": {
      "eng": "Takashi Saze"
    },
    "modified_at": "2021-08-22T20:05:50.971Z",
    "name": "Takashi Saze",
    "repository": "kara.moe",
    "tid": "c30f3e71-b81b-4fee-aa40-a38b8ef704a1",
    "types": [
      "songwriters",
      "8"
    ]
  }
}