{
  "header": {
    "description": "Karaoke Mugen Tag File",
    "version": 1
  },
  "tag": {
    "i18n": {
      "eng": "Takahiro Sakurai"
    },
    "modified_at": "2020-12-22T00:09:09.232Z",
    "name": "Takahiro Sakurai",
    "repository": "kara.moe",
    "tid": "d5c5f183-a9dc-4029-aac8-6c60bd281e71",
    "types": [
      "singers",
      "2"
    ]
  }
}