{
  "header": {
    "description": "Karaoke Mugen Tag File",
    "version": 1
  },
  "tag": {
    "i18n": {
      "eng": "Takayuki Itô"
    },
    "name": "Takayuki Itô",
    "repository": "kara.moe",
    "tid": "aae187c3-09cb-49e4-9283-ea09f7906cef",
    "types": [
      "singers",
      "2"
    ]
  }
}