{
  "header": {
    "description": "Karaoke Mugen Tag File",
    "version": 1
  },
  "tag": {
    "i18n": {
      "eng": "Takashi Kurita"
    },
    "name": "Takashi Kurita",
    "tid": "481dbb21-63f4-4eb4-8d7f-6ec4b470133c",
    "types": [
      "songwriters",
      "8"
    ],
    "repository": "kara.moe",
    "modified_at": "2020-03-31T19:04:37.891Z"
  }
}