{
  "header": {
    "description": "Karaoke Mugen Tag File",
    "version": 1
  },
  "tag": {
    "i18n": {
      "eng": "Takahashi Kunimitsu"
    },
    "name": "Takahashi Kunimitsu",
    "tid": "847ff477-b7e4-42ad-8eeb-9f947ffc0261",
    "types": [
      "songwriters",
      "8"
    ],
    "repository": "kara.moe",
    "modified_at": "2020-03-31T19:04:37.850Z"
  }
}