{
  "header": {
    "description": "Karaoke Mugen Tag File",
    "version": 1
  },
  "tag": {
    "i18n": {
      "eng": "Takahide Azuchi"
    },
    "name": "Takahide Azuchi",
    "tid": "a58807d2-4e5f-41db-b5ea-61e0477631d0",
    "types": [
      "songwriters",
      "8"
    ],
    "repository": "kara.moe",
    "modified_at": "2020-03-31T19:04:37.851Z"
  }
}