{
  "header": {
    "description": "Karaoke Mugen Tag File",
    "version": 1
  },
  "tag": {
    "i18n": {
      "eng": "Takao Kisugi"
    },
    "name": "Takao Kisugi",
    "tid": "6b717207-5a71-4ccb-9415-092c545f521b",
    "types": [
      "songwriters",
      "8",
      "singers",
      "2"
    ],
    "repository": "kara.moe",
    "modified_at": "2020-03-31T19:04:37.878Z"
  }
}