{
  "header": {
    "description": "Karaoke Mugen Tag File",
    "version": 1
  },
  "tag": {
    "i18n": {
      "eng": "Takahiko Kyôgoku"
    },
    "name": "Takahiko Kyôgoku",
    "tid": "88c602a5-8092-4345-8640-302a36cb8de3",
    "types": [
      "songwriters",
      "8"
    ],
    "repository": "kara.moe",
    "modified_at": "2020-03-31T19:04:37.852Z"
  }
}