{
  "header": {
    "description": "Karaoke Mugen Tag File",
    "version": 1
  },
  "tag": {
    "i18n": {
      "eng": "Takaaki Kimura"
    },
    "name": "Takaaki Kimura",
    "tid": "a8483126-a6eb-482c-b157-5ec40e942b35",
    "types": [
      "songwriters",
      "8"
    ],
    "repository": "kara.moe",
    "modified_at": "2020-03-31T19:04:37.843Z"
  }
}