{
  "header": {
    "description": "Karaoke Mugen Tag File",
    "version": 1
  },
  "tag": {
    "i18n": {
      "eng": "Takacha"
    },
    "name": "Takacha",
    "tid": "3a45ef33-f5a0-4336-b23a-6cae43bb34c5",
    "types": [
      "singers",
      "2",
      "songwriters",
      "8"
    ],
    "repository": "kara.moe",
    "modified_at": "2020-03-31T19:04:37.847Z"
  }
}