{
  "header": {
    "description": "Karaoke Mugen Tag File",
    "version": 1
  },
  "tag": {
    "i18n": {
      "eng": "Takehiko Iida"
    },
    "modified_at": "2021-03-07T15:46:44.056Z",
    "name": "Takehiko Iida",
    "repository": "kara.moe",
    "tid": "bf141d27-782a-4b96-ac2d-94ee9eb9380d",
    "types": [
      "songwriters",
      "8"
    ]
  }
}