{
  "header": {
    "description": "Karaoke Mugen Tag File",
    "version": 1
  },
  "tag": {
    "aliases": [
      "KEN THE 390"
    ],
    "i18n": {
      "eng": "Takeshi Sakuma"
    },
    "modified_at": "2020-11-27T01:18:27.650Z",
    "name": "Takeshi Sakuma",
    "repository": "kara.moe",
    "tid": "62ba1737-8ac5-44ee-a1f1-966d71f25f01",
    "types": [
      "songwriters",
      "8"
    ]
  }
}