{
  "header": {
    "description": "Karaoke Mugen Tag File",
    "version": 1
  },
  "tag": {
    "i18n": {
      "eng": "Takeshi Aida"
    },
    "name": "Takeshi Aida",
    "tid": "9e934195-f406-409c-a971-002262f61d9b",
    "types": [
      "songwriters",
      "8"
    ],
    "repository": "kara.moe",
    "modified_at": "2020-03-31T19:04:37.926Z"
  }
}