{
  "header": {
    "description": "Karaoke Mugen Tag File",
    "version": 1
  },
  "tag": {
    "i18n": {
      "eng": "Takeo"
    },
    "name": "Takeo",
    "tid": "3dac33b5-b4fb-4735-8747-0875d96fa0ef",
    "types": [
      "songwriters",
      "8"
    ],
    "repository": "kara.moe",
    "modified_at": "2020-03-31T19:04:37.923Z"
  }
}