{
  "header": {
    "description": "Karaoke Mugen Tag File",
    "version": 1
  },
  "tag": {
    "i18n": {
      "eng": "Takeru Kanazaki"
    },
    "name": "Takeru Kanazaki",
    "tid": "334b0186-9ef6-4019-a012-05afb56c7724",
    "types": [
      "songwriters",
      "8"
    ],
    "repository": "kara.moe",
    "modified_at": "2020-03-31T19:04:37.924Z"
  }
}