{
  "header": {
    "description": "Karaoke Mugen Tag File",
    "version": 1
  },
  "tag": {
    "i18n": {
      "eng": "Takeshi Hayami"
    },
    "name": "Takeshi Hayami",
    "tid": "808acfb9-d140-4557-978c-aa49dd833538",
    "types": [
      "songwriters",
      "8"
    ],
    "repository": "kara.moe",
    "modified_at": "2020-03-31T19:04:37.927Z"
  }
}