{
  "header": {
    "description": "Karaoke Mugen Tag File",
    "version": 1
  },
  "tag": {
    "i18n": {
      "eng": "TAKE"
    },
    "name": "TAKE",
    "tid": "059c908e-e210-4405-a509-04ae79271c6e",
    "types": [
      "songwriters",
      "8"
    ],
    "repository": "kara.moe",
    "modified_at": "2020-03-31T19:04:37.911Z"
  }
}