{
  "header": {
    "description": "Karaoke Mugen Tag File",
    "version": 1
  },
  "tag": {
    "i18n": {
      "eng": "Takeshi Ugajin"
    },
    "modified_at": "2020-05-10T13:27:40.245Z",
    "name": "Takeshi Ugajin",
    "repository": "kara.moe",
    "tid": "8ea9ae60-f8a7-497c-ac8b-dda3154fc7ba",
    "types": [
      "songwriters",
      "8"
    ]
  }
}