{
  "header": {
    "description": "Karaoke Mugen Tag File",
    "version": 1
  },
  "tag": {
    "i18n": {
      "eng": "Takeo Kajiwara"
    },
    "name": "Takeo Kajiwara",
    "tid": "e573bd4c-35aa-45f4-905f-d1b59cdcaefa",
    "types": [
      "songwriters",
      "8"
    ],
    "repository": "kara.moe",
    "modified_at": "2020-03-31T19:04:37.921Z"
  }
}