{
  "header": {
    "description": "Karaoke Mugen Tag File",
    "version": 1
  },
  "tag": {
    "i18n": {
      "eng": "Takeshi Kusao"
    },
    "name": "Takeshi Kusao",
    "tid": "c7199af2-63df-49ce-96ea-a1795edab096",
    "types": [
      "singers",
      "2"
    ],
    "repository": "kara.moe",
    "modified_at": "2020-03-31T19:04:37.929Z"
  }
}