{
  "header": {
    "description": "Karaoke Mugen Tag File",
    "version": 1
  },
  "tag": {
    "i18n": {
      "eng": "Takeru Kikuchi"
    },
    "name": "Takeru Kikuchi",
    "tid": "822bdac4-af70-460d-a2f1-016b43b7d714",
    "types": [
      "singers",
      "2"
    ],
    "repository": "kara.moe",
    "modified_at": "2020-03-31T19:04:37.924Z"
  }
}