{
  "header": {
    "description": "Karaoke Mugen Tag File",
    "version": 1
  },
  "tag": {
    "i18n": {
      "eng": "Takehito Koyasu"
    },
    "name": "Takehito Koyasu",
    "tid": "744394d3-76b2-4b10-bf97-6037bf9da27a",
    "types": [
      "singers",
      "2"
    ],
    "repository": "kara.moe",
    "modified_at": "2020-03-31T19:04:37.916Z"
  }
}