{
  "header": {
    "description": "Karaoke Mugen Tag File",
    "version": 1
  },
  "tag": {
    "aliases": [
      "Takehiro Kouno"
    ],
    "i18n": {
      "eng": "Takehiro Kôno"
    },
    "modified_at": "2020-09-01T21:43:31.242Z",
    "name": "Takehiro Kôno",
    "repository": "kara.moe",
    "tid": "93d8bcfd-0e0f-462b-9559-0273e6357f72",
    "types": [
      "songwriters",
      "8"
    ]
  }
}