{
  "header": {
    "description": "Karaoke Mugen Tag File",
    "version": 1
  },
  "tag": {
    "i18n": {
      "eng": "Takemi Yoshida"
    },
    "name": "Takemi Yoshida",
    "tid": "9c2454e9-6479-40c3-a10e-fb932efbbec5",
    "types": [
      "songwriters",
      "8"
    ],
    "repository": "kara.moe",
    "modified_at": "2020-03-31T19:04:37.919Z"
  }
}