{
  "header": {
    "description": "Karaoke Mugen Tag File",
    "version": 1
  },
  "tag": {
    "aliases": [
      "Octopus Dumpling Mantleman",
      "Takoyaki Mant-Man",
      "Takoyaki Mantoman"
    ],
    "external_database_ids": {
      "anilist": 3937,
      "myanimelist": 3937,
      "kitsu": 3362
    },
    "i18n": {
      "eng": "Takoyaki Mantman",
      "jpn": "たこやきマントマン",
      "qro": "Takoyaki Mantman"
    },
    "modified_at": "2020-03-31T19:04:32.884Z",
    "name": "Takoyaki Mantman",
    "repository": "kara.moe",
    "tid": "9ff62b5f-b12c-40ab-a4af-c491cf8d8b90",
    "types": [
      "series",
      "1"
    ]
  }
}