{
  "header": {
    "description": "Karaoke Mugen Tag File",
    "version": 1
  },
  "tag": {
    "i18n": {
      "eng": "Takumi Ozawa"
    },
    "name": "Takumi Ozawa",
    "tid": "86ae2edf-866e-405d-8f02-f8df5ae54316",
    "types": [
      "songwriters",
      "8"
    ],
    "repository": "kara.moe",
    "modified_at": "2020-03-31T19:04:37.959Z"
  }
}