{
  "header": {
    "description": "Karaoke Mugen Tag File",
    "version": 1
  },
  "tag": {
    "i18n": {
      "eng": "Taku Miyakawa"
    },
    "name": "Taku Miyakawa",
    "tid": "3b392910-b4a9-4f2d-b055-0be3874a9403",
    "types": [
      "songwriters",
      "8"
    ],
    "repository": "kara.moe",
    "modified_at": "2020-03-31T19:04:37.951Z"
  }
}