{
  "header": {
    "description": "Karaoke Mugen Tag File",
    "version": 1
  },
  "tag": {
    "i18n": {
      "eng": "Taku"
    },
    "name": "Taku",
    "tid": "e34578ca-7992-4a0e-a3a8-e2125fb4d0d4",
    "types": [
      "singers",
      "2"
    ],
    "repository": "kara.moe",
    "modified_at": "2020-03-31T19:04:37.953Z"
  }
}