{
  "header": {
    "description": "Karaoke Mugen Tag File",
    "version": 1
  },
  "tag": {
    "i18n": {
      "eng": "Takurô Sugawara"
    },
    "name": "Takurô Sugawara",
    "tid": "596565f1-01cb-4909-b6a4-498fe3ff3813",
    "types": [
      "songwriters",
      "8",
      "singers",
      "2"
    ],
    "repository": "kara.moe",
    "modified_at": "2020-03-31T19:04:37.962Z"
  }
}