{
  "header": {
    "description": "Karaoke Mugen Tag File",
    "version": 1
  },
  "tag": {
    "i18n": {
      "eng": "Takumi Ôtsuka"
    },
    "name": "Takumi Ôtsuka",
    "tid": "baba293c-370c-4d88-84d6-6e7c92d3323f",
    "types": [
      "songwriters",
      "8"
    ],
    "repository": "kara.moe",
    "modified_at": "2020-03-31T19:04:37.959Z"
  }
}