{
  "header": {
    "description": "Karaoke Mugen Tag File",
    "version": 1
  },
  "tag": {
    "i18n": {
      "eng": "Takuya Asanuma"
    },
    "name": "Takuya Asanuma",
    "tid": "23f1e99f-3964-44cf-b36a-de1341b1f213",
    "types": [
      "singers",
      "2",
      "songwriters",
      "8"
    ],
    "repository": "kara.moe",
    "modified_at": "2020-03-31T19:04:37.968Z"
  }
}