{
  "header": {
    "description": "Karaoke Mugen Tag File",
    "version": 1
  },
  "tag": {
    "aliases": [
      "Simfonijos pasakos",
      "Приказки от Симфония",
      "Сказания Симфонии",
      "テイルズ オブ シンフォニア THE ANIMATION シルヴァラント編, 仙乐传说"
    ],
    "external_database_ids": {
      "anilist": 1731,
      "myanimelist": 1731,
      "kitsu": 1551
    },
    "i18n": {
      "eng": "Tales of Symphonia The Animation: Sylvarant Episode",
      "jpn": "テイルズ オブ シンフォニア THE ANIMATION",
      "qro": "Tales of Symphonia The Animation",
      "ara": " حكايات سيمفونيا",
      "kor": " 테일즈 오브 심포니아 The Animation: 실바란트편"
    },
    "name": "Tales of Symphonia The Animation",
    "repository": "kara.moe",
    "tid": "27a7b88b-f610-40c5-b610-a900b16aa009",
    "types": [
      "series",
      "1"
    ]
  }
}