{
  "header": {
    "description": "Karaoke Mugen Tag File",
    "version": 1
  },
  "tag": {
    "aliases": [
      "ToG"
    ],
    "i18n": {
      "eng": "Tales of Graces f",
      "jpn": "テイルズ オブ グレイセス エフ",
      "qro": "Tales of Graces f"
    },
    "modified_at": "2020-03-31T19:04:32.888Z",
    "name": "Tales of Graces f",
    "repository": "kara.moe",
    "tid": "30384481-658f-481f-8dc6-e0c004ef545f",
    "types": [
      "series",
      "1"
    ]
  }
}