{
  "header": {
    "description": "Karaoke Mugen Tag File",
    "version": 1
  },
  "tag": {
    "aliases": [
      "ToP"
    ],
    "i18n": {
      "eng": "Tales of Phantasia",
      "jpn": "テイルズ オブ ファンタジア",
      "qro": "Tales of Phantasia"
    },
    "modified_at": "2020-03-31T19:04:32.890Z",
    "name": "Tales of Phantasia",
    "repository": "kara.moe",
    "tid": "13d84dd7-d3f4-40f1-89c7-13e747f2e247",
    "types": [
      "series",
      "1"
    ]
  }
}