{
  "header": {
    "description": "Karaoke Mugen Tag File",
    "version": 1
  },
  "tag": {
    "aliases": [
      "ToA"
    ],
    "i18n": {
      "eng": "Tales of Asteria",
      "jpn": "テイルズ オブ アスタリア",
      "qro": "Tales of Asteria"
    },
    "modified_at": "2020-03-31T19:04:32.885Z",
    "name": "Tales of Asteria",
    "repository": "kara.moe",
    "tid": "09ebcd21-4611-4bbd-8435-47bc3bd6b49f",
    "types": [
      "series",
      "1"
    ]
  }
}