{
  "header": {
    "description": "Karaoke Mugen Tag File",
    "version": 1
  },
  "tag": {
    "i18n": {
      "eng": "tama'69"
    },
    "name": "tama'69",
    "tid": "639a41b1-f513-41b2-bde5-11bf9f9344c3",
    "types": [
      "songwriters",
      "8"
    ],
    "repository": "kara.moe",
    "modified_at": "2020-03-31T19:04:37.976Z"
  }
}