{
  "header": {
    "description": "Karaoke Mugen Tag File",
    "version": 1
  },
  "tag": {
    "i18n": {
      "eng": "TAMA"
    },
    "name": "TAMA",
    "tid": "40bdd79a-585d-4ff6-a84e-1073a878886b",
    "types": [
      "songwriters",
      "8"
    ],
    "repository": "kara.moe",
    "modified_at": "2020-03-31T19:04:37.977Z"
  }
}