{
  "header": {
    "description": "Karaoke Mugen Tag File",
    "version": 1
  },
  "tag": {
    "i18n": {
      "eng": "Tambourine Artists"
    },
    "name": "Tambourine Artists",
    "repository": "kara.moe",
    "tid": "86a127df-aeb8-4d4a-a320-4fb50b2abd22",
    "types": [
      "creators",
      "4"
    ]
  }
}