{
  "header": {
    "description": "Karaoke Mugen Tag File",
    "version": 1
  },
  "tag": {
    "i18n": {
      "eng": "Tamurapan"
    },
    "name": "Tamurapan",
    "tid": "32a65761-424b-4d1b-8e21-7abd94f5069b",
    "types": [
      "singers",
      "2"
    ],
    "repository": "kara.moe",
    "modified_at": "2020-03-31T19:04:37.986Z"
  }
}