{
  "header": {
    "description": "Karaoke Mugen Tag File",
    "version": 1
  },
  "tag": {
    "external_database_ids": {
      "anilist": 21495,
      "myanimelist": 32093,
      "kitsu": 11538
    },
    "i18n": {
      "eng": "Tanaka-kun Is Always Listless",
      "jpn": "田中くんはいつもけだるげ",
      "qro": "Tanaka-kun wa Itsumo Kedaruge"
    },
    "modified_at": "2020-03-31T19:04:32.905Z",
    "name": "Tanaka-kun wa Itsumo Kedaruge",
    "repository": "kara.moe",
    "tid": "84275318-e296-4402-8e0b-84a8c8cba0d1",
    "types": [
      "series",
      "1"
    ]
  }
}