{
  "header": {
    "description": "Karaoke Mugen Tag File",
    "version": 1
  },
  "tag": {
    "i18n": {
      "eng": "Tanaka Ogeretsu"
    },
    "name": "Tanaka Ogeretsu",
    "repository": "kara.moe",
    "tid": "73d2ad76-6394-4480-8953-9542854b7bba",
    "types": [
      "songwriters",
      "8"
    ]
  }
}