{
  "header": {
    "description": "Karaoke Mugen Tag File",
    "version": 1
  },
  "tag": {
    "i18n": {
      "eng": "Tanpopo Sakura"
    },
    "name": "Tanpopo Sakura",
    "tid": "d06a3c4e-c6a0-4409-a5c0-daa2fa58555b",
    "types": [
      "songwriters",
      "8"
    ],
    "repository": "kara.moe",
    "modified_at": "2020-03-31T19:04:37.987Z"
  }
}