{
  "header": {
    "description": "Karaoke Mugen Tag File",
    "version": 1
  },
  "tag": {
    "aliases": [
      "Detective Opera Milky Holmes",
      "tomh"
    ],
    "external_database_ids": {
      "anilist": 7768,
      "myanimelist": 7768,
      "kitsu": 5113
    },
    "i18n": {
      "chi": "侦探歌剧 少女福尔摩斯",
      "eng": "Tantei Opera Milky Holmes",
      "jpn": "探偵オペラ ミルキィホームズ",
      "qro": "Tantei Opera Milky Holmes"
    },
    "modified_at": "2020-03-31T19:04:32.907Z",
    "name": "Tantei Opera Milky Holmes",
    "repository": "kara.moe",
    "tid": "13e0c380-5b85-48b6-8bfa-1ae2a8c2839d",
    "types": [
      "series",
      "1",
      "franchises",
      "18"
    ]
  }
}