{
  "header": {
    "description": "Karaoke Mugen Tag File",
    "version": 1
  },
  "tag": {
    "aliases": [
      "Tantei wa Mou, Shindeiru.",
      "tanmoshi"
    ],
    "external_database_ids": {
      "anilist": 128712,
      "kitsu": 44022,
      "myanimelist": 46471
    },
    "i18n": {
      "eng": "The Detective Is Already Dead",
      "jpn": "探偵はもう, 死んでいる.",
      "qro": "Tantei wa Mou, Shinde Iru.",
      "spa": "La detective está muerta.",
      "chi": "侦探已经，死了。"
    },
    "name": "Tantei wa Mou, Shinde Iru.",
    "repository": "kara.moe",
    "tid": "75612a46-1643-47a8-b19f-21634c1b51b9",
    "types": [
      "series",
      "1"
    ]
  }
}