{
  "header": {
    "description": "Karaoke Mugen Tag File",
    "version": 1
  },
  "tag": {
    "i18n": {
      "eng": "Taro Shibayama"
    },
    "modified_at": "2021-02-14T17:58:13.622Z",
    "name": "Taro Shibayama",
    "repository": "kara.moe",
    "tid": "237c1587-f9a2-46be-93d1-c234f1df8a54",
    "types": [
      "songwriters",
      "8"
    ]
  }
}