{
  "header": {
    "description": "Karaoke Mugen Tag File",
    "version": 1
  },
  "tag": {
    "i18n": {
      "eng": "Taro"
    },
    "name": "Taro",
    "repository": "kara.moe",
    "tid": "83f44e26-1997-4439-95fa-4b1e5d55326d",
    "types": [
      "singers",
      "2"
    ]
  }
}