{
  "header": {
    "description": "Karaoke Mugen Tag File",
    "version": 1
  },
  "tag": {
    "aliases": [
      "TOxA",
      "Сумеречная Дева и Амнезия",
      "Сутінкова дівчина х Амнезія",
      "黄昏少女x失忆"
    ],
    "external_database_ids": {
      "anilist": 12445,
      "myanimelist": 12445,
      "kitsu": 6734
    },
    "i18n": {
      "eng": "Dusk Maiden of Amnesia",
      "fre": "Dusk Maiden of Amnesia",
      "ger": "Dusk Maiden of Amnesia",
      "jpn": "黄昏乙女xアムネジア",
      "pol": "Niepamięć Panny Zmierzchu",
      "qro": "Tasogare Otome x Amnesia"
    },
    "modified_at": "2020-06-21T23:45:31.966Z",
    "name": "Tasogare Otome x Amnesia",
    "repository": "kara.moe",
    "tid": "f8c04870-ff77-49c9-b5d9-08a4b7e5656f",
    "types": [
      "series",
      "1"
    ]
  }
}