{
  "header": {
    "description": "Karaoke Mugen Tag File",
    "version": 1
  },
  "tag": {
    "aliases": [
      "Fight!! Iczer-1"
    ],
    "external_database_ids": {
      "anilist": 2291,
      "myanimelist": 2291,
      "kitsu": 2076
    },
    "i18n": {
      "eng": "Fight! Iczer-One",
      "fre": "Iczer One",
      "jpn": "戦え!! イクサー1",
      "qro": "Tatakae!! Iczer 1"
    },
    "modified_at": "2020-03-31T19:04:32.911Z",
    "name": "Tatakae!! Iczer 1",
    "repository": "kara.moe",
    "tid": "ec1bbeb9-3c6d-4cdf-8cb0-40157d919108",
    "types": [
      "series",
      "1"
    ]
  }
}