{
  "header": {
    "description": "Karaoke Mugen Tag File",
    "version": 1
  },
  "tag": {
    "i18n": {
      "eng": "Tatsuya Kikuchi"
    },
    "name": "Tatsuya Kikuchi",
    "tid": "290ce100-9c97-4c84-bd61-03185bf75348",
    "types": [
      "songwriters",
      "8",
      "singers",
      "2"
    ],
    "repository": "kara.moe",
    "modified_at": "2020-03-31T19:04:38.014Z"
  }
}