{
  "header": {
    "description": "Karaoke Mugen Tag File",
    "version": 1
  },
  "tag": {
    "i18n": {
      "eng": "Tatsuyuki Takano"
    },
    "name": "Tatsuyuki Takano",
    "repository": "kara.moe",
    "tid": "6bc723e3-cbc6-448c-827c-9aa2214ca58a",
    "types": [
      "songwriters",
      "8"
    ]
  }
}