{
  "header": {
    "description": "Karaoke Mugen Tag File",
    "version": 1
  },
  "tag": {
    "i18n": {
      "eng": "tatsuo"
    },
    "name": "tatsuo",
    "tid": "53bb7f3c-38a7-465a-83fe-bd12fbcd2f54",
    "types": [
      "songwriters",
      "8"
    ],
    "repository": "kara.moe",
    "modified_at": "2020-03-31T19:04:38.009Z"
  }
}