{
  "header": {
    "description": "Karaoke Mugen Tag File",
    "version": 1
  },
  "tag": {
    "i18n": {
      "eng": "Tatsuya Nishiwaki"
    },
    "name": "Tatsuya Nishiwaki",
    "tid": "69471707-4dbd-4a89-a50d-b4bf4632ab3e",
    "types": [
      "songwriters",
      "8"
    ],
    "repository": "kara.moe",
    "modified_at": "2020-03-31T19:04:38.018Z"
  }
}