{
  "header": {
    "description": "Karaoke Mugen Tag File",
    "version": 1
  },
  "tag": {
    "i18n": {
      "eng": "Tatsuya Maeda"
    },
    "name": "Tatsuya Maeda",
    "tid": "5ed25f78-5755-49b7-9198-a943a668be06",
    "types": [
      "singers",
      "2"
    ],
    "repository": "kara.moe",
    "modified_at": "2020-03-31T19:04:38.015Z"
  }
}