{
  "header": {
    "description": "Karaoke Mugen Tag File",
    "version": 1
  },
  "tag": {
    "i18n": {
      "eng": "Tatsh"
    },
    "name": "Tatsh",
    "tid": "1ddc4422-c3e9-4b7d-b6f5-e4e2f3247d68",
    "types": [
      "songwriters",
      "8"
    ],
    "repository": "kara.moe",
    "modified_at": "2020-03-31T19:04:37.998Z"
  }
}