{
  "header": {
    "description": "Karaoke Mugen Tag File",
    "version": 1
  },
  "tag": {
    "i18n": {
      "eng": "Tatsunoko Production"
    },
    "name": "Tatsunoko Production",
    "tid": "cfdb2d1e-499d-47a1-b9f8-070153b5048e",
    "types": [
      "creators",
      "4"
    ],
    "repository": "kara.moe",
    "modified_at": "2020-03-31T19:04:38.005Z"
  }
}