{
  "header": {
    "description": "Karaoke Mugen Tag File",
    "version": 1
  },
  "tag": {
    "i18n": {
      "eng": "Tatuya Katou"
    },
    "name": "Tatuya Katou",
    "tid": "6a6e80bf-ae1e-48ec-9381-8543fa976f7c",
    "types": [
      "songwriters",
      "8"
    ],
    "repository": "kara.moe",
    "modified_at": "2020-03-31T19:04:38.021Z"
  }
}