{
  "header": {
    "description": "Karaoke Mugen Tag File",
    "version": 1
  },
  "tag": {
    "i18n": {
      "eng": "Taylor Swift"
    },
    "name": "Taylor Swift",
    "repository": "kara.moe",
    "tid": "72e3f7b1-133b-4c24-8569-09f3fbe9d3f9",
    "types": [
      "singers",
      "2",
      "songwriters",
      "8"
    ]
  }
}