{
  "header": {
    "description": "Karaoke Mugen Tag File",
    "version": 1
  },
  "tag": {
    "i18n": {
      "eng": "Team ICO"
    },
    "name": "Team ICO",
    "tid": "9cf8d287-6707-4758-ad30-d0d985a4609d",
    "types": [
      "creators",
      "4"
    ],
    "repository": "kara.moe",
    "modified_at": "2020-03-31T19:04:38.027Z"
  }
}