{
  "header": {
    "description": "Karaoke Mugen Tag File",
    "version": 1
  },
  "tag": {
    "i18n": {
      "eng": "Team Baldrhead"
    },
    "name": "Team Baldrhead",
    "tid": "a3d777fe-9e7c-42b3-8c37-006fb9a5dd21",
    "types": [
      "creators",
      "4"
    ],
    "repository": "kara.moe",
    "modified_at": "2020-03-31T19:04:38.024Z"
  }
}