{
  "header": {
    "description": "Karaoke Mugen Tag File",
    "version": 1
  },
  "tag": {
    "i18n": {
      "eng": "TECHNOBOYS PULCRAFT GREEN-FUND"
    },
    "name": "TECHNOBOYS PULCRAFT GREEN-FUND",
    "tid": "ab810184-53f6-43f5-9133-ffeeb4f5d7e5",
    "types": [
      "singers",
      "2",
      "songwriters",
      "8"
    ],
    "repository": "kara.moe",
    "modified_at": "2020-03-31T19:04:38.033Z"
  }
}