{
  "header": {
    "description": "Karaoke Mugen Tag File",
    "version": 1
  },
  "tag": {
    "i18n": {
      "eng": "Tedy Productions"
    },
    "name": "Tedy Productions",
    "tid": "2e58a1e6-6b0d-45a5-a913-e86fe7a74f78",
    "types": [
      "creators",
      "4"
    ],
    "repository": "kara.moe",
    "modified_at": "2020-03-31T19:04:38.036Z"
  }
}