{
  "header": {
    "description": "Karaoke Mugen Tag File",
    "version": 1
  },
  "tag": {
    "aliases": [
      "Teekyu",
      "Tekyu",
      "Tekyuu"
    ],
    "external_database_ids": {
      "anilist": 20833,
      "myanimelist": 26395,
      "kitsu": 8906
    },
    "i18n": {
      "eng": "Teekyu 4",
      "fre": "Teekyû 4",
      "jpn": "てーきゅう 4期",
      "qro": "Teekyuu 4"
    },
    "modified_at": "2020-06-21T23:45:31.966Z",
    "name": "Teekyuu 4",
    "repository": "kara.moe",
    "tid": "e3dc28cd-95ab-4ca3-9778-206a05830367",
    "types": [
      "series",
      "1"
    ]
  }
}