{
  "header": {
    "description": "Karaoke Mugen Tag File",
    "version": 1
  },
  "tag": {
    "aliases": [
      "Teekyu",
      "Tekyu",
      "Tekyuu"
    ],
    "external_database_ids": {
      "anilist": 21896,
      "myanimelist": 33811,
      "kitsu": 12473
    },
    "i18n": {
      "eng": "Teekyu 8",
      "fre": "Teekyû 8",
      "jpn": "てーきゅう 8期",
      "qro": "Teekyuu 8"
    },
    "modified_at": "2020-06-21T23:45:31.966Z",
    "name": "Teekyuu 8",
    "repository": "kara.moe",
    "tid": "5eb69ccd-3066-41ec-baef-a6f2f5a13e75",
    "types": [
      "series",
      "1"
    ]
  }
}