{
  "header": {
    "description": "Karaoke Mugen Tag File",
    "version": 1
  },
  "tag": {
    "aliases": [
      "Teekyuu"
    ],
    "i18n": {
      "jpn": "てーきゅう",
      "qro": "Teekyû"
    },
    "name": "Teekyû",
    "repository": "kara.moe",
    "tid": "4afac598-1ddd-46fa-86b1-e2df3526b430",
    "types": [
      "franchises",
      "18"
    ]
  }
}