{
  "header": {
    "description": "Karaoke Mugen Tag File",
    "version": 1
  },
  "tag": {
    "i18n": {
      "eng": "Teen Titans"
    },
    "modified_at": "2020-03-31T19:04:32.920Z",
    "name": "Teen Titans",
    "repository": "kara.moe",
    "tid": "d14008f2-a968-43cf-8002-86a06c43c902",
    "types": [
      "series",
      "1"
    ]
  }
}