{
  "header": {
    "description": "Karaoke Mugen Tag File",
    "version": 1
  },
  "tag": {
    "aliases": [
      "TMNT",
      "Teenage Mutant Ninja Turtles: The Animated Series"
    ],
    "i18n": {
      "eng": "Teenage Mutant Ninja Turtles (2003)",
      "fre": "Tortues Ninja (2003)"
    },
    "modified_at": "2020-03-31T19:04:32.920Z",
    "name": "Teenage Mutant Ninja Turtles (2003)",
    "repository": "kara.moe",
    "tid": "ea36bd79-8721-43a8-afa2-9c67dd4efd8d",
    "types": [
      "series",
      "1"
    ]
  }
}