{
  "header": {
    "description": "Karaoke Mugen Tag File",
    "version": 1
  },
  "tag": {
    "aliases": [
      "Teikoku Yousei"
    ],
    "i18n": {
      "eng": "Teikoku Yôsei"
    },
    "name": "Teikoku Yôsei",
    "tid": "372bb93f-bb44-40f1-b7ae-ae4ede520d9f",
    "types": [
      "singers",
      "2"
    ],
    "repository": "kara.moe",
    "modified_at": "2020-03-31T19:04:38.039Z"
  }
}