{
  "header": {
    "description": "Karaoke Mugen Tag File",
    "version": 1
  },
  "tag": {
    "aliases": [
      "Tekkouki Mikazuki",
      "tekkouki"
    ],
    "i18n": {
      "eng": "Tekkôki Mikazuki",
      "jpn": "鉄甲機ミカヅキ",
      "qro": "Tekkôki Mikazuki"
    },
    "modified_at": "2020-03-31T19:04:32.923Z",
    "name": "Tekkôki Mikazuki",
    "repository": "kara.moe",
    "tid": "401e64fc-2e5d-4933-955b-e828a324aa1d",
    "types": [
      "series",
      "1"
    ]
  }
}