{
  "header": {
    "description": "Karaoke Mugen Tag File",
    "version": 1
  },
  "tag": {
    "i18n": {
      "eng": "Téléphone"
    },
    "name": "Téléphone",
    "repository": "kara.moe",
    "tid": "8e3acba8-0f8c-4dba-87e3-885ca8b77a77",
    "types": [
      "singers",
      "2",
      "songwriters",
      "8"
    ]
  }
}