{
  "header": {
    "description": "Karaoke Mugen Tag File",
    "version": 1
  },
  "tag": {
    "aliases": [
      "Tenchi Muyou! TV",
      "Tenchi Universe",
      "muyou"
    ],
    "external_database_ids": {
      "anilist": 696,
      "myanimelist": 696,
      "kitsu": 637
    },
    "i18n": {
      "eng": "Tenchi Muyo! Tenchi Universe",
      "fre": "Tenchi Muyo! Tenchi Universe",
      "jpn": "天地無用！",
      "qro": "Tenchi Muyô!"
    },
    "modified_at": "2020-03-31T19:04:32.926Z",
    "name": "Tenchi Muyô!",
    "repository": "kara.moe",
    "tid": "219e1d18-bc4f-47d5-bed8-04c15f919903",
    "types": [
      "series",
      "1"
    ]
  }
}