{
  "header": {
    "description": "Karaoke Mugen Tag File",
    "version": 1
  },
  "tag": {
    "aliases": [
      "Tenchi Muyou! in Love",
      "Tenchi Universe in Love"
    ],
    "external_database_ids": {
      "anilist": 1006,
      "myanimelist": 1006,
      "kitsu": 896
    },
    "i18n": {
      "eng": "Tenchi Muyo! in Love",
      "fre": "Tenchi Muyô! in Love",
      "jpn": "天地無用 IN LOVE!",
      "qro": "Tenchi Muyo In Love"
    },
    "modified_at": "2020-03-31T19:04:32.926Z",
    "name": "Tenchi Muyo In Love",
    "repository": "kara.moe",
    "tid": "becf22a7-9e04-4de7-ad57-6a640cd9436f",
    "types": [
      "series",
      "1"
    ]
  }
}