{
  "header": {
    "description": "Karaoke Mugen Tag File",
    "version": 1
  },
  "tag": {
    "i18n": {
      "eng": "Tenchi Muyô!"
    },
    "name": "Tenchi Muyô!",
    "repository": "kara.moe",
    "tid": "519cfd73-8f5c-4a1a-8022-d2f78133d434",
    "types": [
      "franchises",
      "18"
    ]
  }
}