{
  "header": {
    "description": "Karaoke Mugen Tag File",
    "version": 1
  },
  "tag": {
    "aliases": [
      "ttgl Parallel Works",
      "ttgl pw",
      "グレパラ",
      "그렌라간 Parallel Works"
    ],
    "external_database_ids": {
      "anilist": 4705,
      "myanimelist": 4705,
      "kitsu": 3751
    },
    "i18n": {
      "eng": "Gurren Lagann Parallel Works",
      "jpn": "グレンラガン パラレルワークス",
      "qro": "Tengen Toppa Gurren Lagann Parallel Works"
    },
    "modified_at": "2020-06-21T23:45:31.966Z",
    "name": "Tengen Toppa Gurren Lagann Parallel Works",
    "repository": "kara.moe",
    "tid": "2c652154-3d14-4a9a-87e0-202fc8a7ca36",
    "types": [
      "series",
      "1"
    ]
  }
}