{
  "header": {
    "description": "Karaoke Mugen Tag File",
    "version": 1
  },
  "tag": {
    "aliases": [
      "TTGL Yoko Box"
    ],
    "external_database_ids": {
      "anilist": 6548,
      "myanimelist": 6548,
      "kitsu": 4605
    },
    "i18n": {
      "eng": "Gurren Lagann: Kirameki★Yoko Box ‒ Pieces of Sweet Stars",
      "jpn": "天元突破グレンラガン キラメキ☆ヨーコBOX~Pieces of sweet stars~",
      "qro": "Tengen Toppa Gurren Lagann Kirameki Yoko Box Pieces of Sweet Stars"
    },
    "modified_at": "2020-03-31T19:04:32.926Z",
    "name": "Tengen Toppa Gurren Lagann Kirameki Yoko Box Pieces of Sweet Stars",
    "repository": "kara.moe",
    "tid": "1797facd-730c-40cf-bb23-1bc1380aca1a",
    "types": [
      "series",
      "1"
    ]
  }
}