{
  "header": {
    "description": "Karaoke Mugen Tag File",
    "version": 1
  },
  "tag": {
    "aliases": [
      "Castle in the Sky",
      "Laputa : Le château dans le ciel",
      "Laputa: Castel în Cer",
      "Laputa: O Castelo no Céu",
      "Laputa: The Flying Island",
      "Tenku no shiro Laputa",
      "Лапута",
      "Небесний замок Лапута"
    ],
    "external_database_ids": {
      "anilist": 513,
      "myanimelist": 513,
      "kitsu": 472
    },
    "i18n": {
      "bul": "Лапута: Замъкът в Небето",
      "chi": "天空之城",
      "cze": "Laputa: Nebeský zámek",
      "eng": "Laputa: Castle in the Sky",
      "est": "Laputa, lendav kindlus",
      "fin": "Laputa: Linna taivaalla",
      "fre": "Le Château dans le ciel",
      "ger": "Das Schloss im Himmel",
      "gre": "Το Κάστρο στον Ουρανό",
      "heb": "הטירה בשמיים",
      "hun": "Laputa - Az égi palota",
      "ita": "Laputa - Il castello nel cielo",
      "jpn": "天空の城ラピュタ",
      "kor": "천공의 성 라퓨타",
      "lit": "Dangaus pilis Laputa",
      "nor": "Laputa: Himmelslottet",
      "pol": "Laputa - podniebny Zamek",
      "por": "O Castelo no Céu",
      "rus": "Небесный замок Лапута",
      "spa": "El Castillo en el Cielo",
      "swe": "Laputa - Slottet i himlen",
      "tha": "ลาพิวต้า พลิกตำนานเหนือเวหา",
      "tur": "Gökteki Kale",
      "qro": "Tenkuu no shiro Laputa"
    },
    "modified_at": "2020-06-21T23:45:31.966Z",
    "name": "Tenkuu no shiro Laputa",
    "repository": "kara.moe",
    "tid": "8fda0bc2-bffa-46e8-8c54-df7494e6dc2c",
    "types": [
      "series",
      "1"
    ]
  }
}