{
  "header": {
    "description": "Karaoke Mugen Tag File",
    "version": 1
  },
  "tag": {
    "i18n": {
      "eng": "TenmaWorks"
    },
    "name": "TenmaWorks",
    "repository": "kara.moe",
    "tid": "df9cb48f-334e-4ceb-b26e-e254ad323492",
    "types": [
      "authors",
      "6"
    ]
  }
}