{
  "header": {
    "description": "Karaoke Mugen Tag File",
    "version": 1
  },
  "tag": {
    "i18n": {
      "eng": "Tenpei Satô"
    },
    "name": "Tenpei Satô",
    "tid": "b0074a75-4ba6-4e48-81f2-3ea258dc4a18",
    "types": [
      "songwriters",
      "8",
      "singers",
      "2"
    ],
    "repository": "kara.moe",
    "modified_at": "2020-03-31T19:04:38.051Z"
  }
}