{
  "header": {
    "description": "Karaoke Mugen Tag File",
    "version": 1
  },
  "tag": {
    "aliases": [
      "isekai slime",
      "Moi quand je me réincarne en slime"
    ],
    "external_database_ids": {
      "anilist": 116741,
      "myanimelist": 41488,
      "kitsu": 43089
    },
    "i18n": {
      "eng": "Slime Diaries: That Time I Got Reincarnated as a Slime",
      "jpn": "転スラ日記 転生したらスライムだった件",
      "kor": "베루도라 일기: 전생했더니 슬라임이었던 건",
      "fre": "The Slime Diaries",
      "qro": "Tensura Nikki: Tensei Shitara Slime Datta Ken"
    },
    "modified_at": "2021-05-09T12:22:57.888Z",
    "name": "Tensura Nikki: Tensei Shitara Slime Datta Ken",
    "repository": "kara.moe",
    "tid": "2b49b7c5-a77f-4838-8bdf-ebab98f7ffa0",
    "types": [
      "series",
      "1"
    ]
  }
}