{
  "header": {
    "description": "Karaoke Mugen Tag File",
    "version": 1
  },
  "tag": {
    "i18n": {
      "eng": "Tenta Sugisaka"
    },
    "name": "Tenta Sugisaka",
    "tid": "c9c830c9-3e42-4d67-8826-406ceed76432",
    "types": [
      "songwriters",
      "8"
    ],
    "repository": "kara.moe",
    "modified_at": "2020-03-31T19:04:38.052Z"
  }
}