{
  "header": {
    "description": "Karaoke Mugen Tag File",
    "version": 1
  },
  "tag": {
    "i18n": {
      "eng": "Tephe"
    },
    "name": "Tephe",
    "repository": "kara.moe",
    "tid": "42dcaea3-14ab-458c-bead-240b5885af64",
    "types": [
      "songwriters",
      "8"
    ]
  }
}