{
  "header": {
    "description": "Karaoke Mugen Tag File",
    "version": 1
  },
  "tag": {
    "i18n": {
      "eng": "Tera"
    },
    "name": "Tera",
    "tid": "2d7bfc96-395a-4e18-8030-1318159abacb",
    "types": [
      "songwriters",
      "8"
    ],
    "repository": "kara.moe",
    "modified_at": "2020-03-31T19:04:38.054Z"
  }
}