{
  "header": {
    "description": "Karaoke Mugen Tag File",
    "version": 1
  },
  "tag": {
    "i18n": {
      "eng": "Terrence Ma"
    },
    "name": "Terrence Ma",
    "tid": "578d9280-817a-41b7-abdc-e4cc42fc0ae5",
    "types": [
      "songwriters",
      "8"
    ],
    "repository": "kara.moe",
    "modified_at": "2020-03-31T19:04:38.055Z"
  }
}