{
  "header": {
    "description": "Karaoke Mugen Tag File",
    "version": 1
  },
  "tag": {
    "aliases": [
      "Chikyuu e...",
      "Kampen om Jorden",
      "Towards the Terra"
    ],
    "external_database_ids": {
      "anilist": 2560,
      "myanimelist": 2560,
      "kitsu": 2325
    },
    "i18n": {
      "eng": "Toward the Terra",
      "fin": "Taistelu Maasta",
      "fre": "Terra e...",
      "jpn": "地球[テラ]へ...",
      "swe": "Toward the Terra: Kampen om Jorden",
      "qro": "Terra e..."
    },
    "modified_at": "2020-03-31T19:04:32.940Z",
    "name": "Terra e...",
    "repository": "kara.moe",
    "tid": "06eaf8b6-5134-4e68-99ad-26f4fa49c7d0",
    "types": [
      "series",
      "1"
    ]
  }
}