{
  "header": {
    "description": "Karaoke Mugen Tag File",
    "version": 1
  },
  "tag": {
    "i18n": {
      "eng": "Terukado"
    },
    "name": "Terukado",
    "tid": "fad678b2-3c1c-4162-8efc-eb6fee54a385",
    "types": [
      "songwriters",
      "8"
    ],
    "repository": "kara.moe",
    "modified_at": "2020-03-31T19:04:38.058Z"
  }
}