{
  "header": {
    "description": "Karaoke Mugen Tag File",
    "version": 1
  },
  "tag": {
    "i18n": {
      "eng": "Tetsuko Honma"
    },
    "name": "Tetsuko Honma",
    "tid": "cfd03011-5926-47d6-a8ab-c0c1f09649b0",
    "types": [
      "songwriters",
      "8"
    ],
    "repository": "kara.moe",
    "modified_at": "2020-03-31T19:04:38.067Z"
  }
}