{
  "header": {
    "description": "Karaoke Mugen Tag File",
    "version": 1
  },
  "tag": {
    "i18n": {
      "eng": "Tetsuya Murakami"
    },
    "name": "Tetsuya Murakami",
    "tid": "7057a2af-d327-416b-8277-32c0685b6826",
    "types": [
      "songwriters",
      "8"
    ],
    "repository": "kara.moe",
    "modified_at": "2020-03-31T19:04:38.074Z"
  }
}