{
  "header": {
    "description": "Karaoke Mugen Tag File",
    "version": 1
  },
  "tag": {
    "i18n": {
      "eng": "Tetsuya Shitara"
    },
    "name": "Tetsuya Shitara",
    "tid": "f3829b25-1d19-4a77-be88-70d9a3f1d5a3",
    "types": [
      "songwriters",
      "8"
    ],
    "repository": "kara.moe",
    "modified_at": "2020-03-31T19:04:38.076Z"
  }
}