{
  "header": {
    "description": "Karaoke Mugen Tag File",
    "version": 1
  },
  "tag": {
    "i18n": {
      "eng": "Tetsuji Ayashi"
    },
    "name": "Tetsuji Ayashi",
    "tid": "0f54805c-fc02-4e27-8c73-7b4b6104fbc8",
    "types": [
      "songwriters",
      "8"
    ],
    "repository": "kara.moe",
    "modified_at": "2020-03-31T19:04:38.066Z"
  }
}