{
  "header": {
    "description": "Karaoke Mugen Tag File",
    "version": 1
  },
  "tag": {
    "i18n": {
      "eng": "Tetsuhiko Suzuki"
    },
    "name": "Tetsuhiko Suzuki",
    "tid": "f1a49c25-3212-41c1-9ee7-e0845aa8e670",
    "types": [
      "songwriters",
      "8"
    ],
    "repository": "kara.moe",
    "modified_at": "2020-03-31T19:04:38.065Z"
  }
}