{
  "header": {
    "description": "Karaoke Mugen Tag File",
    "version": 1
  },
  "tag": {
    "i18n": {
      "eng": "Tetsuya Komuro"
    },
    "name": "Tetsuya Komuro",
    "tid": "0f0afbed-006d-49ed-90e3-c054b178d18c",
    "types": [
      "songwriters",
      "8",
      "singers",
      "2"
    ],
    "repository": "kara.moe",
    "modified_at": "2020-03-31T19:04:38.074Z"
  }
}