{
  "header": {
    "description": "Karaoke Mugen Tag File",
    "version": 1
  },
  "tag": {
    "aliases": [
      "Birdy the Mighty Decode - The Cipher",
      "Birdy the Mighty Decode 0"
    ],
    "external_database_ids": {
      "anilist": 6380,
      "myanimelist": 6380,
      "kitsu": 4539
    },
    "i18n": {
      "eng": "Birdy the Mighty: Decode ~ The Cipher",
      "jpn": "鉄腕バーディー DECODE -THE CIPHER-",
      "qro": "Tetsuwan Birdy Decode The Cipher"
    },
    "modified_at": "2020-03-31T19:04:32.945Z",
    "name": "Tetsuwan Birdy Decode The Cipher",
    "repository": "kara.moe",
    "tid": "e97f8bb8-0b84-45c2-b008-391e190a7816",
    "types": [
      "series",
      "1"
    ]
  }
}