{
  "header": {
    "description": "Karaoke Mugen Tag File",
    "version": 1
  },
  "tag": {
    "i18n": {
      "eng": "TETSUYA"
    },
    "name": "TETSUYA",
    "tid": "01623729-e862-4ae3-b3b0-abc21e13142e",
    "types": [
      "singers",
      "2",
      "songwriters",
      "8"
    ],
    "repository": "kara.moe",
    "modified_at": "2020-03-31T19:04:38.079Z"
  }
}