{
  "header": {
    "description": "Karaoke Mugen Tag File",
    "version": 1
  },
  "tag": {
    "i18n": {
      "eng": "Tetsuya Tsujihata"
    },
    "name": "Tetsuya Tsujihata",
    "tid": "38616a28-2827-4a4f-9bf9-8865aef3f076",
    "types": [
      "songwriters",
      "8"
    ],
    "repository": "kara.moe",
    "modified_at": "2020-03-31T19:04:38.077Z"
  }
}