{
  "header": {
    "description": "Karaoke Mugen Tag File",
    "version": 1
  },
  "tag": {
    "i18n": {
      "eng": "Tetsuya Furumoto"
    },
    "name": "Tetsuya Furumoto",
    "tid": "8acebed5-c09b-4549-ad49-e6b50d11d7d3",
    "types": [
      "songwriters",
      "8"
    ],
    "repository": "kara.moe",
    "modified_at": "2020-03-31T19:04:38.071Z"
  }
}