{
  "header": {
    "description": "Karaoke Mugen Tag File",
    "version": 1
  },
  "tag": {
    "i18n": {
      "eng": "Tetsushi Enami"
    },
    "name": "Tetsushi Enami",
    "tid": "bea9e5f6-4463-44bd-aefb-9589ad395eba",
    "types": [
      "songwriters",
      "8"
    ],
    "repository": "kara.moe",
    "modified_at": "2020-03-31T19:04:38.070Z"
  }
}