{
  "header": {
    "description": "Karaoke Mugen Tag File",
    "version": 1
  },
  "tag": {
    "aliases": [
      "Iron Man Tiger 7"
    ],
    "i18n": {
      "eng": "Tetsujin Tiger Seven",
      "jpn": "鉄人タイガーセブン",
      "qro": "Tetsujin Tiger Seven"
    },
    "modified_at": "2020-03-31T19:04:32.944Z",
    "name": "Tetsujin Tiger Seven",
    "repository": "kara.moe",
    "tid": "4181d04c-b30c-4144-80c5-6bc204fc7701",
    "types": [
      "series",
      "1"
    ]
  }
}