{
  "header": {
    "description": "Karaoke Mugen Tag File",
    "version": 1
  },
  "tag": {
    "aliases": [
      "テクノライズ"
    ],
    "external_database_ids": {
      "anilist": 26,
      "myanimelist": 26,
      "kitsu": 17
    },
    "i18n": {
      "eng": "Texhnolyze",
      "jpn": "TEXHNOLYZE",
      "qro": "Texhnolyze"
    },
    "modified_at": "2020-03-31T19:04:32.947Z",
    "name": "Texhnolyze",
    "repository": "kara.moe",
    "tid": "4dc90004-fd1c-43b3-9ff6-097432b84819",
    "types": [
      "series",
      "1"
    ]
  }
}