{
  "header": {
    "description": "Karaoke Mugen Tag File",
    "version": 1
  },
  "tag": {
    "aliases": [
      "Bob l'Éponge"
    ],
    "i18n": {
      "jpn": "The SpongeBob SquarePants Anime",
      "qro": "The SpongeBob SquarePants Anime"
    },
    "modified_at": "2021-02-14T14:52:55.175Z",
    "name": "The SpongeBob SquarePants Anime",
    "repository": "kara.moe",
    "tid": "f6ea1caa-d983-4abc-944d-78e780712194",
    "types": [
      "series",
      "1"
    ]
  }
}