{
  "header": {
    "description": "Karaoke Mugen Tag File",
    "version": 1
  },
  "tag": {
    "i18n": {
      "eng": "The Jim Henson Company"
    },
    "name": "The Jim Henson Company",
    "repository": "kara.moe",
    "tid": "50a3515e-e33a-4702-9ae1-3c8a91b58dbd",
    "types": [
      "creators",
      "4"
    ],
    "modified_at": "2020-03-31T19:04:38.106Z"
  }
}