{
  "header": {
    "description": "Karaoke Mugen Tag File",
    "version": 1
  },
  "tag": {
    "i18n": {
      "eng": "The Arrows"
    },
    "name": "The Arrows",
    "tid": "6fbb4797-fb24-4dfb-9e07-4390cd9b0640",
    "types": [
      "singers",
      "2"
    ],
    "repository": "kara.moe",
    "modified_at": "2020-03-31T19:04:38.086Z"
  }
}