{
  "header": {
    "description": "Karaoke Mugen Tag File",
    "version": 1
  },
  "tag": {
    "i18n": {
      "eng": "The Living Tombstone"
    },
    "name": "The Living Tombstone",
    "repository": "kara.moe",
    "tid": "e6d67247-b98c-4a1d-b622-110ed7f00150",
    "types": [
      "creators",
      "4"
    ]
  }
}