{
  "header": {
    "description": "Karaoke Mugen Tag File",
    "version": 1
  },
  "tag": {
    "i18n": {
      "eng": "The Flaming Lips"
    },
    "name": "The Flaming Lips",
    "tid": "feea79a2-fb2b-4344-832a-6379d4f3a6ac",
    "types": [
      "singers",
      "2"
    ],
    "repository": "kara.moe",
    "modified_at": "2020-03-31T19:04:38.100Z"
  }
}