{
  "header": {
    "description": "Karaoke Mugen Tag File",
    "version": 1
  },
  "tag": {
    "i18n": {
      "eng": "THE DU"
    },
    "name": "THE DU",
    "tid": "e7ed98b8-c8c7-41d5-95a5-bb84c074e9ef",
    "types": [
      "singers",
      "2"
    ],
    "repository": "kara.moe",
    "modified_at": "2020-03-31T19:04:38.097Z"
  }
}