{
  "header": {
    "description": "Karaoke Mugen Tag File",
    "version": 1
  },
  "tag": {
    "aliases": [
      "Big O Roger",
      "The Big-O"
    ],
    "external_database_ids": {
      "anilist": 567,
      "myanimelist": 567,
      "kitsu": 524
    },
    "i18n": {
      "eng": "The Big O",
      "fre": "The Big O",
      "jpn": "THEビッグオー",
      "qro": "The Big O"
    },
    "modified_at": "2020-03-31T19:04:32.948Z",
    "name": "The Big O",
    "repository": "kara.moe",
    "tid": "72470240-8074-4f10-bba7-2051a96bdd8d",
    "types": [
      "series",
      "1"
    ]
  }
}