{
  "header": {
    "description": "Karaoke Mugen Tag File",
    "version": 1
  },
  "tag": {
    "i18n": {
      "eng": "The Edge"
    },
    "name": "The Edge",
    "tid": "9f8b4d76-120b-4826-b414-243e5052ff0b",
    "types": [
      "singers",
      "2"
    ],
    "repository": "kara.moe",
    "modified_at": "2020-03-31T19:04:38.098Z"
  }
}