{
  "header": {
    "description": "Karaoke Mugen Tag File",
    "version": 1
  },
  "tag": {
    "i18n": {
      "fre": "Les Minipouss",
      "jpn": "The Littles",
      "qro": "The Littles"
    },
    "modified_at": "2020-03-31T19:04:32.963Z",
    "name": "The Littles",
    "repository": "kara.moe",
    "tid": "1b9df73b-b31b-4813-a270-b0f2ec8f4104",
    "types": [
      "series",
      "1"
    ]
  }
}