{
  "header": {
    "description": "Karaoke Mugen Tag File",
    "version": 1
  },
  "tag": {
    "i18n": {
      "eng": "The Birthday"
    },
    "name": "The Birthday",
    "tid": "b6fe0f48-5a13-4d1b-ad3e-2e8ea0e80911",
    "types": [
      "singers",
      "2",
      "songwriters",
      "8"
    ],
    "repository": "kara.moe",
    "modified_at": "2020-03-31T19:04:38.091Z"
  }
}