{
  "header": {
    "description": "Karaoke Mugen Tag File",
    "version": 1
  },
  "tag": {
    "i18n": {
      "eng": "The Temper Trap"
    },
    "modified_at": "2020-09-26T18:03:22.241Z",
    "name": "The Temper Trap",
    "repository": "kara.moe",
    "tid": "0bda2cdb-adaa-4dcf-8fbb-b10efdad3cdb",
    "types": [
      "songwriters",
      "8"
    ]
  }
}