{
  "header": {
    "description": "Karaoke Mugen Tag File",
    "version": 1
  },
  "tag": {
    "i18n": {
      "eng": "The Gentle Men"
    },
    "modified_at": "2021-01-03T10:19:35.808Z",
    "name": "The Gentle Men",
    "repository": "kara.moe",
    "tid": "558634ab-f840-4c32-a73c-73c7cc7d5892",
    "types": [
      "singers",
      "2"
    ]
  }
}