{
  "header": {
    "description": "Karaoke Mugen Tag File",
    "version": 1
  },
  "tag": {
    "i18n": {
      "eng": "The Black Keys"
    },
    "modified_at": "2020-08-25T15:20:22.262Z",
    "name": "The Black Keys",
    "repository": "kara.moe",
    "tid": "49724cf3-7630-457f-abf0-9a6af3cce207",
    "types": [
      "songwriters",
      "8",
      "singers",
      "2"
    ]
  }
}