{
  "header": {
    "description": "Karaoke Mugen Tag File",
    "version": 1
  },
  "tag": {
    "i18n": {
      "eng": "The Big Bang Theory"
    },
    "modified_at": "2021-01-15T22:11:19.218Z",
    "name": "The Big Bang Theory",
    "repository": "kara.moe",
    "tid": "9b0ea65b-0be2-47e7-9cf6-8c4d9313226b",
    "types": [
      "series",
      "1"
    ]
  }
}