{
  "header": {
    "description": "Karaoke Mugen Tag File",
    "version": 1
  },
  "tag": {
    "aliases": [
      "Gregory Holgate"
    ],
    "i18n": {
      "eng": "The Stupendium"
    },
    "name": "The Stupendium",
    "repository": "kara.moe",
    "tid": "59489437-5fed-48c0-9021-ac265acb60b0",
    "types": [
      "singers",
      "2"
    ]
  }
}