{
  "header": {
    "description": "Karaoke Mugen Tag File",
    "version": 1
  },
  "tag": {
    "i18n": {
      "eng": "THE FIRST TAKE"
    },
    "name": "THE FIRST TAKE",
    "repository": "kara.moe",
    "tid": "b4889bcc-a32f-47d6-b594-f10633063269",
    "types": [
      "creators",
      "4"
    ]
  }
}