{
  "header": {
    "description": "Karaoke Mugen Tag File",
    "version": 1
  },
  "tag": {
    "i18n": {
      "eng": "The Vaccines"
    },
    "modified_at": "2020-09-26T18:03:22.322Z",
    "name": "The Vaccines",
    "repository": "kara.moe",
    "tid": "6b93a1b1-0d8a-45e5-be23-50eb94fb2161",
    "types": [
      "songwriters",
      "8"
    ]
  }
}