{
  "header": {
    "description": "Karaoke Mugen Tag File",
    "version": 1
  },
  "tag": {
    "i18n": {
      "eng": "The Cardigans"
    },
    "name": "The Cardigans",
    "repository": "kara.moe",
    "tid": "d62ebdc1-8527-4b5f-93ce-e290de460733",
    "types": [
      "singers",
      "2"
    ]
  }
}