{
  "header": {
    "description": "Karaoke Mugen Tag File",
    "version": 1
  },
  "tag": {
    "i18n": {
      "chi": "猫儿历险记",
      "dut": "De Aristokatten",
      "eng": "The Aristocats",
      "fre": "Les Aristochats",
      "ger": "Aristocats",
      "ita": "Gli Aristogatti",
      "jpn": "おしゃれキャット",
      "kor": "아리스토캣",
      "spa": "Los Aristogatos",
      "qro": "The Aristocats"
    },
    "modified_at": "2020-03-31T19:04:32.948Z",
    "name": "The Aristocats",
    "repository": "kara.moe",
    "tid": "5c241e86-e6d8-476f-888b-86d4fadc6298",
    "types": [
      "series",
      "1"
    ]
  }
}