{
  "header": {
    "description": "Karaoke Mugen Tag File",
    "version": 1
  },
  "tag": {
    "i18n": {
      "eng": "THE SIXTH LIE"
    },
    "name": "THE SIXTH LIE",
    "tid": "0fe76c0d-09b8-4350-a70b-b375f17edf6d",
    "types": [
      "singers",
      "2"
    ],
    "repository": "kara.moe",
    "modified_at": "2020-03-31T19:04:38.121Z"
  }
}