{
  "header": {
    "description": "Karaoke Mugen Tag File",
    "version": 1
  },
  "tag": {
    "i18n": {
      "eng": "the pillows"
    },
    "name": "the pillows",
    "tid": "278eeffa-7d51-48a4-85a7-b10843f26cdf",
    "types": [
      "singers",
      "2",
      "songwriters",
      "8",
      "creators",
      "4"
    ],
    "repository": "kara.moe",
    "modified_at": "2020-03-31T19:04:38.115Z"
  }
}