{
  "header": {
    "description": "Karaoke Mugen Tag File",
    "version": 1
  },
  "tag": {
    "aliases": [
      "THE iDOLMASTER",
      "iM@S",
      "imas",
      "theimas"
    ],
    "external_database_ids": {
      "anilist": 10278,
      "myanimelist": 10278,
      "kitsu": 6111
    },
    "i18n": {
      "eng": "THE iDOLM@STER",
      "jpn": "アイドルマスタ",
      "kor": "아이돌 마스터",
      "qro": "THE iDOLM@STER"
    },
    "modified_at": "2020-03-31T19:04:32.959Z",
    "name": "THE iDOLM@STER",
    "repository": "kara.moe",
    "tid": "d34ceea8-7d7c-4d85-9213-18d24d2b7666",
    "types": [
      "series",
      "1",
      "franchises",
      "18"
    ]
  }
}