{
  "header": {
    "description": "Karaoke Mugen Tag File",
    "version": 1
  },
  "tag": {
    "aliases": [
      "THE iDOLM@STER Movie: Kagayaki no Mukougawa e!",
      "THE iDOLMASTER Movie: Kagayaki no Mukougawa e!",
      "mukougawa"
    ],
    "external_database_ids": {
      "anilist": 17437,
      "myanimelist": 17437,
      "kitsu": 7824
    },
    "i18n": {
      "eng": "THE iDOLM@STER Movie: Beyond the Brilliant Future!",
      "jpn": "THE IDOLM＠STER MOVIE 輝きの向こう側へ！",
      "qro": "THE iDOLM@STER Movie: Kagayaki no Mukôgawa e!"
    },
    "modified_at": "2020-03-31T19:04:32.956Z",
    "name": "THE iDOLM@STER Movie: Kagayaki no Mukôgawa e!",
    "repository": "kara.moe",
    "tid": "636a8895-600c-4f8d-890e-883f5bbecdeb",
    "types": [
      "series",
      "1"
    ]
  }
}