{
  "header": {
    "description": "Karaoke Mugen Tag File",
    "version": 1
  },
  "tag": {
    "i18n": {
      "eng": "The Knight Sabers"
    },
    "name": "The Knight Sabers",
    "tid": "8a8887b1-15ff-42fc-a51a-70788f30a020",
    "types": [
      "singers",
      "2"
    ],
    "repository": "kara.moe",
    "modified_at": "2020-03-31T19:04:38.108Z"
  }
}