{
  "header": {
    "description": "Karaoke Mugen Tag File",
    "version": 1
  },
  "tag": {
    "i18n": {
      "eng": "THEATRE BROOK"
    },
    "name": "THEATRE BROOK",
    "tid": "2b41ccca-1352-4c08-8f81-bd566ae3d133",
    "types": [
      "singers",
      "2"
    ],
    "repository": "kara.moe",
    "modified_at": "2020-03-31T19:04:38.127Z"
  }
}