{
  "header": {
    "description": "Karaoke Mugen Tag File",
    "version": 1
  },
  "tag": {
    "aliases": [
      "Pantaleao"
    ],
    "i18n": {
      "por": "Thiago Pantaleão"
    },
    "name": "Thiago Pantaleão",
    "repository": "kara.moe",
    "tid": "8e92af39-12ed-4ea8-8277-ef3814bbb9a1",
    "types": [
      "singers",
      "2",
      "songwriters",
      "8"
    ]
  }
}