{
  "header": {
    "description": "Karaoke Mugen Tag File",
    "version": 1
  },
  "tag": {
    "i18n": {
      "eng": "Thierry le Luron"
    },
    "name": "Thierry le Luron",
    "tid": "6448c3ec-d27a-4107-93f2-8462bb49d044",
    "types": [
      "singers",
      "2"
    ],
    "repository": "kara.moe",
    "modified_at": "2020-03-31T19:04:38.129Z"
  }
}