{
  "header": {
    "description": "Karaoke Mugen Tag File",
    "version": 1
  },
  "tag": {
    "i18n": {
      "eng": "Thinking Dogs"
    },
    "modified_at": "2020-08-17T20:50:37.618Z",
    "name": "Thinking Dogs",
    "repository": "kara.moe",
    "tid": "ac527de3-9ae7-4cca-95e4-f38d667531a5",
    "types": [
      "singers",
      "2"
    ]
  }
}