{
  "header": {
    "description": "Karaoke Mugen Tag File",
    "version": 1
  },
  "tag": {
    "i18n": {
      "eng": "Thomas Cyrix"
    },
    "name": "Thomas Cyrix",
    "repository": "kara.moe",
    "tid": "a31ea7ea-6065-4fe5-8d19-bfc54e7ca043",
    "types": [
      "singers",
      "2"
    ]
  }
}