{
  "header": {
    "description": "Karaoke Mugen Tag File",
    "version": 1
  },
  "tag": {
    "i18n": {
      "eng": "Thom Green"
    },
    "name": "Thom Green",
    "tid": "6686f407-e42e-441b-b4a1-d95ba7804b70",
    "types": [
      "songwriters",
      "8"
    ],
    "repository": "kara.moe",
    "modified_at": "2020-03-31T19:04:38.130Z"
  }
}