{
  "header": {
    "description": "Karaoke Mugen Tag File",
    "version": 1
  },
  "tag": {
    "i18n": {
      "eng": "THRIVE"
    },
    "name": "THRIVE",
    "repository": "kara.moe",
    "tid": "120ff882-45d0-4054-8418-277e50b197e1",
    "types": [
      "singers",
      "2"
    ]
  }
}