{
  "header": {
    "description": "Karaoke Mugen Tag File",
    "version": 1
  },
  "tag": {
    "i18n": {
      "eng": "Tiara"
    },
    "name": "Tiara",
    "repository": "kara.moe",
    "tid": "912f7a24-a015-42bb-ae35-48eb200fc5ad",
    "types": [
      "singers",
      "2"
    ]
  }
}