{
  "header": {
    "description": "Karaoke Mugen Tag File",
    "version": 1
  },
  "tag": {
    "i18n": {
      "eng": "Tica·α"
    },
    "name": "Tica·α",
    "tid": "6a4ddfcf-aaf4-48e5-af2b-6f6f9451881e",
    "types": [
      "songwriters",
      "8"
    ],
    "repository": "kara.moe",
    "modified_at": "2020-03-31T19:04:38.139Z"
  }
}