{
  "header": {
    "description": "Karaoke Mugen Tag File",
    "version": 1
  },
  "tag": {
    "i18n": {
      "eng": "Tiffin Boys' Choir"
    },
    "name": "Tiffin Boys' Choir",
    "tid": "e73dc53c-f613-425c-8c38-e2b944541936",
    "types": [
      "singers",
      "2"
    ],
    "repository": "kara.moe",
    "modified_at": "2020-03-31T19:04:38.140Z"
  }
}