{
  "header": {
    "description": "Karaoke Mugen Tag File",
    "version": 1
  },
  "tag": {
    "i18n": {
      "eng": "Tim Bergling"
    },
    "modified_at": "2020-05-07T17:24:29.799Z",
    "name": "Tim Bergling",
    "repository": "kara.moe",
    "tid": "44d55d2e-6e12-40f5-b80e-50f29427e306",
    "types": [
      "songwriters",
      "8"
    ]
  }
}