{
  "header": {
    "description": "Karaoke Mugen Tag File",
    "version": 1
  },
  "tag": {
    "i18n": {
      "eng": "Timekiller_74"
    },
    "modified_at": "2021-01-09T21:38:54.585Z",
    "name": "Timekiller_74",
    "repository": "kara.moe",
    "tid": "4f3239d4-be4d-42d6-b33c-3905d3adaa62",
    "types": [
      "songwriters",
      "8",
      "creators",
      "4"
    ]
  }
}