{
  "header": {
    "description": "Karaoke Mugen Tag File",
    "version": 1
  },
  "tag": {
    "i18n": {
      "eng": "Tinky"
    },
    "name": "Tinky",
    "tid": "42f818e2-45eb-46f0-b78c-5f452d178048",
    "types": [
      "authors",
      "6"
    ],
    "repository": "kara.moe",
    "modified_at": "2020-03-31T19:04:38.145Z"
  }
}