{
  "header": {
    "description": "Karaoke Mugen Tag File",
    "version": 1
  },
  "tag": {
    "i18n": {
      "eng": "TK+9 Factory"
    },
    "name": "TK+9 Factory",
    "tid": "d9531380-23f6-4fad-a422-0c037341f20b",
    "types": [
      "singers",
      "2",
      "songwriters",
      "8"
    ],
    "repository": "kara.moe",
    "modified_at": "2020-03-31T19:04:38.147Z"
  }
}