{
  "header": {
    "description": "Karaoke Mugen Tag File",
    "version": 1
  },
  "tag": {
    "i18n": {
      "eng": "TKDz2b"
    },
    "name": "TKDz2b",
    "tid": "1db6b980-cd2b-4e83-aea4-e4419952d57c",
    "types": [
      "singers",
      "2"
    ],
    "repository": "kara.moe",
    "modified_at": "2020-03-31T19:04:38.148Z"
  }
}