{
  "header": {
    "description": "Karaoke Mugen Tag File",
    "version": 1
  },
  "tag": {
    "i18n": {
      "eng": "TMABird"
    },
    "name": "TMABird",
    "tid": "05d4c6ac-5a8b-41d2-856a-47bb13dfc340",
    "types": [
      "creators",
      "4"
    ],
    "repository": "kara.moe",
    "modified_at": "2020-03-31T19:04:38.149Z"
  }
}