{
  "header": {
    "description": "Karaoke Mugen Tag File",
    "version": 1
  },
  "tag": {
    "aliases": [
      "Tokyo Movie Shinsha"
    ],
    "i18n": {
      "eng": "TMS ENTERTAINMENT"
    },
    "name": "TMS ENTERTAINMENT",
    "tid": "53e900ec-a1ff-4c95-8b2d-a63995c2936f",
    "types": [
      "creators",
      "4"
    ],
    "repository": "kara.moe",
    "modified_at": "2020-03-31T19:04:38.149Z"
  }
}