{
  "header": {
    "description": "Karaoke Mugen Tag File",
    "version": 1
  },
  "tag": {
    "aliases": [
      "Love Song of a Certain Pilot",
      "The Pilots Love Song"
    ],
    "external_database_ids": {
      "anilist": 19117,
      "myanimelist": 19117,
      "kitsu": 7770
    },
    "i18n": {
      "chi": "献给某飞行员的恋歌",
      "eng": "The Pilot's Love Song",
      "fre": "Love Song pour un pilote",
      "jpn": "とある飛空士への恋歌",
      "qro": "To Aru Hikuushi e no Koiuta"
    },
    "modified_at": "2020-06-21T23:45:31.966Z",
    "name": "To Aru Hikuushi e no Koiuta",
    "repository": "kara.moe",
    "tid": "0536472c-d6f4-42cf-883e-f7b4288db631",
    "types": [
      "series",
      "1"
    ]
  }
}