{
  "header": {
    "description": "Karaoke Mugen Tag File",
    "version": 1
  },
  "tag": {
    "aliases": [
      "To Aru Majutsu no Index Gaiden",
      "Toaru Kagaku no Ippou Tsuukou",
      "Toaru Kagaku no Ippô Tsûkô"
    ],
    "external_database_ids": {
      "anilist": 104463,
      "myanimelist": 38480,
      "kitsu": 41980
    },
    "i18n": {
      "eng": "A Certain Scientific Accelerator",
      "jpn": "とある科学の一方通行〈アクセラレータ〉",
      "qro": "To Aru Kagaku no Accelerator"
    },
    "modified_at": "2020-03-31T19:04:32.981Z",
    "name": "To Aru Kagaku no Accelerator",
    "repository": "kara.moe",
    "tid": "f739c41e-d50d-48a2-a2ad-853d574e5d51",
    "types": [
      "series",
      "1"
    ]
  }
}