{
  "header": {
    "description": "Karaoke Mugen Tag File",
    "version": 1
  },
  "tag": {
    "external_database_ids": {
      "anilist": 20995,
      "myanimelist": 28979,
      "kitsu": 10078
    },
    "i18n": {
      "eng": "To LOVE-Ru: Darkness 2",
      "fre": "To LOVE Darkness 2",
      "jpn": "To LOVEる -とらぶる- ダークネス2nd",
      "qro": "To Love-Ru Darkness 2nd"
    },
    "modified_at": "2020-03-31T19:04:32.986Z",
    "name": "To Love-Ru Darkness 2nd",
    "repository": "kara.moe",
    "tid": "e48d8146-b619-4f79-a40c-6b8b0b4205ea",
    "types": [
      "series",
      "1"
    ]
  }
}