{
  "header": {
    "description": "Karaoke Mugen Tag File",
    "version": 1
  },
  "tag": {
    "aliases": [
      "TLR",
      "Trouble"
    ],
    "i18n": {
      "jpn": "To LOVEる",
      "qro": "To LOVE-Ru"
    },
    "name": "To Love-Ru",
    "repository": "kara.moe",
    "tid": "f8f66e25-b4cd-4240-ac6f-257560c4f26f",
    "types": [
      "franchises",
      "18"
    ]
  }
}