{
  "header": {
    "description": "Karaoke Mugen Tag File",
    "version": 1
  },
  "tag": {
    "i18n": {
      "eng": "TO-MAS"
    },
    "name": "TO-MAS",
    "tid": "3df94b2f-9c56-4ce2-909c-2c419222686a",
    "types": [
      "songwriters",
      "8"
    ],
    "repository": "kara.moe",
    "modified_at": "2020-03-31T19:04:38.151Z"
  }
}