{
  "header": {
    "description": "Karaoke Mugen Tag File",
    "version": 1
  },
  "tag": {
    "aliases": [
      "Tia"
    ],
    "i18n": {
      "eng": "Toho Interactive Animation"
    },
    "modified_at": "2021-01-09T20:46:44.308Z",
    "name": "Toho Interactive Animation",
    "repository": "kara.moe",
    "tid": "47ffb682-9f49-4b94-a0ba-44460b2402c6",
    "types": [
      "creators",
      "4"
    ]
  }
}