{
  "header": {
    "description": "Karaoke Mugen Tag File",
    "version": 1
  },
  "tag": {
    "i18n": {
      "eng": "Tohya"
    },
    "name": "Tohya",
    "tid": "304dd7cf-31a4-4b6a-99b0-387852c4497d",
    "types": [
      "songwriters",
      "8"
    ],
    "repository": "kara.moe",
    "modified_at": "2020-03-31T19:04:38.157Z"
  }
}