{
  "header": {
    "description": "Karaoke Mugen Tag File",
    "version": 1
  },
  "tag": {
    "i18n": {
      "eng": "Tokiwa Hironaka"
    },
    "name": "Tokiwa Hironaka",
    "repository": "kara.moe",
    "tid": "82008ae3-c55c-4f4c-89ff-a1ded003bf20",
    "types": [
      "songwriters",
      "8"
    ]
  }
}