{
  "header": {
    "description": "Karaoke Mugen Tag File",
    "version": 1
  },
  "tag": {
    "aliases": [
      "A Garota que Salta Através do Tempo",
      "A Menina que Corre Através do Tempo",
      "Cô gái đi xuyên thời gian",
      "La ragazza che corre nel tempo",
      "Mergina keliavusi laiku",
      "Mergina kuri persikėlė laike",
      "O dievčati ktoré preskočilo čas",
      "TGWLTT",
      "The Girl Who Cut Time",
      "The Little Girl Who Conquered Time",
      "Toki o Kakeru Shojo",
      "Toki o Kakeru Shoujo",
      "Toki wo Kakeru Shôjo",
      "Zamanda Sıçrayan Kız",
      "tokikake",
      "twks",
      "Девочка перепрыгнувшая время",
      "Дівчинка що стрибала крізь час",
      "הילדה שזינקה מבעד לזמן",
      "הילדה שקפצה בזמן",
      "الفتاة التي قفزت عبر الزمن",
      "穿越时空的少女"
    ],
    "external_database_ids": {
      "anilist": 2236,
      "myanimelist": 2236,
      "kitsu": 2027
    },
    "i18n": {
      "chi": "跳躍吧! 時空少女",
      "cze": "O dívce, která proskočila časem",
      "eng": "The Girl Who Leapt Through Time",
      "est": "Tüdruk, kes hüppas läbi aja",
      "fre": "La Traversée du temps",
      "ger": "Das Mädchen, das durch die Zeit sprang",
      "hrv": "Putovanje kroz vrijeme",
      "ita": "La Ragazza che Saltava nel Tempo",
      "jpn": "時をかける少女",
      "kor": "시간을 달리는 소녀",
      "pol": "O dziewczynie skaczącej przez czas",
      "rus": "Девочка, покорившая время",
      "slv": "Dekle, ki je skočilo skozi čas",
      "spa": "La chica que saltaba a través del tiempo",
      "tha": "กระโดดจัมพ์ ทะลุข้ามเวลา",
      "qro": "Toki wo Kakeru Shoujo"
    },
    "modified_at": "2020-06-21T23:45:31.966Z",
    "name": "Toki wo Kakeru Shoujo",
    "repository": "kara.moe",
    "tid": "f1c57c04-0342-4631-b742-ff1efbfaec76",
    "types": [
      "series",
      "1"
    ]
  }
}