{
  "header": {
    "description": "Karaoke Mugen Tag File",
    "version": 1
  },
  "tag": {
    "i18n": {
      "eng": "Special Rescue Police Winspector",
      "fre": "Winspector",
      "jpn": "特警ウインスペクタ",
      "qro": "Tokkei Winspector"
    },
    "modified_at": "2020-03-31T19:04:32.995Z",
    "name": "Tokkei Winspector",
    "repository": "kara.moe",
    "tid": "d202b8ae-6656-4821-a352-29e3c4aa8bc9",
    "types": [
      "series",
      "1"
    ]
  }
}