{
  "header": {
    "description": "Karaoke Mugen Tag File",
    "version": 1
  },
  "tag": {
    "i18n": {
      "eng": "Tokuko Miura"
    },
    "name": "Tokuko Miura",
    "repository": "kara.moe",
    "tid": "a7737714-b130-46ef-9dd4-b9fa25df03b8",
    "types": [
      "songwriters",
      "8"
    ]
  }
}