{
  "header": {
    "description": "Karaoke Mugen Tag File",
    "version": 1
  },
  "tag": {
    "aliases": [
      "Tokusou Exceedraft",
      "tokusou"
    ],
    "i18n": {
      "eng": "Tokusô Exceedraft",
      "jpn": "特捜エクシードラフト",
      "qro": "Tokusô Exceedraft"
    },
    "modified_at": "2020-03-31T19:04:32.997Z",
    "name": "Tokusô Exceedraft",
    "repository": "kara.moe",
    "tid": "8d06bb69-1a26-4b32-9bb2-5f5ad5b5730e",
    "types": [
      "series",
      "1"
    ]
  }
}