{
  "header": {
    "description": "Karaoke Mugen Tag File",
    "version": 1
  },
  "tag": {
    "aliases": [
      "Mew Mew Power",
      "TMM",
      "Токио Мяу Мяу",
      "طوكيو مياو مياو"
    ],
    "external_database_ids": {
      "anilist": 687,
      "myanimelist": 687,
      "kitsu": 628
    },
    "i18n": {
      "bul": "Силата Миу Миу",
      "chi": "東京喵喵",
      "cze": "Kočičí síla",
      "eng": "Mew Mew Power",
      "fre": "Mew Mew Power",
      "heb": "טוקיו מיו מיו",
      "hrv": "Mijau Mijau Družina",
      "hun": "Vadmacska kommandó",
      "ita": "Mew Mew Amiche Vincenti",
      "jpn": "東京ミュウミュウ",
      "kor": "베리베리 뮤우뮤우",
      "per": "توکیو میو میو",
      "por": "Mew Mew Power",
      "rum": "Puterea echipei Miau-Miau",
      "spa": "Miau Miau Power",
      "srp": "Družina Mjau - Mjau",
      "tha": "ขบวนการ เหมียวเหมียว",
      "qro": "Tokyo Mew Mew"
    },
    "modified_at": "2020-06-21T23:45:31.966Z",
    "name": "Tokyo Mew Mew",
    "repository": "kara.moe",
    "tid": "5cdf2c86-4533-4a94-ad44-c896cd21e8a7",
    "types": [
      "series",
      "1",
      "franchises",
      "18"
    ]
  }
}