{
  "header": {
    "description": "Karaoke Mugen Tag File",
    "version": 1
  },
  "tag": {
    "i18n": {
      "eng": "Tokyo Marble Chocolate",
      "jpn": "東京マーブルチョコレート"
    },
    "name": "Tokyo Marble Chocolate",
    "repository": "kara.moe",
    "tid": "782bd06e-e886-43ac-b5c8-d311c15f0460",
    "types": [
      "series",
      "1"
    ]
  }
}