{
  "header": {
    "description": "Karaoke Mugen Tag File",
    "version": 1
  },
  "tag": {
    "aliases": [
      "Град на мистерии",
      "Паранормално усещане",
      "도쿄 ESP"
    ],
    "external_database_ids": {
      "anilist": 19199,
      "myanimelist": 21353,
      "kitsu": 7706
    },
    "i18n": {
      "eng": "Tokyo ESP",
      "jpn": "東京ESP",
      "fre": "Tokyo ESP",
      "chi": "东京ESP",
      "qro": "Tokyo ESP"
    },
    "modified_at": "2020-08-19T21:11:20.325Z",
    "name": "Tokyo ESP",
    "repository": "kara.moe",
    "tid": "b502cbc5-bf8f-4c68-ad46-22e7c7be561a",
    "types": [
      "series",
      "1"
    ]
  }
}