{
  "header": {
    "description": "Karaoke Mugen Tag File",
    "version": 1
  },
  "tag": {
    "aliases": [
      "Toukyou Shounen Shoujo Gasshoutai",
      "Tokyo Shounen Shoujo Gasshoutai"
    ],
    "i18n": {
      "eng": "Tokyo Shônen Shôjo Gasshôtai",
      "jpn": "東京少年少女合唱隊"
    },
    "modified_at": "2021-09-24T00:53:41.786Z",
    "name": "Tokyo Shônen Shôjo Gasshôtai",
    "repository": "kara.moe",
    "tid": "5f982f77-65c3-4060-9036-2180aee57799",
    "types": [
      "songwriters",
      "8"
    ]
  }
}