{
  "header": {
    "description": "Karaoke Mugen Tag File",
    "version": 1
  },
  "tag": {
    "i18n": {
      "eng": "TOM★CAT"
    },
    "name": "TOM★CAT",
    "tid": "ecf19c36-84fc-4c91-977a-6a96abe3be4f",
    "types": [
      "singers",
      "2"
    ],
    "repository": "kara.moe",
    "modified_at": "2020-03-31T19:04:38.173Z"
  }
}