{
  "header": {
    "description": "Karaoke Mugen Tag File",
    "version": 1
  },
  "tag": {
    "i18n": {
      "eng": "Tom Chaplin"
    },
    "modified_at": "2020-08-16T16:38:13.768Z",
    "name": "Tom Chaplin",
    "repository": "kara.moe",
    "tid": "a0ccea71-a3f9-4675-a678-f26f9e5b1ba6",
    "types": [
      "songwriters",
      "8"
    ]
  }
}