{
  "header": {
    "description": "Karaoke Mugen Tag File",
    "version": 1
  },
  "tag": {
    "i18n": {
      "eng": "tom.m"
    },
    "name": "tom.m",
    "tid": "6ee91777-521d-4bba-a4b3-f6b94d71597b",
    "types": [
      "songwriters",
      "8"
    ],
    "repository": "kara.moe",
    "modified_at": "2020-03-31T19:04:38.176Z"
  }
}