{
  "header": {
    "description": "Karaoke Mugen Tag File",
    "version": 1
  },
  "tag": {
    "i18n": {
      "eng": "Tomiko Van"
    },
    "name": "Tomiko Van",
    "tid": "4ca26970-c146-483f-a2bf-99be0ea4faf7",
    "types": [
      "songwriters",
      "8"
    ],
    "repository": "kara.moe",
    "modified_at": "2020-03-31T19:04:38.180Z"
  }
}