{
  "header": {
    "description": "Karaoke Mugen Tag File",
    "version": 1
  },
  "tag": {
    "i18n": {
      "eng": "Tomoyo Kurosawa"
    },
    "name": "Tomoyo Kurosawa",
    "tid": "fbbfcd25-2f98-4f94-9b7b-cef201df2859",
    "types": [
      "singers",
      "2"
    ],
    "repository": "kara.moe",
    "modified_at": "2020-03-31T19:04:38.225Z"
  }
}