{
  "header": {
    "description": "Karaoke Mugen Tag File",
    "version": 1
  },
  "tag": {
    "i18n": {
      "eng": "Tomomi Narumoto",
      "jpn": "成本智美",
      "qro": "Tomomi Narumoto"
    },
    "name": "Tomomi Narumoto",
    "repository": "kara.moe",
    "tid": "b5f56b31-0d27-4cea-b6ed-22827c8f7cbe",
    "types": [
      "songwriters",
      "8"
    ]
  }
}