{
  "header": {
    "description": "Karaoke Mugen Tag File",
    "version": 1
  },
  "tag": {
    "i18n": {
      "eng": "Tomoko Aoki"
    },
    "modified_at": "2020-05-16T19:26:57.403Z",
    "name": "Tomoko Aoki",
    "repository": "kara.moe",
    "tid": "8184c439-354b-42ab-b012-6b85330c3721",
    "types": [
      "songwriters",
      "8"
    ]
  }
}