{
  "header": {
    "description": "Karaoke Mugen Tag File",
    "version": 1
  },
  "tag": {
    "i18n": {
      "eng": "Tomoya Kinoshita"
    },
    "name": "Tomoya Kinoshita",
    "tid": "dddf9b85-3d6a-486d-b66a-47a3e8cdaa41",
    "types": [
      "songwriters",
      "8"
    ],
    "repository": "kara.moe",
    "modified_at": "2020-03-31T19:04:38.221Z"
  }
}