{
  "header": {
    "description": "Karaoke Mugen Tag File",
    "version": 1
  },
  "tag": {
    "i18n": {
      "eng": "Tomoe Shinohara"
    },
    "name": "Tomoe Shinohara",
    "tid": "9227254a-4eb8-458d-9091-73fe4d3cc132",
    "types": [
      "singers",
      "2"
    ],
    "repository": "kara.moe",
    "modified_at": "2020-03-31T19:04:38.191Z"
  }
}