{
  "header": {
    "description": "Karaoke Mugen Tag File",
    "version": 1
  },
  "tag": {
    "i18n": {
      "eng": "Tomohisa Yamashita"
    },
    "modified_at": "2020-08-18T12:23:56.294Z",
    "name": "Tomohisa Yamashita",
    "repository": "kara.moe",
    "tid": "2c42a555-7a37-41bc-99a6-df456e7d9391",
    "types": [
      "singers",
      "2",
      "songwriters",
      "8"
    ]
  }
}