{
  "header": {
    "description": "Karaoke Mugen Tag File",
    "version": 1
  },
  "tag": {
    "i18n": {
      "eng": "tomoboP"
    },
    "name": "tomoboP",
    "tid": "1e18b931-2b4c-4b37-bdd0-98f199a2cc50",
    "types": [
      "songwriters",
      "8"
    ],
    "repository": "kara.moe",
    "modified_at": "2020-03-31T19:04:38.189Z"
  }
}