{
  "header": {
    "description": "Karaoke Mugen Tag File",
    "version": 1
  },
  "tag": {
    "i18n": {
      "eng": "Tomoki Hasegawa"
    },
    "name": "Tomoki Hasegawa",
    "tid": "9e7bc9ee-9625-4125-8177-dc0f2f8106a4",
    "types": [
      "songwriters",
      "8"
    ],
    "repository": "kara.moe",
    "modified_at": "2020-03-31T19:04:38.203Z"
  }
}