{
  "header": {
    "description": "Karaoke Mugen Tag File",
    "version": 1
  },
  "tag": {
    "i18n": {
      "eng": "Tomohito Takatsuka"
    },
    "name": "Tomohito Takatsuka",
    "tid": "ee3663d3-63c8-4289-b596-6a970de1ae9a",
    "types": [
      "singers",
      "2"
    ],
    "repository": "kara.moe",
    "modified_at": "2020-03-31T19:04:38.199Z"
  }
}