{
  "header": {
    "description": "Karaoke Mugen Tag File",
    "version": 1
  },
  "tag": {
    "i18n": {
      "eng": "Tomoyuki Hamada"
    },
    "name": "Tomoyuki Hamada",
    "tid": "a55b6098-aeb8-4449-ab77-1c6ebf59e5bb",
    "types": [
      "songwriters",
      "8"
    ],
    "repository": "kara.moe",
    "modified_at": "2020-03-31T19:04:38.227Z"
  }
}