{
  "header": {
    "description": "Karaoke Mugen Tag File",
    "version": 1
  },
  "tag": {
    "i18n": {
      "eng": "Tomoko Nagashima"
    },
    "name": "Tomoko Nagashima",
    "tid": "2e9cc17e-f587-4aa2-8f9a-30136f8dff61",
    "types": [
      "songwriters",
      "8"
    ],
    "repository": "kara.moe",
    "modified_at": "2020-03-31T19:04:38.209Z"
  }
}