{
  "header": {
    "description": "Karaoke Mugen Tag File",
    "version": 1
  },
  "tag": {
    "i18n": {
      "eng": "Tomoo Watanabe"
    },
    "name": "Tomoo Watanabe",
    "tid": "bee72921-d392-4591-82ef-020d081b55ed",
    "types": [
      "songwriters",
      "8"
    ],
    "repository": "kara.moe",
    "modified_at": "2020-03-31T19:04:38.218Z"
  }
}