{
  "header": {
    "description": "Karaoke Mugen Tag File",
    "version": 1
  },
  "tag": {
    "i18n": {
      "eng": "Tomohiko Togashi"
    },
    "name": "Tomohiko Togashi",
    "repository": "kara.moe",
    "tid": "ebe536cd-79cf-401d-88d1-5fabc75db636",
    "types": [
      "songwriters",
      "8"
    ]
  }
}