{
  "header": {
    "description": "Karaoke Mugen Tag File",
    "version": 1
  },
  "tag": {
    "aliases": [
      "Meu Vizinho Totoro",
      "My Neighbour Totoro",
      "Người bạn hàng xóm Totoro",
      "Näkymätön ystävä",
      "TnT",
      "Мій сусід Тоторо",
      "Тоторо"
    ],
    "external_database_ids": {
      "anilist": 523,
      "myanimelist": 523,
      "kitsu": 482
    },
    "i18n": {
      "ara": "جاري توتورو",
      "bul": "Моят Съсед Тоторо",
      "chi": "龙猫",
      "cze": "Můj soused Totoro",
      "dan": "Min nabo Totoro",
      "eng": "My Neighbor Totoro",
      "est": "Naaber Totoro",
      "fin": "Naapurini Totoro",
      "fre": "Mon voisin Totoro",
      "ger": "Mein Nachbar Totoro",
      "gre": "Οι περιπέτειες του Τότορο",
      "heb": "השכן שלי טוטורו",
      "hrv": "Moj Susjed Totoro",
      "hun": "Totoro - A varázserdő titka",
      "ita": "Il mio vicino Totoro",
      "jpn": "となりのトトロ",
      "kor": "이웃집 토토로",
      "lit": "Mano kaimynas Totoro",
      "mon": "Миний хөрш Тоторо",
      "nor": "Min nabo Totoro",
      "pol": "Mój sąsiad Totoro",
      "por": "Totoro",
      "rus": "Мой сосед Тоторо",
      "slv": "Moj sosed Totoro",
      "spa": "Mi vecino Totoro",
      "swe": "Min granne Totoro",
      "tha": "โทโทโร่ เพื่อนรัก",
      "tur": "Komşum Totoro",
      "qro": "Tonari no Totoro"
    },
    "modified_at": "2020-06-21T23:45:31.966Z",
    "name": "Tonari no Totoro",
    "repository": "kara.moe",
    "tid": "bcab83a2-cbc1-4f0d-a47d-69f3ef4a2b67",
    "types": [
      "series",
      "1"
    ]
  }
}