{
  "header": {
    "description": "Karaoke Mugen Tag File",
    "version": 1
  },
  "tag": {
    "aliases": [
      "Psychic Princess",
      "tong",
      "ling",
      "fei"
    ],
    "external_database_ids": {
      "anilist": 99935,
      "myanimelist": 38917,
      "kitsu": 42065
    },
    "i18n": {
      "eng": "Tōng Líng Fēi",
      "chi": "通灵妃",
      "jpn": "通霊姫",
      "qro": "Tōng Líng Fēi"
    },
    "modified_at": "2021-03-13T14:53:43.924Z",
    "name": "Tōng Líng Fēi",
    "repository": "kara.moe",
    "tid": "1276471b-fbad-46bd-b980-dd387dc832c8",
    "types": [
      "series",
      "1"
    ]
  }
}