{
  "header": {
    "description": "Karaoke Mugen Tag File",
    "version": 1
  },
  "tag": {
    "i18n": {
      "eng": "Tony Hawk's Pro Skater",
      "fre": "Tony Hawk's Skateboarding"
    },
    "name": "Tony Hawk's Pro Skater",
    "repository": "kara.moe",
    "tid": "acb40c00-2fdc-44b8-b905-f8019da2e7f0",
    "types": [
      "series",
      "1"
    ]
  }
}