{
  "header": {
    "description": "Karaoke Mugen Tag File",
    "version": 1
  },
  "tag": {
    "i18n": {
      "eng": "Tony Montoya"
    },
    "name": "Tony Montoya",
    "repository": "kara.moe",
    "tid": "e9567da5-3293-4af6-8f57-5403dbc3a778",
    "types": [
      "songwriters",
      "8"
    ]
  }
}