{
  "header": {
    "description": "Karaoke Mugen Tag File",
    "version": 1
  },
  "tag": {
    "i18n": {
      "eng": "Tooru Yata"
    },
    "modified_at": "2020-12-30T22:01:09.200Z",
    "name": "Tooru Yata",
    "repository": "kara.moe",
    "tid": "efafbf48-eac5-49f7-b0ba-fbd9463f7b66",
    "types": [
      "songwriters",
      "8"
    ]
  }
}