{
  "header": {
    "description": "Karaoke Mugen Tag File",
    "version": 1
  },
  "tag": {
    "i18n": {
      "eng": "Tooru Watanabe"
    },
    "name": "Tooru Watanabe",
    "tid": "859413a9-8164-4299-8047-80cbba2a650a",
    "types": [
      "songwriters",
      "8"
    ],
    "repository": "kara.moe",
    "modified_at": "2020-03-31T19:04:38.237Z"
  }
}