{
  "header": {
    "description": "Karaoke Mugen Tag File",
    "version": 1
  },
  "tag": {
    "i18n": {
      "eng": "Tooru Kohama"
    },
    "name": "Tooru Kohama",
    "tid": "41c218a1-72f2-4c76-b77a-a14ab73f5b83",
    "types": [
      "songwriters",
      "8"
    ],
    "repository": "kara.moe",
    "modified_at": "2020-03-31T19:04:38.236Z"
  }
}