{
  "header": {
    "description": "Karaoke Mugen Tag File",
    "version": 1
  },
  "tag": {
    "i18n": {
      "eng": "Tooru Hidaka"
    },
    "name": "Tooru Hidaka",
    "tid": "40a72f9c-6782-4040-8e85-8b61d9c4291c",
    "types": [
      "songwriters",
      "8"
    ],
    "repository": "kara.moe",
    "modified_at": "2020-03-31T19:04:38.235Z"
  }
}