{
  "header": {
    "description": "Karaoke Mugen Tag File",
    "version": 1
  },
  "tag": {
    "i18n": {
      "eng": "Toraboruta-P"
    },
    "modified_at": "2020-08-08T19:46:36.987Z",
    "name": "Toraboruta-P",
    "repository": "kara.moe",
    "tid": "fc6c03c4-568d-4e18-9a95-811670c2edca",
    "types": [
      "songwriters",
      "8",
      "creators",
      "4"
    ]
  }
}