{
  "header": {
    "description": "Karaoke Mugen Tag File",
    "version": 1
  },
  "tag": {
    "i18n": {
      "eng": "Torirô Miki"
    },
    "name": "Torirô Miki",
    "tid": "0d06c92a-bd62-4946-a02e-a101d66954be",
    "types": [
      "songwriters",
      "8"
    ],
    "repository": "kara.moe",
    "modified_at": "2020-03-31T19:04:38.240Z"
  }
}