{
  "header": {
    "description": "Karaoke Mugen Tag File",
    "version": 1
  },
  "tag": {
    "i18n": {
      "eng": "Tortoise Matsumoto"
    },
    "name": "Tortoise Matsumoto",
    "tid": "286e44c6-d241-4826-a30b-273816655f4c",
    "types": [
      "songwriters",
      "8"
    ],
    "repository": "kara.moe",
    "modified_at": "2020-03-31T19:04:38.242Z"
  }
}