{
  "header": {
    "description": "Karaoke Mugen Tag File",
    "version": 1
  },
  "tag": {
    "i18n": {
      "eng": "Toshiya Igarashi"
    },
    "name": "Toshiya Igarashi",
    "tid": "07268cf8-7d84-4cd6-bbed-90724cad69e4",
    "types": [
      "singers",
      "2"
    ],
    "repository": "kara.moe",
    "modified_at": "2020-03-31T19:04:38.264Z"
  }
}