{
  "header": {
    "description": "Karaoke Mugen Tag File",
    "version": 1
  },
  "tag": {
    "i18n": {
      "eng": "Toshiyuki Furuya"
    },
    "name": "Toshiyuki Furuya",
    "tid": "d208ee58-9aa6-4190-bd7a-72ca85abaee9",
    "types": [
      "songwriters",
      "8"
    ],
    "repository": "kara.moe",
    "modified_at": "2020-03-31T19:04:38.265Z"
  }
}