{
  "header": {
    "description": "Karaoke Mugen Tag File",
    "version": 1
  },
  "tag": {
    "i18n": {
      "eng": "Toshio Araki"
    },
    "name": "Toshio Araki",
    "tid": "3e369f88-31b5-41f6-95fc-1acd3e516cc0",
    "types": [
      "songwriters",
      "8"
    ],
    "repository": "kara.moe",
    "modified_at": "2020-03-31T19:04:38.258Z"
  }
}