{
  "header": {
    "description": "Karaoke Mugen Tag File",
    "version": 1
  },
  "tag": {
    "i18n": {
      "eng": "Toshihiko Shibaya"
    },
    "name": "Toshihiko Shibaya",
    "repository": "kara.moe",
    "tid": "6bcb8b50-2d48-45b6-b8c6-85a201f1a7b1",
    "types": [
      "songwriters",
      "8"
    ]
  }
}