{
  "header": {
    "description": "Karaoke Mugen Tag File",
    "version": 1
  },
  "tag": {
    "i18n": {
      "eng": "Toshio Kamei"
    },
    "name": "Toshio Kamei",
    "tid": "cc3d7857-58d6-4635-a88c-e5e1b3c28747",
    "types": [
      "songwriters",
      "8"
    ],
    "repository": "kara.moe",
    "modified_at": "2020-03-31T19:04:38.259Z"
  }
}