{
  "header": {
    "description": "Karaoke Mugen Tag File",
    "version": 1
  },
  "tag": {
    "i18n": {
      "eng": "Toshio Masuda"
    },
    "name": "Toshio Masuda",
    "tid": "657c6e14-022d-4680-a8d8-7b87cd4f8e4c",
    "types": [
      "songwriters",
      "8"
    ],
    "repository": "kara.moe",
    "modified_at": "2020-03-31T19:04:38.260Z"
  }
}