{
  "header": {
    "description": "Karaoke Mugen Tag File",
    "version": 1
  },
  "tag": {
    "i18n": {
      "eng": "Toshiko Ezaki"
    },
    "name": "Toshiko Ezaki",
    "tid": "a0b4002d-8f50-461f-a542-0dd84611402c",
    "types": [
      "songwriters",
      "8"
    ],
    "repository": "kara.moe",
    "modified_at": "2020-03-31T19:04:38.254Z"
  }
}