{
  "header": {
    "description": "Karaoke Mugen Tag File",
    "version": 1
  },
  "tag": {
    "i18n": {
      "eng": "Totally Spies!"
    },
    "modified_at": "2020-03-31T19:04:33.012Z",
    "name": "Totally Spies!",
    "repository": "kara.moe",
    "tid": "0b513aa8-1b51-46fd-90cb-1b4f82e2a6a4",
    "types": [
      "series",
      "1"
    ]
  }
}