{
  "header": {
    "description": "Karaoke Mugen Tag File",
    "version": 1
  },
  "tag": {
    "i18n": {
      "eng": "Tota Fujiwara"
    },
    "name": "Tota Fujiwara",
    "repository": "kara.moe",
    "tid": "2e5a3e82-e351-4325-b1b0-be66fbe3e41b",
    "types": [
      "songwriters",
      "8"
    ]
  }
}