{
  "header": {
    "description": "Karaoke Mugen Tag File",
    "version": 1
  },
  "tag": {
    "i18n": {
      "eng": "Totenkopf"
    },
    "modified_at": "2021-03-19T19:53:15.857Z",
    "name": "Totenkopf",
    "repository": "kara.moe",
    "tid": "d266d67c-3f31-4cbc-9805-9288071280b4",
    "types": [
      "creators",
      "4"
    ]
  }
}