{
  "header": {
    "description": "Karaoke Mugen Tag File",
    "version": 1
  },
  "tag": {
    "i18n": {
      "eng": "Totsu"
    },
    "modified_at": "1982-04-06",
    "name": "Totsu",
    "repository": "kara.moe",
    "tid": "3f90a3a6-7c20-4596-88df-539a184f9c4a",
    "types": [
      "songwriters",
      "8"
    ]
  }
}