{
  "header": {
    "description": "Karaoke Mugen Tag File",
    "version": 1
  },
  "tag": {
    "aliases": [
      "Toho"
    ],
    "i18n": {
      "eng": "Touhou: Memories of Phantasm",
      "jpn": "幻想万華鏡～The Memories of Phantasm～",
      "qro": "Touhou Memories of Phantasm"
    },
    "modified_at": "2020-03-31T19:04:33.016Z",
    "name": "Touhou Memories of Phantasm",
    "repository": "kara.moe",
    "tid": "1bf5248b-57fe-4e4f-ba6c-d508cc427b16",
    "types": [
      "series",
      "1"
    ]
  }
}