{
  "header": {
    "description": "Karaoke Mugen Tag File",
    "version": 1
  },
  "tag": {
    "i18n": {
      "eng": "Touhou.net"
    },
    "name": "Touhou.net",
    "repository": "kara.moe",
    "tid": "1fbfef73-6731-40df-ba51-65a54b9d1605",
    "types": [
      "authors",
      "6"
    ]
  }
}