{
  "header": {
    "description": "Karaoke Mugen Tag File",
    "version": 1
  },
  "tag": {
    "aliases": [
      "La Novicia Rebelde",
      "The Story of the Trapp Family Singers",
      "Sekai Meisaku Gekijou",
      "World Masterpiece Theater"
    ],
    "external_database_ids": {
      "anilist": 2557,
      "myanimelist": 2557,
      "kitsu": 2322
    },
    "i18n": {
      "ara": "لحن الحياة",
      "eng": "Trapp Family Story",
      "fre": "Les Enfants du capitaine Trapp",
      "ger": "Die singende Familie Trapp",
      "ita": "Cantiamo Insieme",
      "jpn": "トラップ一家物語",
      "pol": "Rodzina Trappów",
      "por": "A Família Trapp",
      "spa": "Cantemos Juntos",
      "qro": "Trapp Ikka Monogatari"
    },
    "modified_at": "2021-02-13T00:21:26.664Z",
    "name": "Trapp Ikka Monogatari",
    "repository": "kara.moe",
    "tid": "fac5b476-46fd-4234-91e1-5fe46f3017b2",
    "types": [
      "series",
      "1"
    ]
  }
}