{
  "header": {
    "description": "Karaoke Mugen Tag File",
    "version": 1
  },
  "tag": {
    "external_database_ids": {
      "anilist": 176,
      "myanimelist": 176,
      "kitsu": 153
    },
    "i18n": {
      "eng": "Triangle Heart: Sweet Songs Forever",
      "jpn": "とらいあんぐるハート ~Sweet Songs Forever~",
      "qro": "Triangle Heart ~Sweet Songs Forever~"
    },
    "modified_at": "2020-03-31T19:04:33.023Z",
    "name": "Triangle Heart ~Sweet Songs Forever~",
    "repository": "kara.moe",
    "tid": "bb31ac5d-1e05-4210-beb3-96adeb5dd524",
    "types": [
      "series",
      "1"
    ]
  }
}