{
  "header": {
    "description": "Karaoke Mugen Tag File",
    "version": 1
  },
  "tag": {
    "i18n": {
      "eng": "Tribeca"
    },
    "name": "Tribeca",
    "tid": "98d45f0f-c6de-478a-b1e0-81eb9683b5fc",
    "types": [
      "songwriters",
      "8"
    ],
    "repository": "kara.moe",
    "modified_at": "2020-03-31T19:04:38.287Z"
  }
}