{
  "header": {
    "description": "Karaoke Mugen Tag File",
    "version": 1
  },
  "tag": {
    "aliases": [
      "Kızıl Kan",
      "T Blood",
      "T-Blood",
      "TB",
      "ترينيتي بلود",
      "圣魔之血"
    ],
    "external_database_ids": {
      "anilist": 27,
      "myanimelist": 27,
      "kitsu": 18
    },
    "i18n": {
      "eng": "Trinity Blood",
      "fin": "Trinity Blood",
      "fre": "Trinity Blood",
      "ger": "Trinity Blood",
      "hun": "Vér és kereszt",
      "jpn": "トリニティ・ブラッド",
      "kor": "트리니티 블러드",
      "pol": "Trinity Blood",
      "por": "Trinity Blood",
      "rus": "Trinity Blood (Кровь Триединства)",
      "qro": "Trinity Blood"
    },
    "modified_at": "2020-06-21T23:45:31.966Z",
    "name": "Trinity Blood",
    "repository": "kara.moe",
    "tid": "224715c4-5262-4059-8fa9-76963716ac88",
    "types": [
      "series",
      "1"
    ]
  }
}