{
  "header": {
    "description": "Karaoke Mugen Tag File",
    "version": 1
  },
  "tag": {
    "i18n": {
      "eng": "Triomatic"
    },
    "name": "Triomatic",
    "tid": "21e040ac-6995-432e-a769-b884a80f2738",
    "types": [
      "singers",
      "2"
    ],
    "repository": "kara.moe",
    "modified_at": "2020-03-31T19:04:38.291Z"
  }
}