{
  "header": {
    "description": "Karaoke Mugen Tag File",
    "version": 1
  },
  "tag": {
    "i18n": {
      "eng": "Troy McKubre"
    },
    "modified_at": "2021-03-11T16:58:26.024Z",
    "name": "Troy McKubre",
    "repository": "kara.moe",
    "tid": "8cd220cb-ac03-4bf9-940b-5634537c4018",
    "types": [
      "songwriters",
      "8"
    ]
  }
}