{
  "header": {
    "description": "Karaoke Mugen Tag File",
    "version": 1
  },
  "tag": {
    "i18n": {
      "eng": "Trust"
    },
    "modified_at": "2020-07-12T12:49:48.583Z",
    "name": "Trust",
    "repository": "kara.moe",
    "tid": "34a40147-100a-4437-9973-7afd0f981e9b",
    "types": [
      "singers",
      "2"
    ]
  }
}