{
  "header": {
    "description": "Karaoke Mugen Tag File",
    "version": 1
  },
  "tag": {
    "i18n": {
      "eng": "Tryo"
    },
    "modified_at": "2020-07-11T22:28:18.052Z",
    "name": "Tryo",
    "repository": "kara.moe",
    "tid": "d4eef56d-f9b4-45db-bef5-b5599a712d7f",
    "types": [
      "singers",
      "2"
    ]
  }
}