{
  "header": {
    "description": "Karaoke Mugen Tag File",
    "version": 1
  },
  "tag": {
    "i18n": {
      "eng": "Tsubasa Itô"
    },
    "name": "Tsubasa Itô",
    "tid": "9d5e8cc9-76ca-415b-b000-0524cdb3302e",
    "types": [
      "songwriters",
      "8"
    ],
    "repository": "kara.moe",
    "modified_at": "2020-03-31T19:04:38.303Z"
  }
}