{
  "header": {
    "description": "Karaoke Mugen Tag File",
    "version": 1
  },
  "tag": {
    "i18n": {
      "jpn": "ウエダ ツバサ",
      "qro": "Tsubasa Ueda"
    },
    "name": "Tsubasa Ueda",
    "repository": "kara.moe",
    "tid": "5eb9e72f-b599-418c-bf1d-4a78be0b113b",
    "types": [
      "creators",
      "4"
    ]
  }
}