{
  "header": {
    "description": "Karaoke Mugen Tag File",
    "version": 1
  },
  "tag": {
    "i18n": {
      "eng": "Tsuchi"
    },
    "name": "Tsuchi",
    "tid": "a022473c-fc8b-4a98-bff6-eb2656386b80",
    "types": [
      "authors",
      "6"
    ],
    "repository": "kara.moe",
    "modified_at": "2020-03-31T19:04:38.307Z"
  }
}