{
  "header": {
    "description": "Karaoke Mugen Tag File",
    "version": 1
  },
  "tag": {
    "external_database_ids": {
      "anilist": 97625,
      "myanimelist": 34019,
      "kitsu": 12534
    },
    "i18n": {
      "chi": "怪怪守护神",
      "eng": "Tsugumomo",
      "jpn": "つぐもも",
      "kor": "츠구모모",
      "qro": "Tsugumomo"
    },
    "modified_at": "2020-03-31T19:04:33.028Z",
    "name": "Tsugumomo",
    "repository": "kara.moe",
    "tid": "7e6bd2c8-c50b-49e5-9358-8397293ad15e",
    "types": [
      "series",
      "1",
      "franchises",
      "18"
    ]
  }
}