{
  "header": {
    "description": "Karaoke Mugen Tag File",
    "version": 1
  },
  "tag": {
    "i18n": {
      "eng": "Tsugumi Higasayama"
    },
    "name": "Tsugumi Higasayama",
    "tid": "41628dc4-f021-4b7d-8e97-ea368fdcecf8",
    "types": [
      "singers",
      "2"
    ],
    "repository": "kara.moe",
    "modified_at": "2020-03-31T19:04:38.309Z"
  }
}