{
  "header": {
    "description": "Karaoke Mugen Tag File",
    "version": 1
  },
  "tag": {
    "external_database_ids": {
      "anilist": 97904,
      "myanimelist": 34474,
      "kitsu": 13721
    },
    "i18n": {
      "eng": "Tsukipro The Animation"
    },
    "name": "Tsukipro The Animation",
    "repository": "kara.moe",
    "tid": "6dff7627-f2d1-44c9-8eae-9d243dab3237",
    "types": [
      "series",
      "1"
    ]
  }
}