{
  "header": {
    "description": "Karaoke Mugen Tag File",
    "version": 1
  },
  "tag": {
    "i18n": {
      "eng": "Tsukasa Fushimi"
    },
    "name": "Tsukasa Fushimi",
    "tid": "a264a890-338d-470d-8f05-400d56944048",
    "types": [
      "songwriters",
      "8"
    ],
    "repository": "kara.moe",
    "modified_at": "2020-03-31T19:04:38.310Z"
  }
}