{
  "header": {
    "description": "Karaoke Mugen Tag File",
    "version": 1
  },
  "tag": {
    "i18n": {
      "eng": "Tsuko G"
    },
    "modified_at": "2020-12-13T16:13:44.254Z",
    "name": "Tsuko G",
    "repository": "kara.moe",
    "tid": "e941d224-56b4-4e19-afc4-1849aef072e6",
    "types": [
      "singers",
      "2",
      "songwriters",
      "8",
      "creators",
      "4"
    ]
  }
}