{
  "header": {
    "description": "Karaoke Mugen Tag File",
    "version": 1
  },
  "tag": {
    "i18n": {
      "eng": "Tsukino",
      "jpn": "月野"
    },
    "modified_at": "2021-10-14T17:04:22.602Z",
    "name": "Tsukino",
    "repository": "kara.moe",
    "tid": "502f3fd4-78d4-437c-9918-dcc0c7be0175",
    "types": [
      "creators",
      "4"
    ]
  }
}