{
  "header": {
    "description": "Karaoke Mugen Tag File",
    "version": 1
  },
  "tag": {
    "i18n": {
      "eng": "Tsukuyomi"
    },
    "name": "Tsukuyomi",
    "repository": "kara.moe",
    "tid": "eec1b815-ee7f-447d-a696-5121dc4a4a18",
    "types": [
      "singers",
      "2",
      "songwriters",
      "8"
    ]
  }
}