{
  "header": {
    "description": "Karaoke Mugen Tag File",
    "version": 1
  },
  "tag": {
    "i18n": {
      "eng": "Tsukine Suzuyo"
    },
    "modified_at": "2021-01-29T01:02:29.431Z",
    "name": "Tsukine Suzuyo",
    "repository": "kara.moe",
    "tid": "ef1ba209-3033-4383-969f-96acd258a9d8",
    "types": [
      "singers",
      "2"
    ]
  }
}