{
  "header": {
    "description": "Karaoke Mugen Tag File",
    "version": 1
  },
  "tag": {
    "i18n": {
      "eng": "Tsukasa Nagoya"
    },
    "name": "Tsukasa Nagoya",
    "tid": "75681066-1fed-4577-9ac6-bf0256efe4de",
    "types": [
      "songwriters",
      "8"
    ],
    "repository": "kara.moe",
    "modified_at": "2020-03-31T19:04:38.312Z"
  }
}