{
  "header": {
    "description": "Karaoke Mugen Tag File",
    "version": 1
  },
  "tag": {
    "i18n": {
      "eng": "Tsunko"
    },
    "name": "Tsunko",
    "tid": "9b76b230-7e4b-433d-9fdd-47be7d2a5dc1",
    "types": [
      "songwriters",
      "8"
    ],
    "repository": "kara.moe",
    "modified_at": "2020-03-31T19:04:38.317Z"
  }
}