{
  "header": {
    "description": "Karaoke Mugen Tag File",
    "version": 1
  },
  "tag": {
    "i18n": {
      "eng": "Tsurumaki Maki"
    },
    "name": "Tsurumaki Maki",
    "tid": "3f9adf14-522f-4c67-97d6-bff1e21baccc",
    "types": [
      "singers",
      "2"
    ],
    "repository": "kara.moe",
    "modified_at": "2020-03-31T19:04:38.319Z"
  }
}