{
  "header": {
    "description": "Karaoke Mugen Tag File",
    "version": 1
  },
  "tag": {
    "i18n": {
      "eng": "TSUTOMU"
    },
    "name": "TSUTOMU",
    "tid": "c591949d-67c2-40db-be52-afc392808d0d",
    "types": [
      "songwriters",
      "8"
    ],
    "repository": "kara.moe",
    "modified_at": "2020-03-31T19:04:38.322Z"
  }
}