{
  "header": {
    "description": "Karaoke Mugen Tag File",
    "version": 1
  },
  "tag": {
    "i18n": {
      "eng": "Turgalon"
    },
    "modified_at": "2020-10-10T19:55:53.525Z",
    "name": "Turgalon",
    "repository": "kara.moe",
    "tid": "635f51d5-23e1-4e3a-8fab-7c0fe8c54690",
    "types": [
      "authors",
      "6"
    ]
  }
}