{
  "header": {
    "description": "Karaoke Mugen Tag File",
    "version": 1
  },
  "tag": {
    "i18n": {
      "eng": "Turnip Boy Commits Tax Evasion"
    },
    "name": "Turnip Boy Commits Tax Evasion",
    "repository": "kara.moe",
    "tid": "2430909c-d3cf-4889-a850-03936e1892ba",
    "types": [
      "series",
      "1"
    ]
  }
}