{
  "header": {
    "description": "Karaoke Mugen Tag File",
    "version": 1
  },
  "tag": {
    "i18n": {
      "eng": "TVOntario"
    },
    "name": "TVOntario",
    "tid": "c247803d-e588-4566-ad6c-9b0407877260",
    "types": [
      "creators",
      "4"
    ],
    "repository": "kara.moe",
    "modified_at": "2020-03-31T19:04:38.332Z"
  }
}