{
  "header": {
    "description": "Karaoke Mugen Tag File",
    "version": 1
  },
  "tag": {
    "i18n": {
      "eng": "twe'lv"
    },
    "name": "twe'lv",
    "tid": "91e4b81a-dbdc-42a6-8320-f9348bb3feab",
    "types": [
      "singers",
      "2"
    ],
    "repository": "kara.moe",
    "modified_at": "2020-03-31T19:04:38.333Z"
  }
}