{
  "header": {
    "description": "Karaoke Mugen Tag File",
    "version": 1
  },
  "tag": {
    "i18n": {
      "eng": "Tyler_yj"
    },
    "name": "Tyler_yj",
    "tid": "39c69b81-dc3d-4e65-9473-1a1adc5d9379",
    "types": [
      "creators",
      "4"
    ],
    "repository": "kara.moe",
    "modified_at": "2020-03-31T19:04:38.336Z"
  }
}