{
  "header": {
    "description": "Karaoke Mugen Tag File",
    "version": 1
  },
  "tag": {
    "i18n": {
      "eng": "UCHIKUBIGOKUMON-DOUKOUKAI"
    },
    "name": "UCHIKUBIGOKUMON-DOUKOUKAI",
    "repository": "kara.moe",
    "tid": "32603bc6-b633-497d-8ba4-1e96a53e8454",
    "types": [
      "singers",
      "2"
    ],
    "modified_at": "2020-03-31T19:04:38.348Z"
  }
}