{
  "header": {
    "description": "Karaoke Mugen Tag File",
    "version": 1
  },
  "tag": {
    "i18n": {
      "eng": "Uchôten BOYS"
    },
    "name": "Uchôten BOYS",
    "tid": "65bda2f1-2d55-4b4b-bd6c-e55c0679a631",
    "types": [
      "singers",
      "2"
    ],
    "repository": "kara.moe",
    "modified_at": "2020-03-31T19:04:38.349Z"
  }
}