{
  "header": {
    "description": "Karaoke Mugen Tag File",
    "version": 1
  },
  "tag": {
    "aliases": [
      "SBY 2199",
      "Space Battleship Yamato 2199",
      "Star Blazers: Space Battleship Yamato 2199",
      "USY 2199",
      "Uchuu Senkan Yamato 2199",
      "Звезден кораб Ямато 2199",
      "uchuu"
    ],
    "external_database_ids": {
      "anilist": 12029,
      "myanimelist": 12029,
      "kitsu": 6646
    },
    "i18n": {
      "chi": "宇宙战舰大和号2199",
      "eng": "Star Blazers 2199",
      "fre": "Space Battleship Yamato 2199",
      "jpn": "宇宙戦艦ヤマト2199",
      "pol": "Kosmiczny pancernik Yamato 2199",
      "qro": "Uchû Senkan Yamato 2199"
    },
    "modified_at": "2020-06-21T23:45:31.966Z",
    "name": "Uchû Senkan Yamato 2199",
    "repository": "kara.moe",
    "tid": "0c97d200-3719-4765-8b69-30af45cb2759",
    "types": [
      "series",
      "1"
    ]
  }
}