{
  "header": {
    "description": "Karaoke Mugen Tag File",
    "version": 1
  },
  "tag": {
    "aliases": [
      "Uchuu Senkan Yamato 1",
      "Uchuu Senkan Yamato I",
      "uchuu"
    ],
    "external_database_ids": {
      "anilist": 1650,
      "myanimelist": 1650,
      "kitsu": 1483
    },
    "i18n": {
      "eng": "Star Blazers: The Quest for Iscandar",
      "fre": "Space Battleship Yamato I",
      "jpn": "宇宙戦艦ヤマト",
      "qro": "Uchû Senkan Yamato I"
    },
    "modified_at": "2020-03-31T19:04:33.052Z",
    "name": "Uchû Senkan Yamato I",
    "repository": "kara.moe",
    "tid": "3eb4ff4a-d1ce-404d-8af9-5d69f2bca25b",
    "types": [
      "series",
      "1"
    ]
  }
}