{
  "header": {
    "description": "Karaoke Mugen Tag File",
    "version": 1
  },
  "tag": {
    "aliases": [
      "Uchuu Keiji Gavan",
      "Uchuu Keiji Gyaban",
      "Uchû Keiji Gyaban",
      "uchuu"
    ],
    "i18n": {
      "eng": "Space Sheriff Gavan",
      "fre": "X-Or",
      "jpn": "宇宙刑事ギャバン",
      "qro": "Uchû Keiji Gavan"
    },
    "modified_at": "2020-03-31T19:04:33.043Z",
    "name": "Uchû Keiji Gavan",
    "repository": "kara.moe",
    "tid": "b35f13f4-d5bc-4340-931c-018a85698731",
    "types": [
      "series",
      "1"
    ]
  }
}