{
  "header": {
    "description": "Karaoke Mugen Tag File",
    "version": 1
  },
  "tag": {
    "i18n": {
      "eng": "UiNA"
    },
    "name": "UiNA",
    "tid": "7f9405aa-4a87-4224-82fd-0dd0289fd6ac",
    "types": [
      "songwriters",
      "8"
    ],
    "repository": "kara.moe",
    "modified_at": "2020-03-31T19:04:38.353Z"
  }
}