{
  "header": {
    "description": "Karaoke Mugen Tag File",
    "version": 1
  },
  "tag": {
    "i18n": {
      "eng": "Ultraman Z"
    },
    "modified_at": "2020-12-25T16:10:36.170Z",
    "name": "Ultraman Z",
    "repository": "kara.moe",
    "tid": "5e603acf-ab96-488f-8292-cc697021e66c",
    "types": [
      "series",
      "1"
    ]
  }
}