{
  "header": {
    "description": "Karaoke Mugen Tag File",
    "version": 1
  },
  "tag": {
    "i18n": {
      "eng": "Ultra Seven",
      "jpn": "ウルトラセブン",
      "qro": "Ultra Seven"
    },
    "modified_at": "2020-03-31T19:04:33.061Z",
    "name": "Ultra Seven",
    "repository": "kara.moe",
    "tid": "b9fa8a24-bbee-4f81-bddf-32e306436afc",
    "types": [
      "series",
      "1"
    ]
  }
}