{
  "header": {
    "description": "Karaoke Mugen Tag File",
    "version": 1
  },
  "tag": {
    "aliases": [
      "Uma Musume - Pretty Derby",
      "Uma Musume Pretty Derby",
      "賽馬娘 Pretty Derby"
    ],
    "external_database_ids": {
      "anilist": 98514,
      "myanimelist": 35249,
      "kitsu": 13485
    },
    "i18n": {
      "eng": "Uma Musume: Pretty Derby",
      "jpn": "ウマ娘 プリティーダービー",
      "kor": "우마 무스메: 프리티 더비",
      "qro": "Uma Musume: Pretty Derby"
    },
    "modified_at": "2020-03-31T19:04:33.069Z",
    "name": "Uma Musume: Pretty Derby",
    "repository": "kara.moe",
    "tid": "79f8c677-ee95-452f-bd36-798402079d72",
    "types": [
      "series",
      "1",
      "franchises",
      "18"
    ]
  }
}