{
  "header": {
    "description": "Karaoke Mugen Tag File",
    "version": 1
  },
  "tag": {
    "external_database_ids": {
      "anilist": 124223,
      "myanimelist": 42941,
      "kitsu": 43576
    },
    "i18n": {
      "eng": "Uma Musume: Pretty Derby Season 2",
      "jpn": "ウマ娘 プリティーダービー Season 2",
      "qro": "Uma Musume Pretty Derby Season 2"
    },
    "modified_at": "2021-01-12T19:59:47.536Z",
    "name": "Uma Musume Pretty Derby Season 2",
    "repository": "kara.moe",
    "tid": "bd8bad1a-fe10-4058-9a8b-6caa80e55cb7",
    "types": [
      "series",
      "1"
    ]
  }
}