{
  "header": {
    "description": "Karaoke Mugen Tag File",
    "version": 1
  },
  "tag": {
    "i18n": {
      "eng": "Umetora"
    },
    "modified_at": "2020-08-15T23:31:38.591Z",
    "name": "Umetora",
    "repository": "kara.moe",
    "tid": "3c2f8246-6750-4231-b38c-a61902f16aac",
    "types": [
      "songwriters",
      "8"
    ]
  }
}