{
  "header": {
    "description": "Karaoke Mugen Tag File",
    "version": 1
  },
  "tag": {
    "aliases": [
      "When They Cry 3",
      "WTC 3",
      "unnkn",
      "When The Seagulls Cry"
    ],
    "i18n": {
      "eng": "Umineko: When They Cry ‒ Chiru",
      "jpn": "うみねこのなく頃に散",
      "qro": "Umineko no Naku Koro ni Chiru"
    },
    "modified_at": "2020-09-01T22:43:54.726Z",
    "name": "Umineko no Naku Koro ni Chiru",
    "repository": "kara.moe",
    "tid": "834ac023-a5b8-491b-909b-23dddc9682f2",
    "types": [
      "series",
      "1"
    ]
  }
}