{
  "header": {
    "description": "Karaoke Mugen Tag File",
    "version": 1
  },
  "tag": {
    "i18n": {
      "eng": "UMISEA"
    },
    "name": "UMISEA",
    "repository": "kara.moe",
    "tid": "0164ba1d-e2ef-4839-8bac-e46842fd3725",
    "types": [
      "singergroups",
      "17"
    ]
  }
}