{
  "header": {
    "description": "Karaoke Mugen Tag File",
    "version": 1
  },
  "tag": {
    "i18n": {
      "eng": "Unicorn"
    },
    "name": "Unicorn",
    "repository": "kara.moe",
    "tid": "f240a6e2-c6ad-402a-8d3b-f85db33bfb65",
    "types": [
      "songwriters",
      "8",
      "singers",
      "2"
    ],
    "modified_at": "2020-03-31T19:04:38.367Z"
  }
}