{
  "header": {
    "description": "Karaoke Mugen Tag File",
    "version": 1
  },
  "tag": {
    "i18n": {
      "eng": "Unit Image"
    },
    "name": "Unit Image",
    "tid": "1991cbd5-5100-4923-ab18-6fdcb6051b8c",
    "types": [
      "creators",
      "4"
    ],
    "repository": "kara.moe",
    "modified_at": "2020-03-31T19:04:38.369Z"
  }
}