{
  "header": {
    "description": "Karaoke Mugen Tag File",
    "version": 1
  },
  "tag": {
    "i18n": {
      "eng": "Universal Music"
    },
    "name": "Universal Music",
    "repository": "kara.moe",
    "tid": "f963181a-1214-47f8-b6f9-1705cbc33779",
    "types": [
      "creators",
      "4"
    ]
  }
}