{
  "header": {
    "description": "Karaoke Mugen Tag File",
    "version": 1
  },
  "tag": {
    "i18n": {
      "eng": "unknowndoll11"
    },
    "modified_at": "2020-06-21T22:30:46.449Z",
    "name": "unknowndoll11",
    "repository": "kara.moe",
    "tid": "0665b801-dc66-4e18-a2f5-ffaa64de4b09",
    "types": [
      "authors",
      "6"
    ]
  }
}