{
  "header": {
    "description": "Karaoke Mugen Tag File",
    "version": 1
  },
  "tag": {
    "i18n": {
      "eng": "Unnona"
    },
    "modified_at": "2021-06-13T21:34:33.351Z",
    "name": "Unnona",
    "repository": "kara.moe",
    "tid": "372c8271-a914-4cfd-a759-3b9bdf7ade64",
    "types": [
      "singers",
      "2"
    ]
  }
}