{
  "header": {
    "description": "Karaoke Mugen Tag File",
    "version": 1
  },
  "tag": {
    "i18n": {
      "eng": "Usagi Umi"
    },
    "name": "Usagi Umi",
    "tid": "04ebe456-8c55-4bd7-b431-9ecfb206d679",
    "types": [
      "songwriters",
      "8"
    ],
    "repository": "kara.moe",
    "modified_at": "2020-03-31T19:04:38.383Z"
  }
}