{
  "header": {
    "description": "Karaoke Mugen Tag File",
    "version": 1
  },
  "tag": {
    "i18n": {
      "eng": "Uta Utane"
    },
    "name": "Uta Utane",
    "repository": "kara.moe",
    "tid": "021d48a2-7e33-4e1a-a943-2e557429c7dc",
    "types": [
      "singers",
      "2"
    ],
    "modified_at": "2020-03-31T19:04:38.389Z"
  }
}