{
  "header": {
    "description": "Karaoke Mugen Tag File",
    "version": 1
  },
  "tag": {
    "aliases": [
      "utapri 2",
      "2000 percent"
    ],
    "external_database_ids": {
      "anilist": 12711,
      "myanimelist": 12711,
      "kitsu": 6796
    },
    "i18n": {
      "chi": "歌之王子殿下 真爱2000%",
      "eng": "Uta no Prince Sama 2",
      "jpn": "うたの☆プリンスさまっ♪マジLOVE2000%",
      "fre": "Uta no Prince-sama: Maji Love 2000% (Saison 2)",
      "qro": "Uta no Prince-sama ~ Maji Love 2000%"
    },
    "modified_at": "2020-08-29T11:44:01.443Z",
    "name": "Uta no Prince-sama ~ Maji Love 2000%",
    "repository": "kara.moe",
    "tid": "08cd2be0-50ea-45d5-9b9e-853f10800f3b",
    "types": [
      "series",
      "1"
    ]
  }
}