{
  "header": {
    "description": "Karaoke Mugen Tag File",
    "version": 1
  },
  "tag": {
    "aliases": [
      "Utawarerumono 3"
    ],
    "i18n": {
      "eng": "Utawarerumono: Mask of Truth",
      "fre": "Le Chant des Rêves : Mask of Truth",
      "jpn": "うたわれるもの 二人の白皇",
      "qro": "Utawarerumono: Futari no Hakuoro"
    },
    "modified_at": "2020-03-31T19:04:33.086Z",
    "name": "Utawarerumono: Futari no Hakuoro",
    "repository": "kara.moe",
    "tid": "e3a47f32-c1ba-42da-9212-561847ea6c67",
    "types": [
      "series",
      "1"
    ]
  }
}