{
  "header": {
    "description": "Karaoke Mugen Tag File",
    "version": 1
  },
  "tag": {
    "aliases": [
      "Le Chant des Rêves",
      "Ten o Którym Śpiewają Legendy",
      "The One Being Sung",
      "The One of Whom Legends Are Sung",
      "Utawareru Mono",
      "utaware",
      "uwm",
      "Прославения",
      "Прославленный",
      "ריי רומונו מתחת למים",
      "传诵",
      "传诵之物"
    ],
    "external_database_ids": {
      "anilist": 856,
      "myanimelist": 856,
      "kitsu": 758
    },
    "i18n": {
      "eng": "Utawarerumono",
      "fre": "Le Chant des Rêves",
      "ger": "Utawarerumono - Heldenlied",
      "jpn": "うたわれるもの",
      "kor": "칭송받는 자",
      "qro": "Utawarerumono"
    },
    "modified_at": "2020-03-31T19:04:33.088Z",
    "name": "Utawarerumono",
    "repository": "kara.moe",
    "tid": "e504ffad-c337-47a7-9756-aa204e03638f",
    "types": [
      "series",
      "1",
      "franchises",
      "18"
    ]
  }
}