{
  "header": {
    "description": "Karaoke Mugen Tag File",
    "version": 1
  },
  "tag": {
    "i18n": {
      "eng": "Úyanga Bold"
    },
    "name": "Úyanga Bold",
    "repository": "kara.moe",
    "tid": "3fef2011-988a-4a76-b74a-f62d8154dc84",
    "types": [
      "singers",
      "2"
    ]
  }
}