{
  "header": {
    "description": "Karaoke Mugen Tag File",
    "version": 1
  },
  "tag": {
    "aliases": [
      "Uzaki-chan Wants to Play"
    ],
    "external_database_ids": {
      "anilist": 115113,
      "myanimelist": 41226,
      "kitsu": 43094
    },
    "i18n": {
      "eng": "Uzaki-chan Wants to Hang Out!",
      "jpn": "宇崎ちゃんは遊びたい!",
      "qro": "Uzaki-chan wa Asobitai!"
    },
    "modified_at": "2020-07-30T18:39:18.254Z",
    "name": "Uzaki-chan wa Asobitai!",
    "repository": "kara.moe",
    "tid": "57d8ed79-43f5-4ffa-aad9-3ea78857c70b",
    "types": [
      "series",
      "1"
    ]
  }
}