{
  "header": {
    "description": "Karaoke Mugen Tag File",
    "version": 1
  },
  "tag": {
    "i18n": {
      "eng": "Uzi Fox"
    },
    "name": "Uzi Fox",
    "tid": "49428399-c275-43cb-a937-3a7024b7f65d",
    "types": [
      "singers",
      "2",
      "songwriters",
      "8"
    ],
    "repository": "kara.moe",
    "modified_at": "2020-03-31T19:04:38.394Z"
  }
}