{
  "header": {
    "description": "Karaoke Mugen Tag File",
    "version": 1
  },
  "tag": {
    "i18n": {
      "eng": "Uzuki Tomoya"
    },
    "name": "Uzuki Tomoya",
    "repository": "kara.moe",
    "tid": "44d58d41-a8a4-43bd-8741-69198f3706b8",
    "types": [
      "singers",
      "2"
    ]
  }
}