{
  "header": {
    "description": "Karaoke Mugen Tag File",
    "version": 1
  },
  "tag": {
    "i18n": {
      "eng": "Valkyrie"
    },
    "name": "Valkyrie",
    "repository": "kara.moe",
    "tid": "fad35df8-5511-4433-b93d-3e844f742349",
    "types": [
      "singergroups",
      "17"
    ]
  }
}