{
  "header": {
    "description": "Karaoke Mugen Tag File",
    "version": 1
  },
  "tag": {
    "aliases": [
      "VKG",
      "Vampire Knight Guilty - 02",
      "vampire knight 2",
      "vk2",
      "Рицарят Вампир: Виновен",
      "吸血鬼骑士.罪"
    ],
    "external_database_ids": {
      "anilist": 4752,
      "myanimelist": 4752,
      "kitsu": 3023
    },
    "i18n": {
      "bul": "Рицарят Вампир (сезон 2)",
      "cze": "Vampire Knight Guilty",
      "eng": "Vampire Knight: Guilty",
      "fre": "Vampire Knight: Guilty",
      "ger": "Vampire Knight Guilty",
      "hun": "Vampire Knight: Guilty",
      "jpn": "ヴァンパイア騎士 Guilty",
      "qro": "Vampire Knight Guilty"
    },
    "modified_at": "2020-03-31T19:04:33.095Z",
    "name": "Vampire Knight Guilty",
    "repository": "kara.moe",
    "tid": "387ff547-9ace-4549-a605-17fd927e85d6",
    "types": [
      "series",
      "1"
    ]
  }
}