{
  "header": {
    "description": "Karaoke Mugen Tag File",
    "version": 1
  },
  "tag": {
    "i18n": {
      "eng": "Vampire",
      "jpn": "ヴァンパイア",
      "qro": "Vampire"
    },
    "modified_at": "2020-03-31T19:04:33.097Z",
    "name": "Vampire",
    "repository": "kara.moe",
    "tid": "7a311daa-7e10-41cf-a0ea-b840812e7d12",
    "types": [
      "series",
      "1"
    ]
  }
}