{
  "header": {
    "description": "Karaoke Mugen Tag File",
    "version": 1
  },
  "tag": {
    "aliases": [
      "VanDread 2",
      "VanDread 2nd Stage",
      "v2s",
      "vandread2",
      "Вандред : Втори Сезон",
      "Вандред: другий рівень",
      "فاندريد 2"
    ],
    "external_database_ids": {
      "anilist": 181,
      "myanimelist": 181,
      "kitsu": 158
    },
    "i18n": {
      "eng": "Vandread: The Second Stage",
      "jpn": "ヴァンドレッド the second stage",
      "rus": "Вандред: Второй уровень",
      "qro": "VanDread the Second Stage"
    },
    "modified_at": "2020-03-31T19:04:33.097Z",
    "name": "VanDread the Second Stage",
    "repository": "kara.moe",
    "tid": "3d5cb098-c47d-4d1f-958a-414b7a19c674",
    "types": [
      "series",
      "1"
    ]
  }
}