{
  "header": {
    "description": "Karaoke Mugen Tag File",
    "version": 1
  },
  "tag": {
    "aliases": [
      "Vatican Kiseki Chousakan",
      "바티칸 기적 조사관",
      "chousakan"
    ],
    "external_database_ids": {
      "anilist": 97855,
      "myanimelist": 34368,
      "kitsu": 12732
    },
    "i18n": {
      "eng": "Vatican Miracle Examiner",
      "jpn": " バチカン奇跡調査官",
      "chi": "梵蒂冈奇迹调查官",
      "qro": "Vatican Kiseki Chôsakan"
    },
    "modified_at": "2021-03-07T13:11:17.839Z",
    "name": "Vatican Kiseki Chôsakan",
    "repository": "kara.moe",
    "tid": "bf6e7a3e-cfb5-4629-9707-40d1a15808a4",
    "types": [
      "series",
      "1"
    ]
  }
}