{
  "header": {
    "description": "Karaoke Mugen Tag File",
    "version": 1
  },
  "tag": {
    "aliases": [
      "Momochi"
    ],
    "i18n": {
      "jpn": "ヴェロニカ",
      "qro": "Veronica"
    },
    "name": "Veronica",
    "repository": "kara.moe",
    "tid": "962c0903-facb-46c9-a980-050789508fa9",
    "types": [
      "singergroups",
      "17"
    ]
  }
}