{
  "header": {
    "description": "Karaoke Mugen Tag File",
    "version": 1
  },
  "tag": {
    "i18n": {
      "eng": "Vertigo Records"
    },
    "modified_at": "2020-07-11T15:27:01.264Z",
    "name": "Vertigo Records",
    "repository": "kara.moe",
    "tid": "0b551a13-6552-4fe4-917e-d767e985e8a0",
    "types": [
      "creators",
      "4"
    ]
  }
}