{
  "header": {
    "description": "Karaoke Mugen Tag File",
    "version": 1
  },
  "tag": {
    "i18n": {
      "eng": "Victoire Passage"
    },
    "name": "Victoire Passage",
    "repository": "kara.moe",
    "tid": "8b795ddd-d864-4d33-8b88-b1238d8691fc",
    "types": [
      "singers",
      "2",
      "songwriters",
      "8"
    ]
  }
}