{
  "header": {
    "description": "Karaoke Mugen Tag File",
    "version": 1
  },
  "tag": {
    "i18n": {
      "eng": "Victor Entertainment"
    },
    "name": "Victor Entertainment",
    "tid": "e8da43a3-7058-4162-9d31-2f331dee993e",
    "types": [
      "creators",
      "4"
    ],
    "repository": "kara.moe",
    "modified_at": "2020-03-31T19:04:38.410Z"
  }
}