{
  "header": {
    "description": "Karaoke Mugen Tag File",
    "version": 1
  },
  "tag": {
    "aliases": [
      "Beautiful Joe"
    ],
    "external_database_ids": {
      "anilist": 278,
      "myanimelist": 278,
      "kitsu": 253
    },
    "i18n": {
      "eng": "Viewtiful Joe",
      "fre": "Viewtiful Joe",
      "heb": " ויוטיפול ג`ו",
      "jpn": "ビューティフル ジョー",
      "por": "Viewtiful Joe",
      "qro": "Viewtiful Joe"
    },
    "modified_at": "2020-03-31T19:04:33.102Z",
    "name": "Viewtiful Joe",
    "repository": "kara.moe",
    "tid": "3b207102-77cc-4e07-a69f-91de1079d895",
    "types": [
      "series",
      "1"
    ]
  }
}