{
  "header": {
    "description": "Karaoke Mugen Tag File",
    "version": 1
  },
  "tag": {
    "i18n": {
      "eng": "VIP"
    },
    "name": "VIP",
    "tid": "5a2d609d-b2e4-4a52-a254-031515b5d2e9",
    "types": [
      "singers",
      "2"
    ],
    "repository": "kara.moe",
    "modified_at": "2020-03-31T19:04:38.418Z"
  }
}