{
  "header": {
    "description": "Karaoke Mugen Tag File",
    "version": 1
  },
  "tag": {
    "aliases": [
      "Jean-Pierre Virgil"
    ],
    "i18n": {
      "eng": "Virgil"
    },
    "name": "Virgil",
    "repository": "kara.moe",
    "tid": "83a54314-aa3e-4892-9fe0-a138997dda11",
    "types": [
      "songwriters",
      "8",
      "singers",
      "2"
    ]
  }
}