{
  "header": {
    "description": "Karaoke Mugen Tag File",
    "version": 1
  },
  "tag": {
    "i18n": {
      "eng": "vistlip"
    },
    "name": "vistlip",
    "tid": "f5fda0b6-9226-4b6c-bcaf-d34587b3bbff",
    "types": [
      "singers",
      "2"
    ],
    "repository": "kara.moe",
    "modified_at": "2020-03-31T19:04:38.419Z"
  }
}