{
  "header": {
    "description": "Karaoke Mugen Tag File",
    "version": 1
  },
  "tag": {
    "i18n": {
      "eng": "Visual Art's"
    },
    "name": "Visual Art's",
    "tid": "2bf68648-9c1a-4a45-9ca9-763f99f13bd1",
    "types": [
      "creators",
      "4"
    ],
    "repository": "kara.moe",
    "modified_at": "2020-03-31T19:04:38.420Z"
  }
}