{
  "header": {
    "description": "Karaoke Mugen Tag File",
    "version": 1
  },
  "tag": {
    "i18n": {
      "eng": "VoxMakers"
    },
    "name": "VoxMakers",
    "repository": "kara.moe",
    "tid": "bbb0e52c-f876-4650-a408-48b494ff3b62",
    "types": [
      "singergroups",
      "17"
    ]
  }
}