{
  "header": {
    "description": "Karaoke Mugen Tag File",
    "version": 1
  },
  "tag": {
    "aliases": [
      "VS Toshi Lamune & 40 En",
      "VS Toshi Ramune & 40 En"
    ],
    "external_database_ids": {
      "anilist": 2087,
      "myanimelist": 2087,
      "kitsu": 1886
    },
    "i18n": {
      "eng": "VS Knight Lamune & 40 Fire",
      "jpn": "VS騎士ラムネ&40炎",
      "qro": "VS Knight Ramune & 40 Fire"
    },
    "modified_at": "2020-03-31T19:04:33.107Z",
    "name": "VS Knight Ramune & 40 Fire",
    "repository": "kara.moe",
    "tid": "c1c71310-cc51-42f1-aaa7-572924773153",
    "types": [
      "series",
      "1"
    ]
  }
}