{
  "header": {
    "description": "Karaoke Mugen Tag File",
    "version": 1
  },
  "tag": {
    "i18n": {
      "eng": "Vtuber"
    },
    "name": "Vtuber",
    "repository": "kara.moe",
    "short": "VTUB",
    "tid": "5106d71b-a78e-4d19-a16d-f8fb6719538a",
    "types": [
      "origins",
      "11"
    ],
    "modified_at": "2020-03-31T19:04:38.430Z"
  }
}