{
  "header": {
    "description": "Karaoke Mugen Tag File",
    "version": 1
  },
  "tag": {
    "i18n": {
      "eng": "W"
    },
    "name": "W",
    "tid": "5e3ab486-dab5-4658-92ff-e7fbfc72418b",
    "types": [
      "singers",
      "2"
    ],
    "repository": "kara.moe",
    "modified_at": "2020-03-31T19:04:38.432Z"
  }
}