{
  "header": {
    "description": "Karaoke Mugen Tag File",
    "version": 1
  },
  "tag": {
    "aliases": [
      "The World Standard"
    ],
    "i18n": {
      "eng": "Wa-Suta",
      "jpn": "わーすた"
    },
    "name": "Wa-Suta",
    "repository": "kara.moe",
    "tid": "b7c771b7-9b45-4912-910f-8835915d74f4",
    "types": [
      "singers",
      "2"
    ]
  }
}