{
  "header": {
    "description": "Karaoke Mugen Tag File",
    "version": 1
  },
  "tag": {
    "i18n": {
      "eng": "Waboku"
    },
    "name": "Waboku",
    "repository": "kara.moe",
    "tid": "945ec011-2614-44ad-bdef-3ee71f0028ff",
    "types": [
      "creators",
      "4"
    ],
    "modified_at": "2020-03-31T19:04:38.432Z"
  }
}