{
  "header": {
    "description": "Karaoke Mugen Tag File",
    "version": 1
  },
  "tag": {
    "aliases": [
      "Інарі нашого дому",
      "Инари в нашем доме",
      "我家有个狐仙大人",
      "Oinarisama"
    ],
    "external_database_ids": {
      "anilist": 3322,
      "myanimelist": 3322,
      "kitsu": 2934
    },
    "i18n": {
      "eng": "Our Home's Fox Deity",
      "jpn": "我が家のお稲荷さま.",
      "qro": "Wagaya no Oinari-sama"
    },
    "modified_at": "2021-06-06T00:57:02.115Z",
    "name": "Wagaya no Oinari-sama",
    "repository": "kara.moe",
    "tid": "d3e07ef4-ced6-4b15-bc97-69fd0be8a041",
    "types": [
      "series",
      "1"
    ]
  }
}