{
  "header": {
    "description": "Karaoke Mugen Tag File",
    "version": 1
  },
  "tag": {
    "i18n": {
      "eng": "Walt Disney Television"
    },
    "modified_at": "2020-07-05T20:42:48.766Z",
    "name": "Walt Disney Television",
    "repository": "kara.moe",
    "tid": "c800ba78-ac66-4419-9903-fa8fdb3fc377",
    "types": [
      "creators",
      "4"
    ]
  }
}