{
  "header": {
    "description": "Karaoke Mugen Tag File",
    "version": 1
  },
  "tag": {
    "i18n": {
      "eng": "WANIMA"
    },
    "name": "WANIMA",
    "tid": "ef851969-e0c2-43b6-88e9-79d4d684a878",
    "types": [
      "songwriters",
      "8",
      "singers",
      "2"
    ],
    "repository": "kara.moe",
    "modified_at": "2020-03-31T19:04:38.442Z"
  }
}