{
  "header": {
    "description": "Karaoke Mugen Tag File",
    "version": 1
  },
  "tag": {
    "aliases": [
      "Czworonożni Muszkieterowie",
      "D'Artagnan et les Trois Mousquetaires",
      "Dogtanian",
      "Dogtanian i trzech muszkieterów",
      "Dogtanian und die drei Musketiere",
      "Les trois mousquetaires",
      "Three Musketeers TV",
      "WWTM",
      "Wanwan Sanjuushi",
      "Woof-woof Three Musketeers",
      "Д'Артаньгав и три пса-мушкетёра",
      "sanjuushi"
    ],
    "external_database_ids": {
      "anilist": 3761,
      "myanimelist": 3761,
      "kitsu": 3237
    },
    "i18n": {
      "ara": "الفرسان الثلاثة",
      "eng": "Dogtanian and the Three Muskehounds",
      "fin": "Kolme muskettikoiraa",
      "fre": "Les 3 mousquetaires",
      "ger": "D'Artagnan und die 3 MuskeTiere",
      "gre": "Οι 3 Σωματοφύλακες",
      "heb": "שלושת המוסקטרים",
      "ita": "D'Artacan",
      "jpn": "ワンワン三銃士",
      "pol": "D'Artagnan i trzej muszkieterowie",
      "por": "Dartacão e os Três Moscãoteiros",
      "rum": "D'Artagnan şi cei trei muşchetari",
      "spa": "D'Artacan y los tres mosqueperros",
      "qro": "Wanwan Sanjûshi"
    },
    "modified_at": "2020-03-31T19:04:33.117Z",
    "name": "Wanwan Sanjûshi",
    "repository": "kara.moe",
    "tid": "c95b8e6b-e5df-4a46-9e77-338af7c8a5f8",
    "types": [
      "series",
      "1"
    ]
  }
}