{
  "header": {
    "description": "Karaoke Mugen Tag File",
    "version": 1
  },
  "tag": {
    "i18n": {
      "eng": "Warframe"
    },
    "name": "Warframe",
    "repository": "kara.moe",
    "tid": "72570f46-6f4a-4e12-9b94-b7531eaf55f8",
    "types": [
      "series",
      "1"
    ]
  }
}