{
  "header": {
    "description": "Karaoke Mugen Tag File",
    "version": 1
  },
  "tag": {
    "i18n": {
      "eng": "Warner Bros. Animation"
    },
    "name": "Warner Bros. Animation",
    "tid": "936e8da0-8134-467c-914b-22a1f4474b37",
    "types": [
      "creators",
      "4"
    ],
    "repository": "kara.moe",
    "modified_at": "2020-03-31T19:04:38.444Z"
  }
}