{
  "header": {
    "description": "Karaoke Mugen Tag File",
    "version": 1
  },
  "tag": {
    "i18n": {
      "eng": "Wasureranneyo"
    },
    "name": "Wasureranneyo",
    "tid": "340d8727-b215-4a46-834e-a145ced0eda5",
    "types": [
      "singers",
      "2"
    ],
    "repository": "kara.moe",
    "modified_at": "2020-03-31T19:04:38.448Z"
  }
}