{
  "header": {
    "description": "Karaoke Mugen Tag File",
    "version": 1
  },
  "tag": {
    "aliases": [
      "Watashi, Nouryoku wa Heikinchi dette Itta yo ne!",
      "noukin",
      "nouryoku"
    ],
    "external_database_ids": {
      "anilist": 101227,
      "myanimelist": 37393,
      "kitsu": 42423
    },
    "i18n": {
      "ara": "ألم أقل أن تجعل قدراتي معتدلة في الحياة الأخرى؟!",
      "eng": "Didn't I Say to Make My Abilities Average in the Next Life?!",
      "jpn": "私, 能力は平均値でって言ったよね!",
      "qro": "Watashi Nôryoku wa Heikinchi de tte Itta yo ne!"
    },
    "modified_at": "2020-03-31T19:04:33.121Z",
    "name": "Watashi Nôryoku wa Heikinchi de tte Itta yo ne!",
    "repository": "kara.moe",
    "tid": "56dfe0b2-fbca-4c7d-94f3-667735c15044",
    "types": [
      "series",
      "1"
    ]
  }
}