{
  "header": {
    "description": "Karaoke Mugen Tag File",
    "version": 1
  },
  "tag": {
    "i18n": {
      "eng": "Wataru Miyawaki"
    },
    "name": "Wataru Miyawaki",
    "tid": "3e778a08-c7ef-4423-8e22-83ab26f1965b",
    "types": [
      "songwriters",
      "8"
    ],
    "repository": "kara.moe",
    "modified_at": "2020-03-31T19:04:38.453Z"
  }
}