{
  "header": {
    "description": "Karaoke Mugen Tag File",
    "version": 1
  },
  "tag": {
    "i18n": {
      "eng": "Wataten☆5",
      "jpn": "わたてん☆5",
      "qro": "Wataten☆5"
    },
    "name": "Wataten☆5",
    "repository": "kara.moe",
    "tid": "b8c98ae4-9e43-4fb5-870a-683a30fc24d6",
    "types": [
      "singers",
      "2"
    ]
  }
}