{
  "header": {
    "description": "Karaoke Mugen Tag File",
    "version": 1
  },
  "tag": {
    "i18n": {
      "eng": "Wataru Ooyama"
    },
    "name": "Wataru Ooyama",
    "tid": "401e23d6-d0d6-49ef-b15b-962706241bc8",
    "types": [
      "songwriters",
      "8"
    ],
    "repository": "kara.moe",
    "modified_at": "2020-03-31T19:04:38.454Z"
  }
}