{
  "header": {
    "description": "Karaoke Mugen Tag File",
    "version": 1
  },
  "tag": {
    "i18n": {
      "eng": "Wataru Hano"
    },
    "name": "Wataru Hano",
    "tid": "498b46e7-f739-4fcb-b538-9f924d7572fc",
    "types": [
      "songwriters",
      "8"
    ],
    "repository": "kara.moe",
    "modified_at": "2020-03-31T19:04:38.450Z"
  }
}