{
  "header": {
    "description": "Karaoke Mugen Tag File",
    "version": 1
  },
  "tag": {
    "i18n": {
      "eng": "WATCHMAN"
    },
    "name": "WATCHMAN",
    "tid": "c8c449a2-3ee0-4129-807e-cf4a82e27112",
    "types": [
      "songwriters",
      "8",
      "singers",
      "2"
    ],
    "repository": "kara.moe",
    "modified_at": "2020-03-31T19:04:38.457Z"
  }
}