{
  "header": {
    "description": "Karaoke Mugen Tag File",
    "version": 1
  },
  "tag": {
    "i18n": {
      "eng": "WELCOME"
    },
    "name": "WELCOME",
    "tid": "20542b97-8a5d-464d-9ed3-a267728fbfd9",
    "types": [
      "singers",
      "2"
    ],
    "repository": "kara.moe",
    "modified_at": "2020-03-31T19:04:38.461Z"
  }
}