{
  "header": {
    "description": "Karaoke Mugen Tag File",
    "version": 1
  },
  "tag": {
    "i18n": {
      "eng": "Wessel van Diepen"
    },
    "name": "Wessel van Diepen",
    "repository": "kara.moe",
    "tid": "9559b81d-e63d-4a45-a357-dffe0ed4678b",
    "types": [
      "songwriters",
      "8"
    ]
  }
}