{
  "header": {
    "description": "Karaoke Mugen Tag File",
    "version": 1
  },
  "tag": {
    "i18n": {
      "eng": "Wild Arms 3",
      "jpn": "ワイルドアームズ アドヴァンスドサード",
      "qro": "Wild Arms 3rd Advanced"
    },
    "modified_at": "2020-03-31T19:04:33.126Z",
    "name": "Wild Arms 3rd Advanced",
    "repository": "kara.moe",
    "tid": "1ee6d400-99f8-4cde-a7a2-8d75987c2899",
    "types": [
      "series",
      "1"
    ]
  }
}