{
  "header": {
    "description": "Karaoke Mugen Tag File",
    "version": 1
  },
  "tag": {
    "i18n": {
      "eng": "William Picard"
    },
    "name": "William Picard",
    "repository": "kara.moe",
    "tid": "04ed9ae7-1871-47d9-90f4-3d2ebb4eb4bb",
    "types": [
      "songwriters",
      "8"
    ]
  }
}