{
  "header": {
    "description": "Karaoke Mugen Tag File",
    "version": 1
  },
  "tag": {
    "i18n": {
      "eng": "Will Champion"
    },
    "name": "Will Champion",
    "repository": "kara.moe",
    "tid": "c709428e-c34e-4858-b645-2462e35607a2",
    "types": [
      "songwriters",
      "8"
    ]
  }
}