{
  "header": {
    "description": "Karaoke Mugen Tag File",
    "version": 1
  },
  "tag": {
    "i18n": {
      "eng": "William Leymergie"
    },
    "name": "William Leymergie",
    "tid": "28d6f1bb-6471-4b36-b607-0bfc926e6e8c",
    "types": [
      "singers",
      "2"
    ],
    "repository": "kara.moe",
    "modified_at": "2020-03-31T19:04:38.471Z"
  }
}