{
  "header": {
    "description": "Karaoke Mugen Tag File",
    "version": 1
  },
  "tag": {
    "i18n": {
      "eng": "Wink"
    },
    "name": "Wink",
    "repository": "kara.moe",
    "tid": "2111d847-0afb-424a-bc9d-a5cb83b61d53",
    "types": [
      "singers",
      "2"
    ]
  }
}