{
  "header": {
    "description": "Karaoke Mugen Tag File",
    "version": 1
  },
  "tag": {
    "i18n": {
      "eng": "WINO"
    },
    "name": "WINO",
    "tid": "53514c6d-9913-4c3b-8be9-5fe7917746a5",
    "types": [
      "singers",
      "2"
    ],
    "repository": "kara.moe",
    "modified_at": "2020-03-31T19:04:38.472Z"
  }
}