{
  "header": {
    "description": "Karaoke Mugen Tag File",
    "version": 1
  },
  "tag": {
    "i18n": {
      "eng": "Wise-ONE"
    },
    "name": "Wise-ONE",
    "tid": "95ff43fb-1f16-4650-b2d6-094f9873ce55",
    "types": [
      "creators",
      "4",
      "songwriters",
      "8"
    ],
    "repository": "kara.moe",
    "modified_at": "2020-03-31T19:04:38.472Z"
  }
}