{
  "header": {
    "description": "Karaoke Mugen Tag File",
    "version": 1
  },
  "tag": {
    "i18n": {
      "eng": "Wish*"
    },
    "name": "Wish*",
    "tid": "4aff3f34-d4ef-421d-92b7-b888e9e3a28f",
    "types": [
      "singers",
      "2",
      "songwriters",
      "8"
    ],
    "repository": "kara.moe",
    "modified_at": "2020-03-31T19:04:38.473Z"
  }
}