{
  "header": {
    "description": "Karaoke Mugen Tag File",
    "version": 1
  },
  "tag": {
    "i18n": {
      "eng": "Witch"
    },
    "modified_at": "2020-12-30T12:23:29.964Z",
    "name": "Witch",
    "repository": "kara.moe",
    "tid": "2ee43295-17b8-4843-8b72-189aa7faf491",
    "types": [
      "creators",
      "4"
    ]
  }
}