{
  "header": {
    "description": "Karaoke Mugen Tag File",
    "version": 1
  },
  "tag": {
    "i18n": {
      "eng": "Wojciech Bujoczek"
    },
    "modified_at": "2020-05-13T17:39:25.405Z",
    "name": "Wojciech Bujoczek",
    "repository": "kara.moe",
    "tid": "e4085740-bb30-4625-bbab-180d3a2f35e5",
    "types": [
      "singers",
      "2"
    ]
  }
}