{
  "header": {
    "description": "Karaoke Mugen Tag File",
    "version": 1
  },
  "tag": {
    "aliases": [
      "Yoann Lemoine"
    ],
    "i18n": {
      "eng": "Woodkid"
    },
    "modified_at": "2021-11-21T21:45:26.454Z",
    "name": "Woodkid",
    "repository": "kara.moe",
    "tid": "1034db7e-31ce-42c3-a593-88807642663c",
    "types": [
      "singers",
      "2",
      "songwriters",
      "8"
    ]
  }
}