{
  "header": {
    "description": "Karaoke Mugen Tag File",
    "version": 1
  },
  "tag": {
    "aliases": [
      "Project Wooser"
    ],
    "external_database_ids": {
      "anilist": 15313,
      "myanimelist": 15313,
      "kitsu": 7238
    },
    "i18n": {
      "eng": "Wooser's Hand-to-Mouth Life",
      "ger": "Wooser lebt von der Hand in den Mund",
      "jpn": "うーさーのその日暮らし",
      "qro": "Wooser no Sono Higurashi"
    },
    "modified_at": "2020-03-31T19:04:33.135Z",
    "name": "Wooser no Sono Higurashi",
    "repository": "kara.moe",
    "tid": "563536cc-02cc-4573-89e8-ce2a095e4fbb",
    "types": [
      "series",
      "1",
      "franchises",
      "18"
    ]
  }
}