{
  "header": {
    "description": "Karaoke Mugen Tag File",
    "version": 1
  },
  "tag": {
    "i18n": {
      "eng": "WORLD ORDER"
    },
    "name": "WORLD ORDER",
    "tid": "94c8e59b-1e6a-43cc-80b1-720ea6a20942",
    "types": [
      "singers",
      "2",
      "songwriters",
      "8"
    ],
    "repository": "kara.moe",
    "modified_at": "2020-03-31T19:04:38.481Z"
  }
}