{
  "header": {
    "description": "Karaoke Mugen Tag File",
    "version": 1
  },
  "tag": {
    "external_database_ids": {
      "anilist": 20729,
      "myanimelist": 24405,
      "kitsu": 8631
    },
    "i18n": {
      "chi": "境界觸發者",
      "eng": "World Trigger",
      "jpn": "ワールドトリガー",
      "qro": "World Trigger"
    },
    "modified_at": "2020-03-31T19:04:33.140Z",
    "name": "World Trigger",
    "repository": "kara.moe",
    "tid": "c2a3b06d-f152-46a1-82c5-7528390df59b",
    "types": [
      "series",
      "1",
      "franchises",
      "18"
    ]
  }
}