{
  "header": {
    "description": "Karaoke Mugen Tag File",
    "version": 1
  },
  "tag": {
    "external_database_ids": {
      "anilist": 21764,
      "myanimelist": 33094,
      "kitsu": 12024
    },
    "i18n": {
      "eng": "WWW.Wagnaria!!",
      "fre": "WWW.Working!!",
      "jpn": "WWW.WORKING!!",
      "qro": "WWW.WORKING!!"
    },
    "modified_at": "2020-03-31T19:04:33.143Z",
    "name": "WWW.WORKING!!",
    "repository": "kara.moe",
    "tid": "349ce75e-ecff-4335-ab14-adcdacdf5ccc",
    "types": [
      "series",
      "1"
    ]
  }
}