{
  "header": {
    "description": "Karaoke Mugen Tag File",
    "version": 1
  },
  "tag": {
    "i18n": {
      "eng": "X-JAPAN"
    },
    "name": "X-JAPAN",
    "tid": "2f8218b1-1e28-4499-b63e-52ebfd9a00e3",
    "types": [
      "singers",
      "2"
    ],
    "repository": "kara.moe",
    "modified_at": "2020-03-31T19:04:38.483Z"
  }
}