{
  "header": {
    "description": "Karaoke Mugen Tag File",
    "version": 1
  },
  "tag": {
    "aliases": [
      "CLAMP",
      "X2"
    ],
    "external_database_ids": {
      "anilist": 2729,
      "myanimelist": 2729,
      "kitsu": 2489
    },
    "i18n": {
      "eng": "X²: Double X",
      "jpn": "X² ダブルエックス",
      "qro": "X2 Double X"
    },
    "modified_at": "2020-10-04T17:59:55.275Z",
    "name": "X2 Double X",
    "repository": "kara.moe",
    "tid": "6ca18e4c-aff5-48eb-9d72-97427c4f51b9",
    "types": [
      "series",
      "1"
    ]
  }
}