{
  "header": {
    "description": "Karaoke Mugen Tag File",
    "version": 1
  },
  "tag": {
    "i18n": {
      "eng": "XBlaze Lost: Memories",
      "jpn": "エクスブレイズ ロストメモリーズ",
      "qro": "XBlaze Lost Memories"
    },
    "modified_at": "2020-03-31T19:04:33.146Z",
    "name": "XBlaze Lost Memories",
    "repository": "kara.moe",
    "tid": "393c43c3-72be-4d78-8736-a31657cd3501",
    "types": [
      "series",
      "1"
    ]
  }
}