{
  "header": {
    "description": "Karaoke Mugen Tag File",
    "version": 1
  },
  "tag": {
    "i18n": {
      "eng": "Xemono"
    },
    "name": "Xemono",
    "repository": "kara.moe",
    "tid": "5c15a84c-6a6c-4d10-a57e-22157cedc4e6",
    "types": [
      "creators",
      "4"
    ]
  }
}