{
  "header": {
    "description": "Karaoke Mugen Tag File",
    "version": 1
  },
  "tag": {
    "aliases": [
      "زينوساجا"
    ],
    "external_database_ids": {
      "anilist": 184,
      "myanimelist": 184,
      "kitsu": 161
    },
    "i18n": {
      "eng": "Xenosaga: The Animation",
      "jpn": "ゼノサーガ THE ANIMATION",
      "qro": "Xenosaga THE ANIMATION"
    },
    "modified_at": "2020-06-21T23:45:31.966Z",
    "name": "Xenosaga THE ANIMATION",
    "repository": "kara.moe",
    "tid": "abebcad1-4c60-42bc-b24d-433d1f9241f0",
    "types": [
      "series",
      "1"
    ]
  }
}