{
  "header": {
    "description": "Karaoke Mugen Tag File",
    "version": 1
  },
  "tag": {
    "i18n": {
      "eng": "Xiào Zhàn",
      "chi": "肖战"
    },
    "modified_at": "2021-03-13T15:53:35.942Z",
    "name": "Xiào Zhàn",
    "repository": "kara.moe",
    "tid": "ad3e6306-6d8a-4b13-a4fb-5e395b505f2a",
    "types": [
      "singers",
      "2"
    ]
  }
}