{
  "header": {
    "description": "Karaoke Mugen Tag File",
    "version": 1
  },
  "tag": {
    "i18n": {
      "eng": "Xibao gege"
    },
    "modified_at": "2021-04-19T18:49:37.904Z",
    "name": "Xibao gege",
    "repository": "kara.moe",
    "tid": "48e52d50-d88f-4ade-b368-2352d525766b",
    "types": [
      "songwriters",
      "8"
    ]
  }
}