{
  "header": {
    "description": "Karaoke Mugen Tag File",
    "version": 1
  },
  "tag": {
    "i18n": {
      "eng": "Xiimoon"
    },
    "name": "Xiimoon",
    "repository": "kara.moe",
    "tid": "6b4c510a-7095-4c55-8a6d-bf476fb4eb3d",
    "types": [
      "creators",
      "4"
    ]
  }
}