{
  "header": {
    "description": "Karaoke Mugen Tag File",
    "version": 1
  },
  "tag": {
    "i18n": {
      "eng": "Xilam"
    },
    "name": "Xilam",
    "tid": "b93a3d46-d939-4b4d-b77a-5783ac4e6852",
    "types": [
      "creators",
      "4"
    ],
    "repository": "kara.moe",
    "modified_at": "2020-03-31T19:04:38.491Z"
  }
}