{
  "header": {
    "description": "Karaoke Mugen Tag File",
    "version": 1
  },
  "tag": {
    "i18n": {
      "eng": "XUSE"
    },
    "name": "XUSE",
    "tid": "413991d1-75dd-465b-9c6f-9ea288edb242",
    "types": [
      "creators",
      "4"
    ],
    "repository": "kara.moe",
    "modified_at": "2020-03-31T19:04:38.493Z"
  }
}