{
  "header": {
    "description": "Karaoke Mugen Tag File",
    "version": 1
  },
  "tag": {
    "i18n": {
      "eng": "xX 14THMOON Xx"
    },
    "modified_at": "1982-04-06",
    "name": "xX 14THMOON Xx",
    "repository": "kara.moe",
    "tid": "0497f520-93f0-4ae3-a9af-c1a4d53a571c",
    "types": [
      "authors",
      "6"
    ]
  }
}