{
  "header": {
    "description": "Karaoke Mugen Tag File",
    "version": 1
  },
  "tag": {
    "i18n": {
      "eng": "Yagi Takayuki"
    },
    "name": "Yagi Takayuki",
    "tid": "e7022522-dcb1-4b64-ad40-2187766bce57",
    "types": [
      "songwriters",
      "8"
    ],
    "repository": "kara.moe",
    "modified_at": "2020-03-31T19:04:38.498Z"
  }
}