{
  "header": {
    "description": "Karaoke Mugen Tag File",
    "version": 1
  },
  "tag": {
    "aliases": [
      "OreGairu 2",
      "OreGairu Zoku",
      "SNAFU 2",
      "Yahari Ore no Seishun Love Come wa Machigatteiru Zoku",
      "Yahari Ore no Seishun Love Come wa Machigatteiru. Zoku",
      "Yahari Ore no Seishun Love Comedy wa Machigatteiru Zoku"
    ],
    "external_database_ids": {
      "anilist": 20698,
      "myanimelist": 23847,
      "kitsu": 8478
    },
    "i18n": {
      "eng": "My Teen Romantic Comedy: SNAFU Too!",
      "jpn": "やはり俺の青春ラブコメはまちがっている. 続",
      "kor": "역시 내 청춘 러브코메디는 잘못됐다. 속",
      "qro": "Yahari Ore no Seishun Love Comedy wa Machigatte Iru. Zoku"
    },
    "modified_at": "2020-03-31T19:04:33.152Z",
    "name": "Yahari Ore no Seishun Love Comedy wa Machigatte Iru. Zoku",
    "repository": "kara.moe",
    "tid": "c30b6038-929a-4a13-93d2-fcadf295d4e0",
    "types": [
      "series",
      "1"
    ]
  }
}