{
  "header": {
    "description": "Karaoke Mugen Tag File",
    "version": 1
  },
  "tag": {
    "aliases": [
      "My Teenage RomCom SNAFU",
      "My Youth Romantic Comedy Is Wrong As I Expected.",
      "OreGairu",
      "Yahari Ore no Seishun Love Comedy wa Machigatteiru",
      "Както си и мислех романтиката в училищния ми живот не се получи"
    ],
    "external_database_ids": {
      "anilist": 14813,
      "myanimelist": 14813,
      "kitsu": 7169
    },
    "i18n": {
      "chi": "果然我的青春戀愛喜劇搞錯了.",
      "eng": "My Teen Romantic Comedy: SNAFU",
      "jpn": "やはり俺の青春ラブコメはまちがっている.",
      "kor": "역시 내 청춘 러브코메디는 잘못됐다.",
      "pol": "Yahari Ore no Seishun Love Come wa Machigatteiru",
      "qro": "Yahari Ore no Seishun Love Comedy wa Machigatte Iru."
    },
    "modified_at": "2020-03-31T19:04:33.153Z",
    "name": "Yahari Ore no Seishun Love Comedy wa Machigatte Iru.",
    "repository": "kara.moe",
    "tid": "a2f4f856-b913-46f8-8996-5939e7f9deee",
    "types": [
      "series",
      "1",
      "franchises",
      "18"
    ]
  }
}