{
  "header": {
    "description": "Karaoke Mugen Tag File",
    "version": 1
  },
  "tag": {
    "i18n": {
      "fre": "Yakari"
    },
    "modified_at": "2020-03-31T19:04:33.153Z",
    "name": "Yakari",
    "repository": "kara.moe",
    "tid": "df9a4084-054e-4310-8c7a-f24de71c97ba",
    "types": [
      "series",
      "1"
    ]
  }
}