{
  "header": {
    "description": "Karaoke Mugen Tag File",
    "version": 1
  },
  "tag": {
    "external_database_ids": {
      "anilist": 135939,
      "kitsu": 44787,
      "myanimelist": 49263
    },
    "i18n": {
      "eng": "Let's Make a Mug Too 2",
      "jpn": "やくならマグカップも 二番窯",
      "qro": "Yakunara Mug Cup Mo Niban Kama"
    },
    "name": "Yakunara Mug Cup Mo Niban Kama",
    "repository": "kara.moe",
    "tid": "ebbf8ee6-dc1f-4599-ae65-96981049eb33",
    "types": [
      "series",
      "1"
    ]
  }
}