{
  "header": {
    "description": "Karaoke Mugen Tag File",
    "version": 1
  },
  "tag": {
    "i18n": {
      "eng": "Yamatoworks"
    },
    "name": "Yamatoworks",
    "tid": "3f7420e3-d1c9-44b1-bd20-f6ba0f4d9ccf",
    "types": [
      "creators",
      "4"
    ],
    "repository": "kara.moe",
    "modified_at": "2020-03-31T19:04:38.505Z"
  }
}