{
  "header": {
    "description": "Karaoke Mugen Tag File",
    "version": 1
  },
  "tag": {
    "aliases": [
      "YamaSusu",
      "ネクストサミット"
    ],
    "external_database_ids": {
      "anilist": 131182,
      "kitsu": 44193,
      "myanimelist": 48491
    },
    "i18n": {
      "eng": "Encouragement of Climb: Next Summit",
      "jpn": "ヤマノススメ Next Summit",
      "qro": "Yama no Susume Next Summit"
    },
    "name": "Yama no Susume Next Summit",
    "repository": "kara.moe",
    "tid": "3ba1fa38-35b7-4984-a245-41eb334eb5e9",
    "types": [
      "series",
      "1"
    ]
  }
}