{
  "header": {
    "description": "Karaoke Mugen Tag File",
    "version": 1
  },
  "tag": {
    "i18n": {
      "eng": "yama"
    },
    "name": "yama",
    "repository": "kara.moe",
    "tid": "715407a5-ec50-4386-b3b7-de28af57b832",
    "types": [
      "singers",
      "2"
    ]
  }
}