{
  "header": {
    "description": "Karaoke Mugen Tag File",
    "version": 1
  },
  "tag": {
    "i18n": {
      "eng": "Yami Tengu"
    },
    "name": "Yami Tengu",
    "tid": "4da27e96-467e-4230-9f17-672d6e0b8748",
    "types": [
      "songwriters",
      "8"
    ],
    "repository": "kara.moe",
    "modified_at": "2020-03-31T19:04:38.507Z"
  }
}