{
  "header": {
    "description": "Karaoke Mugen Tag File",
    "version": 1
  },
  "tag": {
    "aliases": [
      "Descendant of the Dark",
      "Descent into Darkness",
      "The Darker Descendant",
      "Yami no matsuei: Ostatni synowie ciemności",
      "YnM",
      "Нащадки пітьми",
      "Потомки тьмы"
    ],
    "external_database_ids": {
      "anilist": 553,
      "myanimelist": 553,
      "kitsu": 510
    },
    "i18n": {
      "eng": "Descendants of Darkness",
      "ita": "Eredi del buio",
      "jpn": "闇の末裔",
      "qro": "Yami no Matsuei"
    },
    "modified_at": "2020-03-31T19:04:33.160Z",
    "name": "Yami no Matsuei",
    "repository": "kara.moe",
    "tid": "a1774ca6-d775-4b40-a929-639fa36a5127",
    "types": [
      "series",
      "1"
    ]
  }
}