{
  "header": {
    "description": "Karaoke Mugen Tag File",
    "version": 1
  },
  "tag": {
    "aliases": [
      "Japanese Ghost Stories Second Season",
      "Yamishibai"
    ],
    "external_database_ids": {
      "anilist": 20669,
      "kitsu": 8359,
      "myanimelist": 22537
    },
    "i18n": {
      "eng": "Theater of Darkness 2nd Season",
      "jpn": "闇芝居 2期",
      "qro": "Yami Shibai 2 ki"
    },
    "name": "Yami Shibai 2",
    "repository": "kara.moe",
    "tid": "37d1f170-8b2d-4078-876b-d8dd73ea4844",
    "types": [
      "series",
      "1"
    ]
  }
}