{
  "header": {
    "description": "Karaoke Mugen Tag File",
    "version": 1
  },
  "tag": {
    "i18n": {
      "eng": "YAMOTO"
    },
    "name": "YAMOTO",
    "tid": "76ec202b-13dc-42cf-9382-d340647f3617",
    "types": [
      "singers",
      "2"
    ],
    "repository": "kara.moe",
    "modified_at": "2020-03-31T19:04:38.508Z"
  }
}