{
  "header": {
    "description": "Karaoke Mugen Tag File",
    "version": 1
  },
  "tag": {
    "i18n": {
      "eng": "Yanggang"
    },
    "name": "Yanggang",
    "tid": "eaadb2a8-dbe6-45fa-8a54-ff934a255963",
    "types": [
      "songwriters",
      "8"
    ],
    "repository": "kara.moe",
    "modified_at": "2020-03-31T19:04:38.510Z"
  }
}