{
  "header": {
    "description": "Karaoke Mugen Tag File",
    "version": 1
  },
  "tag": {
    "i18n": {
      "eng": "Yang Rui"
    },
    "name": "Yang Rui",
    "repository": "kara.moe",
    "tid": "7ef38d69-082a-476b-b0c1-3179e542e620",
    "types": [
      "songwriters",
      "8"
    ]
  }
}