{
  "header": {
    "description": "Karaoke Mugen Tag File",
    "version": 1
  },
  "tag": {
    "i18n": {
      "eng": "Yannick"
    },
    "name": "Yannick",
    "tid": "751bf2a3-9873-4fcc-bd31-2fa3e6bd57cd",
    "types": [
      "singers",
      "2",
      "songwriters",
      "8"
    ],
    "repository": "kara.moe",
    "modified_at": "2020-03-31T19:04:38.512Z"
  }
}