{
  "header": {
    "description": "Karaoke Mugen Tag File",
    "version": 1
  },
  "tag": {
    "i18n": {
      "eng": "Yashikin"
    },
    "name": "Yashikin",
    "tid": "79b26d2f-a036-4ad5-b274-fc4ddaff1b05",
    "types": [
      "songwriters",
      "8"
    ],
    "repository": "kara.moe",
    "modified_at": "2020-03-31T19:04:38.514Z"
  }
}