{
  "header": {
    "description": "Karaoke Mugen Tag File",
    "version": 1
  },
  "tag": {
    "i18n": {
      "eng": "Yasushi Ishikawa"
    },
    "name": "Yasushi Ishikawa",
    "tid": "599238a1-0e54-4fdc-a4dc-6a58cc9f771f",
    "types": [
      "songwriters",
      "8"
    ],
    "repository": "kara.moe",
    "modified_at": "2020-03-31T19:04:38.534Z"
  }
}