{
  "header": {
    "description": "Karaoke Mugen Tag File",
    "version": 1
  },
  "tag": {
    "i18n": {
      "eng": "Yasushi Sakurai"
    },
    "name": "Yasushi Sakurai",
    "tid": "3ef0e028-eb44-428b-8308-fc2c2b158b54",
    "types": [
      "songwriters",
      "8"
    ],
    "repository": "kara.moe",
    "modified_at": "2020-03-31T19:04:38.535Z"
  }
}