{
  "header": {
    "description": "Karaoke Mugen Tag File",
    "version": 1
  },
  "tag": {
    "i18n": {
      "eng": "Yasuhiro Misawa"
    },
    "name": "Yasuhiro Misawa",
    "tid": "70452b0e-cde2-48f7-a6e0-fc0915a3c9ce",
    "types": [
      "songwriters",
      "8"
    ],
    "repository": "kara.moe",
    "modified_at": "2020-03-31T19:04:38.523Z"
  }
}