{
  "header": {
    "description": "Karaoke Mugen Tag File",
    "version": 1
  },
  "tag": {
    "i18n": {
      "eng": "Yasuharu Takanashi"
    },
    "name": "Yasuharu Takanashi",
    "tid": "2a88cce0-66f5-40c6-b46f-e9a4240141ef",
    "types": [
      "songwriters",
      "8"
    ],
    "repository": "kara.moe",
    "modified_at": "2020-03-31T19:04:38.519Z"
  }
}