{
  "header": {
    "description": "Karaoke Mugen Tag File",
    "version": 1
  },
  "tag": {
    "i18n": {
      "eng": "Yasuko Matsuyuki"
    },
    "modified_at": "2021-03-08T21:19:31.105Z",
    "name": "Yasuko Matsuyuki",
    "repository": "kara.moe",
    "tid": "d60e40b5-db8d-446a-8b1c-898f83f113b4",
    "types": [
      "songwriters",
      "8",
      "singers",
      "2"
    ]
  }
}