{
  "header": {
    "description": "Karaoke Mugen Tag File",
    "version": 1
  },
  "tag": {
    "i18n": {
      "eng": "Yasuda Sonkou"
    },
    "name": "Yasuda Sonkou",
    "tid": "413f3a39-c867-408b-ba85-9a153430c645",
    "types": [
      "songwriters",
      "8"
    ],
    "repository": "kara.moe",
    "modified_at": "2020-03-31T19:04:38.518Z"
  }
}