{
  "header": {
    "description": "Karaoke Mugen Tag File",
    "version": 1
  },
  "tag": {
    "aliases": [
      "YAT Anshin! Uchuu Ryokou",
      "Yamamoto Anshin Travel",
      "uchuu",
      "ryokou"
    ],
    "external_database_ids": {
      "anilist": 1891,
      "myanimelist": 1891,
      "kitsu": 1701
    },
    "i18n": {
      "eng": "YAT Anshin! Luxury Space Tours",
      "jpn": "YAT 安心!宇宙旅行",
      "heb": "יאמאמוטו נסיעות",
      "qro": "YAT Anshin! Uchû Ryokô"
    },
    "modified_at": "2020-08-20T22:49:54.004Z",
    "name": "YAT Anshin! Uchû Ryokô",
    "repository": "kara.moe",
    "tid": "e0f39451-931b-4109-ac84-69e74adb7a35",
    "types": [
      "series",
      "1"
    ]
  }
}