{
  "header": {
    "description": "Karaoke Mugen Tag File",
    "version": 1
  },
  "tag": {
    "i18n": {
      "eng": "Yellowshark"
    },
    "name": "Yellowshark",
    "tid": "6f1aff15-77da-4572-b580-2196a8a053cb",
    "types": [
      "songwriters",
      "8"
    ],
    "repository": "kara.moe",
    "modified_at": "2020-03-31T19:04:38.540Z"
  }
}