{
  "header": {
    "description": "Karaoke Mugen Tag File",
    "version": 1
  },
  "tag": {
    "i18n": {
      "eng": "Yeti Beats"
    },
    "modified_at": "2021-06-20T13:04:26.632Z",
    "name": "Yeti Beats",
    "repository": "kara.moe",
    "tid": "5eafbf0e-bb20-44b8-9b6f-d0648851fec2",
    "types": [
      "songwriters",
      "8"
    ]
  }
}