{
  "header": {
    "description": "Karaoke Mugen Tag File",
    "version": 1
  },
  "tag": {
    "i18n": {
      "eng": "ygarshy"
    },
    "name": "ygarshy",
    "tid": "a1fa74a3-4185-4faf-aae6-d1b9f07784f0",
    "types": [
      "songwriters",
      "8"
    ],
    "repository": "kara.moe",
    "modified_at": "2020-03-31T19:04:38.545Z"
  }
}