{
  "header": {
    "description": "Karaoke Mugen Tag File",
    "version": 1
  },
  "tag": {
    "i18n": {
      "eng": "YJM"
    },
    "name": "YJM",
    "repository": "kara.moe",
    "tid": "d96311c3-9ab0-4a6d-aa76-0e0889fc0758",
    "types": [
      "songwriters",
      "8"
    ]
  }
}