{
  "header": {
    "description": "Karaoke Mugen Tag File",
    "version": 1
  },
  "tag": {
    "i18n": {
      "eng": "YM"
    },
    "name": "YM",
    "repository": "kara.moe",
    "tid": "1dc0f02e-7e9e-416c-88e6-a8bd05e94cd5",
    "types": [
      "songwriters",
      "8",
      "creators",
      "4"
    ]
  }
}