{
  "header": {
    "description": "Karaoke Mugen Tag File",
    "version": 1
  },
  "tag": {
    "i18n": {
      "eng": "Yocke"
    },
    "name": "Yocke",
    "tid": "ee3ddaab-3b56-4b5a-924a-eec5daba22f3",
    "types": [
      "songwriters",
      "8"
    ],
    "repository": "kara.moe",
    "modified_at": "2020-03-31T19:04:38.548Z"
  }
}