{
  "header": {
    "description": "Karaoke Mugen Tag File",
    "version": 1
  },
  "tag": {
    "i18n": {
      "eng": "Yohichi Shigami"
    },
    "modified_at": "2021-03-21T14:06:45.589Z",
    "name": "Yohichi Shigami",
    "repository": "kara.moe",
    "tid": "601af331-e47c-4696-a7c8-358954deb699",
    "types": [
      "songwriters",
      "8",
      "singers",
      "2"
    ]
  }
}