{
  "header": {
    "description": "Karaoke Mugen Tag File",
    "version": 1
  },
  "tag": {
    "i18n": {
      "eng": "yonkey"
    },
    "modified_at": "2021-05-23T18:57:21.449Z",
    "name": "yonkey",
    "repository": "kara.moe",
    "tid": "20be0024-c980-4aa8-902e-efd2a6af3c83",
    "types": [
      "songwriters",
      "8"
    ]
  }
}