{
  "header": {
    "description": "Karaoke Mugen Tag File",
    "version": 1
  },
  "tag": {
    "i18n": {
      "eng": "Yoon Du Jun"
    },
    "name": "Yoon Du Jun",
    "tid": "5b6c3906-da5f-4bb4-991b-f65e3d90fa14",
    "types": [
      "singers",
      "2"
    ],
    "repository": "kara.moe",
    "modified_at": "2020-03-31T19:04:38.562Z"
  }
}