{
  "header": {
    "description": "Karaoke Mugen Tag File",
    "version": 1
  },
  "tag": {
    "aliases": [
      "Armor Legend Samurai Troopers",
      "Legendary Armor Samurai Troopers",
      "Ronin Warriors",
      "Samurai Warriors",
      "魔神坛斗士"
    ],
    "external_database_ids": {
      "anilist": 1264,
      "myanimelist": 1264,
      "kitsu": 1139
    },
    "i18n": {
      "eng": "Ronin Warriors",
      "fre": "Les Samouraïs de l'éternel",
      "ita": "I Cinque Samurai",
      "jpn": "鎧伝サムライトルーパー",
      "por": "Samurai Warriors",
      "qro": "Yoroiden Samurai Troopers"
    },
    "modified_at": "2020-03-31T19:04:33.170Z",
    "name": "Yoroiden Samurai Troopers",
    "repository": "kara.moe",
    "tid": "67327f74-9d50-4e1d-8873-7d6bb2a1a0fa",
    "types": [
      "series",
      "1"
    ]
  }
}