{
  "header": {
    "description": "Karaoke Mugen Tag File",
    "version": 1
  },
  "tag": {
    "aliases": [
      "suis"
    ],
    "i18n": {
      "eng": "Yorushika"
    },
    "name": "Yorushika",
    "repository": "kara.moe",
    "tid": "29159405-9d6e-482e-beb8-8a390e1184d7",
    "types": [
      "singers",
      "2"
    ],
    "modified_at": "2020-03-31T19:04:38.567Z"
  }
}