{
  "header": {
    "description": "Karaoke Mugen Tag File",
    "version": 1
  },
  "tag": {
    "i18n": {
      "eng": "Yoshida Brothers",
      "jpn": "吉田兄弟",
      "qro": "Yoshida Brothers"
    },
    "modified_at": "2021-06-14T10:42:42.836Z",
    "name": "Yoshida Brothers",
    "repository": "kara.moe",
    "tid": "ee98c2a4-3579-4165-ad9d-11ff267eabc0",
    "types": [
      "songwriters",
      "8",
      "singers",
      "2"
    ]
  }
}