{
  "header": {
    "description": "Karaoke Mugen Tag File",
    "version": 1
  },
  "tag": {
    "i18n": {
      "eng": "Yoshiko Kondo"
    },
    "name": "Yoshiko Kondo",
    "tid": "a2c304fe-455c-4db2-8f7a-c5d69c361435",
    "types": [
      "singers",
      "2"
    ],
    "repository": "kara.moe",
    "modified_at": "2020-03-31T19:04:38.594Z"
  }
}