{
  "header": {
    "description": "Karaoke Mugen Tag File",
    "version": 1
  },
  "tag": {
    "i18n": {
      "eng": "Yoshitomo"
    },
    "name": "Yoshitomo",
    "tid": "9c9b3040-38fa-4d96-9267-50bbae02c954",
    "types": [
      "songwriters",
      "8"
    ],
    "repository": "kara.moe",
    "modified_at": "2020-03-31T19:04:38.616Z"
  }
}