{
  "header": {
    "description": "Karaoke Mugen Tag File",
    "version": 1
  },
  "tag": {
    "i18n": {
      "eng": "Yoshikazu Mera"
    },
    "name": "Yoshikazu Mera",
    "tid": "db52fd5b-b747-4c79-93ef-7c28bf213255",
    "types": [
      "singers",
      "2"
    ],
    "repository": "kara.moe",
    "modified_at": "2020-03-31T19:04:38.587Z"
  }
}