{
  "header": {
    "description": "Karaoke Mugen Tag File",
    "version": 1
  },
  "tag": {
    "i18n": {
      "eng": "Yoshie Arrieu"
    },
    "name": "Yoshie Arrieu",
    "repository": "kara.moe",
    "tid": "5acb3f02-a155-4f0e-8502-0e50e542b043",
    "types": [
      "songwriters",
      "8"
    ]
  }
}