{
  "header": {
    "description": "Karaoke Mugen Tag File",
    "version": 1
  },
  "tag": {
    "i18n": {
      "eng": "Yoshirou Iwakiri"
    },
    "name": "Yoshirou Iwakiri",
    "tid": "67c3744b-a66e-4f36-86f1-9f8d190bf796",
    "types": [
      "songwriters",
      "8"
    ],
    "repository": "kara.moe",
    "modified_at": "2020-03-31T19:04:38.610Z"
  }
}