{
  "header": {
    "description": "Karaoke Mugen Tag File",
    "version": 1
  },
  "tag": {
    "i18n": {
      "eng": "Yoshiyuki Kamogawa"
    },
    "modified_at": "2020-08-21T16:59:06.008Z",
    "name": "Yoshiyuki Kamogawa",
    "repository": "kara.moe",
    "tid": "2181f7fb-86e2-45ec-8ca8-d0fab0e541f5",
    "types": [
      "songwriters",
      "8"
    ]
  }
}