{
  "header": {
    "description": "Karaoke Mugen Tag File",
    "version": 1
  },
  "tag": {
    "i18n": {
      "eng": "Yoshino Aoyama"
    },
    "name": "Yoshino Aoyama",
    "repository": "kara.moe",
    "tid": "31346b9e-b555-45df-9f1a-ca16f7d724b2",
    "types": [
      "singers",
      "2"
    ]
  }
}