{
  "header": {
    "description": "Karaoke Mugen Tag File",
    "version": 1
  },
  "tag": {
    "i18n": {
      "eng": "Yoshiki Minami"
    },
    "name": "Yoshiki Minami",
    "tid": "c494f93d-cf87-45af-ada1-291c74bc34ee",
    "types": [
      "songwriters",
      "8"
    ],
    "repository": "kara.moe",
    "modified_at": "2020-03-31T19:04:38.590Z"
  }
}