{
  "header": {
    "description": "Karaoke Mugen Tag File",
    "version": 1
  },
  "tag": {
    "i18n": {
      "eng": "Yoshiaki Fujisawa"
    },
    "name": "Yoshiaki Fujisawa",
    "tid": "8222585a-dc0f-42e4-ad35-1af82651de95",
    "types": [
      "songwriters",
      "8"
    ],
    "repository": "kara.moe",
    "modified_at": "2020-03-31T19:04:38.569Z"
  }
}