{
  "header": {
    "description": "Karaoke Mugen Tag File",
    "version": 1
  },
  "tag": {
    "aliases": [
      "toku",
      "TokuP",
      "toku-P"
    ],
    "i18n": {
      "eng": "Yoshinori Abe",
      "jpn": "阿部 尚徳",
      "qro": "Yoshinori Abe"
    },
    "name": "Yoshinori Abe",
    "repository": "kara.moe",
    "tid": "30450ae7-a46f-41aa-a791-5d2c2697ee20",
    "types": [
      "songwriters",
      "8"
    ],
    "modified_at": "2020-03-31T19:04:38.606Z"
  }
}