{
  "header": {
    "description": "Karaoke Mugen Tag File",
    "version": 1
  },
  "tag": {
    "i18n": {
      "eng": "Yoshitake Suzuki"
    },
    "name": "Yoshitake Suzuki",
    "tid": "36e81f28-b673-488e-960e-74356f4e5a63",
    "types": [
      "songwriters",
      "8"
    ],
    "repository": "kara.moe",
    "modified_at": "2020-03-31T19:04:38.614Z"
  }
}