{
  "header": {
    "description": "Karaoke Mugen Tag File",
    "version": 1
  },
  "tag": {
    "i18n": {
      "eng": "Yoshiki Aoi"
    },
    "name": "Yoshiki Aoi",
    "tid": "2aa519a3-f79a-458f-9ab8-c5676c8c7a3e",
    "types": [
      "songwriters",
      "8"
    ],
    "repository": "kara.moe",
    "modified_at": "2020-03-31T19:04:38.588Z"
  }
}