{
  "header": {
    "description": "Karaoke Mugen Tag File",
    "version": 1
  },
  "tag": {
    "i18n": {
      "eng": "Yoshiki Takagi"
    },
    "modified_at": "2020-08-15T23:19:19.056Z",
    "name": "Yoshiki Takagi",
    "repository": "kara.moe",
    "tid": "c403c230-3bfe-447b-9afa-a925b6bb82ee",
    "types": [
      "songwriters",
      "8"
    ]
  }
}