{
  "header": {
    "description": "Karaoke Mugen Tag File",
    "version": 1
  },
  "tag": {
    "i18n": {
      "eng": "Yosuke Kori"
    },
    "name": "Yosuke Kori",
    "repository": "kara.moe",
    "tid": "2c8d45e5-73eb-4412-8fc2-2253fcb1e32f",
    "types": [
      "songwriters",
      "8"
    ]
  }
}