{
  "header": {
    "description": "Karaoke Mugen Tag File",
    "version": 1
  },
  "tag": {
    "aliases": [
      "you",
      "Yukisan",
      "有機酸",
      "yoh"
    ],
    "i18n": {
      "eng": "Yô Kamiyama",
      "jpn": "神山 羊",
      "qro": "Yô Kamiyama"
    },
    "name": "Yô Kamiyama",
    "repository": "kara.moe",
    "tid": "48f8bfe5-dde8-4f10-87d0-9dd8c71f04e6",
    "types": [
      "songwriters",
      "8",
      "singers",
      "2"
    ]
  }
}