{
  "header": {
    "description": "Karaoke Mugen Tag File",
    "version": 1
  },
  "tag": {
    "aliases": [
      "You Toomi"
    ],
    "i18n": {
      "eng": "Yô Toomi"
    },
    "modified_at": "2020-08-17T21:01:45.549Z",
    "name": "Yô Toomi",
    "repository": "kara.moe",
    "tid": "69a3579a-2a6d-4b35-829e-65fd0ac1e99e",
    "types": [
      "songwriters",
      "8"
    ]
  }
}