{
  "header": {
    "description": "Karaoke Mugen Tag File",
    "version": 1
  },
  "tag": {
    "i18n": {
      "eng": "Yô Hitoto"
    },
    "name": "Yô Hitoto",
    "tid": "5b0ba4ca-f297-4c2c-a404-8c38d6840e84",
    "types": [
      "singers",
      "2",
      "songwriters",
      "8"
    ],
    "repository": "kara.moe",
    "modified_at": "2020-03-31T19:04:38.620Z"
  }
}