{
  "header": {
    "description": "Karaoke Mugen Tag File",
    "version": 1
  },
  "tag": {
    "i18n": {
      "eng": "Youetsu"
    },
    "name": "Youetsu",
    "tid": "6fc73ab2-ddad-425e-a0b9-155c89a8994b",
    "types": [
      "creators",
      "4"
    ],
    "repository": "kara.moe",
    "modified_at": "2020-03-31T19:04:38.636Z"
  }
}