{
  "header": {
    "description": "Karaoke Mugen Tag File",
    "version": 1
  },
  "tag": {
    "i18n": {
      "eng": "Yôji Noi"
    },
    "modified_at": "2021-11-20T16:40:50.090Z",
    "name": "Yôji Noi",
    "repository": "kara.moe",
    "tid": "ee001525-9f87-4b10-ab11-0239bdfd0e90",
    "types": [
      "songwriters",
      "8"
    ]
  }
}