{
  "header": {
    "description": "Karaoke Mugen Tag File",
    "version": 1
  },
  "tag": {
    "i18n": {
      "eng": "Yôko Mizugaki"
    },
    "name": "Yôko Mizugaki",
    "tid": "f50369b3-2f06-4a90-93e7-e6089c8632e6",
    "types": [
      "singers",
      "2"
    ],
    "repository": "kara.moe",
    "modified_at": "2020-03-31T19:04:38.646Z"
  }
}