{
  "header": {
    "description": "Karaoke Mugen Tag File",
    "version": 1
  },
  "tag": {
    "i18n": {
      "eng": "Yômu Tôbatsu-tai"
    },
    "name": "Yômu Tôbatsu-tai",
    "tid": "668ae7d6-5dd7-480b-8ead-d9d9767d52a2",
    "types": [
      "singers",
      "2"
    ],
    "repository": "kara.moe",
    "modified_at": "2020-03-31T19:04:38.652Z"
  }
}