{
  "header": {
    "description": "Karaoke Mugen Tag File",
    "version": 1
  },
  "tag": {
    "i18n": {
      "eng": "YOUR SONG IS GOOD"
    },
    "name": "YOUR SONG IS GOOD",
    "tid": "2967fdbe-0bd3-4971-b17e-4febf96e7184",
    "types": [
      "songwriters",
      "8"
    ],
    "repository": "kara.moe",
    "modified_at": "2020-03-31T19:04:38.655Z"
  }
}