{
  "header": {
    "description": "Karaoke Mugen Tag File",
    "version": 1
  },
  "tag": {
    "aliases": [
      "ANI"
    ],
    "i18n": {
      "eng": "Yôsuke Matsumoto",
      "jpn": "松本洋介"
    },
    "name": "Yôsuke Matsumoto",
    "repository": "kara.moe",
    "tid": "cbd37551-c583-4254-b352-7dc9dd8d9abd",
    "types": [
      "singers",
      "2",
      "songwriters",
      "8"
    ]
  }
}