{
  "header": {
    "description": "Karaoke Mugen Tag File",
    "version": 1
  },
  "tag": {
    "aliases": [
      "Yousuke"
    ],
    "i18n": {
      "eng": "Yôsuke Watanabe",
      "jpn": "渡辺 庸介"
    },
    "name": "Yôsuke Watanabe",
    "repository": "kara.moe",
    "tid": "d9f0dddf-0f15-44a4-beea-ec0f4b82bc6c",
    "types": [
      "songwriters",
      "8"
    ]
  }
}