{
  "header": {
    "description": "Karaoke Mugen Tag File",
    "version": 1
  },
  "tag": {
    "aliases": [
      "YowaPeda Glory Line",
      "Yowamushi Pedal - Glory Line",
      "Yowamushi Pedal Glory Line"
    ],
    "external_database_ids": {
      "anilist": 99476,
      "myanimelist": 35789,
      "kitsu": 13594
    },
    "i18n": {
      "chi": "飙速宅男 GLORY LINE",
      "eng": "Yowamushi Pedal 4: Glory Line",
      "fre": "En selle, Sakamichi ! (saison 4)",
      "jpn": "弱虫ペダル GLORY LINE",
      "kor": "겁쟁이 페달 글로리 라인",
      "qro": "Yowamushi Pedal: Glory Line"
    },
    "modified_at": "2020-03-31T19:04:33.175Z",
    "name": "Yowamushi Pedal: Glory Line",
    "repository": "kara.moe",
    "tid": "6213e1b2-8768-4a22-97bb-613daf900819",
    "types": [
      "series",
      "1"
    ]
  }
}