{
  "header": {
    "description": "Karaoke Mugen Tag File",
    "version": 1
  },
  "tag": {
    "i18n": {
      "eng": "YP"
    },
    "modified_at": "2021-12-05T17:25:38.636Z",
    "name": "YP",
    "repository": "kara.moe",
    "tid": "95662cae-f4dc-4cdb-9d5f-2406158fe3fc",
    "types": [
      "creators",
      "4"
    ]
  }
}