{
  "header": {
    "description": "Karaoke Mugen Tag File",
    "version": 1
  },
  "tag": {
    "i18n": {
      "eng": "Yu Tokiwa"
    },
    "name": "Yu Tokiwa",
    "tid": "e0054516-88d0-4b76-b94c-cc6d7c5e3e63",
    "types": [
      "singers",
      "2"
    ],
    "repository": "kara.moe",
    "modified_at": "2020-03-31T19:04:38.663Z"
  }
}