{
  "header": {
    "description": "Karaoke Mugen Tag File",
    "version": 1
  },
  "tag": {
    "i18n": {
      "eng": "Yu-pan."
    },
    "name": "Yu-pan.",
    "tid": "013d5973-a2a5-479f-aae4-45329bbe1a57",
    "types": [
      "songwriters",
      "8"
    ],
    "repository": "kara.moe",
    "modified_at": "2020-03-31T19:04:38.664Z"
  }
}