{
  "header": {
    "description": "Karaoke Mugen Tag File",
    "version": 1
  },
  "tag": {
    "i18n": {
      "eng": "Yudis Dwikorana"
    },
    "name": "Yudis Dwikorana",
    "repository": "kara.moe",
    "tid": "d915d0cd-c02c-45b4-9501-cfb12af01ec5",
    "types": [
      "songwriters",
      "8"
    ]
  }
}