{
  "header": {
    "description": "Karaoke Mugen Tag File",
    "version": 1
  },
  "tag": {
    "i18n": {
      "eng": "Yui Nakajima"
    },
    "name": "Yui Nakajima",
    "tid": "4506e952-3d27-4bc7-a382-c6829f9a36a2",
    "types": [
      "singers",
      "2"
    ],
    "repository": "kara.moe",
    "modified_at": "2020-03-31T19:04:38.673Z"
  }
}