{
  "header": {
    "description": "Karaoke Mugen Tag File",
    "version": 1
  },
  "tag": {
    "i18n": {
      "eng": "YUI"
    },
    "name": "YUI",
    "tid": "c7157cf5-e8bc-4e99-8028-33edbb268298",
    "types": [
      "singers",
      "2",
      "songwriters",
      "8"
    ],
    "repository": "kara.moe",
    "modified_at": "2020-03-31T19:04:38.678Z"
  }
}