{
  "header": {
    "description": "Karaoke Mugen Tag File",
    "version": 1
  },
  "tag": {
    "i18n": {
      "eng": "yuji"
    },
    "name": "yuji",
    "tid": "ea380ab2-8963-49b6-aa3c-e0da48fdf102",
    "types": [
      "songwriters",
      "8"
    ],
    "repository": "kara.moe",
    "modified_at": "2020-03-31T19:04:38.686Z"
  }
}