{
  "header": {
    "description": "Karaoke Mugen Tag File",
    "version": 1
  },
  "tag": {
    "i18n": {
      "eng": "Yuji Hyômoto"
    },
    "name": "Yuji Hyômoto",
    "tid": "7f7b6af1-8b21-4bfa-ac5f-b3285d373d18",
    "types": [
      "songwriters",
      "8"
    ],
    "repository": "kara.moe",
    "modified_at": "2020-03-31T19:04:38.684Z"
  }
}