{
  "header": {
    "description": "Karaoke Mugen Tag File",
    "version": 1
  },
  "tag": {
    "i18n": {
      "eng": "Yukari Fukui"
    },
    "name": "Yukari Fukui",
    "tid": "691b312c-dbfc-4078-aec7-8edece5b80fb",
    "types": [
      "singers",
      "2"
    ],
    "repository": "kara.moe",
    "modified_at": "2020-03-31T19:04:38.698Z"
  }
}