{
  "header": {
    "description": "Karaoke Mugen Tag File",
    "version": 1
  },
  "tag": {
    "i18n": {
      "eng": "Yuka Inokuchi"
    },
    "name": "Yuka Inokuchi",
    "repository": "kara.moe",
    "tid": "7c2dfdde-f9aa-4d66-ba7e-cab3ec0c7c1b",
    "types": [
      "singers",
      "2"
    ]
  }
}