{
  "header": {
    "description": "Karaoke Mugen Tag File",
    "version": 1
  },
  "tag": {
    "i18n": {
      "eng": "Yukari Konno"
    },
    "name": "Yukari Konno",
    "tid": "e41be012-e9be-49ea-94ab-850b243646d1",
    "types": [
      "singers",
      "2"
    ],
    "repository": "kara.moe",
    "modified_at": "2020-03-31T19:04:38.699Z"
  }
}