{
  "header": {
    "description": "Karaoke Mugen Tag File",
    "version": 1
  },
  "tag": {
    "i18n": {
      "eng": "YUKAKO"
    },
    "name": "YUKAKO",
    "tid": "5f9a6e82-4f4b-4a2f-8eb0-98e7687f76ec",
    "types": [
      "songwriters",
      "8"
    ],
    "repository": "kara.moe",
    "modified_at": "2020-03-31T19:04:38.695Z"
  }
}