{
  "header": {
    "description": "Karaoke Mugen Tag File",
    "version": 1
  },
  "tag": {
    "i18n": {
      "eng": "yuka fujii"
    },
    "name": "yuka fujii",
    "repository": "kara.moe",
    "tid": "3e8d6252-67a5-4d63-beb6-11f76da65e5a",
    "types": [
      "creators",
      "4"
    ]
  }
}