{
  "header": {
    "description": "Karaoke Mugen Tag File",
    "version": 1
  },
  "tag": {
    "i18n": {
      "eng": "Yuka Takigami"
    },
    "name": "Yuka Takigami",
    "tid": "b56e20dc-e0ea-452e-8a0f-14deb51c5318",
    "types": [
      "singers",
      "2"
    ],
    "repository": "kara.moe",
    "modified_at": "2020-03-31T19:04:38.693Z"
  }
}