{
  "header": {
    "description": "Karaoke Mugen Tag File",
    "version": 1
  },
  "tag": {
    "i18n": {
      "eng": "Yukana"
    },
    "name": "Yukana",
    "tid": "366e41bb-b816-44c1-9b79-a817888e9a7d",
    "types": [
      "singers",
      "2"
    ],
    "repository": "kara.moe",
    "modified_at": "2020-03-31T19:04:38.696Z"
  }
}