{
  "header": {
    "description": "Karaoke Mugen Tag File",
    "version": 1
  },
  "tag": {
    "i18n": {
      "eng": "Yuki Yagi"
    },
    "name": "Yuki Yagi",
    "repository": "kara.moe",
    "tid": "ed1056a2-4789-444d-bdaa-ed73df3e4522",
    "types": [
      "singers",
      "2"
    ],
    "modified_at": "2020-03-31T19:04:38.716Z"
  }
}