{
  "header": {
    "description": "Karaoke Mugen Tag File",
    "version": 1
  },
  "tag": {
    "i18n": {
      "eng": "Yuki Matsûra"
    },
    "name": "Yuki Matsûra",
    "tid": "38c57a33-f6dd-4219-84cd-46c5a4f0eb4f",
    "types": [
      "songwriters",
      "8",
      "singers",
      "2"
    ],
    "repository": "kara.moe",
    "modified_at": "2020-03-31T19:04:38.710Z"
  }
}