{
  "header": {
    "description": "Karaoke Mugen Tag File",
    "version": 1
  },
  "tag": {
    "i18n": {
      "eng": "Yuki Fukazawa"
    },
    "name": "Yuki Fukazawa",
    "tid": "7279ab78-ed67-42af-86ed-7e2e6a895afb",
    "types": [
      "songwriters",
      "8"
    ],
    "repository": "kara.moe",
    "modified_at": "2020-03-31T19:04:38.704Z"
  }
}