{
  "header": {
    "description": "Karaoke Mugen Tag File",
    "version": 1
  },
  "tag": {
    "i18n": {
      "eng": "Yuki Sakakihara"
    },
    "name": "Yuki Sakakihara",
    "tid": "d3d2814b-b117-43bd-b221-e09926080f54",
    "types": [
      "singers",
      "2"
    ],
    "repository": "kara.moe",
    "modified_at": "2020-03-31T19:04:38.714Z"
  }
}