{
  "header": {
    "description": "Karaoke Mugen Tag File",
    "version": 1
  },
  "tag": {
    "i18n": {
      "eng": "Yuki Nakashima"
    },
    "name": "Yuki Nakashima",
    "tid": "c300a86a-ce96-4eeb-9852-9a02750a60cf",
    "types": [
      "singers",
      "2"
    ],
    "repository": "kara.moe",
    "modified_at": "2020-03-31T19:04:38.712Z"
  }
}