{
  "header": {
    "description": "Karaoke Mugen Tag File",
    "version": 1
  },
  "tag": {
    "i18n": {
      "eng": "Yumiri Hanamori",
      "jpn": "花守ゆみり",
      "qro": "Yumiri Hanamori"
    },
    "name": "Yumiri Hanamori",
    "repository": "kara.moe",
    "tid": "e147824b-dcc2-44e9-9a3e-a25f08d41ff4",
    "types": [
      "singers",
      "2"
    ]
  }
}