{
  "header": {
    "description": "Karaoke Mugen Tag File",
    "version": 1
  },
  "tag": {
    "i18n": {
      "eng": "Yumi Kikuchi"
    },
    "name": "Yumi Kikuchi",
    "tid": "e99b95ad-59b5-4650-ba7a-36b10cc51535",
    "types": [
      "singers",
      "2"
    ],
    "repository": "kara.moe",
    "modified_at": "2020-03-31T19:04:38.740Z"
  }
}