{
  "header": {
    "description": "Karaoke Mugen Tag File",
    "version": 1
  },
  "tag": {
    "i18n": {
      "eng": "Yumi Yoshimura"
    },
    "name": "Yumi Yoshimura",
    "tid": "4cd7fe2e-b989-4df6-be67-d66e3bf81fe3",
    "types": [
      "singers",
      "2"
    ],
    "repository": "kara.moe",
    "modified_at": "2020-03-31T19:04:38.746Z"
  }
}