{
  "header": {
    "description": "Karaoke Mugen Tag File",
    "version": 1
  },
  "tag": {
    "i18n": {
      "eng": "Yumi Uchiyama"
    },
    "name": "Yumi Uchiyama",
    "tid": "6d7de60e-01e1-4b9d-905e-a0a1e90237cb",
    "types": [
      "singers",
      "2"
    ],
    "repository": "kara.moe",
    "modified_at": "2020-03-31T19:04:38.745Z"
  }
}