{
  "header": {
    "description": "Karaoke Mugen Tag File",
    "version": 1
  },
  "tag": {
    "i18n": {
      "eng": "Yuna Itô"
    },
    "name": "Yuna Itô",
    "tid": "61d69e90-415f-4484-826b-96a9b20e9539",
    "types": [
      "singers",
      "2"
    ],
    "repository": "kara.moe",
    "modified_at": "2020-03-31T19:04:38.755Z"
  }
}