{
  "header": {
    "description": "Karaoke Mugen Tag File",
    "version": 1
  },
  "tag": {
    "i18n": {
      "eng": "Yunarun"
    },
    "name": "Yunarun",
    "repository": "kara.moe",
    "tid": "cd1c3ee6-46c0-457f-aad5-c37f255039b4",
    "types": [
      "creators",
      "4"
    ]
  }
}