{
  "header": {
    "description": "Karaoke Mugen Tag File",
    "version": 1
  },
  "tag": {
    "i18n": {
      "eng": "Yuna Yoshino"
    },
    "name": "Yuna Yoshino",
    "tid": "55fbc1b8-18a8-401d-a379-0bec73d035c6",
    "types": [
      "singers",
      "2"
    ],
    "repository": "kara.moe",
    "modified_at": "2020-03-31T19:04:38.755Z"
  }
}