{
  "header": {
    "description": "Karaoke Mugen Tag File",
    "version": 1
  },
  "tag": {
    "i18n": {
      "qro": "Yunna Kisaragi",
      "jpn": "如月結愛"
    },
    "name": "Yunna Kisaragi",
    "repository": "kara.moe",
    "tid": "6967a93f-4d97-4ee1-bf67-42e36c2514f2",
    "types": [
      "songwriters",
      "8"
    ]
  }
}