{
  "header": {
    "description": "Karaoke Mugen Tag File",
    "version": 1
  },
  "tag": {
    "i18n": {
      "eng": "YUPA"
    },
    "name": "YUPA",
    "tid": "47515ec6-2cae-40b5-b426-6e16c0a9d0cd",
    "types": [
      "songwriters",
      "8"
    ],
    "repository": "kara.moe",
    "modified_at": "2020-03-31T19:04:38.758Z"
  }
}