{
  "header": {
    "description": "Karaoke Mugen Tag File",
    "version": 1
  },
  "tag": {
    "i18n": {
      "eng": "Yurika Kubo"
    },
    "name": "Yurika Kubo",
    "tid": "0218ed43-3fff-4261-9036-5a50a07406d9",
    "types": [
      "singers",
      "2"
    ],
    "repository": "kara.moe",
    "modified_at": "2020-03-31T19:04:38.767Z"
  }
}