{
  "header": {
    "description": "Karaoke Mugen Tag File",
    "version": 1
  },
  "tag": {
    "i18n": {
      "eng": "YURIA"
    },
    "name": "YURIA",
    "tid": "87fd793b-9a29-4cab-aaba-f3241eeb7441",
    "types": [
      "singers",
      "2",
      "songwriters",
      "8"
    ],
    "repository": "kara.moe",
    "modified_at": "2020-03-31T19:04:38.765Z"
  }
}