{
  "header": {
    "description": "Karaoke Mugen Tag File",
    "version": 1
  },
  "tag": {
    "i18n": {
      "eng": "YURiKA"
    },
    "name": "YURiKA",
    "tid": "6668cc52-b622-41d7-b7b7-24d48a08045c",
    "types": [
      "singers",
      "2"
    ],
    "repository": "kara.moe",
    "modified_at": "2020-03-31T19:04:38.768Z"
  }
}