{
  "header": {
    "description": "Karaoke Mugen Tag File",
    "version": 1
  },
  "tag": {
    "i18n": {
      "eng": "Yurie Kokubu"
    },
    "name": "Yurie Kokubu",
    "tid": "b9fc0c67-c7c5-49f0-9b04-36e7744ca434",
    "types": [
      "songwriters",
      "8"
    ],
    "repository": "kara.moe",
    "modified_at": "2020-03-31T19:04:38.765Z"
  }
}