{
  "header": {
    "description": "Karaoke Mugen Tag File",
    "version": 1
  },
  "tag": {
    "i18n": {
      "eng": "Yurie Kozakai"
    },
    "name": "Yurie Kozakai",
    "tid": "21a44238-f7b6-4e3b-bbc1-f9d42e757918",
    "types": [
      "singers",
      "2"
    ],
    "repository": "kara.moe",
    "modified_at": "2020-03-31T19:04:38.766Z"
  }
}