{
  "header": {
    "description": "Karaoke Mugen Tag File",
    "version": 1
  },
  "tag": {
    "external_database_ids": {
      "anilist": 12403,
      "myanimelist": 12403,
      "kitsu": 6724
    },
    "i18n": {
      "eng": "Yuru Yuri ♪♪",
      "jpn": "ゆるゆり♪♪",
      "qro": "Yuru Yuri II"
    },
    "modified_at": "2020-03-31T19:04:33.191Z",
    "name": "Yuru Yuri II",
    "repository": "kara.moe",
    "tid": "4f100d1c-5f0b-4259-874b-693da378eb3e",
    "types": [
      "series",
      "1"
    ]
  }
}