{
  "header": {
    "description": "Karaoke Mugen Tag File",
    "version": 1
  },
  "tag": {
    "i18n": {
      "eng": "Yuta Kasai"
    },
    "name": "Yuta Kasai",
    "tid": "f66b03b0-f5fd-4693-b2e8-d98ed24ef78e",
    "types": [
      "songwriters",
      "8"
    ],
    "repository": "kara.moe",
    "modified_at": "2020-03-31T19:04:38.775Z"
  }
}