{
  "header": {
    "description": "Karaoke Mugen Tag File",
    "version": 1
  },
  "tag": {
    "i18n": {
      "eng": "Yû Takahashi"
    },
    "name": "Yû Takahashi",
    "tid": "9cf7c30c-7b8f-4ddd-9727-7c81b462cee2",
    "types": [
      "singers",
      "2",
      "songwriters",
      "8"
    ],
    "repository": "kara.moe",
    "modified_at": "2020-03-31T19:04:38.783Z"
  }
}