{
  "header": {
    "description": "Karaoke Mugen Tag File",
    "version": 1
  },
  "tag": {
    "i18n": {
      "eng": "Yû Asakawa"
    },
    "name": "Yû Asakawa",
    "tid": "4e41ba39-b3cd-4d38-9db4-c667287f9853",
    "types": [
      "singers",
      "2"
    ],
    "repository": "kara.moe",
    "modified_at": "2020-03-31T19:04:38.778Z"
  }
}