{
  "header": {
    "description": "Karaoke Mugen Tag File",
    "version": 1
  },
  "tag": {
    "i18n": {
      "eng": "Yû Kanade"
    },
    "name": "Yû Kanade",
    "repository": "kara.moe",
    "tid": "56bbe02b-97f5-427d-bc0a-bfa5700b052f",
    "types": [
      "singers",
      "2"
    ]
  }
}