{
  "header": {
    "description": "Karaoke Mugen Tag File",
    "version": 1
  },
  "tag": {
    "i18n": {
      "eng": "Yû Aku"
    },
    "name": "Yû Aku",
    "tid": "db7941a6-06be-4405-8e2c-a8cdcb6ea5d8",
    "types": [
      "songwriters",
      "8"
    ],
    "repository": "kara.moe",
    "modified_at": "2020-03-31T19:04:38.777Z"
  }
}