{
  "header": {
    "description": "Karaoke Mugen Tag File",
    "version": 1
  },
  "tag": {
    "i18n": {
      "eng": "Yû Mikage"
    },
    "name": "Yû Mikage",
    "tid": "5bd6880a-2367-4500-89c1-f902a230f64b",
    "types": [
      "singers",
      "2"
    ],
    "repository": "kara.moe",
    "modified_at": "2020-03-31T19:04:38.779Z"
  }
}