{
  "header": {
    "description": "Karaoke Mugen Tag File",
    "version": 1
  },
  "tag": {
    "i18n": {
      "eng": "Yû'ichirô Iwai"
    },
    "name": "Yû'ichirô Iwai",
    "tid": "5fc5d27b-f73f-4b60-8382-2c7d1c279f4e",
    "types": [
      "songwriters",
      "8"
    ],
    "repository": "kara.moe",
    "modified_at": "2020-03-31T19:04:38.785Z"
  }
}