{
  "header": {
    "description": "Karaoke Mugen Tag File",
    "version": 1
  },
  "tag": {
    "i18n": {
      "eng": "YuU"
    },
    "name": "YuU",
    "tid": "e09d0352-8f52-4311-9123-60518aa871d9",
    "types": [
      "singers",
      "2"
    ],
    "repository": "kara.moe",
    "modified_at": "2020-03-31T19:04:38.786Z"
  }
}