{
  "header": {
    "description": "Karaoke Mugen Tag File",
    "version": 1
  },
  "tag": {
    "i18n": {
      "eng": "Yûhei Satellite"
    },
    "modified_at": "2020-04-18T17:42:56.330Z",
    "name": "Yûhei Satellite",
    "repository": "kara.moe",
    "tid": "5ba06772-0887-4b88-950b-bb7bdf97dd10",
    "types": [
      "creators",
      "4"
    ]
  }
}