{
  "header": {
    "description": "Karaoke Mugen Tag File",
    "version": 1
  },
  "tag": {
    "i18n": {
      "eng": "Yûho Iwasato"
    },
    "name": "Yûho Iwasato",
    "tid": "97fbc0b6-6408-4273-bdb4-0c900e0ac945",
    "types": [
      "songwriters",
      "8"
    ],
    "repository": "kara.moe",
    "modified_at": "2020-03-31T19:04:38.789Z"
  }
}