{
  "header": {
    "description": "Karaoke Mugen Tag File",
    "version": 1
  },
  "tag": {
    "i18n": {
      "eng": "Yûichi Iguchi"
    },
    "name": "Yûichi Iguchi",
    "tid": "67221adb-71ac-4796-b335-9228e7df1bbb",
    "types": [
      "singers",
      "2"
    ],
    "repository": "kara.moe",
    "modified_at": "2020-03-31T19:04:38.790Z"
  }
}