{
  "header": {
    "description": "Karaoke Mugen Tag File",
    "version": 1
  },
  "tag": {
    "i18n": {
      "eng": "Yûichi Ôura"
    },
    "name": "Yûichi Ôura",
    "tid": "8d27cb87-1e9c-4e34-9327-706bf1487e13",
    "types": [
      "singers",
      "2",
      "songwriters",
      "8"
    ],
    "repository": "kara.moe",
    "modified_at": "2020-03-31T19:04:38.792Z"
  }
}