{
  "header": {
    "description": "Karaoke Mugen Tag File",
    "version": 1
  },
  "tag": {
    "i18n": {
      "eng": "Yûjirô Okano"
    },
    "name": "Yûjirô Okano",
    "tid": "6e80619a-e986-4c91-bc26-1cd2ff93af42",
    "types": [
      "songwriters",
      "8"
    ],
    "repository": "kara.moe",
    "modified_at": "2020-03-31T19:04:38.800Z"
  }
}