{
  "header": {
    "description": "Karaoke Mugen Tag File",
    "version": 1
  },
  "tag": {
    "aliases": [
      "YuYuYu",
      "YuuYuuYuu",
      "WaSuYu",
      "Yuuki Yuuna wa Yuusha de Aru: Yuusha no Shou",
      "yuuki",
      "yuuna",
      "yuusha",
      "shou"
    ],
    "external_database_ids": {
      "anilist": 97769,
      "myanimelist": 34445,
      "kitsu": 13160
    },
    "i18n": {
      "eng": "Yuki Yuna is a Hero: The Hero Chapter",
      "jpn": "結城友奈は勇者である -勇者の章-",
      "qro": "Yûki Yûna wa Yûsha de Aru: Yûsha no Shô",
      "chi": "结城友奈是勇者 勇者之章",
      "kor": "유우키 유우나는 용사다: 용사의 장"
    },
    "name": "Yûki Yûna wa Yûsha de Aru: Yûsha no Shô",
    "repository": "kara.moe",
    "tid": "e9c35a26-c683-4297-b8ee-4c3d82635ee9",
    "types": [
      "series",
      "1"
    ]
  }
}