{
  "header": {
    "description": "Karaoke Mugen Tag File",
    "version": 1
  },
  "tag": {
    "i18n": {
      "eng": "Yûko Oono"
    },
    "name": "Yûko Oono",
    "tid": "8b2fcbb8-aaf0-4c39-bd29-e2600656c84c",
    "types": [
      "singers",
      "2"
    ],
    "repository": "kara.moe",
    "modified_at": "2020-03-31T19:04:38.823Z"
  }
}