{
  "header": {
    "description": "Karaoke Mugen Tag File",
    "version": 1
  },
  "tag": {
    "i18n": {
      "eng": "Yûko Sumitomo"
    },
    "name": "Yûko Sumitomo",
    "tid": "1bfd4cf5-4083-4bb9-9a3c-1615b6329a76",
    "types": [
      "singers",
      "2"
    ],
    "repository": "kara.moe",
    "modified_at": "2020-03-31T19:04:38.826Z"
  }
}