{
  "header": {
    "description": "Karaoke Mugen Tag File",
    "version": 1
  },
  "tag": {
    "i18n": {
      "eng": "Yûki Tanaka"
    },
    "modified_at": "2020-11-27T01:01:42.552Z",
    "name": "Yûki Tanaka",
    "repository": "kara.moe",
    "tid": "5f006ddc-f369-4b88-85da-9f33675cfe6c",
    "types": [
      "songwriters",
      "8"
    ]
  }
}