{
  "header": {
    "description": "Karaoke Mugen Tag File",
    "version": 1
  },
  "tag": {
    "i18n": {
      "eng": "Yûka Nanri"
    },
    "name": "Yûka Nanri",
    "tid": "11717b5d-db4e-4b3f-9de0-1a9c03dc0871",
    "types": [
      "singers",
      "2"
    ],
    "repository": "kara.moe",
    "modified_at": "2020-03-31T19:04:38.802Z"
  }
}