{
  "header": {
    "description": "Karaoke Mugen Tag File",
    "version": 1
  },
  "tag": {
    "aliases": [
      "yuyuyu",
      "WaSuYu",
      "YuuYuuYuu",
      "Yuuki Yuuna wa Yuusha de Aru",
      "yuuki",
      "yuuna",
      "yuusha"
    ],
    "external_database_ids": {
      "anilist": 20800,
      "myanimelist": 25519,
      "kitsu": 8638
    },
    "i18n": {
      "chi": "结城友奈是勇者",
      "eng": "Yuki Yuna is a Hero",
      "jpn": "結城友奈は勇者である",
      "kor": "유우키 유우나는 용사다",
      "qro": "Yûki Yûna wa Yûsha de Aru"
    },
    "name": "Yûki Yûna wa Yûsha de Aru",
    "repository": "kara.moe",
    "tid": "f57709e6-ded9-43e0-b72f-f5e5cca8382a",
    "types": [
      "series",
      "1",
      "franchises",
      "18"
    ]
  }
}