{
  "header": {
    "description": "Karaoke Mugen Tag File",
    "version": 1
  },
  "tag": {
    "i18n": {
      "eng": "Yûko Ogura"
    },
    "name": "Yûko Ogura",
    "tid": "575acbe8-5275-4f51-b608-f3dbf2f54067",
    "types": [
      "singers",
      "2"
    ],
    "repository": "kara.moe",
    "modified_at": "2020-03-31T19:04:38.823Z"
  }
}