{
  "header": {
    "description": "Karaoke Mugen Tag File",
    "version": 1
  },
  "tag": {
    "i18n": {
      "eng": "Yûki Kimura"
    },
    "name": "Yûki Kimura",
    "tid": "31081cc9-0739-4dcd-bee3-b4d055af70a5",
    "types": [
      "songwriters",
      "8"
    ],
    "repository": "kara.moe",
    "modified_at": "2020-03-31T19:04:38.807Z"
  }
}