{
  "header": {
    "description": "Karaoke Mugen Tag File",
    "version": 1
  },
  "tag": {
    "i18n": {
      "eng": "Yûki Tai"
    },
    "name": "Yûki Tai",
    "tid": "9a5b45fc-60ce-4d76-8239-1e689e87d3e3",
    "types": [
      "singers",
      "2"
    ],
    "repository": "kara.moe",
    "modified_at": "2020-03-31T19:04:38.815Z"
  }
}