{
  "header": {
    "description": "Karaoke Mugen Tag File",
    "version": 1
  },
  "tag": {
    "i18n": {
      "eng": "Yûma Uchida"
    },
    "name": "Yûma Uchida",
    "tid": "a11bdf24-a5c2-4747-b59b-0f196501a8db",
    "types": [
      "singers",
      "2"
    ],
    "repository": "kara.moe",
    "modified_at": "2020-03-31T19:04:38.828Z"
  }
}