{
  "header": {
    "description": "Karaoke Mugen Tag File",
    "version": 1
  },
  "tag": {
    "i18n": {
      "qro": "Yûna Fukinbara",
      "jpn": "富金原佑菜"
    },
    "name": "Yûna Fukinbara",
    "repository": "kara.moe",
    "tid": "35d72d06-55e2-4c64-8551-fbc202b29148",
    "types": [
      "singers",
      "2"
    ]
  }
}