{
  "header": {
    "description": "Karaoke Mugen Tag File",
    "version": 1
  },
  "tag": {
    "i18n": {
      "eng": "Yûsuke Yamamoto"
    },
    "name": "Yûsuke Yamamoto",
    "tid": "59eebd18-ff00-4aac-9d37-78009dda88ec",
    "types": [
      "songwriters",
      "8"
    ],
    "repository": "kara.moe",
    "modified_at": "2020-03-31T19:04:38.841Z"
  }
}