{
  "header": {
    "description": "Karaoke Mugen Tag File",
    "version": 1
  },
  "tag": {
    "i18n": {
      "eng": "Yûsuke Hoguchi"
    },
    "name": "Yûsuke Hoguchi",
    "tid": "9e67d229-6519-47b4-9858-c75a1e08e1c2",
    "types": [
      "songwriters",
      "8"
    ],
    "repository": "kara.moe",
    "modified_at": "2020-03-31T19:04:38.831Z"
  }
}