{
  "header": {
    "description": "Karaoke Mugen Tag File",
    "version": 1
  },
  "tag": {
    "i18n": {
      "eng": "Yûsuke Tachizaki"
    },
    "name": "Yûsuke Tachizaki",
    "tid": "d3bef904-a52a-48b8-8e21-e35bbe134b13",
    "types": [
      "songwriters",
      "8"
    ],
    "repository": "kara.moe",
    "modified_at": "2020-03-31T19:04:38.840Z"
  }
}