{
  "header": {
    "description": "Karaoke Mugen Tag File",
    "version": 1
  },
  "tag": {
    "i18n": {
      "eng": "Yuusha Party"
    },
    "name": "Yuusha Party",
    "tid": "f157fa55-6e42-4587-b53a-db4a470fe2bd",
    "types": [
      "singers",
      "2"
    ],
    "repository": "kara.moe",
    "modified_at": "2020-03-31T19:04:38.830Z"
  }
}