{
  "header": {
    "description": "Karaoke Mugen Tag File",
    "version": 1
  },
  "tag": {
    "i18n": {
      "eng": "Yûsuke Itagaki"
    },
    "name": "Yûsuke Itagaki",
    "tid": "12808328-f8b1-4569-be1c-b103944e9161",
    "types": [
      "songwriters",
      "8"
    ],
    "repository": "kara.moe",
    "modified_at": "2020-03-31T19:04:38.832Z"
  }
}