{
  "header": {
    "description": "Karaoke Mugen Tag File",
    "version": 1
  },
  "tag": {
    "i18n": {
      "eng": "Yûsuke Shirato"
    },
    "name": "Yûsuke Shirato",
    "tid": "241521eb-f66d-48e6-9b58-2f957edddaff",
    "types": [
      "songwriters",
      "8"
    ],
    "repository": "kara.moe",
    "modified_at": "2020-03-31T19:04:38.839Z"
  }
}