{
  "header": {
    "description": "Karaoke Mugen Tag File",
    "version": 1
  },
  "tag": {
    "i18n": {
      "eng": "Yûsuke Chiba"
    },
    "name": "Yûsuke Chiba",
    "tid": "127b74f6-1875-44c8-8381-960575a6c42e",
    "types": [
      "songwriters",
      "8"
    ],
    "repository": "kara.moe",
    "modified_at": "2020-03-31T19:04:38.831Z"
  }
}