{
  "header": {
    "description": "Karaoke Mugen Tag File",
    "version": 1
  },
  "tag": {
    "i18n": {
      "eng": "Yûsuke Miyaichi"
    },
    "name": "Yûsuke Miyaichi",
    "tid": "a9f8e9e8-03de-45a3-80c2-48c9408cce89",
    "types": [
      "songwriters",
      "8"
    ],
    "repository": "kara.moe",
    "modified_at": "2020-03-31T19:04:38.834Z"
  }
}