{
  "header": {
    "description": "Karaoke Mugen Tag File",
    "version": 1
  },
  "tag": {
    "i18n": {
      "eng": "Yûta Orisaka"
    },
    "name": "Yûta Orisaka",
    "repository": "kara.moe",
    "tid": "91638ed5-1517-4a4b-bedb-6c70973313f2",
    "types": [
      "songwriters",
      "8"
    ]
  }
}