{
  "header": {
    "description": "Karaoke Mugen Tag File",
    "version": 1
  },
  "tag": {
    "i18n": {
      "eng": "Yûta Matsura"
    },
    "name": "Yûta Matsura",
    "tid": "d6f324b4-54ec-4edf-997b-4e2691781ea0",
    "types": [
      "songwriters",
      "8"
    ],
    "repository": "kara.moe",
    "modified_at": "2020-03-31T19:04:38.844Z"
  }
}