{
  "header": {
    "description": "Karaoke Mugen Tag File",
    "version": 1
  },
  "tag": {
    "i18n": {
      "eng": "Yûta Kasuya"
    },
    "name": "Yûta Kasuya",
    "tid": "827c6be5-f7de-44d6-bc75-9f25894297e9",
    "types": [
      "singers",
      "2"
    ],
    "repository": "kara.moe",
    "modified_at": "2020-03-31T19:04:38.843Z"
  }
}