{
  "header": {
    "description": "Karaoke Mugen Tag File",
    "version": 1
  },
  "tag": {
    "i18n": {
      "eng": "Yûya Matsushita"
    },
    "name": "Yûya Matsushita",
    "tid": "b331941f-c11d-424b-ab3b-761ea8284470",
    "types": [
      "singers",
      "2"
    ],
    "repository": "kara.moe",
    "modified_at": "2020-03-31T19:04:38.851Z"
  }
}