{
  "header": {
    "description": "Karaoke Mugen Tag File",
    "version": 1
  },
  "tag": {
    "i18n": {
      "eng": "Yuyoyuppe"
    },
    "name": "Yuyoyuppe",
    "repository": "kara.moe",
    "tid": "270b91af-2e60-4dad-bbca-dc0b680a9efb",
    "types": [
      "songwriters",
      "8",
      "singers",
      "2"
    ]
  }
}