{
  "header": {
    "description": "Karaoke Mugen Tag File",
    "version": 1
  },
  "tag": {
    "i18n": {
      "jpn": "癒月",
      "qro": "Yuzuki"
    },
    "name": "Yuzuki",
    "repository": "kara.moe",
    "tid": "66eb7e74-681d-4eb5-8b4c-f771877540a1",
    "types": [
      "songwriters",
      "8",
      "singers",
      "2"
    ]
  }
}