{
  "header": {
    "description": "Karaoke Mugen Tag File",
    "version": 1
  },
  "tag": {
    "i18n": {
      "eng": "Yves Balak"
    },
    "name": "Yves Balak",
    "tid": "04f9fddb-838f-4a49-81fb-3cee3d398323",
    "types": [
      "songwriters",
      "8"
    ],
    "repository": "kara.moe",
    "modified_at": "2020-03-31T19:04:38.860Z"
  }
}