{
  "header": {
    "description": "Karaoke Mugen Tag File",
    "version": 1
  },
  "tag": {
    "i18n": {
      "eng": "Zebda"
    },
    "modified_at": "2021-05-21T15:40:16.590Z",
    "name": "Zebda",
    "repository": "kara.moe",
    "tid": "96d4d938-138c-49a6-9d74-c56d46646251",
    "types": [
      "songwriters",
      "8",
      "singers",
      "2"
    ]
  }
}