{
  "header": {
    "description": "Karaoke Mugen Tag File",
    "version": 1
  },
  "tag": {
    "aliases": [
      "Anton Zaslavski"
    ],
    "i18n": {
      "eng": "Zedd"
    },
    "modified_at": "2021-11-13T12:57:40.844Z",
    "name": "Zedd",
    "repository": "kara.moe",
    "tid": "a3033675-6729-42ed-95cd-00a6c89ef4fc",
    "types": [
      "songwriters",
      "8"
    ]
  }
}