{
  "header": {
    "description": "Karaoke Mugen Tag File",
    "version": 1
  },
  "tag": {
    "i18n": {
      "eng": "ZekeySpaceyLizard"
    },
    "name": "ZekeySpaceyLizard",
    "repository": "kara.moe",
    "tid": "65f9f8a3-e7f5-48b5-ba1d-9801c6e1188c",
    "types": [
      "creators",
      "4"
    ],
    "modified_at": "2020-03-31T19:04:38.867Z"
  }
}