{
  "header": {
    "description": "Karaoke Mugen Tag File",
    "version": 1
  },
  "tag": {
    "i18n": {
      "eng": "Zektbach"
    },
    "name": "Zektbach",
    "tid": "3d37cf90-c62a-4c79-8d08-2156c0ccbd6b",
    "types": [
      "songwriters",
      "8"
    ],
    "repository": "kara.moe",
    "modified_at": "2020-03-31T19:04:38.868Z"
  }
}