{
  "header": {
    "description": "Karaoke Mugen Tag File",
    "version": 1
  },
  "tag": {
    "i18n": {
      "eng": "Zelvana Limited"
    },
    "name": "Zelvana Limited",
    "tid": "bb82951b-0701-44d9-9748-a1c4874f4002",
    "types": [
      "creators",
      "4"
    ],
    "repository": "kara.moe",
    "modified_at": "2020-03-31T19:04:38.869Z"
  }
}