{
  "header": {
    "description": "Karaoke Mugen Tag File",
    "version": 1
  },
  "tag": {
    "i18n": {
      "eng": "Zenko Mitsuya"
    },
    "name": "Zenko Mitsuya",
    "repository": "kara.moe",
    "tid": "615138a3-7f27-40f7-94e9-86dbe2ec39a4",
    "types": [
      "songwriters",
      "8"
    ]
  }
}