{
  "header": {
    "description": "Karaoke Mugen Tag File",
    "version": 1
  },
  "tag": {
    "aliases": [
      " ZeroZine"
    ],
    "i18n": {
      "eng": "ZeroZine"
    },
    "name": "ZeroZine",
    "tid": "51ebf97e-2f0c-4292-8cdd-aa232f649238",
    "types": [
      "songwriters",
      "8"
    ],
    "repository": "kara.moe",
    "modified_at": "2020-03-31T19:04:38.872Z"
  }
}