{
  "header": {
    "description": "Karaoke Mugen Tag File",
    "version": 1
  },
  "tag": {
    "aliases": [
      "Familiar of Zero 2",
      "Familiar of Zero II",
      "Familiar of Zero: Knight of the Two Moons",
      "FoZ 2",
      "Zero no Tsukaima 2nd Series",
      "Zero no Tsukaima II",
      "ZnT 2",
      "ZnT Futatsuki no Kishi",
      "zero2",
      "znt2",
      "Подручный бездарной Луизы: Рыцарь двух лун",
      "ゼロの使い魔 第2シリーズ",
      "零之使魔-双月的骑士"
    ],
    "external_database_ids": {
      "anilist": 1840,
      "myanimelist": 1840,
      "kitsu": 1657
    },
    "i18n": {
      "eng": "The Familiar of Zero: Knight of the Twin Moons",
      "jpn": "ゼロの使い魔 ~双月の騎士~",
      "kor": "제로의 사역마: 쌍월의 기사",
      "qro": "Zero no Tsukaima Futatsuki no Kishi"
    },
    "modified_at": "2020-03-31T19:04:33.206Z",
    "name": "Zero no Tsukaima Futatsuki no Kishi",
    "repository": "kara.moe",
    "tid": "e7406623-ea86-49c1-9bfd-53e81c921f92",
    "types": [
      "series",
      "1"
    ]
  }
}