{
  "header": {
    "description": "Karaoke Mugen Tag File",
    "version": 1
  },
  "tag": {
    "i18n": {
      "eng": "Zetsubô Shôjo-tachi"
    },
    "name": "Zetsubô Shôjo-tachi",
    "tid": "7eedaa2c-b90a-4f9b-a55b-6dd402981c68",
    "types": [
      "singers",
      "2"
    ],
    "repository": "kara.moe",
    "modified_at": "2020-03-31T19:04:38.873Z"
  }
}