{
  "header": {
    "description": "Karaoke Mugen Tag File",
    "version": 1
  },
  "tag": {
    "aliases": [
      "Absolute Boyfriend"
    ],
    "i18n": {
      "eng": "Zettai Kareshi: Kanzen Muketsu no Koibito Robot",
      "jpn": "絶対彼氏 〜完全無欠の恋人ロボット〜",
      "qro": "Zettai Kareshi: Kanzen Muketsu no Koibito Robot"
    },
    "modified_at": "2020-08-19T15:49:13.534Z",
    "name": "Zettai Kareshi: Kanzen Muketsu no Koibito Robot",
    "repository": "kara.moe",
    "tid": "871aa397-a602-4313-a453-6c40e723217b",
    "types": [
      "series",
      "1"
    ]
  }
}