{
  "header": {
    "description": "Karaoke Mugen Tag File",
    "version": 1
  },
  "tag": {
    "aliases": [
      "Zhao Peng"
    ],
    "i18n": {
      "chi": "赵鹏",
      "qro": "Zhào Péng"
    },
    "name": "Zhào Péng",
    "repository": "kara.moe",
    "tid": "48d35965-1e50-4dff-a5d4-431e1ffa4f7d",
    "types": [
      "songwriters",
      "8"
    ]
  }
}