{
  "header": {
    "description": "Karaoke Mugen Tag File",
    "version": 1
  },
  "tag": {
    "i18n": {
      "eng": "Zi KILL"
    },
    "name": "Zi KILL",
    "tid": "7f6581cf-925f-4b3b-8eac-5b5aa8a291f3",
    "types": [
      "singers",
      "2"
    ],
    "repository": "kara.moe",
    "modified_at": "2020-03-31T19:04:38.878Z"
  }
}