{
  "header": {
    "description": "Karaoke Mugen Tag File",
    "version": 1
  },
  "tag": {
    "i18n": {
      "eng": "Ziassan"
    },
    "name": "Ziassan",
    "repository": "kara.moe",
    "tid": "c9b8b391-648e-4681-b264-13eb63090ed2",
    "types": [
      "authors",
      "6",
      "songwriters",
      "8"
    ]
  }
}