{
  "header": {
    "description": "Karaoke Mugen Tag File",
    "version": 1
  },
  "tag": {
    "i18n": {
      "eng": "ZIGGY"
    },
    "name": "ZIGGY",
    "tid": "0382b5eb-bf24-4f41-93c3-d99d1af7cdf3",
    "types": [
      "singers",
      "2"
    ],
    "repository": "kara.moe",
    "modified_at": "2020-03-31T19:04:38.879Z"
  }
}