{
  "header": {
    "description": "Karaoke Mugen Tag File",
    "version": 1
  },
  "tag": {
    "i18n": {
      "eng": "Zoggoth"
    },
    "name": "Zoggoth",
    "repository": "kara.moe",
    "tid": "74cb50bf-9693-47d3-bb83-be171fd9d71f",
    "types": [
      "authors",
      "6"
    ]
  }
}