{
  "header": {
    "description": "Karaoke Mugen Tag File",
    "version": 1
  },
  "tag": {
    "external_database_ids": {
      "anilist": 101228,
      "myanimelist": 37395,
      "kitsu": 41088
    },
    "i18n": {
      "eng": "Zoids Wild",
      "jpn": "ゾイドワイルド",
      "chi": "索斯机械兽WILD",
      "kor": "조이드 와일드",
      "qro": "Zoids Wild"
    },
    "modified_at": "2020-09-11T17:22:39.748Z",
    "name": "Zoids Wild",
    "repository": "kara.moe",
    "tid": "2029ace0-6886-403e-83f3-0cb927521dd5",
    "types": [
      "series",
      "1"
    ]
  }
}