{
  "header": {
    "description": "Karaoke Mugen Tag File",
    "version": 1
  },
  "tag": {
    "i18n": {
      "eng": "ŹOOĻ"
    },
    "name": "ŹOOĻ",
    "tid": "a9187552-0164-447b-a991-c8c4c0d8f86c",
    "types": [
      "singers",
      "2"
    ],
    "repository": "kara.moe",
    "modified_at": "2020-03-31T19:04:38.883Z"
  }
}