{
  "header": {
    "description": "Karaoke Mugen Tag File",
    "version": 1
  },
  "tag": {
    "i18n": {
      "eng": "Zuì Xuě",
      "chi": "醉雪"
    },
    "modified_at": "2021-03-13T16:59:24.980Z",
    "name": "Zuì Xuě",
    "repository": "kara.moe",
    "tid": "6f1b1455-fa0f-4d70-8b3b-08228647ad3b",
    "types": [
      "singers",
      "2"
    ]
  }
}