{
  "header": {
    "description": "Karaoke Mugen Tag File",
    "version": 1
  },
  "tag": {
    "i18n": {
      "eng": "zXz"
    },
    "name": "zXz",
    "repository": "kara.moe",
    "tid": "c0a4b5ef-85ef-400f-9419-a6df9d8f38a7",
    "types": [
      "authors",
      "6"
    ]
  }
}